patient_id	covar_name	date
24730236	A02BC02	31/05/2011
6757349	A02BC02	25/11/2010
10333557	A02BC02	30/10/2007
16927882	A02BC02	23/07/2009
1726934	A02BC02	03/01/2011
8556396	A02BC02	29/03/2011
12774625	A02BC02	11/06/2007
6040714	A02BC02	23/04/2008
8654002	A02BC02	01/06/2011
12774533	A02BC02	10/05/2011
8292476	A02BC02	23/02/2011
5812962	A02BC02	24/03/2011
61642	A02BC02	10/03/2008
21871733	A02BC02	31/03/2011
23471437	A02BC02	18/04/2011
12774510	A02BC02	23/07/2009
20557688	A02BC02	08/04/2010
5031451	A02BC02	27/11/2009
6749631	A02BC02	26/11/2009
61487	A02BC02	18/05/2011
24950727	A02BC02	13/04/2011
21870482	A02BC02	20/05/2011
16099901	A02BC02	05/05/2011
12774885	A02BC02	07/12/2010
12683966	A02BC02	18/10/2006
1069458	A02BC02	19/02/2010
208706	A02BC02	14/12/2006
3939492	A02BC02	18/08/2003
24729230	A02BC02	20/11/2009
7405502	A02BC02	15/03/2006
15384882	A02BC02	21/06/2010
294530	A02BC02	12/05/2009
9134181	A02BC02	07/07/2010
9388796	A02BC02	08/08/2007
8292029	A02BC02	01/09/2010
9983678	A02BC02	10/12/2003
1069599	A02BC02	04/02/2010
24730115	A02BC02	25/06/2010
9370774	A02BC02	10/05/2005
15854322	A02BC02	18/08/2009
6757275	A02BC02	20/04/2011
9231971	A02BC02	23/03/2009
10394066	A02BC02	01/12/2005
948728	A02BC02	12/05/2008
21369976	A02BC02	05/07/2006
12772856	A02BC02	30/06/2009
8785722	A02BC02	06/03/2009
12688967	A02BC02	15/04/2010
1122381	A02BC02	27/12/2007
8977128	A02BC02	23/01/2009
7353549	A02BC02	17/05/2011
7351352	A02BC02	19/05/2004
20547221	A02BC02	01/03/2011
1938644	A02BC02	23/07/2003
9383919	A02BC02	05/05/2010
12857769	A02BC02	12/01/2004
608929	A02BC02	28/02/2008
9387533	A02BC02	02/06/2010
9389011	A02BC02	09/10/2007
12830135	A02BC02	22/01/2010
10270319	A02BC02	22/07/2008
15667860	A02BC02	03/05/2011
6080444	A02BC02	17/03/2011
9319097	A02BC02	22/10/2007
8555693	A02BC02	18/12/2007
8558909	A02BC02	30/05/2011
12694616	A02BC02	23/12/2010
5027621	A02BC02	22/06/2010
10270239	A02BC02	04/10/2010
8786041	A02BC02	14/03/2011
7351316	A02BC02	29/03/2011
5867088	A02BC02	03/05/2011
15880887	A02BC02	02/03/2011
8661980	A02BC02	30/07/2010
3120941	A02BC02	30/11/2009
1069182	A02BC02	03/05/2010
6746616	A02BC02	02/04/2003
601168	A02BC02	16/05/2011
6757687	A02BC02	11/05/2011
6757389	A02BC02	25/05/2011
7242025	A02BC02	02/08/2005
9373053	A02BC02	26/02/2008
9997839	A02BC02	12/09/2005
62859	A02BC02	11/03/2011
20549780	A02BC02	30/03/2010
23442756	A02BC02	23/05/2011
12695840	A02BC02	18/06/2009
1069020	A02BC02	06/05/2011
6747967	A02BC02	24/03/2011
9180128	A02BC02	09/06/2010
12696466	A02BC02	01/06/2009
6749370	A02BC02	05/07/2006
16532021	A02BC02	24/09/2010
13861443	A02BC02	10/02/2009
9996121	A02BC02	24/02/2005
16915547	A02BC02	19/05/2011
8278064	A02BC02	13/04/2010
12174179	A02BC02	18/02/2009
3304834	A02BC02	21/01/2005
9250225	A02BC02	11/04/2006
21871596	A02BC02	31/05/2011
6746487	A02BC02	31/05/2011
12688464	A02BC02	17/07/2009
9382870	A02BC02	19/05/2011
20566164	A02BC02	22/02/2008
9134395	A02BC02	04/10/2000
15273153	A02BC02	18/02/2011
17217183	A02BC02	01/06/2011
9327383	A02BC02	13/10/2004
16559495	A02BC02	18/12/2009
12182868	A02BC02	30/04/2007
1517271	A02BC02	30/05/2011
17419922	A02BC02	17/06/2010
5812100	A02BC02	14/04/2010
9983430	A02BC02	07/06/2007
8651387	A02BC02	23/02/2011
1063691	A02BC02	17/11/2010
207716	A02BC02	21/07/2010
12690514	A02BC02	09/02/2011
25043031	A02BC02	15/09/2008
6177821	A02BC02	16/05/2011
12183551	A02BC02	02/07/2008
12171465	A02BC02	02/07/2003
12478422	A02BC02	13/01/2011
6415196	A02BC02	11/03/2011
175245	A02BC02	25/01/2010
9389876	A02BC02	05/05/2011
1432627	A02BC02	08/04/2005
25051083	A02BC02	18/05/2009
10331385	A02BC02	13/08/2008
7221375	A02BC02	19/10/2009
5865734	A02BC02	10/05/2011
20546500	A02BC02	11/01/2011
9293857	A02BC02	05/05/2011
9346881	A02BC02	08/04/2011
9375496	A02BC02	07/02/2005
8961019	A02BC02	23/02/2011
12774611	A02BC02	16/04/2010
23442777	A02BC02	03/11/2008
14983661	A02BC02	27/09/2006
12688652	A02BC02	09/05/2011
9225853	A02BC02	03/06/2009
11188036	A02BC02	28/09/2010
1068416	A02BC02	07/11/2007
10246462	A02BC02	08/10/2010
6749295	A02BC02	15/04/2011
9298866	A02BC02	11/03/2004
8979107	A02BC02	30/04/2010
5024989	A02BC02	14/01/2005
20565443	A02BC02	04/04/2007
10457024	A02BC02	20/04/2010
6759067	A02BC02	01/03/2011
25051272	A02BC02	16/10/2009
24764394	A02BC02	16/12/2009
8785262	A02BC02	19/04/2006
12173020	A02BC02	23/05/2007
8273132	A02BC02	02/08/2006
6758836	A02BC02	16/05/2011
9388407	A02BC02	27/04/2011
24764465	A02BC02	17/05/2011
16977675	A02BC02	13/05/2011
5467204	A02BC02	25/06/2009
20565596	A02BC02	11/03/2009
8582021	A02BC02	14/09/2007
23471643	A02BC02	10/02/2006
12186350	A02BC02	12/06/2008
18773453	A02BC02	07/10/2010
10331751	A02BC02	11/08/2003
3123797	A02BC02	19/04/2011
9376319	A02BC02	22/02/2005
12790379	A02BC02	26/04/2007
8783855	A02BC02	09/03/2011
9214936	A02BC02	15/12/2010
5814208	A02BC02	17/05/2011
25059790	A02BC02	09/12/2009
9220825	A02BC02	30/03/2006
9388819	A02BC02	02/11/2006
5866498	A02BC02	04/06/2009
12690597	A02BC02	24/05/2011
9231681	A02BC02	09/05/2011
20564355	A02BC02	09/08/2005
5023568	A02BC02	07/07/2010
21370365	A02BC02	25/09/2009
11661691	A02BC02	15/04/2008
12738517	A02BC02	23/04/2008
10392609	A02BC02	01/06/2011
16979253	A02BC02	22/09/2010
24764199	A02BC02	15/04/2010
6707615	A02BC02	19/07/2002
7160942	A02BC02	19/01/2009
10247511	A02BC02	27/04/2011
16557300	A02BC02	08/07/2008
10271589	A02BC02	03/10/2007
17216732	A02BC02	22/09/2006
945163	A02BC02	26/03/2002
24951791	A02BC02	17/05/2011
6751810	A02BC02	29/11/2007
15667822	A02BC02	19/05/2011
60897	A02BC02	11/05/2011
1515178	A02BC02	19/02/2010
24765014	A02BC02	19/05/2011
6415450	A02BC02	13/02/2006
19228689	A02BC02	13/04/2011
1162239	A02BC02	09/05/2011
7405282	A02BC02	04/03/2009
10002746	A02BC02	12/04/2011
9373480	A02BC02	25/11/2009
564746	A02BC02	16/05/2011
8955922	A02BC02	04/04/2011
7957371	A02BC02	11/10/2001
7776172	A02BC02	20/04/2011
9889795	A02BC02	18/05/2009
6423942	A02BC02	09/05/2011
1171992	A02BC02	29/01/2007
26144430	A02BC02	26/05/2010
1851987	A02BC02	28/03/2011
1445893	A02BC02	23/05/2011
1171151	A02BC02	27/09/2005
26139150	A02BC02	15/12/2010
1420340	A02BC02	17/04/2002
1850904	A02BC02	23/10/2002
674348	A02BC02	22/05/2006
6597973	A02BC02	21/10/2004
1211343	A02BC02	01/04/2011
1850615	A02BC02	14/11/2001
6594579	A02BC02	23/05/2011
7972566	A02BC02	27/04/2011
564634	A02BC02	26/09/2003
26143659	A02BC02	04/05/2011
7969130	A02BC02	11/02/2011
645794	A02BC02	01/06/2011
1665529	A02BC02	17/12/2004
1199932	A02BC02	25/10/2010
6595352	A02BC02	25/05/2011
7231434	A02BC02	02/01/2008
1321721	A02BC02	16/05/2011
26144152	A02BC02	16/06/2008
1852767	A02BC02	27/12/2010
24719884	A02BC02	21/09/2006
6212006	A02BC02	23/11/2010
1547420	A02BC02	12/06/2008
1419936	A02BC02	08/01/2008
516414	A02BC02	15/05/2011
7966545	A02BC02	18/05/2011
645626	A02BC02	10/05/2011
1211123	A02BC02	07/02/2011
8061402	A02BC02	23/07/2008
1204129	A02BC02	11/09/2009
515787	A02BC02	31/05/2011
526051	A02BC02	06/11/2006
4363537	A02BC02	31/01/2011
8067951	A02BC02	02/03/2010
1205994	A02BC02	28/04/2011
6841316	A02BC02	25/05/2009
1350929	A02BC02	20/04/2007
7781275	A02BC02	19/03/2008
12189158	A02BC02	29/04/2002
8068361	A02BC02	09/05/2009
6842461	A02BC02	08/05/2009
640738	A02BC02	10/09/2003
1658853	A02BC02	31/08/2010
1420467	A02BC02	23/07/2004
1665483	A02BC02	24/09/2007
26139839	A02BC02	05/10/2009
640251	A02BC02	16/09/2002
7966509	A02BC02	10/05/2011
7776144	A02BC02	30/05/2011
5991774	A02BC02	07/05/2009
24940303	A02BC02	27/09/2010
1090765	A02BC02	25/05/2011
6601829	A02BC02	03/05/2011
5730652	A02BC02	02/08/2006
6602253	A02BC02	30/05/2011
6425452	A02BC02	26/02/2004
8063389	A02BC02	13/05/2011
8063147	A02BC02	19/03/2003
6842492	A02BC02	18/04/2011
639355	A02BC02	13/11/2002
25248948	A02BC02	20/11/2009
7800730	A02BC02	04/11/2009
6598210	A02BC02	19/12/2006
1850880	A02BC02	10/07/2009
7777716	A02BC02	28/09/2010
1444218	A02BC02	15/12/2010
23843778	A02BC02	18/02/2008
1417722	A02BC02	15/01/2008
7967921	A02BC02	23/02/2010
1351713	A02BC02	10/10/2005
7770064	A02BC02	22/05/2008
647332	A02BC02	19/04/2011
24940355	A02BC02	31/05/2011
1852196	A02BC02	17/04/2007
1641372	A02BC02	27/03/2008
1133221	A02BC02	23/10/2007
1638216	A02BC02	30/08/2010
1133457	A02BC02	13/04/2011
12657781	A02BC02	10/03/2010
716273	A02BC02	30/04/2007
716983	A02BC02	18/02/2011
13733143	A02BC02	24/06/2009
1638022	A02BC02	14/07/2003
1855368	A02BC02	04/12/2003
1641899	A02BC02	24/08/2010
889650	A02BC02	03/01/2008
995762	A02BC02	05/03/2008
996070	A02BC02	06/07/2009
1641154	A02BC02	30/06/2006
25891363	A02BC02	15/10/2010
1558536	A02BC02	24/06/2004
1102247	A02BC02	20/04/2011
1110970	A02BC02	30/10/2006
195582	A02BC02	18/05/2011
1638565	A02BC02	01/07/2008
6899947	A02BC02	14/05/2011
1027312	A02BC02	15/12/2010
1641058	A02BC02	12/04/2004
891419	A02BC02	22/05/2008
998259	A02BC02	25/05/2011
4687275	A02BC02	15/07/2009
995675	A02BC02	18/03/2009
1641072	A02BC02	21/07/2006
1135310	A02BC02	22/11/2006
994239	A02BC02	11/03/2008
1638850	A02BC02	16/11/2009
4687472	A02BC02	05/05/2010
25914977	A02BC02	26/01/2010
5680429	A02BC02	19/05/2011
1638220	A02BC02	30/03/2009
485949	A02BC02	04/01/2008
1134288	A02BC02	11/09/2008
1639147	A02BC02	06/05/2011
1099585	A02BC02	19/08/2008
1006203	A02BC02	20/05/2011
21282892	A02BC02	06/11/2009
190343	A02BC02	02/11/2010
1646970	A02BC02	05/03/2010
1578839	A02BC02	22/02/2007
1640524	A02BC02	10/05/2011
12788129	A02BC02	25/11/2009
716545	A02BC02	11/06/2003
1102009	A02BC02	02/02/2005
25860190	A02BC02	05/03/2010
1101989	A02BC02	21/09/2007
1855343	A02BC02	11/10/2004
1641035	A02BC02	07/03/2011
1006885	A02BC02	26/11/2010
1641017	A02BC02	30/03/2009
1640338	A02BC02	25/10/2010
890201	A02BC02	23/05/2011
1580741	A02BC02	12/08/2003
890168	A02BC02	10/05/2011
25892496	A02BC02	06/03/2008
21283186	A02BC02	16/05/2011
1100350	A02BC02	28/12/2009
1065570	A02BC02	01/08/2002
1581260	A02BC02	17/09/2009
1640729	A02BC02	02/03/2011
194827	A02BC02	06/03/2009
25883514	A02BC02	24/07/2008
1066880	A02BC02	11/09/2006
1132627	A02BC02	29/01/2009
717746	A02BC02	29/03/2007
1557371	A02BC02	27/10/2008
487002	A02BC02	26/05/2006
135306	A02BC02	16/02/2010
2070070	A02BC02	25/04/2011
2216952	A02BC02	19/11/2008
2068498	A02BC02	08/10/2009
2068118	A02BC02	01/03/2005
2042982	A02BC02	14/05/2003
2068934	A02BC02	08/11/2004
2216845	A02BC02	11/05/2011
2137012	A02BC02	24/04/2008
2133531	A02BC02	13/05/2011
2109237	A02BC02	21/08/2008
875727	A02BC02	06/10/2000
2140421	A02BC02	26/12/2007
878003	A02BC02	16/05/2011
2055147	A02BC02	13/05/2011
905063	A02BC02	02/03/2007
2055189	A02BC02	30/05/2011
902237	A02BC02	30/03/2010
903895	A02BC02	10/05/2010
874560	A02BC02	16/06/2006
904532	A02BC02	06/03/2009
2035821	A02BC02	20/05/2011
2760233	A02BC02	12/11/2007
1765584	A02BC02	20/04/2011
1755991	A02BC02	11/12/2007
902575	A02BC02	05/09/2003
875564	A02BC02	16/03/2007
2037991	A02BC02	02/03/2011
2777238	A02BC02	12/02/2009
4651671	A02BC02	20/05/2008
3055184	A02BC02	24/05/2011
2777493	A02BC02	21/09/2004
3049212	A02BC02	30/05/2011
2774680	A02BC02	26/12/2007
2776128	A02BC02	29/06/2007
3052992	A02BC02	07/05/2011
2778364	A02BC02	04/06/2010
7128035	A02BC02	26/10/2009
7048927	A02BC02	27/04/2011
2779963	A02BC02	19/03/2009
2764043	A02BC02	13/05/2011
2756941	A02BC02	25/02/2010
2520367	A02BC02	16/10/2009
2519294	A02BC02	26/05/2011
12970489	A02BC02	30/05/2011
14144071	A02BC02	31/03/2010
2525077	A02BC02	16/01/2007
2239894	A02BC02	04/06/2010
2755386	A02BC02	24/05/2011
28054168	A02BC02	30/05/2011
28050537	A02BC02	03/12/2008
26425755	A02BC02	10/03/2006
28044970	A02BC02	25/10/2010
26460462	A02BC02	22/11/2004
23678237	A02BC02	27/05/2011
7134474	A02BC02	04/05/2011
20673832	A02BC02	25/05/2011
17741284	A02BC02	15/12/2010
7035689	A02BC02	30/06/2004
17041146	A02BC02	22/10/2009
20146851	A02BC02	20/04/2005
18223290	A02BC02	31/05/2011
20147230	A02BC02	10/05/2011
26425372	A02BC02	26/04/2007
26462364	A02BC02	24/07/2008
26217958	A02BC02	13/03/2006
26409825	A02BC02	16/05/2011
26441845	A02BC02	11/09/2007
28042198	A02BC02	24/03/2011
26410194	A02BC02	06/05/2011
17041239	A02BC02	07/05/2009
26199127	A02BC02	25/06/2007
17041554	A02BC02	20/01/2011
11116272	A02BC02	01/06/2011
16836109	A02BC02	19/08/2008
7140005	A02BC02	23/05/2011
14347072	A02BC02	05/05/2009
300617	A02BC02	02/06/2009
304932	A02BC02	13/05/2011
1912338	A02BC02	29/03/2010
1900806	A02BC02	12/01/2009
300241	A02BC02	11/05/2004
1903000	A02BC02	30/05/2011
301267	A02BC02	15/10/2007
307239	A02BC02	20/11/2008
305270	A02BC02	12/02/2009
650187	A02BC02	09/05/2011
427169	A02BC02	19/09/2009
184887	A02BC02	21/12/2009
420644	A02BC02	20/12/2010
2959751	A02BC02	16/05/2011
26466017	A02BC02	30/11/2010
28089746	A02BC02	27/08/2009
3053216	A02BC02	17/05/2004
875817	A02BC02	13/05/2011
28083203	A02BC02	27/11/2001
28078172	A02BC02	14/02/2008
28078871	A02BC02	25/02/2009
421052	A02BC02	12/01/2011
424750	A02BC02	10/02/2005
306134	A02BC02	23/12/2010
436745	A02BC02	16/02/2010
7136014	A02BC02	16/04/2010
19642414	A02BC02	11/02/2011
304345	A02BC02	10/05/2011
649423	A02BC02	18/04/2011
184640	A02BC02	24/05/2011
422311	A02BC02	28/12/2005
186409	A02BC02	30/01/2006
426640	A02BC02	19/11/2010
28064907	A02BC02	30/05/2011
303624	A02BC02	30/03/2010
649902	A02BC02	09/05/2011
423586	A02BC02	21/03/2011
427580	A02BC02	28/01/2000
28058974	A02BC02	23/02/2004
7029377	A02BC02	04/04/2011
28062996	A02BC02	04/08/2008
28055135	A02BC02	26/03/2010
28040513	A02BC02	10/05/2011
28053822	A02BC02	04/01/2010
876220	A02BC02	06/05/2011
28072361	A02BC02	24/10/2008
28069718	A02BC02	13/05/2011
28054208	A02BC02	12/05/2011
28066246	A02BC02	22/04/2009
28045890	A02BC02	19/05/2011
26488758	A02BC02	24/05/2011
24666302	A02BC02	11/04/2005
24665617	A02BC02	21/01/2011
24668527	A02BC02	31/03/2005
24657685	A02BC02	26/05/2011
25535638	A02BC02	21/09/2006
24662857	A02BC02	08/08/2003
24662048	A02BC02	31/05/2011
25742680	A02BC02	28/04/2011
24658550	A02BC02	14/01/2011
24665749	A02BC02	04/06/2009
25715917	A02BC02	21/11/2008
25742512	A02BC02	02/05/2011
25558732	A02BC02	30/05/2011
24656988	A02BC02	15/08/2008
25743054	A02BC02	28/06/2007
24669225	A02BC02	10/05/2011
24657011	A02BC02	25/05/2011
25656150	A02BC02	08/03/2011
24659420	A02BC02	18/05/2011
25739933	A02BC02	10/10/2006
24665845	A02BC02	20/03/2008
1019432	A02BC02	19/11/2007
1361265	A02BC02	24/02/2005
1019290	A02BC02	14/03/2007
1019300	A02BC02	19/05/2011
1364557	A02BC02	07/05/2011
1903907	A02BC02	06/08/2004
19424121	A02BC02	20/05/2011
19965265	A02BC02	12/03/2009
1020473	A02BC02	15/10/2010
1366229	A02BC02	23/06/2009
1014507	A02BC02	06/11/2006
1372951	A02BC02	24/03/2009
1365817	A02BC02	30/05/2011
1373981	A02BC02	27/05/2011
1366526	A02BC02	27/05/2011
1359321	A02BC02	16/11/2009
1363957	A02BC02	23/11/2005
18191327	A02BC02	16/10/2001
24659456	A02BC02	16/07/2004
16812198	A02BC02	23/10/2008
18197529	A02BC02	18/05/2011
20070622	A02BC02	02/11/2010
18200534	A02BC02	04/12/2007
18191861	A02BC02	27/04/2011
16841220	A02BC02	18/05/2008
19802014	A02BC02	17/12/2009
21064688	A02BC02	05/01/2011
18191207	A02BC02	17/05/2011
18193244	A02BC02	08/06/2009
18189831	A02BC02	20/12/2001
18187579	A02BC02	20/10/2006
18195242	A02BC02	25/02/2006
18197681	A02BC02	19/05/2011
19799679	A02BC02	24/05/2011
16812701	A02BC02	06/06/2005
16812742	A02BC02	19/05/2009
1904747	A02BC02	21/12/2009
1899482	A02BC02	26/08/2010
2957533	A02BC02	24/05/2011
1370373	A02BC02	12/11/2009
2250411	A02BC02	24/04/2003
420454	A02BC02	27/05/2011
1015859	A02BC02	27/01/2005
2250579	A02BC02	22/02/2011
1021166	A02BC02	18/11/2010
926529	A02BC02	18/04/2011
1366720	A02BC02	28/06/2010
1368382	A02BC02	29/03/2010
1363174	A02BC02	22/11/2001
26852141	A02BC02	24/05/2011
26701512	A02BC02	22/05/2006
26629598	A02BC02	03/07/2010
26722694	A02BC02	23/02/2009
26618354	A02BC02	25/05/2011
26722036	A02BC02	21/01/2008
26830552	A02BC02	18/04/2011
26628935	A02BC02	09/01/2008
26624329	A02BC02	31/05/2011
26803235	A02BC02	24/12/2003
26626517	A02BC02	28/09/2009
26626574	A02BC02	24/05/2011
12975487	A02BC02	23/05/2011
14310667	A02BC02	16/05/2011
2994406	A02BC02	22/12/2004
22881967	A02BC02	03/02/2011
12878243	A02BC02	09/12/2009
12974196	A02BC02	09/06/2008
14309684	A02BC02	19/02/2010
24581856	A02BC02	18/11/2006
12993757	A02BC02	13/09/2010
24654532	A02BC02	09/05/2005
21553551	A02BC02	20/04/2008
16567909	A02BC02	16/08/2006
16842692	A02BC02	30/11/2010
16567920	A02BC02	18/05/2011
26621503	A02BC02	09/05/2011
26628248	A02BC02	09/09/2008
26617524	A02BC02	25/07/2007
25740918	A02BC02	07/01/2009
26640542	A02BC02	14/12/2009
26617547	A02BC02	29/04/2011
16843475	A02BC02	05/02/2008
26710263	A02BC02	31/05/2006
26642547	A02BC02	21/03/2011
25722972	A02BC02	16/03/2009
2990152	A02BC02	04/09/2009
26625814	A02BC02	13/08/2009
26618242	A02BC02	29/05/2008
22908921	A02BC02	24/07/2009
21651512	A02BC02	26/05/2010
24583039	A02BC02	18/05/2011
24577473	A02BC02	26/12/2007
24665451	A02BC02	15/04/2011
24654918	A02BC02	30/09/2005
24651623	A02BC02	07/09/2009
22909398	A02BC02	31/08/2010
24666854	A02BC02	17/05/2011
24582582	A02BC02	17/06/2008
24581631	A02BC02	18/05/2011
24577586	A02BC02	18/07/2007
21554328	A02BC02	18/03/2009
22883329	A02BC02	02/02/2011
22922776	A02BC02	11/05/2011
24656409	A02BC02	20/05/2011
20835034	A02BC02	21/05/2011
21651855	A02BC02	22/09/2009
21651484	A02BC02	30/05/2011
21651898	A02BC02	25/06/2009
22723518	A02BC02	09/11/2006
26959942	A02BC02	30/05/2011
26723668	A02BC02	02/03/2011
26894948	A02BC02	16/06/2010
26894950	A02BC02	31/05/2011
26958740	A02BC02	05/02/2010
26913891	A02BC02	10/12/2010
26882318	A02BC02	02/02/2009
26936348	A02BC02	19/05/2009
26895615	A02BC02	30/05/2011
26915351	A02BC02	23/03/2011
26935514	A02BC02	08/05/2011
26958799	A02BC02	02/10/2003
26914516	A02BC02	19/12/2007
26916982	A02BC02	12/05/2011
26958580	A02BC02	24/05/2011
26945367	A02BC02	05/05/2009
26914466	A02BC02	03/02/2003
26897795	A02BC02	21/01/2010
26894714	A02BC02	26/05/2008
26889844	A02BC02	13/03/2003
26930368	A02BC02	07/12/2010
26889892	A02BC02	03/10/2009
26933236	A02BC02	05/04/2011
26992874	A02BC02	18/05/2011
26992878	A02BC02	09/04/2008
26949733	A02BC02	02/08/2007
26857096	A02BC02	25/05/2011
26847741	A02BC02	24/08/2008
26711798	A02BC02	25/03/2011
26714735	A02BC02	12/05/2003
26897945	A02BC02	16/03/2011
26848752	A02BC02	10/05/2011
26859120	A02BC02	30/09/2009
26847529	A02BC02	29/05/2011
26863888	A02BC02	27/05/2011
26877329	A02BC02	06/07/2009
26865577	A02BC02	27/05/2011
26857716	A02BC02	26/05/2011
26846476	A02BC02	13/05/2011
26916444	A02BC02	14/05/2011
26882035	A02BC02	24/05/2011
26933046	A02BC02	05/11/2007
26845214	A02BC02	16/03/2011
26847638	A02BC02	18/05/2011
26864788	A02BC02	13/04/2011
26851800	A02BC02	31/05/2011
26824314	A02BC02	19/03/2007
26768866	A02BC02	08/09/2009
26715319	A02BC02	26/05/2011
26969569	A02BC02	19/04/2007
26980937	A02BC02	11/06/2009
26957990	A02BC02	26/03/2008
26955462	A02BC02	21/05/2003
27067241	A02BC02	09/05/2011
27034735	A02BC02	09/12/2009
27043376	A02BC02	21/04/2011
27074053	A02BC02	18/02/2011
27078321	A02BC02	17/07/2010
27086485	A02BC02	07/05/2011
27102365	A02BC02	22/11/2005
27114160	A02BC02	20/12/2005
27110068	A02BC02	19/12/2006
27114769	A02BC02	07/04/2011
27098823	A02BC02	23/04/2007
27116935	A02BC02	21/05/2004
27132881	A02BC02	11/05/2011
27151273	A02BC02	18/05/2011
27109851	A02BC02	07/03/2011
27105146	A02BC02	25/08/2010
27100788	A02BC02	18/03/2011
27137945	A02BC02	14/12/2010
27152954	A02BC02	20/09/2005
27153004	A02BC02	13/09/2006
27127410	A02BC02	17/01/2006
27087727	A02BC02	24/05/2011
27100098	A02BC02	03/05/2011
27062005	A02BC02	10/11/2009
27054520	A02BC02	05/05/2004
27033023	A02BC02	03/03/2009
27033025	A02BC02	19/04/2006
27031426	A02BC02	10/05/2011
27065167	A02BC02	30/07/2008
27043827	A02BC02	04/04/2006
27045550	A02BC02	06/04/2011
27033644	A02BC02	25/05/2011
27065739	A02BC02	18/10/2010
27106068	A02BC02	10/05/2011
27057227	A02BC02	21/03/2011
27072046	A02BC02	05/03/2009
27113047	A02BC02	16/05/2011
27034790	A02BC02	23/09/2010
27055101	A02BC02	01/06/2011
27066800	A02BC02	25/05/2010
27063122	A02BC02	15/12/2008
27056356	A02BC02	14/07/2010
27037293	A02BC02	11/05/2011
27032446	A02BC02	05/11/2007
26991420	A02BC02	29/04/2011
26993633	A02BC02	04/12/2009
27037502	A02BC02	16/03/2011
26994757	A02BC02	13/03/2006
26994636	A02BC02	03/09/2009
27041065	A02BC02	20/11/2009
27042033	A02BC02	29/03/2006
27038965	A02BC02	22/05/2011
27041100	A02BC02	13/08/2008
26978716	A02BC02	15/11/2005
26991921	A02BC02	04/05/2011
27000123	A02BC02	31/05/2010
26996376	A02BC02	08/11/2005
26993286	A02BC02	30/05/2011
27034016	A02BC02	01/04/2004
27000732	A02BC02	13/04/2011
27014990	A02BC02	14/05/2011
27005503	A02BC02	05/04/2010
27039849	A02BC02	15/04/2011
27359134	A02BC02	09/03/2006
27325120	A02BC02	07/06/2005
27358740	A02BC02	07/11/2008
27233913	A02BC02	15/09/2009
27216624	A02BC02	14/01/2011
27152044	A02BC02	14/03/2005
27152048	A02BC02	08/11/2010
27171122	A02BC02	09/05/2011
27168097	A02BC02	06/11/2007
27369270	A02BC02	29/05/2011
27146985	A02BC02	28/09/2006
27151618	A02BC02	10/09/2007
27358985	A02BC02	17/03/2009
27148073	A02BC02	20/05/2011
27219885	A02BC02	10/05/2011
27385174	A02BC02	19/05/2011
27244696	A02BC02	17/05/2011
27365421	A02BC02	26/05/2011
27238052	A02BC02	30/06/2010
27254109	A02BC02	26/01/2009
27303621	A02BC02	06/05/2011
27218594	A02BC02	27/05/2011
27304467	A02BC02	27/05/2011
27284918	A02BC02	10/05/2011
27319914	A02BC02	09/05/2011
27302964	A02BC02	08/05/2011
27244267	A02BC02	26/05/2011
27303034	A02BC02	01/04/2008
27367102	A02BC02	11/10/2010
27234209	A02BC02	11/01/2008
27315277	A02BC02	27/06/2005
27362717	A02BC02	27/05/2011
27317083	A02BC02	06/06/2008
27357970	A02BC02	17/03/2006
27361659	A02BC02	11/12/2009
27316281	A02BC02	28/03/2006
27349595	A02BC02	16/05/2011
27350662	A02BC02	04/07/2006
27353083	A02BC02	11/05/2011
27365639	A02BC02	30/05/2008
27396888	A02BC02	16/05/2011
27358040	A02BC02	27/05/2011
27359659	A02BC02	23/02/2005
27313810	A02BC02	20/05/2011
27301922	A02BC02	04/08/2009
27220297	A02BC02	21/05/2011
27300906	A02BC02	14/05/2010
27361358	A02BC02	01/07/2010
27303739	A02BC02	19/05/2011
27220409	A02BC02	30/10/2007
27317311	A02BC02	18/05/2011
27296141	A02BC02	26/05/2011
27347687	A02BC02	29/05/2011
27361071	A02BC02	10/05/2011
27368240	A02BC02	04/02/2011
27352654	A02BC02	23/05/2011
26967220	A02BC02	05/12/2009
26971168	A02BC02	04/01/2010
27239950	A02BC02	23/03/2009
27237373	A02BC02	12/09/2008
27389179	A02BC02	10/05/2011
26992572	A02BC02	28/05/2011
27246020	A02BC02	09/04/2003
27252394	A02BC02	11/12/2009
27200892	A02BC02	26/03/2009
27241952	A02BC02	11/08/2004
26989196	A02BC02	12/06/2007
27709400	A02BC02	05/08/2005
27657965	A02BC02	07/05/2011
27657983	A02BC02	02/03/2004
27589323	A02BC02	25/11/2009
27643198	A02BC02	16/05/2011
27647922	A02BC02	26/08/2008
27577686	A02BC02	27/05/2011
27607371	A02BC02	21/10/2010
27640466	A02BC02	23/11/2007
27660974	A02BC02	26/05/2011
27576845	A02BC02	16/03/2009
27632159	A02BC02	14/06/2008
27623848	A02BC02	11/04/2006
27596947	A02BC02	14/08/2007
27596955	A02BC02	20/12/2006
27643016	A02BC02	18/05/2011
27577033	A02BC02	25/05/2011
27600750	A02BC02	20/05/2011
27596352	A02BC02	30/08/2006
27623983	A02BC02	01/06/2009
27623999	A02BC02	18/05/2011
27661153	A02BC02	14/10/2009
27648016	A02BC02	22/06/2010
27414554	A02BC02	11/03/2005
27645505	A02BC02	27/05/2011
27493078	A02BC02	20/08/2007
27445432	A02BC02	01/06/2011
27473960	A02BC02	17/03/2006
27475677	A02BC02	19/12/2009
27493267	A02BC02	06/05/2011
27443998	A02BC02	31/01/2009
27426832	A02BC02	03/06/2010
27474475	A02BC02	28/04/2011
27453870	A02BC02	05/05/2011
27472401	A02BC02	13/01/2011
27659873	A02BC02	17/05/2011
27460649	A02BC02	30/05/2011
27545803	A02BC02	25/06/2007
27717220	A02BC02	08/10/2007
27764741	A02BC02	10/06/2003
27707973	A02BC02	27/10/2005
27759030	A02BC02	16/05/2011
27761731	A02BC02	09/02/2005
27564567	A02BC02	05/05/2008
27765535	A02BC02	18/08/2008
27764873	A02BC02	30/10/2009
27758847	A02BC02	31/05/2011
27543445	A02BC02	01/06/2011
27764019	A02BC02	28/05/2011
27572899	A02BC02	12/08/2010
27565661	A02BC02	29/06/2009
27614866	A02BC02	01/06/2011
27694922	A02BC02	04/12/2007
27614461	A02BC02	01/06/2011
27546307	A02BC02	31/05/2011
27546338	A02BC02	01/12/2006
27761424	A02BC02	06/05/2011
27716087	A02BC02	04/03/2005
27151908	A02BC02	09/05/2011
27233968	A02BC02	21/04/2008
27658878	A02BC02	31/05/2011
27242167	A02BC02	14/01/2011
27234266	A02BC02	15/12/2009
27228930	A02BC02	25/06/2007
27148314	A02BC02	08/05/2011
27153690	A02BC02	03/03/2005
27153760	A02BC02	28/01/2005
27147888	A02BC02	15/05/2011
27132788	A02BC02	20/12/2010
27167758	A02BC02	09/08/2005
27284550	A02BC02	19/02/2008
27127605	A02BC02	19/05/2011
27166399	A02BC02	27/01/2006
27284226	A02BC02	18/09/2009
27163993	A02BC02	14/02/2005
27285551	A02BC02	28/03/2003
27153595	A02BC02	27/05/2011
27146606	A02BC02	22/12/2004
27138370	A02BC02	11/09/2007
27413979	A02BC02	04/04/2006
27128117	A02BC02	13/04/2010
27785549	A02BC02	24/11/2008
24667869	A02BC02	20/12/2005
27321829	A02BC02	12/05/2011
27109907	A02BC02	21/05/2011
18187165	A02BC02	29/04/2005
20070922	A02BC02	20/05/2011
27126591	A02BC02	13/05/2011
27352183	A02BC02	09/11/2007
27708348	A02BC02	18/10/2006
27805592	A02BC02	04/07/2006
27780243	A02BC02	13/05/2011
17423124	A02BC02	04/05/2011
27782628	A02BC02	13/02/2006
27533855	A02BC02	19/04/2010
27773698	A02BC02	12/05/2011
27534253	A02BC02	31/05/2011
27684839	A02BC02	19/07/2007
27456675	A02BC02	05/05/2011
27535873	A02BC02	28/06/2007
27535710	A02BC02	18/03/2011
27785654	A02BC02	20/05/2011
27538875	A02BC02	25/05/2011
27563279	A02BC02	26/02/2011
27534917	A02BC02	24/02/2010
27769906	A02BC02	06/09/2005
27475077	A02BC02	12/01/2005
27457636	A02BC02	17/04/2009
27477136	A02BC02	21/02/2011
27530889	A02BC02	13/10/2010
27531090	A02BC02	13/02/2009
27781303	A02BC02	15/07/2004
27534405	A02BC02	12/11/2003
27771990	A02BC02	05/05/2011
27782736	A02BC02	07/04/2006
27305493	A02BC02	22/04/2010
27679826	A02BC02	29/01/2002
27668157	A02BC02	16/03/2006
26980682	A02BC02	09/05/2011
27674082	A02BC02	06/05/2011
27355732	A02BC02	15/05/2011
27444018	A02BC02	10/05/2011
27771463	A02BC02	09/09/2009
27669167	A02BC02	04/01/2005
26835519	A02BC02	14/05/2009
27301086	A02BC02	04/08/2010
27472174	A02BC02	14/09/2007
27600860	A02BC02	29/12/2009
27458245	A02BC02	20/08/2008
27456174	A02BC02	31/05/2011
27529159	A02BC02	14/08/2007
27574124	A02BC02	02/10/2010
27608043	A02BC02	28/08/2008
27459780	A02BC02	04/03/2010
27614274	A02BC02	13/11/2008
27540219	A02BC02	08/03/2004
27442644	A02BC02	24/05/2011
27475366	A02BC02	12/01/2011
27574050	A02BC02	18/03/2009
27515854	A02BC02	31/08/2006
27317448	A02BC02	31/05/2011
26933407	A02BC02	27/05/2011
27348554	A02BC02	31/05/2011
26946481	A02BC02	23/05/2011
27783717	A02BC02	07/10/2008
27244108	A02BC02	30/08/2006
27160154	A02BC02	20/05/2011
26945611	A02BC02	17/03/2011
27597806	A02BC02	05/05/2011
26715264	A02BC02	06/05/2011
24582476	A02BC02	05/05/2011
22922624	A02BC02	02/07/2010
1361526	A02BC02	10/06/2008
26992651	A02BC02	12/05/2009
27803448	A02BC02	28/01/2011
26971047	A02BC02	24/05/2011
27675953	A02BC02	16/05/2011
26760653	A02BC02	25/05/2011
27596078	A02BC02	22/06/2010
26959747	A02BC02	08/07/2010
27708064	A02BC02	10/02/2011
419700	A02BC02	23/12/2010
27783945	A02BC02	13/02/2008
27720128	A02BC02	12/05/2011
27799547	A02BC02	09/05/2005
27756194	A02BC02	26/05/2011
27805960	A02BC02	19/10/2005
27757222	A02BC02	17/05/2011
27667247	A02BC02	27/05/2011
27762253	A02BC02	10/06/2010
27804984	A02BC02	01/09/2008
27665005	A02BC02	31/05/2011
27715841	A02BC02	15/01/2009
27758584	A02BC02	23/05/2011
26730671	A02BC02	20/05/2011
424828	A02BC02	11/03/2009
27667214	A02BC02	28/05/2011
27591900	A02BC02	25/05/2011
27474579	A02BC02	27/04/2011
18188132	A02BC02	18/05/2011
27170744	A02BC02	14/04/2008
27720525	A02BC02	17/01/2011
27622771	A02BC02	08/06/2006
27043641	A02BC02	14/10/2009
26974298	A02BC02	17/03/2011
27532824	A02BC02	14/02/2008
27764778	A02BC02	23/01/2009
27780080	A02BC02	18/02/2008
27779198	A02BC02	11/01/2008
27251362	A02BC02	09/07/2004
27419357	A02BC02	14/05/2011
26711256	A02BC02	03/04/2006
27664782	A02BC02	17/05/2011
27765473	A02BC02	24/05/2011
27782050	A02BC02	24/08/2007
18194111	A02BC02	07/05/2009
27795964	A02BC02	18/05/2011
26873650	A02BC02	01/06/2011
27358783	A02BC02	25/10/2010
26776955	A02BC02	11/06/2007
26867267	A02BC02	27/06/2008
27778527	A02BC02	03/04/2010
27806522	A02BC02	07/05/2011
27716264	A02BC02	06/07/2007
33040260	A02BC02	07/04/2011
33080420	A02BC02	10/02/2011
33006102	A02BC02	30/07/2007
33051320	A02BC02	20/05/2011
33007786	A02BC02	22/01/2010
33049981	A02BC02	19/12/2007
33018984	A02BC02	19/05/2011
33008475	A02BC02	08/11/2010
33106475	A02BC02	02/06/2009
33009615	A02BC02	15/03/2005
33104066	A02BC02	26/05/2011
33111336	A02BC02	25/05/2011
33081749	A02BC02	12/11/2010
33035460	A02BC02	16/03/2005
33065341	A02BC02	17/05/2011
33069261	A02BC02	01/09/2008
33106189	A02BC02	04/01/2011
33033701	A02BC02	18/12/2009
33051475	A02BC02	09/08/2010
33092896	A02BC02	18/12/2007
33094244	A02BC02	09/05/2011
33109326	A02BC02	26/05/2010
33084200	A02BC02	07/11/2003
33088355	A02BC02	11/09/2008
33058109	A02BC02	14/04/2011
33118427	A02BC02	25/04/2006
33144464	A02BC02	05/06/2008
33050061	A02BC02	23/02/2006
33037199	A02BC02	05/05/2008
33104356	A02BC02	15/06/2007
33030987	A02BC02	25/05/2011
33015982	A02BC02	16/02/2009
33065445	A02BC02	30/04/2011
33068451	A02BC02	27/10/2004
33060437	A02BC02	10/11/2010
33008987	A02BC02	25/01/2006
33088577	A02BC02	24/07/2008
33023079	A02BC02	16/03/2009
33001506	A02BC02	26/05/2011
33036483	A02BC02	03/03/2011
33081368	A02BC02	31/10/2005
33086083	A02BC02	25/05/2011
33107082	A02BC02	15/10/2010
33113036	A02BC02	27/09/2005
33095116	A02BC02	21/05/2011
33051958	A02BC02	28/04/2011
33068764	A02BC02	03/12/2008
33116686	A02BC02	15/04/2010
33019022	A02BC02	23/05/2011
33070878	A02BC02	18/11/2010
33091555	A02BC02	21/03/2005
33027943	A02BC02	27/10/2009
33053364	A02BC02	29/06/2004
33037406	A02BC02	27/02/2007
33097581	A02BC02	13/08/2004
33003004	A02BC02	11/10/2002
33099866	A02BC02	03/05/2011
33102455	A02BC02	12/08/2004
33083327	A02BC02	10/08/2009
33093077	A02BC02	07/04/2011
33024920	A02BC02	26/11/2007
33079795	A02BC02	25/05/2011
33101324	A02BC02	12/11/2010
33106497	A02BC02	20/01/2006
33048279	A02BC02	13/05/2011
33064888	A02BC02	06/05/2011
33029467	A02BC02	04/07/2006
33020581	A02BC02	07/03/2011
33107313	A02BC02	16/04/2004
33051529	A02BC02	24/05/2011
33056441	A02BC02	26/05/2011
33028260	A02BC02	13/05/2011
33038806	A02BC02	04/08/2009
33093456	A02BC02	01/10/2008
33071618	A02BC02	06/05/2011
33092933	A02BC02	18/05/2009
33111158	A02BC02	15/12/2005
33126560	A02BC02	15/02/2010
33026052	A02BC02	09/07/2009
33067653	A02BC02	31/03/2011
33063677	A02BC02	24/01/2011
33072776	A02BC02	26/04/2011
33015203	A02BC02	09/12/2010
33066001	A02BC02	03/11/2010
33081991	A02BC02	19/05/2011
33079596	A02BC02	03/02/2011
33073252	A02BC02	20/07/2007
33032821	A02BC02	21/01/2011
304463	A02BC02	12/04/2010
422251	A02BC02	27/09/2006
27720541	A02BC02	17/07/2009
27680372	A02BC02	17/05/2011
26866280	A02BC02	11/06/2010
27806731	A02BC02	16/05/2011
27551829	A02BC02	01/10/2002
420958	A02BC02	19/01/2009
27112593	A02BC02	16/05/2011
33042521	A02BC02	24/01/2007
26723764	A02BC02	23/02/2006
2958097	A02BC02	27/09/2006
19423345	A02BC02	02/03/2009
33002823	A02BC02	01/08/2008
25739952	A02BC02	14/02/2008
18190195	A02BC02	02/07/2008
16840498	A02BC02	13/05/2011
21109297	A02BC02	14/01/2011
33298715	A02BC02	10/05/2011
28018978	A02BC02	11/09/2009
27824875	A02BC02	25/01/2011
23343121	A02BC02	13/10/2009
27934485	A02BC02	07/04/2010
16177914	A02BC02	14/11/2006
33080278	A02BC02	15/07/2009
16774544	A02BC02	11/05/2011
33034636	A02BC02	18/04/2011
14187440	A02BC02	04/05/2011
16135277	A02BC02	19/05/2011
33304554	A02BC02	30/09/2010
16178210	A02BC02	21/08/2007
20983764	A02BC02	16/09/2010
33036540	A02BC02	17/09/2008
20981877	A02BC02	07/01/2011
16655774	A02BC02	10/03/2009
27948652	A02BC02	18/04/2011
33046870	A02BC02	18/11/2010
33252437	A02BC02	18/02/2009
33007194	A02BC02	30/11/2007
33058773	A02BC02	26/01/2011
33113958	A02BC02	03/02/2004
33104458	A02BC02	20/09/2007
33020434	A02BC02	31/05/2011
33048233	A02BC02	12/05/2011
33012908	A02BC02	09/05/2011
33089746	A02BC02	27/03/2003
33030487	A02BC02	02/02/2011
33106850	A02BC02	30/07/2007
33105746	A02BC02	10/08/2009
33008945	A02BC02	21/12/2010
33026712	A02BC02	08/07/2009
33056325	A02BC02	07/07/2008
33052133	A02BC02	21/10/2010
33020105	A02BC02	03/12/2010
33063405	A02BC02	26/05/2011
33049911	A02BC02	27/02/2004
33060956	A02BC02	07/04/2011
33126079	A02BC02	31/01/2009
33000877	A02BC02	29/07/2010
33104781	A02BC02	26/02/2009
33106625	A02BC02	10/05/2011
33034545	A02BC02	02/04/2009
33101101	A02BC02	11/04/2011
33008590	A02BC02	14/01/2008
33049405	A02BC02	19/10/2005
33066270	A02BC02	11/12/2006
33025768	A02BC02	21/11/2007
33104786	A02BC02	31/05/2011
33097482	A02BC02	15/05/2011
33104544	A02BC02	29/05/2011
33007224	A02BC02	15/05/2003
33065917	A02BC02	25/05/2011
33052051	A02BC02	19/05/2011
33115070	A02BC02	20/05/2011
33020543	A02BC02	14/04/2005
33004014	A02BC02	13/02/2008
33086432	A02BC02	22/01/2010
33104966	A02BC02	20/04/2010
33070455	A02BC02	23/12/2008
33037440	A02BC02	24/05/2011
33004559	A02BC02	27/04/2011
33008084	A02BC02	21/07/2006
33053637	A02BC02	16/09/2009
33098972	A02BC02	14/08/2007
33012899	A02BC02	01/06/2011
33065950	A02BC02	18/05/2011
33099116	A02BC02	14/12/2001
33101385	A02BC02	19/05/2011
33034268	A02BC02	28/05/2009
33045851	A02BC02	24/10/2001
33021879	A02BC02	19/02/2009
33011985	A02BC02	01/06/2005
33046881	A02BC02	26/05/2008
33072029	A02BC02	31/05/2011
33051657	A02BC02	13/01/2010
33087055	A02BC02	18/04/2011
33055038	A02BC02	04/05/2011
33067910	A02BC02	05/12/2002
33057611	A02BC02	01/02/2010
33028356	A02BC02	10/10/2001
33097272	A02BC02	11/09/2009
33008358	A02BC02	16/10/2006
33097844	A02BC02	18/12/2003
33112092	A02BC02	24/02/2005
33003742	A02BC02	17/05/2011
33073480	A02BC02	05/05/2005
33027780	A02BC02	05/05/2011
33053638	A02BC02	14/05/2004
33027073	A02BC02	01/09/2004
33093762	A02BC02	31/05/2011
33020127	A02BC02	13/05/2005
33116126	A02BC02	28/07/2010
33012988	A02BC02	15/12/2004
23342582	A02BC02	21/10/2010
16166333	A02BC02	12/05/2011
16166636	A02BC02	31/05/2011
28005517	A02BC02	12/08/2010
23315706	A02BC02	14/09/2007
16636662	A02BC02	19/05/2011
16625249	A02BC02	13/05/2011
16166019	A02BC02	13/04/2009
33308875	A02BC02	13/01/2011
16616536	A02BC02	03/05/2006
23407899	A02BC02	18/05/2011
14187910	A02BC02	02/02/2011
33313140	A02BC02	28/03/2011
33204629	A02BC02	14/04/2011
20983642	A02BC02	03/05/2011
16625697	A02BC02	05/05/2011
33265198	A02BC02	15/09/2010
33288807	A02BC02	13/10/2009
33309896	A02BC02	31/05/2011
23408186	A02BC02	12/09/2008
23408894	A02BC02	24/11/2010
20983733	A02BC02	11/01/2010
33233293	A02BC02	19/01/2005
16636482	A02BC02	18/03/2010
16138857	A02BC02	28/05/2008
18743061	A02BC02	07/07/2010
16135868	A02BC02	06/05/2010
16618603	A02BC02	19/05/2009
33308205	A02BC02	04/01/2006
16617207	A02BC02	11/11/2005
23279589	A02BC02	26/07/2010
16181529	A02BC02	19/11/2010
16165687	A02BC02	16/05/2011
16640222	A02BC02	26/04/2011
28023165	A02BC02	17/05/2011
33273145	A02BC02	17/01/2011
16609624	A02BC02	11/05/2011
18770704	A02BC02	19/05/2010
33289683	A02BC02	18/09/2009
23408488	A02BC02	02/07/2010
23382344	A02BC02	02/12/2006
16596125	A02BC02	18/04/2008
18765717	A02BC02	06/05/2011
16138565	A02BC02	09/06/2005
16606979	A02BC02	07/10/2005
18755801	A02BC02	13/12/2010
18765675	A02BC02	23/12/2004
18755678	A02BC02	24/02/2011
16596222	A02BC02	20/09/2004
16177766	A02BC02	10/06/2010
28005413	A02BC02	01/06/2011
33209711	A02BC02	30/06/2009
33232471	A02BC02	14/06/2010
33244163	A02BC02	12/03/2010
21110022	A02BC02	15/11/2006
16184630	A02BC02	11/05/2011
27848097	A02BC02	25/02/2003
28000658	A02BC02	29/04/2011
21116473	A02BC02	16/08/2009
16600525	A02BC02	02/11/2001
28016723	A02BC02	06/03/2009
23361804	A02BC02	24/05/2011
16636746	A02BC02	23/05/2011
23334059	A02BC02	10/05/2011
33235172	A02BC02	06/03/2002
20982073	A02BC02	17/09/2010
16625522	A02BC02	24/07/2004
16600620	A02BC02	12/05/2011
16705254	A02BC02	05/04/2011
16648298	A02BC02	18/04/2011
23411086	A02BC02	16/03/2010
20985633	A02BC02	04/05/2011
18770821	A02BC02	29/08/2001
23366100	A02BC02	30/01/2009
16599304	A02BC02	31/05/2011
23339422	A02BC02	26/06/2009
16186342	A02BC02	13/07/2007
20985737	A02BC02	14/11/2008
23336003	A02BC02	08/04/2011
16124521	A02BC02	12/05/2011
23353969	A02BC02	20/04/2009
20988906	A02BC02	01/12/2008
23402651	A02BC02	28/04/2011
16610026	A02BC02	17/11/2010
23347944	A02BC02	17/05/2011
23403049	A02BC02	13/11/2008
16626226	A02BC02	09/05/2011
33245266	A02BC02	06/07/2010
16165612	A02BC02	14/06/2004
20982711	A02BC02	27/05/2011
33206414	A02BC02	01/09/2010
16596274	A02BC02	11/07/2007
23397196	A02BC02	17/05/2011
27954341	A02BC02	04/01/2010
18765623	A02BC02	30/10/2007
28017195	A02BC02	17/11/2010
16630857	A02BC02	13/10/2010
27928159	A02BC02	08/07/2009
16639565	A02BC02	07/08/2007
33206254	A02BC02	20/04/2011
16636819	A02BC02	13/05/2008
16708154	A02BC02	09/08/2006
33238211	A02BC02	28/05/2010
20983964	A02BC02	10/07/2009
23346872	A02BC02	31/05/2011
20986175	A02BC02	08/10/2007
23354092	A02BC02	09/11/2006
23355002	A02BC02	14/11/2008
23397368	A02BC02	15/09/2009
23354037	A02BC02	09/03/2009
23354742	A02BC02	31/05/2011
21116941	A02BC02	28/04/2011
16180694	A02BC02	11/05/2007
23354572	A02BC02	25/08/2009
23406241	A02BC02	29/09/2009
16634389	A02BC02	15/02/2010
16604459	A02BC02	08/10/2008
16127700	A02BC02	31/01/2003
20986311	A02BC02	22/12/2008
23333330	A02BC02	29/09/2008
20986270	A02BC02	11/11/2008
20985436	A02BC02	09/07/2010
28026109	A02BC02	27/05/2011
33253952	A02BC02	18/04/2011
16640187	A02BC02	13/04/2007
16684088	A02BC02	25/05/2011
33246637	A02BC02	22/05/2011
16636548	A02BC02	26/07/2008
16607817	A02BC02	10/05/2011
28026267	A02BC02	10/11/2010
27984060	A02BC02	07/02/2011
23318897	A02BC02	20/05/2008
18757709	A02BC02	05/05/2011
16705838	A02BC02	23/12/2009
32004061	A02BC02	21/09/2006
31666967	A02BC02	10/09/2003
23346656	A02BC02	03/05/2005
33312705	A02BC02	13/05/2011
33268253	A02BC02	09/02/2008
23406762	A02BC02	19/06/2006
16124564	A02BC02	11/06/2010
16126950	A02BC02	20/05/2011
20987958	A02BC02	10/04/2006
20985453	A02BC02	03/04/2009
23349604	A02BC02	13/04/2011
16609745	A02BC02	25/03/2011
16603330	A02BC02	29/12/2005
23369532	A02BC02	20/05/2011
23346655	A02BC02	13/06/2005
23350021	A02BC02	11/03/2011
23470370	A02BC02	09/02/2011
20988305	A02BC02	07/12/2004
16618677	A02BC02	25/01/2005
27984029	A02BC02	19/07/2010
16625422	A02BC02	20/05/2011
33224201	A02BC02	12/05/2011
33312738	A02BC02	25/05/2011
33204004	A02BC02	19/08/2010
23410160	A02BC02	05/05/2011
23319191	A02BC02	15/05/2007
18765009	A02BC02	20/09/2006
16602630	A02BC02	20/05/2011
16603382	A02BC02	22/10/2009
16603341	A02BC02	09/05/2011
16623344	A02BC02	25/05/2005
23327900	A02BC02	09/05/2011
33312890	A02BC02	02/12/2010
16774153	A02BC02	19/01/2011
27895998	A02BC02	09/10/2003
23402803	A02BC02	30/08/2007
16186784	A02BC02	23/12/2003
20985559	A02BC02	22/03/2011
20987102	A02BC02	17/04/2009
33245160	A02BC02	16/01/2007
20989699	A02BC02	30/11/2007
16127452	A02BC02	11/05/2011
20987399	A02BC02	23/05/2011
23353743	A02BC02	01/06/2011
20984891	A02BC02	29/09/2010
23354017	A02BC02	10/05/2011
23353918	A02BC02	06/05/2011
16774215	A02BC02	25/04/2011
16181041	A02BC02	13/03/2006
16598379	A02BC02	16/05/2011
16621754	A02BC02	14/04/2011
31432360	A02BC02	24/05/2011
32282396	A02BC02	22/11/2004
31322340	A02BC02	31/08/2010
32196435	A02BC02	20/06/2007
31285328	A02BC02	20/12/2006
31811964	A02BC02	21/07/2006
31735876	A02BC02	10/04/2009
31418719	A02BC02	30/08/2007
31043924	A02BC02	15/04/2011
31772620	A02BC02	20/09/2005
31393143	A02BC02	19/02/2010
32054435	A02BC02	08/01/2007
31960155	A02BC02	20/02/2009
31123402	A02BC02	28/10/2010
31424970	A02BC02	25/10/2010
31435208	A02BC02	17/12/2009
31791183	A02BC02	01/09/2010
31313850	A02BC02	21/09/2005
31202352	A02BC02	14/12/2010
32025325	A02BC02	27/11/2003
31407462	A02BC02	02/01/2009
31588190	A02BC02	09/02/2004
31683932	A02BC02	21/05/2008
31817892	A02BC02	26/01/2010
32175738	A02BC02	13/05/2005
31226034	A02BC02	08/09/2010
31291411	A02BC02	25/05/2006
31593463	A02BC02	04/11/2008
31588614	A02BC02	05/12/2008
31515078	A02BC02	04/01/2007
31698148	A02BC02	04/02/2011
31750446	A02BC02	27/03/2009
31259169	A02BC02	24/09/2010
32026760	A02BC02	21/04/2008
31285255	A02BC02	16/12/2010
31992684	A02BC02	05/09/2003
31476903	A02BC02	28/01/2011
31756119	A02BC02	10/12/2010
31504553	A02BC02	25/10/2006
31267881	A02BC02	05/11/2007
32023018	A02BC02	22/08/2006
31605404	A02BC02	09/05/2006
31449000	A02BC02	11/06/2007
32172226	A02BC02	17/04/2009
31925365	A02BC02	23/09/2003
31253172	A02BC02	20/01/2004
31160878	A02BC02	03/03/2011
31441696	A02BC02	13/05/2004
31461480	A02BC02	12/12/2003
31166148	A02BC02	01/10/2010
31404679	A02BC02	04/03/2011
31876792	A02BC02	06/05/2008
31207975	A02BC02	07/02/2005
31833062	A02BC02	18/02/2008
31850585	A02BC02	01/10/2010
31837295	A02BC02	03/10/2001
31033667	A02BC02	03/04/2011
31205373	A02BC02	11/02/2008
31792698	A02BC02	27/09/2010
31744955	A02BC02	05/01/2007
31315923	A02BC02	09/10/2006
31931778	A02BC02	21/07/2008
32158065	A02BC02	13/02/2008
32254883	A02BC02	10/05/2011
31566931	A02BC02	26/11/2009
32240562	A02BC02	08/07/2010
32149877	A02BC02	16/02/2011
31933159	A02BC02	24/03/2011
31427154	A02BC02	10/01/2008
32083242	A02BC02	13/11/2008
31067054	A02BC02	08/03/2011
31095960	A02BC02	10/05/2010
31548392	A02BC02	25/02/2008
32200966	A02BC02	04/12/2008
31479727	A02BC02	11/01/2005
31497098	A02BC02	23/08/2004
31679755	A02BC02	17/01/2006
31658349	A02BC02	03/08/2009
31995509	A02BC02	16/12/2009
32076092	A02BC02	06/02/2007
32166665	A02BC02	13/12/2010
31907332	A02BC02	13/04/2011
31240534	A02BC02	21/01/2010
31850691	A02BC02	25/02/2011
32280643	A02BC02	21/12/2005
31675988	A02BC02	20/07/2010
31425005	A02BC02	13/07/2010
31184648	A02BC02	22/12/2010
31738398	A02BC02	25/02/2011
31873426	A02BC02	12/05/2010
31571578	A02BC02	06/05/2009
32122580	A02BC02	07/10/2010
31974767	A02BC02	24/05/2007
31491434	A02BC02	02/02/2006
31421685	A02BC02	14/03/2011
32192753	A02BC02	06/10/2008
31952663	A02BC02	18/09/2003
32026658	A02BC02	28/09/2005
31689770	A02BC02	07/10/2009
31136755	A02BC02	16/10/2006
31049207	A02BC02	30/08/2004
32118712	A02BC02	19/01/2007
31821410	A02BC02	14/07/2009
31416932	A02BC02	09/12/2003
31822514	A02BC02	28/12/2004
31365988	A02BC02	03/12/2003
31255539	A02BC02	25/12/2009
31172551	A02BC02	27/12/2010
32275690	A02BC02	28/11/2008
31398449	A02BC02	18/12/2007
31109367	A02BC02	26/03/2007
31225273	A02BC02	02/09/2005
32186315	A02BC02	30/12/2010
32003001	A02BC02	20/06/2006
32001413	A02BC02	22/03/2010
31977169	A02BC02	13/10/2010
31537958	A02BC02	30/04/2007
31109594	A02BC02	20/01/2011
31187591	A02BC02	21/03/2007
31355795	A02BC02	21/01/2011
32192909	A02BC02	04/12/2007
31704498	A02BC02	17/08/2005
31882696	A02BC02	27/10/2010
32105750	A02BC02	22/09/2005
31150559	A02BC02	26/05/2010
32185788	A02BC02	08/01/2008
31773930	A02BC02	04/05/2009
31591048	A02BC02	01/06/2009
31597401	A02BC02	16/07/2007
31071475	A02BC02	30/09/2002
31486264	A02BC02	28/10/2009
31259396	A02BC02	19/11/2009
31441332	A02BC02	21/03/2011
32130817	A02BC02	25/01/2011
31627822	A02BC02	12/12/2006
31522893	A02BC02	08/10/2009
31735989	A02BC02	17/03/2008
31488907	A02BC02	11/07/2003
32162109	A02BC02	27/01/2011
31517754	A02BC02	26/10/2004
31046930	A02BC02	27/02/2008
31927982	A02BC02	15/12/2010
31337843	A02BC02	12/03/2007
31241434	A02BC02	18/02/2008
32159495	A02BC02	11/02/2008
31166521	A02BC02	20/12/2007
31539967	A02BC02	14/10/2004
31795919	A02BC02	03/09/2003
32087742	A02BC02	11/11/2008
32059302	A02BC02	13/11/2006
32037940	A02BC02	14/12/2009
31127513	A02BC02	27/11/2009
31557279	A02BC02	24/01/2011
31820707	A02BC02	07/11/2008
31480774	A02BC02	20/10/2009
31682435	A02BC02	25/04/2011
31470909	A02BC02	11/01/2006
31099394	A02BC02	20/11/2009
31458732	A02BC02	22/12/2009
31223261	A02BC02	04/01/2007
31441666	A02BC02	29/12/2009
31863781	A02BC02	12/02/2010
32260330	A02BC02	04/12/2008
31858004	A02BC02	23/04/2010
32264533	A02BC02	29/01/2011
32100016	A02BC02	23/05/2011
31362439	A02BC02	27/10/2005
32002948	A02BC02	28/03/2005
31521720	A02BC02	09/10/2008
31288965	A02BC02	26/10/2009
31444214	A02BC02	26/03/2009
31068766	A02BC02	08/08/2007
31844771	A02BC02	02/09/2010
31521974	A02BC02	28/08/2008
31308618	A02BC02	18/08/2005
31392340	A02BC02	10/05/2011
32141296	A02BC02	21/01/2000
31257307	A02BC02	06/03/2008
31676103	A02BC02	10/03/2011
32220763	A02BC02	18/10/2010
31602375	A02BC02	06/04/2011
32229216	A02BC02	11/12/2007
31613374	A02BC02	02/06/2008
31615359	A02BC02	23/10/2008
31544572	A02BC02	28/04/2008
31736977	A02BC02	13/07/2010
31441426	A02BC02	15/06/2010
32088315	A02BC02	13/07/2010
31104821	A02BC02	29/12/2010
31523575	A02BC02	18/06/2009
31377619	A02BC02	14/07/2010
31189360	A02BC02	28/06/2010
32196147	A02BC02	17/12/2010
31401453	A02BC02	23/06/2009
32201736	A02BC02	22/07/2002
32129307	A02BC02	30/05/2007
31555386	A02BC02	08/03/2005
31128087	A02BC02	20/11/2003
31990571	A02BC02	26/10/2004
32102978	A02BC02	30/10/2006
31743661	A02BC02	25/06/2007
31523044	A02BC02	17/01/2005
31974787	A02BC02	11/11/2002
31970873	A02BC02	10/12/2008
31366968	A02BC02	28/07/2004
31758459	A02BC02	15/01/2008
31811435	A02BC02	27/10/2010
31447684	A02BC02	13/10/2009
31823040	A02BC02	22/12/2008
31843748	A02BC02	28/04/2005
31838556	A02BC02	03/12/2007
31961565	A02BC02	10/09/2007
31643795	A02BC02	18/12/2009
31471199	A02BC02	20/07/2010
31837765	A02BC02	26/02/2007
31167229	A02BC02	10/05/2005
32099327	A02BC02	04/08/2005
32273397	A02BC02	30/08/2004
31997411	A02BC02	17/04/2006
32159787	A02BC02	04/04/2007
31334047	A02BC02	29/12/2009
31570301	A02BC02	30/06/2005
31853702	A02BC02	10/12/2009
31094327	A02BC02	19/09/2002
31915870	A02BC02	23/04/2009
31744116	A02BC02	23/09/2008
31131652	A02BC02	14/04/2008
31271546	A02BC02	10/06/2009
31320945	A02BC02	20/12/2005
32247767	A02BC02	15/12/2006
31638966	A02BC02	11/05/2005
32125428	A02BC02	27/12/2006
31761844	A02BC02	20/12/2010
31352687	A02BC02	09/04/2002
32006368	A02BC02	09/03/2011
31577402	A02BC02	04/04/2011
31474342	A02BC02	14/12/2006
31258537	A02BC02	09/12/2002
31384268	A02BC02	23/02/2011
31950971	A02BC02	10/11/2004
31168702	A02BC02	13/07/2010
31794135	A02BC02	13/03/2008
32050171	A02BC02	10/08/2009
31447714	A02BC02	20/10/2005
31868197	A02BC02	05/06/2007
31596789	A02BC02	24/11/2005
32192268	A02BC02	14/08/2001
31513965	A02BC02	11/04/2011
31756578	A02BC02	12/04/2005
31140552	A02BC02	26/06/2009
31270547	A02BC02	07/01/2011
32141467	A02BC02	03/05/2007
31195300	A02BC02	26/12/2007
31230558	A02BC02	23/04/2002
31252802	A02BC02	19/10/2006
31250259	A02BC02	08/10/2003
31584060	A02BC02	29/11/2006
31244492	A02BC02	21/01/2011
31539806	A02BC02	16/07/2009
31918158	A02BC02	15/12/2008
31451439	A02BC02	17/04/2007
31504030	A02BC02	02/07/2009
31667099	A02BC02	16/02/2006
31824277	A02BC02	21/01/2011
32257488	A02BC02	14/09/2007
31213474	A02BC02	27/12/2002
31576491	A02BC02	24/05/2004
31849026	A02BC02	18/04/2007
31057692	A02BC02	29/03/2004
31054447	A02BC02	25/02/2009
31321280	A02BC02	30/12/2010
31611337	A02BC02	30/12/2009
31890800	A02BC02	25/03/2009
32201838	A02BC02	28/01/2005
31339822	A02BC02	09/03/2009
31981387	A02BC02	18/12/2009
31204532	A02BC02	20/08/2009
32189793	A02BC02	01/03/2004
32260224	A02BC02	20/01/2011
31983463	A02BC02	16/03/2007
31622529	A02BC02	10/05/2005
32223263	A02BC02	07/03/2005
32118462	A02BC02	05/01/2005
31807086	A02BC02	20/01/2011
32104396	A02BC02	18/10/2010
31283871	A02BC02	19/07/2006
32279238	A02BC02	25/02/2011
32083993	A02BC02	21/07/2009
31506294	A02BC02	08/04/2011
31220528	A02BC02	16/12/2010
31927125	A02BC02	17/12/2009
32252204	A02BC02	14/12/2009
31375081	A02BC02	29/12/2009
32026380	A02BC02	06/04/2011
32200227	A02BC02	09/12/2009
31367892	A02BC02	19/08/2003
31084479	A02BC02	19/11/2009
31672938	A02BC02	07/07/2004
32143143	A02BC02	21/02/2007
31400190	A02BC02	20/11/2006
32182006	A02BC02	12/12/2008
31081722	A02BC02	11/04/2007
31444085	A02BC02	30/07/2007
31839702	A02BC02	07/04/2008
31050269	A02BC02	05/02/2011
31654448	A02BC02	20/08/2007
31741523	A02BC02	16/05/2011
31462204	A02BC02	09/04/2007
31378501	A02BC02	07/01/2011
31378201	A02BC02	27/06/2002
31392725	A02BC02	18/11/2010
31647102	A02BC02	09/03/2011
31632144	A02BC02	15/12/2009
31145470	A02BC02	14/08/2009
32019169	A02BC02	12/06/2006
32195050	A02BC02	28/09/2009
32127700	A02BC02	27/11/2008
31105225	A02BC02	20/11/2006
31493704	A02BC02	18/11/2010
31184461	A02BC02	28/10/2008
31246026	A02BC02	11/04/2011
32059744	A02BC02	20/04/2009
31399039	A02BC02	29/10/2009
31343949	A02BC02	20/09/2007
31443039	A02BC02	04/02/2009
31496367	A02BC02	29/12/2009
31456279	A02BC02	27/04/2006
31177447	A02BC02	21/12/2007
31076403	A02BC02	05/01/2011
31478038	A02BC02	01/08/2008
31261675	A02BC02	21/07/2004
31519029	A02BC02	29/06/2007
31956709	A02BC02	06/08/2009
31618175	A02BC02	21/08/2007
32118468	A02BC02	07/08/2006
31846862	A02BC02	19/03/2008
31250490	A02BC02	07/03/2011
31273240	A02BC02	26/03/2009
32197317	A02BC02	01/02/2008
32109768	A02BC02	18/05/2005
32202397	A02BC02	23/08/2006
32090626	A02BC02	29/09/2009
31811807	A02BC02	26/05/2004
31806825	A02BC02	17/12/2010
31578601	A02BC02	23/10/2001
31032144	A02BC02	22/04/2004
31045417	A02BC02	02/06/2009
32047678	A02BC02	30/09/2008
31632371	A02BC02	11/05/2007
31520527	A02BC02	24/12/2010
32036974	A02BC02	15/10/2007
31243931	A02BC02	14/11/2006
31171012	A02BC02	28/11/2007
31589962	A02BC02	28/12/2009
31115224	A02BC02	29/05/2009
31848757	A02BC02	28/12/2007
31641763	A02BC02	16/07/2008
31907199	A02BC02	31/05/2011
31918858	A02BC02	26/07/2007
31332749	A02BC02	21/05/2009
31973008	A02BC02	08/09/2009
31110042	A02BC02	15/12/2010
31110162	A02BC02	14/09/2005
32071225	A02BC02	16/10/2003
31858005	A02BC02	27/12/2007
31199814	A02BC02	23/08/2004
32003236	A02BC02	22/09/2009
31682121	A02BC02	26/12/2005
31556912	A02BC02	13/07/2010
31184911	A02BC02	22/12/2006
31033638	A02BC02	22/12/2005
31687887	A02BC02	12/02/2007
32221527	A02BC02	13/09/2007
31150130	A02BC02	11/03/2011
31471339	A02BC02	15/07/2010
31328449	A02BC02	29/12/2010
31030230	A02BC02	08/03/2010
31714393	A02BC02	22/04/2008
32172719	A02BC02	08/02/2005
31104559	A02BC02	30/11/2007
31610642	A02BC02	21/01/2010
32253685	A02BC02	08/09/2006
31150444	A02BC02	24/01/2011
31284012	A02BC02	14/09/2009
31206444	A02BC02	16/02/2007
31182204	A02BC02	17/01/2008
31049205	A02BC02	12/06/2009
31177288	A02BC02	24/08/2004
31151033	A02BC02	15/12/2008
32211217	A02BC02	12/09/2008
32028980	A02BC02	18/07/2008
31166106	A02BC02	18/10/2006
31192222	A02BC02	03/12/2009
31083826	A02BC02	16/06/2006
32090185	A02BC02	05/05/2011
32205708	A02BC02	02/11/2001
31897149	A02BC02	28/03/2011
31937147	A02BC02	16/12/2005
31929829	A02BC02	15/05/2011
31586422	A02BC02	29/03/2007
32093133	A02BC02	12/04/2006
32025525	A02BC02	31/12/2001
31928040	A02BC02	02/11/2009
31636008	A02BC02	15/04/2011
31327954	A02BC02	19/11/2007
31259283	A02BC02	01/12/2009
31792708	A02BC02	27/10/2008
32280905	A02BC02	06/08/2009
32154430	A02BC02	23/04/2011
31449578	A02BC02	20/12/2010
31689849	A02BC02	24/02/2011
31948679	A02BC02	22/12/2009
31540682	A02BC02	17/06/2010
32253149	A02BC02	28/08/2007
31141549	A02BC02	19/01/2006
31863861	A02BC02	14/10/2009
32155393	A02BC02	06/08/2007
31951386	A02BC02	07/02/2003
31677081	A02BC02	07/03/2011
31566066	A02BC02	16/03/2011
31107785	A02BC02	05/05/2010
31638728	A02BC02	07/01/2010
31918461	A02BC02	05/08/2008
31291105	A02BC02	09/02/2005
31418065	A02BC02	29/11/2010
31077181	A02BC02	17/03/2006
31532642	A02BC02	11/07/2006
31855887	A02BC02	07/04/2011
32274498	A02BC02	04/07/2002
32121072	A02BC02	22/04/2009
31057360	A02BC02	05/01/2006
32203338	A02BC02	16/02/2005
31370295	A02BC02	01/09/2010
32061134	A02BC02	05/05/2011
32220436	A02BC02	25/04/2007
32127720	A02BC02	22/05/2008
31246669	A02BC02	15/11/2010
31329818	A02BC02	18/02/2008
31624367	A02BC02	07/10/2003
31893874	A02BC02	29/04/2008
32233236	A02BC02	19/03/2008
31967668	A02BC02	24/01/2011
32178757	A02BC02	06/08/2007
31157330	A02BC02	15/12/2009
31703712	A02BC02	20/10/2004
31372876	A02BC02	10/11/2008
31850117	A02BC02	18/10/2010
