patient_id	covar_name	date
8277218	A02BC03	22/09/2006
12694596	A02BC03	30/01/2009
12780476	A02BC03	01/02/2011
6757349	A02BC03	03/05/2011
10333546	A02BC03	28/04/2011
729621	A02BC03	19/06/2007
12782183	A02BC03	18/01/2011
960050	A02BC03	23/12/2003
6040714	A02BC03	15/11/2007
21859577	A02BC03	07/05/2011
12774533	A02BC03	29/12/2006
61642	A02BC03	14/02/2006
12182578	A02BC03	26/07/2005
5028478	A02BC03	25/11/2005
23471437	A02BC03	14/09/2006
733774	A02BC03	22/10/2004
12774896	A02BC03	10/07/2006
10269371	A02BC03	29/05/2009
21871359	A02BC03	17/06/2005
12761176	A02BC03	16/02/2011
8784088	A02BC03	05/05/2011
5812917	A02BC03	18/03/2010
8568002	A02BC03	14/12/2009
18628739	A02BC03	27/04/2006
12694724	A02BC03	04/05/2011
10003781	A02BC03	27/12/2005
21370773	A02BC03	16/06/2005
5029453	A02BC03	18/05/2011
15384882	A02BC03	02/01/2007
13916750	A02BC03	28/04/2011
6747268	A02BC03	20/04/2004
9370774	A02BC03	15/09/2008
6417535	A02BC03	29/06/2005
10393855	A02BC03	30/07/2008
3288827	A02BC03	26/05/2010
9983468	A02BC03	26/03/2008
5035573	A02BC03	20/05/2011
1124827	A02BC03	08/03/2005
3122629	A02BC03	30/11/2009
9373512	A02BC03	11/03/2005
9179006	A02BC03	16/12/2008
608929	A02BC03	19/10/2009
9230590	A02BC03	26/12/2006
6080444	A02BC03	20/01/2009
9346624	A02BC03	01/06/2011
9371920	A02BC03	09/05/2008
6749026	A02BC03	08/04/2005
12184697	A02BC03	03/09/2004
740565	A02BC03	27/02/2006
9227211	A02BC03	24/08/2009
18513368	A02BC03	05/06/2006
8786041	A02BC03	18/04/2008
8979574	A02BC03	17/11/2008
12739770	A02BC03	31/07/2007
12739033	A02BC03	01/12/2010
9376383	A02BC03	21/08/2007
24937833	A02BC03	05/05/2011
3288763	A02BC03	06/05/2011
6746616	A02BC03	07/04/2011
24729397	A02BC03	17/02/2010
9997839	A02BC03	05/10/2010
20283292	A02BC03	21/09/2007
10004388	A02BC03	13/09/2005
9309990	A02BC03	19/08/2004
12731532	A02BC03	27/05/2011
23442442	A02BC03	14/03/2007
10270367	A02BC03	18/03/2011
8978915	A02BC03	20/05/2008
8785213	A02BC03	01/12/2009
16915547	A02BC03	15/07/2009
21871596	A02BC03	23/02/2001
12688464	A02BC03	30/03/2009
740818	A02BC03	24/03/2011
12731064	A02BC03	18/03/2004
9215265	A02BC03	28/03/2011
7407097	A02BC03	27/07/2010
1517271	A02BC03	01/09/2009
9983430	A02BC03	28/06/2006
8651387	A02BC03	20/05/2011
9388668	A02BC03	29/12/2006
207716	A02BC03	22/01/2004
12731794	A02BC03	15/12/2010
23471645	A02BC03	17/01/2008
9320295	A02BC03	25/05/2006
12183551	A02BC03	10/07/2009
6752729	A02BC03	06/11/2009
9375773	A02BC03	23/08/2007
8639773	A02BC03	03/07/2006
609389	A02BC03	04/06/2010
25051083	A02BC03	09/05/2007
9319288	A02BC03	09/05/2011
9218975	A02BC03	12/05/2009
15237928	A02BC03	12/06/2009
10245628	A02BC03	18/05/2006
1331808	A02BC03	17/03/2011
9376083	A02BC03	17/10/2007
8554604	A02BC03	22/02/2010
25041721	A02BC03	27/04/2011
9210774	A02BC03	13/03/2007
8556760	A02BC03	03/05/2011
12688652	A02BC03	21/12/2010
6747893	A02BC03	05/04/2011
9225853	A02BC03	31/03/2006
12761502	A02BC03	18/08/2005
1936960	A02BC03	12/06/2008
10394089	A02BC03	23/02/2005
8699119	A02BC03	04/03/2003
8643485	A02BC03	19/09/2006
8979107	A02BC03	16/02/2010
8651304	A02BC03	02/06/2010
6040773	A02BC03	21/10/2005
8654399	A02BC03	25/06/2010
12730973	A02BC03	19/02/2009
9220334	A02BC03	21/04/2006
25047741	A02BC03	22/11/2007
9219009	A02BC03	24/08/2006
23471965	A02BC03	22/10/2004
9370823	A02BC03	20/05/2011
939363	A02BC03	21/04/2008
949119	A02BC03	24/06/2009
9311838	A02BC03	19/08/2008
9220825	A02BC03	25/01/2006
12766507	A02BC03	17/05/2005
12738517	A02BC03	01/09/2010
16098361	A02BC03	08/10/2007
6624155	A02BC03	19/03/2008
9383229	A02BC03	19/05/2005
8959106	A02BC03	24/05/2010
12173275	A02BC03	28/03/2005
8292120	A02BC03	12/05/2011
16557300	A02BC03	03/02/2006
9283784	A02BC03	07/07/2005
12691271	A02BC03	04/03/2010
21806555	A02BC03	28/01/2008
9984869	A02BC03	17/02/2009
14816674	A02BC03	21/06/2010
13733796	A02BC03	24/05/2010
7781621	A02BC03	07/01/2010
1171088	A02BC03	29/07/2003
6841194	A02BC03	01/04/2011
15899941	A02BC03	11/05/2011
23996759	A02BC03	31/10/2006
21644622	A02BC03	31/05/2011
3067637	A02BC03	28/12/2009
6424891	A02BC03	21/02/2011
7967014	A02BC03	12/08/2008
524925	A02BC03	01/10/2007
1350698	A02BC03	24/01/2011
1417651	A02BC03	06/04/2010
8067146	A02BC03	20/04/2007
6603958	A02BC03	01/06/2011
25335939	A02BC03	01/12/2009
7964357	A02BC03	12/05/2011
1853226	A02BC03	23/08/2010
9915680	A02BC03	04/05/2011
7777584	A02BC03	04/01/2008
7848911	A02BC03	23/10/2006
1264701	A02BC03	26/05/2011
1200287	A02BC03	17/08/2004
7777348	A02BC03	26/09/2005
7966101	A02BC03	20/05/2011
26138989	A02BC03	02/03/2011
7231691	A02BC03	31/05/2011
6594059	A02BC03	03/04/2007
1262655	A02BC03	02/08/2005
1199932	A02BC03	25/03/2011
4699898	A02BC03	06/05/2011
1210419	A02BC03	30/10/2006
1546096	A02BC03	26/02/2007
1263785	A02BC03	07/04/2010
1849477	A02BC03	14/03/2011
646268	A02BC03	15/04/2011
26144152	A02BC03	27/12/2006
1353807	A02BC03	26/09/2005
516372	A02BC03	11/01/2006
1445979	A02BC03	24/05/2011
1850465	A02BC03	11/05/2007
8933284	A02BC03	01/06/2011
1547420	A02BC03	25/03/2004
7850022	A02BC03	28/08/2009
24719988	A02BC03	12/05/2011
8955504	A02BC03	20/04/2006
645626	A02BC03	31/01/2011
7972394	A02BC03	05/05/2009
5489882	A02BC03	28/01/2008
7970589	A02BC03	09/01/2004
1545551	A02BC03	25/06/2007
22585985	A02BC03	19/11/2009
13986535	A02BC03	31/05/2011
7966461	A02BC03	31/05/2011
1443689	A02BC03	23/06/2005
1354463	A02BC03	05/02/2007
7781275	A02BC03	18/10/2007
515680	A02BC03	09/06/2003
7848713	A02BC03	29/04/2003
1443112	A02BC03	13/05/2010
1417941	A02BC03	05/05/2009
12605907	A02BC03	17/07/2008
1198913	A02BC03	19/09/2005
1211186	A02BC03	06/08/2010
7801045	A02BC03	17/10/2006
7802108	A02BC03	24/10/2007
1207086	A02BC03	14/11/2007
5992267	A02BC03	15/04/2009
1172012	A02BC03	27/06/2000
6378838	A02BC03	30/03/2010
1351123	A02BC03	20/01/2011
1320212	A02BC03	22/08/2007
1355824	A02BC03	11/05/2009
7769677	A02BC03	05/05/2005
1443510	A02BC03	16/09/2005
6594523	A02BC03	23/05/2011
525368	A02BC03	19/05/2011
1204719	A02BC03	29/05/2008
6592990	A02BC03	02/09/2008
6842492	A02BC03	07/04/2005
1202451	A02BC03	10/05/2011
25248948	A02BC03	16/05/2011
1199703	A02BC03	03/01/2011
7777716	A02BC03	16/12/2009
1207737	A02BC03	15/06/2007
23843778	A02BC03	21/08/2007
6595383	A02BC03	04/11/2008
1349840	A02BC03	11/01/2011
7972630	A02BC03	27/12/2007
7776254	A02BC03	02/06/2005
1354581	A02BC03	26/03/2010
13986679	A02BC03	21/07/2003
25355224	A02BC03	03/11/2009
1209005	A02BC03	14/06/2006
13116462	A02BC03	26/05/2011
6951044	A02BC03	22/05/2011
1641372	A02BC03	16/11/2010
1647457	A02BC03	20/04/2006
12788182	A02BC03	01/09/2009
4678923	A02BC03	25/03/2010
1638216	A02BC03	26/05/2011
25883724	A02BC03	10/07/2007
1132264	A02BC03	16/03/2011
716938	A02BC03	14/12/2010
1208371	A02BC03	30/03/2011
1647348	A02BC03	01/04/2011
25883584	A02BC03	24/08/2006
25776586	A02BC03	01/09/2009
1638708	A02BC03	26/12/2007
1132387	A02BC03	02/03/2004
25894698	A02BC03	13/02/2008
25768791	A02BC03	24/05/2011
994631	A02BC03	01/04/2009
487179	A02BC03	04/05/2011
1103757	A02BC03	11/11/2009
2800314	A02BC03	28/12/2006
1027312	A02BC03	11/08/2010
6950930	A02BC03	25/08/2006
487297	A02BC03	29/01/2007
995675	A02BC03	01/07/2010
25891366	A02BC03	25/05/2010
1135310	A02BC03	30/05/2011
486317	A02BC03	02/08/2006
1101830	A02BC03	16/03/2009
25817849	A02BC03	29/12/2004
1639147	A02BC03	29/08/2007
2646974	A02BC03	07/02/2008
25891788	A02BC03	13/01/2011
1099824	A02BC03	18/05/2005
25904870	A02BC03	22/02/2010
189189	A02BC03	22/09/2009
21282892	A02BC03	25/05/2011
1578839	A02BC03	10/02/2010
12788129	A02BC03	21/04/2009
1106381	A02BC03	17/12/2008
1639056	A02BC03	21/07/2003
890246	A02BC03	15/12/2005
1101989	A02BC03	10/02/2011
7427930	A02BC03	03/04/2007
1855343	A02BC03	04/05/2011
135815	A02BC03	09/03/1999
1552120	A02BC03	26/01/2006
1006885	A02BC03	12/08/2003
1103040	A02BC03	23/05/2011
890201	A02BC03	18/02/2004
890168	A02BC03	21/12/2007
1638509	A02BC03	22/03/2006
25892496	A02BC03	25/05/2011
996393	A02BC03	19/05/2005
1132169	A02BC03	29/08/2005
190945	A02BC03	11/02/2010
1103285	A02BC03	06/10/2005
1638934	A02BC03	22/08/2007
4693455	A02BC03	07/03/2007
1581260	A02BC03	12/05/2011
1640729	A02BC03	31/01/2005
194827	A02BC03	21/12/2007
194090	A02BC03	28/07/2006
1135038	A02BC03	25/03/2010
1134812	A02BC03	01/07/2009
1132627	A02BC03	20/01/2011
5679864	A02BC03	20/06/2008
1110455	A02BC03	11/01/2005
1031773	A02BC03	23/02/2011
1101207	A02BC03	28/04/2009
2216986	A02BC03	10/05/2011
2217407	A02BC03	16/05/2011
2214495	A02BC03	23/08/2007
2217081	A02BC03	12/05/2011
2110088	A02BC03	01/11/2005
2068682	A02BC03	31/05/2011
2068080	A02BC03	25/04/2004
2140359	A02BC03	17/07/2008
2139418	A02BC03	19/04/2006
2215430	A02BC03	10/02/2011
2138590	A02BC03	23/05/2006
2215196	A02BC03	28/10/2009
1754454	A02BC03	14/06/2010
2140421	A02BC03	17/01/2005
1755667	A02BC03	18/04/2011
1682828	A02BC03	21/09/2005
1682937	A02BC03	05/09/2005
1767520	A02BC03	10/03/2011
904017	A02BC03	25/06/2008
902142	A02BC03	27/04/2006
877611	A02BC03	13/07/2007
3053306	A02BC03	24/10/2001
7134077	A02BC03	13/05/2004
7037594	A02BC03	01/02/2010
1767375	A02BC03	19/04/2007
904406	A02BC03	09/12/2004
2034398	A02BC03	11/10/2007
876211	A02BC03	16/05/2011
7038528	A02BC03	28/04/2011
7038536	A02BC03	19/07/2007
7048894	A02BC03	17/09/2008
3055184	A02BC03	22/01/2002
3055375	A02BC03	14/03/2002
3052049	A02BC03	14/04/2011
3049761	A02BC03	08/02/2009
2778447	A02BC03	07/02/2007
2811818	A02BC03	06/05/2003
2756706	A02BC03	15/04/2004
2754283	A02BC03	18/11/2009
2406926	A02BC03	26/10/2010
2714643	A02BC03	16/04/2009
2520230	A02BC03	03/05/2011
2756008	A02BC03	09/11/2005
2756025	A02BC03	03/02/2010
2713743	A02BC03	11/05/2011
2520367	A02BC03	27/11/2009
2522313	A02BC03	16/01/2006
2756982	A02BC03	17/05/2007
2407695	A02BC03	30/03/2007
2407446	A02BC03	03/10/2006
2525970	A02BC03	22/05/2011
2713002	A02BC03	14/12/2010
2521933	A02BC03	21/02/2006
16980510	A02BC03	27/10/2006
2522658	A02BC03	08/01/2008
2525520	A02BC03	23/05/2011
2713954	A02BC03	14/03/2011
2239113	A02BC03	06/11/2006
16835317	A02BC03	22/04/2009
28065993	A02BC03	30/05/2011
26350464	A02BC03	18/05/2011
28063350	A02BC03	03/04/2000
26442238	A02BC03	10/05/2011
28063531	A02BC03	17/06/2008
26426041	A02BC03	03/05/2010
26503596	A02BC03	10/05/2010
26338306	A02BC03	07/05/2008
26236326	A02BC03	18/05/2011
17746470	A02BC03	10/02/2010
7137654	A02BC03	19/05/2011
26256480	A02BC03	28/08/2004
7047760	A02BC03	12/01/2011
20673831	A02BC03	18/05/2011
7035689	A02BC03	01/06/2011
26244722	A02BC03	17/05/2011
18223828	A02BC03	30/07/2010
17744958	A02BC03	25/02/2011
17041146	A02BC03	02/12/2009
18223290	A02BC03	19/12/2005
26338968	A02BC03	30/12/2008
20796545	A02BC03	29/04/2010
26425083	A02BC03	08/06/2006
26342789	A02BC03	29/06/2007
26564522	A02BC03	06/10/2009
26182006	A02BC03	19/04/2011
22092867	A02BC03	30/09/2008
24908384	A02BC03	25/05/2011
26338153	A02BC03	12/05/2011
17745951	A02BC03	05/05/2010
26244453	A02BC03	24/09/2010
17040834	A02BC03	30/01/2003
16952770	A02BC03	22/07/2009
16836109	A02BC03	07/07/2008
16980452	A02BC03	19/02/2007
7144123	A02BC03	16/02/2007
7038185	A02BC03	13/03/2009
16836479	A02BC03	26/06/2008
1903409	A02BC03	31/05/2011
2961249	A02BC03	23/02/2010
184887	A02BC03	16/04/2010
185473	A02BC03	19/05/2008
2959322	A02BC03	04/12/2009
4748390	A02BC03	10/05/2011
2958455	A02BC03	03/07/2007
2964155	A02BC03	22/01/2007
8045081	A02BC03	24/06/2008
20515560	A02BC03	02/02/2010
3053216	A02BC03	17/08/2006
3054239	A02BC03	03/07/2006
7136276	A02BC03	16/10/2006
7128685	A02BC03	11/05/2011
28083702	A02BC03	01/07/2005
20147197	A02BC03	09/11/2010
18223471	A02BC03	05/05/2011
28078871	A02BC03	07/09/2009
2755660	A02BC03	09/08/2006
650372	A02BC03	28/12/2009
462688	A02BC03	30/01/2001
17741586	A02BC03	28/04/2008
184353	A02BC03	19/10/2010
186094	A02BC03	04/03/2009
181481	A02BC03	01/12/2009
184560	A02BC03	23/07/2009
463352	A02BC03	29/04/2004
187189	A02BC03	13/08/2007
184640	A02BC03	13/04/2006
184746	A02BC03	03/01/2007
17040128	A02BC03	27/07/2004
902948	A02BC03	20/01/2009
419430	A02BC03	02/12/2009
187998	A02BC03	08/09/2006
425839	A02BC03	25/02/2010
186865	A02BC03	13/10/2008
183588	A02BC03	04/10/2005
423546	A02BC03	05/10/2006
28064907	A02BC03	05/04/2010
425295	A02BC03	22/12/2010
265148	A02BC03	27/06/2006
300557	A02BC03	12/05/2011
185927	A02BC03	16/05/2011
28052753	A02BC03	17/01/2008
28072352	A02BC03	10/11/2005
28047186	A02BC03	18/09/2009
28065315	A02BC03	26/12/2005
28065876	A02BC03	03/05/2011
28071032	A02BC03	08/10/2007
28056641	A02BC03	22/10/2010
28045535	A02BC03	13/08/2010
28056690	A02BC03	24/06/2009
24655567	A02BC03	21/07/2005
25742932	A02BC03	11/01/2011
24666863	A02BC03	19/12/2003
25742680	A02BC03	03/02/2011
25742981	A02BC03	11/11/2009
25743607	A02BC03	29/03/2006
25539451	A02BC03	10/12/2010
25588570	A02BC03	26/06/2009
24665838	A02BC03	04/09/2007
25641792	A02BC03	05/06/2009
24668665	A02BC03	04/11/2008
25738847	A02BC03	25/01/2011
24669225	A02BC03	29/10/2009
26629170	A02BC03	11/06/2006
25741338	A02BC03	10/01/2008
25554270	A02BC03	12/04/2007
1019290	A02BC03	09/11/2009
1015740	A02BC03	24/04/2008
1020352	A02BC03	17/10/2007
18190205	A02BC03	12/01/2004
19424121	A02BC03	24/03/2008
1014507	A02BC03	27/05/2011
1363712	A02BC03	15/04/2011
1367639	A02BC03	23/05/2011
1371652	A02BC03	01/06/2011
1361706	A02BC03	15/05/2011
1030976	A02BC03	11/07/2008
18195981	A02BC03	18/12/2008
40273	A02BC03	10/10/2008
21553972	A02BC03	09/01/2009
1371015	A02BC03	16/05/2011
1017369	A02BC03	02/11/2007
422231	A02BC03	27/05/2003
41017	A02BC03	07/05/2011
19801995	A02BC03	02/09/2009
21063127	A02BC03	18/05/2009
16812198	A02BC03	26/05/2011
21386521	A02BC03	06/05/2011
18190082	A02BC03	02/10/2002
20070622	A02BC03	08/03/2011
18551274	A02BC03	13/04/2011
18194455	A02BC03	03/04/2006
21064688	A02BC03	19/02/2009
18191207	A02BC03	30/06/2008
22757992	A02BC03	17/05/2011
22757998	A02BC03	18/03/2009
21063993	A02BC03	06/04/2006
21063093	A02BC03	25/05/2009
18193920	A02BC03	26/08/2008
19799679	A02BC03	24/08/2006
25742893	A02BC03	03/02/2009
4312803	A02BC03	30/05/2011
1019721	A02BC03	03/03/2006
1899482	A02BC03	10/01/2008
2957533	A02BC03	05/11/2003
1370373	A02BC03	20/10/2008
2250994	A02BC03	08/09/2009
2988326	A02BC03	31/03/2006
1015862	A02BC03	09/05/2011
1904262	A02BC03	02/08/2010
1361752	A02BC03	02/03/2011
2959039	A02BC03	16/03/2009
1366818	A02BC03	23/02/2011
1989405	A02BC03	20/10/2009
8109355	A02BC03	08/10/2009
1363174	A02BC03	30/05/2011
3055681	A02BC03	11/05/2010
26703633	A02BC03	09/11/2009
26703690	A02BC03	13/08/2009
26856517	A02BC03	11/05/2010
26621036	A02BC03	18/02/2006
26778699	A02BC03	20/05/2009
26770421	A02BC03	23/05/2011
26856096	A02BC03	12/08/2005
26719457	A02BC03	26/05/2011
26700714	A02BC03	19/05/2009
26790332	A02BC03	05/05/2009
26802233	A02BC03	15/03/2006
26830352	A02BC03	09/04/2008
26639040	A02BC03	21/07/2006
26772093	A02BC03	29/08/2006
26700114	A02BC03	28/01/2009
11675079	A02BC03	16/05/2011
16104775	A02BC03	23/02/2005
23484253	A02BC03	27/03/2008
22881967	A02BC03	05/09/2005
2988172	A02BC03	14/03/2011
2987979	A02BC03	16/05/2011
16105997	A02BC03	11/09/2006
12976348	A02BC03	22/09/2003
2987297	A02BC03	26/01/2011
2988267	A02BC03	04/10/2010
24581856	A02BC03	10/08/2009
24579211	A02BC03	02/10/2006
13788822	A02BC03	10/01/2008
13873963	A02BC03	26/08/2008
24654532	A02BC03	19/05/2006
13871949	A02BC03	23/09/2009
26722551	A02BC03	10/05/2011
26722558	A02BC03	21/04/2006
26719543	A02BC03	06/07/2009
25740918	A02BC03	27/11/2006
26640542	A02BC03	03/05/2004
26630888	A02BC03	27/03/2005
14310089	A02BC03	20/05/2005
26721016	A02BC03	30/05/2011
26627930	A02BC03	20/03/2009
26706433	A02BC03	19/05/2011
26701387	A02BC03	13/03/2009
26719166	A02BC03	25/08/2008
26702888	A02BC03	18/05/2011
22908901	A02BC03	06/11/2002
24662589	A02BC03	29/10/2007
21651489	A02BC03	05/08/2005
24577473	A02BC03	19/05/2009
24655486	A02BC03	28/11/2003
24578953	A02BC03	23/09/2008
24651623	A02BC03	03/10/2006
22922995	A02BC03	05/05/2003
24582582	A02BC03	13/05/2011
22922696	A02BC03	03/10/2007
24656355	A02BC03	13/09/2006
21651387	A02BC03	25/05/2011
22922309	A02BC03	02/05/2011
24593639	A02BC03	22/01/2009
24520378	A02BC03	21/02/2011
26917078	A02BC03	30/08/2010
26894948	A02BC03	22/11/2010
26916982	A02BC03	20/11/2007
26936433	A02BC03	05/01/2005
26894714	A02BC03	21/05/2011
26932224	A02BC03	30/03/2010
26938144	A02BC03	19/12/2001
26933236	A02BC03	19/05/2010
26917769	A02BC03	11/01/2008
27012612	A02BC03	18/05/2011
26992878	A02BC03	06/03/2009
26895311	A02BC03	14/01/2008
26729083	A02BC03	03/01/2009
26729787	A02BC03	21/04/2010
26730017	A02BC03	30/11/2006
26717135	A02BC03	26/05/2011
26713271	A02BC03	18/05/2011
26779381	A02BC03	17/03/2011
26760881	A02BC03	26/05/2011
26782134	A02BC03	18/12/2009
26854601	A02BC03	06/05/2011
26845617	A02BC03	01/02/2010
26703793	A02BC03	06/07/2008
26779554	A02BC03	16/05/2011
26714937	A02BC03	27/04/2011
26776105	A02BC03	14/07/2010
26867867	A02BC03	12/04/2011
26710859	A02BC03	24/06/2005
26845358	A02BC03	31/10/2006
26848752	A02BC03	27/10/2006
26887343	A02BC03	10/05/2011
26850877	A02BC03	23/11/2010
26846652	A02BC03	12/07/2005
26873940	A02BC03	16/04/2007
26938380	A02BC03	03/01/2007
26874201	A02BC03	13/11/2008
26847639	A02BC03	01/06/2011
26888607	A02BC03	23/04/2010
26916879	A02BC03	21/04/2006
26730688	A02BC03	26/08/2005
26713672	A02BC03	31/01/2008
26776303	A02BC03	25/05/2011
26769553	A02BC03	27/05/2011
26707554	A02BC03	27/08/2009
26768700	A02BC03	01/08/2006
26857019	A02BC03	01/06/2007
26712779	A02BC03	24/05/2011
26829712	A02BC03	25/02/2008
26761941	A02BC03	05/05/2011
26717001	A02BC03	01/06/2011
26835837	A02BC03	26/03/2008
26855405	A02BC03	27/08/2008
26815899	A02BC03	27/10/2009
26717132	A02BC03	23/07/2009
26995682	A02BC03	30/11/2010
26977158	A02BC03	16/02/2006
27073339	A02BC03	07/09/2009
26999711	A02BC03	11/08/2008
26972816	A02BC03	14/05/2010
26990088	A02BC03	19/12/2006
27061838	A02BC03	16/10/2010
26976941	A02BC03	16/05/2011
26974496	A02BC03	06/05/2009
27067241	A02BC03	07/12/2006
26992609	A02BC03	25/08/2006
27074052	A02BC03	22/04/2008
27102099	A02BC03	26/04/2007
27112721	A02BC03	09/10/2006
27114352	A02BC03	05/09/2008
27115106	A02BC03	26/07/2006
27101571	A02BC03	31/03/2011
27088738	A02BC03	19/11/2010
27084455	A02BC03	24/06/2005
27086095	A02BC03	27/08/2008
27151273	A02BC03	12/02/2007
27114280	A02BC03	20/01/2006
27086129	A02BC03	26/10/2005
27113830	A02BC03	05/05/2011
27086224	A02BC03	10/10/2010
27100788	A02BC03	28/11/2007
27100098	A02BC03	07/12/2004
27084312	A02BC03	13/02/2007
27061141	A02BC03	22/12/2008
27126993	A02BC03	28/05/2011
27065167	A02BC03	13/10/2007
27043267	A02BC03	28/02/2008
27061621	A02BC03	15/02/2007
27033644	A02BC03	01/08/2008
27082854	A02BC03	17/05/2011
27065702	A02BC03	14/08/2008
27074929	A02BC03	23/12/2008
27044414	A02BC03	21/05/2009
27085882	A02BC03	14/04/2009
27106068	A02BC03	20/04/2006
27052793	A02BC03	25/05/2005
27072046	A02BC03	28/02/2005
27065487	A02BC03	16/06/2010
27111686	A02BC03	24/11/2003
27034790	A02BC03	04/12/2009
27046535	A02BC03	24/08/2010
27005058	A02BC03	13/07/2010
27037502	A02BC03	20/02/2008
26998494	A02BC03	11/05/2011
27005260	A02BC03	25/04/2010
27042189	A02BC03	31/12/2009
27004441	A02BC03	16/11/2005
27042033	A02BC03	19/04/2011
27024244	A02BC03	22/11/2008
27023858	A02BC03	21/11/2006
26991921	A02BC03	26/07/2007
27036781	A02BC03	20/09/2004
27012526	A02BC03	17/02/2006
26996376	A02BC03	12/01/2011
26981833	A02BC03	10/02/2010
26996774	A02BC03	08/06/2009
27000732	A02BC03	30/09/2008
27172399	A02BC03	01/06/2011
27168812	A02BC03	27/12/2007
27168688	A02BC03	18/03/2010
27169345	A02BC03	12/02/2007
27159939	A02BC03	02/01/2006
27286340	A02BC03	20/02/2002
27166936	A02BC03	19/11/2007
27248578	A02BC03	25/05/2011
27172359	A02BC03	28/06/2010
27168136	A02BC03	19/11/2010
27165895	A02BC03	13/06/2008
27219870	A02BC03	17/10/2007
27378775	A02BC03	05/05/2011
27163611	A02BC03	20/11/2008
27166818	A02BC03	10/10/2007
27318585	A02BC03	02/05/2011
27169975	A02BC03	27/06/2009
27365421	A02BC03	27/04/2005
27317155	A02BC03	17/03/2008
27173189	A02BC03	06/05/2011
27219070	A02BC03	11/01/2010
27308809	A02BC03	30/10/2009
27355027	A02BC03	12/05/2011
27362717	A02BC03	19/11/2009
27371161	A02BC03	09/03/2007
27252743	A02BC03	11/10/2007
27305913	A02BC03	05/02/2007
27171600	A02BC03	24/03/2007
27251223	A02BC03	29/01/2007
27170658	A02BC03	14/12/2007
27349595	A02BC03	23/03/2007
27324850	A02BC03	24/04/2009
27305061	A02BC03	24/03/2011
27367264	A02BC03	30/11/2007
27360856	A02BC03	10/07/2010
27360881	A02BC03	21/12/2006
27362240	A02BC03	28/09/2007
27362271	A02BC03	19/05/2011
27317311	A02BC03	03/07/2003
27528333	A02BC03	03/06/2009
27170570	A02BC03	31/03/2009
26989957	A02BC03	30/08/2006
27170141	A02BC03	29/06/2005
27238217	A02BC03	09/12/2004
27246754	A02BC03	31/03/2010
27173476	A02BC03	15/10/2007
26992485	A02BC03	29/01/2010
27173291	A02BC03	09/05/2008
27244390	A02BC03	26/02/2009
26957165	A02BC03	01/01/2008
26957779	A02BC03	21/10/2009
27169743	A02BC03	30/04/2009
27169775	A02BC03	13/05/2011
27247220	A02BC03	22/10/2009
26990376	A02BC03	12/03/2009
27200892	A02BC03	25/07/2008
26989196	A02BC03	18/05/2011
27170093	A02BC03	27/11/2007
27607371	A02BC03	16/10/2002
27600652	A02BC03	06/05/2011
27660974	A02BC03	08/01/2010
27641447	A02BC03	19/09/2005
27592604	A02BC03	24/05/2011
27607308	A02BC03	27/03/2006
27577722	A02BC03	29/07/2007
27646878	A02BC03	06/03/2007
27623983	A02BC03	10/04/2010
27642076	A02BC03	19/12/2007
27645042	A02BC03	21/07/2006
27707330	A02BC03	21/01/2009
27444188	A02BC03	18/09/2007
27661768	A02BC03	14/12/2004
27481247	A02BC03	20/11/2008
27476407	A02BC03	12/11/2007
27420591	A02BC03	21/07/2009
27641136	A02BC03	26/05/2011
27477369	A02BC03	30/03/2011
27644250	A02BC03	04/11/2010
27414124	A02BC03	19/05/2011
27443971	A02BC03	31/12/2007
27493297	A02BC03	04/06/2010
27476227	A02BC03	03/05/2011
27481454	A02BC03	03/01/2011
27481473	A02BC03	22/10/2009
27477467	A02BC03	21/09/2007
27479406	A02BC03	01/02/2006
27442405	A02BC03	21/05/2010
27472551	A02BC03	15/02/2011
27660215	A02BC03	17/05/2005
27657228	A02BC03	12/05/2011
27414013	A02BC03	17/09/2007
27716882	A02BC03	11/12/2006
27717220	A02BC03	20/04/2011
27621282	A02BC03	19/11/2007
27764087	A02BC03	22/07/2009
27572901	A02BC03	03/04/2009
27621566	A02BC03	13/03/2008
27716033	A02BC03	06/08/2008
27716087	A02BC03	22/11/2006
27633264	A02BC03	29/03/2011
27127287	A02BC03	26/07/2007
27163798	A02BC03	02/01/2009
27286838	A02BC03	25/05/2011
27160607	A02BC03	31/05/2011
27234266	A02BC03	23/02/2007
27165352	A02BC03	04/01/2011
27167394	A02BC03	25/01/2008
27159559	A02BC03	31/10/2010
27247057	A02BC03	16/02/2011
27151688	A02BC03	14/04/2009
27167812	A02BC03	09/06/2005
27166399	A02BC03	26/04/2011
27284645	A02BC03	24/10/2005
27246921	A02BC03	27/05/2011
27149164	A02BC03	28/01/2011
27229030	A02BC03	20/05/2011
27000523	A02BC03	29/12/2009
27000618	A02BC03	06/05/2011
26954350	A02BC03	27/05/2011
27782560	A02BC03	02/12/2003
26971672	A02BC03	28/12/2009
26835049	A02BC03	31/01/2006
27071836	A02BC03	04/02/2009
24579212	A02BC03	17/03/2009
18187165	A02BC03	19/11/2001
1905637	A02BC03	04/03/2011
26829603	A02BC03	21/04/2009
27708348	A02BC03	19/07/2010
26846863	A02BC03	31/12/2010
27475185	A02BC03	28/10/2009
27716439	A02BC03	28/05/2010
27684641	A02BC03	31/01/2003
27533855	A02BC03	06/04/2009
27772597	A02BC03	11/05/2011
27679924	A02BC03	19/02/2004
27535710	A02BC03	08/04/2009
27782453	A02BC03	13/02/2004
27475077	A02BC03	06/03/2006
27533971	A02BC03	13/02/2004
27457636	A02BC03	14/11/2005
27679944	A02BC03	18/10/2002
27779766	A02BC03	08/05/2011
27531090	A02BC03	25/05/2006
27771990	A02BC03	25/10/2005
27664085	A02BC03	09/02/2005
27664454	A02BC03	31/03/2009
27614649	A02BC03	28/02/2011
25733827	A02BC03	15/10/2010
27062706	A02BC03	09/05/2011
27663724	A02BC03	21/03/2006
26992037	A02BC03	01/06/2011
27785751	A02BC03	06/05/2011
2987154	A02BC03	19/04/2005
27163713	A02BC03	08/10/2010
27444018	A02BC03	22/04/2005
27301086	A02BC03	11/02/2009
27496005	A02BC03	09/06/2005
27600832	A02BC03	16/11/2006
27458245	A02BC03	25/05/2011
27597126	A02BC03	19/05/2011
27472039	A02BC03	29/12/2009
27449518	A02BC03	28/09/2005
27578040	A02BC03	12/02/2008
27459762	A02BC03	28/06/2006
27574467	A02BC03	19/05/2006
27614274	A02BC03	25/10/2005
27574050	A02BC03	30/05/2011
27496273	A02BC03	23/05/2011
27602647	A02BC03	14/10/2008
26895421	A02BC03	15/05/2008
27796602	A02BC03	16/03/2010
26624785	A02BC03	20/03/2006
27244108	A02BC03	12/12/2006
27160154	A02BC03	09/05/2011
27798131	A02BC03	14/01/2011
26833671	A02BC03	04/01/2010
27475135	A02BC03	14/06/2010
1904389	A02BC03	05/11/2007
1900173	A02BC03	07/09/2006
27154246	A02BC03	19/07/2010
27796469	A02BC03	18/03/2011
27683295	A02BC03	06/09/2006
26760247	A02BC03	12/05/2011
27804595	A02BC03	21/05/2010
27169816	A02BC03	27/04/2009
27799547	A02BC03	13/11/2008
27758964	A02BC03	09/02/2011
27666334	A02BC03	11/05/2011
27805960	A02BC03	18/04/2011
27761994	A02BC03	17/01/2011
27762464	A02BC03	27/04/2009
27694886	A02BC03	27/04/2011
27717578	A02BC03	07/01/2009
27715841	A02BC03	28/02/2011
26730671	A02BC03	23/05/2011
424828	A02BC03	22/04/2009
27160253	A02BC03	22/02/2008
187456	A02BC03	14/05/2011
2963777	A02BC03	21/04/2005
27767366	A02BC03	01/03/2006
2962414	A02BC03	26/08/2008
27720525	A02BC03	09/12/2005
464047	A02BC03	11/12/2006
27520212	A02BC03	26/04/2001
18198050	A02BC03	26/10/2006
24581757	A02BC03	25/11/2008
26768870	A02BC03	01/04/2009
27043641	A02BC03	01/06/2011
27452134	A02BC03	03/07/2009
27679236	A02BC03	07/06/2010
26802254	A02BC03	18/02/2011
27532824	A02BC03	08/11/2010
27658055	A02BC03	13/11/2002
27764778	A02BC03	27/03/2009
2988539	A02BC03	22/11/2005
27676304	A02BC03	15/04/2005
27051909	A02BC03	26/05/2011
27037506	A02BC03	22/09/2006
27799355	A02BC03	20/01/2006
27072544	A02BC03	29/07/2010
27796212	A02BC03	08/03/2004
27358783	A02BC03	26/04/2011
27366636	A02BC03	19/05/2011
27778527	A02BC03	19/10/2007
27663382	A02BC03	01/06/2011
27680464	A02BC03	06/04/2011
27163507	A02BC03	07/05/2008
33040260	A02BC03	11/09/2007
33112774	A02BC03	28/07/2003
33089231	A02BC03	27/04/2011
33007786	A02BC03	16/09/2008
33042452	A02BC03	07/11/2006
33015684	A02BC03	27/02/2010
33048157	A02BC03	27/11/2007
33003168	A02BC03	26/07/2004
33072664	A02BC03	16/08/2004
33051475	A02BC03	14/07/2010
33008019	A02BC03	06/08/2007
33068127	A02BC03	11/03/2005
33103941	A02BC03	10/07/2006
33019812	A02BC03	04/09/2007
33086839	A02BC03	04/01/2010
33092896	A02BC03	17/07/2002
33094244	A02BC03	29/06/2010
33043935	A02BC03	27/01/2010
33062908	A02BC03	12/08/2005
33029275	A02BC03	07/01/2004
33011602	A02BC03	04/04/2001
33000627	A02BC03	01/02/2010
33007275	A02BC03	04/05/2011
33144464	A02BC03	25/02/2002
33053828	A02BC03	26/08/2009
33046498	A02BC03	31/01/2006
33050061	A02BC03	03/05/2010
33098096	A02BC03	26/09/2005
33089459	A02BC03	18/02/2005
33069210	A02BC03	16/03/2004
33015149	A02BC03	22/12/2009
33103882	A02BC03	06/05/2002
33015982	A02BC03	10/11/2008
33029258	A02BC03	11/05/2011
33125136	A02BC03	24/08/2009
33068451	A02BC03	25/05/2011
33072614	A02BC03	09/11/2004
33008912	A02BC03	27/05/2011
33108903	A02BC03	31/05/2010
33088577	A02BC03	08/03/2007
33029033	A02BC03	16/05/2011
33073808	A02BC03	09/05/2006
33068508	A02BC03	22/10/2001
33036483	A02BC03	17/02/2011
33019235	A02BC03	10/09/2009
33099318	A02BC03	12/09/2005
33050069	A02BC03	25/05/2010
33016797	A02BC03	18/05/2011
33056431	A02BC03	15/04/2011
33081884	A02BC03	30/09/2004
33006461	A02BC03	22/11/2010
33070878	A02BC03	18/05/2007
33105763	A02BC03	10/05/2006
33091555	A02BC03	26/01/2005
33085261	A02BC03	09/05/2008
33116452	A02BC03	12/05/2008
33057047	A02BC03	17/10/2007
33091965	A02BC03	22/04/2009
33052130	A02BC03	12/07/2007
33028747	A02BC03	08/09/2008
33103577	A02BC03	08/11/2006
33019290	A02BC03	07/11/2006
33072253	A02BC03	22/11/2006
33079795	A02BC03	07/07/2009
33016563	A02BC03	25/11/2009
33095386	A02BC03	29/09/2009
33060297	A02BC03	30/03/2006
33004433	A02BC03	14/03/2007
33049435	A02BC03	03/06/2004
33115962	A02BC03	20/05/2009
33098674	A02BC03	28/11/2005
33039975	A02BC03	19/05/2011
33107924	A02BC03	22/03/2002
33003806	A02BC03	09/04/2010
33020581	A02BC03	22/06/2009
33064809	A02BC03	30/05/2011
33127896	A02BC03	03/06/2008
33001814	A02BC03	24/11/2010
33127008	A02BC03	23/08/2010
33056259	A02BC03	07/12/2004
33013033	A02BC03	22/12/2004
33024315	A02BC03	14/04/2011
33098168	A02BC03	28/04/2003
33060211	A02BC03	10/03/2006
33093456	A02BC03	22/02/2010
33006169	A02BC03	23/02/2005
33048035	A02BC03	11/09/2006
33042324	A02BC03	07/03/2011
33085372	A02BC03	12/03/2007
33080535	A02BC03	28/07/2006
33016075	A02BC03	10/02/2009
33028180	A02BC03	28/01/2011
33026145	A02BC03	24/08/2010
33066419	A02BC03	07/10/2009
33107213	A02BC03	23/11/2007
304463	A02BC03	28/12/2005
27796872	A02BC03	31/05/2011
27074781	A02BC03	17/05/2011
27605240	A02BC03	02/03/2007
6636104	A02BC03	05/05/2010
420958	A02BC03	02/09/2005
27800351	A02BC03	08/11/2006
26624685	A02BC03	31/10/2006
27800055	A02BC03	22/05/2011
183728	A02BC03	25/02/2010
33124177	A02BC03	28/03/2008
26718844	A02BC03	21/06/2005
27800569	A02BC03	29/06/2010
1372143	A02BC03	11/05/2011
185517	A02BC03	26/03/2006
24661802	A02BC03	16/07/2010
2958097	A02BC03	22/05/2011
33008240	A02BC03	27/05/2011
33002823	A02BC03	16/10/2007
27812522	A02BC03	23/02/2007
33020523	A02BC03	25/05/2011
23408153	A02BC03	06/05/2011
16637397	A02BC03	10/05/2006
28018978	A02BC03	23/07/2008
33037240	A02BC03	20/08/2010
16177914	A02BC03	08/08/2001
33206241	A02BC03	19/05/2011
21114796	A02BC03	07/07/2009
33109924	A02BC03	07/11/2008
33231539	A02BC03	23/10/2006
16713414	A02BC03	06/05/2011
23380888	A02BC03	30/10/2008
20983764	A02BC03	30/08/2010
33000835	A02BC03	18/05/2004
21100819	A02BC03	22/03/2011
33312211	A02BC03	12/11/2010
20981877	A02BC03	30/04/2008
33252437	A02BC03	15/04/2011
33253720	A02BC03	03/05/2011
27914451	A02BC03	11/04/2007
20982153	A02BC03	01/02/2009
33089746	A02BC03	04/02/2005
33090531	A02BC03	26/06/2006
33041177	A02BC03	27/12/2010
33095076	A02BC03	25/06/2010
33017775	A02BC03	22/01/2008
33026712	A02BC03	20/04/2007
33056325	A02BC03	05/04/2011
33089370	A02BC03	07/03/2006
33060956	A02BC03	27/10/2003
33074992	A02BC03	17/06/2003
33025702	A02BC03	28/06/2007
33000877	A02BC03	13/10/2000
33079595	A02BC03	15/03/2005
33021411	A02BC03	27/12/2010
33099399	A02BC03	10/02/2011
33060011	A02BC03	21/04/2009
33049405	A02BC03	20/09/2005
33045618	A02BC03	30/08/2010
33113117	A02BC03	28/09/2006
33007224	A02BC03	03/03/2006
33111035	A02BC03	18/02/2009
33000875	A02BC03	26/10/2010
33086443	A02BC03	04/01/2011
33003698	A02BC03	04/02/2003
33005415	A02BC03	14/09/2007
33023608	A02BC03	17/06/2005
33039897	A02BC03	25/05/2011
33050169	A02BC03	23/05/2005
33043124	A02BC03	20/04/2011
33115156	A02BC03	26/02/2008
33086432	A02BC03	25/01/2010
33053146	A02BC03	17/03/2011
33012344	A02BC03	12/05/2011
33045325	A02BC03	12/04/2007
33085783	A02BC03	21/04/2006
33057639	A02BC03	05/02/2007
33065950	A02BC03	22/10/2008
33033727	A02BC03	30/06/2004
33030873	A02BC03	30/06/2008
33007261	A02BC03	29/04/2011
33002563	A02BC03	18/08/2004
33006104	A02BC03	10/01/2011
33050859	A02BC03	03/05/2011
33109468	A02BC03	09/03/2010
33005144	A02BC03	27/07/2007
33088276	A02BC03	20/05/2009
33096009	A02BC03	09/02/2011
33091322	A02BC03	10/01/2008
33046881	A02BC03	04/06/2009
33004431	A02BC03	05/06/2006
33066983	A02BC03	05/01/2011
33109220	A02BC03	17/11/2005
33099799	A02BC03	22/01/2004
33079144	A02BC03	29/01/2009
33091289	A02BC03	05/12/2001
33066033	A02BC03	14/01/2011
33089329	A02BC03	31/10/2005
33008358	A02BC03	29/01/2009
33047751	A02BC03	04/08/2010
33026290	A02BC03	22/01/2010
33073480	A02BC03	05/05/2011
33037060	A02BC03	31/03/2009
33100466	A02BC03	16/09/2009
33017406	A02BC03	17/11/2006
33073595	A02BC03	05/06/2002
33058122	A02BC03	10/08/2004
33020127	A02BC03	25/11/2005
23315706	A02BC03	19/09/2007
18770764	A02BC03	30/06/2003
27983775	A02BC03	09/05/2011
23329515	A02BC03	28/05/2010
27915884	A02BC03	24/09/2010
16683760	A02BC03	18/07/2006
33308973	A02BC03	18/05/2011
33265198	A02BC03	10/05/2011
33244258	A02BC03	25/11/2009
18768076	A02BC03	24/05/2011
23329332	A02BC03	30/11/2007
23408186	A02BC03	24/05/2007
33233293	A02BC03	17/08/2007
33231347	A02BC03	18/05/2011
28022571	A02BC03	23/10/2009
23397922	A02BC03	12/03/2009
23397584	A02BC03	12/06/2008
33287054	A02BC03	11/04/2011
23315590	A02BC03	13/05/2010
23316359	A02BC03	05/05/2004
23397526	A02BC03	11/04/2007
28005728	A02BC03	19/05/2011
21109195	A02BC03	11/02/2010
33245491	A02BC03	06/10/2009
33298283	A02BC03	03/11/2010
16611242	A02BC03	06/10/2007
16637147	A02BC03	13/03/2009
16165687	A02BC03	10/12/2002
16597365	A02BC03	03/01/2008
33202100	A02BC03	18/12/2008
16182953	A02BC03	12/08/2008
33209962	A02BC03	29/04/2011
33293602	A02BC03	08/06/2009
33201856	A02BC03	04/09/2003
33308590	A02BC03	31/07/2006
16652568	A02BC03	29/04/2011
33315413	A02BC03	23/05/2011
16658557	A02BC03	25/02/2011
33208741	A02BC03	31/05/2011
16654147	A02BC03	11/02/2009
16596125	A02BC03	13/05/2004
16595922	A02BC03	11/08/2008
23363972	A02BC03	25/05/2011
18755801	A02BC03	09/03/2009
18771905	A02BC03	08/08/2001
16652659	A02BC03	26/02/2008
14188199	A02BC03	14/10/2004
33227607	A02BC03	12/06/2008
16634154	A02BC03	30/04/2008
33288972	A02BC03	10/05/2011
16653209	A02BC03	26/05/2011
27848097	A02BC03	04/05/2011
16708704	A02BC03	09/01/2009
16648298	A02BC03	31/05/2006
16165721	A02BC03	01/06/2011
23412008	A02BC03	16/04/2009
23336381	A02BC03	12/04/2004
23366881	A02BC03	18/04/2011
23334037	A02BC03	04/05/2011
23340392	A02BC03	19/05/2011
16649380	A02BC03	25/11/2004
23354563	A02BC03	01/02/2007
23354036	A02BC03	27/05/2011
16184071	A02BC03	25/03/2009
23336596	A02BC03	08/02/2011
23347944	A02BC03	27/10/2008
33208986	A02BC03	13/04/2009
23371267	A02BC03	12/05/2004
16623061	A02BC03	18/01/2010
16683951	A02BC03	12/11/2008
23406244	A02BC03	14/06/2004
16165612	A02BC03	17/06/2003
33296798	A02BC03	12/01/2010
27913205	A02BC03	26/05/2011
18757155	A02BC03	11/12/2009
14188146	A02BC03	03/06/2008
33311593	A02BC03	16/04/2010
23409483	A02BC03	15/11/2010
23396615	A02BC03	14/07/2005
33233833	A02BC03	02/09/2003
16636819	A02BC03	10/05/2006
28022506	A02BC03	30/04/2008
23346872	A02BC03	30/12/2005
23347890	A02BC03	28/11/2008
23328066	A02BC03	04/05/2009
23354092	A02BC03	28/04/2006
16124869	A02BC03	20/03/2003
23410738	A02BC03	31/05/2011
23332852	A02BC03	09/03/2010
23406100	A02BC03	26/01/2011
21099945	A02BC03	05/03/2010
20987632	A02BC03	10/02/2011
23326017	A02BC03	14/12/2004
23405805	A02BC03	28/09/2010
16648845	A02BC03	09/05/2008
23470869	A02BC03	31/05/2011
23372104	A02BC03	04/01/2010
20987995	A02BC03	05/02/2008
18762209	A02BC03	04/01/2006
23382269	A02BC03	01/10/2008
33308567	A02BC03	27/06/2006
16707718	A02BC03	22/06/2006
20982124	A02BC03	13/05/2011
33225982	A02BC03	28/02/2011
33227687	A02BC03	27/05/2011
23332918	A02BC03	07/02/2011
33264852	A02BC03	29/11/2007
23362182	A02BC03	13/07/2007
23381223	A02BC03	27/02/2006
33290750	A02BC03	17/05/2010
33224242	A02BC03	10/01/2011
18757709	A02BC03	14/10/2009
33266891	A02BC03	01/07/2005
14187835	A02BC03	21/02/2006
31234056	A02BC03	10/12/2004
31364482	A02BC03	12/07/2006
31465264	A02BC03	14/05/2007
23317066	A02BC03	09/04/2010
16124564	A02BC03	16/11/2000
21117548	A02BC03	03/05/2011
20985453	A02BC03	01/10/2009
20987279	A02BC03	25/10/2010
33314425	A02BC03	27/01/2010
16613468	A02BC03	25/09/2006
16630904	A02BC03	17/03/2008
20985663	A02BC03	05/07/2004
16623063	A02BC03	23/09/2009
16636987	A02BC03	18/05/2011
33244259	A02BC03	28/02/2011
23349644	A02BC03	30/03/2011
23470370	A02BC03	24/05/2011
16625422	A02BC03	02/12/2010
16774998	A02BC03	12/12/2005
28033250	A02BC03	16/11/2009
23344022	A02BC03	20/11/2008
16623344	A02BC03	22/04/2009
23406223	A02BC03	20/05/2011
21110084	A02BC03	02/02/2011
23354686	A02BC03	20/05/2011
23406273	A02BC03	10/05/2011
23354029	A02BC03	25/05/2011
20985559	A02BC03	17/03/2006
23336820	A02BC03	06/05/2008
33245160	A02BC03	04/04/2002
16127748	A02BC03	18/05/2004
16603132	A02BC03	11/03/2010
18761883	A02BC03	30/06/2005
33240644	A02BC03	14/06/2007
23354017	A02BC03	24/10/2005
18764796	A02BC03	10/08/2004
23408437	A02BC03	16/05/2011
16708583	A02BC03	28/04/2011
33200239	A02BC03	13/03/2009
23354527	A02BC03	06/04/2011
31326800	A02BC03	25/07/2007
32005939	A02BC03	22/11/2007
32196435	A02BC03	23/01/2008
31285328	A02BC03	02/09/2010
31530846	A02BC03	22/03/2011
31661400	A02BC03	03/01/2002
31284771	A02BC03	27/10/2000
32144827	A02BC03	07/09/2010
32092961	A02BC03	18/04/2007
31689978	A02BC03	10/12/2009
31459026	A02BC03	13/04/2004
31642355	A02BC03	26/03/2004
31424970	A02BC03	07/12/2009
32168227	A02BC03	27/12/2006
32025408	A02BC03	11/01/2011
31773481	A02BC03	23/10/2006
31545249	A02BC03	24/03/2009
32154846	A02BC03	10/06/2008
31434668	A02BC03	26/05/2009
31412669	A02BC03	20/04/2006
31393374	A02BC03	09/07/2007
31644416	A02BC03	09/03/2011
31400996	A02BC03	09/03/2005
31479374	A02BC03	26/10/2007
31053646	A02BC03	29/11/2010
31979808	A02BC03	30/04/2007
31571390	A02BC03	01/03/2011
31403261	A02BC03	02/05/2011
32182917	A02BC03	12/11/2004
31925365	A02BC03	06/06/2003
31253172	A02BC03	23/02/2007
31197016	A02BC03	24/09/2008
31792571	A02BC03	29/08/2007
31466238	A02BC03	16/12/2008
32118132	A02BC03	16/03/2009
31461480	A02BC03	12/12/2006
31634919	A02BC03	29/06/2004
31338973	A02BC03	24/01/2011
31469680	A02BC03	09/09/2008
31207975	A02BC03	14/12/2007
31230585	A02BC03	04/01/2008
32224890	A02BC03	27/07/2005
32144155	A02BC03	15/03/2011
31315923	A02BC03	09/10/2006
31787133	A02BC03	16/07/2007
31047592	A02BC03	14/03/2011
31352468	A02BC03	16/02/2006
31479727	A02BC03	14/07/2006
31351905	A02BC03	30/03/2010
31534125	A02BC03	11/04/2011
31850691	A02BC03	06/02/2004
32229324	A02BC03	06/07/2007
32280643	A02BC03	04/10/2005
31675988	A02BC03	27/07/2006
32248059	A02BC03	26/11/2009
31738398	A02BC03	29/07/2005
31445853	A02BC03	14/09/2004
31930395	A02BC03	24/05/2005
31159827	A02BC03	06/04/2006
31274972	A02BC03	03/11/2005
32146428	A02BC03	11/10/2007
31328921	A02BC03	16/10/2009
31970088	A02BC03	01/06/2006
32192753	A02BC03	18/01/2005
31330070	A02BC03	07/02/2006
31984748	A02BC03	19/08/2009
31135234	A02BC03	14/04/2008
31311243	A02BC03	11/08/2008
31049207	A02BC03	25/06/2008
31273481	A02BC03	30/07/2007
31269714	A02BC03	01/03/2011
31505588	A02BC03	26/09/2006
31899679	A02BC03	31/07/2003
31567934	A02BC03	27/11/2002
31302647	A02BC03	25/11/2010
31821410	A02BC03	26/05/2009
31398449	A02BC03	06/04/2011
31518942	A02BC03	28/09/2009
32194488	A02BC03	16/02/2001
32261957	A02BC03	25/02/2004
31870585	A02BC03	06/06/2002
31639557	A02BC03	06/10/2009
31217229	A02BC03	04/07/2007
31178038	A02BC03	02/12/2008
31977169	A02BC03	25/05/2006
31174566	A02BC03	21/01/2011
31537958	A02BC03	14/07/2006
31768805	A02BC03	03/12/2004
31188550	A02BC03	04/12/2008
31642477	A02BC03	06/10/2008
31703578	A02BC03	21/01/2003
31704498	A02BC03	12/09/2008
31882696	A02BC03	29/06/2010
31148712	A02BC03	12/11/2007
31967570	A02BC03	26/10/2006
31702935	A02BC03	18/11/2008
31426404	A02BC03	22/12/2010
31461611	A02BC03	09/12/2007
31811051	A02BC03	01/12/2008
32246352	A02BC03	05/10/2009
31259396	A02BC03	28/03/2008
31936120	A02BC03	18/05/2007
31723265	A02BC03	22/03/2011
32136199	A02BC03	19/11/2007
31112466	A02BC03	16/04/2007
31533827	A02BC03	13/11/2008
31235668	A02BC03	27/07/2005
31313682	A02BC03	26/10/2006
32256089	A02BC03	02/04/2007
31847576	A02BC03	27/06/2007
32059302	A02BC03	09/12/2010
31053818	A02BC03	28/09/2005
31278238	A02BC03	19/07/2005
31267665	A02BC03	11/12/2006
32006163	A02BC03	15/07/2002
32049831	A02BC03	28/01/2005
32018038	A02BC03	13/11/2007
31597569	A02BC03	17/10/2008
31660454	A02BC03	04/03/2004
31858004	A02BC03	02/12/2008
31390850	A02BC03	28/04/2009
31897930	A02BC03	23/12/2009
32085713	A02BC03	18/10/2005
31994914	A02BC03	17/03/2006
31165913	A02BC03	21/07/2010
31697821	A02BC03	13/05/2008
32160280	A02BC03	27/04/2007
31527057	A02BC03	02/12/2008
31521720	A02BC03	17/02/2005
31741824	A02BC03	18/10/2006
31288965	A02BC03	11/04/2008
31989637	A02BC03	09/03/2011
31068766	A02BC03	07/03/2007
31804458	A02BC03	17/12/2010
31282883	A02BC03	11/06/2004
31939976	A02BC03	21/04/2006
32115409	A02BC03	26/11/2009
31673640	A02BC03	17/07/2009
31818933	A02BC03	06/05/2004
31308618	A02BC03	16/12/2010
31185558	A02BC03	26/01/2006
32017201	A02BC03	22/08/2006
31862985	A02BC03	20/12/2007
31815136	A02BC03	04/12/2006
31718146	A02BC03	17/12/2010
31676103	A02BC03	11/04/2005
31626899	A02BC03	31/01/2005
32229216	A02BC03	07/08/2010
32032672	A02BC03	03/02/2006
31486099	A02BC03	12/11/2009
31907081	A02BC03	15/12/2009
31316151	A02BC03	17/05/2010
31523575	A02BC03	20/05/2005
31297988	A02BC03	02/01/2008
32090695	A02BC03	07/12/2009
31293266	A02BC03	27/10/2010
31389301	A02BC03	04/08/2008
32200367	A02BC03	19/08/2008
31084179	A02BC03	16/12/2003
32128378	A02BC03	29/06/2010
31128087	A02BC03	15/01/2007
31800102	A02BC03	17/02/2006
31456548	A02BC03	20/01/2003
31246615	A02BC03	03/05/2011
31303279	A02BC03	26/06/2008
32061586	A02BC03	12/08/2008
31502915	A02BC03	05/01/2010
31916030	A02BC03	27/04/2005
31615936	A02BC03	26/10/2010
31144301	A02BC03	11/08/2005
31835704	A02BC03	10/07/2006
31961565	A02BC03	11/06/2007
31654286	A02BC03	05/09/2007
32159787	A02BC03	12/11/2008
31042165	A02BC03	15/04/2005
31571437	A02BC03	08/04/2009
31143643	A02BC03	14/07/2009
32179849	A02BC03	07/08/2006
31525970	A02BC03	04/07/2007
32082014	A02BC03	08/10/2007
31124520	A02BC03	25/10/2010
31070465	A02BC03	07/04/2004
31384268	A02BC03	14/08/2009
31853461	A02BC03	18/12/2007
32154701	A02BC03	08/02/2006
31704070	A02BC03	18/12/2010
32090511	A02BC03	26/06/2003
32008481	A02BC03	04/03/2008
31367573	A02BC03	06/04/2009
31624444	A02BC03	13/12/2010
32171369	A02BC03	21/06/2005
31619077	A02BC03	03/10/2006
31227615	A02BC03	16/11/2006
31230558	A02BC03	26/04/2004
31937265	A02BC03	24/05/2011
31584060	A02BC03	20/05/2011
32280545	A02BC03	23/05/2008
31940293	A02BC03	05/05/2009
32065963	A02BC03	14/01/2008
31584881	A02BC03	06/02/2008
31577491	A02BC03	21/09/2009
32210631	A02BC03	13/09/2010
31791129	A02BC03	27/10/2010
31843751	A02BC03	14/10/2005
32094491	A02BC03	12/11/2004
31890800	A02BC03	04/12/2009
31983463	A02BC03	16/09/2009
32223263	A02BC03	01/12/2004
31283871	A02BC03	27/10/2004
31209907	A02BC03	03/12/2008
31198323	A02BC03	20/11/2007
31175621	A02BC03	01/03/2006
31265348	A02BC03	09/04/2007
31406432	A02BC03	27/02/2009
31720979	A02BC03	19/02/2008
31422305	A02BC03	09/11/2009
32025648	A02BC03	27/07/2007
32143143	A02BC03	23/07/2007
31054095	A02BC03	27/06/2005
31983611	A02BC03	29/12/2005
32063147	A02BC03	21/07/2008
31671236	A02BC03	13/06/2007
31559202	A02BC03	31/01/2008
31927017	A02BC03	04/03/2010
31881434	A02BC03	21/05/2007
31246689	A02BC03	30/11/2004
32195050	A02BC03	03/07/2006
31724163	A02BC03	16/10/2008
31614550	A02BC03	06/04/2011
31183406	A02BC03	11/05/2010
32090445	A02BC03	10/12/2004
31683931	A02BC03	22/11/2005
31968700	A02BC03	09/01/2007
32061001	A02BC03	14/05/2009
32249380	A02BC03	16/12/2009
31512689	A02BC03	21/12/2007
32195611	A02BC03	26/12/2003
31229693	A02BC03	03/11/2009
31334282	A02BC03	25/11/2009
31140632	A02BC03	20/11/2009
31883663	A02BC03	13/07/2006
31243931	A02BC03	29/10/2007
31075890	A02BC03	15/09/2010
31308321	A02BC03	28/04/2006
31960354	A02BC03	29/09/2004
31448770	A02BC03	13/04/2010
31555055	A02BC03	11/04/2011
32167646	A02BC03	31/07/2008
31641752	A02BC03	17/11/2008
31405395	A02BC03	29/10/2008
31541781	A02BC03	30/10/2006
31687887	A02BC03	14/11/2007
31400737	A02BC03	22/10/2009
31257199	A02BC03	11/06/2008
32199492	A02BC03	22/05/2009
31866747	A02BC03	20/12/2004
31182961	A02BC03	20/02/2009
32130615	A02BC03	17/12/2008
32207420	A02BC03	12/08/2004
32129489	A02BC03	09/04/2002
31030230	A02BC03	16/04/2007
31294988	A02BC03	01/03/2011
31782240	A02BC03	16/10/2009
31815406	A02BC03	10/07/2009
31665530	A02BC03	20/06/2008
31696583	A02BC03	09/01/2011
32242783	A02BC03	13/01/2011
31426144	A02BC03	06/10/2005
32028980	A02BC03	02/12/2009
31928343	A02BC03	21/07/2006
32205708	A02BC03	21/11/2008
31168312	A02BC03	16/12/2010
32194941	A02BC03	11/01/2011
32137317	A02BC03	16/06/2009
31788498	A02BC03	05/12/2010
31740407	A02BC03	24/05/2006
31790134	A02BC03	19/05/2009
31452945	A02BC03	14/07/2010
31918461	A02BC03	16/12/2008
31501116	A02BC03	27/11/2009
31473927	A02BC03	17/12/2007
31615865	A02BC03	04/01/2011
31948792	A02BC03	13/05/2008
31328270	A02BC03	21/10/2010
31566932	A02BC03	17/11/2009
31421108	A02BC03	20/01/2011
32121072	A02BC03	04/07/2007
31923548	A02BC03	14/07/2004
32167806	A02BC03	26/10/2009
32197242	A02BC03	11/02/2008
31241398	A02BC03	27/11/2008
31329818	A02BC03	11/09/2008
32176704	A02BC03	22/05/2006
32238133	A02BC03	26/01/2011
31778043	A02BC03	29/10/2007
