patient_id	covar_name	date
9214995	A10AD01	09/05/2011
5814184	A10AD01	01/06/2011
12688464	A10AD01	11/05/2011
10395603	A10AD01	14/11/2006
8988978	A10AD01	08/02/2007
1069269	A10AD01	14/12/2005
6626450	A10AD01	19/05/2011
564746	A10AD01	22/11/2005
7801719	A10AD01	28/01/2005
7800178	A10AD01	02/07/2008
6602371	A10AD01	04/08/2010
7971968	A10AD01	24/05/2011
7800679	A10AD01	23/05/2011
1351713	A10AD01	29/07/2004
1132264	A10AD01	24/04/2006
135900	A10AD01	27/05/2011
1855368	A10AD01	08/01/2007
133899	A10AD01	17/06/1999
1641017	A10AD01	25/04/2005
25908066	A10AD01	23/06/2004
2053983	A10AD01	03/12/2004
860336	A10AD01	03/01/2006
2038762	A10AD01	29/01/2003
2763841	A10AD01	22/03/2004
26456732	A10AD01	24/05/2011
7229492	A10AD01	29/06/2004
433263	A10AD01	29/07/2004
426744	A10AD01	21/01/2009
266315	A10AD01	15/02/2006
428591	A10AD01	03/10/2006
418234	A10AD01	07/09/2002
17741653	A10AD01	07/04/2011
24666302	A10AD01	13/05/2005
24657011	A10AD01	19/11/2010
25743229	A10AD01	05/08/2008
1373198	A10AD01	06/11/2002
1906965	A10AD01	14/05/2007
16840841	A10AD01	23/03/2006
1906106	A10AD01	11/12/2009
2988643	A10AD01	31/01/2006
16840615	A10AD01	29/04/2011
21651387	A10AD01	04/05/2006
26946408	A10AD01	03/02/2005
26941906	A10AD01	28/02/2005
26768998	A10AD01	01/06/2011
26898899	A10AD01	17/11/2008
26847529	A10AD01	23/04/2011
26851800	A10AD01	24/07/2005
26715319	A10AD01	07/02/2003
26955339	A10AD01	06/09/2006
27133143	A10AD01	18/02/2005
27149748	A10AD01	21/09/2007
27114640	A10AD01	23/12/2004
27137973	A10AD01	24/02/2006
27136912	A10AD01	27/09/2002
27362443	A10AD01	15/12/2004
27367102	A10AD01	12/11/2008
27238217	A10AD01	25/09/2004
27646502	A10AD01	24/03/2010
27658377	A10AD01	21/03/2005
27543445	A10AD01	27/07/2004
26833079	A10AD01	24/02/2011
26803917	A10AD01	27/05/2011
27675630	A10AD01	27/04/2011
27459230	A10AD01	25/07/2004
27772297	A10AD01	08/10/2004
27783400	A10AD01	30/05/2011
27680594	A10AD01	23/05/2005
24655178	A10AD01	14/10/2005
27804721	A10AD01	24/05/2011
27760549	A10AD01	14/10/2003
27718674	A10AD01	29/08/2005
33144464	A10AD01	02/04/2003
33072179	A10AD01	03/10/2000
33028180	A10AD01	16/05/2011
16640292	A10AD01	06/05/2011
33012344	A10AD01	12/05/2011
33024570	A10AD01	25/03/2006
14187910	A10AD01	24/07/2003
33245853	A10AD01	07/07/2009
23313268	A10AD01	16/05/2011
27934474	A10AD01	09/05/2011
18761680	A10AD01	10/05/2011
23406762	A10AD01	25/01/2006
23339981	A10AD01	18/04/2006
23367381	A10AD01	19/04/2011
31541778	A10AD01	01/12/2004
31644416	A10AD01	17/01/2006
31126630	A10AD01	12/08/2004
31396539	A10AD01	26/02/2009
31774615	A10AD01	11/11/2010
31443647	A10AD01	20/12/2005
31336940	A10AD01	17/12/2004
31846828	A10AD01	07/08/2009
31987098	A10AD01	05/11/2009
31679755	A10AD01	05/10/2004
31205880	A10AD01	18/07/2003
32214444	A10AD01	23/03/2006
31471872	A10AD01	23/09/2005
31572163	A10AD01	06/07/2010
31099705	A10AD01	20/01/2005
31407436	A10AD01	12/12/2008
31222949	A10AD01	08/07/2004
31811086	A10AD01	18/05/2006
31156229	A10AD01	18/11/2009
31560828	A10AD01	11/10/2005
32002259	A10AD01	30/06/2004
32100016	A10AD01	08/05/2007
31282883	A10AD01	01/06/2005
31071290	A10AD01	27/10/2010
32065071	A10AD01	29/11/2010
31440741	A10AD01	29/10/2009
31577402	A10AD01	09/05/2008
31883127	A10AD01	25/10/2010
31962312	A10AD01	19/06/2007
31898173	A10AD01	03/06/2004
31084479	A10AD01	20/08/2004
31429454	A10AD01	15/06/2007
31427896	A10AD01	20/10/2003
31656010	A10AD01	04/12/2009
31159044	A10AD01	02/07/2010
32045804	A10AD01	01/09/2005
31076824	A10AD01	30/03/2004
31970673	A10AD01	20/01/2004
31760431	A10AD01	23/02/2006
32271150	A10AD01	02/03/2011
32136272	A10AD01	21/12/2005
31659176	A10AD01	04/12/2009
31733512	A10AD01	05/08/2010
31937147	A10AD01	17/03/2005
31853795	A10AD01	02/06/2005
31354769	A10AD01	08/05/2006
32057261	A10AD01	10/07/2006
31807657	A10AD01	04/02/2004
32011511	A10AD01	15/12/2004
