patient_id	covar_name	date
10284307	A01AB91	31/05/2007
2768792	A01AB91	15/11/2007
12779140	A01AB91	22/03/2010
8291674	A01AB91	12/02/2008
9618081	A01AB91	15/07/2009
949712	A01AB91	02/04/2009
9300243	A01AB91	26/10/2007
941588	A01AB91	17/03/2005
21859577	A01AB91	03/07/2009
15425403	A01AB91	17/09/2003
7244070	A01AB91	01/08/2007
8641990	A01AB91	05/08/2005
23471437	A01AB91	07/03/2007
733774	A01AB91	06/07/2004
9371683	A01AB91	15/03/2007
8558268	A01AB91	17/11/2010
12237800	A01AB91	16/12/2008
10269371	A01AB91	04/01/2006
9176899	A01AB91	17/01/2011
62714	A01AB91	20/12/2010
24467573	A01AB91	29/04/2011
61487	A01AB91	09/09/2008
1732204	A01AB91	15/06/2007
9306838	A01AB91	04/01/2008
9293874	A01AB91	21/03/2006
6625226	A01AB91	19/02/2007
702188	A01AB91	31/03/2010
21153398	A01AB91	04/04/2011
9284420	A01AB91	21/11/2008
9214995	A01AB91	27/09/2010
955784	A01AB91	24/05/2004
8960463	A01AB91	14/12/2006
9311026	A01AB91	25/09/2006
11661106	A01AB91	20/05/2010
9385413	A01AB91	21/02/2011
7405502	A01AB91	24/11/2005
14859960	A01AB91	28/12/2010
19178471	A01AB91	09/09/2004
9304255	A01AB91	07/02/2006
13538926	A01AB91	16/05/2011
12479067	A01AB91	24/05/2004
12771955	A01AB91	21/11/2005
9373449	A01AB91	15/02/2008
1516436	A01AB91	14/04/2008
9212611	A01AB91	07/04/2010
9356877	A01AB91	03/08/2010
3288827	A01AB91	03/07/2009
9310935	A01AB91	18/09/2007
954970	A01AB91	30/06/2000
6236546	A01AB91	10/07/2008
960982	A01AB91	08/10/2007
9323502	A01AB91	20/09/2002
10894162	A01AB91	20/10/2009
12772856	A01AB91	12/08/2008
8785722	A01AB91	16/12/2008
9299562	A01AB91	02/08/2010
25083443	A01AB91	20/01/2006
6417574	A01AB91	29/06/2007
12762015	A01AB91	14/01/2008
702090	A01AB91	03/02/2006
9327237	A01AB91	13/04/2009
1122381	A01AB91	27/07/2006
24467459	A01AB91	05/03/2010
16109831	A01AB91	07/06/2010
3119576	A01AB91	21/10/2010
9177281	A01AB91	07/05/2007
1161916	A01AB91	29/10/2010
12783208	A01AB91	28/09/2009
9319745	A01AB91	07/09/2005
3550672	A01AB91	27/01/2004
6752622	A01AB91	11/05/2004
740904	A01AB91	27/06/2007
1516771	A01AB91	12/05/2009
9383919	A01AB91	01/04/2009
24466722	A01AB91	30/03/2011
19230761	A01AB91	19/07/2006
16087795	A01AB91	08/06/2009
9209618	A01AB91	05/03/2007
11660918	A01AB91	23/12/2008
9383855	A01AB91	16/06/2008
5028400	A01AB91	22/09/2009
8555693	A01AB91	21/09/2006
12763150	A01AB91	09/10/2008
12694616	A01AB91	03/06/2005
11993405	A01AB91	25/03/2011
9300058	A01AB91	10/01/2008
10713486	A01AB91	18/02/2008
5029514	A01AB91	16/05/2011
1123313	A01AB91	09/12/2003
1937110	A01AB91	24/03/2010
25066092	A01AB91	09/01/2002
23472073	A01AB91	30/03/2011
3117787	A01AB91	04/05/2011
7162364	A01AB91	10/05/2011
6746616	A01AB91	23/06/2008
21152857	A01AB91	18/07/2007
7219660	A01AB91	03/08/2007
9376201	A01AB91	19/03/2008
24764589	A01AB91	04/01/2008
9373053	A01AB91	27/12/2007
3303598	A01AB91	26/02/2009
10867712	A01AB91	26/03/2003
7151632	A01AB91	13/06/2005
3321866	A01AB91	08/08/2008
1162337	A01AB91	05/09/2003
17969122	A01AB91	21/03/2011
3789443	A01AB91	22/10/2009
16416856	A01AB91	23/03/2010
6748095	A01AB91	18/06/2010
9311118	A01AB91	19/11/2008
733955	A01AB91	24/02/2005
10867647	A01AB91	25/04/2003
16559168	A01AB91	10/03/2009
12691956	A01AB91	07/03/2005
21152123	A01AB91	04/02/2008
600191	A01AB91	07/06/2010
16915547	A01AB91	19/05/2011
7160853	A01AB91	06/02/2008
12833289	A01AB91	28/06/2007
10332543	A01AB91	29/12/2006
21153310	A01AB91	03/12/2007
24765205	A01AB91	06/08/2004
9382870	A01AB91	28/07/2009
6750607	A01AB91	13/07/2010
740818	A01AB91	18/08/2006
7023767	A01AB91	22/09/2009
12857478	A01AB91	27/10/2006
3326971	A01AB91	28/06/2006
10332498	A01AB91	16/09/2009
15273153	A01AB91	01/10/2009
19289186	A01AB91	30/05/2011
17171406	A01AB91	31/05/2010
25042468	A01AB91	10/11/2004
9231362	A01AB91	19/05/2011
12688862	A01AB91	29/01/2008
21549680	A01AB91	26/07/2010
25071721	A01AB91	04/01/2010
16530003	A01AB91	01/08/2005
15931606	A01AB91	01/06/2011
6415918	A01AB91	05/08/2004
1516892	A01AB91	18/02/2011
1069069	A01AB91	07/04/2011
9212312	A01AB91	16/11/2010
3330955	A01AB91	18/02/2010
1063691	A01AB91	14/12/2010
12728050	A01AB91	19/02/2007
6183820	A01AB91	24/07/2008
22537806	A01AB91	18/08/2008
1936084	A01AB91	09/02/2010
15901751	A01AB91	10/09/2007
1162907	A01AB91	07/10/2005
18774349	A01AB91	10/07/2009
607911	A01AB91	18/04/2008
8786220	A01AB91	07/06/2005
6756427	A01AB91	20/11/2003
25072002	A01AB91	01/10/2010
3303799	A01AB91	15/05/2003
8292672	A01AB91	19/05/2004
11373114	A01AB91	10/11/2008
9284324	A01AB91	07/02/2007
1069126	A01AB91	29/10/2007
16530402	A01AB91	24/01/2011
24950927	A01AB91	13/04/2010
24764733	A01AB91	07/04/2008
9250324	A01AB91	17/02/2011
9294528	A01AB91	21/03/2006
16097839	A01AB91	16/10/2009
7162636	A01AB91	14/09/2010
10604282	A01AB91	07/04/2010
16530712	A01AB91	26/10/2007
940917	A01AB91	05/01/2009
12173022	A01AB91	23/05/2007
19153840	A01AB91	10/06/2010
11188036	A01AB91	10/01/2011
1068416	A01AB91	14/12/2010
15424312	A01AB91	14/08/2008
6749295	A01AB91	22/03/2010
21371389	A01AB91	29/05/2009
10332987	A01AB91	14/06/2006
17171744	A01AB91	06/11/2006
608337	A01AB91	19/09/2006
9382397	A01AB91	15/09/2010
8787603	A01AB91	23/09/2005
16097957	A01AB91	09/03/2009
8651304	A01AB91	03/06/2008
12763683	A01AB91	16/02/2011
12183581	A01AB91	22/03/2011
8582373	A01AB91	01/04/2009
9179706	A01AB91	13/05/2004
15426039	A01AB91	07/01/2010
23442839	A01AB91	25/04/2011
15554008	A01AB91	15/07/2010
25048008	A01AB91	09/03/2010
10292664	A01AB91	11/05/2009
9226926	A01AB91	16/11/2006
12478455	A01AB91	11/04/2011
16323398	A01AB91	26/01/2009
12765626	A01AB91	24/03/2011
15081798	A01AB91	14/09/2009
8582021	A01AB91	02/09/2003
939363	A01AB91	10/02/2005
9377350	A01AB91	01/02/2011
16530907	A01AB91	28/05/2009
10395240	A01AB91	03/09/2010
949299	A01AB91	23/12/2005
16530229	A01AB91	21/07/2005
10865791	A01AB91	19/08/2008
10331912	A01AB91	10/03/2011
17170528	A01AB91	11/05/2010
6415215	A01AB91	30/11/2006
11660574	A01AB91	11/01/2011
8654947	A01AB91	30/09/2005
6417851	A01AB91	27/08/2007
3332798	A01AB91	06/04/1999
9349186	A01AB91	22/11/2007
1335810	A01AB91	21/12/2006
8569720	A01AB91	12/12/2005
24765208	A01AB91	18/08/2005
9210665	A01AB91	03/09/2007
10865781	A01AB91	26/11/2009
23454398	A01AB91	03/03/2011
12782079	A01AB91	31/05/2011
6707615	A01AB91	27/10/2009
17172555	A01AB91	16/03/2010
6417619	A01AB91	12/03/2003
10333295	A01AB91	24/08/2010
6757580	A01AB91	14/01/2005
9203860	A01AB91	16/08/2010
3332130	A01AB91	11/03/2005
9231723	A01AB91	27/04/2001
1336786	A01AB91	20/09/2007
6751810	A01AB91	04/02/2011
21871015	A01AB91	13/03/2009
21369815	A01AB91	02/01/2006
9385419	A01AB91	08/03/2011
1516973	A01AB91	28/01/2011
1418232	A01AB91	08/05/2007
8989051	A01AB91	26/12/2007
9375873	A01AB91	12/05/2010
24721032	A01AB91	30/03/2011
23996759	A01AB91	13/01/2004
8274962	A01AB91	13/07/2007
22013417	A01AB91	14/02/2011
7968770	A01AB91	24/06/2010
1546365	A01AB91	24/09/2004
6424891	A01AB91	09/01/2008
1445557	A01AB91	14/05/2009
24718616	A01AB91	11/03/2011
1200352	A01AB91	23/07/2003
1320092	A01AB91	25/11/2009
25335939	A01AB91	10/09/2010
19402838	A01AB91	12/01/2006
1853226	A01AB91	20/08/2010
8068502	A01AB91	10/08/2004
1669842	A01AB91	16/09/2009
7800178	A01AB91	09/12/2008
565091	A01AB91	09/02/2011
639912	A01AB91	14/09/2010
1172020	A01AB91	14/12/2009
645386	A01AB91	19/10/2005
1353177	A01AB91	27/12/2005
1198552	A01AB91	29/03/2011
19402460	A01AB91	31/07/2003
6212219	A01AB91	12/01/2009
1191246	A01AB91	18/08/2003
1849374	A01AB91	26/05/2003
13263525	A01AB91	25/05/2010
7654868	A01AB91	16/06/2010
6603955	A01AB91	21/10/2009
1198439	A01AB91	19/11/2010
1206496	A01AB91	31/05/2006
1444332	A01AB91	19/03/2010
1203945	A01AB91	21/01/2010
6602371	A01AB91	28/05/2010
1205817	A01AB91	05/10/2007
404912	A01AB91	30/10/2002
1199932	A01AB91	17/01/2011
1852312	A01AB91	31/01/2011
7802074	A01AB91	10/03/2008
1666507	A01AB91	27/04/2005
7770971	A01AB91	22/03/2010
1546702	A01AB91	06/10/2000
1201480	A01AB91	14/02/2011
1207802	A01AB91	01/10/2003
13984759	A01AB91	25/02/2008
648760	A01AB91	16/11/2009
1853589	A01AB91	09/09/2003
1850465	A01AB91	10/10/2009
1205262	A01AB91	09/11/2009
1545758	A01AB91	29/05/2008
1207309	A01AB91	26/02/2010
645941	A01AB91	01/07/2003
25963456	A01AB91	06/08/2010
1419572	A01AB91	27/05/2009
6425049	A01AB91	20/11/2006
1202658	A01AB91	16/01/2004
1203312	A01AB91	01/12/2009
7652674	A01AB91	24/11/2008
6594082	A01AB91	25/01/2011
6602697	A01AB91	14/10/2006
7966545	A01AB91	23/12/2010
2723839	A01AB91	01/12/2005
1547134	A01AB91	10/06/2008
8061402	A01AB91	12/12/2008
6425493	A01AB91	25/05/2009
6602631	A01AB91	19/05/2008
526051	A01AB91	22/11/2005
6603802	A01AB91	08/02/2007
1545551	A01AB91	02/03/2011
7848502	A01AB91	30/09/2010
13986535	A01AB91	23/03/2006
1349535	A01AB91	11/11/2009
641313	A01AB91	07/04/2009
6841316	A01AB91	20/10/2010
525534	A01AB91	13/10/2006
1350929	A01AB91	12/03/2009
13273125	A01AB91	13/08/2010
1851264	A01AB91	28/06/2010
7076246	A01AB91	16/01/2004
6592127	A01AB91	19/08/2005
645474	A01AB91	20/08/2004
9815985	A01AB91	25/05/2011
1206818	A01AB91	20/02/2009
1444163	A01AB91	24/02/2011
1349470	A01AB91	08/02/2010
6841591	A01AB91	13/03/2009
6596437	A01AB91	04/04/2011
1277173	A01AB91	05/10/2006
1419053	A01AB91	14/07/2010
1207086	A01AB91	22/10/2008
6598274	A01AB91	10/03/2008
1202819	A01AB91	17/04/2008
525429	A01AB91	16/02/2001
3343328	A01AB91	30/12/2002
1666605	A01AB91	30/06/2005
648621	A01AB91	21/08/2003
1545722	A01AB91	24/02/2010
13987343	A01AB91	23/04/2007
7966714	A01AB91	12/12/2008
1320212	A01AB91	30/12/2004
8955985	A01AB91	13/07/2005
515769	A01AB91	04/08/2004
8956475	A01AB91	15/08/2008
1850960	A01AB91	01/08/2000
1443505	A01AB91	27/10/2009
525368	A01AB91	30/06/2003
25177005	A01AB91	01/09/2005
1379025	A01AB91	02/10/2004
6425452	A01AB91	07/04/2008
1415968	A01AB91	08/01/2010
7801913	A01AB91	05/01/2011
515988	A01AB91	30/08/2004
1204719	A01AB91	01/12/2008
17607037	A01AB91	17/01/2005
1320780	A01AB91	13/11/2007
1199703	A01AB91	03/10/2005
4700304	A01AB91	11/02/2010
26145718	A01AB91	17/03/2004
1417328	A01AB91	18/09/2002
7777716	A01AB91	21/05/2008
648547	A01AB91	01/09/2006
1261139	A01AB91	22/01/2007
1425106	A01AB91	19/05/2011
7706534	A01AB91	06/05/2008
1419033	A01AB91	05/06/2007
6423378	A01AB91	20/06/2007
7770064	A01AB91	14/10/2010
6598234	A01AB91	12/05/2003
641806	A01AB91	26/01/2004
7849206	A01AB91	30/07/2003
1275578	A01AB91	28/06/2005
6951044	A01AB91	07/01/2010
1274586	A01AB91	20/02/2006
1133221	A01AB91	19/07/2010
25902808	A01AB91	24/02/2011
15798351	A01AB91	12/11/2010
1132264	A01AB91	09/04/2008
25768586	A01AB91	10/03/2011
716428	A01AB91	21/02/2007
1130346	A01AB91	03/07/2007
13733143	A01AB91	12/06/2003
25176961	A01AB91	29/07/2005
1639039	A01AB91	22/07/2004
486362	A01AB91	26/10/2010
1638022	A01AB91	25/11/2004
1106958	A01AB91	08/11/2001
1855368	A01AB91	02/03/2007
25904628	A01AB91	17/12/2010
996337	A01AB91	27/11/2009
25888400	A01AB91	16/05/2011
2817356	A01AB91	24/10/2005
1567702	A01AB91	04/10/2004
195582	A01AB91	05/03/2010
1027312	A01AB91	07/01/2011
891419	A01AB91	12/03/2003
1274912	A01AB91	30/01/2006
1856271	A01AB91	22/07/2003
12162776	A01AB91	05/01/2011
1638850	A01AB91	02/12/2005
25914977	A01AB91	19/02/2009
25891515	A01AB91	04/02/2010
1134288	A01AB91	24/01/2011
25817849	A01AB91	22/03/2004
6513850	A01AB91	10/11/2009
1638528	A01AB91	04/09/2007
1102919	A01AB91	11/02/2008
12788129	A01AB91	20/07/2010
1274503	A01AB91	11/11/2002
1550733	A01AB91	09/12/2009
890246	A01AB91	05/10/2009
25860190	A01AB91	07/01/2010
1108431	A01AB91	17/03/2010
4675753	A01AB91	09/09/2003
135815	A01AB91	27/04/2011
1552120	A01AB91	21/12/2007
194827	A01AB91	15/01/2010
717026	A01AB91	21/05/2008
1135038	A01AB91	06/07/2010
1134812	A01AB91	26/01/2011
1132627	A01AB91	24/06/2004
12636570	A01AB91	05/05/2008
12659932	A01AB91	14/07/2008
2040796	A01AB91	18/11/2004
2059817	A01AB91	08/05/2007
2087936	A01AB91	21/11/2006
2238908	A01AB91	20/12/2008
2239654	A01AB91	11/02/2011
6392837	A01AB91	15/06/2010
2068118	A01AB91	01/03/2005
2068045	A01AB91	12/03/2008
2068080	A01AB91	21/02/2006
2164170	A01AB91	28/11/2006
2043315	A01AB91	30/04/2003
2142935	A01AB91	06/09/2010
2072714	A01AB91	04/03/2004
2087753	A01AB91	10/11/2006
2067684	A01AB91	10/08/2006
2140686	A01AB91	16/06/2009
2216812	A01AB91	14/05/2008
1763042	A01AB91	22/09/2010
859956	A01AB91	22/11/2010
859996	A01AB91	17/05/2011
1752608	A01AB91	11/03/2011
904929	A01AB91	16/08/2007
2140421	A01AB91	24/09/2009
2041465	A01AB91	07/10/2002
904770	A01AB91	14/03/2003
905063	A01AB91	08/02/2008
2216323	A01AB91	09/04/2007
876765	A01AB91	04/02/2009
2038338	A01AB91	09/03/2009
2038658	A01AB91	17/06/2009
757643	A01AB91	17/05/2011
904532	A01AB91	04/12/2001
904017	A01AB91	20/10/2008
904619	A01AB91	07/01/2009
859374	A01AB91	20/05/2010
1763515	A01AB91	19/01/2010
1755227	A01AB91	06/03/2006
2773774	A01AB91	04/02/2008
7134077	A01AB91	14/11/2006
901433	A01AB91	09/04/2010
858702	A01AB91	18/09/2008
879101	A01AB91	27/10/2003
902391	A01AB91	28/04/2004
873998	A01AB91	23/11/2007
860142	A01AB91	20/02/2004
2757125	A01AB91	03/09/2003
2766244	A01AB91	17/12/2004
2774471	A01AB91	05/01/2010
7073348	A01AB91	24/11/2009
2863143	A01AB91	15/11/2002
2776143	A01AB91	29/07/2010
7128867	A01AB91	22/10/2002
2766317	A01AB91	01/12/2010
7038052	A01AB91	05/12/2008
3052687	A01AB91	17/11/2000
2778364	A01AB91	29/12/2010
6630115	A01AB91	28/10/2006
2778447	A01AB91	28/03/2008
2811818	A01AB91	04/02/2011
2779963	A01AB91	12/01/2006
2763799	A01AB91	11/03/2005
2755178	A01AB91	15/07/2009
2525787	A01AB91	12/04/2010
2512738	A01AB91	26/04/2004
2574919	A01AB91	28/02/2011
2412111	A01AB91	15/01/2010
2714643	A01AB91	21/05/2011
2520230	A01AB91	23/06/2006
2573816	A01AB91	06/05/2005
2408020	A01AB91	02/02/2009
2522313	A01AB91	20/10/2004
2407651	A01AB91	23/03/2004
9587068	A01AB91	13/11/2008
2574244	A01AB91	28/04/2005
2522658	A01AB91	26/09/2008
2574986	A01AB91	04/01/2010
16835317	A01AB91	22/12/2003
26466135	A01AB91	30/10/2006
28065993	A01AB91	26/06/2008
26436708	A01AB91	09/03/2011
26461804	A01AB91	06/05/2008
26425486	A01AB91	06/10/2009
26461647	A01AB91	19/09/2007
26391591	A01AB91	01/01/2009
26525231	A01AB91	11/04/2006
26409464	A01AB91	07/11/2008
28059430	A01AB91	03/02/2011
28055693	A01AB91	19/08/2010
26256480	A01AB91	05/05/2008
20673495	A01AB91	30/12/2009
17741278	A01AB91	30/12/2003
26210785	A01AB91	29/06/2009
7136827	A01AB91	14/02/2007
17742639	A01AB91	19/02/2008
20146495	A01AB91	13/10/2010
7229328	A01AB91	01/02/2007
20146851	A01AB91	13/03/2007
24847569	A01AB91	05/09/2000
17746638	A01AB91	11/05/2009
6990280	A01AB91	22/02/2010
20147230	A01AB91	21/12/2007
26425372	A01AB91	20/08/2007
26425083	A01AB91	16/04/2010
26461292	A01AB91	08/09/2003
26385357	A01AB91	28/10/2009
26464787	A01AB91	08/05/2008
26426009	A01AB91	30/10/2007
17742404	A01AB91	27/02/2008
26384460	A01AB91	29/08/2007
26255901	A01AB91	10/08/2007
23890725	A01AB91	01/02/2011
18472135	A01AB91	22/10/2009
20034102	A01AB91	02/01/2006
26178951	A01AB91	21/06/2005
28040286	A01AB91	24/01/2006
26306610	A01AB91	21/10/2008
17219212	A01AB91	03/01/2008
16832533	A01AB91	11/11/2007
7492715	A01AB91	11/03/2010
15656527	A01AB91	17/02/2010
16836110	A01AB91	15/02/2011
17040205	A01AB91	19/06/2009
8116610	A01AB91	15/05/2006
16980576	A01AB91	10/07/2009
11084819	A01AB91	16/11/2009
16096569	A01AB91	28/12/2010
1908398	A01AB91	04/08/2003
434967	A01AB91	25/03/2011
300241	A01AB91	21/11/2008
8089010	A01AB91	17/04/2009
265439	A01AB91	31/03/2006
2959597	A01AB91	07/04/2010
424570	A01AB91	08/05/2006
1913318	A01AB91	29/01/2011
180907	A01AB91	04/09/2009
183510	A01AB91	28/08/2008
2958619	A01AB91	16/10/2002
1018396	A01AB91	07/12/2009
419475	A01AB91	12/06/2005
433748	A01AB91	26/02/2008
2960892	A01AB91	28/09/2010
1900723	A01AB91	23/08/2007
302264	A01AB91	05/07/2006
4889299	A01AB91	02/08/2007
759194	A01AB91	03/10/2008
16823937	A01AB91	14/04/2009
26426004	A01AB91	24/05/2001
28080638	A01AB91	22/12/2006
14281108	A01AB91	01/05/2009
28092214	A01AB91	19/04/2006
28080811	A01AB91	22/11/2010
28044182	A01AB91	05/11/2010
2762750	A01AB91	10/03/2005
2039704	A01AB91	16/11/2007
28084179	A01AB91	19/05/2011
26457855	A01AB91	22/10/2007
7134485	A01AB91	27/03/2006
26425106	A01AB91	01/09/2006
184353	A01AB91	11/06/2008
420981	A01AB91	23/05/2006
423385	A01AB91	15/05/2001
7142837	A01AB91	22/04/2008
421631	A01AB91	05/05/2009
186409	A01AB91	08/03/2004
424641	A01AB91	09/06/2004
424657	A01AB91	30/05/2004
28069809	A01AB91	18/08/2009
433324	A01AB91	21/04/2009
265148	A01AB91	01/02/2009
28070991	A01AB91	16/04/2002
28071928	A01AB91	07/02/2006
28065834	A01AB91	28/04/2006
28054205	A01AB91	19/05/2006
28069841	A01AB91	13/02/2009
24658648	A01AB91	08/09/2009
24655567	A01AB91	02/02/2001
24657144	A01AB91	16/07/2008
24670093	A01AB91	16/01/2009
24745556	A01AB91	18/12/2007
24578675	A01AB91	16/01/2008
25742680	A01AB91	18/01/2011
25743607	A01AB91	31/01/2008
25588570	A01AB91	17/05/2010
24666922	A01AB91	25/09/2009
24664443	A01AB91	04/01/2008
24664445	A01AB91	29/09/2009
25743054	A01AB91	05/05/2006
25636658	A01AB91	18/08/2006
25620364	A01AB91	04/04/2006
24663987	A01AB91	28/08/2003
19423118	A01AB91	25/11/2009
1364571	A01AB91	16/10/2006
1016457	A01AB91	03/02/2005
1905426	A01AB91	07/03/2006
1374270	A01AB91	22/03/2010
18191643	A01AB91	16/11/2009
421990	A01AB91	10/05/2011
1014507	A01AB91	07/12/2010
619414	A01AB91	18/10/2004
1361706	A01AB91	18/05/2011
1363788	A01AB91	10/03/2003
1908278	A01AB91	25/09/2004
39936	A01AB91	27/08/2007
1367873	A01AB91	30/10/2002
40178	A01AB91	26/05/2008
1366141	A01AB91	22/09/2006
18191327	A01AB91	24/11/2001
21553830	A01AB91	26/03/2008
19802679	A01AB91	24/12/2009
19801514	A01AB91	11/06/2005
18194003	A01AB91	02/11/2007
18200534	A01AB91	01/10/2003
18196791	A01AB91	06/08/2009
16840985	A01AB91	04/04/2008
21064688	A01AB91	04/01/2005
18191207	A01AB91	18/03/2009
19788236	A01AB91	30/10/2009
21063510	A01AB91	27/11/2001
19424222	A01AB91	18/10/2008
18197591	A01AB91	01/03/2010
18189493	A01AB91	25/09/2006
19804975	A01AB91	17/07/2001
18187821	A01AB91	27/10/2003
20331236	A01AB91	26/10/2005
2964554	A01AB91	11/03/2009
1906291	A01AB91	08/11/2005
4312803	A01AB91	15/07/2008
1019721	A01AB91	07/07/2006
10826869	A01AB91	09/03/2009
2960430	A01AB91	10/09/2002
2251076	A01AB91	20/10/2009
12976928	A01AB91	25/02/2010
10221219	A01AB91	04/06/2008
2250411	A01AB91	06/08/2003
1030188	A01AB91	17/06/2008
1904472	A01AB91	10/04/2006
2250579	A01AB91	10/03/2011
1015918	A01AB91	04/11/2010
2959039	A01AB91	04/02/2003
4905135	A01AB91	28/04/2006
1018239	A01AB91	08/07/2010
1989439	A01AB91	09/02/2004
926529	A01AB91	09/01/2009
1363174	A01AB91	02/06/2009
26638791	A01AB91	19/04/2004
26856517	A01AB91	17/03/2005
26776551	A01AB91	27/05/2011
26699952	A01AB91	22/04/2011
26852141	A01AB91	01/06/2009
26825417	A01AB91	07/03/2011
26707359	A01AB91	27/04/2011
26790332	A01AB91	04/03/2006
26722085	A01AB91	21/01/2009
26718272	A01AB91	25/06/2008
26830352	A01AB91	27/11/2007
26639040	A01AB91	07/12/2007
26638407	A01AB91	23/03/2010
26830450	A01AB91	29/10/2007
26635317	A01AB91	08/08/2004
26805213	A01AB91	06/09/2006
21581511	A01AB91	16/07/2009
22881924	A01AB91	19/02/2008
16105363	A01AB91	20/12/2005
3254435	A01AB91	28/04/2006
24578616	A01AB91	23/08/2006
13497668	A01AB91	12/09/2007
12985711	A01AB91	22/06/2006
12976349	A01AB91	04/12/2010
11443475	A01AB91	17/11/2008
12993257	A01AB91	11/04/2005
14309684	A01AB91	27/10/2009
2987010	A01AB91	15/10/2007
16105473	A01AB91	16/12/2005
16105498	A01AB91	29/07/2010
16844100	A01AB91	09/10/2008
16844334	A01AB91	21/06/2010
10770222	A01AB91	07/03/2011
16567893	A01AB91	15/07/2003
26718859	A01AB91	24/05/2010
26707001	A01AB91	07/03/2008
16810184	A01AB91	29/12/2006
12975538	A01AB91	23/12/2010
26625646	A01AB91	04/06/2009
26719525	A01AB91	28/09/2006
14311227	A01AB91	02/01/2010
26640542	A01AB91	25/11/2005
26616688	A01AB91	23/09/2009
10826727	A01AB91	26/10/2010
26638606	A01AB91	17/05/2010
26626137	A01AB91	18/11/2009
26699648	A01AB91	13/05/2008
26719166	A01AB91	27/11/2010
26625051	A01AB91	12/06/2008
11674234	A01AB91	21/06/2004
26616636	A01AB91	03/10/2005
26618242	A01AB91	23/08/2007
22922486	A01AB91	13/05/2010
24580650	A01AB91	21/07/2005
24583039	A01AB91	15/07/2005
24576726	A01AB91	13/08/2008
22874924	A01AB91	10/05/2010
22922995	A01AB91	15/10/2009
23484674	A01AB91	29/11/2007
22922409	A01AB91	04/04/2011
21554328	A01AB91	11/07/2008
24656355	A01AB91	09/08/2006
22883329	A01AB91	11/10/2010
22922776	A01AB91	22/03/2011
24579417	A01AB91	16/09/2010
23463234	A01AB91	14/04/2010
22922281	A01AB91	17/04/2004
24581543	A01AB91	11/04/2008
26895374	A01AB91	03/10/2007
26932654	A01AB91	30/05/2011
26894950	A01AB91	17/02/2009
26938768	A01AB91	03/03/2006
26963483	A01AB91	01/07/2004
26886481	A01AB91	10/08/2009
26886489	A01AB91	14/04/2010
26916046	A01AB91	05/12/2009
26916047	A01AB91	10/01/2011
26948615	A01AB91	20/12/2005
26916169	A01AB91	31/08/2010
26917699	A01AB91	05/08/2008
26946963	A01AB91	27/05/2011
26889844	A01AB91	12/01/2011
26936020	A01AB91	02/02/2006
26950428	A01AB91	07/05/2010
26768406	A01AB91	27/04/2006
26730017	A01AB91	16/10/2008
26879225	A01AB91	05/05/2010
26779451	A01AB91	12/02/2010
26742016	A01AB91	25/02/2011
26715824	A01AB91	23/12/2009
26726560	A01AB91	06/06/2008
26741985	A01AB91	01/12/2005
26771447	A01AB91	29/03/2011
26784787	A01AB91	13/10/2009
26742445	A01AB91	22/01/2007
26871724	A01AB91	11/04/2008
26714948	A01AB91	25/06/2009
26726633	A01AB91	11/12/2003
26769000	A01AB91	13/08/2009
26875771	A01AB91	05/07/2004
26941964	A01AB91	03/04/2009
26867156	A01AB91	20/05/2007
26848752	A01AB91	08/02/2010
26887343	A01AB91	23/05/2011
26878871	A01AB91	13/11/2009
26878383	A01AB91	14/04/2011
26865382	A01AB91	13/04/2009
26886801	A01AB91	18/03/2011
26845956	A01AB91	26/05/2008
26888277	A01AB91	22/12/2009
26880467	A01AB91	23/03/2009
26847639	A01AB91	26/04/2011
26960922	A01AB91	05/11/2009
26759968	A01AB91	03/02/2009
26800376	A01AB91	14/06/2007
26789113	A01AB91	27/03/2006
26792107	A01AB91	27/09/2006
26793083	A01AB91	05/03/2007
26789735	A01AB91	15/12/2005
26728879	A01AB91	06/09/2006
26707554	A01AB91	22/09/2006
26776380	A01AB91	26/02/2010
26831366	A01AB91	07/11/2009
26805018	A01AB91	12/01/2010
26811537	A01AB91	18/07/2006
26852978	A01AB91	22/02/2008
26771375	A01AB91	18/07/2005
26760283	A01AB91	17/10/2008
26804650	A01AB91	21/03/2011
26770056	A01AB91	29/06/2005
26995682	A01AB91	04/05/2011
26969569	A01AB91	23/04/2010
27079131	A01AB91	22/01/2010
26977158	A01AB91	23/09/2003
26947651	A01AB91	17/12/2007
26950771	A01AB91	25/08/2008
26967298	A01AB91	19/03/2003
26995388	A01AB91	27/08/2010
27032833	A01AB91	13/11/2009
27031524	A01AB91	24/07/2006
27043376	A01AB91	06/10/2010
27030954	A01AB91	22/10/2005
26972749	A01AB91	05/08/2008
26982771	A01AB91	05/06/2007
27105324	A01AB91	11/01/2006
27086485	A01AB91	18/10/2010
27151169	A01AB91	21/07/2009
27102365	A01AB91	19/02/2008
27105375	A01AB91	28/01/2005
27101571	A01AB91	03/09/2003
27114780	A01AB91	21/07/2004
27080165	A01AB91	30/12/2009
27132881	A01AB91	11/10/2007
27151273	A01AB91	20/05/2011
27085859	A01AB91	04/08/2006
27083147	A01AB91	28/07/2009
27100788	A01AB91	20/08/2007
27113644	A01AB91	03/04/2008
27116096	A01AB91	17/06/2005
27106884	A01AB91	07/06/2007
27116163	A01AB91	02/02/2007
27021728	A01AB91	28/08/2006
27084312	A01AB91	14/12/2010
27137973	A01AB91	26/05/2004
27072992	A01AB91	08/07/2008
27033025	A01AB91	03/10/2005
27034569	A01AB91	04/04/2011
27047744	A01AB91	30/01/2008
27066373	A01AB91	20/06/2008
27061759	A01AB91	03/05/2008
27082854	A01AB91	07/02/2005
27065739	A01AB91	29/08/2005
27056639	A01AB91	26/04/2010
27074929	A01AB91	18/07/2008
27106068	A01AB91	25/06/2007
27075974	A01AB91	19/10/2007
27051410	A01AB91	31/05/2010
27052581	A01AB91	03/11/2004
27066800	A01AB91	04/12/2007
27046535	A01AB91	04/07/2005
27056356	A01AB91	12/05/2011
27025150	A01AB91	05/12/2003
27012009	A01AB91	20/09/2009
27026349	A01AB91	19/05/2011
27030607	A01AB91	04/07/2005
27042033	A01AB91	12/09/2005
27041316	A01AB91	05/05/2011
27025901	A01AB91	21/01/2004
27001487	A01AB91	20/11/2008
26996376	A01AB91	23/12/2008
27041367	A01AB91	12/04/2011
27004152	A01AB91	06/04/2009
27002578	A01AB91	01/02/2006
27002596	A01AB91	26/08/2009
27034016	A01AB91	30/09/2004
27025820	A01AB91	29/09/2008
27001964	A01AB91	12/05/2011
27024702	A01AB91	23/12/2010
27039849	A01AB91	30/12/2004
27327343	A01AB91	04/11/2009
27400146	A01AB91	12/01/2009
27348961	A01AB91	20/04/2011
27360746	A01AB91	04/09/2008
27215085	A01AB91	07/01/2006
27216624	A01AB91	20/11/2008
27152044	A01AB91	06/10/2010
27170907	A01AB91	02/05/2006
27213386	A01AB91	19/01/2009
27383534	A01AB91	27/08/2007
27168097	A01AB91	27/07/2006
27369270	A01AB91	01/10/2002
27219870	A01AB91	14/07/2008
27388816	A01AB91	05/01/2005
27399991	A01AB91	26/04/2010
27327547	A01AB91	16/01/2009
27383412	A01AB91	01/06/2010
27130080	A01AB91	17/06/2010
27389522	A01AB91	13/07/2005
27383911	A01AB91	29/06/2007
27218921	A01AB91	14/08/2008
27318585	A01AB91	14/07/2009
27233440	A01AB91	21/01/2002
27220565	A01AB91	29/10/2010
27198682	A01AB91	12/01/2006
27169975	A01AB91	11/12/2007
27365421	A01AB91	31/01/2011
27305595	A01AB91	18/03/2010
27306095	A01AB91	27/03/2009
27318305	A01AB91	23/07/2010
27233681	A01AB91	25/09/2008
27324136	A01AB91	12/12/2005
27396771	A01AB91	28/03/2007
27355027	A01AB91	15/09/2006
27296369	A01AB91	15/09/2008
27319659	A01AB91	18/12/2009
27300698	A01AB91	26/03/2010
27319537	A01AB91	20/11/2007
27386320	A01AB91	27/05/2008
27306374	A01AB91	10/12/2010
27353964	A01AB91	08/02/2008
27345639	A01AB91	10/04/2006
27306646	A01AB91	04/08/2009
27241974	A01AB91	19/06/2008
27253841	A01AB91	11/12/2007
26950673	A01AB91	19/10/2010
27212879	A01AB91	08/07/2007
27237009	A01AB91	21/06/2006
27171692	A01AB91	23/12/2008
27247445	A01AB91	26/02/2008
27170060	A01AB91	31/01/2011
27236620	A01AB91	22/04/2010
27631667	A01AB91	20/07/2007
27657732	A01AB91	09/11/2006
27589319	A01AB91	25/09/2008
27575771	A01AB91	02/05/2008
27571525	A01AB91	06/05/2011
27618071	A01AB91	24/06/2010
27632310	A01AB91	18/03/2011
27640410	A01AB91	22/06/2010
27593063	A01AB91	17/06/2005
27642131	A01AB91	01/07/2010
27574834	A01AB91	12/10/2003
27576444	A01AB91	01/07/2010
27588942	A01AB91	07/04/2009
27607290	A01AB91	02/12/2008
27613638	A01AB91	11/01/2006
27633300	A01AB91	23/09/2010
27641028	A01AB91	28/08/2007
27444188	A01AB91	26/01/2008
27473960	A01AB91	27/05/2010
27493387	A01AB91	25/10/2004
27453809	A01AB91	22/01/2009
27639481	A01AB91	20/11/2006
27639550	A01AB91	26/01/2011
27448710	A01AB91	21/06/2004
27415090	A01AB91	13/03/2007
27657086	A01AB91	19/01/2009
27650462	A01AB91	20/09/2008
27426997	A01AB91	12/04/2011
27569066	A01AB91	28/07/2010
27707997	A01AB91	01/02/2011
27568261	A01AB91	25/10/2006
27761731	A01AB91	07/02/2005
27618240	A01AB91	29/05/2006
27758847	A01AB91	04/03/2011
27553803	A01AB91	02/02/2009
27552047	A01AB91	07/12/2004
27547200	A01AB91	03/02/2011
27565610	A01AB91	10/11/2006
27720067	A01AB91	04/01/2008
27544017	A01AB91	06/04/2011
27546307	A01AB91	08/02/2010
27571569	A01AB91	11/09/2008
27571164	A01AB91	01/03/2010
27708618	A01AB91	26/01/2010
27285284	A01AB91	13/07/2006
27153665	A01AB91	21/10/2009
27151908	A01AB91	24/03/2004
27131238	A01AB91	30/07/2007
27283840	A01AB91	10/08/2009
27234266	A01AB91	29/05/2010
27160905	A01AB91	07/07/2005
27161418	A01AB91	19/03/2007
27138940	A01AB91	04/12/2008
27159559	A01AB91	10/05/2006
27153527	A01AB91	10/09/2003
27167731	A01AB91	26/10/2010
27232266	A01AB91	30/05/2007
27284226	A01AB91	04/03/2009
27161111	A01AB91	05/09/2008
27153595	A01AB91	29/06/2010
27250372	A01AB91	25/04/2005
27285613	A01AB91	29/01/2008
27284600	A01AB91	13/07/2010
27132827	A01AB91	24/01/2011
27284645	A01AB91	03/01/2011
27146052	A01AB91	08/09/2005
27287223	A01AB91	12/04/2011
26998989	A01AB91	15/11/2007
27782669	A01AB91	29/05/2009
1374541	A01AB91	31/03/2010
27623933	A01AB91	02/04/2009
26899689	A01AB91	16/12/2010
26976144	A01AB91	09/04/2010
26975914	A01AB91	18/06/2010
27321829	A01AB91	21/12/2010
27071836	A01AB91	07/09/2010
24659329	A01AB91	20/11/2008
16104517	A01AB91	01/06/2004
27082335	A01AB91	09/11/2005
18187165	A01AB91	08/04/2008
1016318	A01AB91	09/12/2003
618924	A01AB91	03/09/2007
27252613	A01AB91	02/03/2011
22882517	A01AB91	29/03/2004
26948927	A01AB91	29/12/2006
26846863	A01AB91	06/04/2010
27028201	A01AB91	18/10/2010
27040336	A01AB91	26/06/2009
27475185	A01AB91	28/09/2006
27780765	A01AB91	26/03/2008
27538570	A01AB91	22/06/2004
27570138	A01AB91	13/10/2010
27683287	A01AB91	13/01/2004
27452668	A01AB91	07/02/2005
27678332	A01AB91	25/04/2003
27673275	A01AB91	29/03/2004
27682540	A01AB91	04/10/2010
27679924	A01AB91	09/05/2008
27531352	A01AB91	28/09/2009
27563283	A01AB91	14/06/2010
27480464	A01AB91	17/09/2008
27685025	A01AB91	19/04/2007
27708419	A01AB91	12/08/2010
27533971	A01AB91	22/10/2003
27458555	A01AB91	03/05/2010
27496435	A01AB91	11/11/2009
27477136	A01AB91	23/05/2011
27678367	A01AB91	26/05/2003
27678368	A01AB91	28/10/2003
27779259	A01AB91	13/10/2005
27530889	A01AB91	23/04/2010
27478609	A01AB91	26/01/2005
27171675	A01AB91	19/03/2007
27678491	A01AB91	18/01/2006
27566721	A01AB91	21/04/2010
27680594	A01AB91	27/01/2006
27767877	A01AB91	06/02/2007
27689213	A01AB91	30/05/2003
27668668	A01AB91	29/04/2011
27777252	A01AB91	31/03/2005
16840852	A01AB91	12/07/2004
23483951	A01AB91	28/12/2010
1343895	A01AB91	18/02/2010
27771906	A01AB91	17/01/2008
27688385	A01AB91	17/03/2005
27665847	A01AB91	28/03/2011
27674082	A01AB91	03/04/2007
27719911	A01AB91	24/02/2011
1017321	A01AB91	31/01/2003
27672522	A01AB91	06/09/2005
27444018	A01AB91	14/08/2010
27682379	A01AB91	24/05/2010
27688275	A01AB91	03/07/2001
26943131	A01AB91	09/12/2005
26833867	A01AB91	11/11/2009
27539930	A01AB91	17/09/2010
27517142	A01AB91	28/01/2005
27537425	A01AB91	20/04/2006
27513049	A01AB91	13/12/2007
27480179	A01AB91	04/02/2009
27315810	A01AB91	19/12/2006
27591724	A01AB91	07/05/2009
27451366	A01AB91	04/12/2008
27496273	A01AB91	15/05/2008
27648764	A01AB91	13/07/2009
27589537	A01AB91	05/12/2006
26933407	A01AB91	25/01/2011
26619933	A01AB91	20/12/2010
27597806	A01AB91	19/06/2008
26635534	A01AB91	16/05/2003
27810792	A01AB91	05/05/2010
27674806	A01AB91	23/03/2010
27675953	A01AB91	20/04/2009
18186896	A01AB91	20/09/2007
27804595	A01AB91	21/02/2006
428085	A01AB91	26/04/2006
27719296	A01AB91	22/12/2010
27783945	A01AB91	15/02/2010
27718525	A01AB91	05/06/2006
27720128	A01AB91	27/04/2011
27169816	A01AB91	20/06/2005
27799762	A01AB91	05/02/2009
27806447	A01AB91	11/01/2011
27809338	A01AB91	24/05/2010
27797371	A01AB91	14/09/2007
27758954	A01AB91	08/10/2010
27761823	A01AB91	02/02/2011
27676239	A01AB91	27/08/2003
27063617	A01AB91	07/04/2009
27764235	A01AB91	12/07/2007
27667259	A01AB91	27/06/2005
27063841	A01AB91	04/09/2010
27665005	A01AB91	08/10/2008
27666478	A01AB91	23/12/2008
27764267	A01AB91	30/09/2010
27662240	A01AB91	29/12/2010
27797699	A01AB91	14/05/2009
26889371	A01AB91	29/10/2005
27785106	A01AB91	10/11/2009
26730671	A01AB91	21/04/2009
27666876	A01AB91	03/05/2011
27667214	A01AB91	17/03/2009
27160253	A01AB91	21/02/2005
26804065	A01AB91	10/01/2008
27470938	A01AB91	05/01/2010
27170744	A01AB91	03/11/2008
23484255	A01AB91	28/10/2005
18195479	A01AB91	14/09/2006
26848389	A01AB91	14/01/2010
27218796	A01AB91	04/07/2007
26974970	A01AB91	30/05/2008
27601318	A01AB91	20/07/2007
27794198	A01AB91	25/04/2008
27794211	A01AB91	28/07/2006
2957951	A01AB91	04/11/2004
13497550	A01AB91	20/09/2007
27715979	A01AB91	05/12/2009
16104638	A01AB91	26/12/2006
27084129	A01AB91	05/04/2011
27138879	A01AB91	17/09/2004
27284142	A01AB91	15/10/2005
26955317	A01AB91	13/10/2008
27775084	A01AB91	26/04/2011
27366636	A01AB91	11/04/2007
27772477	A01AB91	02/12/2002
27663382	A01AB91	16/07/2010
27028528	A01AB91	03/04/2009
26789166	A01AB91	15/10/2010
27771622	A01AB91	03/05/2004
33051320	A01AB91	04/08/2010
33023244	A01AB91	10/01/2011
33100103	A01AB91	23/02/2010
33106412	A01AB91	19/11/2009
33037105	A01AB91	26/08/2010
33048157	A01AB91	28/04/2011
33043763	A01AB91	14/11/2003
33129148	A01AB91	12/09/2008
33092896	A01AB91	25/06/2009
33099564	A01AB91	22/08/2008
33003898	A01AB91	18/12/2001
33067601	A01AB91	12/11/2008
33098852	A01AB91	13/09/2007
33030987	A01AB91	06/07/2009
33103882	A01AB91	19/12/2002
33088217	A01AB91	02/02/2009
33030476	A01AB91	01/03/2005
33060558	A01AB91	10/01/2011
33028516	A01AB91	03/03/2009
33039101	A01AB91	28/06/2007
33099353	A01AB91	08/07/2009
33008912	A01AB91	26/02/2007
33083502	A01AB91	29/09/2006
33081368	A01AB91	09/10/2009
33106608	A01AB91	04/03/2011
33005444	A01AB91	11/12/2006
33099318	A01AB91	31/05/2011
33095116	A01AB91	16/12/2010
33115825	A01AB91	07/10/2004
33081884	A01AB91	14/04/2009
33113624	A01AB91	27/02/2001
33019022	A01AB91	01/08/2006
33070878	A01AB91	31/01/2006
33027943	A01AB91	17/08/2006
33018138	A01AB91	13/09/2010
33054045	A01AB91	23/02/2011
33052382	A01AB91	12/11/2010
33122862	A01AB91	01/08/2008
33106497	A01AB91	14/04/2010
33043614	A01AB91	04/11/2009
33064809	A01AB91	28/03/2007
33051529	A01AB91	15/09/2005
33098168	A01AB91	05/03/2007
33060211	A01AB91	21/12/2004
33046246	A01AB91	29/10/2004
33091621	A01AB91	28/06/2010
33065816	A01AB91	26/08/2008
33063677	A01AB91	01/02/2010
33072776	A01AB91	09/12/2009
33059213	A01AB91	01/09/2010
33066001	A01AB91	01/04/2005
33097390	A01AB91	19/04/2010
33066419	A01AB91	27/04/2009
26636182	A01AB91	15/10/2007
27811936	A01AB91	13/04/2011
27796872	A01AB91	15/04/2008
27074781	A01AB91	21/09/2009
27680372	A01AB91	10/12/2004
27678827	A01AB91	24/08/2006
26866280	A01AB91	27/08/2005
27538301	A01AB91	02/12/2010
26625913	A01AB91	02/08/2010
26881208	A01AB91	21/08/2009
27800055	A01AB91	02/01/2009
183728	A01AB91	25/03/2010
2666457	A01AB91	12/01/2009
1905033	A01AB91	30/10/2004
11443754	A01AB91	20/02/2011
24658196	A01AB91	31/08/2010
27798157	A01AB91	27/05/2004
27805343	A01AB91	21/07/2008
26638174	A01AB91	08/05/2008
26851696	A01AB91	07/09/2007
1373130	A01AB91	03/07/2006
16567941	A01AB91	18/07/2007
33086713	A01AB91	07/09/2010
33020523	A01AB91	12/02/2003
33234657	A01AB91	02/05/2007
16166466	A01AB91	17/09/2009
21109297	A01AB91	20/10/2010
16630949	A01AB91	10/11/2009
33034636	A01AB91	21/04/2008
33245195	A01AB91	16/07/2004
16135206	A01AB91	09/04/2007
16178210	A01AB91	29/04/2010
33227002	A01AB91	04/05/2009
23320348	A01AB91	15/10/2004
16646449	A01AB91	18/02/2008
16647181	A01AB91	20/11/2004
33251505	A01AB91	25/07/2001
33316391	A01AB91	29/07/2009
24463719	A01AB91	06/03/2008
16603876	A01AB91	16/10/2002
16167082	A01AB91	08/07/2009
27948652	A01AB91	27/08/2010
27948789	A01AB91	04/08/2010
33046870	A01AB91	26/06/2009
27874229	A01AB91	10/12/2009
16712669	A01AB91	05/05/2009
33105641	A01AB91	30/06/2010
33048320	A01AB91	25/04/2011
33089746	A01AB91	29/03/2011
33090531	A01AB91	11/10/2010
33041177	A01AB91	17/10/2002
33033258	A01AB91	19/11/2007
33025298	A01AB91	18/03/2008
33070916	A01AB91	01/04/2003
33026712	A01AB91	30/09/2009
33056325	A01AB91	03/06/2008
33063405	A01AB91	31/07/2006
33048776	A01AB91	07/01/2011
33062878	A01AB91	25/04/2007
33060956	A01AB91	25/01/2010
33060011	A01AB91	14/06/2004
33060921	A01AB91	27/07/2010
33083224	A01AB91	19/05/2011
33034158	A01AB91	24/07/2009
33097482	A01AB91	23/02/2011
33104544	A01AB91	25/01/2006
33033729	A01AB91	05/09/2005
33007224	A01AB91	02/06/2005
33111035	A01AB91	01/12/2010
33074768	A01AB91	30/03/2011
33085777	A01AB91	20/04/2011
33050169	A01AB91	27/06/2007
33043124	A01AB91	08/02/2007
33008084	A01AB91	21/12/2010
33098204	A01AB91	23/05/2011
33097532	A01AB91	16/07/2008
33089947	A01AB91	29/11/2002
33030998	A01AB91	06/10/2000
33046881	A01AB91	15/05/2007
33060722	A01AB91	18/06/2008
33067910	A01AB91	14/12/2004
33057611	A01AB91	14/06/2010
33091289	A01AB91	21/10/2005
33007891	A01AB91	18/12/2009
33093016	A01AB91	29/10/2007
33098351	A01AB91	30/10/2006
33027780	A01AB91	14/12/2009
33096688	A01AB91	28/07/2008
33024570	A01AB91	24/01/2007
16176366	A01AB91	08/04/2008
16705563	A01AB91	17/07/2006
23315706	A01AB91	20/01/2011
18770764	A01AB91	15/11/2007
27999175	A01AB91	28/11/2008
16609792	A01AB91	02/01/2008
16679673	A01AB91	16/01/2009
16647930	A01AB91	13/08/2009
16647755	A01AB91	12/06/2009
20954926	A01AB91	25/04/2011
16138404	A01AB91	23/12/2003
14187910	A01AB91	18/07/2007
16639844	A01AB91	02/08/2007
16680776	A01AB91	11/04/2011
16174048	A01AB91	07/01/2002
33315421	A01AB91	09/07/2008
33239112	A01AB91	14/03/2009
33265198	A01AB91	30/05/2011
23329332	A01AB91	21/04/2011
33244530	A01AB91	15/05/2002
27999995	A01AB91	09/09/2009
16174125	A01AB91	28/10/2004
18758929	A01AB91	02/09/2010
16646080	A01AB91	14/06/2010
16607145	A01AB91	19/01/2009
16610599	A01AB91	02/06/2004
33230696	A01AB91	30/03/2007
23397615	A01AB91	06/08/2009
14188303	A01AB91	17/11/2009
16652525	A01AB91	19/10/2009
16657725	A01AB91	19/01/2007
18770211	A01AB91	18/08/2008
33245491	A01AB91	02/07/2008
21114861	A01AB91	16/10/2008
27957670	A01AB91	08/04/2011
16637147	A01AB91	26/01/2010
16165687	A01AB91	16/05/2011
21117274	A01AB91	29/01/2009
18762892	A01AB91	18/03/2010
16174177	A01AB91	06/08/2010
27901764	A01AB91	01/08/2003
33315413	A01AB91	07/05/2011
27913588	A01AB91	05/10/2010
33204424	A01AB91	30/03/2010
33202123	A01AB91	03/08/2009
33248203	A01AB91	24/11/2008
28000274	A01AB91	08/04/2010
16184630	A01AB91	24/06/2008
16609786	A01AB91	18/08/2010
21115002	A01AB91	07/01/2009
16636746	A01AB91	26/07/2007
16636488	A01AB91	08/05/2009
33232527	A01AB91	26/11/2002
16610132	A01AB91	20/05/2011
27983948	A01AB91	09/06/2008
16619366	A01AB91	13/04/2011
16138984	A01AB91	27/10/2009
16173300	A01AB91	09/11/2009
16172108	A01AB91	18/07/2001
16139405	A01AB91	15/12/2010
16184377	A01AB91	26/06/2007
33312262	A01AB91	07/04/2010
23366991	A01AB91	14/07/2010
18770821	A01AB91	20/09/2004
23354388	A01AB91	23/09/2005
16124521	A01AB91	27/07/2006
16605755	A01AB91	06/07/2009
23371267	A01AB91	28/11/2008
23383661	A01AB91	28/07/2005
23368415	A01AB91	13/03/2007
16602684	A01AB91	16/02/2006
21055503	A01AB91	06/09/2010
27996491	A01AB91	20/01/2009
28034015	A01AB91	22/08/2005
16626226	A01AB91	31/07/2009
16603682	A01AB91	23/12/2002
23342956	A01AB91	20/11/2006
16619883	A01AB91	04/01/2010
28000766	A01AB91	14/04/2010
21115398	A01AB91	05/04/2011
16647790	A01AB91	19/05/2008
33201412	A01AB91	26/09/2008
33200579	A01AB91	05/05/2011
23353839	A01AB91	15/03/2006
23470708	A01AB91	03/08/2010
23333345	A01AB91	25/07/2007
21105589	A01AB91	30/10/2007
23355002	A01AB91	03/05/2010
33290109	A01AB91	16/11/2009
16631801	A01AB91	04/05/2007
23354037	A01AB91	03/08/2010
23353502	A01AB91	24/03/2004
23406100	A01AB91	11/09/2007
16124510	A01AB91	22/01/2004
16623658	A01AB91	03/07/2007
23350072	A01AB91	04/12/2007
16613984	A01AB91	04/05/2005
21107685	A01AB91	30/01/2009
16648142	A01AB91	22/12/2010
28007863	A01AB91	18/05/2009
16637664	A01AB91	05/06/2007
16684088	A01AB91	30/10/2007
16637922	A01AB91	18/04/2011
18769218	A01AB91	27/08/2009
23316524	A01AB91	27/08/2010
33244922	A01AB91	06/06/2006
16708965	A01AB91	25/08/2006
33242322	A01AB91	03/03/2011
23382501	A01AB91	22/06/2007
27847657	A01AB91	04/12/2000
16647928	A01AB91	09/10/2008
16173635	A01AB91	01/06/2011
23397469	A01AB91	15/01/2009
16712610	A01AB91	26/06/2009
33302039	A01AB91	24/11/2009
21114699	A01AB91	29/03/2010
16646273	A01AB91	21/09/2010
24463058	A01AB91	31/08/2009
31778183	A01AB91	06/09/2004
31309738	A01AB91	11/03/2008
31847021	A01AB91	17/06/2008
28340388	A01AB91	20/04/2011
28729832	A01AB91	28/03/2011
30402634	A01AB91	09/02/2011
33245098	A01AB91	19/02/2010
21105502	A01AB91	08/07/2008
16649316	A01AB91	19/11/2008
16124564	A01AB91	05/05/2011
16774921	A01AB91	13/12/2010
27989647	A01AB91	14/11/2008
33256501	A01AB91	15/10/2010
21117548	A01AB91	15/06/2009
23381215	A01AB91	23/12/2006
23362721	A01AB91	31/03/2008
33245848	A01AB91	11/04/2011
20985230	A01AB91	05/02/2009
23368746	A01AB91	13/07/2009
28013056	A01AB91	10/12/2010
23367381	A01AB91	24/08/2006
33315070	A01AB91	18/06/2007
23413392	A01AB91	22/03/2005
33312738	A01AB91	16/12/2009
21105748	A01AB91	10/09/2008
33302431	A01AB91	30/04/2009
27998868	A01AB91	04/09/2006
16168771	A01AB91	15/09/2010
16712509	A01AB91	21/02/2005
33201976	A01AB91	17/12/2009
16603341	A01AB91	17/11/2008
27983007	A01AB91	03/09/2010
23367071	A01AB91	26/01/2009
16774153	A01AB91	03/05/2011
23351379	A01AB91	19/03/2008
23384994	A01AB91	06/09/2006
23385240	A01AB91	26/07/2004
23402803	A01AB91	22/10/2007
16186784	A01AB91	29/03/2005
23326983	A01AB91	19/09/2006
33244556	A01AB91	29/09/2009
33245160	A01AB91	20/01/2011
23402702	A01AB91	03/12/2003
23384854	A01AB91	18/10/2010
16603132	A01AB91	17/01/2008
23350638	A01AB91	14/05/2008
23401236	A01AB91	03/11/2009
21108093	A01AB91	01/04/2011
23353918	A01AB91	17/04/2009
18764796	A01AB91	07/04/2005
33246911	A01AB91	16/06/2006
16174088	A01AB91	02/03/2005
23385019	A01AB91	05/05/2006
32192677	A01AB91	21/08/2007
31157971	A01AB91	17/09/2001
31353235	A01AB91	15/10/2007
31731170	A01AB91	26/05/2003
31936867	A01AB91	02/03/2007
31311295	A01AB91	18/12/2007
31628609	A01AB91	02/03/2004
32128014	A01AB91	09/06/2005
31062826	A01AB91	05/04/2001
31590290	A01AB91	26/05/2009
31661400	A01AB91	11/10/2005
31735876	A01AB91	17/09/2008
31427737	A01AB91	03/11/2010
31284771	A01AB91	02/01/2009
31341379	A01AB91	06/09/2006
31638063	A01AB91	01/09/2006
32173295	A01AB91	11/11/2005
31117829	A01AB91	14/04/2011
32217710	A01AB91	24/10/2006
31760268	A01AB91	13/11/2008
31530945	A01AB91	01/09/2008
31949519	A01AB91	30/01/2004
31641080	A01AB91	20/06/2003
31359861	A01AB91	01/07/2008
31284366	A01AB91	25/06/2007
32107225	A01AB91	30/10/2008
31454156	A01AB91	11/01/2005
31973229	A01AB91	15/04/2002
31391321	A01AB91	26/01/2005
32109708	A01AB91	06/09/2007
31976717	A01AB91	13/03/2002
32277713	A01AB91	12/03/2010
31889230	A01AB91	06/04/2006
31137773	A01AB91	29/08/2008
31588614	A01AB91	12/09/2005
31420742	A01AB91	30/11/2007
32246611	A01AB91	23/09/2009
32026760	A01AB91	04/12/2009
31868546	A01AB91	30/12/2003
31321545	A01AB91	05/02/2003
32057338	A01AB91	30/03/2007
31768948	A01AB91	29/09/2003
31880089	A01AB91	30/04/2002
31786755	A01AB91	03/12/2001
31403261	A01AB91	04/06/2010
31096707	A01AB91	28/08/2008
31767728	A01AB91	01/04/2009
31480270	A01AB91	13/11/2006
31577746	A01AB91	19/08/2009
31612071	A01AB91	18/03/2003
31069460	A01AB91	26/04/2010
32246675	A01AB91	22/07/2004
31691165	A01AB91	26/12/2006
31415101	A01AB91	14/05/2003
31160878	A01AB91	06/07/2009
31709531	A01AB91	06/02/2008
31091370	A01AB91	14/11/2007
31213209	A01AB91	10/03/2010
31119347	A01AB91	10/12/2007
31404679	A01AB91	18/11/2008
32057549	A01AB91	15/11/2006
32073159	A01AB91	07/07/2005
31207975	A01AB91	19/01/2007
32006779	A01AB91	20/06/2008
31841569	A01AB91	22/07/2008
31451599	A01AB91	21/11/2006
31115938	A01AB91	01/08/2007
31290929	A01AB91	13/10/2009
31690018	A01AB91	14/04/2008
32279522	A01AB91	18/07/2008
31896290	A01AB91	04/01/2008
31067837	A01AB91	25/08/2008
32078134	A01AB91	06/05/2010
31987098	A01AB91	20/09/2007
31055874	A01AB91	15/03/2007
32066172	A01AB91	20/10/2008
31626228	A01AB91	18/11/2004
31853784	A01AB91	16/04/2009
31875873	A01AB91	12/03/2010
32282394	A01AB91	30/01/2008
31672279	A01AB91	27/03/2008
31267473	A01AB91	21/11/2006
31394939	A01AB91	17/09/2003
31842658	A01AB91	17/05/2005
32200966	A01AB91	09/09/2005
31648495	A01AB91	11/05/2009
31311252	A01AB91	24/06/2009
32112585	A01AB91	29/05/2008
31191174	A01AB91	21/01/2011
31520067	A01AB91	08/04/2005
31299460	A01AB91	26/11/2003
31598575	A01AB91	21/03/2005
31694151	A01AB91	14/11/2008
31974336	A01AB91	07/07/2008
32218783	A01AB91	30/04/2007
32122906	A01AB91	03/01/2007
31184648	A01AB91	24/05/2005
31974767	A01AB91	24/03/2008
31098272	A01AB91	13/09/2004
31445853	A01AB91	13/03/2003
31381249	A01AB91	25/04/2007
31703414	A01AB91	22/04/2009
32221033	A01AB91	09/07/2008
31244163	A01AB91	02/08/2007
32097844	A01AB91	19/09/2008
31358766	A01AB91	14/11/2003
31799453	A01AB91	21/06/2004
31374114	A01AB91	23/02/2004
31049207	A01AB91	01/06/2011
31487617	A01AB91	27/12/2006
31697444	A01AB91	23/03/2006
31255436	A01AB91	04/07/2007
31968510	A01AB91	02/08/2007
32086236	A01AB91	12/12/2005
31796678	A01AB91	26/06/2002
31822514	A01AB91	23/11/2010
31365988	A01AB91	20/12/2007
31641342	A01AB91	09/12/2008
31686702	A01AB91	04/05/2009
31673616	A01AB91	26/08/2010
31387411	A01AB91	09/07/2009
32000982	A01AB91	24/06/2003
31343858	A01AB91	07/03/2005
31454718	A01AB91	04/08/2008
32080325	A01AB91	08/08/2001
31331386	A01AB91	24/09/2008
31577745	A01AB91	03/07/2007
31225273	A01AB91	04/08/2006
31612836	A01AB91	21/07/2008
32275796	A01AB91	01/06/2007
31160405	A01AB91	14/09/2005
31731345	A01AB91	14/03/2008
31814754	A01AB91	08/11/2004
32075431	A01AB91	02/03/2009
31815808	A01AB91	18/11/2010
31035939	A01AB91	15/10/2004
31179796	A01AB91	29/03/2006
31665059	A01AB91	03/06/2005
31284291	A01AB91	30/05/2005
31423636	A01AB91	04/03/2008
32074407	A01AB91	01/02/2006
32013329	A01AB91	27/12/2002
31846875	A01AB91	21/07/2006
31553549	A01AB91	18/09/2006
31950974	A01AB91	23/07/2002
31109594	A01AB91	12/07/2010
31768805	A01AB91	18/08/2008
32003853	A01AB91	02/07/2009
31216431	A01AB91	26/02/2009
32180519	A01AB91	25/09/2008
31704498	A01AB91	09/03/2011
32176325	A01AB91	09/03/2004
31835258	A01AB91	26/04/2002
31224124	A01AB91	09/06/2005
31528243	A01AB91	28/10/2009
31440365	A01AB91	31/03/2006
32238733	A01AB91	22/03/2010
31959560	A01AB91	07/09/2001
31581886	A01AB91	06/03/2008
31580653	A01AB91	01/10/2010
31694310	A01AB91	10/04/2003
31193920	A01AB91	31/05/2007
31975247	A01AB91	01/09/2005
31044311	A01AB91	23/11/2009
31957088	A01AB91	03/06/2009
31797785	A01AB91	18/12/2007
31113175	A01AB91	18/02/2004
31033314	A01AB91	04/04/2007
31955502	A01AB91	27/10/2008
31191279	A01AB91	13/08/2007
31904957	A01AB91	17/09/2003
31785640	A01AB91	08/03/2005
31393513	A01AB91	09/12/2008
31259746	A01AB91	09/01/2009
31936120	A01AB91	10/09/2007
31107119	A01AB91	30/03/2010
31169467	A01AB91	28/03/2005
32084821	A01AB91	19/11/2008
31584781	A01AB91	15/06/2009
31086046	A01AB91	22/04/2010
32033414	A01AB91	06/11/2007
31923655	A01AB91	05/05/2008
31875001	A01AB91	11/12/2003
31767484	A01AB91	26/06/2008
31188568	A01AB91	04/02/2009
31318102	A01AB91	17/10/2005
32237911	A01AB91	13/05/2005
31089828	A01AB91	01/07/2009
31267257	A01AB91	22/07/2003
31847576	A01AB91	27/06/2007
31686790	A01AB91	14/05/2002
32189808	A01AB91	16/12/2010
31807218	A01AB91	23/01/2006
31831536	A01AB91	11/05/2009
31829833	A01AB91	12/01/2005
31470909	A01AB91	21/03/2007
31258154	A01AB91	23/06/2003
32173766	A01AB91	07/05/2007
32213697	A01AB91	15/01/2009
31501413	A01AB91	24/09/2008
31534286	A01AB91	20/05/2008
31660454	A01AB91	27/09/2007
31530588	A01AB91	27/11/2009
31621628	A01AB91	09/09/2009
31897930	A01AB91	06/03/2006
31177768	A01AB91	26/05/2011
31994914	A01AB91	24/01/2007
31247927	A01AB91	02/03/2006
31683144	A01AB91	27/11/2008
31054420	A01AB91	10/09/2008
32247232	A01AB91	13/03/2007
31365873	A01AB91	21/11/2003
32230729	A01AB91	15/04/2010
31696885	A01AB91	12/11/2008
31288965	A01AB91	14/09/2009
32142087	A01AB91	28/06/2007
31526446	A01AB91	28/05/2009
31354097	A01AB91	27/11/2009
31282883	A01AB91	07/07/2004
31061037	A01AB91	02/11/2006
31673640	A01AB91	01/12/2009
32190370	A01AB91	20/03/2007
32084456	A01AB91	16/06/2003
32017201	A01AB91	04/02/2002
32233419	A01AB91	31/01/2007
31815136	A01AB91	02/10/2008
31081419	A01AB91	25/09/2003
31038595	A01AB91	12/02/2007
31066164	A01AB91	26/12/2007
32172406	A01AB91	21/08/2007
31475686	A01AB91	10/03/2009
31827681	A01AB91	26/01/2006
31441426	A01AB91	10/12/2009
32171097	A01AB91	23/12/2009
31490679	A01AB91	03/01/2008
32280955	A01AB91	26/04/2007
31841286	A01AB91	09/03/2007
31923205	A01AB91	21/06/2010
31354176	A01AB91	22/01/2007
31980687	A01AB91	25/02/2005
31750115	A01AB91	22/03/2007
31782561	A01AB91	28/08/2008
31238809	A01AB91	24/03/2009
32018111	A01AB91	29/12/2008
31772502	A01AB91	01/04/2005
31620017	A01AB91	30/06/2008
32146088	A01AB91	18/06/2009
32128378	A01AB91	06/02/2006
31683193	A01AB91	03/08/2006
31800102	A01AB91	31/10/2006
32102604	A01AB91	08/09/2010
31468457	A01AB91	26/04/2005
31126185	A01AB91	24/02/2010
31642511	A01AB91	26/12/2003
31958127	A01AB91	21/12/2004
31226443	A01AB91	21/04/2009
31248296	A01AB91	06/09/2006
31672308	A01AB91	20/04/2009
31735021	A01AB91	27/07/2009
31607561	A01AB91	10/10/2005
31167775	A01AB91	27/04/2005
31502915	A01AB91	13/11/2006
31916030	A01AB91	04/03/2010
32034125	A01AB91	14/08/2008
31926507	A01AB91	05/12/2005
31982808	A01AB91	16/11/2006
31357640	A01AB91	21/05/2009
31823040	A01AB91	13/11/2007
32224413	A01AB91	04/07/2008
31765504	A01AB91	27/11/2008
31608488	A01AB91	14/05/2009
31461892	A01AB91	02/07/2007
31522740	A01AB91	29/09/2008
31419213	A01AB91	19/09/2006
31094327	A01AB91	07/05/2007
31274163	A01AB91	07/08/2007
31173453	A01AB91	15/04/2004
31776900	A01AB91	02/03/2009
31354855	A01AB91	13/01/2010
31256421	A01AB91	12/12/2008
31860145	A01AB91	05/03/2009
31450210	A01AB91	12/12/2006
31137112	A01AB91	19/04/2007
32187498	A01AB91	29/04/2005
31669980	A01AB91	18/11/2008
31984866	A01AB91	18/01/2007
31395813	A01AB91	16/12/2009
32263126	A01AB91	15/09/2010
32198464	A01AB91	15/02/2006
32125428	A01AB91	31/08/2009
31903968	A01AB91	08/07/2008
31458645	A01AB91	10/08/2004
32006368	A01AB91	23/11/2005
31606344	A01AB91	02/11/2010
32270091	A01AB91	31/01/2008
31474342	A01AB91	23/02/2006
31186052	A01AB91	09/03/2011
32037041	A01AB91	05/11/2008
31367824	A01AB91	06/03/2008
31989026	A01AB91	27/06/2002
31638449	A01AB91	21/12/2009
31346856	A01AB91	21/11/2008
31696946	A01AB91	18/03/2002
31340935	A01AB91	19/04/2004
31044169	A01AB91	07/10/2010
32093203	A01AB91	18/04/2006
31550011	A01AB91	27/11/2009
31600809	A01AB91	04/08/2008
31932560	A01AB91	19/10/2009
31054768	A01AB91	12/03/2008
31598661	A01AB91	01/09/2006
32171369	A01AB91	21/06/2005
31721371	A01AB91	18/09/2001
31797949	A01AB91	22/03/2007
31452525	A01AB91	09/10/2009
31422757	A01AB91	27/09/2007
31264479	A01AB91	11/10/2005
31569396	A01AB91	19/08/2008
31109159	A01AB91	03/09/2007
31424896	A01AB91	19/06/2006
32099302	A01AB91	28/10/2009
32081758	A01AB91	03/06/2009
31849175	A01AB91	29/08/2005
32235440	A01AB91	03/10/2006
31679003	A01AB91	02/12/2010
31192975	A01AB91	08/10/2009
31429518	A01AB91	12/09/2008
31514901	A01AB91	13/07/2010
31626969	A01AB91	10/07/2006
31570040	A01AB91	24/03/2009
32149307	A01AB91	12/12/2007
31629176	A01AB91	02/11/2005
31191195	A01AB91	19/11/2003
31037982	A01AB91	09/06/2003
31492822	A01AB91	18/01/2006
32094491	A01AB91	28/05/2003
31817649	A01AB91	27/11/2007
31684900	A01AB91	16/05/2005
31890800	A01AB91	21/05/2007
32156190	A01AB91	08/09/2008
32177223	A01AB91	06/10/2008
31067422	A01AB91	16/06/2004
31795089	A01AB91	15/07/2010
31249100	A01AB91	30/05/2006
31187476	A01AB91	22/07/2009
31302635	A01AB91	13/04/2004
31755456	A01AB91	12/04/2004
32231459	A01AB91	13/07/2007
31175621	A01AB91	14/11/2008
32003164	A01AB91	19/12/2005
32252204	A01AB91	05/04/2010
31439367	A01AB91	26/01/2009
31938524	A01AB91	27/02/2009
31939727	A01AB91	21/05/2007
31084479	A01AB91	23/12/2004
31097872	A01AB91	15/04/2010
31992839	A01AB91	22/05/2007
32181106	A01AB91	01/06/2009
31096124	A01AB91	19/11/2009
32111220	A01AB91	03/04/2007
31955894	A01AB91	26/01/2006
31673216	A01AB91	02/07/2007
31311199	A01AB91	13/07/2004
31176011	A01AB91	04/02/2009
31563177	A01AB91	04/03/2008
31566072	A01AB91	17/04/2009
31434499	A01AB91	29/10/2007
31559202	A01AB91	01/02/2007
32051643	A01AB91	19/07/2006
31645480	A01AB91	14/01/2005
31462204	A01AB91	21/07/2008
31378501	A01AB91	20/02/2006
31962165	A01AB91	04/02/2008
31378201	A01AB91	16/01/2006
32232823	A01AB91	23/12/2008
32136461	A01AB91	04/05/2005
31075969	A01AB91	01/02/2007
31618013	A01AB91	06/11/2006
31129878	A01AB91	09/10/2006
31412458	A01AB91	08/10/2007
31126554	A01AB91	25/08/2010
32140434	A01AB91	22/07/2004
31973568	A01AB91	11/02/2002
31118426	A01AB91	08/08/2007
32173478	A01AB91	16/07/2007
31217806	A01AB91	24/05/2004
31292902	A01AB91	18/11/2005
31921033	A01AB91	19/01/2010
31184461	A01AB91	20/10/2009
31573310	A01AB91	29/12/2009
32112160	A01AB91	20/11/2006
31143232	A01AB91	28/09/2004
31478038	A01AB91	24/03/2008
31197319	A01AB91	18/10/2006
31795658	A01AB91	28/04/2005
31212853	A01AB91	25/02/2008
31553921	A01AB91	17/01/2007
31114660	A01AB91	12/11/2002
31273240	A01AB91	18/11/2008
32118250	A01AB91	17/05/2004
32109768	A01AB91	16/05/2002
31380809	A01AB91	16/12/2008
31944943	A01AB91	05/10/2010
31777551	A01AB91	15/01/2007
32239114	A01AB91	03/05/2004
31625423	A01AB91	14/05/2009
31767577	A01AB91	12/07/2010
31032144	A01AB91	06/02/2004
32018231	A01AB91	03/02/2006
31243931	A01AB91	31/08/2006
31739715	A01AB91	07/04/2003
31486840	A01AB91	19/05/2009
31163879	A01AB91	21/05/2010
31847445	A01AB91	28/07/2006
32118813	A01AB91	30/01/2008
31621633	A01AB91	08/07/2008
31804296	A01AB91	06/09/2004
32243594	A01AB91	17/08/2005
31241941	A01AB91	07/05/2003
31939056	A01AB91	19/04/2005
31332749	A01AB91	21/10/2004
31513020	A01AB91	23/05/2008
31285337	A01AB91	31/08/2009
31759943	A01AB91	29/10/2007
31943993	A01AB91	21/10/2010
32158955	A01AB91	07/01/2009
32167646	A01AB91	22/05/2007
31858005	A01AB91	20/08/2010
32210034	A01AB91	24/06/2009
31493410	A01AB91	28/09/2005
31337953	A01AB91	08/05/2009
32142008	A01AB91	15/02/2006
31176367	A01AB91	17/12/2007
32263832	A01AB91	09/10/2006
31929700	A01AB91	18/06/2008
31614016	A01AB91	21/04/2008
31786674	A01AB91	11/07/2008
31209696	A01AB91	15/02/2011
31447492	A01AB91	09/09/2004
31053935	A01AB91	20/07/2007
31916430	A01AB91	11/05/2011
31538206	A01AB91	19/05/2011
32207420	A01AB91	10/02/2009
31493420	A01AB91	18/10/2007
32281526	A01AB91	21/12/2005
31871892	A01AB91	09/05/2007
31610642	A01AB91	15/01/2010
31812494	A01AB91	06/11/2007
31427802	A01AB91	25/05/2005
31419416	A01AB91	11/05/2009
32160969	A01AB91	26/08/2008
31659176	A01AB91	04/12/2009
31260854	A01AB91	14/07/2005
31049205	A01AB91	24/08/2010
31900890	A01AB91	16/07/2009
31741108	A01AB91	18/02/2003
32242783	A01AB91	10/12/2009
31426144	A01AB91	09/03/2007
32105540	A01AB91	30/06/2005
31319368	A01AB91	24/05/2006
32090185	A01AB91	18/09/2008
32133275	A01AB91	23/04/2010
31937147	A01AB91	15/02/2006
31374121	A01AB91	23/11/2004
32057478	A01AB91	01/10/2007
31441586	A01AB91	21/12/2009
31585215	A01AB91	02/11/2006
31442945	A01AB91	07/04/2005
32154430	A01AB91	16/06/2009
31740407	A01AB91	12/06/2008
31449578	A01AB91	17/10/2005
32060360	A01AB91	10/12/2004
31893641	A01AB91	27/03/2009
31359534	A01AB91	16/06/2006
31386421	A01AB91	04/05/2006
31479508	A01AB91	10/12/2008
31148510	A01AB91	15/12/2010
31777453	A01AB91	28/09/2009
31107785	A01AB91	17/04/2007
31486375	A01AB91	23/12/2003
31916785	A01AB91	26/12/2008
31539070	A01AB91	16/02/2005
31797705	A01AB91	30/11/2009
31645396	A01AB91	15/03/2006
31111424	A01AB91	09/11/2006
31573542	A01AB91	09/08/2006
31608836	A01AB91	23/02/2006
31747776	A01AB91	06/04/2010
32178811	A01AB91	26/04/2007
32200995	A01AB91	04/06/2007
31959698	A01AB91	09/12/2009
31931676	A01AB91	22/05/2008
31576965	A01AB91	22/02/2008
31257145	A01AB91	13/02/2008
31353254	A01AB91	21/04/2005
31197126	A01AB91	02/01/2008
32220436	A01AB91	28/02/2007
31217504	A01AB91	29/03/2007
31165916	A01AB91	09/06/2008
32016763	A01AB91	02/12/2004
32158039	A01AB91	13/07/2010
31929256	A01AB91	26/11/2008
32176704	A01AB91	05/06/2003
31768146	A01AB91	13/05/2008
32011511	A01AB91	03/11/2004
31607730	A01AB91	03/06/2008
32178757	A01AB91	27/02/2007
31804599	A01AB91	22/01/2007
31063759	A01AB91	20/11/2009
31066043	A01AB91	29/07/2004
31703712	A01AB91	20/07/2007
31370614	A01AB91	13/02/2009
