patient_id	covar_name	date
10284307	A01AB09	31/05/2007
9311739	A01AB09	09/03/2004
8784390	A01AB09	13/04/2000
25054888	A01AB09	28/06/2005
16035910	A01AB09	08/11/2010
12237800	A01AB09	23/12/2008
62714	A01AB09	28/01/2011
22697820	A01AB09	11/04/2011
3122137	A01AB09	29/03/2004
8788414	A01AB09	24/03/2011
11994606	A01AB09	20/02/2008
8960463	A01AB09	18/02/2005
5566098	A01AB09	30/07/2007
9385413	A01AB09	10/02/2011
12762896	A01AB09	20/07/2006
19153100	A01AB09	29/10/2010
9390177	A01AB09	05/07/2006
6079907	A01AB09	24/07/2008
13538926	A01AB09	11/08/2010
12771955	A01AB09	22/11/2005
949778	A01AB09	03/01/2008
21335601	A01AB09	20/09/2010
19056071	A01AB09	17/12/2010
12772856	A01AB09	24/07/2008
25083443	A01AB09	10/06/2005
12783208	A01AB09	19/08/2004
14641107	A01AB09	02/07/2009
3550672	A01AB09	23/02/2004
6752622	A01AB09	21/06/2005
24466722	A01AB09	05/04/2011
9230590	A01AB09	17/02/2009
12763150	A01AB09	01/10/2008
13539084	A01AB09	03/03/2011
8786041	A01AB09	11/03/2008
9376383	A01AB09	17/05/2011
5029514	A01AB09	31/01/2011
1123313	A01AB09	05/11/2003
23472073	A01AB09	09/09/2009
9370792	A01AB09	30/05/2005
13375801	A01AB09	14/05/2009
740425	A01AB09	07/06/2001
9294363	A01AB09	17/06/2003
1516008	A01AB09	05/01/2010
4743459	A01AB09	17/04/2009
1301453	A01AB09	12/04/2011
16922826	A01AB09	11/03/2009
25053827	A01AB09	16/05/2011
16915547	A01AB09	11/03/2011
7160853	A01AB09	26/03/2010
946808	A01AB09	08/11/2010
8785120	A01AB09	21/10/2010
12782745	A01AB09	23/05/2011
10332543	A01AB09	22/06/2010
13375645	A01AB09	15/06/2009
18095736	A01AB09	18/06/2010
9231362	A01AB09	20/08/2009
3330955	A01AB09	31/10/2005
20910320	A01AB09	29/12/2009
1936084	A01AB09	08/02/2011
13539265	A01AB09	12/01/2010
19179217	A01AB09	02/11/2007
9231095	A01AB09	15/02/2006
607911	A01AB09	05/01/2010
14208990	A01AB09	13/07/2009
6281599	A01AB09	17/08/2006
11373114	A01AB09	25/06/2008
9284324	A01AB09	25/05/2006
740820	A01AB09	10/02/2004
8554604	A01AB09	18/04/2011
7162636	A01AB09	15/09/2010
10332613	A01AB09	25/05/2011
20909054	A01AB09	11/10/2010
10246462	A01AB09	18/10/2010
25065956	A01AB09	20/01/2009
12763683	A01AB09	27/07/2010
10003982	A01AB09	23/11/2010
10270807	A01AB09	03/11/2010
23471965	A01AB09	28/09/2004
1064683	A01AB09	16/02/2006
1338017	A01AB09	12/01/2011
16323398	A01AB09	25/11/2008
2623471	A01AB09	08/06/2007
9377350	A01AB09	04/05/2011
9295669	A01AB09	19/12/2007
21153008	A01AB09	14/08/2009
1964545	A01AB09	16/05/2011
10331912	A01AB09	24/05/2011
11660574	A01AB09	17/09/2010
6417039	A01AB09	20/11/2008
2768402	A01AB09	27/03/2006
5565815	A01AB09	15/07/2010
10333295	A01AB09	16/04/2008
5024803	A01AB09	20/12/2010
9385419	A01AB09	08/03/2011
13986519	A01AB09	28/05/2005
7770511	A01AB09	28/06/2005
18891979	A01AB09	22/08/2007
9373480	A01AB09	16/10/2009
20291009	A01AB09	15/12/2010
1054683	A01AB09	11/03/2008
26145000	A01AB09	20/10/2006
1206852	A01AB09	11/12/2002
24943888	A01AB09	03/10/2003
565091	A01AB09	09/02/2011
7444046	A01AB09	08/11/2007
7697586	A01AB09	20/12/2007
565093	A01AB09	14/04/2009
24941392	A01AB09	21/01/2011
1474100	A01AB09	18/07/2002
1198439	A01AB09	02/11/2010
1203945	A01AB09	05/07/2004
1199932	A01AB09	08/04/2010
7231434	A01AB09	28/10/2005
7770971	A01AB09	22/03/2010
8175392	A01AB09	04/02/2009
13984759	A01AB09	06/10/2004
4700733	A01AB09	21/10/2009
1850465	A01AB09	20/05/2002
11069987	A01AB09	27/06/2008
674519	A01AB09	29/01/2003
1419572	A01AB09	27/05/2009
1276923	A01AB09	28/08/2009
10081530	A01AB09	02/04/2008
8061402	A01AB09	06/03/2003
7964309	A01AB09	05/02/2007
13273125	A01AB09	29/10/2010
6595699	A01AB09	12/05/2011
24934852	A01AB09	12/09/2007
6600716	A01AB09	18/02/2003
18039020	A01AB09	09/06/2004
540075	A01AB09	01/04/2008
6842058	A01AB09	10/01/2008
1379462	A01AB09	15/03/2011
17783992	A01AB09	05/04/2011
1378713	A01AB09	02/07/2009
674486	A01AB09	25/09/2006
1320212	A01AB09	19/03/2009
1379495	A01AB09	09/03/2005
640203	A01AB09	08/10/2010
1420230	A01AB09	13/06/2008
5899636	A01AB09	10/10/2007
1203166	A01AB09	20/10/2004
1351713	A01AB09	28/10/2009
7770064	A01AB09	18/10/2010
6593623	A01AB09	31/08/2004
1055033	A01AB09	22/11/2004
1474271	A01AB09	24/02/2005
3655614	A01AB09	28/11/2006
1578228	A01AB09	05/01/2010
6973828	A01AB09	30/11/2006
1566989	A01AB09	05/03/2004
25766904	A01AB09	03/02/2010
25902808	A01AB09	03/03/2011
25900612	A01AB09	12/01/2009
15798351	A01AB09	09/11/2010
25897788	A01AB09	09/01/2009
486362	A01AB09	14/09/2006
4676284	A01AB09	13/12/2005
1577582	A01AB09	25/01/2002
2817356	A01AB09	20/04/2009
1108840	A01AB09	27/06/2007
1108078	A01AB09	12/06/2001
1130148	A01AB09	08/02/2011
25897169	A01AB09	22/01/2010
5987409	A01AB09	15/01/2007
1577791	A01AB09	30/06/2003
1102919	A01AB09	28/05/2009
12788129	A01AB09	02/11/2009
1274503	A01AB09	11/11/2002
1550733	A01AB09	14/10/2005
25900572	A01AB09	28/07/2008
6955818	A01AB09	18/02/2008
4675753	A01AB09	09/09/2003
135815	A01AB09	21/12/2010
25897367	A01AB09	29/04/2010
25767008	A01AB09	14/01/2010
25757999	A01AB09	26/01/2007
3656203	A01AB09	04/06/2007
1108899	A01AB09	13/10/2003
25901987	A01AB09	19/05/2009
12705229	A01AB09	25/01/2008
1108853	A01AB09	04/12/2003
6492401	A01AB09	14/05/2008
2072510	A01AB09	21/04/2004
2088140	A01AB09	05/12/2002
2365596	A01AB09	19/08/2003
2142935	A01AB09	14/08/2009
2087753	A01AB09	29/11/2006
2411712	A01AB09	03/03/2003
2110888	A01AB09	01/06/2004
876765	A01AB09	04/02/2009
901845	A01AB09	28/04/2003
2038338	A01AB09	03/08/2009
901961	A01AB09	09/08/2006
2042889	A01AB09	15/12/2008
901433	A01AB09	07/04/2010
858702	A01AB09	30/03/2007
2774660	A01AB09	17/02/2007
7038052	A01AB09	05/06/2008
2762396	A01AB09	05/08/2004
6630115	A01AB09	30/10/2006
5884475	A01AB09	05/02/2007
2574919	A01AB09	05/01/2011
2520230	A01AB09	01/02/2005
2523880	A01AB09	11/08/2003
2365682	A01AB09	18/02/2004
2407446	A01AB09	14/04/2004
16962173	A01AB09	09/11/2010
14360982	A01AB09	22/09/2009
28062656	A01AB09	29/01/2010
26461804	A01AB09	08/09/2010
26424856	A01AB09	04/12/2009
28073766	A01AB09	22/07/2009
26550709	A01AB09	17/06/2002
26384900	A01AB09	31/05/2011
26392078	A01AB09	24/02/2009
20673495	A01AB09	29/09/2009
18225788	A01AB09	02/05/2003
7976451	A01AB09	28/08/2007
21454031	A01AB09	18/03/2011
20146495	A01AB09	13/10/2010
20146851	A01AB09	02/03/2011
9624027	A01AB09	02/06/2008
7149056	A01AB09	27/11/2006
26383243	A01AB09	24/09/2004
26436536	A01AB09	19/09/2008
16832962	A01AB09	28/02/2008
17219212	A01AB09	13/12/2007
16832533	A01AB09	16/11/2007
16961631	A01AB09	07/01/2005
14508033	A01AB09	04/09/2009
16961823	A01AB09	24/07/2010
15661529	A01AB09	01/03/2010
16832631	A01AB09	01/09/2008
16824550	A01AB09	09/11/2007
9675648	A01AB09	04/04/2008
12653536	A01AB09	24/07/2008
16831242	A01AB09	24/05/2010
16824136	A01AB09	26/08/2005
16836479	A01AB09	05/04/2010
1908398	A01AB09	05/12/2007
8055952	A01AB09	29/01/2008
8089010	A01AB09	03/09/2009
437549	A01AB09	13/03/2006
436094	A01AB09	10/08/2001
1913318	A01AB09	03/02/2011
464738	A01AB09	27/10/2000
184887	A01AB09	14/02/2011
184942	A01AB09	28/01/2003
2967837	A01AB09	18/06/2003
1019947	A01AB09	12/11/2008
6012723	A01AB09	23/05/2011
12985074	A01AB09	03/01/2006
874500	A01AB09	24/06/2009
876393	A01AB09	25/06/2003
14281108	A01AB09	01/05/2009
2525880	A01AB09	26/03/2010
28091695	A01AB09	25/11/2007
28092214	A01AB09	10/09/2009
16962291	A01AB09	14/10/2005
28085405	A01AB09	14/11/2008
28084179	A01AB09	25/08/2010
28073342	A01AB09	30/10/2003
28075236	A01AB09	19/08/2010
28073503	A01AB09	06/03/2006
9535848	A01AB09	28/06/2009
28090121	A01AB09	10/11/2010
15289103	A01AB09	19/04/2010
619579	A01AB09	16/01/2002
181145	A01AB09	19/04/2006
2068739	A01AB09	06/07/2005
423166	A01AB09	15/10/2010
28069809	A01AB09	25/08/2009
185305	A01AB09	14/10/2009
179341	A01AB09	27/09/2004
265148	A01AB09	09/02/2009
28045692	A01AB09	07/02/2011
28065834	A01AB09	26/06/2008
28071783	A01AB09	02/02/2004
21581705	A01AB09	18/05/2004
25537104	A01AB09	23/06/2008
25537207	A01AB09	06/04/2009
25579160	A01AB09	18/06/2003
25740455	A01AB09	13/02/2009
25620364	A01AB09	25/05/2011
19963034	A01AB09	27/09/2010
620281	A01AB09	09/10/2007
1374270	A01AB09	03/01/2005
39376	A01AB09	29/10/2009
1906965	A01AB09	30/10/2003
18192414	A01AB09	28/07/2010
1908215	A01AB09	25/11/2002
1908228	A01AB09	12/11/2003
1908241	A01AB09	28/06/2003
1908278	A01AB09	03/10/2003
1908296	A01AB09	03/07/2003
1030137	A01AB09	19/10/2010
1343151	A01AB09	28/07/2000
1366141	A01AB09	04/01/2011
17418597	A01AB09	04/08/2010
16812198	A01AB09	25/09/2006
18194003	A01AB09	14/11/2008
18556319	A01AB09	07/05/2011
16840985	A01AB09	10/11/2008
19279949	A01AB09	29/01/2007
18197591	A01AB09	26/12/2003
20330675	A01AB09	27/10/2006
19804975	A01AB09	01/06/2004
1369305	A01AB09	26/07/2000
12984397	A01AB09	16/04/2007
12984422	A01AB09	18/12/2007
1343000	A01AB09	31/05/2004
436843	A01AB09	31/01/2006
1030188	A01AB09	27/09/2010
1361009	A01AB09	31/03/2008
8214501	A01AB09	29/07/2009
1994071	A01AB09	27/10/2005
6563419	A01AB09	10/10/2005
6563463	A01AB09	13/04/2007
1905107	A01AB09	22/12/2003
26621036	A01AB09	31/05/2010
26796011	A01AB09	12/05/2011
26856096	A01AB09	06/02/2009
26707359	A01AB09	14/09/2010
26638407	A01AB09	31/07/2009
26626574	A01AB09	25/06/2009
17157171	A01AB09	19/02/2007
12953841	A01AB09	21/04/2011
13872036	A01AB09	29/05/2009
11541606	A01AB09	26/05/2008
16820182	A01AB09	19/01/2010
2987979	A01AB09	01/10/2008
16085135	A01AB09	09/02/2007
16820284	A01AB09	30/11/2009
12951527	A01AB09	21/09/2009
12985711	A01AB09	07/08/2006
15820281	A01AB09	01/10/2010
2986820	A01AB09	18/11/2005
11749296	A01AB09	16/01/2008
11443475	A01AB09	01/10/2008
11443663	A01AB09	14/04/2008
9063598	A01AB09	31/08/2005
24661095	A01AB09	27/11/2003
12975801	A01AB09	09/03/2007
26707001	A01AB09	07/03/2008
12975538	A01AB09	26/03/2007
26620846	A01AB09	17/05/2011
26666989	A01AB09	09/07/2008
26616688	A01AB09	02/05/2009
26622821	A01AB09	24/07/2010
26721437	A01AB09	26/01/2007
14528786	A01AB09	25/01/2011
26719007	A01AB09	27/08/2006
24594053	A01AB09	10/10/2008
24663248	A01AB09	17/03/2008
19966968	A01AB09	02/06/2004
24593668	A01AB09	21/11/2007
20760970	A01AB09	23/05/2011
23086691	A01AB09	07/04/2011
22883329	A01AB09	11/10/2010
22922776	A01AB09	12/04/2011
24579417	A01AB09	23/09/2010
24578829	A01AB09	12/11/2009
24593848	A01AB09	05/07/2004
22882719	A01AB09	24/01/2011
24594349	A01AB09	28/08/2009
26894948	A01AB09	01/10/2009
26896402	A01AB09	16/02/2011
26960916	A01AB09	08/11/2008
26917699	A01AB09	15/06/2005
26936020	A01AB09	01/06/2005
26944305	A01AB09	05/07/2003
26960818	A01AB09	20/02/2008
26715712	A01AB09	28/09/2005
26711644	A01AB09	09/12/2009
26742016	A01AB09	25/03/2011
26726986	A01AB09	02/03/2005
26871724	A01AB09	17/10/2008
26785410	A01AB09	02/07/2007
26867268	A01AB09	23/10/2010
26857465	A01AB09	02/07/2007
26879959	A01AB09	07/02/2006
26880205	A01AB09	29/12/2003
26879837	A01AB09	14/02/2007
26899997	A01AB09	26/12/2008
26880072	A01AB09	19/07/2010
26880467	A01AB09	01/04/2009
26881213	A01AB09	05/06/2003
26863378	A01AB09	25/10/2010
26759600	A01AB09	28/01/2011
26775207	A01AB09	01/06/2006
26850227	A01AB09	04/10/2010
26795604	A01AB09	20/04/2006
26832963	A01AB09	21/04/2008
26711151	A01AB09	18/06/2010
26825165	A01AB09	20/05/2008
26804650	A01AB09	09/06/2008
26939739	A01AB09	17/12/2008
26960792	A01AB09	11/05/2005
26960799	A01AB09	20/11/2003
27002739	A01AB09	04/08/2009
26979358	A01AB09	05/05/2008
26969114	A01AB09	17/05/2011
26995388	A01AB09	18/05/2009
26972708	A01AB09	09/10/2003
26979441	A01AB09	16/03/2010
26982514	A01AB09	23/04/2009
26982771	A01AB09	18/07/2007
26982772	A01AB09	20/03/2009
26988906	A01AB09	19/09/2008
27114780	A01AB09	04/08/2004
27134502	A01AB09	27/09/2004
27085859	A01AB09	22/02/2011
27035579	A01AB09	25/08/2005
27087139	A01AB09	26/12/2008
27105146	A01AB09	20/04/2007
27106884	A01AB09	14/10/2004
27021728	A01AB09	11/11/2008
27108006	A01AB09	27/10/2009
27130162	A01AB09	17/05/2008
27150951	A01AB09	06/06/2007
27072992	A01AB09	22/01/2009
27033025	A01AB09	06/09/2005
27030054	A01AB09	22/05/2006
27047744	A01AB09	08/05/2009
27048430	A01AB09	04/10/2004
27075523	A01AB09	06/11/2008
27048064	A01AB09	21/05/2009
27047483	A01AB09	30/11/2007
27031269	A01AB09	10/02/2004
27075974	A01AB09	04/07/2008
27048917	A01AB09	12/05/2009
27030607	A01AB09	22/07/2005
27021767	A01AB09	28/10/2006
27002859	A01AB09	21/07/2006
27005538	A01AB09	17/07/2007
27021411	A01AB09	10/03/2004
27001487	A01AB09	08/04/2010
27027177	A01AB09	10/03/2008
27000993	A01AB09	17/09/2009
27002585	A01AB09	24/05/2011
26983284	A01AB09	18/11/2009
27025820	A01AB09	06/10/2010
27027465	A01AB09	20/09/2008
27327343	A01AB09	04/11/2009
27221240	A01AB09	23/03/2009
27388377	A01AB09	15/11/2007
27346535	A01AB09	23/04/2007
27325553	A01AB09	13/06/2007
27379761	A01AB09	20/04/2009
27213014	A01AB09	29/03/2006
27362102	A01AB09	31/08/2010
27327876	A01AB09	22/11/2007
27379398	A01AB09	09/12/2008
27327912	A01AB09	30/01/2009
27347214	A01AB09	31/08/2005
27357376	A01AB09	30/01/2006
27162490	A01AB09	31/12/2008
27390585	A01AB09	04/11/2010
27138466	A01AB09	19/02/2008
27396246	A01AB09	22/05/2007
27365779	A01AB09	17/06/2010
27284738	A01AB09	18/11/2010
27357453	A01AB09	12/05/2011
27307620	A01AB09	11/11/2009
27365421	A01AB09	04/06/2008
27231772	A01AB09	14/08/2006
27222570	A01AB09	23/09/2009
27308809	A01AB09	16/06/2008
27212729	A01AB09	21/02/2005
27196362	A01AB09	16/05/2007
27315277	A01AB09	21/03/2011
27295991	A01AB09	01/10/2004
27170658	A01AB09	21/03/2011
27319537	A01AB09	13/12/2007
27356978	A01AB09	26/06/2008
27349891	A01AB09	28/10/2003
27356759	A01AB09	29/09/2009
27317311	A01AB09	26/08/2008
27386894	A01AB09	21/09/2005
26968859	A01AB09	26/01/2010
27196632	A01AB09	18/03/2008
26943081	A01AB09	11/11/2009
27222310	A01AB09	13/05/2009
26945772	A01AB09	10/06/2004
27212879	A01AB09	10/07/2007
26960683	A01AB09	10/06/2005
26960523	A01AB09	03/07/2003
26960544	A01AB09	21/02/2007
26960579	A01AB09	21/09/2009
27171402	A01AB09	04/02/2008
27241952	A01AB09	07/10/2010
26989612	A01AB09	01/07/2008
27616036	A01AB09	15/02/2008
27589319	A01AB09	10/08/2009
27639945	A01AB09	03/06/2008
27617024	A01AB09	03/09/2007
27616106	A01AB09	08/04/2011
27593063	A01AB09	01/06/2010
27590737	A01AB09	23/11/2004
27600652	A01AB09	15/05/2006
27642131	A01AB09	22/06/2010
27604685	A01AB09	24/11/2008
27651125	A01AB09	23/12/2004
27651151	A01AB09	26/05/2008
27575818	A01AB09	12/05/2003
27592232	A01AB09	28/05/2010
27484464	A01AB09	13/02/2011
27478398	A01AB09	21/03/2007
27577364	A01AB09	14/03/2010
27569159	A01AB09	01/09/2009
27569114	A01AB09	12/06/2009
27756348	A01AB09	15/12/2005
27765512	A01AB09	27/12/2010
27569742	A01AB09	23/07/2010
27756656	A01AB09	01/10/2007
27547200	A01AB09	03/02/2011
27558827	A01AB09	18/01/2005
27570004	A01AB09	09/05/2011
27145639	A01AB09	01/07/2009
27235595	A01AB09	04/06/2008
27146227	A01AB09	21/10/2005
27167731	A01AB09	17/02/2011
27146121	A01AB09	01/07/2009
27295071	A01AB09	04/07/2006
27295411	A01AB09	01/07/2008
27132827	A01AB09	14/01/2009
27284645	A01AB09	29/12/2010
27146052	A01AB09	30/10/2006
27451408	A01AB09	30/05/2007
27689536	A01AB09	11/12/2009
27782560	A01AB09	13/10/2005
27071836	A01AB09	05/02/2010
24659329	A01AB09	17/04/2009
27082335	A01AB09	28/01/2008
27452007	A01AB09	16/01/2009
16085199	A01AB09	28/05/2010
1016318	A01AB09	21/12/2010
619935	A01AB09	10/12/2004
22882517	A01AB09	23/12/2003
27030561	A01AB09	12/01/2004
27780243	A01AB09	02/02/2009
27040336	A01AB09	22/09/2006
27777033	A01AB09	27/12/2005
27570138	A01AB09	05/11/2010
27766630	A01AB09	11/04/2003
27683287	A01AB09	21/01/2004
27451039	A01AB09	07/05/2007
27771832	A01AB09	08/05/2008
27663644	A01AB09	31/08/2010
27534918	A01AB09	26/11/2008
27475521	A01AB09	04/05/2010
27778908	A01AB09	15/05/2009
27678368	A01AB09	08/09/2003
27775441	A01AB09	10/05/2011
25742146	A01AB09	15/06/2007
27777283	A01AB09	22/08/2007
16840852	A01AB09	16/07/2004
27666515	A01AB09	27/10/2010
307191	A01AB09	13/03/2008
27082259	A01AB09	16/12/2005
27688247	A01AB09	15/06/2010
27633578	A01AB09	02/08/2004
27513049	A01AB09	10/06/2003
27591660	A01AB09	18/06/2009
27541129	A01AB09	08/11/2004
27617503	A01AB09	19/02/2008
27451490	A01AB09	12/05/2008
1028687	A01AB09	21/10/2003
26619933	A01AB09	16/09/2010
27802903	A01AB09	17/02/2005
620353	A01AB09	20/02/2003
2809166	A01AB09	31/05/2005
26853156	A01AB09	15/10/2009
26623184	A01AB09	05/06/2003
26635534	A01AB09	27/08/2003
2963966	A01AB09	05/03/2008
2998206	A01AB09	26/07/2005
27327794	A01AB09	16/04/2008
27719296	A01AB09	28/01/2011
27759606	A01AB09	30/03/2011
27803265	A01AB09	01/12/2009
27797371	A01AB09	10/07/2008
27758954	A01AB09	08/10/2010
27794453	A01AB09	18/10/2008
27662240	A01AB09	14/01/2002
27667214	A01AB09	22/10/2001
27025860	A01AB09	20/01/2011
23484255	A01AB09	28/10/2005
437061	A01AB09	02/07/2004
18192604	A01AB09	26/02/2011
12954084	A01AB09	26/11/2009
27601318	A01AB09	26/06/2007
27780814	A01AB09	14/11/2002
27766849	A01AB09	29/05/2006
186266	A01AB09	14/06/2010
26979256	A01AB09	09/02/2011
27030758	A01AB09	27/01/2011
27027551	A01AB09	30/09/2008
27776761	A01AB09	21/10/2009
26855749	A01AB09	07/06/2007
27802966	A01AB09	25/09/2006
33112774	A01AB09	13/01/2010
33117897	A01AB09	27/07/2009
33023244	A01AB09	28/01/2011
33129148	A01AB09	02/09/2008
33067601	A01AB09	09/09/2010
33078853	A01AB09	15/11/2006
33134765	A01AB09	13/01/2011
33028516	A01AB09	05/11/2009
33115825	A01AB09	31/08/2006
33016797	A01AB09	09/02/2010
33081884	A01AB09	14/04/2009
33018138	A01AB09	13/10/2010
33034793	A01AB09	06/05/2008
33126891	A01AB09	29/09/2010
33126493	A01AB09	02/03/2009
33059213	A01AB09	19/10/2010
1043506	A01AB09	07/12/2005
27678827	A01AB09	24/10/2006
20330777	A01AB09	17/07/2006
183728	A01AB09	06/05/2010
27808378	A01AB09	27/08/2009
25738030	A01AB09	15/05/2006
437585	A01AB09	31/05/2005
11443754	A01AB09	13/05/2011
27801842	A01AB09	23/02/2006
13497566	A01AB09	19/01/2006
27802006	A01AB09	15/06/2006
16567941	A01AB09	31/05/2007
20981857	A01AB09	29/03/2008
33209000	A01AB09	29/03/2007
16177914	A01AB09	21/07/2008
27994570	A01AB09	07/06/2010
16135206	A01AB09	26/02/2007
18769202	A01AB09	13/10/2010
33026564	A01AB09	21/10/2009
27914330	A01AB09	03/10/2006
33090531	A01AB09	11/10/2010
33126990	A01AB09	10/07/2008
33004734	A01AB09	03/07/2009
33123603	A01AB09	14/02/2011
33005091	A01AB09	27/02/2006
33063405	A01AB09	05/04/2010
33041062	A01AB09	22/12/2006
33048776	A01AB09	07/01/2011
33060956	A01AB09	05/10/2009
33085777	A01AB09	20/04/2011
33127566	A01AB09	02/03/2011
33135909	A01AB09	17/09/2010
33008084	A01AB09	11/02/2011
33097532	A01AB09	02/06/2008
33032181	A01AB09	22/06/2007
33033745	A01AB09	23/01/2001
33044074	A01AB09	14/01/2011
33012988	A01AB09	06/10/2009
18730630	A01AB09	07/01/2011
27983775	A01AB09	23/11/2009
23360965	A01AB09	05/11/2008
16138404	A01AB09	17/12/2008
27997697	A01AB09	20/06/2006
33313168	A01AB09	22/01/2009
27996332	A01AB09	11/07/2008
33249829	A01AB09	27/02/2009
16637836	A01AB09	19/06/2009
16652466	A01AB09	17/03/2010
28009808	A01AB09	21/10/2009
28004880	A01AB09	07/09/2005
33250477	A01AB09	09/10/2008
14188303	A01AB09	11/05/2011
16680317	A01AB09	11/02/2009
16596211	A01AB09	03/05/2007
16165687	A01AB09	06/07/2010
16705925	A01AB09	01/02/2007
16596526	A01AB09	24/03/2011
27998334	A01AB09	23/02/2011
28033454	A01AB09	19/10/2010
28004253	A01AB09	08/11/2010
16184028	A01AB09	31/10/2008
28003257	A01AB09	28/12/2009
16172391	A01AB09	11/06/2002
16627962	A01AB09	22/01/2008
18754665	A01AB09	22/10/2009
16610132	A01AB09	27/09/2007
33249205	A01AB09	13/05/2008
28017377	A01AB09	05/11/2010
23350743	A01AB09	24/08/2010
23385430	A01AB09	08/04/2011
23366881	A01AB09	21/04/2010
16124109	A01AB09	02/09/2003
23339422	A01AB09	12/02/2004
20991039	A01AB09	03/11/2009
16124521	A01AB09	13/07/2006
16610026	A01AB09	01/12/2010
21055503	A01AB09	06/09/2010
27996491	A01AB09	29/03/2010
21106425	A01AB09	11/11/2010
33302455	A01AB09	02/11/2007
20982711	A01AB09	02/10/2009
23364873	A01AB09	14/02/2008
16629051	A01AB09	17/03/2008
28004671	A01AB09	12/07/2005
33248767	A01AB09	05/02/2007
23315832	A01AB09	17/09/2007
16633880	A01AB09	26/02/2007
16631801	A01AB09	28/02/2011
23354037	A01AB09	20/12/2010
20985576	A01AB09	22/06/2010
16628028	A01AB09	16/11/2007
20990975	A01AB09	02/09/2010
20986270	A01AB09	17/06/2008
20985436	A01AB09	09/10/2009
16684088	A01AB09	09/03/2009
18769218	A01AB09	13/11/2009
33224120	A01AB09	17/10/2010
16631655	A01AB09	04/02/2011
16173635	A01AB09	03/05/2011
23333059	A01AB09	06/03/2006
27998137	A01AB09	05/08/2004
18757709	A01AB09	20/04/2010
28007119	A01AB09	28/06/2010
16705838	A01AB09	17/07/2008
31752872	A01AB09	19/10/2007
29928429	A01AB09	25/04/2011
28941634	A01AB09	09/12/2010
28230308	A01AB09	07/03/2011
28819685	A01AB09	26/10/2010
30627646	A01AB09	30/03/2011
30094435	A01AB09	16/05/2011
30609633	A01AB09	18/04/2011
30604900	A01AB09	16/02/2011
31908206	A01AB09	28/05/2007
23381215	A01AB09	07/02/2006
23291864	A01AB09	13/04/2010
23354151	A01AB09	24/01/2005
23470370	A01AB09	18/05/2011
28470212	A01AB09	20/04/2011
33312738	A01AB09	20/09/2010
28001029	A01AB09	26/09/2007
21105748	A01AB09	04/10/2010
23275767	A01AB09	11/01/2005
16173873	A01AB09	24/07/2000
30307425	A01AB09	18/03/2011
16130884	A01AB09	30/12/2003
16603132	A01AB09	09/04/2010
16598726	A01AB09	25/02/2004
656479	A01AB09	06/11/2006
23401236	A01AB09	26/10/2009
23353918	A01AB09	18/12/2008
23336136	A01AB09	09/05/2011
31731170	A01AB09	05/09/2002
32179812	A01AB09	01/12/2008
31250750	A01AB09	15/03/2005
31311295	A01AB09	14/12/2007
31628609	A01AB09	29/06/2004
31284771	A01AB09	03/02/2009
32217710	A01AB09	31/10/2006
31740128	A01AB09	17/07/2007
31310128	A01AB09	24/10/2006
31127802	A01AB09	18/07/2007
31550961	A01AB09	04/06/2007
32161767	A01AB09	24/03/2006
31877066	A01AB09	17/11/2009
31454156	A01AB09	22/04/2004
31391321	A01AB09	28/09/2007
32160616	A01AB09	02/08/2004
31175384	A01AB09	10/12/2004
32246611	A01AB09	02/06/2010
31880089	A01AB09	30/04/2002
31758571	A01AB09	26/09/2007
31876883	A01AB09	03/12/2008
31712443	A01AB09	22/12/2006
32246675	A01AB09	13/01/2005
31792571	A01AB09	29/01/2009
31709531	A01AB09	12/02/2008
31119347	A01AB09	10/12/2007
31396351	A01AB09	01/12/2006
32139072	A01AB09	21/05/2009
31168941	A01AB09	02/06/2009
31490015	A01AB09	26/02/2007
31489624	A01AB09	13/10/2008
31626228	A01AB09	22/09/2006
31853784	A01AB09	29/08/2008
31834959	A01AB09	23/02/2009
31534125	A01AB09	23/07/2007
31974336	A01AB09	29/02/2008
31362262	A01AB09	10/11/2005
31357201	A01AB09	14/06/2006
31884872	A01AB09	06/04/2010
32146428	A01AB09	13/07/2005
32020647	A01AB09	11/11/2005
31049207	A01AB09	15/03/2007
31181017	A01AB09	04/02/2010
31655762	A01AB09	29/07/2008
32078521	A01AB09	23/06/2003
31429601	A01AB09	30/11/2005
31435940	A01AB09	04/01/2005
31365988	A01AB09	29/11/2007
31577745	A01AB09	19/07/2007
32275796	A01AB09	13/06/2007
31538821	A01AB09	11/11/2008
32108763	A01AB09	26/08/2004
31432354	A01AB09	30/05/2006
31654021	A01AB09	24/11/2008
31198932	A01AB09	14/04/2010
31939717	A01AB09	25/06/2009
31648334	A01AB09	11/08/2008
31950974	A01AB09	02/10/2002
32125980	A01AB09	04/12/2006
32176325	A01AB09	23/10/2008
31522613	A01AB09	06/09/2007
31835258	A01AB09	04/04/2002
31055006	A01AB09	11/05/2005
31777190	A01AB09	17/07/2008
31782108	A01AB09	03/03/2006
31046930	A01AB09	04/04/2006
32033414	A01AB09	20/11/2007
31697264	A01AB09	15/07/2008
31100908	A01AB09	04/03/2005
31890167	A01AB09	02/11/2004
31292596	A01AB09	07/07/2008
32211007	A01AB09	28/06/2006
31847576	A01AB09	17/05/2007
31309715	A01AB09	29/12/2004
31568595	A01AB09	01/07/2004
31223261	A01AB09	01/12/2004
31621628	A01AB09	30/12/2005
31177768	A01AB09	04/04/2011
31203077	A01AB09	21/08/2009
31947791	A01AB09	25/06/2003
31773644	A01AB09	22/09/2008
32016725	A01AB09	18/08/2004
31081419	A01AB09	07/03/2003
31326357	A01AB09	04/08/2006
31066404	A01AB09	11/01/2007
31631947	A01AB09	11/02/2005
31441426	A01AB09	27/11/2009
31662121	A01AB09	06/11/2008
31451755	A01AB09	10/06/2008
31750115	A01AB09	10/10/2006
31559062	A01AB09	31/03/2004
31674787	A01AB09	02/07/2008
32102604	A01AB09	08/09/2010
31246615	A01AB09	27/05/2009
31248296	A01AB09	30/08/2006
31211511	A01AB09	17/11/2003
32221835	A01AB09	23/06/2003
32090825	A01AB09	24/08/2010
31464154	A01AB09	06/02/2003
31630601	A01AB09	11/07/2006
31145688	A01AB09	19/10/2005
31255933	A01AB09	05/11/2007
31366968	A01AB09	22/04/2008
31048154	A01AB09	07/10/2010
31049991	A01AB09	28/12/2009
32124625	A01AB09	25/11/2008
31274163	A01AB09	16/11/2005
32200321	A01AB09	12/05/2006
31345734	A01AB09	21/12/2007
31473022	A01AB09	26/07/2010
31245311	A01AB09	01/06/2007
31474342	A01AB09	01/06/2006
32279907	A01AB09	07/12/2004
31903707	A01AB09	15/07/2004
31561059	A01AB09	02/07/2008
32275147	A01AB09	27/04/2010
32020453	A01AB09	09/12/2002
31050834	A01AB09	01/07/2004
31356332	A01AB09	19/03/2007
31715418	A01AB09	27/06/2007
31209417	A01AB09	26/01/2006
31945139	A01AB09	02/04/2003
31958227	A01AB09	12/02/2007
31096804	A01AB09	11/05/2009
31883253	A01AB09	03/03/2003
32077011	A01AB09	06/06/2005
31783730	A01AB09	26/06/2009
31539125	A01AB09	26/05/2010
31890800	A01AB09	21/05/2007
32007468	A01AB09	05/06/2007
31265348	A01AB09	29/09/2008
32235282	A01AB09	28/08/2007
31439367	A01AB09	23/10/2007
31761549	A01AB09	06/04/2005
32203030	A01AB09	11/01/2008
31674303	A01AB09	28/06/2005
32127700	A01AB09	01/02/2010
31902166	A01AB09	28/03/2008
32274005	A01AB09	01/06/2010
31142306	A01AB09	03/06/2005
32256629	A01AB09	26/10/2007
31926445	A01AB09	30/06/2004
31136108	A01AB09	22/09/2003
31916575	A01AB09	07/12/2005
31387368	A01AB09	29/05/2007
31558334	A01AB09	30/09/2010
32215282	A01AB09	19/11/2010
32177239	A01AB09	18/12/2003
31368596	A01AB09	09/08/2007
31487862	A01AB09	22/03/2011
32243594	A01AB09	27/07/2005
31070305	A01AB09	11/10/2004
31759943	A01AB09	12/11/2007
31344355	A01AB09	10/05/2006
31476501	A01AB09	30/05/2007
31142678	A01AB09	06/03/2008
31665299	A01AB09	02/10/2009
32160969	A01AB09	26/06/2008
31540781	A01AB09	06/03/2007
31631182	A01AB09	30/08/2006
31919657	A01AB09	19/10/2010
31708534	A01AB09	15/04/2009
31373266	A01AB09	19/12/2008
31043582	A01AB09	14/05/2008
31293382	A01AB09	31/03/2009
31217504	A01AB09	05/11/2010
31165916	A01AB09	28/11/2007
32205678	A01AB09	21/02/2008
32158039	A01AB09	04/12/2006
31703712	A01AB09	08/03/2006
31889065	A01AB09	20/12/2002
