patient_id	covar_name	date
12694596	A02BC04	30/12/2009
5034818	A02BC04	03/09/2007
8582118	A02BC04	15/02/2005
12689003	A02BC04	24/05/2011
5812917	A02BC04	27/02/2006
9293874	A02BC04	04/04/2011
702188	A02BC04	12/05/2008
17175397	A02BC04	22/04/2009
8784206	A02BC04	20/10/2010
9328550	A02BC04	24/07/2009
15384882	A02BC04	09/12/2003
9984797	A02BC04	13/05/2011
9983468	A02BC04	03/10/2008
9310935	A02BC04	01/04/2011
9319630	A02BC04	01/06/2011
702001	A02BC04	21/06/2006
20557371	A02BC04	09/05/2011
3320517	A02BC04	19/10/2010
12857056	A02BC04	10/05/2011
12182300	A02BC04	22/12/2005
9231987	A02BC04	21/08/2003
7152290	A02BC04	11/11/2009
23442756	A02BC04	16/03/2007
8279843	A02BC04	02/12/2002
3333355	A02BC04	30/04/2010
21806664	A02BC04	19/02/2007
12174179	A02BC04	07/09/2007
7095604	A02BC04	05/05/2011
24930936	A02BC04	16/07/2008
12688862	A02BC04	19/01/2009
24763436	A02BC04	12/06/2007
12730840	A02BC04	27/01/2010
207716	A02BC04	21/10/2009
25043031	A02BC04	12/11/2004
12831650	A02BC04	03/07/2009
1303002	A02BC04	04/02/2011
8292672	A02BC04	20/05/2008
1069126	A02BC04	05/12/2006
16530712	A02BC04	19/01/2010
2768422	A02BC04	13/12/2005
12173508	A02BC04	06/08/2009
8786315	A02BC04	17/09/2008
12173020	A02BC04	23/01/2008
10858151	A02BC04	20/05/2011
10604210	A02BC04	01/06/2011
10605420	A02BC04	14/09/2007
9386723	A02BC04	11/01/2010
24764612	A02BC04	06/05/2011
12790379	A02BC04	26/07/2005
9214936	A02BC04	05/05/2011
9220825	A02BC04	26/11/2004
3322236	A02BC04	05/05/2011
25042976	A02BC04	22/12/2005
63636	A02BC04	09/11/2009
17172555	A02BC04	26/09/2007
7160942	A02BC04	05/04/2011
9302747	A02BC04	13/05/2011
16978344	A02BC04	13/12/2005
24730202	A02BC04	21/11/2005
5022239	A02BC04	08/06/2007
3121769	A02BC04	21/09/2009
7781621	A02BC04	17/07/2003
7967901	A02BC04	18/05/2011
10331626	A02BC04	17/03/2006
1420340	A02BC04	06/06/2001
7966632	A02BC04	11/04/2011
1850285	A02BC04	07/12/2004
5992233	A02BC04	11/01/2008
4700733	A02BC04	25/04/2011
539380	A02BC04	16/01/2008
6425049	A02BC04	08/11/2010
22585985	A02BC04	19/11/2009
641313	A02BC04	07/12/2010
7771619	A02BC04	11/02/2003
6841316	A02BC04	01/03/2011
7781275	A02BC04	01/06/2011
1208366	A02BC04	31/03/2011
1206456	A02BC04	15/09/2010
2934516	A02BC04	30/05/2011
6596858	A02BC04	30/05/2011
25248948	A02BC04	14/06/2007
4700304	A02BC04	17/07/2006
629517	A02BC04	24/11/2009
1133221	A02BC04	09/02/2005
1066049	A02BC04	21/05/2007
25914977	A02BC04	27/04/2011
25776939	A02BC04	01/08/2007
1579746	A02BC04	25/01/2011
25913321	A02BC04	27/05/2011
996909	A02BC04	05/04/2005
716180	A02BC04	10/11/2006
1065365	A02BC04	11/05/2011
996393	A02BC04	23/08/2010
1101985	A02BC04	02/04/2008
2068703	A02BC04	24/05/2011
2138308	A02BC04	02/10/2008
2070964	A02BC04	04/01/2007
2133507	A02BC04	09/05/2011
1682828	A02BC04	11/04/2006
903206	A02BC04	23/01/2004
902142	A02BC04	23/03/2004
874253	A02BC04	10/04/2008
3054353	A02BC04	23/11/2009
1765584	A02BC04	16/05/2003
902575	A02BC04	09/07/2004
3052217	A02BC04	30/10/2007
2779832	A02BC04	26/12/2006
3053021	A02BC04	25/05/2011
2812110	A02BC04	26/05/2011
2778364	A02BC04	08/01/2008
2811840	A02BC04	29/11/2006
2759074	A02BC04	29/03/2008
2773940	A02BC04	17/12/2010
2522213	A02BC04	27/03/2009
2522313	A02BC04	20/08/2010
2756861	A02BC04	29/12/2005
28063519	A02BC04	24/10/2007
28049312	A02BC04	24/05/2011
7137654	A02BC04	10/12/2008
17041460	A02BC04	17/08/2006
7229328	A02BC04	05/11/2010
17747103	A02BC04	25/05/2011
26190060	A02BC04	13/09/2006
18471159	A02BC04	03/05/2010
17041554	A02BC04	31/05/2011
26236453	A02BC04	12/04/2011
9594388	A02BC04	28/09/2005
7492715	A02BC04	27/05/2011
17323744	A02BC04	27/05/2009
16959538	A02BC04	20/02/2009
16836479	A02BC04	24/02/2005
421458	A02BC04	25/03/2003
434967	A02BC04	18/07/2007
307259	A02BC04	13/05/2011
185473	A02BC04	16/05/2011
28080570	A02BC04	01/06/2011
3053216	A02BC04	09/05/2011
3054239	A02BC04	28/02/2008
28091078	A02BC04	26/04/2011
26457855	A02BC04	21/05/2011
419562	A02BC04	29/05/2011
28062996	A02BC04	28/02/2011
28072561	A02BC04	09/10/2008
28051808	A02BC04	03/10/2008
28087444	A02BC04	14/02/2005
28071032	A02BC04	26/06/2002
28072154	A02BC04	09/05/2011
24658550	A02BC04	16/07/2010
24665519	A02BC04	21/10/2009
24666922	A02BC04	04/04/2011
25743054	A02BC04	09/03/2007
18190173	A02BC04	20/05/2011
1362871	A02BC04	15/09/2008
1372823	A02BC04	19/05/2011
1903682	A02BC04	16/11/2005
1014507	A02BC04	15/05/2006
18196270	A02BC04	26/05/2011
1372352	A02BC04	23/05/2003
422231	A02BC04	03/05/2011
19801995	A02BC04	05/05/2011
18194003	A02BC04	24/03/2011
18190082	A02BC04	15/04/2011
20070622	A02BC04	27/02/2008
21063510	A02BC04	06/05/2005
18189831	A02BC04	07/09/2006
19424222	A02BC04	23/05/2011
18197591	A02BC04	09/11/2001
21063093	A02BC04	30/09/2010
1904262	A02BC04	20/05/2011
2962153	A02BC04	26/08/2010
26626070	A02BC04	17/05/2011
26621036	A02BC04	26/05/2011
26830512	A02BC04	09/02/2006
26700714	A02BC04	03/05/2006
26835533	A02BC04	15/04/2011
22881967	A02BC04	03/01/2007
24579514	A02BC04	27/01/2006
12975544	A02BC04	21/05/2011
24579024	A02BC04	12/05/2009
24581856	A02BC04	10/12/2008
24579196	A02BC04	22/10/2004
26628248	A02BC04	04/12/2008
26640542	A02BC04	24/06/2009
26627915	A02BC04	05/05/2011
2989932	A02BC04	01/10/2008
3056308	A02BC04	18/04/2005
24654931	A02BC04	21/02/2003
21554328	A02BC04	23/06/2009
24579550	A02BC04	31/01/2005
24520378	A02BC04	21/10/2004
26933498	A02BC04	13/05/2011
26946237	A02BC04	27/05/2011
26950866	A02BC04	13/06/2005
26920797	A02BC04	29/12/2003
26933236	A02BC04	01/03/2011
26900257	A02BC04	01/06/2011
26703766	A02BC04	18/12/2009
26859048	A02BC04	05/07/2010
26850877	A02BC04	01/06/2011
26856371	A02BC04	18/08/2004
26847639	A02BC04	01/10/2004
26800376	A02BC04	07/02/2008
26792107	A02BC04	18/06/2007
26713672	A02BC04	22/11/2009
26962098	A02BC04	06/05/2011
26977641	A02BC04	17/10/2003
26972922	A02BC04	02/02/2010
26956977	A02BC04	09/02/2010
27110068	A02BC04	31/01/2005
27055690	A02BC04	26/12/2007
27062255	A02BC04	05/02/2011
27043267	A02BC04	19/07/2007
27074617	A02BC04	13/05/2011
27066800	A02BC04	10/02/2006
27210102	A02BC04	24/12/2007
27324677	A02BC04	29/05/2009
27365421	A02BC04	12/05/2010
27246351	A02BC04	30/05/2011
27528401	A02BC04	25/01/2006
27362717	A02BC04	11/07/2007
27368805	A02BC04	18/05/2011
27323992	A02BC04	14/03/2005
27361358	A02BC04	09/05/2011
27168973	A02BC04	28/12/2007
27370248	A02BC04	04/03/2008
27646258	A02BC04	17/06/2004
27607371	A02BC04	26/03/2004
27593063	A02BC04	27/01/2011
27660974	A02BC04	18/05/2005
27640371	A02BC04	17/12/2009
27623958	A02BC04	15/05/2009
27623848	A02BC04	11/05/2011
27643016	A02BC04	24/02/2010
27624082	A02BC04	10/05/2011
27476407	A02BC04	09/10/2006
27474475	A02BC04	09/06/2005
27470779	A02BC04	22/05/2007
27614610	A02BC04	21/11/2005
27631475	A02BC04	15/04/2010
27542965	A02BC04	10/09/2010
27567514	A02BC04	02/09/2010
27716087	A02BC04	03/06/2008
27151908	A02BC04	30/06/2004
27286583	A02BC04	10/03/2010
27132827	A02BC04	13/05/2011
24579212	A02BC04	18/09/2009
18187165	A02BC04	20/10/2005
27708348	A02BC04	10/11/2009
27252613	A02BC04	22/04/2005
27105042	A02BC04	09/03/2009
27571868	A02BC04	02/03/2005
27780235	A02BC04	05/04/2008
27533964	A02BC04	18/12/2009
27475185	A02BC04	24/05/2005
27540483	A02BC04	29/06/2005
27769906	A02BC04	10/05/2011
27684951	A02BC04	03/10/2003
27782453	A02BC04	22/01/2004
27779761	A02BC04	30/08/2004
27670792	A02BC04	23/02/2011
27062706	A02BC04	15/12/2008
27785751	A02BC04	06/05/2009
27355732	A02BC04	17/03/2008
26833867	A02BC04	07/05/2008
27531256	A02BC04	13/08/2004
27592553	A02BC04	16/05/2011
27589537	A02BC04	24/11/2006
27643404	A02BC04	10/06/2009
27644980	A02BC04	27/04/2009
27244108	A02BC04	18/05/2011
27251679	A02BC04	24/02/2011
1912943	A02BC04	30/07/2001
27764988	A02BC04	21/03/2011
27804595	A02BC04	16/03/2011
428085	A02BC04	27/08/2009
27761209	A02BC04	19/04/2011
27067043	A02BC04	07/05/2008
26804406	A02BC04	10/05/2010
27539994	A02BC04	12/05/2011
27769702	A02BC04	23/02/2005
27806518	A02BC04	26/01/2011
33078333	A02BC04	15/03/2011
33129627	A02BC04	21/12/2009
33031759	A02BC04	17/05/2011
33128799	A02BC04	31/05/2011
33041016	A02BC04	23/05/2011
33077958	A02BC04	16/11/2010
33062908	A02BC04	15/05/2006
33050061	A02BC04	04/07/2006
33067601	A02BC04	08/10/2008
33045066	A02BC04	01/06/2010
33069210	A02BC04	20/05/2005
33036483	A02BC04	17/05/2005
33099318	A02BC04	23/03/2009
33105763	A02BC04	23/04/2008
33004158	A02BC04	06/10/2008
33103502	A02BC04	29/11/2007
33079795	A02BC04	25/02/2009
33112822	A02BC04	03/08/2010
33043614	A02BC04	14/05/2007
33123693	A02BC04	26/05/2008
33038806	A02BC04	21/11/2008
33071618	A02BC04	14/12/2004
33012294	A02BC04	10/05/2011
33056194	A02BC04	12/01/2010
27720541	A02BC04	21/01/2010
33043382	A02BC04	09/05/2011
184941	A02BC04	29/04/2004
27805215	A02BC04	04/07/2003
1905033	A02BC04	11/02/2011
33234657	A02BC04	20/07/2010
16633713	A02BC04	23/06/2009
24463719	A02BC04	09/03/2011
33105641	A02BC04	29/12/2010
33026712	A02BC04	12/05/2011
33104781	A02BC04	12/04/2011
33021411	A02BC04	30/06/2010
33101101	A02BC04	27/08/2010
33049405	A02BC04	12/09/2007
33063789	A02BC04	03/02/2011
33020653	A02BC04	10/03/2009
33087055	A02BC04	21/11/2007
33028356	A02BC04	27/11/2007
33029780	A02BC04	20/05/2011
33058122	A02BC04	05/05/2005
16625249	A02BC04	10/10/2008
28019450	A02BC04	20/01/2009
23407899	A02BC04	01/06/2006
33200115	A02BC04	04/05/2011
33264985	A02BC04	10/09/2010
33229508	A02BC04	03/02/2011
33315653	A02BC04	13/04/2010
27914198	A02BC04	06/04/2011
33207607	A02BC04	28/04/2011
16596009	A02BC04	19/08/2010
33224217	A02BC04	08/10/2010
33291035	A02BC04	10/05/2011
16640222	A02BC04	22/02/2006
28022851	A02BC04	18/10/2009
33315483	A02BC04	03/08/2010
16707874	A02BC04	01/06/2011
27848149	A02BC04	30/05/2003
18755678	A02BC04	08/03/2007
23329499	A02BC04	09/05/2011
16612949	A02BC04	03/05/2010
33244163	A02BC04	10/11/2009
33221017	A02BC04	04/09/2007
16625425	A02BC04	11/08/2010
21102189	A02BC04	19/05/2011
23346675	A02BC04	28/02/2006
23371267	A02BC04	21/01/2008
16684728	A02BC04	16/05/2011
21117276	A02BC04	09/05/2011
16684643	A02BC04	11/04/2011
18764607	A02BC04	08/01/2010
33313637	A02BC04	19/05/2009
28022506	A02BC04	09/05/2011
23410797	A02BC04	19/05/2011
16124869	A02BC04	06/06/2003
16607708	A02BC04	08/04/2008
23350072	A02BC04	10/05/2011
20982124	A02BC04	25/04/2011
33201152	A02BC04	21/05/2010
31180343	A02BC04	05/11/2008
20989039	A02BC04	21/03/2011
16630904	A02BC04	08/04/2011
23350021	A02BC04	27/08/2010
16616766	A02BC04	06/03/2011
27983007	A02BC04	07/03/2008
21116848	A02BC04	13/05/2010
18761883	A02BC04	26/08/2003
20981775	A02BC04	31/05/2011
20984891	A02BC04	12/04/2011
23350638	A02BC04	27/04/2011
16712077	A02BC04	27/04/2011
31117829	A02BC04	14/04/2011
32092961	A02BC04	17/10/2007
31357015	A02BC04	05/09/2007
31604165	A02BC04	21/03/2011
31767728	A02BC04	05/07/2005
31032015	A02BC04	30/12/2009
31373457	A02BC04	11/11/2010
31345157	A02BC04	10/09/2008
32224890	A02BC04	28/10/2010
32144155	A02BC04	16/05/2002
31346765	A02BC04	05/08/2003
31267473	A02BC04	02/11/2009
31444611	A02BC04	23/04/2007
31679755	A02BC04	28/05/2009
31995509	A02BC04	11/01/2005
31846449	A02BC04	06/10/2006
31425212	A02BC04	27/10/2009
31851354	A02BC04	17/06/2003
31787423	A02BC04	29/04/2009
31844189	A02BC04	16/12/2003
32026658	A02BC04	24/05/2005
32275456	A02BC04	12/12/2008
31112167	A02BC04	29/10/2008
31416932	A02BC04	26/04/2007
31365988	A02BC04	14/12/2006
31366961	A02BC04	26/03/2003
31651195	A02BC04	05/11/2008
31328924	A02BC04	11/01/2011
31284291	A02BC04	04/04/2006
31187591	A02BC04	15/12/2010
32192909	A02BC04	24/09/2007
31704498	A02BC04	08/09/2005
31697928	A02BC04	10/05/2006
31229262	A02BC04	09/09/2010
31848831	A02BC04	19/08/2009
31259396	A02BC04	01/07/2009
31090081	A02BC04	04/11/2009
31814987	A02BC04	08/09/2009
31665027	A02BC04	30/10/2007
31923655	A02BC04	13/10/2005
31241434	A02BC04	26/04/2010
31136895	A02BC04	06/09/2005
32260330	A02BC04	06/08/2004
32106380	A02BC04	18/12/2009
31832522	A02BC04	27/12/2007
31741824	A02BC04	31/01/2008
31804458	A02BC04	10/10/2007
31673640	A02BC04	14/05/2004
31521974	A02BC04	19/05/2005
32180475	A02BC04	14/06/2006
32255723	A02BC04	06/11/2008
31725652	A02BC04	21/03/2011
31523044	A02BC04	26/02/2007
31778667	A02BC04	03/12/2009
31366968	A02BC04	13/11/2009
31429137	A02BC04	28/11/2005
31194277	A02BC04	03/10/2008
31820931	A02BC04	01/07/2003
32159787	A02BC04	28/12/2006
31645484	A02BC04	15/11/2010
32121375	A02BC04	31/10/2005
32200321	A02BC04	09/03/2011
31571437	A02BC04	24/12/2010
32209303	A02BC04	23/04/2010
32125428	A02BC04	04/05/2009
32112633	A02BC04	02/01/2009
31241823	A02BC04	24/05/2005
31346856	A02BC04	07/02/2011
31490483	A02BC04	23/05/2005
32019592	A02BC04	31/03/2005
32122282	A02BC04	13/11/2006
32224769	A02BC04	25/10/2005
32250443	A02BC04	03/12/2002
31198415	A02BC04	26/05/2004
32193941	A02BC04	21/12/2004
31245381	A02BC04	02/06/2005
31745661	A02BC04	31/10/2007
32108447	A02BC04	04/04/2007
31485364	A02BC04	29/01/2010
31283871	A02BC04	27/10/2010
31970294	A02BC04	29/11/2002
31265348	A02BC04	16/11/2009
32254966	A02BC04	11/11/2009
31795710	A02BC04	09/04/2007
32245866	A02BC04	01/09/2009
31400190	A02BC04	02/07/2007
31176011	A02BC04	23/11/2009
32211928	A02BC04	21/01/2011
32280267	A02BC04	28/10/2010
31552724	A02BC04	24/04/2007
31378501	A02BC04	25/11/2009
32144834	A02BC04	25/10/2010
31883298	A02BC04	29/05/2008
32189217	A02BC04	08/08/2005
31739114	A02BC04	17/09/2010
32118990	A02BC04	01/12/2009
31444827	A02BC04	14/05/2008
32274005	A02BC04	06/08/2008
32059744	A02BC04	15/10/2010
31567111	A02BC04	27/12/2007
32075764	A02BC04	11/09/2003
31456176	A02BC04	22/02/2007
31609842	A02BC04	23/09/2008
31505976	A02BC04	28/02/2006
31150601	A02BC04	28/10/2002
31918858	A02BC04	13/12/2007
31937215	A02BC04	30/04/2008
32167646	A02BC04	14/11/2002
32263832	A02BC04	12/12/2006
31361602	A02BC04	19/01/2009
32148343	A02BC04	17/12/2008
32008833	A02BC04	02/01/2007
31576739	A02BC04	05/04/2004
31506905	A02BC04	14/04/2011
32262590	A02BC04	20/04/2009
31640661	A02BC04	19/06/2007
32281524	A02BC04	09/02/2011
31472284	A02BC04	26/02/2004
31206444	A02BC04	10/03/2005
31177288	A02BC04	14/02/2011
31126735	A02BC04	30/08/2006
32266454	A02BC04	28/10/2010
31837479	A02BC04	01/03/2011
31291105	A02BC04	03/05/2001
32183049	A02BC04	12/08/2005
31276556	A02BC04	12/11/2010
32127720	A02BC04	18/06/2007
31359071	A02BC04	02/10/2007
31850117	A02BC04	20/05/2004
