patient_id	covar_name	date
6177297	A10BD08	28/04/2011
8558909	A10BD08	16/05/2011
8277775	A10BD08	25/05/2011
1162337	A10BD08	16/05/2011
19184518	A10BD08	01/02/2011
9214840	A10BD08	20/04/2011
1068416	A10BD08	13/04/2011
9388407	A10BD08	27/04/2011
9249839	A10BD08	16/05/2011
5991103	A10BD08	01/06/2011
6594944	A10BD08	24/05/2011
540330	A10BD08	16/06/2010
539531	A10BD08	14/04/2011
7776144	A10BD08	30/05/2011
6593460	A10BD08	27/05/2011
25768791	A10BD08	14/06/2010
1581159	A10BD08	10/06/2010
25891334	A10BD08	31/05/2011
25915017	A10BD08	14/05/2011
25750805	A10BD08	08/02/2010
6513850	A10BD08	03/06/2010
1648154	A10BD08	01/06/2011
890246	A10BD08	26/05/2011
25860190	A10BD08	14/10/2010
1581260	A10BD08	30/09/2010
1558068	A10BD08	24/05/2011
2059211	A10BD08	12/03/2010
1755172	A10BD08	27/04/2011
2142967	A10BD08	29/04/2011
905655	A10BD08	12/05/2011
7047183	A10BD08	18/11/2009
3052992	A10BD08	07/05/2011
2407328	A10BD08	17/05/2011
26478550	A10BD08	11/05/2011
26456181	A10BD08	24/02/2010
26478282	A10BD08	10/05/2011
26336640	A10BD08	28/02/2011
18471453	A10BD08	09/05/2011
1754702	A10BD08	13/05/2011
186579	A10BD08	29/05/2011
187189	A10BD08	01/06/2011
304297	A10BD08	16/05/2011
186409	A10BD08	04/05/2011
28064907	A10BD08	16/11/2010
28052032	A10BD08	05/05/2011
26505114	A10BD08	27/04/2011
28071034	A10BD08	20/05/2011
28057599	A10BD08	01/06/2011
24658550	A10BD08	15/11/2010
25743607	A10BD08	26/10/2010
25743054	A10BD08	13/10/2008
24578320	A10BD08	05/05/2009
26776065	A10BD08	13/02/2011
27072138	A10BD08	08/05/2011
26974551	A10BD08	13/05/2011
27086147	A10BD08	02/05/2011
27067103	A10BD08	29/05/2011
27075029	A10BD08	23/03/2011
27063095	A10BD08	18/05/2011
27041065	A10BD08	08/02/2011
27379761	A10BD08	26/04/2011
27317311	A10BD08	14/05/2011
27596914	A10BD08	06/05/2011
27647784	A10BD08	18/02/2011
27719042	A10BD08	16/02/2009
27684000	A10BD08	16/05/2011
27597656	A10BD08	31/05/2011
27648180	A10BD08	07/04/2011
27648259	A10BD08	18/02/2011
27529159	A10BD08	06/05/2011
27647973	A10BD08	07/05/2011
27709451	A10BD08	19/04/2011
27716815	A10BD08	30/05/2011
33040260	A10BD08	07/04/2011
33000627	A10BD08	11/05/2011
33061411	A10BD08	17/01/2011
33032891	A10BD08	15/05/2011
33093896	A10BD08	12/04/2011
33045539	A10BD08	13/05/2011
33087600	A10BD08	07/05/2011
33104669	A10BD08	11/05/2011
33060211	A10BD08	27/05/2011
185054	A10BD08	22/05/2011
33091669	A10BD08	17/05/2011
16135277	A10BD08	19/05/2011
33314394	A10BD08	20/04/2011
16135633	A10BD08	22/06/2010
33005415	A10BD08	30/05/2011
33081131	A10BD08	08/07/2010
33027073	A10BD08	07/05/2011
27985124	A10BD08	02/09/2009
23328512	A10BD08	18/05/2011
20965244	A10BD08	05/01/2010
21011548	A10BD08	30/05/2011
27915568	A10BD08	05/05/2011
28029066	A10BD08	02/07/2010
16637664	A10BD08	28/04/2010
28014401	A10BD08	24/05/2011
23381223	A10BD08	24/05/2011
21114699	A10BD08	23/03/2011
33245160	A10BD08	13/05/2011
31637638	A10BD08	08/10/2010
32233119	A10BD08	31/01/2011
32057338	A10BD08	02/03/2011
31066431	A10BD08	02/02/2011
31289640	A10BD08	11/02/2011
32052348	A10BD08	10/12/2010
31142772	A10BD08	10/12/2008
31811086	A10BD08	30/04/2010
31245074	A10BD08	13/07/2010
31165913	A10BD08	06/04/2011
31061037	A10BD08	07/05/2009
31048154	A10BD08	03/12/2010
31527098	A10BD08	10/03/2011
31659095	A10BD08	13/10/2010
31936735	A10BD08	21/01/2011
31921033	A10BD08	25/11/2010
31250490	A10BD08	20/02/2011
31733585	A10BD08	13/02/2011
32008833	A10BD08	15/07/2010
31576739	A10BD08	19/01/2011
31854529	A10BD08	25/08/2010
32154430	A10BD08	25/08/2009
31853621	A10BD08	04/02/2010
