patient_id	covar_name	date
7963931	B01AA03	09/02/2011
7771521	B01AA03	10/05/2011
6425493	B01AA03	30/04/2011
7771093	B01AA03	10/05/2011
15623737	B01AA03	28/04/2011
7801913	B01AA03	04/05/2011
7801714	B01AA03	05/05/2011
27539683	B01AA03	21/05/2011
27314117	B01AA03	24/04/2011
26776955	B01AA03	19/05/2011
33125136	B01AA03	04/04/2011
33200115	B01AA03	04/05/2011
