patient_id	covar_name	date
24730236	B01AB12	31/05/2011
9372492	B01AB12	22/01/2008
12780476	B01AB12	26/03/2007
8977102	B01AB12	03/05/2010
12774533	B01AB12	29/12/2006
3331774	B01AB12	04/10/2010
9339121	B01AB12	22/10/2007
10392185	B01AB12	13/10/2010
6887463	B01AB12	21/02/2011
3332699	B01AB12	09/08/2007
6748448	B01AB12	09/09/2009
3117152	B01AB12	18/03/2011
949778	B01AB12	10/08/2006
612920	B01AB12	01/03/2005
9323502	B01AB12	24/10/2002
5813349	B01AB12	07/12/2010
8278287	B01AB12	18/01/2010
16109831	B01AB12	23/11/2010
20568992	B01AB12	06/10/2010
8786640	B01AB12	27/05/2009
13223810	B01AB12	14/06/2007
10713520	B01AB12	30/07/2008
9371920	B01AB12	16/04/2009
1063483	B01AB12	20/10/2009
9300058	B01AB12	11/04/2011
21871509	B01AB12	14/05/2009
9376383	B01AB12	18/02/2008
24951792	B01AB12	04/08/2005
24937833	B01AB12	23/01/2006
9293811	B01AB12	29/08/2008
3322203	B01AB12	30/12/2010
9231987	B01AB12	09/05/2011
3303579	B01AB12	31/10/2008
24939056	B01AB12	30/10/2008
3126312	B01AB12	14/12/2004
12696324	B01AB12	28/01/2011
25071403	B01AB12	31/01/2007
9382870	B01AB12	31/08/2005
8570510	B01AB12	29/05/2007
9388668	B01AB12	11/10/2006
8557367	B01AB12	05/06/2009
704267	B01AB12	10/10/2003
3328652	B01AB12	21/08/2008
5024484	B01AB12	13/08/2010
10331385	B01AB12	17/11/2008
947533	B01AB12	26/05/2004
8976663	B01AB12	31/03/2010
9293857	B01AB12	21/01/2011
12789665	B01AB12	01/12/2003
6416022	B01AB12	20/04/2010
9375496	B01AB12	02/06/2008
6749295	B01AB12	02/06/2008
7094856	B01AB12	14/04/2011
10394089	B01AB12	09/05/2007
9378605	B01AB12	30/01/2006
16483871	B01AB12	01/04/2009
2768422	B01AB12	28/07/2008
6758769	B01AB12	13/11/2009
12691979	B01AB12	05/02/2007
8557616	B01AB12	26/05/2006
12780138	B01AB12	17/04/2009
7350206	B01AB12	05/08/2005
9377350	B01AB12	06/02/2006
11993515	B01AB12	03/04/2008
3323277	B01AB12	02/10/2007
24938567	B01AB12	16/03/2009
9214936	B01AB12	21/02/2011
6757758	B01AB12	07/01/2004
19717982	B01AB12	07/12/2007
11661691	B01AB12	01/09/2008
16530087	B01AB12	22/02/2007
7160942	B01AB12	17/02/2006
174475	B01AB12	18/12/2009
10267886	B01AB12	29/03/2010
9309579	B01AB12	11/11/2009
209206	B01AB12	06/04/2009
8784295	B01AB12	23/01/2006
24730202	B01AB12	27/01/2010
9384479	B01AB12	07/06/2005
17618962	B01AB12	17/03/2010
1516973	B01AB12	14/09/2009
1171088	B01AB12	18/08/2008
7770511	B01AB12	03/05/2007
603794	B01AB12	29/05/2008
1354046	B01AB12	21/01/2008
524925	B01AB12	03/03/2008
1171579	B01AB12	23/06/2003
1352974	B01AB12	29/04/2009
1443335	B01AB12	30/05/2007
1172020	B01AB12	02/12/2010
4700332	B01AB12	04/06/2007
26145071	B01AB12	10/10/2006
15698726	B01AB12	16/12/2009
24718852	B01AB12	15/05/2009
7231434	B01AB12	29/12/2009
1201480	B01AB12	08/01/2009
1445904	B01AB12	21/02/2005
1200082	B01AB12	18/03/2008
15868256	B01AB12	18/04/2007
1206194	B01AB12	26/01/2009
525724	B01AB12	29/06/2006
1547420	B01AB12	14/04/2008
1356524	B01AB12	18/09/2007
1419936	B01AB12	25/08/2009
7966545	B01AB12	22/01/2009
13985993	B01AB12	03/06/2009
1350929	B01AB12	19/07/2007
7076246	B01AB12	18/06/2010
1446069	B01AB12	05/11/2008
6597726	B01AB12	25/06/2008
7966509	B01AB12	04/09/2008
8955240	B01AB12	30/05/2008
6598268	B01AB12	07/05/2008
8955985	B01AB12	20/03/2006
6425452	B01AB12	26/10/2009
1276566	B01AB12	16/04/2010
18365866	B01AB12	07/10/2008
13264943	B01AB12	03/03/2009
8956746	B01AB12	02/07/2010
1211624	B01AB12	28/01/2003
1417328	B01AB12	24/11/2009
1425106	B01AB12	03/02/2010
7967921	B01AB12	05/04/2010
6951044	B01AB12	11/06/2008
1132264	B01AB12	19/11/2004
1425870	B01AB12	22/12/2008
10556455	B01AB12	04/08/2010
1206141	B01AB12	19/10/2010
1647348	B01AB12	26/02/2010
1638747	B01AB12	28/06/2010
4678867	B01AB12	03/11/2008
25768791	B01AB12	31/01/2003
1132237	B01AB12	13/05/2009
6950930	B01AB12	31/03/2008
1578839	B01AB12	22/02/2007
1558166	B01AB12	26/09/2006
486077	B01AB12	16/12/2009
889933	B01AB12	29/10/2010
25886823	B01AB12	19/02/2010
2068498	B01AB12	31/03/2010
2133068	B01AB12	01/07/2009
2217081	B01AB12	17/12/2003
4679012	B01AB12	18/01/2008
2139488	B01AB12	14/02/2011
2140686	B01AB12	30/11/2010
2139418	B01AB12	17/12/2004
2215430	B01AB12	03/03/2008
873706	B01AB12	07/10/2005
2140245	B01AB12	10/06/2008
1765141	B01AB12	27/03/2008
1682671	B01AB12	27/04/2009
1765422	B01AB12	09/12/2009
7038094	B01AB12	04/09/2009
2780142	B01AB12	13/04/2010
6434327	B01AB12	31/05/2011
3049761	B01AB12	15/07/2010
2525787	B01AB12	16/09/2010
2524518	B01AB12	17/05/2005
2763382	B01AB12	13/07/2009
2526016	B01AB12	18/03/2010
2713954	B01AB12	09/03/2011
28041571	B01AB12	25/06/2010
26582425	B01AB12	18/06/2009
28063099	B01AB12	03/04/2002
23678237	B01AB12	16/06/2009
7229461	B01AB12	02/04/2009
7036365	B01AB12	09/09/2008
26263281	B01AB12	23/09/2008
7035130	B01AB12	23/02/2010
17041145	B01AB12	16/06/2009
26462082	B01AB12	22/12/2006
24847695	B01AB12	12/05/2006
28042210	B01AB12	11/04/2011
20146995	B01AB12	16/10/2009
26235974	B01AB12	08/03/2010
26478954	B01AB12	31/07/2009
17741843	B01AB12	13/04/2011
17040834	B01AB12	09/11/2004
13003749	B01AB12	17/10/2008
424570	B01AB12	07/11/2005
876393	B01AB12	07/01/2009
18223471	B01AB12	10/08/2007
28079828	B01AB12	21/12/2004
2773937	B01AB12	13/11/2009
17741586	B01AB12	28/04/2008
28064907	B01AB12	14/04/2009
28055135	B01AB12	20/01/2010
28052365	B01AB12	06/06/2008
28065837	B01AB12	21/09/2004
26478180	B01AB12	06/03/2007
28041657	B01AB12	29/04/2008
28072320	B01AB12	31/07/2008
28072331	B01AB12	17/02/2006
28056661	B01AB12	08/04/2009
24658659	B01AB12	26/01/2007
25738696	B01AB12	18/05/2005
25636658	B01AB12	27/01/2011
18190199	B01AB12	09/03/2010
1372352	B01AB12	09/05/2003
1367186	B01AB12	27/12/2010
1903111	B01AB12	08/10/2009
1989405	B01AB12	15/03/2010
26793408	B01AB12	25/06/2008
26700714	B01AB12	28/11/2008
26630996	B01AB12	28/06/2006
26624474	B01AB12	27/09/2007
26858878	B01AB12	06/03/2009
24579024	B01AB12	01/09/2006
26617524	B01AB12	07/11/2008
26701119	B01AB12	02/02/2011
16843475	B01AB12	15/07/2007
21651489	B01AB12	10/02/2006
23484979	B01AB12	07/03/2007
24656409	B01AB12	22/11/2005
21651855	B01AB12	15/09/2009
26916180	B01AB12	26/05/2011
26890470	B01AB12	20/11/2009
26729787	B01AB12	18/11/2010
26877242	B01AB12	07/04/2010
26847234	B01AB12	29/10/2007
26824339	B01AB12	28/05/2010
26789113	B01AB12	20/03/2009
26999393	B01AB12	09/05/2011
27114154	B01AB12	25/10/2010
27106469	B01AB12	11/03/2011
27153004	B01AB12	07/05/2008
27064483	B01AB12	03/07/2006
27061238	B01AB12	13/11/2009
27027925	B01AB12	31/05/2010
27146985	B01AB12	25/05/2009
27163611	B01AB12	24/11/2006
27313906	B01AB12	11/08/2010
27214263	B01AB12	13/11/2008
27319914	B01AB12	27/04/2011
27315277	B01AB12	30/05/2011
27215554	B01AB12	26/03/2007
27361885	B01AB12	23/12/2009
27361071	B01AB12	17/05/2011
27641565	B01AB12	10/12/2008
27568261	B01AB12	15/10/2009
27764873	B01AB12	11/11/2009
27567514	B01AB12	29/03/2005
27153595	B01AB12	03/01/2005
26899689	B01AB12	09/02/2009
20070922	B01AB12	28/01/2009
27684839	B01AB12	24/04/2003
27443061	B01AB12	24/02/2010
27457585	B01AB12	27/02/2009
27781303	B01AB12	01/07/2004
27574050	B01AB12	25/04/2007
27477049	B01AB12	05/11/2007
27477146	B01AB12	05/03/2009
27805384	B01AB12	10/06/2009
27793920	B01AB12	08/10/2008
27665005	B01AB12	27/05/2011
27452134	B01AB12	28/05/2009
27419357	B01AB12	26/04/2010
27799208	B01AB12	14/12/2009
33052204	B01AB12	26/06/2003
33022764	B01AB12	12/06/2009
33108593	B01AB12	29/11/2006
33001039	B01AB12	03/07/2006
33088577	B01AB12	24/07/2008
33110326	B01AB12	27/04/2009
33066807	B01AB12	07/12/2010
33116452	B01AB12	12/05/2008
33110034	B01AB12	03/11/2006
33111429	B01AB12	26/02/2004
33111481	B01AB12	17/09/2010
33006134	B01AB12	27/02/2008
33003806	B01AB12	03/06/2005
33043614	B01AB12	26/08/2008
33107313	B01AB12	14/05/2010
33056441	B01AB12	03/04/2007
33050206	B01AB12	09/03/2009
33056194	B01AB12	17/02/2005
33032821	B01AB12	07/07/2009
26636182	B01AB12	25/02/2008
27811936	B01AB12	19/02/2010
26879208	B01AB12	31/07/2003
33124177	B01AB12	20/05/2008
28021155	B01AB12	26/03/2010
33083231	B01AB12	22/03/2007
16633713	B01AB12	31/10/2007
33108000	B01AB12	24/01/2008
33033729	B01AB12	09/11/2004
33037440	B01AB12	23/10/2009
33065950	B01AB12	12/04/2005
33002563	B01AB12	29/04/2011
33026483	B01AB12	12/08/2009
33096009	B01AB12	04/07/2007
33046881	B01AB12	17/08/2009
33073628	B01AB12	06/10/2009
33028356	B01AB12	29/01/2008
33073480	B01AB12	17/11/2010
33037060	B01AB12	03/01/2008
33039051	B01AB12	07/04/2009
33058347	B01AB12	09/11/2004
33027073	B01AB12	11/03/2008
33058122	B01AB12	10/08/2004
33096688	B01AB12	29/09/2005
33204026	B01AB12	06/11/2008
27848563	B01AB12	02/02/2011
16625697	B01AB12	20/06/2007
16636482	B01AB12	18/03/2010
16610720	B01AB12	13/01/2011
16133325	B01AB12	11/05/2010
16607145	B01AB12	19/01/2011
14188303	B01AB12	11/07/2008
33203750	B01AB12	15/01/2009
18765623	B01AB12	30/10/2007
23328066	B01AB12	04/05/2009
23401641	B01AB12	04/06/2008
23326929	B01AB12	25/09/2009
20985532	B01AB12	18/02/2010
23382269	B01AB12	01/10/2008
33235211	B01AB12	13/04/2010
23381566	B01AB12	28/10/2004
33264852	B01AB12	29/11/2007
16607817	B01AB12	11/12/2009
16705838	B01AB12	22/05/2008
16622928	B01AB12	13/04/2010
23347482	B01AB12	27/02/2008
16636987	B01AB12	19/02/2008
23362487	B01AB12	07/12/2007
27848565	B01AB12	11/08/2010
21108790	B01AB12	25/01/2010
33293205	B01AB12	25/11/2003
20987102	B01AB12	31/01/2011
27880957	B01AB12	30/05/2011
23353743	B01AB12	26/05/2008
23412180	B01AB12	19/07/2005
23354017	B01AB12	01/09/2010
16181240	B01AB12	19/07/2005
16621754	B01AB12	04/08/2005
31572048	B01AB12	28/09/2009
31638051	B01AB12	25/09/2008
32224519	B01AB12	17/05/2007
31320901	B01AB12	25/11/2008
32026691	B01AB12	11/07/2008
31993978	B01AB12	20/04/2007
31527063	B01AB12	08/01/2010
32194190	B01AB12	22/09/2005
31565973	B01AB12	06/04/2011
31393374	B01AB12	23/07/2009
31593463	B01AB12	20/01/2011
31767891	B01AB12	01/09/2006
31204996	B01AB12	24/07/2009
31420742	B01AB12	17/03/2006
31438930	B01AB12	20/11/2008
32019089	B01AB12	02/02/2006
31740558	B01AB12	13/02/2008
31542289	B01AB12	06/11/2009
31487305	B01AB12	05/05/2010
31561242	B01AB12	21/12/2010
31839581	B01AB12	21/06/2004
31757495	B01AB12	11/07/2008
31179758	B01AB12	23/09/2005
32221171	B01AB12	07/10/2009
31077319	B01AB12	20/10/2009
31573434	B01AB12	10/07/2007
32180261	B01AB12	13/10/2004
31794351	B01AB12	28/12/2006
31485859	B01AB12	28/08/2006
31488584	B01AB12	09/12/2009
32192753	B01AB12	03/11/2008
31370288	B01AB12	19/04/2010
31049207	B01AB12	09/05/2008
31196021	B01AB12	30/11/2009
31297161	B01AB12	05/05/2009
31236940	B01AB12	12/04/2005
31826417	B01AB12	03/11/2010
31538580	B01AB12	05/07/2010
31518942	B01AB12	01/10/2004
32003001	B01AB12	02/12/2005
31644593	B01AB12	18/03/2004
31636298	B01AB12	25/11/2008
31423636	B01AB12	06/08/2008
31906734	B01AB12	28/04/2009
31878001	B01AB12	28/06/2010
32104853	B01AB12	20/04/2009
31830918	B01AB12	04/07/2003
31646804	B01AB12	02/10/2007
31447535	B01AB12	15/05/2007
32076252	B01AB12	22/10/2008
31956999	B01AB12	19/07/2004
32084821	B01AB12	07/01/2011
31847585	B01AB12	14/04/2008
31076697	B01AB12	12/07/2005
31536413	B01AB12	11/08/2008
31847576	B01AB12	17/05/2007
31127513	B01AB12	27/07/2009
31213457	B01AB12	05/03/2008
31984945	B01AB12	20/05/2011
31664100	B01AB12	10/11/2003
31676103	B01AB12	05/11/2004
31386275	B01AB12	31/10/2008
31725001	B01AB12	23/09/2008
31523575	B01AB12	20/05/2005
31980687	B01AB12	04/12/2009
31750115	B01AB12	20/05/2009
31785047	B01AB12	02/03/2009
31184316	B01AB12	06/02/2004
31177793	B01AB12	29/07/2010
31072055	B01AB12	07/10/2009
31950527	B01AB12	25/11/2009
31945027	B01AB12	07/06/2010
31417608	B01AB12	05/05/2010
31285557	B01AB12	10/06/2010
31577402	B01AB12	09/05/2008
31168702	B01AB12	13/07/2010
31241823	B01AB12	24/05/2005
31078458	B01AB12	10/06/2003
31596789	B01AB12	13/07/2006
31518038	B01AB12	21/02/2007
31460995	B01AB12	26/10/2010
32280545	B01AB12	23/05/2008
31856647	B01AB12	28/07/2006
31659118	B01AB12	13/11/2008
31207063	B01AB12	18/09/2008
32178050	B01AB12	14/12/2009
31698558	B01AB12	14/08/2008
31983220	B01AB12	19/03/2007
31339822	B01AB12	25/09/2008
31981387	B01AB12	04/12/2009
32063339	B01AB12	04/07/2008
31067422	B01AB12	09/12/2004
31194218	B01AB12	22/03/2011
32092830	B01AB12	08/04/2010
31306935	B01AB12	02/11/2006
31720979	B01AB12	14/03/2007
31256796	B01AB12	21/10/2010
31569010	B01AB12	20/04/2009
31489393	B01AB12	27/03/2008
31207010	B01AB12	10/11/2008
31427055	B01AB12	13/11/2007
31672938	B01AB12	25/05/2004
32169372	B01AB12	08/03/2007
31975991	B01AB12	21/01/2008
31359021	B01AB12	15/12/2008
32032305	B01AB12	23/12/2003
31218236	B01AB12	12/04/2007
31349160	B01AB12	08/10/2003
31474672	B01AB12	07/03/2005
32019169	B01AB12	21/06/2006
31780018	B01AB12	22/06/2006
31742288	B01AB12	30/07/2007
31095601	B01AB12	08/06/2006
31191214	B01AB12	30/05/2005
31174601	B01AB12	29/11/2007
31456176	B01AB12	12/11/2007
31213814	B01AB12	05/03/2008
31315620	B01AB12	18/12/2007
32141437	B01AB12	04/05/2010
31396977	B01AB12	12/02/2010
31457699	B01AB12	11/01/2008
31848757	B01AB12	17/09/2007
31861448	B01AB12	13/08/2009
31248026	B01AB12	17/06/2003
31344355	B01AB12	20/11/2009
32148343	B01AB12	04/04/2006
32221527	B01AB12	01/04/2004
31699160	B01AB12	06/03/2007
31626804	B01AB12	11/04/2007
31150444	B01AB12	12/09/2007
31997385	B01AB12	16/02/2011
31177288	B01AB12	26/11/2008
31158374	B01AB12	22/04/2004
32062791	B01AB12	10/03/2008
31267955	B01AB12	08/10/2004
31907428	B01AB12	28/07/2005
31449858	B01AB12	20/06/2008
31470956	B01AB12	23/09/2004
32143088	B01AB12	01/02/2006
31152637	B01AB12	31/10/2007
31768014	B01AB12	11/05/2006
32255967	B01AB12	30/03/2009
31063338	B01AB12	19/05/2010
31352416	B01AB12	30/11/2006
31066043	B01AB12	06/11/2009
