patient_id	covar_name	date
14865414	C09AA01	04/02/2010
23875772	C09AA01	11/05/2007
16109980	C09AA01	09/05/2011
8292476	C09AA01	12/08/2010
6747933	C09AA01	02/12/2002
8652217	C09AA01	24/07/2008
9340914	C09AA01	01/04/2011
739474	C09AA01	07/12/2009
5869620	C09AA01	20/04/2006
3939492	C09AA01	23/06/2003
15900439	C09AA01	09/02/2005
9328550	C09AA01	03/11/2010
10004067	C09AA01	30/12/2002
10394066	C09AA01	10/05/2010
3119947	C09AA01	15/01/2010
15900660	C09AA01	23/05/2011
3503054	C09AA01	13/04/2010
8785722	C09AA01	01/06/2011
6760798	C09AA01	12/01/2004
7353267	C09AA01	22/09/2006
3289024	C09AA01	18/12/2007
9376813	C09AA01	29/04/2011
7245493	C09AA01	07/06/2010
25060140	C09AA01	08/11/2006
16558782	C09AA01	26/05/2011
12174283	C09AA01	08/02/2006
8277775	C09AA01	11/04/2007
9210152	C09AA01	11/11/2009
5031499	C09AA01	20/05/2011
5867995	C09AA01	23/12/2005
8786041	C09AA01	27/05/2011
15914106	C09AA01	04/05/2011
9376383	C09AA01	09/09/2008
20549743	C09AA01	09/09/2010
5031929	C09AA01	18/01/2007
17170094	C09AA01	25/02/2009
9209479	C09AA01	13/10/2008
16559168	C09AA01	18/04/2007
16557846	C09AA01	03/05/2011
5022237	C09AA01	24/03/2009
8977888	C09AA01	31/03/2007
12174179	C09AA01	02/07/2007
9376034	C09AA01	27/04/2005
6750607	C09AA01	28/12/2009
731313	C09AA01	26/02/2003
16529815	C09AA01	10/03/2008
9371260	C09AA01	11/06/2007
1303002	C09AA01	09/03/2005
11814620	C09AA01	18/01/2011
6236514	C09AA01	20/04/2011
23454067	C09AA01	28/01/2011
7160936	C09AA01	27/02/2007
8700648	C09AA01	24/02/2004
9321282	C09AA01	01/03/2011
16530712	C09AA01	29/04/2009
19153840	C09AA01	01/10/2009
6747893	C09AA01	11/12/2008
9285180	C09AA01	05/11/2002
11661262	C09AA01	17/11/2006
8582373	C09AA01	10/12/2003
8557616	C09AA01	31/10/2008
25052219	C09AA01	05/01/2009
16558240	C09AA01	25/05/2011
209933	C09AA01	15/06/2006
25048008	C09AA01	12/06/2009
10148015	C09AA01	09/11/2007
7162015	C09AA01	27/12/2010
10395240	C09AA01	28/05/2011
9392962	C09AA01	18/01/2007
173433	C09AA01	13/10/2002
9178706	C09AA01	03/12/2009
5026941	C09AA01	23/03/2011
9323777	C09AA01	30/12/2004
16979178	C09AA01	30/08/2006
62094	C09AA01	29/10/2002
9302747	C09AA01	20/04/2007
5033201	C09AA01	29/09/2008
15141536	C09AA01	18/01/2011
6761142	C09AA01	15/10/2010
6751810	C09AA01	14/04/2008
21806555	C09AA01	30/05/2011
1852614	C09AA01	17/04/2001
8989051	C09AA01	24/01/2008
1474251	C09AA01	06/03/2007
645794	C09AA01	04/05/2005
1665529	C09AA01	11/10/2005
1354463	C09AA01	17/02/2005
673927	C09AA01	18/05/2011
7801913	C09AA01	06/02/2007
1211126	C09AA01	31/10/2005
1129404	C09AA01	09/05/2008
1851693	C09AA01	15/04/2011
1648751	C09AA01	21/02/2011
135900	C09AA01	22/05/2011
25904628	C09AA01	25/07/2008
1135359	C09AA01	14/08/2001
25913321	C09AA01	18/05/2011
1132627	C09AA01	18/01/2007
1101196	C09AA01	26/12/2006
2214845	C09AA01	18/01/2011
902957	C09AA01	18/04/2002
879024	C09AA01	10/11/2008
875499	C09AA01	15/05/2001
7038528	C09AA01	05/05/2011
2766244	C09AA01	16/12/2004
2766317	C09AA01	18/11/2010
7037683	C09AA01	20/03/2006
2407328	C09AA01	14/02/2005
28054168	C09AA01	18/01/2010
26462448	C09AA01	20/12/2010
7129492	C09AA01	25/11/2004
17747528	C09AA01	06/10/2002
8116685	C09AA01	06/04/2006
26235532	C09AA01	12/09/2010
18223290	C09AA01	20/10/2004
16959538	C09AA01	26/06/2003
2959597	C09AA01	14/08/2003
433439	C09AA01	11/06/2004
2958887	C09AA01	18/10/2001
875817	C09AA01	05/09/2001
28086322	C09AA01	10/09/2004
2765586	C09AA01	11/05/2011
17741586	C09AA01	02/04/2008
186935	C09AA01	25/03/2008
28058919	C09AA01	06/05/2011
28072225	C09AA01	05/06/2007
28062851	C09AA01	15/07/2002
25739069	C09AA01	17/05/2011
25741980	C09AA01	31/03/2010
1360903	C09AA01	25/06/1998
16566979	C09AA01	21/04/2005
18197916	C09AA01	14/09/2004
18186949	C09AA01	09/12/2000
19802014	C09AA01	11/07/2009
17707921	C09AA01	19/05/2011
1015995	C09AA01	21/02/2005
26628935	C09AA01	03/09/2010
3254435	C09AA01	11/12/2006
14309539	C09AA01	03/02/2002
16105651	C09AA01	29/05/2011
26719525	C09AA01	22/07/2008
26721016	C09AA01	09/03/2007
24583039	C09AA01	19/05/2005
24667198	C09AA01	14/09/2004
24659698	C09AA01	15/06/2006
26916982	C09AA01	18/04/2005
26887430	C09AA01	06/08/2009
26850877	C09AA01	01/03/2011
26761941	C09AA01	20/06/2005
26972816	C09AA01	03/06/2004
27128177	C09AA01	19/07/2010
27100098	C09AA01	15/01/2009
27065356	C09AA01	07/02/2005
27024854	C09AA01	30/05/2011
27041316	C09AA01	07/11/2006
27023735	C09AA01	02/09/2009
27150732	C09AA01	30/05/2011
27148073	C09AA01	07/02/2004
27384510	C09AA01	20/12/2008
27244696	C09AA01	03/11/2005
27316072	C09AA01	30/01/2007
27369903	C09AA01	09/02/2011
27172066	C09AA01	20/05/2011
27249580	C09AA01	28/04/2011
27253841	C09AA01	18/01/2008
27577554	C09AA01	24/10/2008
27588942	C09AA01	26/10/2004
27596970	C09AA01	23/01/2008
27444188	C09AA01	10/02/2002
27474892	C09AA01	26/04/2011
27132575	C09AA01	01/12/2009
27149059	C09AA01	27/05/2011
27153250	C09AA01	19/05/2011
27153595	C09AA01	16/01/2011
27146606	C09AA01	07/01/2002
27671064	C09AA01	04/09/2006
27458555	C09AA01	10/12/2006
27778908	C09AA01	28/12/2009
27674365	C09AA01	05/06/2009
27773439	C09AA01	25/02/2010
27767877	C09AA01	04/05/2011
27674082	C09AA01	09/12/2010
27355732	C09AA01	09/05/2005
27597098	C09AA01	09/04/2008
27459780	C09AA01	20/02/2011
27764992	C09AA01	09/08/2006
33032536	C09AA01	05/06/2010
33065341	C09AA01	05/05/2008
33030987	C09AA01	19/04/2010
33008912	C09AA01	11/05/2011
33015808	C09AA01	23/05/2011
33099318	C09AA01	12/11/2010
33050069	C09AA01	01/04/2011
33016797	C09AA01	18/01/2010
33005022	C09AA01	24/05/2002
33018999	C09AA01	09/01/2009
33049435	C09AA01	20/02/2008
33071618	C09AA01	05/07/2007
33109767	C09AA01	04/02/2009
33066001	C09AA01	04/02/2002
33079596	C09AA01	15/01/2011
33066419	C09AA01	17/11/2004
24668930	C09AA01	24/08/2008
33034636	C09AA01	05/01/2009
33083231	C09AA01	28/05/2011
21100819	C09AA01	10/07/2008
21116674	C09AA01	08/04/2011
33022070	C09AA01	24/11/2009
27832314	C09AA01	27/10/2004
33048233	C09AA01	12/05/2011
33025298	C09AA01	02/02/2011
33063405	C09AA01	14/05/2008
33019851	C09AA01	04/05/2011
33063495	C09AA01	22/03/2011
33088193	C09AA01	07/02/2007
33033729	C09AA01	25/03/2002
33025051	C09AA01	23/05/2011
33098204	C09AA01	14/01/2011
33099116	C09AA01	24/04/2002
33033838	C09AA01	01/02/2001
33066983	C09AA01	05/01/2011
33021513	C09AA01	03/01/2008
33073480	C09AA01	16/12/2010
33058122	C09AA01	16/05/2005
16134895	C09AA01	06/09/2006
18771218	C09AA01	08/11/2006
33297139	C09AA01	25/03/2010
16174963	C09AA01	18/06/2004
16636488	C09AA01	04/03/2011
27915318	C09AA01	05/05/2011
18770821	C09AA01	22/11/2000
18770770	C09AA01	10/04/2002
14188146	C09AA01	28/10/2003
28000766	C09AA01	22/03/2011
23397000	C09AA01	06/04/2011
27927780	C09AA01	14/09/2007
33314233	C09AA01	22/09/2010
16178544	C09AA01	30/08/2002
31049364	C09AA01	24/08/2009
23401612	C09AA01	23/05/2011
16648158	C09AA01	02/03/2011
23349604	C09AA01	23/02/2010
33296557	C09AA01	06/09/2010
23327900	C09AA01	02/11/2006
21116848	C09AA01	07/06/2010
16168876	C09AA01	21/05/2002
23401156	C09AA01	14/03/2011
33293205	C09AA01	09/01/2003
23353918	C09AA01	18/02/2004
31047161	C09AA01	05/11/2009
31558228	C09AA01	13/11/2007
31638063	C09AA01	10/01/2006
32013324	C09AA01	10/10/2007
32196437	C09AA01	20/12/2007
31937680	C09AA01	03/09/2003
31298093	C09AA01	25/08/2008
31586751	C09AA01	17/06/2003
31053990	C09AA01	11/12/2007
31976717	C09AA01	22/05/2007
31948525	C09AA01	21/12/2009
31160621	C09AA01	14/02/2007
31595727	C09AA01	13/09/2005
31607158	C09AA01	12/04/2007
31714298	C09AA01	11/12/2007
31646088	C09AA01	23/04/2002
31963319	C09AA01	20/11/2007
31771133	C09AA01	14/03/2001
31993364	C09AA01	20/07/2010
31510654	C09AA01	12/08/2009
31597063	C09AA01	27/04/2006
31792660	C09AA01	15/03/2011
31407519	C09AA01	31/08/2010
31299460	C09AA01	16/12/2009
32023890	C09AA01	05/07/2006
32214444	C09AA01	01/07/2005
31266359	C09AA01	27/08/2007
31362262	C09AA01	06/11/2008
31970088	C09AA01	08/03/2006
31066431	C09AA01	09/06/2003
31574504	C09AA01	22/06/2004
31128975	C09AA01	04/05/2007
31655762	C09AA01	11/10/2005
31163272	C09AA01	24/06/2008
31416932	C09AA01	22/07/2008
32091134	C09AA01	27/04/2007
31404591	C09AA01	17/03/2005
31398449	C09AA01	06/04/2011
32080624	C09AA01	12/01/2009
31129747	C09AA01	12/08/2009
31729046	C09AA01	24/09/2004
31156229	C09AA01	27/12/2002
31301421	C09AA01	12/11/2008
31195762	C09AA01	05/10/2007
31767484	C09AA01	11/04/2009
31076697	C09AA01	10/12/2009
31968363	C09AA01	19/12/2008
31669828	C09AA01	14/06/2005
31560828	C09AA01	17/02/2005
32244371	C09AA01	20/08/2003
32037940	C09AA01	05/02/2004
31518181	C09AA01	14/11/2008
31046070	C09AA01	08/09/2009
31753548	C09AA01	07/12/2005
31165906	C09AA01	15/09/2008
32084233	C09AA01	05/07/2006
31667634	C09AA01	10/10/2002
32215543	C09AA01	17/11/2010
31363775	C09AA01	30/12/2008
32190370	C09AA01	09/10/2009
31293265	C09AA01	10/09/2009
31606157	C09AA01	01/04/2008
32173642	C09AA01	27/04/2006
31831196	C09AA01	27/02/2006
32196147	C09AA01	17/12/2010
32111753	C09AA01	01/02/2007
32105527	C09AA01	07/11/2006
31138111	C09AA01	26/02/2009
31593327	C09AA01	11/02/2005
31103583	C09AA01	20/12/2005
31359358	C09AA01	02/01/2007
31105058	C09AA01	29/06/2007
32265697	C09AA01	08/04/2003
31710392	C09AA01	06/11/2006
32273397	C09AA01	26/01/2005
32149516	C09AA01	10/10/2007
31756085	C09AA01	04/04/2005
31159808	C09AA01	05/02/2004
31352687	C09AA01	12/01/2009
32006368	C09AA01	05/04/2006
31652283	C09AA01	15/02/2007
31577402	C09AA01	11/11/2008
31591497	C09AA01	21/10/2009
31417692	C09AA01	27/05/2007
32191393	C09AA01	09/03/2011
32141776	C09AA01	10/03/2011
32062851	C09AA01	14/10/2009
31111108	C09AA01	24/01/2011
31764206	C09AA01	30/12/2002
31732643	C09AA01	25/04/2007
32065117	C09AA01	18/04/2008
31569396	C09AA01	10/12/2008
31192975	C09AA01	27/10/2004
31725638	C09AA01	01/09/2006
31824277	C09AA01	04/12/2009
31373433	C09AA01	02/04/2004
31336062	C09AA01	28/12/2004
32178050	C09AA01	08/01/2010
31836599	C09AA01	03/07/2009
32068625	C09AA01	13/11/2007
31909126	C09AA01	22/11/2006
31339822	C09AA01	23/02/2009
32189793	C09AA01	06/06/2001
31693651	C09AA01	18/04/2006
32007468	C09AA01	27/11/2007
32209727	C09AA01	29/01/2008
31096124	C09AA01	03/09/2009
31416750	C09AA01	18/03/2005
31304181	C09AA01	10/10/2010
32063147	C09AA01	03/08/2007
31711982	C09AA01	19/11/2008
31656010	C09AA01	18/04/2002
31282685	C09AA01	05/10/2007
31720251	C09AA01	30/12/2008
31992294	C09AA01	14/07/2008
31228479	C09AA01	01/10/2008
31523397	C09AA01	11/10/2005
31443039	C09AA01	04/01/2010
32126935	C09AA01	28/10/2009
31983737	C09AA01	19/12/2006
31833135	C09AA01	14/12/2004
31748616	C09AA01	04/11/2009
31150601	C09AA01	17/12/2008
31600894	C09AA01	24/11/2010
31065248	C09AA01	18/05/2007
31822263	C09AA01	12/07/2010
31237625	C09AA01	05/11/2004
31725976	C09AA01	21/04/2006
31080678	C09AA01	08/04/2009
31217427	C09AA01	25/10/2007
32242844	C09AA01	07/04/2011
32263832	C09AA01	01/03/2004
31735125	C09AA01	02/03/2011
31517608	C09AA01	30/05/2006
31610930	C09AA01	02/06/2009
31104559	C09AA01	26/05/2004
31329912	C09AA01	27/06/2008
32242783	C09AA01	07/09/2004
31438511	C09AA01	24/01/2011
31473263	C09AA01	31/01/2008
31071012	C09AA01	27/07/2009
31624485	C09AA01	28/12/2006
31449578	C09AA01	19/11/2010
31853795	C09AA01	24/10/2003
31959501	C09AA01	11/01/2002
31689849	C09AA01	31/05/2004
31572849	C09AA01	07/06/2004
31727392	C09AA01	31/08/2010
31688375	C09AA01	22/08/2006
31536931	C09AA01	06/04/2005
31148510	C09AA01	15/03/2006
32120883	C09AA01	21/03/2011
31199571	C09AA01	14/04/2009
31099545	C09AA01	27/10/2010
32072112	C09AA01	30/03/2007
32205678	C09AA01	13/04/2007
31946157	C09AA01	12/06/2006
32176704	C09AA01	15/03/2005
31564838	C09AA01	23/10/2007
32026900	C09AA01	23/11/2009
