patient_id	covar_name	date
6747933	C07AB12	16/03/2007
8641990	C07AB12	04/05/2011
1732204	C07AB12	24/11/2003
6757389	C07AB12	23/01/2009
701963	C07AB12	10/05/2011
1069069	C07AB12	27/01/2011
23442733	C07AB12	03/05/2011
9302409	C07AB12	15/02/2011
9304423	C07AB12	04/03/2011
1516973	C07AB12	13/05/2011
1848778	C07AB12	18/03/2011
1262655	C07AB12	25/05/2011
1666507	C07AB12	10/05/2011
6595079	C07AB12	27/05/2011
7770755	C07AB12	10/05/2011
6841404	C07AB12	07/04/2011
18366106	C07AB12	11/04/2011
1670222	C07AB12	30/11/2010
673927	C07AB12	18/10/2007
24720187	C07AB12	02/09/2005
1855443	C07AB12	24/05/2001
2202053	C07AB12	06/04/2011
1855787	C07AB12	29/06/2007
1006203	C07AB12	29/11/2005
6392676	C07AB12	28/05/2010
1102488	C07AB12	29/11/2010
1134812	C07AB12	09/05/2011
2216986	C07AB12	10/05/2011
875499	C07AB12	12/06/2003
1755920	C07AB12	17/10/2007
1762017	C07AB12	30/03/2011
2573352	C07AB12	08/04/2011
2754760	C07AB12	01/10/2008
14559053	C07AB12	09/05/2011
2407564	C07AB12	05/11/2003
26441889	C07AB12	22/05/2008
28044970	C07AB12	23/05/2011
7137654	C07AB12	02/04/2007
17323361	C07AB12	20/05/2011
20673495	C07AB12	27/05/2011
422896	C07AB12	21/07/2003
649341	C07AB12	27/12/2007
2059881	C07AB12	28/03/2011
185854	C07AB12	19/05/2011
648818	C07AB12	09/10/2002
301395	C07AB12	10/05/2011
28057090	C07AB12	22/07/2010
24666302	C07AB12	15/04/2010
1371652	C07AB12	07/12/2007
18186972	C07AB12	17/02/2006
18186844	C07AB12	15/01/2007
2988326	C07AB12	11/05/2011
26630599	C07AB12	19/05/2011
26830552	C07AB12	18/04/2011
26792577	C07AB12	26/05/2011
24581862	C07AB12	23/05/2011
16840571	C07AB12	05/11/2007
13788822	C07AB12	31/12/2007
2988044	C07AB12	23/05/2011
21651514	C07AB12	20/05/2011
24666854	C07AB12	13/04/2011
24655094	C07AB12	31/05/2011
22512676	C07AB12	17/02/2011
26945123	C07AB12	21/05/2011
26895615	C07AB12	14/05/2011
27012625	C07AB12	02/11/2009
26777748	C07AB12	25/05/2011
26780527	C07AB12	18/05/2011
26882035	C07AB12	19/03/2011
26804701	C07AB12	30/05/2011
26767978	C07AB12	06/05/2011
26799827	C07AB12	20/05/2011
26956977	C07AB12	12/06/2006
27149748	C07AB12	13/08/2007
27116894	C07AB12	15/11/2010
27151273	C07AB12	30/05/2011
27100788	C07AB12	29/07/2010
27114640	C07AB12	28/01/2009
27033167	C07AB12	28/02/2011
27032436	C07AB12	06/04/2011
27216624	C07AB12	07/06/2010
27384510	C07AB12	22/04/2011
27365421	C07AB12	26/05/2011
27314737	C07AB12	20/04/2011
27316072	C07AB12	20/05/2011
27359659	C07AB12	23/02/2005
27366113	C07AB12	08/12/2008
27238217	C07AB12	30/04/2011
27249965	C07AB12	26/07/2010
26976761	C07AB12	27/05/2011
27646258	C07AB12	12/05/2011
27643610	C07AB12	23/05/2011
27643227	C07AB12	02/01/2009
27632159	C07AB12	17/11/2010
27642052	C07AB12	25/05/2011
27660599	C07AB12	15/05/2011
27472401	C07AB12	04/11/2009
27469881	C07AB12	27/10/2010
27659581	C07AB12	09/05/2011
27756324	C07AB12	12/03/2007
27707969	C07AB12	15/03/2007
27605030	C07AB12	05/05/2011
27623279	C07AB12	15/02/2007
27720067	C07AB12	18/08/2009
27571153	C07AB12	07/04/2011
27151908	C07AB12	09/05/2011
27152030	C07AB12	09/04/2011
27469950	C07AB12	08/05/2011
27785567	C07AB12	27/05/2011
27633404	C07AB12	27/05/2011
26803917	C07AB12	21/12/2010
27454891	C07AB12	16/05/2011
27684839	C07AB12	03/05/2011
27480464	C07AB12	29/04/2011
27475521	C07AB12	07/03/2011
27779761	C07AB12	21/09/2004
27534169	C07AB12	30/05/2011
26636698	C07AB12	08/04/2003
27079385	C07AB12	06/05/2011
27109811	C07AB12	23/03/2010
27459556	C07AB12	01/02/2006
27459099	C07AB12	24/05/2011
27538271	C07AB12	10/05/2011
27074097	C07AB12	27/05/2011
27595452	C07AB12	16/05/2011
27719296	C07AB12	10/05/2011
2987569	C07AB12	19/04/2010
27668760	C07AB12	31/05/2011
26776955	C07AB12	11/05/2011
21554134	C07AB12	29/07/2008
27806522	C07AB12	16/05/2011
33080420	C07AB12	23/10/2008
33065341	C07AB12	17/05/2011
33081368	C07AB12	16/05/2011
33116087	C07AB12	09/05/2011
33073315	C07AB12	01/02/2011
33100593	C07AB12	22/11/2010
33008240	C07AB12	15/04/2002
27199922	C07AB12	09/05/2011
265805	C07AB12	19/05/2011
20981857	C07AB12	30/01/2008
16713414	C07AB12	30/08/2005
16612849	C07AB12	19/10/2009
33033317	C07AB12	07/09/2009
33105641	C07AB12	23/06/2010
33098207	C07AB12	27/04/2004
33004522	C07AB12	20/06/2001
33048233	C07AB12	25/04/2011
33066334	C07AB12	13/03/2006
33057719	C07AB12	23/03/2011
33102600	C07AB12	14/01/2008
33077704	C07AB12	09/05/2011
33084729	C07AB12	03/11/2010
33064283	C07AB12	23/05/2011
16625249	C07AB12	11/11/2010
28013540	C07AB12	13/11/2009
33231880	C07AB12	31/05/2011
23408435	C07AB12	10/05/2011
33291035	C07AB12	10/05/2011
16165652	C07AB12	27/04/2011
16613519	C07AB12	22/02/2011
16613534	C07AB12	27/03/2009
33224366	C07AB12	06/05/2011
28017377	C07AB12	21/06/2010
16177787	C07AB12	04/05/2011
16623061	C07AB12	17/05/2011
33245266	C07AB12	29/03/2011
28018357	C07AB12	01/04/2011
14188146	C07AB12	11/05/2011
18757638	C07AB12	25/05/2010
28013320	C07AB12	14/08/2006
16607575	C07AB12	01/06/2011
16596447	C07AB12	17/05/2011
31996547	C07AB12	17/11/2004
20987392	C07AB12	03/03/2010
23406106	C07AB12	12/05/2011
23406038	C07AB12	09/05/2011
16713421	C07AB12	16/05/2011
33316112	C07AB12	05/05/2011
33311928	C07AB12	23/09/2010
31053990	C07AB12	29/12/2010
31593463	C07AB12	20/12/2010
31708808	C07AB12	08/09/2009
31035346	C07AB12	03/12/2010
31039899	C07AB12	26/10/2010
31119305	C07AB12	11/07/2005
31725642	C07AB12	28/01/2011
31459968	C07AB12	28/11/2008
32044149	C07AB12	29/07/2009
31535500	C07AB12	14/12/2010
31166710	C07AB12	11/11/2008
31580881	C07AB12	03/04/2003
31655381	C07AB12	28/10/2008
31440390	C07AB12	26/11/2010
32132555	C07AB12	23/05/2011
32028950	C07AB12	24/11/2009
32111753	C07AB12	01/03/2011
31997411	C07AB12	16/12/2009
31657895	C07AB12	30/03/2007
32197469	C07AB12	29/12/2009
31577402	C07AB12	09/02/2011
31123761	C07AB12	10/12/2010
31514901	C07AB12	25/09/2002
31370471	C07AB12	09/01/2011
32064327	C07AB12	29/01/2003
31430347	C07AB12	15/06/2007
31458857	C07AB12	13/10/2010
31962312	C07AB12	21/12/2007
31159489	C07AB12	17/06/2010
31429454	C07AB12	31/08/2007
31949691	C07AB12	12/12/2007
31766750	C07AB12	10/06/2005
31487065	C07AB12	07/04/2011
31032144	C07AB12	25/09/2003
32163177	C07AB12	06/12/2010
32127265	C07AB12	06/04/2011
32267988	C07AB12	14/07/2010
31973866	C07AB12	27/08/2009
32017868	C07AB12	03/04/2011
31238486	C07AB12	06/09/2010
31688375	C07AB12	23/10/2009
31183147	C07AB12	18/08/2010
