patient_id	covar_name	date
2768792	CAMAMA	21/03/2006
9230914	CAMAMA	16/04/1995
1731330	CAMAMA	12/11/1999
10269870	CAMAMA	23/01/2002
13131843	CAMAMA	02/03/2011
16099901	CAMAMA	03/02/2004
24722159	CAMAMA	01/01/1986
5029098	CAMAMA	27/09/2004
9312637	CAMAMA	28/04/2006
5864989	CAMAMA	05/07/1916
12760243	CAMAMA	01/03/2007
12479707	CAMAMA	28/01/2005
944975	CAMAMA	08/07/1994
9300058	CAMAMA	15/10/2004
6748195	CAMAMA	28/07/2004
8654132	CAMAMA	02/07/2007
8181409	CAMAMA	09/03/2007
9339219	CAMAMA	01/03/1997
19185008	CAMAMA	29/07/2010
14013702	CAMAMA	28/10/2010
3334201	CAMAMA	07/04/2009
12173193	CAMAMA	13/02/2004
3304800	CAMAMA	02/12/2010
3124058	CAMAMA	27/11/2001
6112120	CAMAMA	13/01/1998
8972807	CAMAMA	25/05/2010
702098	CAMAMA	14/04/2008
5866711	CAMAMA	22/07/2009
9983422	CAMAMA	09/08/2006
25060675	CAMAMA	01/01/1990
20529711	CAMAMA	12/02/2009
8561782	CAMAMA	01/10/2010
5031000	CAMAMA	04/02/2008
9388407	CAMAMA	22/09/2006
16927871	CAMAMA	02/10/2002
10331126	CAMAMA	19/03/2007
16530907	CAMAMA	28/04/2011
1123367	CAMAMA	19/05/1990
9302300	CAMAMA	11/11/2005
21856470	CAMAMA	23/11/2010
6415215	CAMAMA	08/02/1986
5023568	CAMAMA	13/08/2008
3119296	CAMAMA	24/07/2008
25048927	CAMAMA	22/11/1993
8292120	CAMAMA	04/08/1953
9203860	CAMAMA	29/08/2007
17215941	CAMAMA	07/07/2009
6751810	CAMAMA	01/03/1993
8582719	CAMAMA	13/08/1999
6887263	CAMAMA	07/03/2007
6592947	CAMAMA	15/04/2008
1850827	CAMAMA	22/11/2001
1852422	CAMAMA	27/10/2006
6591734	CAMAMA	07/09/1995
6595352	CAMAMA	31/05/2001
1208200	CAMAMA	20/08/2002
1296791	CAMAMA	01/07/1998
18366106	CAMAMA	01/06/2011
1352039	CAMAMA	23/09/2004
1355824	CAMAMA	18/09/2002
1443505	CAMAMA	16/11/2007
1211624	CAMAMA	13/11/1993
15703855	CAMAMA	19/08/2004
1666966	CAMAMA	20/07/2006
1295976	CAMAMA	12/11/2008
1641372	CAMAMA	08/05/2009
486570	CAMAMA	01/03/2007
1641072	CAMAMA	21/07/2006
1133538	CAMAMA	24/01/2008
1648875	CAMAMA	05/06/2008
1102919	CAMAMA	10/12/2008
2041539	CAMAMA	14/11/1998
2058996	CAMAMA	06/11/2006
2216630	CAMAMA	22/10/1990
2038460	CAMAMA	21/06/2002
903860	CAMAMA	23/01/2001
876284	CAMAMA	26/02/2004
756971	CAMAMA	30/09/1999
2038762	CAMAMA	29/10/2004
1753241	CAMAMA	11/06/2003
858925	CAMAMA	14/05/1974
2765113	CAMAMA	27/12/2006
2407651	CAMAMA	12/03/2007
9848198	CAMAMA	10/10/1995
26564907	CAMAMA	11/06/2004
7229616	CAMAMA	26/11/2010
7137494	CAMAMA	02/12/2008
7137270	CAMAMA	09/01/2004
7048780	CAMAMA	01/01/1985
17742312	CAMAMA	03/05/2004
1910163	CAMAMA	18/05/2004
304932	CAMAMA	18/09/2002
424570	CAMAMA	22/03/2004
2249543	CAMAMA	01/01/1998
185672	CAMAMA	01/01/2010
3054239	CAMAMA	20/02/2009
28083211	CAMAMA	01/10/2001
877798	CAMAMA	30/06/1999
26462845	CAMAMA	25/11/2008
28078102	CAMAMA	16/11/2010
7137629	CAMAMA	14/09/2010
304297	CAMAMA	25/08/2009
186865	CAMAMA	24/01/2008
434457	CAMAMA	23/10/2008
25535638	CAMAMA	23/09/2010
25743054	CAMAMA	01/06/1995
21064688	CAMAMA	01/07/1997
19424019	CAMAMA	16/01/2009
18189493	CAMAMA	30/08/2006
18198495	CAMAMA	03/06/2004
2987616	CAMAMA	27/01/1935
26710646	CAMAMA	13/06/2005
26719797	CAMAMA	10/05/2010
26624375	CAMAMA	18/09/1935
26635349	CAMAMA	14/05/2010
16105473	CAMAMA	07/05/2004
13871949	CAMAMA	12/07/2001
26619245	CAMAMA	07/11/2005
26618280	CAMAMA	25/04/1987
24580206	CAMAMA	14/09/2007
22922825	CAMAMA	24/10/2001
26897625	CAMAMA	06/09/1946
26894948	CAMAMA	21/06/2005
26934241	CAMAMA	06/06/2002
26959391	CAMAMA	04/02/2010
26890479	CAMAMA	09/04/1990
26711269	CAMAMA	02/07/2004
26723523	CAMAMA	16/09/2004
26718656	CAMAMA	07/02/2005
26758602	CAMAMA	21/05/2010
26711568	CAMAMA	01/06/2010
26899205	CAMAMA	12/11/2008
26856371	CAMAMA	18/08/2004
26714270	CAMAMA	14/08/2006
26720013	CAMAMA	15/06/2007
26945699	CAMAMA	14/08/2008
27116099	CAMAMA	21/06/2007
27104284	CAMAMA	25/02/2005
27137973	CAMAMA	30/06/2009
27045550	CAMAMA	13/05/2005
27112061	CAMAMA	21/09/1993
27025150	CAMAMA	10/05/1964
27042033	CAMAMA	14/11/2002
26996574	CAMAMA	22/12/2006
27025011	CAMAMA	14/11/2006
27026487	CAMAMA	02/01/2003
27170821	CAMAMA	03/05/1992
27379837	CAMAMA	02/06/2003
27308493	CAMAMA	07/05/2009
27234209	CAMAMA	19/01/2010
27215513	CAMAMA	10/10/2000
27210678	CAMAMA	20/07/2009
27170681	CAMAMA	06/08/2009
27349595	CAMAMA	27/02/2007
27301922	CAMAMA	10/02/2005
27352623	CAMAMA	22/06/1948
27606372	CAMAMA	01/01/1998
27427639	CAMAMA	15/04/2001
27442405	CAMAMA	10/06/1990
27163320	CAMAMA	03/07/2007
27132508	CAMAMA	13/01/2010
27285551	CAMAMA	17/06/1999
27539673	CAMAMA	03/06/2009
27538114	CAMAMA	19/01/1932
27667420	CAMAMA	06/05/1933
27369999	CAMAMA	12/02/2008
26992037	CAMAMA	18/04/2006
27674208	CAMAMA	02/07/2002
27647817	CAMAMA	01/03/2009
27539236	CAMAMA	21/07/2003
27496018	CAMAMA	02/02/2003
27602941	CAMAMA	02/06/2010
27648764	CAMAMA	08/09/2009
27798023	CAMAMA	05/01/2009
27354432	CAMAMA	18/05/2003
27597806	CAMAMA	04/12/2004
2959222	CAMAMA	30/07/2009
27667247	CAMAMA	07/06/2006
27309041	CAMAMA	10/12/2000
27760726	CAMAMA	09/08/2000
27778389	CAMAMA	20/09/2004
27806518	CAMAMA	05/03/2002
33112774	CAMAMA	28/10/2008
33037105	CAMAMA	03/05/2011
33050624	CAMAMA	13/12/1986
33027806	CAMAMA	23/01/2009
33001039	CAMAMA	05/06/2006
33001506	CAMAMA	07/11/2008
33110326	CAMAMA	27/03/2009
33006134	CAMAMA	30/01/2006
33092389	CAMAMA	01/08/2007
33019653	CAMAMA	10/02/2010
33107485	CAMAMA	02/06/2009
33065816	CAMAMA	24/03/2008
18197978	CAMAMA	28/05/2009
26638174	CAMAMA	22/02/2011
2959756	CAMAMA	08/05/2002
16135206	CAMAMA	06/03/2000
33235235	CAMAMA	23/10/2007
33084155	CAMAMA	05/06/2008
33026712	CAMAMA	30/11/2000
33034590	CAMAMA	21/04/2003
33064734	CAMAMA	28/04/2009
23342582	CAMAMA	21/04/2000
33287054	CAMAMA	02/09/2004
33209962	CAMAMA	17/11/2010
28013051	CAMAMA	16/10/2002
23408488	CAMAMA	15/01/1997
16615203	CAMAMA	26/02/2007
16634154	CAMAMA	01/01/1979
21102997	CAMAMA	01/01/1993
20990169	CAMAMA	27/01/2010
33306177	CAMAMA	20/01/2010
33233833	CAMAMA	15/06/2010
33258551	CAMAMA	01/01/1996
16631760	CAMAMA	27/12/2010
16168740	CAMAMA	01/02/1983
23355331	CAMAMA	04/07/2005
16178359	CAMAMA	11/08/2000
16606863	CAMAMA	21/05/2003
21102466	CAMAMA	22/11/2010
18758873	CAMAMA	29/07/1988
33245848	CAMAMA	31/03/2010
23327900	CAMAMA	27/10/2004
23402803	CAMAMA	21/02/2002
16124541	CAMAMA	01/01/1993
31721682	CAMAMA	19/02/1993
31696470	CAMAMA	01/07/2009
31166199	CAMAMA	27/03/2006
32041896	CAMAMA	01/01/1995
31405444	CAMAMA	02/02/2010
32133889	CAMAMA	14/11/2008
31740869	CAMAMA	10/12/2001
31160621	CAMAMA	06/01/1969
31250048	CAMAMA	19/03/2008
31948990	CAMAMA	24/06/1997
31557290	CAMAMA	19/07/1999
31688245	CAMAMA	30/10/2002
31476903	CAMAMA	01/01/1997
31938606	CAMAMA	17/02/2005
31396990	CAMAMA	25/06/2008
32246675	CAMAMA	09/04/2004
32093910	CAMAMA	02/02/2005
31054392	CAMAMA	07/06/2007
31285717	CAMAMA	14/01/2000
31201487	CAMAMA	12/08/2002
31987098	CAMAMA	06/06/2009
31660508	CAMAMA	02/02/2005
32217389	CAMAMA	04/06/2009
31107699	CAMAMA	29/08/2002
32283239	CAMAMA	08/11/2000
31872942	CAMAMA	09/11/2008
31644806	CAMAMA	07/07/2010
31606765	CAMAMA	19/11/2007
31112167	CAMAMA	28/07/2006
32090659	CAMAMA	24/02/2010
32044149	CAMAMA	19/04/2002
31452596	CAMAMA	07/09/1999
31099705	CAMAMA	18/10/2006
31422146	CAMAMA	01/01/1993
31950974	CAMAMA	01/09/1998
31704498	CAMAMA	28/12/2007
31995891	CAMAMA	06/02/2004
31817031	CAMAMA	19/01/2011
31762009	CAMAMA	06/10/2009
31665027	CAMAMA	30/11/2004
32076252	CAMAMA	29/05/2010
31337843	CAMAMA	14/02/2009
32087742	CAMAMA	26/12/2005
31634806	CAMAMA	23/12/2003
32123123	CAMAMA	04/05/1999
31619861	CAMAMA	21/06/2000
31940782	CAMAMA	27/05/2010
31999088	CAMAMA	09/08/2010
31230060	CAMAMA	01/06/2010
31963723	CAMAMA	12/07/2008
31046464	CAMAMA	26/02/2004
31288912	CAMAMA	10/03/2011
31031176	CAMAMA	23/05/2002
31608988	CAMAMA	10/05/2006
31297988	CAMAMA	21/10/2007
32240004	CAMAMA	17/12/2001
31880400	CAMAMA	02/10/1990
31292890	CAMAMA	01/12/1999
32119517	CAMAMA	31/08/2001
32099339	CAMAMA	28/03/2007
31973683	CAMAMA	20/06/2002
31280947	CAMAMA	18/11/2008
31774340	CAMAMA	04/05/2007
31461892	CAMAMA	18/08/2003
31189205	CAMAMA	19/10/2009
31550481	CAMAMA	12/01/2009
32114832	CAMAMA	26/08/2009
31245288	CAMAMA	08/05/1980
31415468	CAMAMA	13/09/2000
31552136	CAMAMA	09/01/2003
31386566	CAMAMA	01/02/2010
31326494	CAMAMA	03/02/2009
31638449	CAMAMA	04/06/2009
32174291	CAMAMA	18/03/2009
31374650	CAMAMA	06/10/2010
31513965	CAMAMA	18/03/2010
31422757	CAMAMA	14/04/2003
32153652	CAMAMA	10/12/2003
31252802	CAMAMA	01/10/2003
31291544	CAMAMA	12/06/2007
31679003	CAMAMA	12/09/2005
31089758	CAMAMA	10/07/2000
31098580	CAMAMA	23/09/1987
31187646	CAMAMA	15/11/2010
31336062	CAMAMA	05/06/1995
32231943	CAMAMA	23/10/1988
31312456	CAMAMA	23/06/2010
32046731	CAMAMA	03/08/2009
31050391	CAMAMA	24/08/2004
31652044	CAMAMA	28/10/2002
31611337	CAMAMA	23/02/1997
32176198	CAMAMA	19/04/1997
32136807	CAMAMA	17/02/2011
31766682	CAMAMA	17/09/2009
31987476	CAMAMA	12/02/2004
31191222	CAMAMA	26/11/2009
31648571	CAMAMA	14/03/2008
31580940	CAMAMA	26/08/2009
31773304	CAMAMA	30/11/2007
32141661	CAMAMA	10/02/2005
31207874	CAMAMA	29/07/2009
31819648	CAMAMA	16/09/2008
31443039	CAMAMA	01/01/1993
31189114	CAMAMA	19/10/2010
32197317	CAMAMA	01/05/1990
31453269	CAMAMA	12/04/2011
31975065	CAMAMA	28/06/2007
31101310	CAMAMA	09/09/1998
31513128	CAMAMA	01/06/2011
31960354	CAMAMA	05/05/1931
31918858	CAMAMA	24/03/2007
31052272	CAMAMA	28/10/2009
31085609	CAMAMA	27/01/2011
31636771	CAMAMA	13/05/2004
31757203	CAMAMA	12/09/2006
31933747	CAMAMA	24/05/1985
31042576	CAMAMA	16/03/2009
31493420	CAMAMA	12/08/2010
31200246	CAMAMA	16/08/2005
31556807	CAMAMA	20/02/1980
31700564	CAMAMA	09/02/2001
31337610	CAMAMA	16/12/2008
32132810	CAMAMA	24/05/2002
32105280	CAMAMA	01/01/1998
31821619	CAMAMA	10/06/2002
31102716	CAMAMA	25/05/2005
31853795	CAMAMA	13/02/2004
31267955	CAMAMA	29/06/1999
31386421	CAMAMA	08/02/2006
31536931	CAMAMA	06/02/2004
31290437	CAMAMA	11/05/2007
31437556	CAMAMA	02/03/2010
31905651	CAMAMA	01/01/1997
32061134	CAMAMA	20/06/2001
31448577	CAMAMA	11/01/2008
