patient_id	covar_name	date
1726934	C10AA04	08/10/2009
9319702	C10AA04	30/11/2007
8641990	C10AA04	04/05/2011
10001615	C10AA04	27/08/2007
8640108	C10AA04	16/01/2009
9377069	C10AA04	11/07/2007
24722159	C10AA04	24/08/2007
24951557	C10AA04	11/01/2008
8976351	C10AA04	16/05/2011
9982943	C10AA04	23/03/2005
9370774	C10AA04	12/02/2008
6417535	C10AA04	17/07/2007
9304255	C10AA04	23/10/2003
9984797	C10AA04	22/12/2009
745231	C10AA04	24/04/2009
9311429	C10AA04	31/05/2011
9376813	C10AA04	10/12/2010
609639	C10AA04	03/01/2003
8699154	C10AA04	04/04/2011
1434172	C10AA04	04/04/2007
11660918	C10AA04	13/05/2011
9201917	C10AA04	04/07/2008
12767301	C10AA04	18/04/2006
7153968	C10AA04	15/01/2007
16531906	C10AA04	23/05/2011
10002466	C10AA04	31/10/2007
9387994	C10AA04	30/12/2010
3126286	C10AA04	07/05/2002
24729397	C10AA04	05/05/2010
9997839	C10AA04	05/12/2005
10003048	C10AA04	31/03/2011
10004388	C10AA04	08/10/2009
23471565	C10AA04	09/03/2007
1515199	C10AA04	30/05/2011
1163865	C10AA04	20/06/2005
5813351	C10AA04	17/03/2011
10332543	C10AA04	23/05/2006
12731064	C10AA04	13/03/2009
12731583	C10AA04	27/04/2011
16559495	C10AA04	24/07/2007
1517271	C10AA04	18/05/2011
12737954	C10AA04	04/05/2011
10457413	C10AA04	01/03/2010
12731794	C10AA04	19/05/2011
24930465	C10AA04	25/12/2004
12790596	C10AA04	15/11/2004
8700027	C10AA04	30/05/2011
9285180	C10AA04	28/10/2008
9214769	C10AA04	04/01/2005
10394089	C10AA04	03/08/2010
11661262	C10AA04	18/05/2011
12763683	C10AA04	16/02/2011
8980948	C10AA04	13/05/2011
1517390	C10AA04	14/07/2006
21152518	C10AA04	05/09/2006
24864967	C10AA04	02/04/2008
9309579	C10AA04	19/06/2006
1515178	C10AA04	09/05/2011
10002429	C10AA04	09/02/2006
9388023	C10AA04	30/04/2009
1162239	C10AA04	03/02/2009
1445542	C10AA04	07/02/2008
1850904	C10AA04	23/05/2011
7964359	C10AA04	11/05/2005
6596593	C10AA04	16/04/2009
12187658	C10AA04	30/05/2011
12189908	C10AA04	02/06/2008
7231434	C10AA04	12/05/2011
8063672	C10AA04	08/04/2009
1206620	C10AA04	07/09/2007
525724	C10AA04	13/11/2007
6594082	C10AA04	25/05/2004
1296791	C10AA04	16/02/2007
26138642	C10AA04	21/05/2010
7966545	C10AA04	14/11/2008
26139493	C10AA04	13/11/2008
1208133	C10AA04	15/05/2011
6597124	C10AA04	30/01/2009
1849768	C10AA04	26/08/2008
1424903	C10AA04	04/11/2003
5162420	C10AA04	07/05/2011
5992383	C10AA04	16/05/2011
13985374	C10AA04	19/05/2011
1354581	C10AA04	18/04/2005
5992669	C10AA04	13/05/2011
13986679	C10AA04	26/05/2011
13116462	C10AA04	06/04/2009
1855692	C10AA04	17/05/2011
1639158	C10AA04	09/08/2007
1855659	C10AA04	10/07/2007
1638022	C10AA04	25/04/2011
1855443	C10AA04	26/10/2006
196179	C10AA04	14/10/2010
1638896	C10AA04	10/10/2006
1648154	C10AA04	10/02/2004
21282892	C10AA04	23/12/2009
1648875	C10AA04	30/05/2011
1135359	C10AA04	31/08/2003
12788129	C10AA04	01/04/2008
25860190	C10AA04	07/08/2009
1133430	C10AA04	29/03/2004
12161214	C10AA04	03/05/2011
1134421	C10AA04	08/05/2011
1640729	C10AA04	25/06/2008
1135406	C10AA04	26/05/2008
2133498	C10AA04	09/05/2011
2144575	C10AA04	10/05/2011
2143165	C10AA04	04/05/2007
2110899	C10AA04	28/05/2011
2109145	C10AA04	22/09/2006
902237	C10AA04	29/03/2006
2038762	C10AA04	05/04/2011
904619	C10AA04	14/03/2011
2760414	C10AA04	09/04/2007
902908	C10AA04	15/01/2009
7047010	C10AA04	05/10/2004
7038290	C10AA04	31/08/2010
3052996	C10AA04	10/10/2003
2776308	C10AA04	21/10/2010
2755178	C10AA04	28/04/2008
2714643	C10AA04	31/05/2011
2519294	C10AA04	27/01/2006
2407564	C10AA04	30/06/2010
2408212	C10AA04	20/04/2011
26489080	C10AA04	25/11/2009
26425762	C10AA04	25/05/2010
28058987	C10AA04	25/05/2011
26423223	C10AA04	15/11/2006
28052802	C10AA04	20/09/2010
26409464	C10AA04	29/01/2008
26462448	C10AA04	04/05/2011
17323361	C10AA04	05/07/2010
20673831	C10AA04	22/09/2009
17744958	C10AA04	13/08/2009
7136698	C10AA04	13/05/2011
7035406	C10AA04	23/11/2009
26456732	C10AA04	24/05/2011
26409825	C10AA04	18/04/2005
26488449	C10AA04	27/05/2011
28042025	C10AA04	23/04/2007
26384460	C10AA04	20/02/2008
26178951	C10AA04	13/01/2004
20673960	C10AA04	06/09/2007
183671	C10AA04	18/06/2004
2958619	C10AA04	28/05/2011
302456	C10AA04	31/03/2009
2962363	C10AA04	23/05/2008
28077381	C10AA04	10/05/2011
28089746	C10AA04	27/08/2009
28044182	C10AA04	25/01/2004
28093758	C10AA04	24/03/2009
28078871	C10AA04	26/06/2008
903103	C10AA04	25/09/2007
428569	C10AA04	21/05/2011
420227	C10AA04	08/11/2002
306134	C10AA04	22/02/2010
26488354	C10AA04	17/09/2009
26441817	C10AA04	26/05/2011
423811	C10AA04	24/05/2011
303624	C10AA04	10/03/2008
186057	C10AA04	17/02/2010
28043953	C10AA04	16/05/2011
28069718	C10AA04	25/09/2007
28061435	C10AA04	27/07/2010
28045535	C10AA04	17/04/2009
28043285	C10AA04	17/05/2007
25739069	C10AA04	14/05/2006
24666302	C10AA04	25/08/2006
25743561	C10AA04	20/05/2011
24666868	C10AA04	24/11/2005
24655998	C10AA04	30/10/2006
25588570	C10AA04	11/10/2005
24655248	C10AA04	21/08/2006
26627333	C10AA04	11/03/2011
24669225	C10AA04	23/05/2011
24668649	C10AA04	29/01/2010
19423118	C10AA04	06/05/2011
1371652	C10AA04	16/09/1999
18195981	C10AA04	01/09/2005
16841259	C10AA04	09/08/2007
18194731	C10AA04	26/05/2011
18193993	C10AA04	20/05/2011
18196791	C10AA04	08/03/2004
18187579	C10AA04	10/05/2011
19801472	C10AA04	20/05/2011
18187020	C10AA04	29/01/2004
17596151	C10AA04	03/09/2007
2964564	C10AA04	29/07/2010
2988749	C10AA04	08/04/2009
1367330	C10AA04	25/11/1998
420454	C10AA04	23/05/2011
26776551	C10AA04	30/04/2011
26784145	C10AA04	13/05/2011
26629598	C10AA04	26/06/2008
26719457	C10AA04	26/05/2011
26700714	C10AA04	13/01/2010
26830552	C10AA04	12/04/2010
26790948	C10AA04	21/10/2009
26720825	C10AA04	17/05/2011
26626574	C10AA04	25/05/2010
22881967	C10AA04	03/11/2006
2988172	C10AA04	28/05/2011
16105651	C10AA04	27/05/2011
26626604	C10AA04	17/05/2011
26616688	C10AA04	04/02/2010
26642042	C10AA04	03/09/2004
26619772	C10AA04	27/01/2006
26702888	C10AA04	14/05/2007
24576414	C10AA04	13/05/2005
24655486	C10AA04	18/05/2011
24580485	C10AA04	02/12/2004
24580302	C10AA04	24/05/2011
24581156	C10AA04	16/02/2005
26934241	C10AA04	25/06/2007
26958469	C10AA04	28/02/2007
26895615	C10AA04	03/05/2010
26958799	C10AA04	21/05/2011
26914516	C10AA04	08/05/2007
26896357	C10AA04	29/05/2011
26935990	C10AA04	21/10/2008
26950428	C10AA04	04/02/2010
26932935	C10AA04	29/05/2011
26900257	C10AA04	06/04/2011
26715577	C10AA04	09/02/2005
26742016	C10AA04	08/05/2011
26772789	C10AA04	13/05/2011
26723523	C10AA04	28/12/2007
26718656	C10AA04	13/05/2008
26857096	C10AA04	13/11/2007
26776408	C10AA04	26/05/2011
26730135	C10AA04	21/07/2009
26714937	C10AA04	13/01/2009
26845956	C10AA04	10/05/2005
26800799	C10AA04	12/05/2011
26792107	C10AA04	16/12/2004
26791959	C10AA04	11/08/2006
26825165	C10AA04	27/05/2011
26955005	C10AA04	15/05/2011
27061821	C10AA04	18/05/2011
26972816	C10AA04	02/09/2004
27114352	C10AA04	20/05/2011
27086485	C10AA04	09/05/2011
27116935	C10AA04	13/05/2011
27113830	C10AA04	14/07/2009
27100175	C10AA04	01/06/2011
27042887	C10AA04	03/05/2008
27043827	C10AA04	05/05/2011
27029722	C10AA04	19/05/2011
27067240	C10AA04	17/05/2011
27031301	C10AA04	25/05/2011
27033292	C10AA04	19/05/2011
27034790	C10AA04	14/01/2008
27066800	C10AA04	27/02/2007
27046535	C10AA04	28/04/2011
27037293	C10AA04	28/02/2006
27042092	C10AA04	31/08/2004
27042121	C10AA04	15/06/2004
27004181	C10AA04	22/04/2005
27039849	C10AA04	21/06/2006
27170364	C10AA04	03/04/2008
27368500	C10AA04	26/08/2008
27152048	C10AA04	09/05/2006
27362443	C10AA04	11/10/2005
27166936	C10AA04	23/03/2005
27348600	C10AA04	16/05/2011
27284738	C10AA04	04/04/2005
27316566	C10AA04	11/05/2011
27244696	C10AA04	17/05/2011
27296129	C10AA04	04/03/2010
27246351	C10AA04	04/01/2007
27355027	C10AA04	02/03/2006
27306335	C10AA04	29/08/2008
26998337	C10AA04	28/12/2010
27242588	C10AA04	04/02/2010
26975874	C10AA04	10/05/2011
27250690	C10AA04	27/02/2007
27171400	C10AA04	25/01/2011
27170093	C10AA04	16/05/2011
27595822	C10AA04	07/06/2005
27606689	C10AA04	24/11/2008
27643198	C10AA04	07/02/2009
27623983	C10AA04	17/08/2007
27592722	C10AA04	03/04/2006
27642076	C10AA04	28/11/2005
27595836	C10AA04	20/05/2011
27624082	C10AA04	10/05/2011
27707330	C10AA04	08/04/2011
27645505	C10AA04	29/05/2009
27481175	C10AA04	03/03/2009
27471234	C10AA04	04/03/2009
27644250	C10AA04	01/06/2011
27642736	C10AA04	20/05/2011
27414832	C10AA04	20/04/2011
27470779	C10AA04	22/05/2007
27475730	C10AA04	04/01/2010
27469908	C10AA04	16/05/2011
27415090	C10AA04	20/04/2005
27572382	C10AA04	18/05/2011
27541995	C10AA04	21/07/2010
27542010	C10AA04	29/05/2011
27717389	C10AA04	03/05/2011
27707969	C10AA04	12/01/2010
27763523	C10AA04	02/11/2005
27631405	C10AA04	28/04/2004
27573184	C10AA04	23/03/2006
27623279	C10AA04	08/06/2009
27129091	C10AA04	19/05/2006
27250342	C10AA04	27/06/2005
27162937	C10AA04	14/05/2011
27477645	C10AA04	06/05/2011
27785549	C10AA04	18/05/2011
27782669	C10AA04	01/02/2008
24667869	C10AA04	08/11/2010
24576547	C10AA04	02/02/2009
27782560	C10AA04	23/11/2006
27659684	C10AA04	30/01/2008
27105042	C10AA04	09/03/2011
27780243	C10AA04	05/02/2008
27454891	C10AA04	16/05/2011
27456675	C10AA04	08/08/2008
27778969	C10AA04	09/05/2007
27563279	C10AA04	01/03/2007
27563283	C10AA04	27/03/2006
27309498	C10AA04	09/11/2010
27533971	C10AA04	15/05/2008
27477114	C10AA04	02/08/2010
27534169	C10AA04	14/05/2003
27772297	C10AA04	28/05/2011
26636698	C10AA04	16/06/2006
27673504	C10AA04	21/08/2008
27674137	C10AA04	09/02/2011
26992037	C10AA04	01/06/2011
27496739	C10AA04	12/03/2007
27597656	C10AA04	12/06/2010
27512143	C10AA04	18/05/2011
26833671	C10AA04	04/01/2010
27805384	C10AA04	12/06/2003
27546390	C10AA04	24/05/2011
27695073	C10AA04	23/05/2011
27760549	C10AA04	13/06/2009
27758964	C10AA04	12/05/2011
27718674	C10AA04	17/03/2005
27716806	C10AA04	17/05/2011
27716826	C10AA04	02/10/2009
27718995	C10AA04	16/08/2006
27765080	C10AA04	26/07/2009
27067043	C10AA04	22/12/2005
19803797	C10AA04	25/08/2006
26802254	C10AA04	18/05/2010
27532824	C10AA04	20/11/2007
27005510	C10AA04	22/05/2009
27087757	C10AA04	30/09/2010
27799362	C10AA04	05/05/2011
27782658	C10AA04	17/05/2011
27670442	C10AA04	20/05/2011
33018984	C10AA04	17/02/2010
33065341	C10AA04	03/02/2004
33101389	C10AA04	29/04/2011
33051475	C10AA04	21/09/2004
33129165	C10AA04	09/08/2010
33027806	C10AA04	14/06/2001
33030987	C10AA04	02/04/2007
33063228	C10AA04	05/05/2011
33098699	C10AA04	02/06/2008
33002793	C10AA04	17/04/2010
33024115	C10AA04	11/05/2011
33068589	C10AA04	26/06/2007
33019290	C10AA04	05/02/2003
33079795	C10AA04	05/02/2009
33004433	C10AA04	27/05/2011
33051995	C10AA04	03/12/2007
33098674	C10AA04	23/12/2002
33039975	C10AA04	08/04/2011
33029738	C10AA04	20/07/2009
33063559	C10AA04	18/05/2011
33013033	C10AA04	30/11/2010
33092712	C10AA04	12/08/2008
33084983	C10AA04	11/11/2005
33126560	C10AA04	15/02/2010
33054272	C10AA04	09/12/2010
33028180	C10AA04	14/06/2010
33012303	C10AA04	30/11/2007
26636182	C10AA04	19/10/2007
18197978	C10AA04	28/04/2005
27720541	C10AA04	19/01/2007
26635596	C10AA04	28/07/2005
420958	C10AA04	27/05/2009
33043382	C10AA04	29/06/2007
27800055	C10AA04	09/04/2010
19423345	C10AA04	11/09/2006
33008240	C10AA04	15/11/2005
26720883	C10AA04	22/11/2005
33298618	C10AA04	20/05/2009
33314394	C10AA04	20/04/2011
27914451	C10AA04	04/05/2004
23335211	C10AA04	26/04/2011
33006191	C10AA04	11/05/2011
33015324	C10AA04	30/08/2010
33067650	C10AA04	15/07/2010
33112492	C10AA04	27/05/2011
33101101	C10AA04	12/01/2007
33083224	C10AA04	14/05/2010
33025768	C10AA04	22/10/2007
33091566	C10AA04	01/09/2008
33002545	C10AA04	16/05/2011
33023608	C10AA04	08/12/2010
33065950	C10AA04	29/01/2009
33097532	C10AA04	02/03/2007
33019050	C10AA04	28/04/2004
33033838	C10AA04	01/08/2007
33052345	C10AA04	30/10/2008
33102691	C10AA04	18/01/2007
33025659	C10AA04	20/11/2009
33008928	C10AA04	15/04/2008
33003742	C10AA04	08/03/2011
33064084	C10AA04	30/10/2001
27856629	C10AA04	02/03/2007
33309312	C10AA04	26/12/2007
23328234	C10AA04	27/10/2008
23407899	C10AA04	22/06/2005
16181789	C10AA04	13/02/2008
33306707	C10AA04	26/05/2011
27878671	C10AA04	01/04/2011
23408435	C10AA04	10/05/2011
33298283	C10AA04	15/09/2010
27985124	C10AA04	04/05/2011
16652568	C10AA04	10/06/2010
23362937	C10AA04	29/04/2011
21109099	C10AA04	07/04/2010
16613519	C10AA04	18/04/2011
18765826	C10AA04	11/02/2011
16652659	C10AA04	21/01/2008
23336381	C10AA04	22/11/2010
23339422	C10AA04	09/05/2005
18769331	C10AA04	13/05/2003
33231077	C10AA04	16/05/2011
33245266	C10AA04	23/06/2009
16684643	C10AA04	06/10/2008
16684605	C10AA04	02/11/2007
23342956	C10AA04	14/10/2010
33238439	C10AA04	05/01/2009
33208317	C10AA04	18/05/2011
27928159	C10AA04	17/05/2011
33312271	C10AA04	27/01/2009
23402116	C10AA04	24/05/2011
23354037	C10AA04	24/05/2011
23349723	C10AA04	18/03/2010
20987632	C10AA04	14/01/2010
20985576	C10AA04	16/10/2007
20987995	C10AA04	27/11/2009
27927780	C10AA04	22/10/2008
33297992	C10AA04	19/05/2011
24464456	C10AA04	29/04/2011
23364191	C10AA04	03/04/2009
31546727	C10AA04	17/06/2010
23405723	C10AA04	29/01/2004
23334083	C10AA04	23/05/2011
20987392	C10AA04	03/03/2010
33282105	C10AA04	10/02/2011
23402638	C10AA04	08/05/2007
23333929	C10AA04	03/05/2011
23397045	C10AA04	18/05/2011
16168771	C10AA04	28/01/2011
18762967	C10AA04	18/06/2008
16603341	C10AA04	30/10/2008
23332688	C10AA04	09/02/2011
28015212	C10AA04	10/12/2009
16648484	C10AA04	22/11/2006
23362189	C10AA04	03/05/2011
23347347	C10AA04	05/07/2010
16621754	C10AA04	29/12/2003
31345711	C10AA04	17/09/2008
31139565	C10AA04	11/12/2009
31642355	C10AA04	12/09/2005
31687391	C10AA04	02/12/2009
31042977	C10AA04	23/03/2007
31083013	C10AA04	09/12/2010
32264049	C10AA04	10/12/2007
31338026	C10AA04	07/08/2006
32175738	C10AA04	22/03/2007
31657424	C10AA04	15/04/2011
31445258	C10AA04	07/02/2011
31985947	C10AA04	12/01/2007
31634372	C10AA04	22/07/2005
31511644	C10AA04	12/01/2011
31833363	C10AA04	21/10/2010
31449000	C10AA04	10/03/2009
31043915	C10AA04	11/08/2003
31948985	C10AA04	27/12/2006
31404679	C10AA04	04/03/2009
31373457	C10AA04	11/11/2010
32099105	C10AA04	07/11/2007
32185300	C10AA04	23/06/2006
31765237	C10AA04	08/05/2003
31140970	C10AA04	22/12/2009
31205373	C10AA04	17/01/2007
31931778	C10AA04	07/12/2009
31236375	C10AA04	29/09/2003
32111291	C10AA04	26/10/2009
32063762	C10AA04	09/05/2011
31722801	C10AA04	14/01/2009
32013445	C10AA04	09/06/2005
31672262	C10AA04	05/03/2011
32195861	C10AA04	17/05/2007
31764799	C10AA04	05/08/2009
31918133	C10AA04	20/12/2010
31041646	C10AA04	04/11/2010
31425005	C10AA04	23/02/2009
31286555	C10AA04	15/12/2008
31505016	C10AA04	23/02/2006
31565972	C10AA04	04/07/2007
31435940	C10AA04	06/10/2010
31638191	C10AA04	17/11/2008
31814754	C10AA04	05/08/2004
31749166	C10AA04	04/03/2005
31109594	C10AA04	17/02/2005
31222949	C10AA04	29/12/2010
32127546	C10AA04	02/11/2010
31979495	C10AA04	20/10/2008
32083356	C10AA04	09/02/2009
31178636	C10AA04	30/10/2008
32246352	C10AA04	11/02/2011
31169467	C10AA04	16/12/2003
31264628	C10AA04	13/09/2006
31927982	C10AA04	15/12/2010
31478845	C10AA04	14/07/2010
31166521	C10AA04	29/12/2009
32188596	C10AA04	22/10/2009
32018742	C10AA04	29/04/2010
32059302	C10AA04	12/06/2006
31984945	C10AA04	28/02/2011
32282859	C10AA04	16/06/2004
32100016	C10AA04	23/05/2011
31162395	C10AA04	11/02/2011
31120658	C10AA04	12/12/2010
31269024	C10AA04	05/01/2007
31116223	C10AA04	23/12/2003
31998738	C10AA04	09/09/2010
31396650	C10AA04	07/10/2009
31836144	C10AA04	03/01/2011
31407086	C10AA04	13/10/2008
31714507	C10AA04	29/08/2008
31932902	C10AA04	26/12/2010
32087474	C10AA04	11/11/2009
31698713	C10AA04	16/09/2010
31974787	C10AA04	13/07/2010
32099327	C10AA04	16/07/2010
32110892	C10AA04	28/04/2010
31326912	C10AA04	22/10/2010
32080097	C10AA04	15/09/2009
31652501	C10AA04	09/12/2008
31523862	C10AA04	10/11/2008
31162260	C10AA04	04/06/2004
32053538	C10AA04	27/12/2010
31140552	C10AA04	21/01/2011
31169763	C10AA04	11/12/2007
32084841	C10AA04	23/11/2007
32076621	C10AA04	19/01/2011
31791803	C10AA04	14/12/2010
32094491	C10AA04	28/06/2010
31670481	C10AA04	02/11/2009
32191042	C10AA04	16/10/2009
31303492	C10AA04	13/07/2010
31927125	C10AA04	15/12/2008
31087682	C10AA04	11/03/2005
31375081	C10AA04	11/02/2011
31504927	C10AA04	08/03/2007
32209727	C10AA04	03/03/2011
31470090	C10AA04	01/12/2010
31954330	C10AA04	24/01/2011
32233517	C10AA04	01/06/2009
31547301	C10AA04	15/12/2008
32015901	C10AA04	23/04/2011
31820480	C10AA04	02/04/2004
31522054	C10AA04	14/02/2005
31433790	C10AA04	11/11/2009
31210647	C10AA04	11/11/2009
31612837	C10AA04	23/12/2008
31819648	C10AA04	07/12/2009
31614550	C10AA04	06/04/2011
32175759	C10AA04	20/11/2006
31228479	C10AA04	02/04/2008
32031559	C10AA04	03/11/2008
32073892	C10AA04	19/01/2011
31567111	C10AA04	17/02/2009
31128250	C10AA04	25/02/2009
31391383	C10AA04	12/12/2006
31150601	C10AA04	08/05/2003
32079324	C10AA04	30/11/2009
31127249	C10AA04	22/03/2005
31512689	C10AA04	05/01/2007
32128497	C10AA04	10/12/2003
31944965	C10AA04	16/09/2005
32242741	C10AA04	01/07/2010
31545671	C10AA04	02/07/2009
31830506	C10AA04	18/11/2008
32050605	C10AA04	17/07/2008
32206935	C10AA04	13/06/2005
31489537	C10AA04	11/02/2004
31409972	C10AA04	13/05/2005
31281596	C10AA04	08/03/2006
31735196	C10AA04	20/11/2007
31823756	C10AA04	21/05/2008
32088394	C10AA04	26/06/2008
31623353	C10AA04	25/11/2010
31579984	C10AA04	29/07/2009
31603013	C10AA04	27/04/2006
32154430	C10AA04	05/12/2006
31625738	C10AA04	07/04/2005
31449578	C10AA04	20/04/2010
31790134	C10AA04	01/06/2009
31957558	C10AA04	02/06/2010
31792079	C10AA04	04/02/2010
31638728	C10AA04	19/12/2006
31470956	C10AA04	29/06/2006
31566932	C10AA04	10/02/2006
31923548	C10AA04	05/08/2003
31522298	C10AA04	27/03/2002
