patient_id	covar_name	date
7349356	C08CA05	01/06/2011
21859577	C08CA05	11/05/2011
5812962	C08CA05	19/01/2011
8521498	C08CA05	03/04/2008
6417675	C08CA05	16/11/2006
8558689	C08CA05	16/03/2005
15384882	C08CA05	07/10/2004
1123872	C08CA05	23/05/2011
9303849	C08CA05	20/11/2007
949778	C08CA05	15/11/2005
6887580	C08CA05	10/02/2011
16977028	C08CA05	12/05/2011
6760798	C08CA05	27/04/2010
9372898	C08CA05	09/12/2004
3120195	C08CA05	23/05/2011
8654391	C08CA05	06/02/2008
9311118	C08CA05	12/05/2011
13951854	C08CA05	31/05/2011
12182584	C08CA05	15/05/2006
12174179	C08CA05	07/09/2007
9376034	C08CA05	27/04/2005
24930465	C08CA05	23/12/2004
12831650	C08CA05	27/05/2011
1303002	C08CA05	16/09/2008
5028278	C08CA05	14/03/2006
5031647	C08CA05	17/05/2011
1433332	C08CA05	14/05/2001
23442148	C08CA05	01/06/2011
8292030	C08CA05	27/05/2011
949680	C08CA05	12/12/2000
9295669	C08CA05	13/11/2007
20564355	C08CA05	01/06/2011
15900903	C08CA05	03/05/2004
62094	C08CA05	23/05/2011
6178653	C08CA05	29/09/2006
8700627	C08CA05	09/05/2011
8955922	C08CA05	18/02/2005
1263318	C08CA05	26/01/2009
26145674	C08CA05	13/07/2004
1172020	C08CA05	04/05/2011
6594579	C08CA05	29/05/2006
13984960	C08CA05	08/04/2011
515787	C08CA05	03/12/2007
526051	C08CA05	18/02/2009
24718581	C08CA05	20/08/2004
8956630	C08CA05	04/05/2011
641313	C08CA05	07/07/2005
12189158	C08CA05	13/10/2007
565283	C08CA05	23/05/2011
26139839	C08CA05	06/04/2011
13604007	C08CA05	26/04/2011
6596782	C08CA05	10/11/2009
13986458	C08CA05	04/05/2011
15623737	C08CA05	13/12/2010
6603579	C08CA05	06/05/2003
12187273	C08CA05	22/11/2000
8955985	C08CA05	10/03/2011
7801913	C08CA05	19/10/2009
539674	C08CA05	09/05/2011
7967921	C08CA05	26/06/2009
13986679	C08CA05	06/10/2006
7654802	C08CA05	27/05/2011
1320083	C08CA05	26/04/2011
25904628	C08CA05	18/11/2008
716674	C08CA05	04/04/2011
25914203	C08CA05	14/01/2010
889830	C08CA05	29/10/2007
1102451	C08CA05	31/05/2011
25750805	C08CA05	25/10/2010
12788129	C08CA05	24/06/2009
1101196	C08CA05	18/05/2011
2068934	C08CA05	29/03/2011
2217164	C08CA05	28/09/2005
873905	C08CA05	06/11/2001
879024	C08CA05	10/11/2008
1814709	C08CA05	29/04/2011
2109145	C08CA05	04/05/2006
1755920	C08CA05	12/05/2011
876130	C08CA05	16/03/2004
904650	C08CA05	27/05/2011
1765422	C08CA05	29/01/2009
2811902	C08CA05	12/04/2011
2774573	C08CA05	06/10/2006
3050342	C08CA05	30/07/2009
2034654	C08CA05	10/02/2009
26459880	C08CA05	23/05/2011
26529186	C08CA05	28/02/2011
26383930	C08CA05	11/04/2011
26260880	C08CA05	09/05/2011
8116714	C08CA05	20/11/2009
7136698	C08CA05	13/05/2011
28040298	C08CA05	19/04/2011
17747103	C08CA05	25/05/2011
20147230	C08CA05	15/03/2005
26455732	C08CA05	04/05/2010
26190060	C08CA05	06/10/2003
26182006	C08CA05	01/12/2008
26242942	C08CA05	05/11/2008
26338190	C08CA05	12/11/2009
26464787	C08CA05	25/08/2009
17323744	C08CA05	11/08/2004
14347072	C08CA05	18/03/2009
304932	C08CA05	19/10/2010
421145	C08CA05	17/03/2004
302093	C08CA05	05/01/2007
1899459	C08CA05	30/12/2009
424627	C08CA05	11/05/2011
5759433	C08CA05	27/05/2011
2244430	C08CA05	27/04/2011
266327	C08CA05	17/04/2008
28083203	C08CA05	27/11/2001
26261706	C08CA05	17/05/2011
303479	C08CA05	30/05/2011
427511	C08CA05	17/12/2010
28093204	C08CA05	13/09/2006
25715383	C08CA05	22/03/2011
25742680	C08CA05	20/02/2007
1371652	C08CA05	18/10/2005
41128	C08CA05	27/05/2011
1028917	C08CA05	08/02/2008
1371015	C08CA05	28/05/2011
17831080	C08CA05	27/05/2011
2246976	C08CA05	24/05/2011
1903630	C08CA05	31/05/2011
1367330	C08CA05	14/05/2011
420454	C08CA05	23/02/2004
1015995	C08CA05	13/10/2008
26776969	C08CA05	25/03/2011
26707647	C08CA05	25/10/2005
26628351	C08CA05	07/04/2006
2989757	C08CA05	15/05/2011
26628248	C08CA05	25/05/2011
26700941	C08CA05	15/04/2011
12976249	C08CA05	24/09/2010
26616690	C08CA05	28/06/2007
2988044	C08CA05	01/02/2009
26618242	C08CA05	21/03/2003
24581631	C08CA05	18/05/2011
26932881	C08CA05	24/11/2010
26895646	C08CA05	13/01/2010
26897230	C08CA05	20/12/2010
26894714	C08CA05	29/05/2011
26958880	C08CA05	18/09/2001
26889892	C08CA05	18/01/2011
26947472	C08CA05	07/02/2004
26848964	C08CA05	14/03/2011
26857096	C08CA05	18/02/2005
26864665	C08CA05	22/08/2008
26776105	C08CA05	15/12/2009
26865535	C08CA05	13/05/2011
26847161	C08CA05	30/05/2011
26865369	C08CA05	17/05/2011
26900451	C08CA05	10/05/2011
26846476	C08CA05	13/05/2011
26899835	C08CA05	01/06/2011
26847638	C08CA05	16/03/2010
26863249	C08CA05	23/06/2006
26793342	C08CA05	09/11/2007
26783590	C08CA05	31/05/2011
26742253	C08CA05	04/05/2007
26760283	C08CA05	09/06/2006
26804665	C08CA05	27/11/2006
27044460	C08CA05	09/12/2003
26995682	C08CA05	17/05/2011
27079131	C08CA05	27/07/2009
26989418	C08CA05	01/06/2011
27043376	C08CA05	16/12/2004
26946040	C08CA05	01/12/2003
27149748	C08CA05	25/02/2003
27114481	C08CA05	26/05/2011
27098823	C08CA05	08/05/2011
27106791	C08CA05	25/03/2011
27083147	C08CA05	09/05/2011
27137945	C08CA05	26/05/2011
27104236	C08CA05	10/04/2009
27067240	C08CA05	23/05/2010
27065702	C08CA05	26/05/2009
26991408	C08CA05	05/05/2011
26998494	C08CA05	11/05/2011
27041316	C08CA05	27/05/2010
26996377	C08CA05	21/05/2011
26991119	C08CA05	25/05/2011
27022688	C08CA05	25/05/2011
27390255	C08CA05	19/04/2011
27216624	C08CA05	21/02/2011
27166936	C08CA05	30/05/2011
27379843	C08CA05	18/05/2011
27244696	C08CA05	05/03/2007
27319934	C08CA05	20/10/2005
27213909	C08CA05	09/03/2006
27358392	C08CA05	11/10/2006
27316072	C08CA05	25/03/2009
27383112	C08CA05	17/01/2005
27308294	C08CA05	18/03/2008
27315986	C08CA05	27/04/2006
27238217	C08CA05	28/05/2011
27253841	C08CA05	14/01/2008
26988324	C08CA05	13/05/2011
27597152	C08CA05	19/07/2007
27578349	C08CA05	07/05/2011
27643227	C08CA05	05/05/2011
27577033	C08CA05	25/05/2011
27607290	C08CA05	26/06/2007
27614105	C08CA05	09/05/2011
27645505	C08CA05	18/05/2010
27420519	C08CA05	06/04/2011
27470779	C08CA05	16/05/2011
27544065	C08CA05	05/04/2006
27614610	C08CA05	13/06/2009
27283905	C08CA05	13/02/2006
27153595	C08CA05	07/07/2010
27469950	C08CA05	07/02/2007
25741964	C08CA05	30/09/2004
26803917	C08CA05	13/03/2007
27674951	C08CA05	15/05/2011
27535611	C08CA05	09/03/2011
27784418	C08CA05	13/02/2004
27772297	C08CA05	11/05/2011
27773439	C08CA05	28/06/2010
27010455	C08CA05	26/05/2011
26977152	C08CA05	16/05/2011
301444	C08CA05	25/09/2001
27163713	C08CA05	20/05/2011
27633588	C08CA05	16/05/2011
27456174	C08CA05	05/04/2011
27459762	C08CA05	28/05/2011
26933407	C08CA05	26/10/2001
26620792	C08CA05	23/03/2009
26700607	C08CA05	03/05/2011
27805384	C08CA05	09/08/2009
27764988	C08CA05	05/05/2011
27804721	C08CA05	20/05/2011
27718674	C08CA05	01/12/2009
27764235	C08CA05	21/08/2003
27667259	C08CA05	05/05/2009
27707178	C08CA05	05/07/2005
27384357	C08CA05	22/03/2009
18195479	C08CA05	25/02/2004
24667086	C08CA05	16/12/2005
26872972	C08CA05	24/02/2006
27572773	C08CA05	30/05/2011
27718898	C08CA05	20/02/2008
27765473	C08CA05	24/05/2011
27084129	C08CA05	11/05/2011
27778320	C08CA05	20/07/2006
33049981	C08CA05	09/02/2010
33035460	C08CA05	27/02/2009
33065341	C08CA05	16/05/2005
33118427	C08CA05	14/02/2005
33027943	C08CA05	25/05/2011
33087600	C08CA05	02/10/2006
33044627	C08CA05	25/05/2011
33005850	C08CA05	10/02/2011
33067653	C08CA05	19/09/2003
27796872	C08CA05	03/05/2010
27507107	C08CA05	04/03/2008
1361620	C08CA05	20/05/2011
27805215	C08CA05	21/08/2006
2958097	C08CA05	24/07/2008
16167141	C08CA05	01/06/2011
20981877	C08CA05	24/03/2010
21116171	C08CA05	16/05/2011
33021214	C08CA05	06/05/2011
33031799	C08CA05	18/10/2007
33098972	C08CA05	01/06/2011
33023069	C08CA05	28/09/2010
33011985	C08CA05	03/01/2006
33027780	C08CA05	29/12/2004
20982121	C08CA05	25/04/2011
16181789	C08CA05	17/09/2008
33306887	C08CA05	18/05/2011
18771664	C08CA05	19/09/2005
16655753	C08CA05	20/05/2003
16597365	C08CA05	13/05/2011
16184117	C08CA05	12/04/2011
27866343	C08CA05	14/04/2011
21109099	C08CA05	02/12/2005
16601443	C08CA05	26/05/2011
33307357	C08CA05	27/05/2011
23362621	C08CA05	09/05/2011
16634154	C08CA05	23/05/2011
33206545	C08CA05	20/04/2011
16177787	C08CA05	02/04/2007
23370714	C08CA05	25/03/2011
23470810	C08CA05	29/04/2011
16184071	C08CA05	04/05/2011
18770770	C08CA05	13/02/2011
18757155	C08CA05	24/08/2007
33254774	C08CA05	03/05/2011
16596274	C08CA05	19/05/2011
16626274	C08CA05	14/11/2007
33248050	C08CA05	15/04/2011
28022506	C08CA05	22/01/2008
16609724	C08CA05	04/05/2011
33290109	C08CA05	21/04/2010
21107862	C08CA05	03/06/2009
23410103	C08CA05	25/05/2011
18770491	C08CA05	26/03/2009
31487753	C08CA05	23/08/2006
31418563	C08CA05	22/09/2010
33312705	C08CA05	13/05/2011
16129910	C08CA05	08/09/2008
23369532	C08CA05	14/04/2011
23410151	C08CA05	17/05/2011
16186784	C08CA05	12/08/2002
20981736	C08CA05	03/04/2007
23343500	C08CA05	29/04/2011
31983188	C08CA05	08/06/2005
32248650	C08CA05	06/04/2011
31954565	C08CA05	11/11/2010
31367757	C08CA05	31/05/2006
31053990	C08CA05	04/01/2006
32137081	C08CA05	23/12/2010
31938606	C08CA05	06/12/2010
31765083	C08CA05	08/10/2009
31093440	C08CA05	11/09/2008
31236375	C08CA05	26/11/2002
31270206	C08CA05	25/02/2004
31492015	C08CA05	08/07/2010
31067054	C08CA05	21/12/2009
32228106	C08CA05	31/10/2006
31425005	C08CA05	23/02/2009
31184648	C08CA05	13/10/2010
31427792	C08CA05	07/02/2011
32054028	C08CA05	14/11/2008
31821410	C08CA05	23/12/2009
32275690	C08CA05	28/11/2008
32166286	C08CA05	08/11/2010
31432354	C08CA05	21/12/2010
32231333	C08CA05	23/04/2008
31745915	C08CA05	24/03/2003
31407436	C08CA05	16/12/2009
31528243	C08CA05	04/12/2009
31670593	C08CA05	06/10/2010
32065893	C08CA05	30/06/2010
31970563	C08CA05	18/12/2008
31488907	C08CA05	01/03/2004
31315391	C08CA05	29/11/2010
31518181	C08CA05	06/11/2006
32199258	C08CA05	09/12/2009
31634806	C08CA05	03/11/2009
31514428	C08CA05	11/05/2004
31982645	C08CA05	22/05/2008
31577330	C08CA05	14/05/2002
31075591	C08CA05	29/05/2000
31223044	C08CA05	10/12/2007
31282883	C08CA05	30/03/2005
31099227	C08CA05	13/01/2011
31629096	C08CA05	19/10/2010
31396735	C08CA05	25/01/2010
31660692	C08CA05	19/10/2005
31965365	C08CA05	22/12/2010
31366968	C08CA05	28/07/2005
31928477	C08CA05	12/12/2010
31643795	C08CA05	19/10/2009
31242151	C08CA05	15/12/2008
31041581	C08CA05	21/02/2011
31945385	C08CA05	30/09/2009
31111389	C08CA05	04/09/2006
31528759	C08CA05	19/09/2002
31379324	C08CA05	13/05/2010
31270547	C08CA05	31/07/2010
31555309	C08CA05	18/12/2007
31569396	C08CA05	12/12/2005
31496361	C08CA05	24/09/2009
31983463	C08CA05	27/05/2011
31309252	C08CA05	08/05/2009
31355037	C08CA05	29/10/2004
31175621	C08CA05	07/02/2011
31375081	C08CA05	25/04/2006
31691952	C08CA05	20/11/2009
31477485	C08CA05	20/07/2010
31311199	C08CA05	08/06/2004
31301336	C08CA05	09/12/2010
31073316	C08CA05	06/10/2005
31813066	C08CA05	14/06/2007
32226138	C08CA05	28/06/2010
31763774	C08CA05	28/10/2009
31845001	C08CA05	18/10/2004
31960354	C08CA05	09/12/2003
31980952	C08CA05	09/01/2009
31751005	C08CA05	02/02/2011
32151556	C08CA05	10/11/2010
32271150	C08CA05	28/10/2010
31517413	C08CA05	16/02/2011
31556807	C08CA05	24/09/2004
32242783	C08CA05	19/09/2005
31413126	C08CA05	01/03/2011
31601005	C08CA05	02/09/2010
31929829	C08CA05	09/01/2007
32226335	C08CA05	09/10/2009
32125835	C08CA05	22/10/2010
31921601	C08CA05	24/05/2010
31751458	C08CA05	27/10/2010
31853795	C08CA05	10/12/2010
31436135	C08CA05	30/05/2005
32148336	C08CA05	11/12/2008
31946086	C08CA05	02/08/2006
31824460	C08CA05	22/12/2003
31731125	C08CA05	10/02/2011
31725531	C08CA05	26/03/2003
31049512	C08CA05	11/05/2006
