patient_id	covar_name	date
8786306	CAESPI	20/11/2001
7349356	CAESPI	02/09/2005
608864	CAESPI	22/04/2009
1276830	CAESPI	16/10/2003
7849021	CAESPI	11/08/2005
1276627	CAESPI	08/06/2004
25860190	CAESPI	09/08/2001
757643	CAESPI	26/11/1999
26425486	CAESPI	18/04/2001
20147574	CAESPI	03/03/2010
26835533	CAESPI	15/06/2009
22921551	CAESPI	20/07/2010
26959942	CAESPI	11/04/2011
26894950	CAESPI	02/11/2009
27079522	CAESPI	07/02/2008
26997004	CAESPI	20/09/2007
27358673	CAESPI	01/08/2008
27241974	CAESPI	29/05/2008
33057047	CAESPI	07/01/2009
33007764	CAESPI	05/03/2003
33035111	CAESPI	17/12/2009
27084170	CAESPI	11/10/2006
23396737	CAESPI	12/12/2006
16706065	CAESPI	05/09/2008
16610132	CAESPI	05/04/2006
33244635	CAESPI	21/09/2001
23366435	CAESPI	15/05/2006
31461480	CAESPI	29/04/2004
31764799	CAESPI	25/07/2007
32123269	CAESPI	22/06/2005
31150559	CAESPI	12/03/2006
31227877	CAESPI	28/01/2003
31139449	CAESPI	26/09/2008
31656483	CAESPI	06/10/2010
31419290	CAESPI	16/04/2002
31033021	CAESPI	01/01/2000
32133761	CAESPI	17/03/2010
31563177	CAESPI	28/09/2005
31412458	CAESPI	28/09/2006
31473263	CAESPI	27/07/2000
31805286	CAESPI	27/09/2001
