patient_id	covar_name	date
14293625	C03EA04	12/04/2011
15987481	C03EA04	01/06/2011
16530712	C03EA04	03/05/2007
7800178	C03EA04	09/09/2009
7771581	C03EA04	29/04/2011
6602655	C03EA04	15/03/2002
7771352	C03EA04	15/01/2001
1297372	C03EA04	02/05/2007
7848502	C03EA04	25/02/2003
641313	C03EA04	13/04/2009
1419591	C03EA04	07/10/2008
7771744	C03EA04	16/05/2011
7770079	C03EA04	17/09/2008
7967559	C03EA04	07/06/2010
525618	C03EA04	07/09/2000
13987268	C03EA04	14/03/2011
2043156	C03EA04	17/07/2003
2519294	C03EA04	02/04/2011
26410194	C03EA04	06/05/2011
17041554	C03EA04	04/01/2010
28087560	C03EA04	28/04/2011
7128685	C03EA04	17/03/2011
28090218	C03EA04	01/03/2011
7136014	C03EA04	26/01/2011
26852141	C03EA04	02/05/2011
2987010	C03EA04	06/06/2008
26989053	C03EA04	23/05/2011
27066800	C03EA04	14/11/2006
27773248	C03EA04	09/12/2006
27687190	C03EA04	24/05/2011
27674082	C03EA04	14/03/2008
27456174	C03EA04	13/04/2011
33017020	C03EA04	11/12/2001
21109139	C03EA04	13/11/2006
23381575	C03EA04	19/04/2011
16604459	C03EA04	16/04/2008
16138964	C03EA04	24/05/2011
23406273	C03EA04	14/12/2010
31197084	C03EA04	15/03/2011
31547195	C03EA04	07/04/2009
31328924	C03EA04	07/07/2010
31332044	C03EA04	19/11/2010
32160280	C03EA04	05/11/2008
31048154	C03EA04	02/06/2009
31352687	C03EA04	30/03/2009
31447714	C03EA04	15/10/2004
32226916	C03EA04	28/12/2010
32094491	C03EA04	04/05/2010
31160689	C03EA04	20/05/2003
