patient_id	covar_name	date
12790716	C10AB04	21/04/2004
206830	C10AB04	18/04/2011
9230338	C10AB04	29/09/2009
941588	C10AB04	24/09/2007
12194393	C10AB04	21/10/2010
23454734	C10AB04	10/02/2009
7246977	C10AB04	11/03/2011
1940839	C10AB04	26/11/2009
8568002	C10AB04	12/02/2009
23455261	C10AB04	16/10/2009
208451	C10AB04	17/09/2010
22918279	C10AB04	10/05/2011
7094192	C10AB04	25/04/2005
8979056	C10AB04	19/06/2009
12477884	C10AB04	19/05/2011
8557344	C10AB04	04/11/2005
5031500	C10AB04	12/07/2006
9231971	C10AB04	24/07/2003
210163	C10AB04	01/07/2009
9372483	C10AB04	06/04/2011
12479828	C10AB04	04/11/2009
21370276	C10AB04	16/05/2001
1185872	C10AB04	04/10/2006
613057	C10AB04	14/10/2005
9256766	C10AB04	09/06/2000
8960480	C10AB04	19/03/2007
17169135	C10AB04	28/10/2009
12695635	C10AB04	26/05/2011
6179188	C10AB04	19/01/2011
12696060	C10AB04	20/09/2010
1936765	C10AB04	30/05/2011
21152856	C10AB04	07/04/2011
8572419	C10AB04	14/05/2009
10270534	C10AB04	05/01/2011
8277775	C10AB04	30/07/2001
6746503	C10AB04	07/10/2010
8279117	C10AB04	22/08/2007
612341	C10AB04	16/04/2011
10003048	C10AB04	02/12/2009
6747967	C10AB04	15/02/2011
12478237	C10AB04	30/03/2011
1163865	C10AB04	23/05/2008
25048416	C10AB04	28/09/2004
8979607	C10AB04	20/06/2002
10332543	C10AB04	06/05/2011
9231974	C10AB04	28/01/2009
15667731	C10AB04	31/03/2005
23472104	C10AB04	21/02/2007
9373441	C10AB04	08/09/2010
9214840	C10AB04	19/04/2005
16100419	C10AB04	29/01/2007
607911	C10AB04	24/05/2011
12688905	C10AB04	27/04/2011
16557695	C10AB04	24/10/2005
5865734	C10AB04	18/06/2004
24764733	C10AB04	12/01/2011
15669896	C10AB04	23/07/2010
20564727	C10AB04	12/04/2011
9231512	C10AB04	05/07/2005
20546433	C10AB04	19/05/2011
6146361	C10AB04	01/12/2008
25042008	C10AB04	22/01/2007
1515149	C10AB04	31/05/2011
10003982	C10AB04	20/07/2009
8786315	C10AB04	30/08/2002
9388407	C10AB04	27/04/2011
209933	C10AB04	15/06/2010
10270381	C10AB04	27/10/2009
5467749	C10AB04	15/02/2007
9304423	C10AB04	18/04/2011
6626450	C10AB04	07/05/2011
21152518	C10AB04	28/03/2006
9387076	C10AB04	08/04/2008
25048927	C10AB04	17/07/2009
24730055	C10AB04	27/01/2004
6887263	C10AB04	23/09/2005
13916747	C10AB04	08/04/2011
2768457	C10AB04	26/01/2007
7352863	C10AB04	15/07/2005
1202883	C10AB04	14/02/2007
12613838	C10AB04	13/04/2011
1349650	C10AB04	13/10/2004
1276830	C10AB04	26/03/2004
1206620	C10AB04	04/08/2004
1545758	C10AB04	27/12/2001
7770755	C10AB04	19/01/2006
525724	C10AB04	14/04/2010
6594944	C10AB04	03/12/2008
13985993	C10AB04	20/05/2011
1849768	C10AB04	10/07/2009
1424903	C10AB04	23/04/2009
7848344	C10AB04	04/05/2011
1263138	C10AB04	11/10/2000
997043	C10AB04	02/05/2006
1133221	C10AB04	26/07/2007
716938	C10AB04	20/08/2009
1027312	C10AB04	10/12/2004
995675	C10AB04	04/06/2007
1129101	C10AB04	18/10/2004
189189	C10AB04	25/03/2004
1640524	C10AB04	18/05/2004
1581257	C10AB04	25/10/2006
717026	C10AB04	14/02/2006
16037893	C10AB04	07/02/2011
1131855	C10AB04	06/02/2007
1101196	C10AB04	12/04/2002
2133507	C10AB04	15/01/2004
2059982	C10AB04	02/03/2005
2217164	C10AB04	03/11/2008
2059211	C10AB04	28/12/2010
2162696	C10AB04	01/10/2003
2140421	C10AB04	30/03/2007
2053557	C10AB04	21/02/2011
2068620	C10AB04	08/03/2004
2040264	C10AB04	13/12/2004
757408	C10AB04	25/04/2011
1753241	C10AB04	23/06/2006
3053306	C10AB04	28/02/2009
2777759	C10AB04	17/08/2006
2035034	C10AB04	08/04/2010
2055265	C10AB04	28/12/2010
7047183	C10AB04	15/07/2009
2766317	C10AB04	28/06/2005
2777314	C10AB04	02/02/2005
2754738	C10AB04	16/01/2009
16948347	C10AB04	02/11/2010
28063519	C10AB04	11/05/2011
26383930	C10AB04	11/04/2011
17742639	C10AB04	27/12/2000
20146495	C10AB04	25/04/2011
26258038	C10AB04	29/07/2005
17323328	C10AB04	04/05/2011
26384460	C10AB04	01/06/2011
7567270	C10AB04	13/02/2008
7144123	C10AB04	13/12/2001
1910382	C10AB04	21/06/2007
2962363	C10AB04	29/09/2001
302260	C10AB04	03/06/2010
464564	C10AB04	27/02/2009
28083670	C10AB04	29/10/2009
28044182	C10AB04	15/05/2003
28083203	C10AB04	27/11/2001
2777326	C10AB04	21/03/2011
419216	C10AB04	02/01/2004
187189	C10AB04	08/05/2007
304297	C10AB04	16/04/2011
28058974	C10AB04	02/02/2005
28072510	C10AB04	02/12/2003
28071227	C10AB04	10/12/2010
28069718	C10AB04	19/02/2010
28072263	C10AB04	06/07/2005
24665757	C10AB04	22/03/2010
24668234	C10AB04	19/05/2011
24668940	C10AB04	07/03/2005
1373198	C10AB04	03/06/2009
19422888	C10AB04	12/05/2011
18197681	C10AB04	21/01/2011
2988776	C10AB04	25/10/2010
2988353	C10AB04	17/11/2005
26639746	C10AB04	07/12/2009
26824685	C10AB04	02/09/2003
26782658	C10AB04	11/05/2011
12976349	C10AB04	30/10/2003
2988643	C10AB04	17/05/2011
12993397	C10AB04	11/10/2005
26721085	C10AB04	08/05/2011
26627915	C10AB04	07/05/2009
26639325	C10AB04	29/05/2011
24663248	C10AB04	01/02/2011
24655486	C10AB04	19/04/2010
24666854	C10AB04	15/01/2008
21651387	C10AB04	29/12/2010
26723668	C10AB04	18/04/2011
26914516	C10AB04	06/11/2001
26950378	C10AB04	08/04/2011
26782831	C10AB04	26/05/2011
26780527	C10AB04	11/12/2008
26933188	C10AB04	22/11/2002
26834343	C10AB04	18/06/2007
26834768	C10AB04	19/04/2010
26791959	C10AB04	03/06/2009
26973935	C10AB04	13/04/2011
26969569	C10AB04	03/04/2006
27055003	C10AB04	27/05/2011
26989053	C10AB04	29/12/2010
27151273	C10AB04	21/05/2007
27153004	C10AB04	13/09/2005
27074167	C10AB04	24/03/2011
27031301	C10AB04	23/04/2007
27023354	C10AB04	02/06/2010
27012249	C10AB04	19/05/2011
27166936	C10AB04	08/04/2011
27315028	C10AB04	28/03/2008
27368382	C10AB04	13/06/2007
27254123	C10AB04	21/03/2010
27308809	C10AB04	13/05/2011
27324850	C10AB04	17/01/2004
27308260	C10AB04	03/04/2011
27529972	C10AB04	13/05/2011
27251026	C10AB04	24/09/2004
26957374	C10AB04	09/12/2003
27241971	C10AB04	26/05/2011
27640410	C10AB04	03/07/2008
27657894	C10AB04	09/11/2008
27453751	C10AB04	06/05/2011
27658059	C10AB04	23/10/2007
27427637	C10AB04	19/04/2011
27476227	C10AB04	10/10/2005
27469908	C10AB04	12/07/2008
27541995	C10AB04	23/09/2004
27719211	C10AB04	23/05/2011
27764873	C10AB04	10/05/2005
27614612	C10AB04	21/08/2006
27234266	C10AB04	23/10/2006
27167758	C10AB04	18/05/2007
27285551	C10AB04	29/05/2004
27165699	C10AB04	13/05/2011
26637275	C10AB04	04/08/2006
27782560	C10AB04	12/05/2011
27105042	C10AB04	25/05/2011
27309498	C10AB04	06/04/2011
27533492	C10AB04	26/06/2003
27666515	C10AB04	31/08/2004
27673521	C10AB04	10/02/2007
26951205	C10AB04	26/05/2011
27718998	C10AB04	21/10/2008
27797094	C10AB04	10/06/2004
21650765	C10AB04	25/05/2011
27397875	C10AB04	26/05/2011
27783755	C10AB04	31/05/2011
27552757	C10AB04	14/05/2007
18194111	C10AB04	26/07/2002
33051475	C10AB04	12/12/2005
33144464	C10AB04	22/04/2003
33030987	C10AB04	15/09/2005
33065720	C10AB04	20/09/2005
33108370	C10AB04	10/10/2001
33045539	C10AB04	28/11/2001
33107313	C10AB04	16/04/2007
33102563	C10AB04	01/09/2004
33033051	C10AB04	28/11/2007
27661862	C10AB04	20/12/2010
19967442	C10AB04	26/12/2002
420958	C10AB04	27/05/2009
1372143	C10AB04	29/08/2002
16139065	C10AB04	27/11/2000
33012908	C10AB04	16/05/2011
33106625	C10AB04	22/02/2002
33025768	C10AB04	24/05/2011
33091566	C10AB04	14/01/2008
33084046	C10AB04	27/04/2011
16616764	C10AB04	09/02/2009
16655186	C10AB04	09/01/2004
18758648	C10AB04	12/06/2006
20982215	C10AB04	31/10/2008
21109099	C10AB04	15/09/2005
28020948	C10AB04	05/08/2009
33305599	C10AB04	23/05/2011
16636488	C10AB04	05/10/2005
23411987	C10AB04	04/10/2005
20985633	C10AB04	26/03/2009
16186342	C10AB04	01/03/2011
24463283	C10AB04	23/05/2011
16124902	C10AB04	16/04/2010
16684643	C10AB04	10/01/2008
16631934	C10AB04	29/09/2004
16181188	C10AB04	24/03/2010
23350624	C10AB04	16/06/2009
33290109	C10AB04	12/07/2010
23346962	C10AB04	04/12/2008
23410691	C10AB04	15/02/2011
21101295	C10AB04	15/12/2010
33232203	C10AB04	28/04/2011
31181468	C10AB04	30/06/2005
31651218	C10AB04	04/12/2006
16186292	C10AB04	09/02/2011
23405723	C10AB04	10/01/2011
23368271	C10AB04	20/08/2009
16636710	C10AB04	28/04/2010
23410359	C10AB04	29/04/2011
16603711	C10AB04	07/03/2005
16611148	C10AB04	14/09/2005
16621754	C10AB04	01/10/2003
31637638	C10AB04	10/07/2010
31285328	C10AB04	02/04/2007
31165115	C10AB04	20/02/2009
31459026	C10AB04	14/07/2008
31673141	C10AB04	27/02/2006
31727213	C10AB04	17/02/2010
32125350	C10AB04	24/05/2006
31869677	C10AB04	07/12/2010
31393374	C10AB04	23/02/2007
31657424	C10AB04	28/05/2009
31590399	C10AB04	24/06/2004
31282373	C10AB04	12/08/2008
31604841	C10AB04	27/11/2007
31462667	C10AB04	24/10/2005
31604165	C10AB04	16/11/2009
31447892	C10AB04	18/01/2006
32210854	C10AB04	12/06/2008
32036113	C10AB04	20/08/2004
31774615	C10AB04	05/07/2006
31415101	C10AB04	14/11/2006
31140630	C10AB04	21/04/2005
32179446	C10AB04	07/04/2011
31119347	C10AB04	01/04/2011
31343025	C10AB04	15/12/2003
31284999	C10AB04	22/01/2004
31115938	C10AB04	25/06/2008
31884944	C10AB04	18/12/2007
31894356	C10AB04	24/08/2006
32097599	C10AB04	01/03/2011
31682763	C10AB04	17/10/2005
31564150	C10AB04	19/05/2005
31418553	C10AB04	18/06/2010
31839721	C10AB04	31/07/2007
32164475	C10AB04	02/12/2003
31731947	C10AB04	11/08/2004
31505016	C10AB04	21/03/2005
32122580	C10AB04	19/11/2003
31970088	C10AB04	04/04/2007
31330070	C10AB04	29/05/2007
31259853	C10AB04	07/10/2009
31209456	C10AB04	13/11/2009
32245047	C10AB04	21/07/2008
31340734	C10AB04	23/12/2008
31539942	C10AB04	26/03/2010
31656806	C10AB04	13/03/2007
31099705	C10AB04	18/05/2006
31149415	C10AB04	23/01/2009
32155110	C10AB04	12/12/2006
32219687	C10AB04	14/02/2002
31979495	C10AB04	04/05/2007
32083356	C10AB04	28/06/2007
32121144	C10AB04	01/12/2009
32065893	C10AB04	17/03/2010
31357715	C10AB04	12/05/2008
31399669	C10AB04	13/10/2009
32199258	C10AB04	04/02/2009
31041614	C10AB04	05/10/2007
31392273	C10AB04	14/05/2003
31087989	C10AB04	29/09/2008
31770635	C10AB04	18/12/2007
31585717	C10AB04	13/09/2006
31340688	C10AB04	26/01/2007
31120658	C10AB04	05/03/2008
31269024	C10AB04	26/10/2007
31832522	C10AB04	13/09/2004
31741824	C10AB04	08/10/2010
31590424	C10AB04	20/11/2006
32195275	C10AB04	25/04/2007
31414275	C10AB04	04/06/2010
31329070	C10AB04	04/01/2008
31815850	C10AB04	29/10/2002
31761466	C10AB04	15/12/2010
32112412	C10AB04	07/10/2009
31407086	C10AB04	29/02/2008
31920979	C10AB04	16/12/2008
31670179	C10AB04	12/05/2011
31524254	C10AB04	14/07/2005
31628762	C10AB04	01/07/2009
32090695	C10AB04	30/11/2005
31473901	C10AB04	12/08/2009
31298297	C10AB04	26/02/2004
31777809	C10AB04	31/03/2011
32013249	C10AB04	04/01/2006
31172974	C10AB04	23/10/2007
31389366	C10AB04	15/09/2008
31046210	C10AB04	10/01/2011
31274163	C10AB04	06/11/2007
32147698	C10AB04	07/07/2007
31245311	C10AB04	10/03/2000
32182901	C10AB04	08/02/2007
31779985	C10AB04	13/05/2009
31790782	C10AB04	07/10/2010
31407464	C10AB04	15/04/2009
31252528	C10AB04	07/11/2008
31275887	C10AB04	19/01/2006
31528759	C10AB04	17/09/2008
31765514	C10AB04	01/10/2007
31596789	C10AB04	04/12/2009
31895787	C10AB04	15/11/2006
31195300	C10AB04	06/10/2010
31931703	C10AB04	24/04/2009
31370565	C10AB04	21/07/2008
32084841	C10AB04	05/02/2007
31336014	C10AB04	09/11/2009
31137964	C10AB04	21/05/2003
31307160	C10AB04	15/11/2005
31916053	C10AB04	24/01/2011
31333700	C10AB04	04/10/2007
31321280	C10AB04	27/04/2006
32260224	C10AB04	04/05/2007
31986505	C10AB04	24/11/2010
31378120	C10AB04	21/09/2009
31420898	C10AB04	13/11/2006
31995343	C10AB04	06/04/2011
31240257	C10AB04	12/05/2006
31429454	C10AB04	23/05/2007
31301336	C10AB04	28/09/2010
32221360	C10AB04	27/11/2009
32077670	C10AB04	21/03/2011
31184541	C10AB04	18/05/2010
31095601	C10AB04	12/07/2005
31632371	C10AB04	30/01/2011
31582228	C10AB04	30/10/2008
31427676	C10AB04	14/08/2003
32050605	C10AB04	16/01/2008
32263832	C10AB04	08/11/2007
31074922	C10AB04	04/03/2011
32047851	C10AB04	13/07/2010
31359480	C10AB04	21/07/2006
32017354	C10AB04	25/01/2008
31473693	C10AB04	29/11/2006
31473263	C10AB04	27/09/2006
31126735	C10AB04	29/04/2008
31462287	C10AB04	11/08/2010
31847489	C10AB04	30/12/2010
32045046	C10AB04	30/05/2007
31851205	C10AB04	06/09/2002
31805286	C10AB04	03/10/2008
31673165	C10AB04	03/12/2007
31107785	C10AB04	28/07/2003
31183147	C10AB04	29/09/2009
32048175	C10AB04	19/09/2007
31793463	C10AB04	11/10/2000
31076665	C10AB04	28/04/2004
31593910	C10AB04	29/10/2008
31924637	C10AB04	19/02/2009
