patient_id	covar_name	date
5034754	D01AE16	16/12/2010
24730236	D01AE16	18/01/2010
7220933	D01AE16	31/10/2008
24950976	D01AE16	17/11/2010
12774510	D01AE16	20/03/2009
6166130	D01AE16	16/06/2010
7494821	D01AE16	17/03/2010
5812917	D01AE16	11/05/2010
10245976	D01AE16	26/11/2010
8580879	D01AE16	27/10/2006
1334993	D01AE16	19/01/2009
3123986	D01AE16	28/04/2010
7407178	D01AE16	04/03/2010
210163	D01AE16	08/11/2004
3288827	D01AE16	20/09/2005
8699270	D01AE16	14/06/2010
8976879	D01AE16	18/07/2006
12182293	D01AE16	13/03/2009
10267667	D01AE16	11/08/2006
8279178	D01AE16	10/05/2005
18750862	D01AE16	22/07/2010
25072222	D01AE16	29/04/2009
9177281	D01AE16	19/02/2007
6748141	D01AE16	22/11/2006
9376813	D01AE16	30/10/2007
21370724	D01AE16	17/08/2009
17049862	D01AE16	07/03/2011
732315	D01AE16	29/07/2010
20529358	D01AE16	13/05/2010
9346624	D01AE16	16/08/2010
11660918	D01AE16	04/11/2009
702001	D01AE16	16/09/2010
8976554	D01AE16	04/07/2005
11993405	D01AE16	18/05/2010
3120889	D01AE16	28/09/2006
941795	D01AE16	22/05/2008
9347210	D01AE16	06/06/2008
3117787	D01AE16	27/05/2009
5026215	D01AE16	08/11/2006
16531906	D01AE16	07/08/2003
20564026	D01AE16	26/01/2000
8277262	D01AE16	27/06/2007
8974679	D01AE16	15/01/2008
9211842	D01AE16	08/10/2009
701963	D01AE16	28/02/2011
5029698	D01AE16	10/05/2005
1125167	D01AE16	14/03/2011
7244033	D01AE16	29/12/2003
15425387	D01AE16	27/04/2010
1007962	D01AE16	18/02/2008
702531	D01AE16	06/10/2008
12174280	D01AE16	24/10/2005
16927439	D01AE16	30/04/2009
3302927	D01AE16	14/12/2007
1330418	D01AE16	26/05/2008
3502435	D01AE16	25/11/2008
9249338	D01AE16	19/01/2006
12730840	D01AE16	09/06/2006
5021335	D01AE16	10/02/2009
20910320	D01AE16	11/03/2011
8973282	D01AE16	20/08/2004
12790408	D01AE16	26/04/2010
15402656	D01AE16	18/04/2011
5865734	D01AE16	10/03/2011
5740380	D01AE16	19/11/2008
20546500	D01AE16	25/09/2008
8559290	D01AE16	20/07/2006
5031618	D01AE16	08/09/2009
1336008	D01AE16	01/09/2008
6746258	D01AE16	03/02/2009
10246462	D01AE16	18/01/2011
3328312	D01AE16	14/08/2006
8581195	D01AE16	04/02/2011
16097957	D01AE16	29/02/2008
8556671	D01AE16	02/04/2009
736944	D01AE16	11/10/2004
3292946	D01AE16	28/05/2010
6746455	D01AE16	15/12/2010
19228281	D01AE16	15/07/2005
15426039	D01AE16	24/03/2006
25062686	D01AE16	04/06/2009
7244041	D01AE16	27/05/2011
1064683	D01AE16	09/07/2010
7162015	D01AE16	03/03/2010
12182966	D01AE16	12/01/2010
16977568	D01AE16	13/07/2007
24764612	D01AE16	24/07/2006
8581826	D01AE16	14/11/2008
9214936	D01AE16	12/05/2010
10331912	D01AE16	05/01/2010
8654379	D01AE16	06/03/2009
12738517	D01AE16	01/09/2010
16098498	D01AE16	22/06/2010
19184721	D01AE16	20/05/2004
8559573	D01AE16	15/04/2005
9984869	D01AE16	14/09/2010
19299305	D01AE16	06/04/2011
21371366	D01AE16	17/10/2008
13733796	D01AE16	19/02/2010
15899941	D01AE16	30/05/2011
9319598	D01AE16	27/04/2011
7968770	D01AE16	25/04/2011
4699710	D01AE16	12/05/2009
647526	D01AE16	02/02/2007
6603505	D01AE16	15/10/2010
4700861	D01AE16	26/07/2010
1090730	D01AE16	24/05/2010
1446158	D01AE16	01/06/2005
10178790	D01AE16	22/07/2008
12809904	D01AE16	01/04/2011
1669821	D01AE16	16/08/2006
7849381	D01AE16	19/12/2005
514728	D01AE16	10/07/2009
13986597	D01AE16	06/02/2006
1353177	D01AE16	19/06/2001
24719453	D01AE16	18/05/2007
647177	D01AE16	19/11/2010
1205551	D01AE16	22/02/2006
1849374	D01AE16	01/03/2010
1426241	D01AE16	28/12/2005
12612964	D01AE16	05/03/2009
12188431	D01AE16	07/05/2003
514774	D01AE16	20/01/2009
6597633	D01AE16	18/04/2011
1670590	D01AE16	27/05/2002
1296367	D01AE16	13/05/2009
1206620	D01AE16	01/09/2005
1418406	D01AE16	30/07/2007
7849372	D01AE16	17/07/2007
4426523	D01AE16	22/06/2010
1346900	D01AE16	30/03/2010
24719884	D01AE16	19/05/2009
1296791	D01AE16	03/12/2009
7771937	D01AE16	30/07/2007
8063488	D01AE16	27/06/2003
639892	D01AE16	17/03/2010
8061402	D01AE16	29/03/2011
12613148	D01AE16	16/10/2008
4700483	D01AE16	03/08/2009
6591833	D01AE16	28/04/2006
7657311	D01AE16	15/02/2011
1546123	D01AE16	17/06/2008
1205994	D01AE16	03/06/2009
7781275	D01AE16	02/07/2007
1200860	D01AE16	21/12/2010
8067453	D01AE16	31/03/2005
7771744	D01AE16	18/11/2009
1206818	D01AE16	06/07/2004
1355892	D01AE16	17/08/2006
1208366	D01AE16	10/11/2010
1295728	D01AE16	16/01/2004
12187307	D01AE16	02/04/2004
1417323	D01AE16	15/04/2011
639203	D01AE16	06/05/2011
24910372	D01AE16	18/04/2011
7801775	D01AE16	06/07/2004
13986458	D01AE16	13/01/2005
1355824	D01AE16	13/11/2007
15696603	D01AE16	28/01/2011
515769	D01AE16	11/07/2006
4700452	D01AE16	22/06/2010
564951	D01AE16	14/01/2011
647941	D01AE16	27/06/2008
1415968	D01AE16	07/09/2004
1356577	D01AE16	05/11/2008
515988	D01AE16	14/09/2010
1171735	D01AE16	12/01/2006
1853440	D01AE16	15/04/2011
7770805	D01AE16	08/03/2010
1203732	D01AE16	20/05/2005
17606613	D01AE16	15/09/2010
7800396	D01AE16	22/02/2011
1444116	D01AE16	22/01/2008
25248948	D01AE16	28/08/2006
7966096	D01AE16	30/12/2008
8955143	D01AE16	11/04/2007
1443262	D01AE16	26/09/2008
6594999	D01AE16	10/08/2009
13987268	D01AE16	04/01/2010
2552474	D01AE16	29/03/2010
13986679	D01AE16	17/02/2009
5991520	D01AE16	10/11/2006
6951044	D01AE16	26/09/2007
638892	D01AE16	27/07/2009
6598193	D01AE16	17/02/2010
1132387	D01AE16	04/06/2010
25767713	D01AE16	22/08/2005
1130755	D01AE16	31/05/2011
1128976	D01AE16	09/05/2011
1102247	D01AE16	02/11/2006
1110970	D01AE16	04/05/2006
3807400	D01AE16	24/06/2010
1108078	D01AE16	09/05/2011
25776562	D01AE16	30/04/2009
25769030	D01AE16	06/07/2004
25883547	D01AE16	16/07/2010
1102000	D01AE16	14/12/2005
996393	D01AE16	04/05/2004
1640729	D01AE16	30/09/2003
1132627	D01AE16	07/02/2008
487173	D01AE16	26/03/2009
487002	D01AE16	07/02/2006
25908066	D01AE16	18/03/2011
890380	D01AE16	30/01/2004
1101196	D01AE16	28/06/2006
2139967	D01AE16	01/04/2005
2215335	D01AE16	03/08/2007
2143729	D01AE16	29/08/2003
2145231	D01AE16	24/05/2010
2218970	D01AE16	03/11/2008
2139418	D01AE16	30/01/2008
2053983	D01AE16	14/03/2011
1764608	D01AE16	23/02/2011
1755826	D01AE16	12/12/2007
2140421	D01AE16	16/11/2009
2143483	D01AE16	01/03/2006
2139279	D01AE16	30/01/2007
2142967	D01AE16	30/04/2007
903902	D01AE16	22/10/2004
2038338	D01AE16	19/12/2002
903860	D01AE16	07/03/2007
756971	D01AE16	25/03/2008
858925	D01AE16	08/08/2007
1766799	D01AE16	29/10/2010
874441	D01AE16	14/04/2003
1766657	D01AE16	09/12/2009
3051712	D01AE16	17/06/2009
2778683	D01AE16	02/03/2011
3052617	D01AE16	03/10/2005
2773960	D01AE16	30/11/2007
2754283	D01AE16	01/04/2009
2714643	D01AE16	25/06/2008
2755270	D01AE16	24/03/2008
2755318	D01AE16	17/04/2007
2756684	D01AE16	25/06/2004
2713583	D01AE16	23/06/2006
2521381	D01AE16	11/03/2008
2522658	D01AE16	18/06/2009
16979732	D01AE16	31/08/2009
2520793	D01AE16	06/08/2010
2713954	D01AE16	06/10/2010
2408212	D01AE16	04/11/2005
26529186	D01AE16	30/12/2010
26351975	D01AE16	13/09/2010
26481067	D01AE16	20/02/2001
28044409	D01AE16	30/09/2008
26461925	D01AE16	03/09/2008
26461456	D01AE16	21/09/2009
7144347	D01AE16	27/12/2010
20147123	D01AE16	26/05/2009
17041460	D01AE16	30/07/2009
7137854	D01AE16	11/06/2009
17742348	D01AE16	11/05/2011
26256676	D01AE16	07/02/2005
26462074	D01AE16	13/12/2005
26243831	D01AE16	30/04/2011
28042198	D01AE16	13/04/2005
22092867	D01AE16	14/06/2007
26199050	D01AE16	16/02/2010
26384859	D01AE16	16/06/2010
18472156	D01AE16	06/02/2007
26236453	D01AE16	20/05/2010
16835935	D01AE16	25/03/2004
16952005	D01AE16	21/06/2007
12967061	D01AE16	14/12/2007
17742172	D01AE16	02/12/2010
17040205	D01AE16	09/04/2008
7136999	D01AE16	12/05/2008
14347072	D01AE16	05/05/2009
16836311	D01AE16	28/05/2009
11162423	D01AE16	10/12/2010
10454008	D01AE16	22/01/2009
185783	D01AE16	29/07/2009
434967	D01AE16	05/04/2003
6635677	D01AE16	04/05/2005
464363	D01AE16	10/06/2009
304505	D01AE16	20/12/2010
759194	D01AE16	04/12/2009
26478302	D01AE16	02/02/2010
28075157	D01AE16	19/08/2010
2522355	D01AE16	26/12/2006
28081569	D01AE16	04/03/2009
2778926	D01AE16	18/07/2008
2776172	D01AE16	09/10/2006
28078871	D01AE16	13/05/2009
28086148	D01AE16	10/09/2009
186094	D01AE16	15/04/2010
7136413	D01AE16	20/07/2007
419216	D01AE16	23/02/2010
304372	D01AE16	12/06/2006
427372	D01AE16	03/09/2004
2068739	D01AE16	29/05/2008
423166	D01AE16	23/03/2007
305231	D01AE16	18/03/2011
433666	D01AE16	18/03/2011
28041657	D01AE16	20/06/2007
28072320	D01AE16	09/12/2010
28087444	D01AE16	18/12/2006
28049554	D01AE16	08/02/2007
28066204	D01AE16	27/10/2005
28093217	D01AE16	28/02/2008
28069835	D01AE16	11/08/2010
28078808	D01AE16	24/09/2010
24665617	D01AE16	21/01/2011
24665274	D01AE16	24/05/2010
25723788	D01AE16	27/01/2009
24670517	D01AE16	17/10/2003
24655248	D01AE16	18/06/2001
25558478	D01AE16	20/07/2010
1021057	D01AE16	11/03/2010
1362938	D01AE16	04/02/2003
620834	D01AE16	04/05/2011
1030033	D01AE16	23/11/2010
1031036	D01AE16	15/03/2004
1368854	D01AE16	25/01/2010
18189167	D01AE16	16/02/2004
18197953	D01AE16	27/10/2006
16841220	D01AE16	17/06/2009
16568500	D01AE16	10/02/2010
8049938	D01AE16	12/02/2008
2249815	D01AE16	26/09/2001
2959054	D01AE16	03/01/2008
12980321	D01AE16	22/12/2009
422072	D01AE16	03/05/2011
26618414	D01AE16	23/03/2011
26722036	D01AE16	13/11/2009
26833423	D01AE16	02/05/2008
26830352	D01AE16	24/05/2010
22881967	D01AE16	26/09/2008
16105363	D01AE16	14/05/2008
16105473	D01AE16	27/11/2009
16844100	D01AE16	24/05/2010
16567893	D01AE16	05/11/2009
12876840	D01AE16	01/04/2005
25740918	D01AE16	23/04/2009
26626604	D01AE16	02/03/2007
26616698	D01AE16	13/05/2008
24581066	D01AE16	11/03/2005
21651643	D01AE16	22/12/2009
21651863	D01AE16	11/05/2006
26897692	D01AE16	07/07/2010
26916169	D01AE16	09/05/2007
26899361	D01AE16	11/05/2011
26950407	D01AE16	16/08/2005
26879235	D01AE16	18/05/2011
26768998	D01AE16	11/06/2010
26771622	D01AE16	26/06/2008
26899205	D01AE16	10/12/2010
26859120	D01AE16	17/02/2006
26877329	D01AE16	02/09/2003
26877242	D01AE16	27/04/2005
26874201	D01AE16	14/10/2004
26847639	D01AE16	24/08/2010
26800376	D01AE16	27/04/2011
26725440	D01AE16	18/10/2007
26793692	D01AE16	30/05/2011
27052318	D01AE16	12/11/2009
27034247	D01AE16	06/09/2010
26969723	D01AE16	09/03/2010
26958269	D01AE16	22/08/2005
27102099	D01AE16	06/02/2006
27088683	D01AE16	14/04/2008
27085859	D01AE16	20/07/2007
27037601	D01AE16	31/10/2005
27133317	D01AE16	08/11/2005
27116096	D01AE16	31/01/2011
27137973	D01AE16	12/09/2002
27034569	D01AE16	03/10/2006
27043694	D01AE16	06/02/2008
27064536	D01AE16	02/05/2011
27038308	D01AE16	22/07/2009
26998494	D01AE16	10/03/2011
27040517	D01AE16	08/03/2004
27041316	D01AE16	13/10/2008
27039385	D01AE16	04/04/2008
27014753	D01AE16	15/05/2007
27012120	D01AE16	14/09/2009
27041490	D01AE16	10/06/2009
27172399	D01AE16	15/07/2010
27368500	D01AE16	01/03/2005
27152044	D01AE16	27/11/2001
27348565	D01AE16	24/06/2005
27130080	D01AE16	05/05/2009
27146909	D01AE16	29/01/2010
27364092	D01AE16	14/02/2011
27368490	D01AE16	04/06/2010
27253604	D01AE16	15/10/2007
27314992	D01AE16	04/09/2009
27249436	D01AE16	27/05/2005
27236706	D01AE16	13/11/2006
27318011	D01AE16	21/08/2006
27315277	D01AE16	25/02/2011
27533448	D01AE16	24/06/2010
27304667	D01AE16	04/09/2008
27361885	D01AE16	18/09/2008
27320895	D01AE16	26/11/2007
27326552	D01AE16	09/02/2005
27317311	D01AE16	22/01/2010
27366113	D01AE16	28/12/2007
26999911	D01AE16	10/06/2010
27247425	D01AE16	04/09/2006
26954926	D01AE16	19/08/2010
27571525	D01AE16	25/08/2009
27589187	D01AE16	05/07/2010
27660829	D01AE16	11/08/2009
27427591	D01AE16	29/10/2002
27647443	D01AE16	29/12/2009
27481473	D01AE16	09/09/2008
27460549	D01AE16	29/09/2010
27458483	D01AE16	16/06/2009
27413526	D01AE16	16/09/2009
27716882	D01AE16	04/02/2005
27719211	D01AE16	24/03/2010
27565661	D01AE16	06/08/2004
27159542	D01AE16	16/02/2010
27147326	D01AE16	05/06/2002
27285919	D01AE16	29/04/2011
27150593	D01AE16	19/12/2007
27413979	D01AE16	05/12/2005
26718290	D01AE16	23/02/2009
25741964	D01AE16	24/05/2007
27023429	D01AE16	14/09/2009
27014620	D01AE16	28/11/2008
27301418	D01AE16	24/01/2011
27105438	D01AE16	10/01/2011
27772101	D01AE16	22/08/2008
27563279	D01AE16	02/12/2010
27769906	D01AE16	29/09/2005
27457636	D01AE16	11/07/2005
27779259	D01AE16	07/04/2011
27768769	D01AE16	05/05/2011
24581729	D01AE16	01/08/2007
27684240	D01AE16	02/09/2002
27680848	D01AE16	07/04/2010
27780623	D01AE16	29/10/2007
27810748	D01AE16	17/06/2009
27682325	D01AE16	21/10/2005
27648580	D01AE16	25/11/2004
27321099	D01AE16	28/10/2010
27574050	D01AE16	20/04/2011
27533143	D01AE16	21/04/2009
26895421	D01AE16	20/06/2008
26830544	D01AE16	25/02/2009
27244108	D01AE16	12/04/2007
27620824	D01AE16	20/05/2009
21651701	D01AE16	21/12/2004
27764992	D01AE16	23/07/2008
2964302	D01AE16	30/03/2009
19796397	D01AE16	30/09/2002
26959747	D01AE16	07/08/2006
27809780	D01AE16	12/12/2003
27758964	D01AE16	15/04/2010
27669763	D01AE16	04/01/2007
27665005	D01AE16	19/12/2005
27285750	D01AE16	02/11/2006
27715841	D01AE16	30/03/2006
27576566	D01AE16	09/03/2011
1373348	D01AE16	13/11/2001
27574464	D01AE16	19/11/2010
27720525	D01AE16	21/07/2010
19800992	D01AE16	09/10/2008
27148088	D01AE16	15/03/2005
27597341	D01AE16	04/12/2008
26831340	D01AE16	02/12/2010
27356544	D01AE16	27/01/2009
27668760	D01AE16	26/04/2004
19800473	D01AE16	16/01/2008
27716352	D01AE16	18/05/2010
27765475	D01AE16	20/05/2011
27758941	D01AE16	19/01/2010
27366514	D01AE16	04/01/2010
26858332	D01AE16	09/11/2010
33100103	D01AE16	10/05/2011
33067338	D01AE16	12/12/2005
33050624	D01AE16	06/09/2010
33098550	D01AE16	20/05/2009
33086922	D01AE16	05/04/2006
33128799	D01AE16	05/01/2009
33092896	D01AE16	11/09/2007
33099563	D01AE16	31/07/2008
33011602	D01AE16	20/05/2011
33113359	D01AE16	05/05/2010
33021697	D01AE16	06/05/2011
33038577	D01AE16	22/04/2009
33110326	D01AE16	02/10/2009
33006461	D01AE16	14/11/2001
33089427	D01AE16	26/03/2010
33021631	D01AE16	30/03/2005
33003004	D01AE16	30/08/2005
33094236	D01AE16	05/07/2010
33079795	D01AE16	08/10/2009
33034235	D01AE16	13/04/2011
33072464	D01AE16	07/06/2010
33071523	D01AE16	14/06/2010
33020304	D01AE16	28/08/2008
33073796	D01AE16	01/03/2011
33073771	D01AE16	26/05/2009
33023752	D01AE16	09/10/2009
33080535	D01AE16	30/04/2009
33083974	D01AE16	05/05/2010
33072776	D01AE16	08/08/2005
33015203	D01AE16	21/11/2006
33064699	D01AE16	30/05/2011
33058269	D01AE16	07/05/2009
27812316	D01AE16	14/11/2007
12994297	D01AE16	08/10/2008
24662830	D01AE16	14/03/2007
27796986	D01AE16	17/01/2011
183728	D01AE16	26/05/2010
16567941	D01AE16	15/05/2009
33086713	D01AE16	30/11/2010
18759143	D01AE16	28/08/2006
33034636	D01AE16	29/07/2010
33072639	D01AE16	15/10/2007
33020265	D01AE16	30/11/2009
33026712	D01AE16	26/08/2010
33056325	D01AE16	13/09/2006
33063405	D01AE16	17/04/2009
33110773	D01AE16	27/11/2009
33099541	D01AE16	26/09/2006
33078108	D01AE16	29/05/2009
33086301	D01AE16	05/10/2009
33106615	D01AE16	07/01/2011
33074065	D01AE16	23/09/2010
33032465	D01AE16	15/04/2008
33074768	D01AE16	01/02/2010
33085777	D01AE16	20/04/2011
33020543	D01AE16	09/05/2005
33086557	D01AE16	07/01/2008
33066417	D01AE16	08/04/2008
33050169	D01AE16	05/12/2008
33004014	D01AE16	12/01/2011
33103900	D01AE16	21/03/2007
33043124	D01AE16	18/11/2009
33055487	D01AE16	23/04/2009
33053621	D01AE16	23/12/2010
33010439	D01AE16	21/05/2010
33047454	D01AE16	04/05/2011
33099244	D01AE16	03/01/2003
33079612	D01AE16	05/01/2009
33064283	D01AE16	11/05/2009
33080840	D01AE16	24/03/2011
21109999	D01AE16	10/04/2006
18768377	D01AE16	02/02/2007
28026007	D01AE16	09/02/2011
14187073	D01AE16	27/05/2011
28018038	D01AE16	19/03/2009
28029025	D01AE16	08/04/2011
18770852	D01AE16	16/11/2007
23361804	D01AE16	08/11/2010
27915318	D01AE16	20/12/2005
16610132	D01AE16	09/10/2007
16649321	D01AE16	16/07/2008
23336596	D01AE16	29/06/2007
18769370	D01AE16	15/04/2008
16613546	D01AE16	22/07/2010
23346872	D01AE16	15/03/2011
16623848	D01AE16	02/12/2005
23402116	D01AE16	09/09/2003
16178121	D01AE16	17/01/2007
23349723	D01AE16	15/03/2011
16611002	D01AE16	14/07/2009
16169282	D01AE16	17/05/2006
16706166	D01AE16	19/08/2010
33290750	D01AE16	21/02/2011
31754311	D01AE16	15/06/2004
33232130	D01AE16	31/03/2011
33245848	D01AE16	03/04/2007
23176421	D01AE16	17/12/2009
33290165	D01AE16	11/01/2011
23326983	D01AE16	09/09/2005
23355236	D01AE16	23/12/2010
18755574	D01AE16	10/05/2005
23350638	D01AE16	22/03/2011
31603848	D01AE16	04/02/2010
31522402	D01AE16	03/02/2009
31638063	D01AE16	25/10/2010
32010493	D01AE16	07/04/2011
31139565	D01AE16	12/08/2003
31359861	D01AE16	03/03/2000
31107103	D01AE16	31/05/2007
31338329	D01AE16	29/07/2008
31109718	D01AE16	19/10/2005
32015261	D01AE16	27/08/2007
31166367	D01AE16	14/07/2004
32201378	D01AE16	11/04/2007
32023831	D01AE16	03/11/2009
31733459	D01AE16	04/11/2005
31445258	D01AE16	13/10/2010
31330137	D01AE16	13/04/2010
31749706	D01AE16	17/03/2009
31805950	D01AE16	27/04/2006
31796372	D01AE16	20/10/2006
32184374	D01AE16	22/12/2004
31933979	D01AE16	21/06/2006
32127822	D01AE16	02/12/2008
31166148	D01AE16	21/05/2010
31922867	D01AE16	11/09/2007
31230585	D01AE16	11/08/2008
31841569	D01AE16	22/03/2007
32170654	D01AE16	08/10/2007
31462347	D01AE16	11/11/2008
32144155	D01AE16	04/04/2002
31259515	D01AE16	13/07/2005
32187488	D01AE16	15/10/2008
31246912	D01AE16	28/10/2009
32058550	D01AE16	27/09/2010
31722801	D01AE16	15/07/2004
31462227	D01AE16	18/07/2008
31149959	D01AE16	06/06/2007
31292908	D01AE16	31/05/2007
31101485	D01AE16	12/05/2005
31299460	D01AE16	26/01/2007
31706400	D01AE16	10/08/2007
31217153	D01AE16	23/10/2006
31620318	D01AE16	03/02/2006
31460974	D01AE16	15/06/2009
32002228	D01AE16	09/11/2006
32090008	D01AE16	05/04/2011
31624771	D01AE16	04/06/2004
32283839	D01AE16	17/12/2009
31342310	D01AE16	26/02/2003
32133762	D01AE16	26/09/2006
31747891	D01AE16	05/09/2008
31109367	D01AE16	21/04/2005
31301351	D01AE16	14/02/2006
31749166	D01AE16	21/05/2009
32174861	D01AE16	24/10/2005
31423757	D01AE16	25/03/2009
31678310	D01AE16	04/06/2009
32111233	D01AE16	11/04/2008
31163973	D01AE16	20/11/2007
32180519	D01AE16	29/07/2008
31478641	D01AE16	19/05/2009
31299767	D01AE16	25/08/2009
31877486	D01AE16	14/02/2005
31707939	D01AE16	21/02/2007
32246352	D01AE16	06/07/2007
31259396	D01AE16	10/04/2008
31249371	D01AE16	10/03/2008
31927982	D01AE16	31/05/2007
31248417	D01AE16	15/01/2008
31851612	D01AE16	15/03/2004
32244371	D01AE16	06/11/2007
32094593	D01AE16	04/10/2010
31464229	D01AE16	05/04/2004
32049967	D01AE16	18/04/2007
32006163	D01AE16	28/11/2005
31480774	D01AE16	27/08/2009
31502961	D01AE16	20/09/2004
31165906	D01AE16	13/07/2009
31390850	D01AE16	09/10/2009
31342721	D01AE16	14/10/2008
31054420	D01AE16	17/03/2009
31906165	D01AE16	22/05/2008
32065737	D01AE16	10/04/2007
31263556	D01AE16	12/03/2010
31232500	D01AE16	26/04/2005
31035978	D01AE16	06/10/2009
31307903	D01AE16	18/04/2006
31160073	D01AE16	26/03/2010
31992521	D01AE16	05/05/2006
31099227	D01AE16	02/10/2003
31830714	D01AE16	06/07/2001
31714507	D01AE16	09/11/2007
31683340	D01AE16	02/01/2004
31066230	D01AE16	06/07/2009
31138935	D01AE16	27/09/2004
31632041	D01AE16	28/08/2009
31892034	D01AE16	03/03/2004
31389301	D01AE16	22/08/2006
32183683	D01AE16	25/10/2005
31084179	D01AE16	24/01/2007
32083284	D01AE16	03/09/2010
31500300	D01AE16	18/06/2003
32094579	D01AE16	15/10/2004
31963943	D01AE16	04/12/2008
32096106	D01AE16	19/05/2006
31301911	D01AE16	07/12/2007
31838556	D01AE16	04/11/2008
31961565	D01AE16	12/05/2003
31046210	D01AE16	15/12/2009
31195889	D01AE16	18/12/2007
31957512	D01AE16	11/12/2009
32179849	D01AE16	15/01/2009
31328114	D01AE16	02/08/2010
31406734	D01AE16	26/10/2006
32095769	D01AE16	27/03/2006
31608205	D01AE16	19/12/2006
32182901	D01AE16	19/09/2005
31191783	D01AE16	20/10/2008
31876637	D01AE16	17/09/2009
31426461	D01AE16	14/03/2008
31248815	D01AE16	22/06/2006
31241823	D01AE16	18/08/2003
31174190	D01AE16	12/02/2010
31279289	D01AE16	04/08/2009
31765514	D01AE16	15/07/2010
31542939	D01AE16	11/05/2007
31503486	D01AE16	30/04/2007
31624444	D01AE16	08/05/2009
31068689	D01AE16	02/11/2007
32235931	D01AE16	03/09/2007
31632909	D01AE16	06/02/2009
31667099	D01AE16	03/11/2010
31171608	D01AE16	14/12/2004
32274506	D01AE16	10/09/2009
31570040	D01AE16	23/01/2007
31583058	D01AE16	02/04/2009
31115636	D01AE16	04/12/2008
31033021	D01AE16	25/02/2005
31611337	D01AE16	09/02/2005
32176198	D01AE16	06/08/2008
32228144	D01AE16	14/06/2007
32004779	D01AE16	25/01/2010
31669160	D01AE16	20/03/2009
31500194	D01AE16	07/07/2008
32083953	D01AE16	23/07/2009
31575578	D01AE16	12/11/2009
31198323	D01AE16	14/05/2010
31700541	D01AE16	04/05/2009
31367892	D01AE16	16/07/2009
31489393	D01AE16	17/05/2002
31907627	D01AE16	08/09/2005
31522583	D01AE16	19/12/2008
32069234	D01AE16	10/12/2010
31771079	D01AE16	24/03/2009
31571646	D01AE16	15/02/2010
31442079	D01AE16	08/01/2010
31306717	D01AE16	26/12/2005
31720251	D01AE16	31/01/2007
32247368	D01AE16	22/02/2010
32149750	D01AE16	11/02/2009
31610267	D01AE16	19/07/2007
31233103	D01AE16	23/08/2010
32125538	D01AE16	23/02/2006
31633415	D01AE16	16/12/2010
31076403	D01AE16	27/07/2006
31201230	D01AE16	28/12/2006
32179438	D01AE16	28/09/2005
31636464	D01AE16	09/10/2007
31910582	D01AE16	23/07/2001
31634632	D01AE16	24/06/2004
31641752	D01AE16	07/05/2008
31981251	D01AE16	10/12/2007
31196419	D01AE16	30/11/2009
31202980	D01AE16	14/03/2008
31707970	D01AE16	20/12/2010
31524768	D01AE16	22/01/2007
31563701	D01AE16	18/07/2006
31166106	D01AE16	25/06/2009
31928343	D01AE16	29/05/2007
32161614	D01AE16	25/04/2006
32152072	D01AE16	07/01/2010
31694665	D01AE16	29/04/2005
31088911	D01AE16	20/10/2009
31459563	D01AE16	29/09/2005
31242021	D01AE16	17/09/2009
32190434	D01AE16	15/11/2005
31362191	D01AE16	08/03/2006
31598809	D01AE16	25/11/2010
32233104	D01AE16	11/12/2007
31751029	D01AE16	14/07/2008
31608836	D01AE16	05/10/2004
31100972	D01AE16	21/02/2007
32206632	D01AE16	27/02/2009
31464524	D01AE16	12/05/2008
31555376	D01AE16	06/05/2009
