patient_id	covar_name	date
6416555	EPOC	23/11/2009
9212611	EPOC	26/06/2006
11994028	EPOC	23/12/2008
3122629	EPOC	30/11/2009
8975154	EPOC	30/06/2003
23454844	EPOC	25/11/2008
5867543	EPOC	18/04/2002
9311044	EPOC	24/07/2001
6757389	EPOC	19/09/2007
7242734	EPOC	20/02/2007
17969122	EPOC	08/02/2010
17361649	EPOC	18/05/2010
9298966	EPOC	30/04/1999
25047568	EPOC	10/06/1998
25051945	EPOC	10/01/2006
3292667	EPOC	13/11/2003
8786220	EPOC	20/02/2001
6749295	EPOC	09/03/2011
2768422	EPOC	04/02/2004
3328431	EPOC	09/01/2004
16559078	EPOC	06/04/2004
9349186	EPOC	23/04/2010
63243	EPOC	16/03/2001
17172555	EPOC	03/01/2008
24721032	EPOC	19/01/2011
1666001	EPOC	15/05/2002
1200673	EPOC	10/11/1994
1170363	EPOC	18/05/2000
1848720	EPOC	17/09/2007
6594944	EPOC	01/03/2001
515787	EPOC	29/07/2002
26139493	EPOC	09/09/2004
648336	EPOC	01/01/1999
6842058	EPOC	23/05/2007
7780404	EPOC	21/03/2005
15696603	EPOC	11/07/2002
1204719	EPOC	18/04/2002
13264943	EPOC	29/12/2008
7777716	EPOC	06/11/2009
6423378	EPOC	21/03/2002
7770064	EPOC	13/11/2009
651271	EPOC	19/05/2010
1647457	EPOC	24/10/2002
1027312	EPOC	25/10/2001
1579746	EPOC	11/01/2001
999093	EPOC	22/10/2004
21283186	EPOC	17/05/2002
2238624	EPOC	17/06/2010
2164170	EPOC	15/06/2010
1755227	EPOC	04/12/2002
1755991	EPOC	06/02/2003
7048927	EPOC	31/03/2008
26350464	EPOC	16/03/2010
26423547	EPOC	17/05/2006
23890725	EPOC	15/06/1977
2958619	EPOC	20/08/2004
2958823	EPOC	09/01/2006
2215450	EPOC	03/12/2010
648824	EPOC	01/01/1996
24663127	EPOC	20/02/2009
1030137	EPOC	13/07/2004
18197591	EPOC	09/09/2004
420454	EPOC	01/02/2004
1899549	EPOC	10/03/2005
26638407	EPOC	01/10/2010
26617547	EPOC	06/01/2011
26706415	EPOC	19/11/2008
26946963	EPOC	31/03/2010
26742016	EPOC	23/06/2005
26867156	EPOC	01/01/1985
26897945	EPOC	16/03/2011
26761941	EPOC	16/03/2005
26768307	EPOC	29/01/2004
26969569	EPOC	02/02/2000
27079131	EPOC	23/04/2008
26994023	EPOC	14/04/2005
27031739	EPOC	20/01/2003
27073459	EPOC	14/05/2010
26991408	EPOC	23/04/2007
26994757	EPOC	24/04/2008
26994636	EPOC	20/10/2004
26996261	EPOC	24/12/2004
27000807	EPOC	22/09/2005
27004769	EPOC	21/02/2008
27216549	EPOC	12/07/2006
27348961	EPOC	08/11/2004
27171122	EPOC	28/09/2007
27304467	EPOC	05/03/2010
27350662	EPOC	22/04/2005
27346014	EPOC	19/04/2010
27359957	EPOC	09/02/2001
27296141	EPOC	25/10/2010
27296189	EPOC	25/12/2010
27578159	EPOC	21/06/2006
27481258	EPOC	08/07/2004
27420742	EPOC	17/02/2005
27453870	EPOC	15/04/2009
27659873	EPOC	13/03/2006
26976144	EPOC	06/10/2003
266530	EPOC	11/03/2002
27707441	EPOC	08/02/2006
17423124	EPOC	08/11/2000
27785654	EPOC	09/11/2002
27668157	EPOC	19/11/2007
27631227	EPOC	21/05/2004
26620792	EPOC	07/06/2007
27805384	EPOC	29/10/2002
27783945	EPOC	09/12/2004
27804349	EPOC	29/07/2003
27170744	EPOC	01/01/1997
2987569	EPOC	18/11/2004
33023244	EPOC	28/01/2010
33067338	EPOC	26/06/1998
33070878	EPOC	14/12/2000
33019290	EPOC	30/03/2007
27680372	EPOC	01/01/1997
28019239	EPOC	21/06/2002
16135277	EPOC	01/01/1998
33020265	EPOC	13/11/2000
33007224	EPOC	18/05/1996
16774206	EPOC	29/07/2008
18770764	EPOC	19/03/2001
18768448	EPOC	06/07/2000
16184117	EPOC	15/11/2000
27849109	EPOC	19/12/2000
23410318	EPOC	27/12/2010
20989739	EPOC	18/02/2010
20989317	EPOC	25/06/2010
16684088	EPOC	19/05/2004
20982124	EPOC	26/03/2004
33235211	EPOC	12/11/2001
33312738	EPOC	08/02/2011
32196437	EPOC	24/02/2005
31043924	EPOC	04/05/2004
31494769	EPOC	19/05/2003
31037188	EPOC	27/07/2003
31213209	EPOC	22/04/2008
31940790	EPOC	30/05/2002
32282437	EPOC	16/07/2004
31236375	EPOC	16/02/2010
32117832	EPOC	20/02/2001
31492015	EPOC	14/01/2011
31424423	EPOC	16/05/2005
32191616	EPOC	19/06/2003
31974767	EPOC	13/08/1989
31952663	EPOC	17/06/2002
31358766	EPOC	03/11/2003
31217200	EPOC	27/12/2006
31435940	EPOC	19/02/2003
31641342	EPOC	21/04/2005
31473113	EPOC	18/04/2002
31612836	EPOC	21/07/2004
31917785	EPOC	17/05/2010
31328924	EPOC	11/09/2008
32013329	EPOC	11/03/2002
32185788	EPOC	14/02/2011
31231113	EPOC	24/11/2008
32076252	EPOC	19/11/2002
31807218	EPOC	07/12/2001
31213457	EPOC	24/04/2003
31319783	EPOC	21/02/2002
31458732	EPOC	25/02/2004
31577330	EPOC	02/02/1995
31369580	EPOC	28/05/2010
31081419	EPOC	05/12/2001
31972169	EPOC	13/08/2004
32173642	EPOC	29/06/2005
31407086	EPOC	05/10/2009
31461794	EPOC	12/01/2011
31226791	EPOC	21/06/1995
31126185	EPOC	30/05/2011
32033587	EPOC	20/04/2010
32091469	EPOC	13/10/2009
31863698	EPOC	16/03/2005
31981150	EPOC	01/01/1985
31048154	EPOC	23/01/2003
31951124	EPOC	03/11/2010
32110892	EPOC	04/12/2006
31840642	EPOC	09/11/2007
31481613	EPOC	09/04/2010
31111389	EPOC	12/03/2003
31419290	EPOC	30/03/2005
31055196	EPOC	21/01/2003
31415742	EPOC	28/03/2006
31555309	EPOC	03/01/2005
31539806	EPOC	03/09/2004
32110747	EPOC	03/01/2011
31940293	EPOC	17/02/2006
31096804	EPOC	02/02/1980
31336062	EPOC	01/01/1994
32156190	EPOC	19/02/2002
32270655	EPOC	20/01/2009
31176011	EPOC	19/10/2007
31264025	EPOC	07/01/2004
31051598	EPOC	26/02/2001
31448344	EPOC	31/10/2003
32205231	EPOC	21/10/2003
31037140	EPOC	01/03/1989
32150782	EPOC	22/05/2009
31436600	EPOC	06/03/2007
32142008	EPOC	22/03/2004
31268162	EPOC	03/10/2001
32106904	EPOC	20/02/2006
31104559	EPOC	30/07/2004
31919657	EPOC	04/08/2009
31971840	EPOC	15/12/2005
32158039	EPOC	07/03/2005
31566843	EPOC	04/06/2004
31720031	EPOC	29/12/2009
