patient_id	covar_name	date
12790716	FIBRAT	21/04/2004
206830	FIBRAT	18/04/2011
9230338	FIBRAT	29/09/2009
941588	FIBRAT	26/04/2011
12194393	FIBRAT	21/10/2010
23454734	FIBRAT	10/02/2009
6756330	FIBRAT	30/05/2008
7246977	FIBRAT	11/03/2011
9378394	FIBRAT	19/04/2011
1940839	FIBRAT	26/11/2009
8568002	FIBRAT	12/02/2009
23455261	FIBRAT	26/04/2011
12731034	FIBRAT	12/04/2011
208451	FIBRAT	28/04/2011
22918279	FIBRAT	10/05/2011
7094192	FIBRAT	25/04/2005
24729351	FIBRAT	23/12/2004
8979056	FIBRAT	24/05/2011
9982943	FIBRAT	01/06/2011
1068704	FIBRAT	26/03/2007
12477884	FIBRAT	19/05/2011
8557344	FIBRAT	28/06/2006
9304255	FIBRAT	13/05/2011
6757275	FIBRAT	08/06/2009
5031500	FIBRAT	19/04/2011
9231971	FIBRAT	24/07/2003
210163	FIBRAT	06/10/2010
9372483	FIBRAT	06/04/2011
12479828	FIBRAT	04/11/2009
12729740	FIBRAT	04/04/2011
21370276	FIBRAT	16/05/2001
1185872	FIBRAT	04/10/2006
613057	FIBRAT	18/01/2007
9256766	FIBRAT	15/09/2008
8960480	FIBRAT	19/03/2007
17169135	FIBRAT	28/10/2009
14859861	FIBRAT	11/04/2011
12695635	FIBRAT	26/05/2011
6179188	FIBRAT	19/01/2011
12696060	FIBRAT	20/09/2010
1936765	FIBRAT	30/05/2011
20547221	FIBRAT	29/03/2010
21152856	FIBRAT	07/04/2011
61852	FIBRAT	04/05/2011
609639	FIBRAT	17/04/2007
8572419	FIBRAT	14/05/2009
5814184	FIBRAT	17/07/2006
10270534	FIBRAT	05/01/2011
12174283	FIBRAT	28/03/2011
8277775	FIBRAT	30/07/2001
6746503	FIBRAT	07/10/2010
6153914	FIBRAT	18/08/2009
8279117	FIBRAT	22/08/2007
612341	FIBRAT	16/04/2011
10003048	FIBRAT	02/12/2009
6747967	FIBRAT	15/02/2011
12731532	FIBRAT	15/05/2008
19077570	FIBRAT	04/05/2011
12478237	FIBRAT	30/03/2011
8976746	FIBRAT	01/12/2010
1163865	FIBRAT	18/01/2011
25048416	FIBRAT	28/09/2004
8979607	FIBRAT	20/06/2002
10332543	FIBRAT	06/05/2011
9231974	FIBRAT	23/02/2011
8975474	FIBRAT	28/09/2009
15667731	FIBRAT	31/03/2005
23472104	FIBRAT	21/02/2007
9373441	FIBRAT	02/11/2010
9214840	FIBRAT	19/04/2005
1517271	FIBRAT	29/08/2010
12730840	FIBRAT	14/07/2008
16100419	FIBRAT	29/01/2007
12858903	FIBRAT	24/05/2011
607911	FIBRAT	24/05/2011
9389876	FIBRAT	04/04/2011
12790596	FIBRAT	05/11/2010
12688905	FIBRAT	27/04/2011
16557695	FIBRAT	24/10/2005
5865734	FIBRAT	18/06/2004
24764733	FIBRAT	12/01/2011
15669896	FIBRAT	10/05/2011
20564727	FIBRAT	12/04/2011
9231512	FIBRAT	05/07/2005
20546433	FIBRAT	19/05/2011
8700529	FIBRAT	23/05/2011
6146361	FIBRAT	01/12/2008
25042008	FIBRAT	22/01/2007
1068416	FIBRAT	13/12/2005
1515149	FIBRAT	31/05/2011
21871587	FIBRAT	22/05/2011
10003982	FIBRAT	20/07/2009
12764774	FIBRAT	01/08/2007
8786315	FIBRAT	30/08/2002
12695355	FIBRAT	03/03/2011
9388407	FIBRAT	27/04/2011
209933	FIBRAT	15/06/2010
10270381	FIBRAT	31/05/2011
5467749	FIBRAT	15/02/2007
9304423	FIBRAT	18/04/2011
6626450	FIBRAT	07/05/2011
5023568	FIBRAT	09/04/2010
21152518	FIBRAT	28/03/2006
24765208	FIBRAT	21/09/2009
9387076	FIBRAT	05/05/2011
25063184	FIBRAT	27/04/2011
63243	FIBRAT	05/05/2011
25048927	FIBRAT	17/07/2009
6178653	FIBRAT	08/02/2010
8292120	FIBRAT	23/02/2006
9283784	FIBRAT	09/04/2010
24730055	FIBRAT	27/01/2004
6887263	FIBRAT	23/09/2005
13916747	FIBRAT	08/04/2011
1162456	FIBRAT	09/08/2005
1515178	FIBRAT	08/08/2008
2768457	FIBRAT	26/01/2007
13984382	FIBRAT	09/05/2011
21782270	FIBRAT	25/05/2011
7352863	FIBRAT	15/07/2005
23996759	FIBRAT	13/11/2007
7963856	FIBRAT	12/04/2011
645074	FIBRAT	04/05/2011
564746	FIBRAT	16/05/2011
1417651	FIBRAT	05/12/2005
7801719	FIBRAT	17/05/2011
1202883	FIBRAT	14/02/2007
4700332	FIBRAT	11/10/2006
12615776	FIBRAT	17/05/2011
12613838	FIBRAT	13/04/2011
1349650	FIBRAT	13/10/2004
1276830	FIBRAT	26/03/2004
6212351	FIBRAT	01/06/2011
1262655	FIBRAT	28/10/2004
1200082	FIBRAT	12/11/2004
1263785	FIBRAT	09/12/2008
1353807	FIBRAT	01/06/2011
6593866	FIBRAT	21/03/2003
1206620	FIBRAT	21/05/2011
1545758	FIBRAT	27/12/2001
7770755	FIBRAT	12/05/2011
525724	FIBRAT	14/04/2010
7776735	FIBRAT	01/02/2011
6594944	FIBRAT	03/12/2008
13985993	FIBRAT	20/05/2011
1444028	FIBRAT	11/01/2011
1849768	FIBRAT	10/07/2009
1263776	FIBRAT	03/02/2005
1424903	FIBRAT	29/04/2011
647207	FIBRAT	29/05/2011
1207086	FIBRAT	11/04/2002
7848344	FIBRAT	04/05/2011
1665187	FIBRAT	16/05/2011
1211846	FIBRAT	12/02/2008
1202324	FIBRAT	01/06/2011
7850197	FIBRAT	29/09/2004
7849021	FIBRAT	14/12/2006
1415854	FIBRAT	16/05/2011
1199703	FIBRAT	20/04/2011
1545327	FIBRAT	13/06/2009
1425106	FIBRAT	13/01/2005
1351713	FIBRAT	07/04/2003
1263138	FIBRAT	11/10/2000
6951044	FIBRAT	03/05/2011
1133473	FIBRAT	08/03/2011
997043	FIBRAT	10/12/2009
1133221	FIBRAT	26/07/2007
1639158	FIBRAT	20/03/2009
1133409	FIBRAT	23/01/2009
716938	FIBRAT	25/05/2011
1639524	FIBRAT	10/11/2009
1638747	FIBRAT	12/01/2009
1855443	FIBRAT	22/03/2011
1578995	FIBRAT	17/10/2002
1640603	FIBRAT	13/02/2006
1855787	FIBRAT	05/04/2010
1027312	FIBRAT	10/12/2004
995675	FIBRAT	27/07/2010
1641072	FIBRAT	06/09/2006
25750805	FIBRAT	29/10/2008
6513850	FIBRAT	12/12/2008
1129101	FIBRAT	18/10/2004
189189	FIBRAT	20/05/2011
1135359	FIBRAT	30/03/2011
1638962	FIBRAT	05/01/2006
1578839	FIBRAT	22/02/2011
1640524	FIBRAT	18/05/2004
1581257	FIBRAT	25/05/2007
1639056	FIBRAT	16/12/2009
1065570	FIBRAT	24/03/2000
717026	FIBRAT	16/01/2011
5679864	FIBRAT	04/04/2011
717746	FIBRAT	11/05/2011
16037893	FIBRAT	07/02/2011
1131855	FIBRAT	06/02/2007
1101196	FIBRAT	12/04/2002
2138308	FIBRAT	26/03/2009
2070964	FIBRAT	28/07/2010
2133507	FIBRAT	15/01/2004
2133432	FIBRAT	04/07/2008
2059982	FIBRAT	02/03/2005
2140399	FIBRAT	13/05/2008
2217164	FIBRAT	03/11/2008
2139418	FIBRAT	01/06/2011
2059211	FIBRAT	24/05/2011
2110204	FIBRAT	18/05/2011
2162696	FIBRAT	30/04/2009
2034532	FIBRAT	28/08/2009
2053434	FIBRAT	20/05/2011
2140421	FIBRAT	22/11/2007
2053557	FIBRAT	21/02/2011
2068620	FIBRAT	08/03/2004
2040264	FIBRAT	13/12/2004
757408	FIBRAT	25/04/2011
1753241	FIBRAT	26/05/2011
904619	FIBRAT	16/01/2006
1766799	FIBRAT	03/10/2007
3053306	FIBRAT	28/02/2009
2777759	FIBRAT	10/05/2007
2035034	FIBRAT	08/04/2010
2034405	FIBRAT	08/05/2006
2055265	FIBRAT	28/12/2010
902525	FIBRAT	21/05/2001
7047183	FIBRAT	15/07/2009
2766317	FIBRAT	28/06/2005
3052687	FIBRAT	04/04/2007
2777314	FIBRAT	02/02/2005
2773966	FIBRAT	11/04/2008
2525813	FIBRAT	27/05/2011
2753144	FIBRAT	10/06/2002
2756008	FIBRAT	21/11/2007
2525988	FIBRAT	02/10/2007
2520416	FIBRAT	14/02/2003
2754738	FIBRAT	19/03/2009
2525342	FIBRAT	28/03/2007
2525914	FIBRAT	12/01/2006
16948347	FIBRAT	02/11/2010
2407564	FIBRAT	03/05/2011
26459880	FIBRAT	23/05/2011
26425762	FIBRAT	13/05/2010
26529186	FIBRAT	13/05/2011
28063519	FIBRAT	11/05/2011
26383930	FIBRAT	11/04/2011
26460126	FIBRAT	28/03/2011
26409445	FIBRAT	04/05/2011
20673831	FIBRAT	18/05/2011
17741284	FIBRAT	14/10/2010
17742639	FIBRAT	27/12/2000
22497799	FIBRAT	17/05/2011
20146495	FIBRAT	25/04/2011
26243506	FIBRAT	28/05/2011
18223286	FIBRAT	30/05/2011
26258038	FIBRAT	24/03/2011
17323328	FIBRAT	04/05/2011
26243565	FIBRAT	29/01/2009
26384460	FIBRAT	01/06/2011
26178951	FIBRAT	08/01/2008
7134510	FIBRAT	01/12/2010
7567270	FIBRAT	13/02/2008
7144123	FIBRAT	13/12/2001
1910382	FIBRAT	21/06/2007
183671	FIBRAT	12/05/2010
1912881	FIBRAT	12/11/2010
301267	FIBRAT	21/01/2011
302456	FIBRAT	19/01/2009
180748	FIBRAT	15/05/2011
2962363	FIBRAT	28/04/2008
302260	FIBRAT	03/06/2010
464564	FIBRAT	01/06/2011
28083670	FIBRAT	29/10/2009
28080811	FIBRAT	21/05/2011
28044182	FIBRAT	27/09/2010
28083203	FIBRAT	27/11/2001
28086673	FIBRAT	31/05/2011
2777326	FIBRAT	21/03/2011
26261706	FIBRAT	23/05/2011
419216	FIBRAT	02/01/2004
187189	FIBRAT	13/08/2007
304297	FIBRAT	16/04/2011
26441817	FIBRAT	06/06/2007
28058974	FIBRAT	02/02/2005
28072510	FIBRAT	26/05/2011
28052032	FIBRAT	09/05/2011
28071227	FIBRAT	13/05/2011
28069718	FIBRAT	19/02/2010
28071032	FIBRAT	04/11/2009
28072263	FIBRAT	06/07/2005
24661814	FIBRAT	26/06/2003
24665757	FIBRAT	22/03/2010
24657220	FIBRAT	09/01/2008
24668234	FIBRAT	19/05/2011
24668940	FIBRAT	07/03/2005
1371178	FIBRAT	25/01/2010
1373198	FIBRAT	03/06/2009
1358991	FIBRAT	15/05/2011
18195830	FIBRAT	29/03/2011
18194120	FIBRAT	29/06/2010
18194124	FIBRAT	04/05/2011
18201064	FIBRAT	13/04/2011
18189831	FIBRAT	16/12/2002
19422888	FIBRAT	12/05/2011
18195212	FIBRAT	27/05/2011
18195242	FIBRAT	11/05/2011
18187020	FIBRAT	03/01/2002
18197681	FIBRAT	21/01/2011
2988776	FIBRAT	25/10/2010
2988353	FIBRAT	26/05/2011
1015862	FIBRAT	08/05/2003
4628526	FIBRAT	31/05/2011
1900452	FIBRAT	11/05/2011
26639746	FIBRAT	07/12/2009
26824685	FIBRAT	09/05/2011
26621036	FIBRAT	23/05/2011
26852279	FIBRAT	23/09/2009
26628519	FIBRAT	31/05/2011
26642192	FIBRAT	06/02/2006
26704047	FIBRAT	30/05/2011
26782658	FIBRAT	11/05/2011
2989757	FIBRAT	22/01/2004
12976349	FIBRAT	30/10/2003
12975596	FIBRAT	19/01/2007
2988643	FIBRAT	17/05/2011
12993397	FIBRAT	11/10/2005
26619245	FIBRAT	26/05/2011
16105651	FIBRAT	23/10/2001
26721085	FIBRAT	08/05/2011
26723126	FIBRAT	05/06/2008
26627915	FIBRAT	07/05/2009
26639325	FIBRAT	29/05/2011
26619772	FIBRAT	11/01/2011
2989374	FIBRAT	31/05/2011
26702724	FIBRAT	24/11/2009
2990113	FIBRAT	22/04/2009
26702888	FIBRAT	24/05/2011
21650891	FIBRAT	18/11/2010
24663248	FIBRAT	01/02/2011
24655486	FIBRAT	19/04/2010
24666854	FIBRAT	15/01/2008
21651387	FIBRAT	29/12/2010
24577366	FIBRAT	27/04/2011
26723668	FIBRAT	18/04/2011
26936348	FIBRAT	03/05/2011
26914516	FIBRAT	06/11/2001
26932786	FIBRAT	15/01/2009
26945400	FIBRAT	23/05/2011
26950378	FIBRAT	08/04/2011
26729787	FIBRAT	15/10/2010
26782831	FIBRAT	26/05/2011
26846065	FIBRAT	08/07/2009
26714937	FIBRAT	18/03/2011
26717587	FIBRAT	05/05/2011
26780527	FIBRAT	11/12/2008
26877295	FIBRAT	12/10/2010
26933188	FIBRAT	22/11/2002
26768700	FIBRAT	15/10/2010
26717403	FIBRAT	02/06/2010
26714270	FIBRAT	08/05/2011
26834343	FIBRAT	24/01/2011
26834768	FIBRAT	19/04/2010
26791959	FIBRAT	03/06/2009
26825165	FIBRAT	05/03/2006
27072138	FIBRAT	27/12/2008
26973935	FIBRAT	13/04/2011
26969569	FIBRAT	03/04/2006
27055003	FIBRAT	27/05/2011
26989053	FIBRAT	25/05/2011
26980893	FIBRAT	10/05/2011
27066915	FIBRAT	21/09/2010
27105324	FIBRAT	28/05/2011
27112721	FIBRAT	08/10/2002
27149748	FIBRAT	13/05/2011
27080248	FIBRAT	02/10/2006
27151273	FIBRAT	21/05/2007
27113830	FIBRAT	11/05/2011
27100788	FIBRAT	04/07/2007
27153004	FIBRAT	13/09/2005
27054520	FIBRAT	01/09/2004
27074167	FIBRAT	24/03/2011
27079600	FIBRAT	13/05/2011
27066049	FIBRAT	23/05/2011
27064536	FIBRAT	30/05/2011
27031301	FIBRAT	13/06/2008
27111686	FIBRAT	20/04/2011
27023354	FIBRAT	28/05/2011
26996574	FIBRAT	29/07/2010
26993048	FIBRAT	22/05/2011
27012249	FIBRAT	19/05/2011
27362443	FIBRAT	25/10/2010
27166936	FIBRAT	08/04/2011
27348565	FIBRAT	06/05/2011
27315028	FIBRAT	28/03/2008
27368382	FIBRAT	13/06/2007
27254123	FIBRAT	21/03/2010
27198744	FIBRAT	30/05/2011
27249436	FIBRAT	18/02/2008
27308809	FIBRAT	13/05/2011
27171854	FIBRAT	10/05/2011
27301727	FIBRAT	20/12/2008
27324850	FIBRAT	17/01/2004
27308260	FIBRAT	03/04/2011
27348023	FIBRAT	08/05/2011
27306529	FIBRAT	19/05/2007
27216757	FIBRAT	17/05/2011
27529972	FIBRAT	13/05/2011
27358516	FIBRAT	15/10/2004
26998337	FIBRAT	25/08/2010
26992485	FIBRAT	31/05/2011
27244390	FIBRAT	26/05/2008
27251026	FIBRAT	24/09/2004
26957374	FIBRAT	09/12/2003
27241971	FIBRAT	26/05/2011
27640410	FIBRAT	08/04/2011
27632159	FIBRAT	17/11/2010
27596970	FIBRAT	10/05/2011
27657894	FIBRAT	09/11/2008
27453751	FIBRAT	06/05/2011
27658059	FIBRAT	23/10/2007
27427637	FIBRAT	19/04/2011
27476227	FIBRAT	10/10/2005
27453870	FIBRAT	25/05/2011
27459000	FIBRAT	08/05/2011
27469908	FIBRAT	12/07/2008
27661511	FIBRAT	12/05/2011
27541995	FIBRAT	23/09/2010
27542102	FIBRAT	13/10/2010
27719211	FIBRAT	23/05/2011
27764873	FIBRAT	16/05/2011
27752383	FIBRAT	03/04/2010
27614612	FIBRAT	21/08/2006
27234266	FIBRAT	23/10/2006
27167758	FIBRAT	18/05/2007
27285551	FIBRAT	28/07/2005
27165699	FIBRAT	13/05/2011
27132827	FIBRAT	03/12/2009
26637275	FIBRAT	12/02/2009
27782560	FIBRAT	12/05/2011
26829603	FIBRAT	12/04/2011
27105042	FIBRAT	25/05/2011
26948927	FIBRAT	31/10/2003
266530	FIBRAT	30/12/2008
27508487	FIBRAT	16/12/2009
27675630	FIBRAT	03/05/2011
27563279	FIBRAT	19/05/2011
27309498	FIBRAT	06/04/2011
27531037	FIBRAT	30/03/2004
27780388	FIBRAT	07/09/2009
18195688	FIBRAT	01/06/2011
27533492	FIBRAT	12/12/2003
27666515	FIBRAT	31/08/2004
27614274	FIBRAT	29/04/2009
27533143	FIBRAT	17/11/2009
27673521	FIBRAT	10/02/2007
26951205	FIBRAT	26/05/2011
27758802	FIBRAT	24/02/2003
27794444	FIBRAT	03/11/2010
27718998	FIBRAT	24/05/2011
27797094	FIBRAT	10/06/2004
27325643	FIBRAT	21/10/2009
27532824	FIBRAT	30/11/2007
27658055	FIBRAT	29/04/2011
21650765	FIBRAT	25/05/2011
27066908	FIBRAT	16/07/2009
27397875	FIBRAT	26/05/2011
27783755	FIBRAT	31/05/2011
27552757	FIBRAT	14/05/2007
26872972	FIBRAT	20/12/2004
26711256	FIBRAT	23/05/2011
27572773	FIBRAT	14/08/2008
18194111	FIBRAT	26/07/2002
27782658	FIBRAT	02/06/2009
33018984	FIBRAT	07/04/2010
33100103	FIBRAT	07/03/2008
33072082	FIBRAT	12/04/2011
33051475	FIBRAT	16/11/2010
33033119	FIBRAT	26/04/2011
33144464	FIBRAT	22/04/2003
33030987	FIBRAT	29/04/2007
33032891	FIBRAT	02/05/2010
33007309	FIBRAT	02/06/2010
33063325	FIBRAT	15/04/2009
33029033	FIBRAT	16/05/2011
33095116	FIBRAT	01/05/2011
33065720	FIBRAT	25/03/2011
33108370	FIBRAT	10/10/2001
33074340	FIBRAT	11/05/2011
33002345	FIBRAT	11/05/2011
33071188	FIBRAT	12/05/2011
33002793	FIBRAT	30/03/2006
33098869	FIBRAT	11/11/2009
33087917	FIBRAT	24/05/2011
33034793	FIBRAT	23/02/2009
33045539	FIBRAT	13/05/2011
33090387	FIBRAT	11/05/2011
33034434	FIBRAT	10/09/2009
33050773	FIBRAT	11/08/2006
33087600	FIBRAT	26/08/2007
33112822	FIBRAT	03/08/2010
33063559	FIBRAT	18/05/2011
33030108	FIBRAT	24/05/2011
33107313	FIBRAT	16/04/2007
33013033	FIBRAT	30/05/2000
33011503	FIBRAT	03/11/2003
33071618	FIBRAT	16/05/2011
33047656	FIBRAT	02/01/2004
33015203	FIBRAT	29/04/2011
33064728	FIBRAT	27/05/2011
33102563	FIBRAT	01/09/2004
33026288	FIBRAT	25/05/2011
33079596	FIBRAT	22/02/2001
33033051	FIBRAT	28/11/2007
33037551	FIBRAT	01/08/2010
18197978	FIBRAT	12/05/2011
27661862	FIBRAT	20/12/2010
19967442	FIBRAT	26/12/2002
26635596	FIBRAT	30/04/2009
420958	FIBRAT	27/05/2009
184941	FIBRAT	20/11/2005
1372143	FIBRAT	29/08/2002
33008240	FIBRAT	18/05/2006
33020523	FIBRAT	16/03/2010
16139065	FIBRAT	27/11/2000
33004522	FIBRAT	21/11/2001
33012908	FIBRAT	16/05/2011
33083866	FIBRAT	16/03/2011
33105746	FIBRAT	03/09/2010
33031905	FIBRAT	27/05/2011
33087469	FIBRAT	21/03/2011
33089297	FIBRAT	19/05/2008
33083395	FIBRAT	19/05/2011
33020105	FIBRAT	17/12/2009
33049911	FIBRAT	09/05/2011
33042798	FIBRAT	08/06/2009
33057719	FIBRAT	28/05/2011
33112492	FIBRAT	13/09/2004
33106625	FIBRAT	16/02/2011
33101101	FIBRAT	11/04/2011
33066270	FIBRAT	24/02/2006
33093000	FIBRAT	28/04/2011
33025768	FIBRAT	24/05/2011
33091566	FIBRAT	14/01/2008
33120429	FIBRAT	01/07/2010
33092197	FIBRAT	22/04/2005
33102499	FIBRAT	13/09/2006
33022278	FIBRAT	21/04/2003
33053905	FIBRAT	08/02/2008
33037440	FIBRAT	15/01/2011
33081151	FIBRAT	29/10/2007
33093137	FIBRAT	22/05/2008
33007891	FIBRAT	02/03/2011
33008928	FIBRAT	16/09/2010
33084046	FIBRAT	27/04/2011
33013815	FIBRAT	31/08/2009
33100135	FIBRAT	26/04/2011
16616764	FIBRAT	16/09/2009
21109264	FIBRAT	18/05/2009
16625249	FIBRAT	20/04/2010
23381129	FIBRAT	24/03/2011
27913405	FIBRAT	12/05/2011
16655186	FIBRAT	05/02/2008
33308973	FIBRAT	28/01/2011
14188303	FIBRAT	01/12/2010
18758648	FIBRAT	26/03/2010
16618603	FIBRAT	23/05/2011
16615306	FIBRAT	25/05/2005
23381575	FIBRAT	30/11/2010
20982215	FIBRAT	31/10/2008
23362937	FIBRAT	29/04/2011
21109099	FIBRAT	25/05/2011
28020948	FIBRAT	05/08/2009
33296862	FIBRAT	22/09/2010
16138565	FIBRAT	20/06/2002
28013642	FIBRAT	07/01/2011
33305599	FIBRAT	23/05/2011
33231021	FIBRAT	11/02/2009
27912569	FIBRAT	09/10/2008
16773855	FIBRAT	29/02/2008
21110022	FIBRAT	27/04/2011
33255731	FIBRAT	07/04/2011
33287770	FIBRAT	07/01/2011
21110542	FIBRAT	26/03/2010
16636488	FIBRAT	05/10/2005
16139479	FIBRAT	11/01/2011
16625522	FIBRAT	19/09/2007
23411987	FIBRAT	09/05/2011
23401531	FIBRAT	29/06/2007
20985633	FIBRAT	26/03/2009
16186342	FIBRAT	01/03/2011
18769331	FIBRAT	30/10/2009
24463283	FIBRAT	23/05/2011
16124902	FIBRAT	16/04/2010
28028633	FIBRAT	10/05/2011
16602684	FIBRAT	05/05/2011
16655300	FIBRAT	07/07/2010
16684643	FIBRAT	10/01/2008
33209870	FIBRAT	30/09/2008
33254774	FIBRAT	21/01/2011
16631934	FIBRAT	29/09/2004
33208214	FIBRAT	14/01/2010
33293319	FIBRAT	09/09/2003
28017195	FIBRAT	23/06/2010
16181188	FIBRAT	09/09/2010
16616604	FIBRAT	03/03/2011
23350624	FIBRAT	18/10/2010
33290109	FIBRAT	12/07/2010
23349723	FIBRAT	02/10/2007
20987632	FIBRAT	05/06/2006
23346962	FIBRAT	05/05/2011
20985576	FIBRAT	26/06/2009
23371097	FIBRAT	24/05/2011
27927780	FIBRAT	28/09/2010
23410691	FIBRAT	15/02/2011
33225982	FIBRAT	25/01/2011
21101295	FIBRAT	15/12/2010
33291290	FIBRAT	02/12/2010
33232203	FIBRAT	28/04/2011
18757709	FIBRAT	31/08/2006
16166372	FIBRAT	12/02/2009
31181468	FIBRAT	30/06/2005
31651218	FIBRAT	23/08/2010
23402490	FIBRAT	13/01/2011
33244718	FIBRAT	18/02/2011
23349702	FIBRAT	18/04/2011
16186292	FIBRAT	09/02/2011
23405723	FIBRAT	10/01/2011
23368271	FIBRAT	20/08/2009
16636710	FIBRAT	28/04/2010
23341083	FIBRAT	06/07/2005
23402638	FIBRAT	04/09/2007
33226206	FIBRAT	13/05/2010
23410359	FIBRAT	29/04/2011
33289353	FIBRAT	25/01/2011
16625422	FIBRAT	18/12/2008
23410160	FIBRAT	19/05/2011
16603711	FIBRAT	24/05/2011
23406223	FIBRAT	30/09/2003
18755454	FIBRAT	09/05/2011
16610867	FIBRAT	28/02/2006
18764796	FIBRAT	19/05/2011
21114820	FIBRAT	11/12/2008
16611148	FIBRAT	28/12/2010
16138211	FIBRAT	31/05/2011
16621754	FIBRAT	11/02/2005
23371494	FIBRAT	09/08/2010
32269071	FIBRAT	20/12/2009
31637638	FIBRAT	10/07/2010
31132640	FIBRAT	23/06/2010
31285328	FIBRAT	02/04/2007
31341379	FIBRAT	26/10/2010
31165115	FIBRAT	29/12/2009
31139565	FIBRAT	23/06/2009
31459026	FIBRAT	14/07/2008
31083013	FIBRAT	09/12/2010
31673141	FIBRAT	27/02/2006
31549444	FIBRAT	28/04/2004
31727213	FIBRAT	17/02/2010
32125350	FIBRAT	09/05/2007
31869677	FIBRAT	07/12/2010
31393374	FIBRAT	23/02/2007
31889230	FIBRAT	01/03/2011
31504878	FIBRAT	03/12/2008
31657424	FIBRAT	28/05/2009
31590399	FIBRAT	24/06/2004
31282373	FIBRAT	07/12/2009
31604841	FIBRAT	27/11/2007
32101746	FIBRAT	29/09/2010
31462667	FIBRAT	24/10/2005
31753023	FIBRAT	02/08/2002
31604165	FIBRAT	16/11/2009
31447892	FIBRAT	12/01/2011
31164952	FIBRAT	29/09/2009
31979808	FIBRAT	15/01/2011
31580409	FIBRAT	08/04/2011
32210854	FIBRAT	12/06/2008
32036113	FIBRAT	13/07/2007
31605404	FIBRAT	29/12/2008
31774615	FIBRAT	05/07/2006
31507970	FIBRAT	06/11/2009
31415101	FIBRAT	14/11/2006
31140630	FIBRAT	21/04/2005
32179446	FIBRAT	07/04/2011
31119347	FIBRAT	01/04/2011
31141532	FIBRAT	29/12/2004
31343025	FIBRAT	27/05/2011
31284999	FIBRAT	15/10/2008
31115938	FIBRAT	25/06/2008
31792698	FIBRAT	25/11/2010
31884944	FIBRAT	18/12/2007
31909900	FIBRAT	24/01/2011
31894356	FIBRAT	24/08/2006
32097599	FIBRAT	01/03/2011
31828051	FIBRAT	14/04/2011
31682763	FIBRAT	17/10/2005
31564150	FIBRAT	26/11/2007
31121620	FIBRAT	18/06/2010
31623714	FIBRAT	20/01/2011
31418553	FIBRAT	18/06/2010
31635881	FIBRAT	15/03/2011
31839721	FIBRAT	31/07/2007
31424621	FIBRAT	10/12/2010
32164475	FIBRAT	02/12/2003
31694445	FIBRAT	14/02/2006
31731947	FIBRAT	11/08/2004
31101485	FIBRAT	28/04/2011
31041646	FIBRAT	02/11/2006
31505016	FIBRAT	10/09/2009
32122580	FIBRAT	19/11/2003
31427598	FIBRAT	07/03/2007
31970088	FIBRAT	04/04/2007
31330070	FIBRAT	29/05/2007
32063312	FIBRAT	21/12/2009
31259853	FIBRAT	07/10/2009
31103413	FIBRAT	24/04/2007
31209456	FIBRAT	13/11/2009
31957657	FIBRAT	04/11/2010
32245047	FIBRAT	21/07/2008
31904159	FIBRAT	14/12/2009
31340734	FIBRAT	23/12/2008
31539942	FIBRAT	26/03/2010
31656806	FIBRAT	13/03/2007
31099705	FIBRAT	18/05/2006
31749166	FIBRAT	15/06/2005
31149415	FIBRAT	23/01/2009
31855923	FIBRAT	10/10/2008
31520729	FIBRAT	09/05/2002
31537958	FIBRAT	30/04/2009
32155110	FIBRAT	12/12/2006
31643582	FIBRAT	26/11/2010
32219687	FIBRAT	14/02/2002
32171234	FIBRAT	27/11/2006
31142772	FIBRAT	19/04/2010
31979495	FIBRAT	21/05/2010
32083356	FIBRAT	11/11/2009
32254919	FIBRAT	27/08/2010
32121144	FIBRAT	01/12/2009
32065893	FIBRAT	17/03/2010
31566542	FIBRAT	16/06/2010
31357715	FIBRAT	12/05/2008
32030891	FIBRAT	20/09/2006
31638942	FIBRAT	28/10/2010
31292596	FIBRAT	26/04/2011
31399669	FIBRAT	13/10/2009
32059302	FIBRAT	18/11/2009
32199258	FIBRAT	04/02/2009
31041614	FIBRAT	05/10/2007
31373620	FIBRAT	02/09/2003
31392273	FIBRAT	14/05/2003
31098655	FIBRAT	15/02/2007
31507581	FIBRAT	09/12/2008
31502961	FIBRAT	26/01/2004
31087989	FIBRAT	29/09/2008
31770635	FIBRAT	18/12/2007
31597569	FIBRAT	18/06/2010
31585717	FIBRAT	13/09/2006
31340688	FIBRAT	26/01/2007
31075591	FIBRAT	25/04/2001
31165913	FIBRAT	20/08/2002
32100016	FIBRAT	04/10/2009
31357989	FIBRAT	08/04/2009
31120658	FIBRAT	05/03/2008
31269024	FIBRAT	26/10/2007
31832522	FIBRAT	13/09/2004
31741824	FIBRAT	08/10/2010
31590424	FIBRAT	20/11/2006
32195275	FIBRAT	25/04/2007
31361206	FIBRAT	04/11/2008
31414275	FIBRAT	04/06/2010
31329070	FIBRAT	10/12/2009
31815850	FIBRAT	29/10/2002
31761466	FIBRAT	15/12/2010
32112412	FIBRAT	07/10/2009
31407086	FIBRAT	29/02/2008
31920979	FIBRAT	17/08/2009
31629096	FIBRAT	16/10/2008
31670179	FIBRAT	12/05/2011
31314597	FIBRAT	17/06/2003
31524254	FIBRAT	19/10/2008
31628762	FIBRAT	01/07/2009
32090695	FIBRAT	30/11/2005
31473901	FIBRAT	12/08/2009
31505974	FIBRAT	12/04/2010
32119517	FIBRAT	25/09/2006
31298297	FIBRAT	26/02/2004
31683193	FIBRAT	02/06/2004
31797390	FIBRAT	04/01/2002
31095932	FIBRAT	16/09/2009
31777809	FIBRAT	31/03/2011
31248296	FIBRAT	05/12/2007
32116733	FIBRAT	16/05/2011
31103583	FIBRAT	11/01/2010
31177793	FIBRAT	08/12/2010
31698713	FIBRAT	15/10/2009
32013249	FIBRAT	10/12/2009
31172974	FIBRAT	09/06/2009
31389366	FIBRAT	15/09/2008
31046210	FIBRAT	10/01/2011
31086081	FIBRAT	29/03/2007
31274163	FIBRAT	06/11/2007
32273088	FIBRAT	25/11/2008
31330729	FIBRAT	22/10/2009
31281949	FIBRAT	12/12/2008
32147698	FIBRAT	07/07/2007
31245311	FIBRAT	10/03/2000
32215164	FIBRAT	25/11/2010
32182901	FIBRAT	08/02/2007
31779985	FIBRAT	13/05/2009
31790782	FIBRAT	07/10/2010
31407464	FIBRAT	15/04/2009
31252528	FIBRAT	07/11/2008
31953447	FIBRAT	21/01/2011
31275887	FIBRAT	19/01/2006
31528759	FIBRAT	17/09/2008
31765514	FIBRAT	01/10/2007
31596789	FIBRAT	04/12/2009
31672769	FIBRAT	09/12/2009
31895787	FIBRAT	15/11/2006
31162260	FIBRAT	10/08/2005
31925006	FIBRAT	23/10/2008
31417729	FIBRAT	22/11/2010
31764206	FIBRAT	07/10/2010
31062380	FIBRAT	14/11/2008
31195300	FIBRAT	06/10/2010
31832446	FIBRAT	09/11/2009
31148437	FIBRAT	11/08/2009
31811871	FIBRAT	07/07/2004
31297801	FIBRAT	24/07/2009
31931703	FIBRAT	24/04/2009
31370565	FIBRAT	21/07/2008
32084841	FIBRAT	18/06/2009
31905242	FIBRAT	26/10/2009
31336014	FIBRAT	09/11/2009
32088000	FIBRAT	13/10/2010
31137964	FIBRAT	21/05/2003
31926216	FIBRAT	17/12/2010
31192975	FIBRAT	30/08/2010
31370471	FIBRAT	09/01/2011
31856153	FIBRAT	27/01/2005
31307160	FIBRAT	22/09/2009
31916053	FIBRAT	24/01/2011
31942616	FIBRAT	26/02/2011
31333700	FIBRAT	04/10/2007
32094491	FIBRAT	28/06/2010
31321280	FIBRAT	26/12/2010
32260224	FIBRAT	04/05/2007
31495560	FIBRAT	21/07/2005
32052592	FIBRAT	22/08/2008
31858880	FIBRAT	04/06/2002
32053592	FIBRAT	15/06/2009
31242339	FIBRAT	24/03/2010
31952723	FIBRAT	26/02/2003
31506437	FIBRAT	23/11/2010
31986505	FIBRAT	24/11/2010
31378120	FIBRAT	21/09/2009
31084479	FIBRAT	23/09/2008
31420898	FIBRAT	13/11/2006
31995343	FIBRAT	06/04/2011
31426566	FIBRAT	26/11/2009
31443659	FIBRAT	18/06/2008
31311199	FIBRAT	15/10/2007
31184345	FIBRAT	24/03/2010
31240257	FIBRAT	12/05/2006
31429454	FIBRAT	09/10/2007
31782180	FIBRAT	23/02/2006
31301336	FIBRAT	28/09/2010
32221360	FIBRAT	27/11/2009
32077670	FIBRAT	21/03/2011
31939506	FIBRAT	28/05/2011
31184541	FIBRAT	18/05/2010
31742835	FIBRAT	19/04/2010
31413619	FIBRAT	15/10/2010
31095601	FIBRAT	24/12/2010
31261675	FIBRAT	28/10/2008
31085974	FIBRAT	10/12/2007
31735092	FIBRAT	15/07/2008
32227837	FIBRAT	17/11/2008
31380809	FIBRAT	16/10/2008
31745135	FIBRAT	09/11/2007
31703185	FIBRAT	15/03/2006
31040325	FIBRAT	02/12/2009
31632371	FIBRAT	30/01/2011
31465993	FIBRAT	11/01/2006
31582228	FIBRAT	30/10/2008
31427676	FIBRAT	14/08/2003
31841753	FIBRAT	04/11/2008
31085609	FIBRAT	27/12/2010
32050605	FIBRAT	16/01/2008
32263832	FIBRAT	08/11/2007
31556912	FIBRAT	13/07/2010
31074922	FIBRAT	04/03/2011
32148343	FIBRAT	05/05/1999
31626869	FIBRAT	12/04/2011
31703364	FIBRAT	10/06/2008
32055179	FIBRAT	06/09/2000
32047851	FIBRAT	13/07/2010
31186969	FIBRAT	17/03/2004
31359480	FIBRAT	21/07/2006
31427802	FIBRAT	19/12/2008
31357735	FIBRAT	07/02/2011
32017354	FIBRAT	25/01/2008
31473693	FIBRAT	29/11/2006
32028980	FIBRAT	27/01/2005
31473263	FIBRAT	27/09/2006
31126735	FIBRAT	29/04/2008
31071012	FIBRAT	11/02/2011
31462287	FIBRAT	11/08/2010
31847489	FIBRAT	30/12/2010
32045046	FIBRAT	30/05/2007
32154430	FIBRAT	21/05/2007
31851205	FIBRAT	06/09/2002
31790134	FIBRAT	22/11/2006
31805286	FIBRAT	03/10/2008
31863861	FIBRAT	14/01/2009
31673165	FIBRAT	03/12/2007
31668372	FIBRAT	23/06/2008
31792079	FIBRAT	04/02/2009
31107785	FIBRAT	14/02/2011
31451631	FIBRAT	28/05/2007
32215650	FIBRAT	03/12/2010
31855887	FIBRAT	18/09/2007
31183147	FIBRAT	29/09/2009
32048175	FIBRAT	24/02/2011
32100837	FIBRAT	20/04/2010
31793463	FIBRAT	11/10/2000
32057261	FIBRAT	02/02/2011
31076665	FIBRAT	28/04/2004
31522298	FIBRAT	19/01/2006
31464524	FIBRAT	15/10/2010
31593910	FIBRAT	29/10/2008
31268680	FIBRAT	07/04/2011
32257433	FIBRAT	23/12/2003
31924637	FIBRAT	19/02/2009
