patient_id	covar_name	date
7023743	FLUAUR	18/01/2005
7162208	FLUAUR	28/01/2011
9311739	FLUAUR	01/01/1994
16109927	FLUAUR	19/10/2004
8784390	FLUAUR	01/07/2002
16927882	FLUAUR	03/10/2007
8556396	FLUAUR	26/04/2005
20558540	FLUAUR	18/04/2007
6747933	FLUAUR	15/09/2006
7162816	FLUAUR	27/05/2005
8784088	FLUAUR	22/12/2005
1732204	FLUAUR	27/05/2002
9372370	FLUAUR	20/08/2007
739474	FLUAUR	13/11/2003
11407938	FLUAUR	25/02/2010
24722159	FLUAUR	01/01/1999
7093908	FLUAUR	29/10/2009
8652950	FLUAUR	11/02/2011
3939492	FLUAUR	13/05/2003
12778095	FLUAUR	04/02/2010
24729407	FLUAUR	02/11/2007
15384882	FLUAUR	04/04/2007
610072	FLUAUR	16/05/2002
9982943	FLUAUR	12/07/2002
731512	FLUAUR	12/06/2008
6747268	FLUAUR	15/10/2003
24730115	FLUAUR	29/03/2010
5864989	FLUAUR	05/06/2006
20528864	FLUAUR	17/05/2007
20535914	FLUAUR	25/02/2010
9302299	FLUAUR	13/10/2010
24930795	FLUAUR	14/12/2004
5812596	FLUAUR	18/01/2010
206194	FLUAUR	08/02/2011
20530770	FLUAUR	12/09/2007
5034724	FLUAUR	18/09/2009
61852	FLUAUR	11/11/2009
7245493	FLUAUR	26/05/2004
14293625	FLUAUR	31/07/2009
12831552	FLUAUR	28/01/2010
5028400	FLUAUR	23/11/2004
9371920	FLUAUR	06/05/2008
8277775	FLUAUR	12/06/2000
9300058	FLUAUR	24/01/2011
8661980	FLUAUR	10/08/2007
21871509	FLUAUR	22/02/2007
3120941	FLUAUR	28/02/2008
1123313	FLUAUR	06/05/2001
23472073	FLUAUR	17/05/2011
7152290	FLUAUR	02/02/2005
6757389	FLUAUR	14/08/2009
20557462	FLUAUR	02/04/2007
7247475	FLUAUR	03/09/2007
5022361	FLUAUR	30/09/2009
1301453	FLUAUR	11/10/2002
10266394	FLUAUR	23/07/2009
13861443	FLUAUR	03/01/2009
1062835	FLUAUR	23/11/2010
7220964	FLUAUR	09/12/1995
7246999	FLUAUR	28/01/2008
6746487	FLUAUR	24/02/2006
21974194	FLUAUR	29/07/2009
12182868	FLUAUR	12/02/2007
7219712	FLUAUR	20/03/2007
1516892	FLUAUR	26/10/2007
8557367	FLUAUR	23/07/2003
8973282	FLUAUR	18/11/2008
6177821	FLUAUR	13/12/2006
20528913	FLUAUR	21/12/2001
5028278	FLUAUR	07/04/2008
12182622	FLUAUR	23/03/2005
6888668	FLUAUR	14/03/2011
9311454	FLUAUR	30/01/2004
1607075	FLUAUR	26/03/2009
9250324	FLUAUR	30/11/2005
9293857	FLUAUR	04/01/2008
7160936	FLUAUR	28/01/2005
20546433	FLUAUR	25/09/2002
5029473	FLUAUR	03/10/2004
7162636	FLUAUR	17/01/1994
14983661	FLUAUR	26/02/2010
23442733	FLUAUR	31/03/2011
5024989	FLUAUR	01/01/2003
6040773	FLUAUR	29/11/2010
6747870	FLUAUR	29/10/1997
16927754	FLUAUR	07/10/2005
6759067	FLUAUR	17/05/2005
1941220	FLUAUR	15/02/2000
25051272	FLUAUR	07/02/2006
5023903	FLUAUR	01/09/1990
6758836	FLUAUR	23/08/2004
209933	FLUAUR	21/02/2002
5813348	FLUAUR	01/01/1996
10604210	FLUAUR	12/08/2009
18163097	FLUAUR	02/06/2008
24865037	FLUAUR	10/11/2009
7094703	FLUAUR	18/03/2008
24765903	FLUAUR	08/10/2004
5467749	FLUAUR	07/12/2005
17170528	FLUAUR	17/08/2010
6415215	FLUAUR	12/08/2008
173433	FLUAUR	05/10/2002
6958165	FLUAUR	28/11/2007
20564355	FLUAUR	25/10/2001
19228687	FLUAUR	04/03/2010
5033201	FLUAUR	16/09/2004
12858193	FLUAUR	10/11/2009
6178653	FLUAUR	31/10/2003
9203860	FLUAUR	24/06/2010
1336786	FLUAUR	04/02/2009
12691271	FLUAUR	04/03/2010
5024803	FLUAUR	22/08/2005
9309579	FLUAUR	05/05/2005
1069550	FLUAUR	19/11/2009
6598367	FLUAUR	25/06/1943
1171088	FLUAUR	17/09/2001
1210575	FLUAUR	17/12/2007
524925	FLUAUR	09/12/2004
6594789	FLUAUR	20/01/2011
1261742	FLUAUR	14/12/2006
1415991	FLUAUR	03/12/2009
1352974	FLUAUR	29/01/1985
26139674	FLUAUR	23/05/2008
7963931	FLUAUR	01/02/2004
15698726	FLUAUR	05/11/2009
7969130	FLUAUR	18/04/2006
7231434	FLUAUR	22/03/2006
1201480	FLUAUR	30/11/2005
1206620	FLUAUR	25/07/2003
516372	FLUAUR	02/02/2004
1850465	FLUAUR	11/05/2007
1205262	FLUAUR	30/07/2003
6212006	FLUAUR	04/12/2002
6602655	FLUAUR	26/06/2001
6599454	FLUAUR	31/07/2001
6425493	FLUAUR	26/03/2008
515787	FLUAUR	24/09/2007
1445809	FLUAUR	01/07/2005
5991623	FLUAUR	23/05/2011
7966461	FLUAUR	11/04/2011
1205994	FLUAUR	12/02/2008
13273125	FLUAUR	13/12/2010
6592127	FLUAUR	19/03/2007
1419591	FLUAUR	10/11/2010
9815985	FLUAUR	22/02/2011
565283	FLUAUR	01/01/1998
1207086	FLUAUR	01/01/2001
7771093	FLUAUR	13/01/2010
4699350	FLUAUR	20/12/2010
13986458	FLUAUR	18/04/2002
15623737	FLUAUR	18/01/2011
6596858	FLUAUR	30/03/2006
7776144	FLUAUR	01/01/1998
1206524	FLUAUR	21/09/2005
24940303	FLUAUR	26/12/2001
1090765	FLUAUR	26/08/2010
7801913	FLUAUR	13/02/2007
1204719	FLUAUR	01/04/2011
1205584	FLUAUR	25/02/2004
6842492	FLUAUR	07/01/2010
539674	FLUAUR	09/10/2006
13264943	FLUAUR	29/12/2008
8956746	FLUAUR	07/11/2007
1262130	FLUAUR	16/10/2008
525618	FLUAUR	01/01/1998
1424080	FLUAUR	30/01/2008
26145718	FLUAUR	12/04/2005
1278011	FLUAUR	24/12/2008
7966257	FLUAUR	06/02/1933
6599608	FLUAUR	22/05/2002
8955143	FLUAUR	25/06/2003
13205676	FLUAUR	22/05/2009
1445050	FLUAUR	11/02/2005
7770064	FLUAUR	09/10/2003
1132264	FLUAUR	11/02/2011
7801714	FLUAUR	28/09/2005
717484	FLUAUR	12/02/2008
12161450	FLUAUR	24/08/2006
1102451	FLUAUR	26/09/2005
1855343	FLUAUR	01/01/2006
21283186	FLUAUR	17/05/2002
1557371	FLUAUR	15/02/2001
2216986	FLUAUR	01/10/2003
2040077	FLUAUR	01/01/2002
2071314	FLUAUR	08/06/2010
2071345	FLUAUR	01/01/1999
1647977	FLUAUR	09/10/2002
2132832	FLUAUR	06/09/2007
2109593	FLUAUR	23/11/2006
2133429	FLUAUR	02/08/2000
2042982	FLUAUR	16/08/2001
2216845	FLUAUR	01/01/1999
2216630	FLUAUR	12/06/2009
2217164	FLUAUR	02/06/2005
2112990	FLUAUR	05/09/1926
2215430	FLUAUR	20/08/2007
877568	FLUAUR	18/07/2002
873905	FLUAUR	15/12/2005
1682828	FLUAUR	13/10/2009
2238458	FLUAUR	29/07/1928
2068620	FLUAUR	06/02/2003
758125	FLUAUR	17/03/2009
873649	FLUAUR	29/06/2000
1762768	FLUAUR	18/01/2011
2038294	FLUAUR	06/02/2003
6024859	FLUAUR	31/03/1939
759135	FLUAUR	08/01/2009
2777770	FLUAUR	13/05/1997
1764942	FLUAUR	26/02/2007
1765584	FLUAUR	28/04/2006
875564	FLUAUR	14/11/2005
2037991	FLUAUR	03/01/2006
2777493	FLUAUR	23/09/2005
2777495	FLUAUR	27/04/2002
4548131	FLUAUR	14/01/2010
3054967	FLUAUR	05/02/2007
7043389	FLUAUR	25/05/2009
2521846	FLUAUR	22/11/2006
2525988	FLUAUR	15/05/2008
2519254	FLUAUR	16/09/2008
7448030	FLUAUR	13/07/2009
26461705	FLUAUR	17/12/2010
26565592	FLUAUR	01/06/2011
26458657	FLUAUR	01/01/2006
28054433	FLUAUR	22/05/2001
28066338	FLUAUR	06/05/2008
28066311	FLUAUR	19/01/2011
26564907	FLUAUR	15/10/2007
17747528	FLUAUR	21/05/2002
7027238	FLUAUR	04/11/2005
7229461	FLUAUR	01/01/1993
17747156	FLUAUR	07/08/2007
22497799	FLUAUR	13/09/2010
17041146	FLUAUR	04/04/2008
6990280	FLUAUR	06/06/2004
26243303	FLUAUR	01/01/1989
26464502	FLUAUR	18/06/2008
26410194	FLUAUR	05/10/2001
17324100	FLUAUR	02/10/2003
26338190	FLUAUR	17/08/2009
26464787	FLUAUR	11/07/2009
17041554	FLUAUR	06/07/1940
26454330	FLUAUR	09/04/2009
8116839	FLUAUR	26/04/2011
16948462	FLUAUR	13/10/2005
421145	FLUAUR	02/09/2009
464363	FLUAUR	11/08/2008
1899459	FLUAUR	01/01/1990
185359	FLUAUR	13/10/2010
184887	FLUAUR	14/09/2009
185007	FLUAUR	07/06/2007
302236	FLUAUR	22/02/2007
302260	FLUAUR	16/11/2006
3054239	FLUAUR	24/11/2010
28090874	FLUAUR	04/02/2008
28083670	FLUAUR	22/07/2010
7128685	FLUAUR	13/07/2004
875817	FLUAUR	04/04/2006
28055652	FLUAUR	24/07/2007
28083946	FLUAUR	08/12/2002
28082470	FLUAUR	30/05/2001
2777779	FLUAUR	10/01/1990
873986	FLUAUR	17/09/2008
7136014	FLUAUR	27/02/2003
419216	FLUAUR	02/08/2006
303884	FLUAUR	17/10/2007
419430	FLUAUR	01/10/2010
26475064	FLUAUR	22/06/2005
423546	FLUAUR	23/06/2010
28064907	FLUAUR	13/05/2008
301074	FLUAUR	14/09/2009
423574	FLUAUR	19/10/2006
648987	FLUAUR	22/11/2001
7029377	FLUAUR	09/08/2006
875765	FLUAUR	25/05/2004
28055135	FLUAUR	24/11/2008
28056093	FLUAUR	15/04/1924
26488661	FLUAUR	21/12/2006
28044312	FLUAUR	23/12/2009
28072902	FLUAUR	04/12/2006
28079208	FLUAUR	23/02/2009
28061435	FLUAUR	18/07/2007
26477734	FLUAUR	13/09/2006
28045890	FLUAUR	29/05/2006
24665274	FLUAUR	22/03/2005
24666863	FLUAUR	19/04/2005
25535638	FLUAUR	09/10/2002
24661878	FLUAUR	08/05/2009
24662048	FLUAUR	01/05/2001
24662063	FLUAUR	28/03/2006
25742680	FLUAUR	15/07/2008
24658550	FLUAUR	21/06/2001
24665749	FLUAUR	28/03/2007
24661671	FLUAUR	11/06/2008
25742981	FLUAUR	19/07/2004
24671457	FLUAUR	20/05/2010
24656988	FLUAUR	02/11/2007
25741338	FLUAUR	29/07/2008
19770701	FLUAUR	23/07/2009
1361493	FLUAUR	31/01/2006
1374270	FLUAUR	08/06/2009
1366853	FLUAUR	19/11/1998
21553830	FLUAUR	05/03/2003
18188133	FLUAUR	23/05/2002
24659456	FLUAUR	24/11/2003
18196791	FLUAUR	08/10/2003
19968525	FLUAUR	11/11/2003
18197591	FLUAUR	01/01/1968
1899523	FLUAUR	26/04/2006
2250411	FLUAUR	09/10/2001
1030188	FLUAUR	23/08/2007
1904262	FLUAUR	05/09/2008
1899552	FLUAUR	29/01/2008
26642443	FLUAUR	05/08/1999
26630599	FLUAUR	07/02/2007
26776551	FLUAUR	06/02/2010
26776582	FLUAUR	01/01/1991
26637658	FLUAUR	01/01/1998
26629598	FLUAUR	07/10/2008
26830314	FLUAUR	31/05/2006
26835603	FLUAUR	13/01/2009
26776918	FLUAUR	28/06/2005
26830552	FLUAUR	22/01/2009
26629943	FLUAUR	01/12/2004
26628351	FLUAUR	18/01/2007
26802391	FLUAUR	10/10/2009
26805217	FLUAUR	15/04/2011
14311205	FLUAUR	16/01/2011
2988172	FLUAUR	27/05/2011
3254435	FLUAUR	20/12/2006
16842252	FLUAUR	30/12/2007
2987010	FLUAUR	09/05/2005
14310311	FLUAUR	05/10/2009
16842692	FLUAUR	22/06/2009
16567920	FLUAUR	23/10/2002
24577944	FLUAUR	01/09/2006
24654918	FLUAUR	29/01/2001
24667198	FLUAUR	22/10/2010
23484674	FLUAUR	04/03/2005
22921551	FLUAUR	21/11/2006
21651484	FLUAUR	07/10/2004
24579555	FLUAUR	16/12/2010
26895844	FLUAUR	30/12/2009
27012625	FLUAUR	02/07/2008
26771518	FLUAUR	08/04/2005
26730088	FLUAUR	02/09/1930
26864665	FLUAUR	11/04/2007
26848752	FLUAUR	01/01/1998
26857281	FLUAUR	07/07/2008
26865577	FLUAUR	20/12/2005
26876140	FLUAUR	11/04/2011
26963071	FLUAUR	26/10/2009
26856356	FLUAUR	05/01/2004
26856371	FLUAUR	27/03/2008
26959476	FLUAUR	18/05/2007
26888601	FLUAUR	12/02/2007
26789113	FLUAUR	26/10/2004
26794725	FLUAUR	31/12/2009
26768700	FLUAUR	23/06/2005
26768866	FLUAUR	05/09/2005
26761941	FLUAUR	16/03/2005
26704115	FLUAUR	25/10/2002
26776634	FLUAUR	01/11/1997
26815899	FLUAUR	24/09/2001
26995388	FLUAUR	03/05/2007
27087271	FLUAUR	06/04/2009
27085252	FLUAUR	16/09/2008
27133198	FLUAUR	28/09/2000
27136867	FLUAUR	22/05/2008
27151169	FLUAUR	20/01/2005
27087864	FLUAUR	14/11/2007
27101595	FLUAUR	13/02/2003
27116894	FLUAUR	15/12/2008
27132014	FLUAUR	02/05/2003
27104236	FLUAUR	05/03/2009
27100098	FLUAUR	20/10/2010
27062005	FLUAUR	04/11/2005
27031739	FLUAUR	28/01/2003
27073459	FLUAUR	06/05/2009
27033644	FLUAUR	01/08/2008
26994636	FLUAUR	13/12/2004
27014237	FLUAUR	08/12/2000
27000123	FLUAUR	18/02/2010
26996377	FLUAUR	20/05/2011
26996261	FLUAUR	07/07/2010
26978664	FLUAUR	29/04/2004
27039199	FLUAUR	03/05/2007
26996642	FLUAUR	18/11/2004
27032118	FLUAUR	14/02/2011
27022873	FLUAUR	29/01/2010
27005513	FLUAUR	04/03/2009
27400146	FLUAUR	23/01/2008
27213348	FLUAUR	01/02/2007
27214679	FLUAUR	01/04/2005
27325553	FLUAUR	29/10/2003
27379580	FLUAUR	09/02/2005
27216624	FLUAUR	12/07/2010
27171122	FLUAUR	22/02/2008
27213558	FLUAUR	12/06/2007
27369270	FLUAUR	21/12/2007
27388816	FLUAUR	06/10/2007
27389353	FLUAUR	31/05/2011
27143681	FLUAUR	30/03/2010
27147397	FLUAUR	01/01/1995
27148073	FLUAUR	10/08/2007
27219885	FLUAUR	18/10/2006
27384468	FLUAUR	09/02/2004
27385174	FLUAUR	29/04/2004
27216974	FLUAUR	14/07/2004
27313906	FLUAUR	14/12/2006
27314686	FLUAUR	22/10/2008
27303621	FLUAUR	07/07/2008
27216925	FLUAUR	29/03/2011
27218594	FLUAUR	14/02/2005
27199578	FLUAUR	04/08/2009
27306095	FLUAUR	19/04/2010
27213909	FLUAUR	22/02/2011
27362717	FLUAUR	13/07/2006
27358392	FLUAUR	07/04/2005
27316412	FLUAUR	18/08/1998
27317083	FLUAUR	18/04/2008
27316072	FLUAUR	26/04/2010
27369910	FLUAUR	16/03/2006
27349973	FLUAUR	14/09/2010
27396888	FLUAUR	13/12/2005
27348023	FLUAUR	01/09/2006
27362271	FLUAUR	24/12/2004
27366113	FLUAUR	01/10/1999
27168973	FLUAUR	22/04/2004
27362286	FLUAUR	27/07/2010
27296141	FLUAUR	17/03/2009
27213832	FLUAUR	14/09/2005
27308560	FLUAUR	15/11/2007
27253841	FLUAUR	20/12/2007
27247374	FLUAUR	12/01/2006
27253481	FLUAUR	18/10/2007
27389186	FLUAUR	07/05/2004
26975095	FLUAUR	21/12/2006
26967647	FLUAUR	01/07/2008
27249682	FLUAUR	28/09/2005
26989189	FLUAUR	21/09/2010
27643610	FLUAUR	23/02/2010
27600750	FLUAUR	15/09/1997
27661153	FLUAUR	05/03/2010
27493393	FLUAUR	17/04/2007
27493267	FLUAUR	01/01/1995
27453870	FLUAUR	24/09/1995
27568261	FLUAUR	19/11/2004
27765553	FLUAUR	02/01/2002
27631241	FLUAUR	23/06/2005
27605030	FLUAUR	16/11/2010
27614610	FLUAUR	20/10/2007
27623279	FLUAUR	30/12/2009
27757330	FLUAUR	01/01/2001
27160809	FLUAUR	07/03/2008
27127605	FLUAUR	03/07/2002
27166399	FLUAUR	07/07/2003
27153595	FLUAUR	06/10/2006
27469950	FLUAUR	02/08/2010
27000618	FLUAUR	25/10/2010
26899689	FLUAUR	09/02/2009
26976144	FLUAUR	06/10/2003
648889	FLUAUR	25/02/2005
24579212	FLUAUR	07/05/2004
27659684	FLUAUR	13/04/2004
18187165	FLUAUR	05/12/2000
20070922	FLUAUR	22/08/2003
27220237	FLUAUR	01/01/2000
26803917	FLUAUR	22/05/2007
26794508	FLUAUR	13/05/2010
27538570	FLUAUR	02/01/2003
27665250	FLUAUR	24/07/2009
27684839	FLUAUR	12/02/2009
27456675	FLUAUR	17/12/2008
27539683	FLUAUR	21/01/2010
27460023	FLUAUR	16/04/2010
27533971	FLUAUR	01/07/2009
27458555	FLUAUR	19/05/2011
27779761	FLUAUR	27/06/2003
27477136	FLUAUR	29/04/2011
27314117	FLUAUR	01/09/2010
24581729	FLUAUR	11/06/2009
421835	FLUAUR	02/12/2009
27780914	FLUAUR	01/04/2003
27470250	FLUAUR	04/03/2005
27454435	FLUAUR	31/10/2007
27472174	FLUAUR	24/02/2010
27512143	FLUAUR	17/12/2008
27535521	FLUAUR	11/09/2009
24655178	FLUAUR	11/12/2003
27783717	FLUAUR	05/05/2003
26619933	FLUAUR	28/04/1926
427287	FLUAUR	04/08/2008
26777286	FLUAUR	22/12/2009
27657567	FLUAUR	25/07/2007
26945611	FLUAUR	28/04/2010
26934633	FLUAUR	04/05/2009
27398357	FLUAUR	29/04/2010
27685511	FLUAUR	28/04/2010
27675953	FLUAUR	06/06/2003
18186896	FLUAUR	19/10/2007
27220336	FLUAUR	29/07/2009
27763744	FLUAUR	30/09/2002
27719296	FLUAUR	26/01/2009
27695068	FLUAUR	13/05/2005
27716806	FLUAUR	15/05/2008
27665005	FLUAUR	04/10/2007
27591900	FLUAUR	11/06/2004
26800573	FLUAUR	14/08/2010
27471521	FLUAUR	07/02/2006
27768740	FLUAUR	14/10/2002
27782172	FLUAUR	18/08/2003
27676304	FLUAUR	21/07/2009
26872972	FLUAUR	31/05/2006
27778389	FLUAUR	08/04/2002
26711256	FLUAUR	01/07/2005
27765475	FLUAUR	31/08/2004
27087757	FLUAUR	13/07/2005
26900545	FLUAUR	11/07/2005
26776955	FLUAUR	20/04/2007
26887104	FLUAUR	14/09/2010
21554134	FLUAUR	26/10/2006
27806522	FLUAUR	15/04/2011
33118427	FLUAUR	21/03/2006
33001939	FLUAUR	26/01/2009
33015982	FLUAUR	11/05/2009
33065445	FLUAUR	22/04/1927
33008912	FLUAUR	18/03/1924
33029033	FLUAUR	22/02/2010
33016797	FLUAUR	28/11/2006
33110326	FLUAUR	17/05/2001
33113908	FLUAUR	26/05/2010
33099866	FLUAUR	28/08/2002
33019290	FLUAUR	09/04/2007
33025068	FLUAUR	19/08/2008
33072905	FLUAUR	29/04/2005
33071618	FLUAUR	21/06/2007
33111158	FLUAUR	25/05/2011
33015203	FLUAUR	18/07/2006
18197978	FLUAUR	16/03/2007
1029165	FLUAUR	01/10/2009
418915	FLUAUR	16/04/2011
184941	FLUAUR	21/01/2011
26998574	FLUAUR	13/04/2011
2958097	FLUAUR	17/01/2007
27086613	FLUAUR	06/05/2009
27798787	FLUAUR	14/04/2009
27934485	FLUAUR	05/05/2009
16712757	FLUAUR	17/11/2003
16135277	FLUAUR	04/11/2010
14187680	FLUAUR	04/03/2010
27914451	FLUAUR	22/06/2007
33020434	FLUAUR	05/02/2001
33101479	FLUAUR	22/07/2002
33020265	FLUAUR	15/12/2006
33065144	FLUAUR	04/10/2007
33072898	FLUAUR	18/03/2008
33026699	FLUAUR	11/03/2004
33007224	FLUAUR	27/06/2000
33050169	FLUAUR	09/08/2004
33070455	FLUAUR	20/12/2005
33037440	FLUAUR	10/09/2007
33101385	FLUAUR	04/05/2000
33003742	FLUAUR	01/12/2008
33093762	FLUAUR	03/07/2007
16636662	FLUAUR	22/05/2009
28024706	FLUAUR	25/02/2010
33313140	FLUAUR	04/06/2005
21109661	FLUAUR	09/09/2009
23328225	FLUAUR	12/04/2007
21101165	FLUAUR	28/07/2006
21114678	FLUAUR	26/05/2011
23408435	FLUAUR	07/04/2009
23381575	FLUAUR	06/04/2004
33291035	FLUAUR	31/10/2009
16640222	FLUAUR	10/03/2006
28023165	FLUAUR	01/01/2000
33307096	FLUAUR	02/03/2006
33313715	FLUAUR	27/04/2010
18768749	FLUAUR	27/01/2004
33307268	FLUAUR	14/06/2009
27848097	FLUAUR	25/11/2004
16708704	FLUAUR	20/05/2008
16705254	FLUAUR	18/03/2002
23401443	FLUAUR	01/04/2000
16773412	FLUAUR	01/01/2009
23339422	FLUAUR	02/09/2003
23401564	FLUAUR	24/10/2003
16621458	FLUAUR	03/03/2010
20989739	FLUAUR	02/03/2010
16124521	FLUAUR	30/03/2000
16130043	FLUAUR	05/11/2007
23403049	FLUAUR	03/07/2008
23381987	FLUAUR	17/07/2009
33209870	FLUAUR	02/04/2009
27914060	FLUAUR	16/11/2010
23318814	FLUAUR	25/01/1996
33307467	FLUAUR	01/10/2007
16124869	FLUAUR	20/08/2002
16125165	FLUAUR	14/06/2000
16623658	FLUAUR	16/12/2005
23326929	FLUAUR	08/04/2010
33297992	FLUAUR	08/04/2010
16640187	FLUAUR	13/02/2006
33244635	FLUAUR	06/06/2005
33224242	FLUAUR	17/03/2011
31487753	FLUAUR	29/05/2006
31144905	FLUAUR	23/10/2009
16622928	FLUAUR	26/01/2005
16126950	FLUAUR	21/01/2001
16129910	FLUAUR	05/04/2000
20987392	FLUAUR	05/12/2007
23412047	FLUAUR	26/05/2006
23346655	FLUAUR	30/09/2010
16127130	FLUAUR	13/02/2007
20988305	FLUAUR	02/02/2011
23413392	FLUAUR	12/07/2005
16713421	FLUAUR	19/06/2010
23401464	FLUAUR	26/02/2008
16603341	FLUAUR	02/10/2001
16623344	FLUAUR	16/02/2010
23327900	FLUAUR	08/11/2006
23410220	FLUAUR	19/08/2003
23353940	FLUAUR	25/02/2011
23354017	FLUAUR	28/10/2003
33224968	FLUAUR	01/01/2005
16613501	FLUAUR	01/01/1992
23401244	FLUAUR	05/09/2008
23319637	FLUAUR	01/01/2008
23367113	FLUAUR	01/01/2000
31132640	FLUAUR	06/05/2002
32144827	FLUAUR	19/11/2007
32010493	FLUAUR	01/07/2004
32196437	FLUAUR	22/08/2006
31835524	FLUAUR	19/05/2005
31043924	FLUAUR	16/01/2008
31164393	FLUAUR	17/04/2008
31937680	FLUAUR	10/08/2009
31202352	FLUAUR	28/12/2007
31550961	FLUAUR	05/12/2006
31298093	FLUAUR	12/02/2002
31450299	FLUAUR	20/12/2006
31650069	FLUAUR	15/07/2010
31683932	FLUAUR	08/01/2007
31194005	FLUAUR	25/01/2007
32046442	FLUAUR	30/08/2006
32175738	FLUAUR	30/03/2004
31588614	FLUAUR	20/02/2002
31494769	FLUAUR	17/12/2008
31038162	FLUAUR	07/06/2010
31393241	FLUAUR	19/12/2003
31605404	FLUAUR	10/03/2003
31934644	FLUAUR	09/02/2002
31461047	FLUAUR	20/06/2003
31059043	FLUAUR	05/11/2009
32182917	FLUAUR	24/11/2005
31728526	FLUAUR	24/06/2002
31461480	FLUAUR	12/02/1985
32006258	FLUAUR	22/04/2010
31033667	FLUAUR	07/10/2006
32257247	FLUAUR	13/01/2009
31561242	FLUAUR	21/07/2010
31662126	FLUAUR	22/04/1997
31839581	FLUAUR	03/05/2011
31042914	FLUAUR	09/01/2008
31803487	FLUAUR	27/03/2003
31278461	FLUAUR	22/01/2010
32241646	FLUAUR	07/06/2001
31893770	FLUAUR	01/03/2006
31548392	FLUAUR	03/01/2011
31999224	FLUAUR	01/11/2000
31471110	FLUAUR	01/09/2009
32137823	FLUAUR	10/02/2010
32168735	FLUAUR	15/10/2008
31877612	FLUAUR	15/06/2010
31388509	FLUAUR	15/04/2008
31592347	FLUAUR	19/10/2010
32214444	FLUAUR	06/10/2008
31300199	FLUAUR	10/12/2008
31385826	FLUAUR	08/10/2004
31277367	FLUAUR	03/11/2009
31071617	FLUAUR	01/06/2009
31974767	FLUAUR	24/05/2007
31085353	FLUAUR	11/03/2011
31990260	FLUAUR	18/05/2004
31343010	FLUAUR	17/02/2010
32192753	FLUAUR	11/01/2005
31433608	FLUAUR	04/05/2010
31977477	FLUAUR	19/04/2010
31850878	FLUAUR	26/03/2005
31624771	FLUAUR	30/06/2009
31309876	FLUAUR	18/10/2010
31915254	FLUAUR	19/05/2004
31136755	FLUAUR	05/03/2007
31655762	FLUAUR	25/05/2011
32093110	FLUAUR	12/01/2011
31822514	FLUAUR	16/03/2011
31641342	FLUAUR	27/09/2006
31535500	FLUAUR	01/01/1998
31766916	FLUAUR	24/09/2009
31159152	FLUAUR	23/09/2009
31059046	FLUAUR	26/12/2008
31922721	FLUAUR	11/11/2008
32001413	FLUAUR	06/12/1982
31716553	FLUAUR	28/05/2007
31905886	FLUAUR	28/04/2008
32040874	FLUAUR	18/05/2010
31745915	FLUAUR	27/12/2005
32074780	FLUAUR	06/05/2011
31756033	FLUAUR	08/05/2006
31429536	FLUAUR	12/06/2007
32032935	FLUAUR	26/03/2002
32254510	FLUAUR	07/04/2003
31664650	FLUAUR	15/06/2007
32226413	FLUAUR	26/10/2002
32243106	FLUAUR	26/11/2007
31184927	FLUAUR	24/05/2004
31701050	FLUAUR	31/10/2005
32117548	FLUAUR	22/02/2008
31076697	FLUAUR	13/01/2011
32018491	FLUAUR	21/02/2005
31968363	FLUAUR	10/11/2008
31164258	FLUAUR	04/03/2010
32201222	FLUAUR	27/10/1934
31828310	FLUAUR	11/04/2005
31441666	FLUAUR	29/03/2004
31390850	FLUAUR	09/06/2008
31631895	FLUAUR	18/05/2001
32007682	FLUAUR	01/02/1999
32029664	FLUAUR	18/05/2006
31308391	FLUAUR	01/01/1962
31250416	FLUAUR	22/05/2007
31660701	FLUAUR	11/02/2009
31526446	FLUAUR	18/02/2010
31567343	FLUAUR	25/10/2007
31959694	FLUAUR	01/12/2006
32190370	FLUAUR	28/10/2008
32141512	FLUAUR	06/08/2008
31613374	FLUAUR	27/06/1998
31492215	FLUAUR	17/04/2007
31964245	FLUAUR	30/07/1989
31441426	FLUAUR	19/08/2004
31831196	FLUAUR	25/04/2005
31806375	FLUAUR	01/01/2000
32128395	FLUAUR	04/05/2004
31750115	FLUAUR	29/05/2006
31703090	FLUAUR	11/05/2009
31461794	FLUAUR	05/01/2011
31293266	FLUAUR	22/02/2005
31435241	FLUAUR	18/02/2004
31683193	FLUAUR	06/08/2006
31916030	FLUAUR	10/11/2008
31958844	FLUAUR	23/09/2009
31823040	FLUAUR	07/10/2004
31843748	FLUAUR	30/06/2003
31471199	FLUAUR	12/08/2003
31966120	FLUAUR	17/01/2006
32099327	FLUAUR	30/06/1995
32149623	FLUAUR	24/11/2009
31712543	FLUAUR	23/04/2009
31072145	FLUAUR	03/06/2001
31995370	FLUAUR	30/01/2009
32171789	FLUAUR	29/09/2009
31041581	FLUAUR	16/02/2009
31744116	FLUAUR	01/08/2005
32022210	FLUAUR	18/01/2005
31525970	FLUAUR	19/12/2003
31552136	FLUAUR	24/06/2003
32197469	FLUAUR	25/01/2010
31757596	FLUAUR	23/09/2008
31638966	FLUAUR	16/11/2010
32030873	FLUAUR	08/01/2009
32259318	FLUAUR	27/07/2005
31243497	FLUAUR	26/05/2005
31352687	FLUAUR	28/03/2006
31148525	FLUAUR	26/06/2003
32143347	FLUAUR	31/10/2006
31465949	FLUAUR	18/01/2011
31569281	FLUAUR	29/03/2005
32176922	FLUAUR	24/04/2006
31417692	FLUAUR	31/05/2006
31174190	FLUAUR	21/11/2007
31516751	FLUAUR	27/02/2007
31419290	FLUAUR	23/02/2007
31730012	FLUAUR	18/08/2005
32236750	FLUAUR	24/11/2002
31883127	FLUAUR	01/01/1993
32174291	FLUAUR	01/01/1997
32044352	FLUAUR	05/04/2000
31415742	FLUAUR	16/03/2010
31973312	FLUAUR	31/03/2010
31111108	FLUAUR	05/10/2005
32148445	FLUAUR	07/06/2010
31513965	FLUAUR	01/03/2011
31926083	FLUAUR	06/06/2008
31140552	FLUAUR	04/02/2009
31078164	FLUAUR	19/07/2003
32234530	FLUAUR	22/04/2008
32258288	FLUAUR	11/12/2003
31375145	FLUAUR	20/02/2006
31804320	FLUAUR	22/11/2007
32099491	FLUAUR	06/05/2011
32257488	FLUAUR	27/03/2008
31373433	FLUAUR	17/04/2000
31187646	FLUAUR	10/01/2011
31826783	FLUAUR	25/03/2008
31430347	FLUAUR	21/08/2007
32068625	FLUAUR	24/09/2008
31434431	FLUAUR	30/03/2011
32172413	FLUAUR	16/10/2001
31339822	FLUAUR	09/03/2007
31219593	FLUAUR	19/11/2009
32189793	FLUAUR	26/07/2007
31329418	FLUAUR	08/10/2009
31067422	FLUAUR	20/11/2003
31819996	FLUAUR	21/03/2007
31194705	FLUAUR	24/06/2008
31107101	FLUAUR	26/05/2004
31265348	FLUAUR	15/01/2009
31369349	FLUAUR	13/01/2009
32073876	FLUAUR	08/03/2005
31520312	FLUAUR	16/10/2003
32026380	FLUAUR	07/05/2010
31273855	FLUAUR	07/04/2011
31256796	FLUAUR	19/10/2010
31691952	FLUAUR	10/03/2009
31159489	FLUAUR	17/12/2009
32270655	FLUAUR	20/01/2009
31073956	FLUAUR	14/01/2004
31400190	FLUAUR	12/05/2008
31311199	FLUAUR	29/06/2004
31901197	FLUAUR	20/07/2003
31622937	FLUAUR	17/11/2003
31228142	FLUAUR	09/12/2008
31644023	FLUAUR	02/02/2007
31662360	FLUAUR	05/09/2006
31881754	FLUAUR	18/11/2008
31264025	FLUAUR	29/01/2009
31282685	FLUAUR	27/10/2003
31234645	FLUAUR	01/01/1991
32118990	FLUAUR	27/09/2005
32203926	FLUAUR	27/04/2010
31393998	FLUAUR	12/02/2005
32226138	FLUAUR	19/09/2007
32155126	FLUAUR	12/07/2003
32205231	FLUAUR	01/09/2003
31140632	FLUAUR	21/01/2008
32178097	FLUAUR	29/09/2004
31457699	FLUAUR	26/06/2008
31639191	FLUAUR	08/01/2007
31693070	FLUAUR	14/06/2005
31960354	FLUAUR	05/05/1931
31822263	FLUAUR	26/10/2000
31209591	FLUAUR	19/09/2007
31237625	FLUAUR	03/08/2010
31725976	FLUAUR	10/02/2006
31759943	FLUAUR	18/10/2010
31080678	FLUAUR	06/09/2006
32142008	FLUAUR	26/01/2010
31600813	FLUAUR	25/04/2005
32144868	FLUAUR	25/05/2008
31682121	FLUAUR	28/10/2009
31145497	FLUAUR	22/10/2010
31246810	FLUAUR	24/02/2005
31344355	FLUAUR	03/04/2002
32248353	FLUAUR	27/08/2008
31556912	FLUAUR	23/02/2010
31959830	FLUAUR	17/07/2008
31400737	FLUAUR	08/02/2010
31506905	FLUAUR	25/05/1994
31538206	FLUAUR	29/05/2004
32129489	FLUAUR	09/01/2011
31030230	FLUAUR	09/04/2007
31104559	FLUAUR	23/12/2003
31933305	FLUAUR	22/11/2000
31174405	FLUAUR	14/12/2010
31049205	FLUAUR	07/05/2010
32017354	FLUAUR	07/10/2007
31426144	FLUAUR	06/10/2005
31083826	FLUAUR	07/01/2004
31505607	FLUAUR	10/07/2003
31733512	FLUAUR	07/05/2004
32123571	FLUAUR	17/12/2009
31929829	FLUAUR	09/01/2007
32062791	FLUAUR	12/02/2004
31751458	FLUAUR	23/12/2010
31697109	FLUAUR	23/03/2005
31238486	FLUAUR	24/11/2009
31805286	FLUAUR	01/01/1992
31893641	FLUAUR	11/05/2009
31863861	FLUAUR	19/08/2010
31851850	FLUAUR	09/02/2011
31176194	FLUAUR	26/02/2003
31797705	FLUAUR	26/02/2008
32273807	FLUAUR	05/06/2007
32122599	FLUAUR	21/05/2010
31546409	FLUAUR	10/03/2006
31410826	FLUAUR	10/02/2009
31454501	FLUAUR	23/03/2009
31100905	FLUAUR	14/03/2002
31940613	FLUAUR	12/04/2010
31165916	FLUAUR	28/06/2010
31624367	FLUAUR	27/10/2010
32248960	FLUAUR	10/04/2006
31967668	FLUAUR	04/02/2010
31921740	FLUAUR	15/04/2008
31157330	FLUAUR	21/12/2009
31166412	FLUAUR	09/04/2001
31917595	FLUAUR	01/01/2002
