patient_id	covar_name	date
8556396	G04CA52	29/03/2011
6747268	G04CA52	12/05/2011
10393855	G04CA52	24/05/2011
1936765	G04CA52	30/05/2011
3328189	G04CA52	20/05/2011
25047653	G04CA52	11/04/2011
6757389	G04CA52	04/05/2011
8786220	G04CA52	16/05/2011
731479	G04CA52	23/02/2011
9293857	G04CA52	31/05/2011
173267	G04CA52	15/05/2011
20564355	G04CA52	17/02/2011
16556701	G04CA52	27/05/2011
24950963	G04CA52	29/04/2011
1091138	G04CA52	03/05/2011
6595126	G04CA52	19/05/2011
1545327	G04CA52	22/05/2011
25336591	G04CA52	01/06/2011
189189	G04CA52	20/05/2011
1103551	G04CA52	06/05/2011
2055045	G04CA52	19/05/2011
2034262	G04CA52	17/05/2011
875533	G04CA52	29/04/2011
2108829	G04CA52	22/12/2010
2754268	G04CA52	09/05/2011
28044409	G04CA52	14/03/2011
26235928	G04CA52	09/05/2011
28083946	G04CA52	25/04/2011
2778926	G04CA52	11/04/2011
24656694	G04CA52	29/04/2011
1900288	G04CA52	05/05/2011
18190165	G04CA52	20/04/2011
1903682	G04CA52	27/04/2011
18199623	G04CA52	06/05/2011
26946205	G04CA52	13/05/2011
26916199	G04CA52	24/05/2011
27012625	G04CA52	18/05/2011
26847784	G04CA52	13/05/2011
26962098	G04CA52	14/05/2011
26972816	G04CA52	20/05/2011
27065338	G04CA52	24/05/2011
26998721	G04CA52	06/05/2011
27247425	G04CA52	19/05/2011
27764912	G04CA52	13/05/2011
27144188	G04CA52	16/05/2011
27129231	G04CA52	13/05/2011
26976144	G04CA52	20/05/2011
24579212	G04CA52	01/06/2011
27533492	G04CA52	29/05/2011
27668942	G04CA52	26/05/2011
27010245	G04CA52	03/05/2011
27366636	G04CA52	16/05/2011
33051320	G04CA52	24/03/2011
33111158	G04CA52	10/05/2011
33067653	G04CA52	12/11/2010
33104786	G04CA52	18/05/2011
33093137	G04CA52	12/05/2011
23381575	G04CA52	11/05/2011
33288621	G04CA52	26/04/2011
23354037	G04CA52	24/05/2011
33289106	G04CA52	09/05/2011
16127452	G04CA52	29/04/2011
20981736	G04CA52	01/06/2011
23353940	G04CA52	18/05/2011
31545249	G04CA52	04/03/2011
32175738	G04CA52	10/05/2011
31446823	G04CA52	19/03/2011
31750446	G04CA52	05/05/2011
32155110	G04CA52	06/04/2011
31874420	G04CA52	07/03/2011
32100016	G04CA52	23/05/2011
31791803	G04CA52	14/12/2010
31219593	G04CA52	07/04/2011
32118990	G04CA52	22/03/2011
31922210	G04CA52	31/05/2011
