patient_id	covar_name	date
12783062	G01AF04	20/05/2011
13222429	G01AF04	30/07/2009
13375645	G01AF04	22/02/2010
9388668	G01AF04	16/08/2006
8787603	G01AF04	10/03/2011
736944	G01AF04	29/05/2003
23072754	G01AF04	07/02/2011
24715534	G01AF04	11/03/2005
9231091	G01AF04	08/06/2009
5024803	G01AF04	17/06/2010
10394362	G01AF04	27/10/2010
1206852	G01AF04	11/12/2002
1851987	G01AF04	29/06/2001
8068502	G01AF04	07/05/2011
1852867	G01AF04	01/12/2006
1199856	G01AF04	18/12/2003
1850819	G01AF04	09/10/2008
1852196	G01AF04	31/07/2008
1639524	G01AF04	11/01/2008
1855368	G01AF04	12/06/2007
2200948	G01AF04	17/10/2007
1683307	G01AF04	06/05/2005
904619	G01AF04	21/05/2008
2037159	G01AF04	16/12/2004
2759303	G01AF04	26/07/2010
26516379	G01AF04	28/09/2010
419256	G01AF04	07/07/2009
420227	G01AF04	15/02/2008
437354	G01AF04	09/07/2009
17040128	G01AF04	14/07/2008
24662681	G01AF04	12/01/2010
19423532	G01AF04	05/04/2004
1910693	G01AF04	24/10/2005
13872036	G01AF04	04/05/2010
10824670	G01AF04	08/06/2007
12951527	G01AF04	06/06/2009
26880238	G01AF04	07/11/2007
26953449	G01AF04	21/04/2006
27047429	G01AF04	25/05/2011
27316566	G01AF04	17/02/2009
27314715	G01AF04	24/03/2006
27308692	G01AF04	22/09/2006
27316455	G01AF04	11/01/2006
27363018	G01AF04	05/10/2010
27171402	G01AF04	16/08/2010
27622577	G01AF04	22/04/2010
27493267	G01AF04	27/12/2006
27759030	G01AF04	11/04/2011
27616396	G01AF04	10/05/2006
27540377	G01AF04	19/05/2010
27535600	G01AF04	28/03/2011
27532946	G01AF04	04/02/2009
27784476	G01AF04	17/05/2005
27459762	G01AF04	09/10/2006
33026002	G01AF04	20/10/2005
33011503	G01AF04	07/08/2007
27539608	G01AF04	17/12/2009
25738030	G01AF04	23/10/2006
33068298	G01AF04	06/11/2008
33083224	G01AF04	28/09/2009
16602526	G01AF04	03/04/2006
16596794	G01AF04	04/05/2009
27857820	G01AF04	12/05/2009
16655186	G01AF04	01/10/2009
33233293	G01AF04	27/06/2007
21100699	G01AF04	28/05/2007
23370592	G01AF04	19/09/2007
16680317	G01AF04	04/10/2010
33293731	G01AF04	16/03/2004
16636746	G01AF04	04/10/2007
16636488	G01AF04	15/10/2009
33210334	G01AF04	14/09/2007
16610026	G01AF04	01/12/2010
21011333	G01AF04	26/05/2011
16125129	G01AF04	14/01/2004
30094435	G01AF04	31/05/2011
16598711	G01AF04	30/11/2005
23401236	G01AF04	18/01/2010
16598055	G01AF04	03/08/2001
16181240	G01AF04	26/01/2010
31628609	G01AF04	24/07/2008
31435208	G01AF04	25/03/2009
31693160	G01AF04	01/09/2008
32144155	G01AF04	07/11/2005
31246912	G01AF04	24/05/2005
32111490	G01AF04	02/10/2006
32073787	G01AF04	15/12/2008
31605756	G01AF04	08/10/2008
32044812	G01AF04	21/10/2004
31916275	G01AF04	08/09/2008
31416932	G01AF04	05/10/2001
32243083	G01AF04	05/08/2005
32087044	G01AF04	05/08/2004
31736936	G01AF04	27/01/2009
31406734	G01AF04	01/09/2008
32247767	G01AF04	12/05/2004
32009303	G01AF04	16/05/2007
31251919	G01AF04	29/12/2009
31671227	G01AF04	04/11/2009
31645480	G01AF04	09/11/2007
31246231	G01AF04	18/10/2006
32239114	G01AF04	24/09/2008
