patient_id	covar_name	date
8960142	G03CX01	24/01/2005
10333557	G03CX01	15/01/2004
8977102	G03CX01	09/06/2003
3293005	G03CX01	20/11/2008
1942265	G03CX01	09/05/2011
8640108	G03CX01	16/01/2007
702188	G03CX01	04/06/2003
19184169	G03CX01	27/12/2004
9356877	G03CX01	05/09/2008
1331185	G03CX01	25/04/2011
1515569	G03CX01	02/12/2004
9386927	G03CX01	13/04/2004
9250589	G03CX01	01/07/2004
8975603	G03CX01	23/10/2007
949102	G03CX01	14/05/2004
1069578	G03CX01	26/04/2004
1163234	G03CX01	11/10/2010
16554489	G03CX01	17/11/2010
20566164	G03CX01	09/07/2001
6756107	G03CX01	08/09/2004
9375773	G03CX01	17/12/2003
20565596	G03CX01	21/06/2007
6417039	G03CX01	31/03/2011
12694648	G03CX01	30/09/2004
3290897	G03CX01	30/03/2004
4988916	G03CX01	01/06/2011
24765014	G03CX01	16/05/2011
1853695	G03CX01	30/05/2011
639360	G03CX01	04/05/2000
7848713	G03CX01	18/03/2005
8068133	G03CX01	21/12/2010
12189670	G03CX01	27/04/2005
6423585	G03CX01	30/12/2003
486570	G03CX01	11/03/2003
486077	G03CX01	30/03/2011
2217081	G03CX01	09/11/2004
2143938	G03CX01	09/08/2010
902142	G03CX01	08/01/2004
2034398	G03CX01	11/10/2007
2812092	G03CX01	22/02/2003
3053021	G03CX01	24/05/2004
2766082	G03CX01	12/07/2002
3053490	G03CX01	13/02/2009
17323216	G03CX01	11/03/2005
15660220	G03CX01	11/05/2011
26460364	G03CX01	29/10/2003
26565837	G03CX01	03/01/2007
28071324	G03CX01	11/05/2011
20033277	G03CX01	21/04/2004
26425372	G03CX01	18/01/2005
20673582	G03CX01	27/08/2008
26424835	G03CX01	08/06/2005
28042210	G03CX01	12/12/2006
18472135	G03CX01	02/05/2011
1903028	G03CX01	07/08/2000
2249543	G03CX01	10/07/2003
28052808	G03CX01	20/11/2007
2763164	G03CX01	28/02/2005
2108998	G03CX01	17/07/2005
28080061	G03CX01	20/01/2004
434471	G03CX01	06/07/2010
302593	G03CX01	27/06/2007
28055845	G03CX01	25/05/2011
28065837	G03CX01	03/10/2000
28072320	G03CX01	23/09/2003
28056641	G03CX01	12/01/2004
24669031	G03CX01	02/12/2005
25738688	G03CX01	13/09/2006
24662440	G03CX01	12/02/2003
25636658	G03CX01	16/05/2005
24664661	G03CX01	22/12/2005
419008	G03CX01	30/11/2000
1372823	G03CX01	30/04/2001
18191643	G03CX01	26/07/2002
18193361	G03CX01	04/09/2002
1361853	G03CX01	04/12/2007
1371981	G03CX01	24/07/2003
18542686	G03CX01	30/11/2004
19803579	G03CX01	26/08/2005
18196192	G03CX01	18/06/2004
18188014	G03CX01	20/04/2004
18187821	G03CX01	30/08/2006
1910693	G03CX01	08/02/2007
1368824	G03CX01	16/02/2008
26830506	G03CX01	20/07/2006
26770421	G03CX01	21/06/2007
26619113	G03CX01	12/04/2011
21552949	G03CX01	26/05/2006
26717898	G03CX01	08/03/2006
26720626	G03CX01	19/05/2003
22922409	G03CX01	08/09/2005
26961811	G03CX01	22/05/2010
26917635	G03CX01	14/07/2006
26992609	G03CX01	04/01/2011
27106264	G03CX01	17/08/2005
27151096	G03CX01	29/04/2004
27046535	G03CX01	26/11/2003
27038432	G03CX01	21/07/2004
27036527	G03CX01	23/12/2004
27024244	G03CX01	27/09/2005
27039385	G03CX01	24/11/2004
26996261	G03CX01	17/08/2007
27039199	G03CX01	05/11/2007
27039849	G03CX01	19/12/2003
27210102	G03CX01	09/07/2007
27399991	G03CX01	21/07/2006
27231218	G03CX01	04/10/2001
27314452	G03CX01	08/12/2006
27304667	G03CX01	15/04/2005
27320454	G03CX01	09/12/2009
27370248	G03CX01	02/11/2004
27252394	G03CX01	17/01/2005
26954926	G03CX01	09/11/2004
27200892	G03CX01	03/04/2009
27592082	G03CX01	28/09/2005
27576845	G03CX01	14/07/2008
27592604	G03CX01	27/02/2006
27563858	G03CX01	09/02/2011
27566493	G03CX01	21/09/2010
27285401	G03CX01	25/11/2004
27771463	G03CX01	24/03/2004
27508441	G03CX01	31/05/2011
27444265	G03CX01	22/12/2005
27540219	G03CX01	06/04/2006
27798023	G03CX01	27/08/2008
27668046	G03CX01	07/02/2002
27756194	G03CX01	14/05/2011
27765080	G03CX01	15/07/2003
27775707	G03CX01	02/05/2005
27782658	G03CX01	05/09/2007
27771320	G03CX01	20/06/2007
33112774	G03CX01	12/01/2005
33086922	G03CX01	22/02/2011
33079795	G03CX01	15/06/2007
33030108	G03CX01	13/04/2005
33038806	G03CX01	14/12/2010
33124976	G03CX01	25/10/2007
33083974	G03CX01	31/08/2006
33065816	G03CX01	18/10/2004
304463	G03CX01	11/07/2005
12876971	G03CX01	12/04/2004
27643078	G03CX01	19/05/2005
33086713	G03CX01	21/03/2001
14186844	G03CX01	29/12/2010
33087670	G03CX01	17/11/2008
33126927	G03CX01	26/04/2011
33046061	G03CX01	27/09/2004
33082186	G03CX01	26/07/2004
33004014	G03CX01	29/11/2005
33127565	G03CX01	25/01/2010
33030873	G03CX01	10/11/2008
33032983	G03CX01	29/10/2009
33112092	G03CX01	28/07/2005
33053638	G03CX01	01/06/2011
16625746	G03CX01	06/04/2006
33239076	G03CX01	22/05/2008
16178584	G03CX01	11/06/2010
16707874	G03CX01	12/05/2005
16612949	G03CX01	18/08/2009
23411987	G03CX01	21/06/2010
21110120	G03CX01	24/08/2005
23354563	G03CX01	16/11/2010
23402651	G03CX01	04/10/2005
23371267	G03CX01	21/04/2006
16634039	G03CX01	09/05/2011
16709056	G03CX01	07/03/2011
16138964	G03CX01	22/01/2004
31364482	G03CX01	09/04/2002
16124564	G03CX01	24/04/2000
16621680	G03CX01	20/10/2003
31204599	G03CX01	06/07/2005
31812813	G03CX01	20/01/2004
31565973	G03CX01	04/10/2005
31706287	G03CX01	31/03/2010
31301004	G03CX01	23/05/2005
31641921	G03CX01	27/07/2005
31710696	G03CX01	23/12/2009
31751181	G03CX01	17/05/2006
32211392	G03CX01	02/04/2008
31071051	G03CX01	01/10/2002
31554559	G03CX01	18/09/2002
31546033	G03CX01	23/03/2004
31666781	G03CX01	18/04/2007
31374114	G03CX01	27/01/2004
32225096	G03CX01	26/07/2005
31404591	G03CX01	12/12/2008
31301351	G03CX01	18/10/2005
31993230	G03CX01	10/09/2009
31639557	G03CX01	29/08/2006
31225219	G03CX01	23/03/2001
31259396	G03CX01	19/11/2004
32094474	G03CX01	21/06/2004
31478845	G03CX01	27/09/2001
32087742	G03CX01	09/11/2004
32059302	G03CX01	02/08/2002
31177768	G03CX01	28/09/2004
31238587	G03CX01	02/02/2004
31809253	G03CX01	12/09/2006
31673640	G03CX01	03/11/2003
32231775	G03CX01	01/12/2010
31598763	G03CX01	27/12/2004
31161320	G03CX01	02/09/2005
31720996	G03CX01	10/04/2007
31696035	G03CX01	11/02/2011
31044169	G03CX01	13/02/2008
31134548	G03CX01	18/09/2002
32250443	G03CX01	02/02/2004
32117961	G03CX01	01/12/2003
31595311	G03CX01	21/04/2005
31302635	G03CX01	19/11/2010
31306794	G03CX01	19/04/2004
31662360	G03CX01	09/06/2008
31729955	G03CX01	22/01/2004
31136599	G03CX01	07/03/2005
31065272	G03CX01	05/05/2011
31207874	G03CX01	07/06/2000
31399039	G03CX01	20/08/2002
32125538	G03CX01	13/10/2009
31758759	G03CX01	21/08/2001
31578601	G03CX01	12/03/2007
32168626	G03CX01	19/07/2005
31166539	G03CX01	07/04/2004
31668649	G03CX01	05/03/2004
32121090	G03CX01	16/05/2005
32251619	G03CX01	17/12/2003
31814249	G03CX01	15/12/2003
31449858	G03CX01	30/04/2010
31100263	G03CX01	23/09/2005
31446226	G03CX01	15/02/2002
