patient_id	covar_name	date
7220106	H02AB01	18/11/2010
8990080	H02AB01	07/03/2011
8654401	H02AB01	20/07/2006
12760945	H02AB01	12/07/2005
8556985	H02AB01	25/02/2009
6166130	H02AB01	23/03/2006
132608	H02AB01	26/01/2011
24721158	H02AB01	17/04/2007
9328550	H02AB01	02/03/2011
12806895	H02AB01	18/05/2009
6417535	H02AB01	17/01/2011
3117152	H02AB01	31/10/2005
210163	H02AB01	15/03/2004
16978773	H02AB01	13/05/2008
12182293	H02AB01	25/08/2010
20564049	H02AB01	01/04/2003
5814184	H02AB01	06/07/2004
14983299	H02AB01	09/09/2004
10270534	H02AB01	15/12/2005
8976554	H02AB01	14/12/2009
20557371	H02AB01	09/07/2010
20569667	H02AB01	27/03/2006
24721420	H02AB01	28/08/2003
8655802	H02AB01	16/11/2007
3117787	H02AB01	01/03/2005
6759472	H02AB01	10/03/2010
9221382	H02AB01	11/06/2008
20549085	H02AB01	06/08/2007
1433322	H02AB01	16/09/2008
8570510	H02AB01	08/07/2009
1936084	H02AB01	23/02/2011
1303002	H02AB01	21/05/2008
8655155	H02AB01	21/03/2011
6416022	H02AB01	30/11/2009
1936960	H02AB01	09/02/2010
8582373	H02AB01	28/09/2005
8570485	H02AB01	12/05/2009
3125131	H02AB01	06/10/2006
9285503	H02AB01	10/05/2006
730718	H02AB01	03/03/2009
9387076	H02AB01	26/07/2005
14982712	H02AB01	31/03/2006
1336786	H02AB01	28/03/2008
10004179	H02AB01	18/02/2008
4988916	H02AB01	04/06/2007
24730202	H02AB01	24/09/2007
8655494	H02AB01	26/04/2010
7968770	H02AB01	30/07/2008
7849301	H02AB01	09/02/2004
8923087	H02AB01	02/02/2009
7780208	H02AB01	02/02/2004
12614422	H02AB01	31/10/2007
7848817	H02AB01	27/12/2007
6596593	H02AB01	12/04/2005
526070	H02AB01	19/12/2000
6594082	H02AB01	21/03/2001
648183	H02AB01	15/02/2008
12189158	H02AB01	01/09/2005
1351415	H02AB01	14/12/2006
6211340	H02AB01	24/02/2011
6601829	H02AB01	17/07/2009
7969204	H02AB01	11/01/2006
13987268	H02AB01	13/03/2010
1425026	H02AB01	24/02/2010
1320083	H02AB01	20/08/2002
25768738	H02AB01	26/06/2001
1132264	H02AB01	15/11/2001
716273	H02AB01	18/10/2001
1638708	H02AB01	19/12/2008
6914096	H02AB01	07/04/2009
717738	H02AB01	05/11/2007
716901	H02AB01	11/11/2003
1641868	H02AB01	05/10/2009
194827	H02AB01	15/06/2004
2138308	H02AB01	13/12/2005
2059046	H02AB01	19/09/2008
2144575	H02AB01	03/03/2009
2068045	H02AB01	09/12/2006
2139902	H02AB01	21/03/2005
2068934	H02AB01	14/06/2007
2109449	H02AB01	10/05/2004
2216323	H02AB01	26/01/2011
859110	H02AB01	04/04/2011
1766049	H02AB01	11/01/2005
904619	H02AB01	13/11/2007
876211	H02AB01	20/01/2005
873998	H02AB01	09/06/2008
3049646	H02AB01	23/04/2007
2759631	H02AB01	03/04/2006
7048927	H02AB01	04/09/2006
2766082	H02AB01	20/12/2002
7047560	H02AB01	23/12/2002
2755178	H02AB01	19/08/2008
2572949	H02AB01	18/12/2006
2408299	H02AB01	20/05/2009
16835771	H02AB01	05/07/2010
26460364	H02AB01	27/03/2009
28063519	H02AB01	30/08/2006
28049312	H02AB01	28/05/2010
7228407	H02AB01	26/04/2011
17041146	H02AB01	04/01/2008
26336640	H02AB01	27/02/2006
6990280	H02AB01	29/04/2009
26243565	H02AB01	20/04/2005
28041817	H02AB01	02/03/2007
26235974	H02AB01	23/11/2009
7134510	H02AB01	30/06/2006
12735396	H02AB01	24/03/2011
304932	H02AB01	06/05/2003
304750	H02AB01	26/09/2003
2989368	H02AB01	02/11/2010
184887	H02AB01	04/09/2009
185452	H02AB01	21/04/2010
182306	H02AB01	26/03/2010
28092173	H02AB01	05/04/2011
28087196	H02AB01	07/02/2005
7136014	H02AB01	16/07/2007
421846	H02AB01	17/11/2008
186070	H02AB01	15/12/2010
186944	H02AB01	26/04/2011
184271	H02AB01	03/02/2011
28063631	H02AB01	29/12/2009
28072320	H02AB01	05/09/2006
28087444	H02AB01	13/03/2007
28049554	H02AB01	27/05/2005
28093217	H02AB01	07/07/2008
28056474	H02AB01	08/05/2006
28071783	H02AB01	25/01/2005
28063181	H02AB01	20/08/2010
1018649	H02AB01	02/05/2007
19799787	H02AB01	10/05/2005
19799804	H02AB01	28/02/2008
18197637	H02AB01	17/03/2009
18195242	H02AB01	25/02/2006
2987616	H02AB01	30/11/2004
2988326	H02AB01	09/12/2008
2961784	H02AB01	16/12/2009
26776913	H02AB01	19/01/2010
26805159	H02AB01	21/04/2008
26805201	H02AB01	29/03/2011
26831234	H02AB01	28/04/2006
2987297	H02AB01	12/06/2007
2988267	H02AB01	29/04/2005
2987010	H02AB01	22/09/2009
26620804	H02AB01	02/09/2010
26617524	H02AB01	27/01/2010
2989932	H02AB01	17/05/2004
24577473	H02AB01	04/07/2007
24577586	H02AB01	03/08/2007
24583664	H02AB01	23/09/2008
26714333	H02AB01	14/03/2006
26854197	H02AB01	28/01/2009
26849091	H02AB01	07/03/2006
26847638	H02AB01	06/07/2004
26802113	H02AB01	16/04/2009
26715286	H02AB01	20/07/2010
26804888	H02AB01	10/12/2010
26833689	H02AB01	06/11/2008
26856155	H02AB01	18/06/2009
27072527	H02AB01	17/02/2010
26995682	H02AB01	21/09/2006
27066870	H02AB01	04/08/2009
26976907	H02AB01	16/12/2005
27083514	H02AB01	10/08/2006
27078625	H02AB01	02/09/2010
27084260	H02AB01	21/10/2008
26994757	H02AB01	17/08/2006
26996521	H02AB01	08/03/2006
27026391	H02AB01	20/11/2009
27042033	H02AB01	21/05/2003
26996574	H02AB01	01/02/2007
27041821	H02AB01	09/09/2003
26996376	H02AB01	02/02/2007
26996377	H02AB01	05/09/2007
26996261	H02AB01	18/08/2006
27015154	H02AB01	29/09/2010
26996651	H02AB01	13/07/2009
27000807	H02AB01	04/01/2006
27004769	H02AB01	21/02/2008
27233913	H02AB01	01/09/2010
27170821	H02AB01	07/03/2011
27379825	H02AB01	02/02/2010
27214263	H02AB01	23/07/2008
27315986	H02AB01	18/12/2003
27308559	H02AB01	25/09/2006
26988984	H02AB01	11/04/2006
26990376	H02AB01	27/06/2006
27641565	H02AB01	23/12/2009
27647922	H02AB01	21/07/2004
27642131	H02AB01	11/08/2010
27643227	H02AB01	31/05/2011
27643451	H02AB01	05/11/2009
27643454	H02AB01	30/09/2009
27623983	H02AB01	26/07/2007
27623539	H02AB01	18/07/2007
27624082	H02AB01	13/12/2007
27648022	H02AB01	01/10/2004
27644250	H02AB01	17/01/2005
27658033	H02AB01	13/04/2010
27614533	H02AB01	23/07/2008
27551702	H02AB01	16/03/2010
27567785	H02AB01	26/01/2009
27571594	H02AB01	11/03/2009
27287429	H02AB01	25/01/2008
27159650	H02AB01	16/04/2004
27164478	H02AB01	27/06/2007
27784776	H02AB01	21/04/2006
27014620	H02AB01	18/02/2010
27456675	H02AB01	13/09/2005
27779766	H02AB01	25/06/2007
27531037	H02AB01	15/11/2010
27708482	H02AB01	17/11/2010
27669167	H02AB01	29/05/2003
27614274	H02AB01	18/03/2008
27574050	H02AB01	03/07/2008
27643404	H02AB01	09/06/2009
27074467	H02AB01	19/02/2008
25542610	H02AB01	10/10/2006
2987751	H02AB01	31/08/2005
26779066	H02AB01	23/09/2004
27670711	H02AB01	23/08/2000
186166	H02AB01	19/09/2008
2987569	H02AB01	24/02/2009
27005510	H02AB01	03/01/2008
26900545	H02AB01	20/12/2010
27366636	H02AB01	28/12/2010
33019292	H02AB01	18/09/2008
33100103	H02AB01	26/05/2005
33129627	H02AB01	03/05/2010
33044335	H02AB01	12/03/2004
33030987	H02AB01	18/12/2009
33038577	H02AB01	29/12/2006
33018895	H02AB01	12/07/2004
33111724	H02AB01	06/11/2008
33095445	H02AB01	31/10/2006
33067653	H02AB01	20/04/2005
6636104	H02AB01	01/09/2009
183728	H02AB01	29/04/2010
16177914	H02AB01	17/01/2002
27977666	H02AB01	17/06/2005
33312638	H02AB01	09/03/2010
16713414	H02AB01	22/08/2007
33306049	H02AB01	20/12/2010
16708369	H02AB01	04/12/2007
33041177	H02AB01	09/10/2009
33019080	H02AB01	17/06/2009
33112492	H02AB01	25/09/2008
33025768	H02AB01	09/05/2011
33050169	H02AB01	19/07/2002
33030873	H02AB01	07/12/2005
33072029	H02AB01	23/07/2010
33055038	H02AB01	18/02/2009
33011684	H02AB01	21/10/2010
33091039	H02AB01	18/04/2011
21109264	H02AB01	13/06/2008
16774206	H02AB01	14/01/2008
18770764	H02AB01	22/01/2010
16705121	H02AB01	30/01/2004
16706289	H02AB01	18/06/2004
23343236	H02AB01	11/04/2008
18768448	H02AB01	22/04/2008
16136273	H02AB01	18/06/2008
16138756	H02AB01	20/11/2003
16138404	H02AB01	23/12/2003
16625746	H02AB01	19/01/2010
16707733	H02AB01	18/01/2010
33305015	H02AB01	24/07/2008
16625697	H02AB01	20/10/2004
18768076	H02AB01	03/04/2007
33297088	H02AB01	21/05/2010
33264985	H02AB01	16/04/2010
33233059	H02AB01	29/08/2007
28021554	H02AB01	04/02/2010
33315653	H02AB01	21/07/2010
16683227	H02AB01	26/06/2006
23316359	H02AB01	02/02/2011
23316381	H02AB01	23/12/2004
16595962	H02AB01	26/02/2008
18768005	H02AB01	25/03/2003
18770211	H02AB01	04/01/2010
21117274	H02AB01	11/02/2009
33313071	H02AB01	06/02/2011
16652568	H02AB01	01/02/2008
21109099	H02AB01	12/12/2007
16652659	H02AB01	11/12/2009
28005413	H02AB01	15/03/2011
27849109	H02AB01	02/07/2005
16612561	H02AB01	07/02/2005
33229173	H02AB01	11/02/2011
20982073	H02AB01	14/02/2008
16165721	H02AB01	16/11/2010
23334037	H02AB01	14/07/2005
23401470	H02AB01	30/06/2010
16649380	H02AB01	19/06/2003
20989739	H02AB01	17/05/2010
16124521	H02AB01	01/04/2008
23353969	H02AB01	04/08/2009
16124191	H02AB01	24/11/2010
23337230	H02AB01	24/03/2008
33253812	H02AB01	26/03/2010
16652686	H02AB01	21/04/2008
33245266	H02AB01	06/09/2007
33206414	H02AB01	05/04/2010
27914060	H02AB01	07/12/2010
18771064	H02AB01	15/03/2006
18768290	H02AB01	07/10/2004
16630924	H02AB01	01/12/2010
16135365	H02AB01	18/06/2001
14188147	H02AB01	16/03/2004
16178575	H02AB01	09/07/2003
33254059	H02AB01	07/09/2009
16607253	H02AB01	21/12/2007
16708154	H02AB01	16/06/2004
16633880	H02AB01	26/02/2007
28022506	H02AB01	19/07/2010
23193794	H02AB01	04/03/2011
23402116	H02AB01	28/10/2008
28018073	H02AB01	09/10/2009
23325465	H02AB01	20/02/2009
23333330	H02AB01	11/03/2005
33207727	H02AB01	03/03/2011
16181468	H02AB01	03/10/2007
33308567	H02AB01	14/02/2008
33246285	H02AB01	11/09/2008
16169282	H02AB01	30/04/2007
16706176	H02AB01	30/03/2007
27864923	H02AB01	16/06/2008
16139599	H02AB01	29/05/2001
16706310	H02AB01	02/02/2010
28014401	H02AB01	26/02/2010
27975673	H02AB01	22/12/2005
21114699	H02AB01	23/07/2008
28021159	H02AB01	10/12/2010
24463058	H02AB01	16/06/2009
16705838	H02AB01	12/04/2007
33245098	H02AB01	28/09/2009
33220514	H02AB01	28/02/2006
33256501	H02AB01	22/10/2009
16129910	H02AB01	05/02/2008
23366114	H02AB01	16/02/2008
23349644	H02AB01	18/05/2006
23176421	H02AB01	17/08/2004
27914427	H02AB01	28/04/2003
16652685	H02AB01	06/02/2008
33297266	H02AB01	27/05/2010
33204004	H02AB01	11/03/2009
16712509	H02AB01	12/03/2008
23344022	H02AB01	03/01/2008
16602630	H02AB01	12/01/2010
28226445	H02AB01	18/05/2011
21109687	H02AB01	09/10/2008
16186784	H02AB01	04/02/2005
20989863	H02AB01	24/02/2010
16633737	H02AB01	06/09/2010
33244556	H02AB01	04/01/2008
33313475	H02AB01	03/03/2010
33228753	H02AB01	13/02/2004
16621343	H02AB01	01/04/2008
23371485	H02AB01	30/12/2010
23350311	H02AB01	19/03/2010
23343500	H02AB01	23/05/2011
33315724	H02AB01	13/08/2009
33200239	H02AB01	14/09/2009
23354527	H02AB01	19/10/2005
23397797	H02AB01	29/03/2010
32005939	H02AB01	18/03/2005
31632078	H02AB01	27/06/2003
31553488	H02AB01	22/08/2006
31641080	H02AB01	30/10/2003
31915703	H02AB01	20/04/2004
31129644	H02AB01	28/03/2006
31267839	H02AB01	28/07/2006
31236677	H02AB01	20/12/2007
31157640	H02AB01	06/06/2008
31996663	H02AB01	21/07/2005
31792571	H02AB01	22/05/2009
31480886	H02AB01	17/04/2007
31627391	H02AB01	05/11/2008
32117832	H02AB01	15/02/2007
31265418	H02AB01	18/10/2010
31384308	H02AB01	15/06/2009
31328173	H02AB01	24/09/2008
31159827	H02AB01	11/07/2002
31381643	H02AB01	06/06/2005
31199129	H02AB01	12/05/2009
31454718	H02AB01	28/12/2004
31672960	H02AB01	07/07/2006
32153547	H02AB01	16/08/2006
31426404	H02AB01	29/01/2010
31554738	H02AB01	10/07/2007
32056262	H02AB01	27/02/2008
31665027	H02AB01	06/04/2011
31915105	H02AB01	24/11/2006
32278996	H02AB01	30/05/2007
32199258	H02AB01	07/02/2011
31238587	H02AB01	15/10/2003
31089931	H02AB01	10/04/2006
31081419	H02AB01	14/01/2003
31071290	H02AB01	17/01/2005
31697726	H02AB01	12/08/2008
31598723	H02AB01	09/12/2009
31938768	H02AB01	19/12/2002
31084179	H02AB01	10/11/2004
31128087	H02AB01	26/02/2008
31316108	H02AB01	05/03/2007
31782918	H02AB01	20/01/2004
32026942	H02AB01	05/06/2003
31981150	H02AB01	29/06/2007
31554561	H02AB01	03/01/2007
31420378	H02AB01	28/10/2008
31167229	H02AB01	29/10/2007
31890406	H02AB01	22/05/2009
32040461	H02AB01	29/01/2008
32171789	H02AB01	21/04/2009
31082208	H02AB01	03/10/2007
32069556	H02AB01	25/06/2008
31551131	H02AB01	23/03/2009
31483186	H02AB01	22/07/2008
31490483	H02AB01	18/11/2005
32093203	H02AB01	12/04/2005
31357662	H02AB01	02/10/2002
32069282	H02AB01	02/04/2003
31153085	H02AB01	29/11/2006
31732643	H02AB01	20/09/2006
31936343	H02AB01	13/03/2009
31197508	H02AB01	09/04/2002
31487303	H02AB01	31/05/2005
32123462	H02AB01	26/04/2006
31605098	H02AB01	11/03/2010
31992839	H02AB01	30/10/2008
31090012	H02AB01	20/09/2005
31181702	H02AB01	08/05/2009
32115664	H02AB01	13/03/2006
31111879	H02AB01	16/02/2006
31445179	H02AB01	20/10/2010
31827456	H02AB01	02/01/2009
31094144	H02AB01	16/12/2005
31802053	H02AB01	25/02/2003
31128250	H02AB01	06/10/2008
32042810	H02AB01	23/02/2009
31198987	H02AB01	30/04/2002
31040325	H02AB01	14/05/2001
31918858	H02AB01	10/11/2009
31516645	H02AB01	25/04/2007
31285337	H02AB01	18/06/2007
31145497	H02AB01	25/03/2008
31209696	H02AB01	26/11/2001
31517413	H02AB01	05/09/2006
31556807	H02AB01	29/05/2007
32013785	H02AB01	12/09/2006
32090185	H02AB01	20/04/2006
32187849	H02AB01	07/08/2007
31851205	H02AB01	28/07/2006
31459563	H02AB01	23/06/2006
31931082	H02AB01	09/09/2010
31486375	H02AB01	08/02/2006
31217504	H02AB01	13/09/2010
31768146	H02AB01	28/01/2005
31421066	H02AB01	03/03/2006
