patient_id	covar_name	date
16815009	H05BX02	18/05/2011
6602655	H05BX02	12/04/2011
11286075	H05BX02	01/06/2011
2068934	H05BX02	27/12/2010
26488354	H05BX02	20/04/2009
184640	H05BX02	26/05/2011
18196154	H05BX02	12/05/2011
26847638	H05BX02	18/05/2011
27220409	H05BX02	27/04/2011
27720128	H05BX02	12/05/2011
26872972	H05BX02	01/06/2011
27647888	H05BX02	19/04/2011
33290109	H05BX02	24/03/2010
21102991	H05BX02	24/05/2011
31556912	H05BX02	13/07/2010
31092882	H05BX02	04/12/2010
