patient_id	covar_name	date
7349356	HTURIA	09/12/2008
949712	HTURIA	16/06/2006
8291441	HTURIA	07/10/2002
9283222	HTURIA	20/09/2004
12772766	HTURIA	11/12/2008
7370969	HTURIA	07/07/2010
7246977	HTURIA	27/03/2007
12478576	HTURIA	11/02/2005
9378394	HTURIA	18/04/2011
7349652	HTURIA	24/11/2010
21153398	HTURIA	01/09/2008
610387	HTURIA	10/02/2011
25042270	HTURIA	19/12/2006
8652950	HTURIA	04/11/2009
12789284	HTURIA	17/10/2008
21372510	HTURIA	22/10/2009
8983248	HTURIA	07/06/2006
3328722	HTURIA	26/02/2010
9293597	HTURIA	17/08/2006
3124502	HTURIA	24/08/2004
1694846	HTURIA	26/08/2004
10604585	HTURIA	03/05/2006
19180524	HTURIA	01/08/2003
7335727	HTURIA	13/12/2002
17216988	HTURIA	02/04/2008
6177055	HTURIA	22/03/2005
9179006	HTURIA	25/02/2005
7247375	HTURIA	17/02/2011
3328189	HTURIA	20/07/2004
9371920	HTURIA	11/03/2010
9385396	HTURIA	11/05/2006
10267316	HTURIA	13/08/2003
9230608	HTURIA	21/09/2006
5867543	HTURIA	14/02/2011
5031417	HTURIA	15/11/2010
5867995	HTURIA	03/09/2004
12857056	HTURIA	29/01/2007
9376383	HTURIA	10/05/2011
3332686	HTURIA	16/10/2009
5035192	HTURIA	28/10/2010
7152290	HTURIA	06/05/2008
24730349	HTURIA	25/11/2010
9389753	HTURIA	27/03/2008
3332633	HTURIA	23/11/2000
5029698	HTURIA	14/01/2010
6747967	HTURIA	10/10/2006
6745205	HTURIA	26/06/2002
5027051	HTURIA	06/11/2009
9995890	HTURIA	04/07/2002
3304800	HTURIA	20/09/2007
10332543	HTURIA	30/06/2010
21153310	HTURIA	12/12/2006
12690074	HTURIA	04/06/2008
5812191	HTURIA	15/12/2003
24730680	HTURIA	19/10/2007
16978129	HTURIA	02/09/2010
3333511	HTURIA	24/04/2002
15668417	HTURIA	26/11/2007
9214840	HTURIA	27/08/2008
9231362	HTURIA	14/10/2008
20546988	HTURIA	02/06/2008
3331615	HTURIA	01/02/2011
12186902	HTURIA	08/09/2009
7219676	HTURIA	23/05/2005
2768205	HTURIA	25/08/2009
731177	HTURIA	15/04/2005
6177821	HTURIA	04/01/2008
23443048	HTURIA	17/11/2010
941531	HTURIA	18/04/2002
5028278	HTURIA	12/06/2009
609389	HTURIA	05/10/2007
7404595	HTURIA	05/03/2004
9995220	HTURIA	18/12/2009
5031618	HTURIA	10/03/2010
7162636	HTURIA	01/10/2010
10604282	HTURIA	09/04/2008
8700027	HTURIA	13/05/2002
8556760	HTURIA	03/05/2011
23442733	HTURIA	03/12/2009
1335438	HTURIA	13/05/2010
5024989	HTURIA	27/01/2006
8700130	HTURIA	30/11/2004
12730973	HTURIA	14/11/2008
8570996	HTURIA	07/03/2007
3331547	HTURIA	20/12/2010
24763788	HTURIA	05/07/2004
9219009	HTURIA	17/12/2010
3290074	HTURIA	29/05/2002
8582021	HTURIA	11/03/2002
9370812	HTURIA	06/02/2004
12187177	HTURIA	23/09/2010
8652385	HTURIA	12/05/2009
3327989	HTURIA	19/02/2010
733479	HTURIA	24/04/2006
8784828	HTURIA	17/03/2008
11661691	HTURIA	22/11/2006
10392609	HTURIA	14/10/2010
24764199	HTURIA	14/08/2007
63243	HTURIA	03/03/2004
6417619	HTURIA	07/10/2002
24950963	HTURIA	04/12/2006
6761142	HTURIA	21/05/2002
6178653	HTURIA	22/04/2005
9378353	HTURIA	02/02/2004
9372568	HTURIA	04/01/2007
945163	HTURIA	02/08/2006
8580990	HTURIA	25/10/2002
10267886	HTURIA	01/08/2008
608353	HTURIA	10/01/2007
20570345	HTURIA	18/01/2002
1637807	HTURIA	28/08/2008
24721032	HTURIA	10/11/2006
6601109	HTURIA	03/06/2005
650571	HTURIA	21/02/2008
1208462	HTURIA	11/10/2006
652717	HTURIA	02/04/2008
12189329	HTURIA	28/05/2004
7963931	HTURIA	10/08/2006
7781041	HTURIA	01/03/2010
1205817	HTURIA	21/12/2007
13986469	HTURIA	12/07/2006
514845	HTURIA	17/11/2010
7970955	HTURIA	18/08/2006
1354755	HTURIA	01/04/2005
1276765	HTURIA	27/10/2001
1276941	HTURIA	04/08/2008
9873104	HTURIA	15/09/2008
648336	HTURIA	27/08/2002
1353307	HTURIA	29/12/2004
8315209	HTURIA	04/06/2010
5992373	HTURIA	25/03/2009
6591104	HTURIA	24/05/2007
1417677	HTURIA	06/08/2001
7850146	HTURIA	26/10/2004
8063066	HTURIA	28/11/2006
6603323	HTURIA	25/02/2010
25335456	HTURIA	20/08/2010
1276321	HTURIA	16/09/2001
7964660	HTURIA	24/07/2007
6593330	HTURIA	08/05/2002
1353316	HTURIA	24/06/2008
639819	HTURIA	11/06/2009
5992383	HTURIA	24/10/2007
1320780	HTURIA	28/05/2009
7800730	HTURIA	11/05/2009
6423611	HTURIA	13/09/2006
6599608	HTURIA	11/11/2003
12614723	HTURIA	01/06/2011
1443959	HTURIA	19/08/2004
24719690	HTURIA	14/12/2007
1855716	HTURIA	27/01/2010
1100666	HTURIA	21/09/2010
1641899	HTURIA	08/08/2003
1638708	HTURIA	04/02/2005
1101869	HTURIA	14/06/2001
1128976	HTURIA	08/11/2010
1065205	HTURIA	02/12/2009
1102090	HTURIA	25/02/2010
1103763	HTURIA	01/03/2010
12640327	HTURIA	06/02/2008
890075	HTURIA	09/03/2005
3656696	HTURIA	12/12/2008
1640534	HTURIA	17/01/2003
1102451	HTURIA	17/08/2004
12665472	HTURIA	14/03/2006
2817381	HTURIA	01/06/2005
1131424	HTURIA	25/01/2011
2799361	HTURIA	02/11/2000
1065570	HTURIA	17/09/2003
1131938	HTURIA	11/02/2002
1110455	HTURIA	21/01/2009
1135406	HTURIA	11/12/2007
2216952	HTURIA	22/04/2008
2070225	HTURIA	09/08/2005
2238624	HTURIA	19/04/2010
2039914	HTURIA	12/12/2003
2067962	HTURIA	29/05/2007
2110088	HTURIA	01/01/1984
2068045	HTURIA	10/05/2003
2071737	HTURIA	10/03/2008
2219403	HTURIA	03/01/2006
2058878	HTURIA	19/07/2007
1754454	HTURIA	23/03/2010
2038460	HTURIA	26/01/2005
2036799	HTURIA	05/04/2006
2036978	HTURIA	25/10/2004
2043588	HTURIA	25/01/2010
903895	HTURIA	10/05/2011
1765440	HTURIA	20/04/2011
877708	HTURIA	23/07/2003
2034932	HTURIA	22/07/2004
2038658	HTURIA	13/10/2010
903438	HTURIA	09/08/2010
2038100	HTURIA	26/05/2009
904017	HTURIA	31/03/2010
877611	HTURIA	30/01/2009
2038256	HTURIA	12/01/2005
2774573	HTURIA	24/03/2004
2773726	HTURIA	25/11/2010
2773774	HTURIA	04/01/2006
2041614	HTURIA	24/12/2001
859599	HTURIA	07/09/2004
1768450	HTURIA	06/04/2004
902391	HTURIA	21/08/2009
875564	HTURIA	08/06/2008
2774471	HTURIA	25/05/2010
2776143	HTURIA	25/01/2005
2776091	HTURIA	18/02/2005
2780455	HTURIA	04/11/2006
2811730	HTURIA	09/12/2004
3054967	HTURIA	05/02/2007
3048483	HTURIA	09/11/2001
3049571	HTURIA	24/06/2005
2774327	HTURIA	28/12/2010
2774334	HTURIA	23/07/2004
7079224	HTURIA	15/06/2006
7128897	HTURIA	02/01/2003
2756706	HTURIA	05/04/2010
2573352	HTURIA	03/09/2010
2756008	HTURIA	02/08/2010
2572949	HTURIA	26/03/2010
16980510	HTURIA	16/01/2009
15406007	HTURIA	10/09/2009
26424856	HTURIA	27/05/2010
28050537	HTURIA	01/01/1998
26351849	HTURIA	12/05/2009
26423223	HTURIA	27/04/2001
26350433	HTURIA	11/09/2008
26460126	HTURIA	13/02/2006
28044409	HTURIA	01/09/2000
28063102	HTURIA	04/01/2006
26478286	HTURIA	06/06/2008
17747528	HTURIA	22/03/2011
20636118	HTURIA	10/03/2005
7142486	HTURIA	05/03/2002
7229328	HTURIA	03/11/2008
7137238	HTURIA	09/09/2008
7136698	HTURIA	11/01/2006
20147230	HTURIA	14/04/2011
26217958	HTURIA	16/09/2009
28042198	HTURIA	13/04/2005
7229790	HTURIA	26/09/2006
16980452	HTURIA	02/08/2010
425420	HTURIA	09/04/2006
265545	HTURIA	17/07/2007
4110046	HTURIA	10/09/2007
302849	HTURIA	14/06/2010
419475	HTURIA	13/01/2009
185007	HTURIA	14/08/2006
302105	HTURIA	23/01/2009
28087560	HTURIA	23/02/2011
28083644	HTURIA	15/02/2006
2112508	HTURIA	13/08/2009
26459466	HTURIA	30/04/2010
2777704	HTURIA	25/06/2008
28088253	HTURIA	09/07/2007
18223471	HTURIA	15/11/2004
28073342	HTURIA	15/02/2006
28093758	HTURIA	25/07/2006
2071088	HTURIA	02/05/2003
2043165	HTURIA	02/08/2010
424784	HTURIA	18/02/2008
426427	HTURIA	15/03/2010
420981	HTURIA	19/02/2001
184746	HTURIA	19/05/2011
305499	HTURIA	09/01/2007
423546	HTURIA	02/04/2009
2773361	HTURIA	18/05/2003
300557	HTURIA	30/12/2010
874613	HTURIA	11/02/2009
420934	HTURIA	29/04/2011
185927	HTURIA	05/04/2004
28043953	HTURIA	29/11/2010
26487643	HTURIA	24/03/2011
28044315	HTURIA	15/11/2009
28046187	HTURIA	17/03/2011
24666863	HTURIA	20/02/2002
24655248	HTURIA	28/03/2008
24670187	HTURIA	05/08/2005
24666214	HTURIA	28/09/2010
24659548	HTURIA	08/11/2001
26627333	HTURIA	20/07/2010
25738827	HTURIA	10/09/2008
1019290	HTURIA	30/03/2009
1020237	HTURIA	20/06/2005
1362871	HTURIA	10/12/2001
1368895	HTURIA	24/07/2009
1366216	HTURIA	17/07/2007
1903723	HTURIA	30/03/2010
18196270	HTURIA	17/02/2010
1373976	HTURIA	09/03/2005
1342891	HTURIA	20/03/2003
16566958	HTURIA	21/01/2008
1359388	HTURIA	27/05/2004
21063153	HTURIA	08/01/2004
16840863	HTURIA	17/05/2005
18199623	HTURIA	28/09/2010
19803579	HTURIA	12/05/2008
16721167	HTURIA	22/07/2005
18196635	HTURIA	04/03/2003
18195492	HTURIA	29/12/2009
1363969	HTURIA	03/10/2006
4312803	HTURIA	22/06/2005
2962765	HTURIA	31/08/2006
12980553	HTURIA	15/04/2003
1909946	HTURIA	24/08/2006
23484225	HTURIA	15/01/2009
26625977	HTURIA	18/01/2010
26824685	HTURIA	01/08/2007
26778699	HTURIA	10/02/2009
26830314	HTURIA	21/08/2009
26628446	HTURIA	22/10/2010
26619137	HTURIA	27/07/2009
26829529	HTURIA	06/06/2007
26853499	HTURIA	10/08/2009
26768844	HTURIA	24/07/2009
26831550	HTURIA	26/06/2008
23484605	HTURIA	13/02/2003
21552949	HTURIA	23/06/2010
16842252	HTURIA	08/02/2009
13788822	HTURIA	11/11/2009
16844363	HTURIA	26/05/2004
15966153	HTURIA	04/03/2009
12951261	HTURIA	30/07/2003
26625650	HTURIA	24/01/2006
26701106	HTURIA	10/01/2011
24577944	HTURIA	30/04/2009
23484185	HTURIA	14/04/2011
24579323	HTURIA	21/07/2010
24664298	HTURIA	13/02/2011
22922768	HTURIA	12/12/2005
22922281	HTURIA	01/01/2006
26935038	HTURIA	03/10/2008
26959942	HTURIA	30/08/2006
26896291	HTURIA	24/04/2007
26934241	HTURIA	02/10/2006
26948632	HTURIA	26/02/2008
26946558	HTURIA	11/11/2002
26958891	HTURIA	27/07/2004
27012625	HTURIA	30/04/2011
26711269	HTURIA	26/02/2010
26779381	HTURIA	17/03/2011
26857103	HTURIA	21/03/2011
26871932	HTURIA	10/06/2005
26780527	HTURIA	30/10/2008
26887048	HTURIA	18/11/2010
26863480	HTURIA	13/10/2009
26876200	HTURIA	31/05/2010
26950331	HTURIA	22/09/2006
26900035	HTURIA	26/09/2005
26873859	HTURIA	13/02/2007
26879084	HTURIA	09/11/2006
26877090	HTURIA	04/09/2007
26877716	HTURIA	09/03/2007
26887072	HTURIA	02/06/2010
26888601	HTURIA	09/09/2008
26802113	HTURIA	03/11/2010
26758849	HTURIA	10/07/2006
26773270	HTURIA	28/03/2007
26804060	HTURIA	17/03/2008
26793342	HTURIA	26/10/2000
26715286	HTURIA	15/03/2011
26728879	HTURIA	18/05/2010
26855405	HTURIA	18/12/2008
26776668	HTURIA	03/03/2010
26824728	HTURIA	05/09/2007
26939724	HTURIA	15/09/2001
26995669	HTURIA	27/04/2009
26969569	HTURIA	26/03/2010
26976411	HTURIA	12/03/2008
26945062	HTURIA	18/04/2011
26952440	HTURIA	11/01/2011
27055003	HTURIA	13/09/2002
27133143	HTURIA	07/10/2010
27085696	HTURIA	27/03/2006
27037601	HTURIA	26/03/2009
27116163	HTURIA	24/11/2003
27044414	HTURIA	21/12/2009
27078801	HTURIA	07/12/2004
27111686	HTURIA	14/10/2003
27034398	HTURIA	12/05/2003
26991420	HTURIA	08/01/2010
27036527	HTURIA	09/02/2010
26993332	HTURIA	01/07/2005
26996603	HTURIA	02/11/2006
27014237	HTURIA	31/12/2010
26996377	HTURIA	27/03/2007
27015154	HTURIA	21/09/2007
27040193	HTURIA	20/04/2009
27358673	HTURIA	06/06/2006
27358740	HTURIA	28/09/2006
27326850	HTURIA	18/10/2006
27213133	HTURIA	27/03/2007
27362443	HTURIA	08/06/2009
27168057	HTURIA	01/05/2011
27388635	HTURIA	10/12/2009
27130094	HTURIA	05/05/2011
27146909	HTURIA	24/05/2006
27146949	HTURIA	30/08/2005
27320518	HTURIA	18/10/2006
27316329	HTURIA	17/07/2007
27198744	HTURIA	11/05/2009
27323721	HTURIA	10/02/2005
27366983	HTURIA	25/03/2010
27173189	HTURIA	29/01/2007
27351291	HTURIA	03/03/2005
27247846	HTURIA	05/11/2010
27251650	HTURIA	01/09/2007
27360620	HTURIA	19/04/2010
27366113	HTURIA	21/11/2007
27345781	HTURIA	26/11/2003
27355276	HTURIA	28/07/2010
26989957	HTURIA	22/11/2007
27201035	HTURIA	12/05/2003
27253481	HTURIA	23/12/2008
26957273	HTURIA	06/12/2010
27249211	HTURIA	15/01/2007
27236620	HTURIA	05/09/2005
27597152	HTURIA	29/10/2007
27595400	HTURIA	17/06/2004
27601267	HTURIA	11/04/2007
27641447	HTURIA	01/12/2008
27577722	HTURIA	07/08/2003
27578159	HTURIA	02/02/2010
27633300	HTURIA	25/10/2005
27616698	HTURIA	14/05/2009
27578955	HTURIA	08/04/2011
27660069	HTURIA	19/12/2002
27660599	HTURIA	04/10/2003
27762895	HTURIA	12/05/2003
27564600	HTURIA	23/06/2006
27764323	HTURIA	19/04/2007
27570581	HTURIA	23/10/2007
27756656	HTURIA	31/03/2010
27614612	HTURIA	08/03/2010
27572899	HTURIA	31/07/2007
27614866	HTURIA	03/02/2008
27566493	HTURIA	20/03/2003
27757330	HTURIA	24/12/2002
27567703	HTURIA	13/09/2002
27716033	HTURIA	31/07/2007
27234075	HTURIA	14/12/2006
27147794	HTURIA	29/06/2010
27240292	HTURIA	02/08/2006
27166399	HTURIA	11/12/2006
27144708	HTURIA	07/08/2007
27250492	HTURIA	18/02/2004
27138370	HTURIA	24/01/2007
27148219	HTURIA	29/07/2010
27127997	HTURIA	17/03/2004
27229030	HTURIA	04/05/2004
27000618	HTURIA	03/08/2006
27144953	HTURIA	06/05/2003
648889	HTURIA	20/01/2010
27321829	HTURIA	11/08/1997
26778477	HTURIA	13/08/2004
26721112	HTURIA	13/03/2006
27248683	HTURIA	02/06/2008
27546503	HTURIA	11/09/2003
27781891	HTURIA	02/10/2007
27516344	HTURIA	07/03/2011
27683287	HTURIA	31/03/2005
27684839	HTURIA	18/03/2004
27708214	HTURIA	26/04/2006
27534003	HTURIA	21/04/2005
27614649	HTURIA	18/12/2006
26858670	HTURIA	21/10/2008
26996328	HTURIA	07/08/2006
27079385	HTURIA	25/08/2006
301444	HTURIA	16/01/2009
26952463	HTURIA	29/12/2010
27684000	HTURIA	09/06/2006
27665847	HTURIA	28/05/2009
27680750	HTURIA	22/07/2008
27667494	HTURIA	09/11/2004
2263945	HTURIA	09/11/2009
27029757	HTURIA	19/03/2007
26760139	HTURIA	26/05/2007
27515152	HTURIA	29/10/2001
27472174	HTURIA	02/07/2007
27480242	HTURIA	31/10/2005
27512143	HTURIA	23/05/2008
27301070	HTURIA	25/04/2007
27673521	HTURIA	24/09/2007
27074097	HTURIA	22/02/2011
27667744	HTURIA	07/10/2005
27657567	HTURIA	29/07/2004
2994338	HTURIA	10/02/2005
26760653	HTURIA	23/11/2007
27719296	HTURIA	17/11/2009
27675433	HTURIA	17/06/2002
27758797	HTURIA	12/11/2002
27761994	HTURIA	17/05/2004
27684475	HTURIA	17/02/2004
26793177	HTURIA	04/01/2006
2958452	HTURIA	10/06/2008
26770940	HTURIA	11/10/2006
26642896	HTURIA	25/05/2011
27591900	HTURIA	23/07/2008
27757821	HTURIA	05/05/2008
27453979	HTURIA	13/12/2005
27066908	HTURIA	04/04/2008
27426834	HTURIA	21/05/2002
27658187	HTURIA	05/12/2007
11937600	HTURIA	23/06/2005
27799362	HTURIA	23/06/2006
33007786	HTURIA	24/05/2005
33057954	HTURIA	25/11/2009
33072082	HTURIA	23/03/2010
33068127	HTURIA	15/06/2009
33010461	HTURIA	31/08/2010
33011602	HTURIA	15/07/2004
33094780	HTURIA	27/07/2007
33050061	HTURIA	09/07/2009
33005585	HTURIA	21/05/2008
33045042	HTURIA	09/07/2003
33025640	HTURIA	08/05/2009
33125220	HTURIA	31/07/1942
33072672	HTURIA	08/10/2004
33066288	HTURIA	02/06/2010
33019290	HTURIA	24/09/2010
33018727	HTURIA	07/12/2010
33018342	HTURIA	09/01/2008
33106661	HTURIA	05/03/2008
33113368	HTURIA	26/04/2007
33038806	HTURIA	05/10/2009
33066603	HTURIA	15/10/2010
33084983	HTURIA	30/12/2002
421387	HTURIA	23/05/2002
1029241	HTURIA	25/10/2004
26863485	HTURIA	23/10/2009
27798563	HTURIA	26/01/2006
27800569	HTURIA	28/12/2007
33086713	HTURIA	22/01/2002
33234657	HTURIA	26/05/2011
21099776	HTURIA	05/10/2007
16632057	HTURIA	25/02/2009
33034636	HTURIA	23/08/2001
33309857	HTURIA	06/10/2004
16135633	HTURIA	16/12/2010
27913645	HTURIA	27/09/2007
33069675	HTURIA	02/09/2004
33083866	HTURIA	18/05/2009
33052133	HTURIA	19/01/2010
33078447	HTURIA	20/06/2006
33093000	HTURIA	28/05/2007
33022326	HTURIA	03/07/2006
33033729	HTURIA	20/05/2000
33104227	HTURIA	02/01/2008
33088396	HTURIA	09/02/2011
33113417	HTURIA	13/03/2006
33095037	HTURIA	01/07/2005
33012344	HTURIA	14/11/2002
33085025	HTURIA	14/04/2011
33085783	HTURIA	02/09/2010
33019719	HTURIA	17/03/2009
33093137	HTURIA	11/07/2008
33070678	HTURIA	08/06/2001
33093016	HTURIA	03/05/2001
33057009	HTURIA	30/01/2007
33050260	HTURIA	03/10/2005
16713420	HTURIA	13/10/1990
14187021	HTURIA	21/03/2004
16606508	HTURIA	20/11/2006
16138756	HTURIA	14/01/2009
14187882	HTURIA	10/04/2008
33239135	HTURIA	25/08/2008
33244694	HTURIA	29/04/2011
16138857	HTURIA	04/10/2007
16596211	HTURIA	23/08/2004
21114276	HTURIA	26/11/2010
16611130	HTURIA	27/05/2008
16609624	HTURIA	23/09/2004
33289683	HTURIA	27/10/2009
16639614	HTURIA	02/07/2005
16138565	HTURIA	11/09/2007
16606979	HTURIA	23/12/2008
16138365	HTURIA	25/05/2010
16183158	HTURIA	11/03/2005
27912569	HTURIA	07/04/2003
33292958	HTURIA	12/08/2008
16653209	HTURIA	01/02/2010
33235478	HTURIA	02/07/2007
23315512	HTURIA	15/12/2005
33224366	HTURIA	09/11/2009
16649321	HTURIA	14/04/2010
23350018	HTURIA	08/11/2006
23412389	HTURIA	04/06/2007
20986036	HTURIA	20/05/2008
16648802	HTURIA	18/10/2006
16684605	HTURIA	08/08/2008
16705311	HTURIA	23/12/2004
33229186	HTURIA	29/12/2009
28018842	HTURIA	14/07/2008
16683516	HTURIA	04/01/2008
33233849	HTURIA	19/11/2007
21101011	HTURIA	17/07/2006
16127393	HTURIA	06/07/2007
20986175	HTURIA	21/06/2010
28018073	HTURIA	14/10/1988
16607708	HTURIA	28/03/2011
21100889	HTURIA	21/09/2007
23406241	HTURIA	31/01/2011
16125129	HTURIA	28/05/2009
20985576	HTURIA	19/11/2009
16623658	HTURIA	04/09/2008
33200843	HTURIA	02/11/2010
16606863	HTURIA	17/05/2007
32276689	HTURIA	27/05/2011
31364482	HTURIA	17/01/2002
31433220	HTURIA	24/04/2009
31429184	HTURIA	25/09/2007
33244718	HTURIA	12/05/2008
16652830	HTURIA	05/05/2010
20985663	HTURIA	02/03/2010
23350021	HTURIA	09/08/2007
20990980	HTURIA	28/04/2011
16652685	HTURIA	27/03/2009
23367366	HTURIA	20/04/2009
28021593	HTURIA	12/06/2009
16168876	HTURIA	18/01/2008
23351379	HTURIA	29/05/2007
16186784	HTURIA	16/09/2004
16126697	HTURIA	09/12/2008
16598501	HTURIA	29/11/2004
21108093	HTURIA	13/07/2010
33228753	HTURIA	20/01/2006
33309439	HTURIA	05/05/2010
31493568	HTURIA	15/03/2007
31718663	HTURIA	05/07/2005
31043924	HTURIA	07/03/2008
32032989	HTURIA	22/04/2010
31302169	HTURIA	05/06/2008
31451455	HTURIA	04/02/2008
31244301	HTURIA	21/10/2008
32221309	HTURIA	20/04/2005
31214666	HTURIA	05/03/2009
31790016	HTURIA	01/12/2009
31808278	HTURIA	10/06/2009
31868652	HTURIA	04/08/2009
31272340	HTURIA	04/04/2011
31273280	HTURIA	27/02/2006
31285255	HTURIA	03/04/2009
32007446	HTURIA	01/02/2005
31211155	HTURIA	13/02/2007
31805950	HTURIA	31/08/2009
31288996	HTURIA	09/05/2011
31504553	HTURIA	24/09/2007
32115350	HTURIA	17/12/2009
31466238	HTURIA	11/02/2009
31728526	HTURIA	04/10/2006
31461480	HTURIA	28/11/2006
32099105	HTURIA	21/01/2009
31765237	HTURIA	29/09/1999
31561242	HTURIA	24/03/2009
31986807	HTURIA	10/09/2008
31744955	HTURIA	05/10/2007
31410312	HTURIA	20/09/2004
31482956	HTURIA	18/08/2008
32262744	HTURIA	21/05/2008
31335758	HTURIA	17/09/2001
32137034	HTURIA	12/07/2004
31820328	HTURIA	01/08/2001
31517331	HTURIA	11/07/2008
31960989	HTURIA	03/03/2010
31061000	HTURIA	17/12/2009
31322543	HTURIA	28/04/2003
32147277	HTURIA	04/11/2010
31097740	HTURIA	22/09/2009
31598575	HTURIA	21/12/2010
31269711	HTURIA	17/10/2008
32217439	HTURIA	05/11/2009
31866163	HTURIA	10/11/2003
31535138	HTURIA	06/10/2008
31263799	HTURIA	25/11/2008
32280643	HTURIA	29/10/2002
32262892	HTURIA	21/07/2005
32156110	HTURIA	16/04/2010
32252581	HTURIA	26/03/2010
32140070	HTURIA	03/11/2010
31871540	HTURIA	04/09/2006
31135234	HTURIA	14/01/2011
31273481	HTURIA	05/11/2004
32093110	HTURIA	20/06/2008
31822514	HTURIA	07/11/2002
31305799	HTURIA	14/06/2010
31641342	HTURIA	26/06/2006
31802205	HTURIA	02/09/2010
31565489	HTURIA	15/02/2006
32005794	HTURIA	05/10/2006
31656806	HTURIA	03/08/2005
32147855	HTURIA	21/02/2003
31861892	HTURIA	22/11/2010
32080635	HTURIA	14/12/2009
31667045	HTURIA	01/03/2010
31819522	HTURIA	12/05/2006
31420909	HTURIA	22/10/2004
31957892	HTURIA	24/09/2003
31188550	HTURIA	01/12/2006
31580197	HTURIA	26/04/2010
31533378	HTURIA	12/02/2007
32254510	HTURIA	16/04/2008
31901094	HTURIA	30/11/2006
31502441	HTURIA	24/02/2010
31301421	HTURIA	01/07/2002
31359087	HTURIA	08/03/2005
31687660	HTURIA	15/04/2009
31308549	HTURIA	08/02/2011
32035559	HTURIA	12/03/2008
31166872	HTURIA	03/01/2007
31488907	HTURIA	24/07/2008
32081702	HTURIA	20/11/2003
31301711	HTURIA	19/05/2008
31130412	HTURIA	27/01/2010
31081299	HTURIA	18/01/2010
31112466	HTURIA	16/01/2007
31614153	HTURIA	04/01/2010
31706832	HTURIA	27/03/2007
32043686	HTURIA	13/12/2005
32185161	HTURIA	14/06/2006
31089828	HTURIA	17/08/2004
31831369	HTURIA	09/12/2004
32090140	HTURIA	24/09/2009
31763125	HTURIA	15/09/2008
31689766	HTURIA	19/10/2004
32159590	HTURIA	21/10/2010
31448652	HTURIA	07/12/2009
31514428	HTURIA	04/04/2000
31619861	HTURIA	24/02/2004
32156716	HTURIA	21/08/2009
31441666	HTURIA	23/06/2008
31591754	HTURIA	29/11/2010
31660454	HTURIA	24/01/2007
31940591	HTURIA	07/06/2004
31897930	HTURIA	04/12/2009
32272908	HTURIA	26/11/2008
31994914	HTURIA	16/08/2005
32090546	HTURIA	17/06/2004
32219874	HTURIA	27/09/2005
31442776	HTURIA	16/03/2009
31527057	HTURIA	16/01/2003
31518352	HTURIA	22/12/2010
31521720	HTURIA	05/07/2010
31354097	HTURIA	25/04/2000
31062881	HTURIA	10/05/2010
31335672	HTURIA	25/11/2004
31896263	HTURIA	08/02/2008
31564747	HTURIA	26/11/2007
32177881	HTURIA	19/09/2003
31285403	HTURIA	17/05/2005
31794042	HTURIA	13/04/2011
31923205	HTURIA	02/02/2010
31593383	HTURIA	23/02/2009
31342478	HTURIA	24/09/2008
31671267	HTURIA	22/02/2008
31624484	HTURIA	11/12/2007
31637140	HTURIA	02/12/2008
31677585	HTURIA	26/01/2011
31722921	HTURIA	22/11/2007
31033092	HTURIA	06/11/2003
31782918	HTURIA	16/06/2004
31372248	HTURIA	30/11/2010
32015299	HTURIA	17/06/2009
31770096	HTURIA	11/06/2007
31242151	HTURIA	23/03/2010
31419213	HTURIA	14/11/2006
31072055	HTURIA	06/05/2009
31120652	HTURIA	28/07/2006
31538537	HTURIA	16/02/2011
31744116	HTURIA	26/02/2010
31532514	HTURIA	13/03/2009
32179849	HTURIA	11/12/2003
31784866	HTURIA	25/01/2000
31137112	HTURIA	30/06/2005
31501864	HTURIA	08/05/2008
31371048	HTURIA	05/05/2011
32125428	HTURIA	01/06/2006
31749884	HTURIA	09/05/2005
31122798	HTURIA	29/05/2008
31886795	HTURIA	29/03/2005
31636908	HTURIA	20/01/2005
31045073	HTURIA	04/01/2006
32000334	HTURIA	23/07/2007
31346856	HTURIA	02/12/2005
31096236	HTURIA	17/06/2009
32121891	HTURIA	16/02/2005
31713979	HTURIA	28/05/2009
32148445	HTURIA	14/08/2007
31637166	HTURIA	24/02/2009
32025849	HTURIA	19/09/2006
31797949	HTURIA	26/01/2005
31592330	HTURIA	03/10/2006
31790586	HTURIA	30/01/2009
31197508	HTURIA	03/07/2000
31253964	HTURIA	21/09/2004
31898256	HTURIA	09/12/2010
31077628	HTURIA	12/01/2010
31817145	HTURIA	10/07/2002
31361149	HTURIA	14/06/2005
31254483	HTURIA	13/05/2008
31098047	HTURIA	07/05/2009
31150855	HTURIA	03/11/2004
31336062	HTURIA	02/07/2008
31652044	HTURIA	10/03/2010
31712883	HTURIA	29/12/2003
31109547	HTURIA	17/10/2003
32260224	HTURIA	30/07/1990
31416711	HTURIA	16/03/2009
31756022	HTURIA	02/10/2001
31477325	HTURIA	27/08/2007
31671227	HTURIA	25/01/2005
31659095	HTURIA	05/06/2001
31183491	HTURIA	21/10/2010
31654518	HTURIA	19/12/2001
31360490	HTURIA	27/03/2009
31097872	HTURIA	06/03/2008
32205096	HTURIA	04/12/2008
31247946	HTURIA	19/09/2007
31718852	HTURIA	11/04/2007
31565378	HTURIA	04/07/2005
32048334	HTURIA	23/10/2001
31416750	HTURIA	28/07/2010
31392405	HTURIA	04/04/2006
31133307	HTURIA	15/09/2010
31682927	HTURIA	07/05/2007
31511527	HTURIA	18/08/2009
31330377	HTURIA	08/02/2002
31264025	HTURIA	11/05/2005
32123019	HTURIA	08/03/2007
31702764	HTURIA	19/11/2008
31261695	HTURIA	01/10/2009
31374529	HTURIA	01/05/2007
31423267	HTURIA	14/02/2007
31819303	HTURIA	24/02/2005
32178711	HTURIA	13/12/2004
31814358	HTURIA	10/09/2010
31705615	HTURIA	16/12/2009
31095601	HTURIA	22/09/2005
31401437	HTURIA	03/01/2007
31392200	HTURIA	23/01/2002
31863688	HTURIA	12/06/2006
31456176	HTURIA	30/03/2006
31524569	HTURIA	16/10/2008
31341516	HTURIA	22/10/2009
31725926	HTURIA	22/06/2009
31938730	HTURIA	25/10/2010
31905487	HTURIA	15/06/2007
31387045	HTURIA	06/03/2001
32156198	HTURIA	03/05/2007
31747512	HTURIA	26/02/2002
31454683	HTURIA	07/06/2006
31784063	HTURIA	22/06/2009
31639191	HTURIA	13/09/2001
31473719	HTURIA	30/01/2009
31608962	HTURIA	25/08/2008
31196760	HTURIA	11/09/2003
31488858	HTURIA	26/08/2006
31237625	HTURIA	03/01/2007
31320303	HTURIA	04/08/2006
31937215	HTURIA	03/08/2001
31080678	HTURIA	14/03/2008
31840912	HTURIA	25/04/2011
31882469	HTURIA	28/11/2006
31830506	HTURIA	07/07/2008
32150782	HTURIA	11/05/2010
31403269	HTURIA	01/12/2010
32265755	HTURIA	11/02/2011
31556912	HTURIA	25/01/2011
32169066	HTURIA	15/12/2010
31699160	HTURIA	22/08/2001
31532333	HTURIA	27/03/2006
31674612	HTURIA	15/06/2004
31475452	HTURIA	10/04/2007
32130615	HTURIA	12/07/2006
32111860	HTURIA	24/03/2004
31572065	HTURIA	10/06/2009
31667381	HTURIA	01/04/2008
31983907	HTURIA	06/03/2003
31331351	HTURIA	06/02/2007
31538518	HTURIA	05/05/2010
32106364	HTURIA	03/07/2007
32121090	HTURIA	01/01/1999
31900890	HTURIA	03/03/2011
31764379	HTURIA	08/01/2004
31081424	HTURIA	01/06/2011
31814249	HTURIA	29/09/2010
31921601	HTURIA	19/03/2008
31846675	HTURIA	13/02/2009
31065255	HTURIA	18/05/2010
31799729	HTURIA	22/02/2008
31144302	HTURIA	31/03/2006
31862308	HTURIA	07/10/2010
31819062	HTURIA	28/03/2006
31227385	HTURIA	05/07/2004
31477553	HTURIA	03/09/1998
32190434	HTURIA	14/09/2005
31405289	HTURIA	24/09/2007
31957558	HTURIA	22/05/2006
31386421	HTURIA	21/03/2003
31892777	HTURIA	01/03/2002
31209541	HTURIA	29/08/2008
31225861	HTURIA	30/05/2000
31818828	HTURIA	18/06/2007
31556229	HTURIA	04/03/2009
31057360	HTURIA	13/09/2005
32057261	HTURIA	14/01/2009
32203338	HTURIA	15/04/2005
31308502	HTURIA	21/01/2010
31209220	HTURIA	07/07/2010
31786081	HTURIA	18/11/2005
31096433	HTURIA	23/03/2007
31644842	HTURIA	01/10/2009
31049468	HTURIA	08/01/2008
31893874	HTURIA	13/05/2011
31778043	HTURIA	06/05/2005
32248960	HTURIA	13/06/2005
31495063	HTURIA	03/04/2007
31647108	HTURIA	04/02/2010
31570519	HTURIA	19/10/2010
31924637	HTURIA	11/04/2011
