patient_id	covar_name	date
10340384	H03CA92	07/04/2010
12695442	H03CA92	26/05/2008
8990080	H03CA92	11/03/2008
14651596	H03CA92	04/02/2010
730096	H03CA92	16/03/2010
17968573	H03CA92	18/04/2011
20557831	H03CA92	16/02/2009
15035711	H03CA92	11/08/2010
9251250	H03CA92	07/02/2011
12478576	H03CA92	16/04/2010
10002116	H03CA92	17/10/2008
9996391	H03CA92	07/04/2010
8664969	H03CA92	20/05/2011
1516611	H03CA92	16/10/2008
610068	H03CA92	23/01/2009
9384077	H03CA92	18/02/2010
23442142	H03CA92	07/05/2008
17171414	H03CA92	12/05/2010
68080	H03CA92	23/05/2011
10388076	H03CA92	19/08/2010
24951607	H03CA92	18/12/2008
10269961	H03CA92	19/05/2011
9995414	H03CA92	11/05/2011
10003193	H03CA92	08/06/2009
25043612	H03CA92	08/10/2008
9618221	H03CA92	08/03/2011
17045995	H03CA92	11/04/2011
24938975	H03CA92	09/02/2011
1827789	H03CA92	28/10/2008
12739062	H03CA92	26/04/2011
18750862	H03CA92	11/04/2011
12778216	H03CA92	25/03/2008
12767057	H03CA92	25/02/2009
1938563	H03CA92	13/04/2011
7372257	H03CA92	27/01/2010
8972632	H03CA92	21/04/2010
9203421	H03CA92	15/04/2011
8643667	H03CA92	04/12/2009
7340423	H03CA92	15/02/2011
13222429	H03CA92	04/05/2011
1937944	H03CA92	17/03/2010
9348189	H03CA92	23/08/2010
12731119	H03CA92	24/05/2011
6746940	H03CA92	17/02/2011
11993405	H03CA92	26/10/2010
7094087	H03CA92	10/05/2011
25051307	H03CA92	13/05/2010
16229735	H03CA92	11/03/2009
8974679	H03CA92	19/01/2010
14110578	H03CA92	15/12/2010
9135398	H03CA92	13/01/2009
3937587	H03CA92	12/07/2010
9327661	H03CA92	05/08/2009
9328263	H03CA92	10/12/2010
11993777	H03CA92	28/04/2011
10247682	H03CA92	05/05/2011
9328342	H03CA92	25/04/2011
946808	H03CA92	19/01/2011
1938542	H03CA92	05/05/2011
16914726	H03CA92	08/01/2010
11993430	H03CA92	08/10/2010
12782081	H03CA92	07/03/2011
24951039	H03CA92	19/01/2010
14859846	H03CA92	17/01/2011
1434530	H03CA92	25/05/2010
12789493	H03CA92	17/08/2010
19153849	H03CA92	30/06/2010
21060475	H03CA92	20/01/2011
9178125	H03CA92	20/12/2007
10392791	H03CA92	25/11/2010
9347891	H03CA92	11/02/2010
9377924	H03CA92	30/05/2011
8292988	H03CA92	13/05/2011
24763504	H03CA92	15/09/2008
8975417	H03CA92	20/04/2009
9327444	H03CA92	07/04/2011
8277508	H03CA92	21/02/2011
6143196	H03CA92	05/02/2009
9375948	H03CA92	18/05/2011
21805511	H03CA92	21/10/2010
732442	H03CA92	06/06/2008
3298642	H03CA92	15/10/2009
10003864	H03CA92	20/10/2008
16926576	H03CA92	11/03/2010
14859280	H03CA92	12/04/2011
1941662	H03CA92	18/01/2011
6833131	H03CA92	06/05/2011
8557801	H03CA92	06/04/2010
9386723	H03CA92	13/01/2011
5031089	H03CA92	01/06/2011
8572398	H03CA92	16/05/2011
7408466	H03CA92	14/12/2010
9926472	H03CA92	10/01/2011
6182455	H03CA92	08/07/2008
61693	H03CA92	24/11/2010
19152943	H03CA92	23/03/2011
18440398	H03CA92	23/12/2010
1941817	H03CA92	06/05/2010
21824973	H03CA92	08/11/2010
14982937	H03CA92	16/06/2010
8558113	H03CA92	03/09/2010
12739708	H03CA92	14/11/2008
12762045	H03CA92	17/05/2011
3330885	H03CA92	11/07/2008
751585	H03CA92	13/12/2007
10267886	H03CA92	12/01/2011
10271268	H03CA92	20/05/2010
14816643	H03CA92	18/05/2009
18581650	H03CA92	15/03/2011
12778460	H03CA92	05/03/2010
9376211	H03CA92	03/04/2009
17169960	H03CA92	16/04/2010
9299616	H03CA92	03/03/2008
944821	H03CA92	03/03/2010
8561299	H03CA92	02/06/2009
564988	H03CA92	16/05/2011
1849585	H03CA92	31/08/2009
1351154	H03CA92	13/05/2011
1444548	H03CA92	10/10/2008
10727748	H03CA92	26/04/2010
8067223	H03CA92	21/03/2011
12614422	H03CA92	15/04/2011
1444433	H03CA92	22/03/2011
1198401	H03CA92	30/06/2010
6597238	H03CA92	28/03/2011
1349650	H03CA92	06/04/2011
674612	H03CA92	03/10/2008
7898429	H03CA92	31/05/2011
7662300	H03CA92	19/12/2008
6842229	H03CA92	15/04/2010
564567	H03CA92	14/02/2011
8315209	H03CA92	31/07/2008
15709379	H03CA92	01/07/2010
1379462	H03CA92	24/08/2010
6333747	H03CA92	26/05/2011
13733587	H03CA92	28/05/2009
1425954	H03CA92	09/12/2010
648003	H03CA92	24/03/2011
1320780	H03CA92	16/06/2009
7781699	H03CA92	17/01/2011
6594333	H03CA92	12/05/2008
12709263	H03CA92	04/03/2008
25884256	H03CA92	21/04/2010
25923090	H03CA92	16/09/2009
1135117	H03CA92	09/02/2010
4678923	H03CA92	19/05/2011
996288	H03CA92	31/10/2008
1638261	H03CA92	20/04/2011
1110947	H03CA92	10/12/2010
8066793	H03CA92	01/12/2010
7968651	H03CA92	13/09/2010
1639524	H03CA92	26/07/2010
4687471	H03CA92	08/06/2010
1641552	H03CA92	05/01/2010
25908142	H03CA92	08/04/2009
1006571	H03CA92	27/05/2011
994631	H03CA92	13/11/2009
1129701	H03CA92	27/07/2010
25914155	H03CA92	14/04/2010
25889223	H03CA92	15/04/2010
996518	H03CA92	18/04/2008
716901	H03CA92	17/05/2010
4672411	H03CA92	27/08/2008
25776569	H03CA92	30/08/2010
4678755	H03CA92	29/04/2010
999320	H03CA92	04/08/2009
25894286	H03CA92	29/09/2010
25891422	H03CA92	18/04/2011
1132837	H03CA92	22/09/2010
1106479	H03CA92	20/08/2009
25891767	H03CA92	15/07/2010
25750347	H03CA92	05/01/2011
1555573	H03CA92	17/02/2011
1855136	H03CA92	29/03/2010
2239728	H03CA92	15/04/2010
2042077	H03CA92	05/05/2011
2069079	H03CA92	10/02/2009
2067962	H03CA92	06/04/2009
2068080	H03CA92	17/06/2009
2132863	H03CA92	08/04/2010
2217471	H03CA92	02/12/2010
2045327	H03CA92	08/07/2008
2054942	H03CA92	26/10/2010
2217822	H03CA92	14/10/2010
859996	H03CA92	07/03/2011
2143938	H03CA92	27/05/2011
2108806	H03CA92	26/05/2010
905430	H03CA92	07/01/2010
757304	H03CA92	29/10/2010
876747	H03CA92	29/06/2010
876765	H03CA92	07/05/2010
1642138	H03CA92	10/05/2011
859067	H03CA92	08/05/2009
878751	H03CA92	29/10/2008
878756	H03CA92	31/03/2011
873828	H03CA92	12/04/2011
904067	H03CA92	18/05/2010
7036914	H03CA92	24/03/2010
876900	H03CA92	26/05/2010
903248	H03CA92	06/05/2009
2774660	H03CA92	04/03/2010
2778679	H03CA92	10/06/2009
2777636	H03CA92	16/07/2010
7135180	H03CA92	04/12/2009
7128622	H03CA92	02/12/2009
2525797	H03CA92	26/11/2008
2408474	H03CA92	28/12/2010
2407429	H03CA92	24/09/2008
26462682	H03CA92	12/05/2009
26462685	H03CA92	12/11/2008
26565598	H03CA92	20/04/2011
28072011	H03CA92	26/05/2011
7229616	H03CA92	27/09/2010
17323964	H03CA92	20/05/2011
8351954	H03CA92	15/12/2010
20673717	H03CA92	27/06/2008
20452613	H03CA92	28/10/2009
26176201	H03CA92	14/01/2010
26337063	H03CA92	18/06/2008
26459370	H03CA92	08/11/2010
26337794	H03CA92	08/03/2011
10490976	H03CA92	06/08/2009
8116823	H03CA92	25/06/2009
16836110	H03CA92	10/11/2009
10490949	H03CA92	04/03/2010
425123	H03CA92	14/05/2009
300775	H03CA92	21/08/2008
16825771	H03CA92	19/05/2010
28089859	H03CA92	04/05/2011
3055456	H03CA92	20/02/2009
2216969	H03CA92	15/05/2008
2132842	H03CA92	29/04/2011
28063999	H03CA92	01/03/2011
28090121	H03CA92	07/12/2010
435889	H03CA92	06/05/2010
18222549	H03CA92	17/03/2010
28063046	H03CA92	17/03/2010
28071903	H03CA92	28/05/2009
28059634	H03CA92	13/12/2010
28053782	H03CA92	26/06/2008
28085264	H03CA92	21/04/2009
26477728	H03CA92	08/10/2010
28090015	H03CA92	02/03/2011
28063771	H03CA92	30/03/2011
25715383	H03CA92	23/12/2010
24661880	H03CA92	31/03/2008
25744065	H03CA92	30/03/2010
25642014	H03CA92	15/03/2011
25551952	H03CA92	18/03/2011
927483	H03CA92	14/02/2011
1374923	H03CA92	04/12/2008
16566958	H03CA92	31/03/2011
1360573	H03CA92	30/10/2009
21202304	H03CA92	01/04/2011
19799784	H03CA92	21/04/2010
18197709	H03CA92	02/08/2010
1014435	H03CA92	03/03/2011
8069225	H03CA92	20/12/2010
2964336	H03CA92	10/05/2011
3055681	H03CA92	01/08/2008
26792124	H03CA92	17/08/2010
26700107	H03CA92	09/10/2009
2994406	H03CA92	27/01/2010
24659566	H03CA92	03/02/2011
10770222	H03CA92	20/07/2010
26630888	H03CA92	18/03/2011
8419678	H03CA92	26/11/2010
26627694	H03CA92	24/10/2008
26722745	H03CA92	19/10/2010
9072498	H03CA92	09/06/2010
26621367	H03CA92	21/04/2010
15810961	H03CA92	28/07/2010
2990126	H03CA92	14/09/2010
24580650	H03CA92	10/06/2009
19968378	H03CA92	19/11/2009
23451824	H03CA92	05/05/2011
21066299	H03CA92	07/12/2009
26889844	H03CA92	05/05/2008
26916210	H03CA92	17/06/2009
26745325	H03CA92	06/10/2010
26714002	H03CA92	09/03/2011
26762151	H03CA92	06/03/2009
26859048	H03CA92	25/03/2010
26802136	H03CA92	01/03/2010
26799972	H03CA92	28/03/2011
26829963	H03CA92	27/05/2010
26773606	H03CA92	10/01/2011
26713793	H03CA92	16/08/2010
26792812	H03CA92	14/10/2009
26834817	H03CA92	11/08/2010
26712316	H03CA92	20/04/2011
26966714	H03CA92	31/03/2009
26945062	H03CA92	05/11/2008
26954803	H03CA92	16/03/2011
26979441	H03CA92	10/12/2010
27052004	H03CA92	06/05/2011
26972976	H03CA92	16/04/2010
27129038	H03CA92	12/12/2008
27151224	H03CA92	29/04/2011
27149827	H03CA92	11/06/2009
27054780	H03CA92	15/10/2009
27072750	H03CA92	20/04/2011
27051410	H03CA92	15/12/2009
27057039	H03CA92	24/01/2011
27036864	H03CA92	06/10/2010
26997215	H03CA92	07/04/2010
26996932	H03CA92	25/01/2011
27324862	H03CA92	08/02/2010
27242095	H03CA92	16/05/2011
27169994	H03CA92	02/04/2008
27363220	H03CA92	16/05/2011
27366710	H03CA92	22/02/2010
27314488	H03CA92	06/05/2009
27364887	H03CA92	12/04/2011
27172075	H03CA92	14/11/2008
27170141	H03CA92	27/01/2011
27173291	H03CA92	02/06/2009
26954591	H03CA92	21/01/2011
27200549	H03CA92	18/03/2009
26999643	H03CA92	17/12/2007
27607475	H03CA92	19/11/2009
27573377	H03CA92	27/05/2010
27445609	H03CA92	21/06/2010
27577364	H03CA92	25/02/2011
27564586	H03CA92	14/02/2011
27608249	H03CA92	29/10/2009
27756722	H03CA92	19/11/2010
27240292	H03CA92	06/04/2009
27164172	H03CA92	04/02/2009
26783819	H03CA92	26/05/2008
27211124	H03CA92	10/01/2011
27687292	H03CA92	17/09/2009
24671344	H03CA92	24/04/2009
27571868	H03CA92	19/06/2010
27682549	H03CA92	15/04/2009
27674998	H03CA92	31/07/2009
27669980	H03CA92	22/06/2010
27514984	H03CA92	30/04/2010
22922095	H03CA92	07/01/2010
27670984	H03CA92	16/01/2010
22740061	H03CA92	05/04/2011
9072497	H03CA92	05/11/2010
27579596	H03CA92	13/12/2010
27799688	H03CA92	14/05/2010
27686953	H03CA92	04/01/2011
26988777	H03CA92	09/02/2010
27794453	H03CA92	29/07/2010
27805968	H03CA92	22/10/2009
26824518	H03CA92	28/05/2010
25567971	H03CA92	09/03/2009
27211765	H03CA92	01/02/2011
27571285	H03CA92	01/12/2008
27564429	H03CA92	19/05/2011
27000532	H03CA92	09/12/2010
27220725	H03CA92	30/12/2009
33105144	H03CA92	10/08/2009
33100103	H03CA92	08/03/2011
33005769	H03CA92	09/12/2008
33100233	H03CA92	20/06/2008
33119176	H03CA92	27/04/2010
33118696	H03CA92	10/05/2010
33044195	H03CA92	18/12/2008
33023137	H03CA92	03/09/2009
33011078	H03CA92	02/01/2009
33128134	H03CA92	27/11/2008
33107082	H03CA92	09/03/2010
33113036	H03CA92	29/06/2010
33013070	H03CA92	08/09/2010
33111724	H03CA92	07/06/2010
33047339	H03CA92	07/07/2009
33034235	H03CA92	11/02/2009
33067406	H03CA92	17/10/2008
33113368	H03CA92	23/03/2009
33065039	H03CA92	22/12/2008
33038624	H03CA92	27/08/2010
33012828	H03CA92	01/12/2010
33131069	H03CA92	17/02/2011
33046246	H03CA92	15/01/2010
33005410	H03CA92	04/02/2010
33040223	H03CA92	29/05/2008
33005545	H03CA92	25/05/2009
33097390	H03CA92	20/09/2010
16105781	H03CA92	25/05/2010
185517	H03CA92	01/06/2009
33094218	H03CA92	11/01/2010
27805265	H03CA92	21/07/2009
33019222	H03CA92	24/05/2011
16600717	H03CA92	04/08/2009
21109472	H03CA92	12/02/2010
33046012	H03CA92	08/07/2008
18768517	H03CA92	21/06/2010
27983937	H03CA92	26/04/2011
33127387	H03CA92	13/01/2011
28017178	H03CA92	22/08/2008
23305226	H03CA92	31/05/2011
33039044	H03CA92	29/06/2010
33016132	H03CA92	05/07/2010
33031761	H03CA92	09/03/2009
33005071	H03CA92	27/10/2009
33084155	H03CA92	16/06/2010
33025825	H03CA92	12/02/2010
33042572	H03CA92	24/04/2009
33099541	H03CA92	30/09/2010
33025702	H03CA92	20/06/2008
33003095	H03CA92	04/11/2010
33067381	H03CA92	14/09/2010
33076011	H03CA92	22/09/2009
33098782	H03CA92	20/09/2010
33053905	H03CA92	30/11/2009
33053845	H03CA92	23/02/2009
33044755	H03CA92	06/08/2010
33043674	H03CA92	25/03/2011
33135064	H03CA92	05/11/2010
33065702	H03CA92	05/06/2009
33004431	H03CA92	14/08/2008
33021489	H03CA92	19/05/2011
33026558	H03CA92	21/09/2010
33069491	H03CA92	21/10/2009
33012988	H03CA92	03/11/2009
16685086	H03CA92	04/11/2009
33226133	H03CA92	22/11/2010
20976603	H03CA92	23/06/2010
33228271	H03CA92	06/10/2010
33284919	H03CA92	17/05/2011
20981529	H03CA92	09/12/2009
33209204	H03CA92	03/04/2009
33228552	H03CA92	23/02/2010
33308205	H03CA92	26/08/2008
14187073	H03CA92	28/01/2010
33293086	H03CA92	13/07/2010
16135222	H03CA92	27/09/2010
23343990	H03CA92	22/09/2008
21001195	H03CA92	15/07/2008
23343311	H03CA92	14/09/2009
23396351	H03CA92	28/04/2008
20984031	H03CA92	24/08/2009
28024777	H03CA92	26/03/2008
33228565	H03CA92	26/11/2010
33309270	H03CA92	17/05/2011
33207689	H03CA92	28/12/2010
23254790	H03CA92	31/03/2009
33200178	H03CA92	20/10/2009
16605900	H03CA92	05/02/2009
23402453	H03CA92	22/12/2010
16649374	H03CA92	20/01/2009
24463084	H03CA92	16/03/2010
33229186	H03CA92	06/11/2009
33237229	H03CA92	03/02/2009
33306599	H03CA92	28/04/2008
23350479	H03CA92	17/05/2010
16633911	H03CA92	18/05/2011
16648876	H03CA92	07/05/2009
16125129	H03CA92	27/10/2008
21113130	H03CA92	05/08/2009
16178450	H03CA92	16/09/2008
28017091	H03CA92	23/07/2008
27983759	H03CA92	18/03/2009
27983666	H03CA92	20/08/2010
20984276	H03CA92	08/08/2008
31668793	H03CA92	24/06/2008
16130997	H03CA92	15/07/2010
33201673	H03CA92	08/03/2011
33287561	H03CA92	05/10/2010
23368730	H03CA92	02/11/2010
23401004	H03CA92	12/08/2009
33227731	H03CA92	26/05/2011
16185899	H03CA92	09/03/2009
23371323	H03CA92	07/01/2011
16683312	H03CA92	27/05/2011
28033250	H03CA92	16/04/2010
21010624	H03CA92	22/03/2010
21102451	H03CA92	08/10/2010
23364680	H03CA92	07/12/2010
16129916	H03CA92	15/10/2009
18757455	H03CA92	01/06/2009
16125584	H03CA92	20/12/2010
20987322	H03CA92	09/05/2011
18755574	H03CA92	12/12/2008
33228753	H03CA92	07/06/2010
16602756	H03CA92	21/09/2010
23371004	H03CA92	12/01/2011
31299595	H03CA92	27/12/2010
32241655	H03CA92	29/12/2009
31283771	H03CA92	10/12/2009
31522402	H03CA92	28/09/2009
32183304	H03CA92	18/11/2009
32276089	H03CA92	06/04/2011
32231072	H03CA92	08/05/2009
32237031	H03CA92	20/08/2009
32177076	H03CA92	02/06/2009
31920995	H03CA92	31/01/2008
31438552	H03CA92	26/05/2009
31364257	H03CA92	04/05/2009
31513777	H03CA92	08/04/2011
31039571	H03CA92	30/03/2010
31854978	H03CA92	11/12/2009
31821762	H03CA92	08/01/2009
31510794	H03CA92	09/06/2008
31892586	H03CA92	29/07/2008
31403634	H03CA92	30/12/2008
32126956	H03CA92	08/09/2009
32238796	H03CA92	29/02/2008
31649874	H03CA92	18/02/2009
32024087	H03CA92	17/08/2009
32148667	H03CA92	28/09/2010
32217439	H03CA92	02/09/2010
31381422	H03CA92	04/08/2009
32123084	H03CA92	08/08/2008
31485765	H03CA92	04/06/2008
32012795	H03CA92	18/05/2009
31744509	H03CA92	25/11/2010
31979610	H03CA92	17/06/2009
31697444	H03CA92	18/08/2009
31103413	H03CA92	12/06/2009
32218890	H03CA92	12/04/2010
31502787	H03CA92	15/04/2009
31530639	H03CA92	12/07/2010
31913525	H03CA92	06/03/2008
31781231	H03CA92	20/12/2010
31258857	H03CA92	23/02/2009
31846875	H03CA92	26/12/2008
31635404	H03CA92	31/08/2009
31786798	H03CA92	08/03/2011
32162258	H03CA92	02/12/2009
31122373	H03CA92	19/10/2009
32256967	H03CA92	20/03/2009
31365558	H03CA92	10/12/2008
32005875	H03CA92	10/09/2010
31689803	H03CA92	08/03/2011
31735989	H03CA92	30/04/2009
31936120	H03CA92	11/12/2009
31998510	H03CA92	02/11/2009
32265925	H03CA92	10/12/2008
31476833	H03CA92	26/06/2008
32100467	H03CA92	09/10/2009
31137463	H03CA92	04/05/2010
32050669	H03CA92	02/01/2008
31862704	H03CA92	17/06/2009
31450548	H03CA92	08/01/2010
32241350	H03CA92	09/12/2008
31033502	H03CA92	13/01/2010
31577200	H03CA92	11/02/2008
31978909	H03CA92	02/09/2009
32164649	H03CA92	19/10/2009
31308360	H03CA92	08/04/2008
32275808	H03CA92	20/09/2010
31940591	H03CA92	26/10/2009
31953146	H03CA92	18/12/2009
31997638	H03CA92	14/07/2010
31032772	H03CA92	17/06/2010
31467001	H03CA92	12/06/2008
31714268	H03CA92	23/01/2009
31351676	H03CA92	30/03/2010
31571034	H03CA92	07/05/2010
32168749	H03CA92	29/12/2008
31045812	H03CA92	17/10/2008
31739653	H03CA92	02/10/2008
31994016	H03CA92	06/07/2010
32149423	H03CA92	05/08/2009
31187014	H03CA92	07/02/2011
32146964	H03CA92	14/10/2009
31729859	H03CA92	29/11/2007
31387612	H03CA92	19/02/2009
32215450	H03CA92	26/07/2010
31654266	H03CA92	24/03/2008
32027425	H03CA92	13/03/2008
32058608	H03CA92	21/04/2009
32076596	H03CA92	13/10/2009
31249695	H03CA92	14/08/2009
31552142	H03CA92	01/07/2008
31716350	H03CA92	27/12/2010
32042223	H03CA92	11/11/2008
31962535	H03CA92	08/04/2009
31704197	H03CA92	19/12/2008
31851844	H03CA92	10/11/2009
31310501	H03CA92	09/09/2009
31241296	H03CA92	05/05/2011
31613381	H03CA92	01/12/2008
31361513	H03CA92	23/09/2009
32072684	H03CA92	22/04/2010
31501290	H03CA92	17/03/2009
31154311	H03CA92	25/11/2009
31379324	H03CA92	23/06/2009
31640798	H03CA92	16/12/2009
31915337	H03CA92	18/07/2008
32226612	H03CA92	14/07/2010
31670327	H03CA92	22/04/2009
32000642	H03CA92	30/04/2009
31481692	H03CA92	02/09/2010
31481689	H03CA92	23/04/2009
31626836	H03CA92	01/03/2011
31870791	H03CA92	03/04/2009
32065963	H03CA92	20/01/2011
31569164	H03CA92	15/10/2010
31495560	H03CA92	14/11/2008
31187476	H03CA92	02/09/2009
31822563	H03CA92	04/11/2008
31634560	H03CA92	25/02/2009
31233533	H03CA92	06/04/2011
31723824	H03CA92	26/12/2008
31649922	H03CA92	23/12/2010
31429892	H03CA92	29/03/2010
31672938	H03CA92	05/01/2010
31198510	H03CA92	23/06/2009
32232109	H03CA92	17/11/2008
31191725	H03CA92	16/12/2009
31766843	H03CA92	06/03/2009
31604235	H03CA92	14/12/2009
31122361	H03CA92	10/02/2009
32037670	H03CA92	13/07/2009
32195711	H03CA92	12/05/2011
31935726	H03CA92	08/01/2009
31563225	H03CA92	23/10/2008
32037246	H03CA92	02/02/2009
31130071	H03CA92	16/01/2009
32277636	H03CA92	21/05/2010
31233103	H03CA92	23/08/2010
31888517	H03CA92	26/10/2009
31873460	H03CA92	30/10/2009
31951572	H03CA92	23/02/2010
31755336	H03CA92	08/07/2010
31394242	H03CA92	21/09/2009
32235630	H03CA92	29/12/2009
31864799	H03CA92	25/09/2009
31763159	H03CA92	28/10/2009
32035032	H03CA92	09/12/2009
31618008	H03CA92	27/08/2009
31122698	H03CA92	08/09/2009
31057245	H03CA92	15/01/2009
32273583	H03CA92	28/04/2009
32224489	H03CA92	19/09/2008
31879102	H03CA92	02/11/2009
31699421	H03CA92	15/07/2009
31689730	H03CA92	09/09/2009
31988395	H03CA92	11/09/2008
31736383	H03CA92	02/11/2009
31925811	H03CA92	10/11/2008
32166199	H03CA92	11/10/2010
31220264	H03CA92	22/06/2010
31876677	H03CA92	25/12/2009
31972257	H03CA92	22/12/2009
31217185	H03CA92	29/12/2009
31786081	H03CA92	30/12/2008
32063606	H03CA92	30/03/2011
31851594	H03CA92	12/05/2009
