patient_id	covar_name	date
9372370	HTPULM	25/02/2010
7405502	HTPULM	25/05/2004
8293576	HTPULM	25/10/2000
1607075	HTPULM	13/07/2009
1350929	HTPULM	04/02/1974
1420467	HTPULM	28/09/2001
1204719	HTPULM	23/08/2008
7777716	HTPULM	31/05/2011
1638786	HTPULM	03/05/2001
1099959	HTPULM	03/05/2011
1647977	HTPULM	13/12/2005
859454	HTPULM	27/03/2002
16835317	HTPULM	20/07/2004
24666302	HTPULM	17/05/2010
1373981	HTPULM	13/09/2007
26887048	HTPULM	03/06/2008
26761941	HTPULM	14/09/1929
26995388	HTPULM	25/11/2004
27325120	HTPULM	30/05/1939
27349067	HTPULM	07/02/2005
27631227	HTPULM	19/11/2009
27667233	HTPULM	07/12/2000
27591900	HTPULM	14/06/2004
27778389	HTPULM	15/09/2010
33068739	HTPULM	10/05/2011
33084983	HTPULM	04/10/2010
33050169	HTPULM	01/01/1995
16636662	HTPULM	31/07/2009
18811600	HTPULM	08/02/2010
33264434	HTPULM	13/04/2010
32205302	HTPULM	04/07/2005
31435208	HTPULM	15/02/2005
31298093	HTPULM	01/06/2011
32241646	HTPULM	20/04/2011
31071955	HTPULM	25/01/2010
31775322	HTPULM	18/05/2004
31641342	HTPULM	28/03/2007
31612836	HTPULM	10/03/2008
31851612	HTPULM	05/05/2000
32199258	HTPULM	12/04/2007
31390850	HTPULM	29/05/2007
31831196	HTPULM	24/03/2010
31426233	HTPULM	27/10/2005
32149623	HTPULM	18/09/2009
31712543	HTPULM	14/03/2011
31391687	HTPULM	10/11/1998
32143347	HTPULM	01/01/1953
31241823	HTPULM	09/05/2008
31883127	HTPULM	17/03/2006
32258288	HTPULM	11/12/2003
32245403	HTPULM	03/08/1999
32270655	HTPULM	08/09/2010
31848757	HTPULM	16/05/2007
31960354	HTPULM	12/12/2007
31805078	HTPULM	19/05/2008
32084795	HTPULM	11/10/2002
31828038	HTPULM	17/05/2007
31688187	HTPULM	17/11/2006
31991628	HTPULM	13/02/2006
