patient_id	covar_name	date
12778095	J05AB15	13/05/2010
1069599	J05AB15	26/07/2010
10001720	J05AB15	03/02/2006
12731532	J05AB15	27/05/2011
3501594	J05AB15	01/09/2006
12780881	J05AB15	16/05/2008
23454847	J05AB15	02/10/2003
3320998	J05AB15	08/05/2009
609389	J05AB15	05/07/2010
10270695	J05AB15	24/11/2009
8974881	J05AB15	24/02/2009
10394089	J05AB15	09/07/2010
6746455	J05AB15	06/03/2006
12764196	J05AB15	02/04/2009
10331912	J05AB15	07/06/2004
9384804	J05AB15	31/03/2011
12478643	J05AB15	06/07/2007
15669345	J05AB15	23/05/2008
1852614	J05AB15	30/06/2008
1415901	J05AB15	31/10/2006
7770911	J05AB15	22/10/2008
646268	J05AB15	05/10/2006
8066420	J05AB15	23/11/2010
1206490	J05AB15	24/03/2008
641313	J05AB15	22/02/2010
646292	J05AB15	15/06/2008
1206818	J05AB15	14/10/2008
7773589	J05AB15	24/11/2004
1855716	J05AB15	04/03/2009
1110947	J05AB15	08/08/2008
1855368	J05AB15	12/04/2006
996038	J05AB15	18/07/2008
890075	J05AB15	14/06/2010
1641868	J05AB15	09/01/2007
2164170	J05AB15	21/10/2010
2109655	J05AB15	31/07/2008
6335061	J05AB15	04/06/2009
2779249	J05AB15	22/03/2009
3054506	J05AB15	30/10/2010
2756223	J05AB15	08/09/2005
2525520	J05AB15	20/08/2010
2238836	J05AB15	27/02/2008
26236039	J05AB15	12/06/2009
1903031	J05AB15	25/04/2008
28091051	J05AB15	03/11/2006
2778926	J05AB15	26/11/2010
2779080	J05AB15	07/02/2005
2525968	J05AB15	02/02/2005
7228667	J05AB15	14/04/2009
649912	J05AB15	29/08/2007
28072507	J05AB15	21/07/2009
28072320	J05AB15	05/12/2005
28090303	J05AB15	31/03/2008
28072154	J05AB15	12/01/2007
25641784	J05AB15	02/01/2006
24657265	J05AB15	25/11/2005
24663007	J05AB15	13/07/2009
16841220	J05AB15	10/05/2006
26852279	J05AB15	11/07/2006
24662589	J05AB15	18/10/2007
26950407	J05AB15	17/01/2011
26703793	J05AB15	15/10/2008
26717570	J05AB15	27/04/2010
26888250	J05AB15	12/02/2011
26847638	J05AB15	27/09/2010
26804701	J05AB15	24/01/2010
26825165	J05AB15	13/03/2011
27099123	J05AB15	08/05/2009
27102811	J05AB15	28/11/2007
27062423	J05AB15	18/07/2006
27111686	J05AB15	26/09/2008
27041821	J05AB15	03/05/2008
27041476	J05AB15	08/08/2010
27362443	J05AB15	07/05/2009
27166818	J05AB15	06/08/2010
27320895	J05AB15	18/08/2007
27308260	J05AB15	06/07/2007
27233016	J05AB15	03/04/2010
27247445	J05AB15	22/10/2008
27167911	J05AB15	03/08/2010
27674859	J05AB15	25/04/2009
27686318	J05AB15	30/01/2011
27772144	J05AB15	03/11/2005
27684912	J05AB15	09/05/2008
24654854	J05AB15	19/08/2010
27529159	J05AB15	30/08/2007
27538015	J05AB15	12/08/2010
27668939	J05AB15	14/11/2008
27718674	J05AB15	17/05/2007
27794444	J05AB15	28/09/2007
27769702	J05AB15	18/07/2005
27784800	J05AB15	25/01/2010
33021009	J05AB15	24/07/2009
33065445	J05AB15	02/06/2010
33066001	J05AB15	08/04/2011
22882894	J05AB15	31/10/2006
24664671	J05AB15	15/07/2009
16612746	J05AB15	22/06/2007
33104988	J05AB15	11/05/2007
33102691	J05AB15	18/01/2007
33057991	J05AB15	22/01/2009
27897676	J05AB15	17/09/2010
27984159	J05AB15	05/02/2011
21100750	J05AB15	18/11/2008
33304384	J05AB15	08/06/2006
28023165	J05AB15	20/03/2009
28020243	J05AB15	11/01/2011
23336381	J05AB15	17/03/2011
23368715	J05AB15	19/08/2009
28033616	J05AB15	15/04/2008
16625109	J05AB15	15/12/2008
23381215	J05AB15	28/06/2005
16613895	J05AB15	06/03/2008
31942667	J05AB15	15/06/2009
31402492	J05AB15	11/08/2008
31197084	J05AB15	27/10/2005
31294985	J05AB15	08/08/2008
31447807	J05AB15	30/03/2005
32158525	J05AB15	23/02/2006
31745772	J05AB15	31/07/2008
31216838	J05AB15	27/02/2006
31825612	J05AB15	17/04/2006
31507581	J05AB15	18/11/2008
31670310	J05AB15	05/12/2006
32229354	J05AB15	26/05/2008
31778667	J05AB15	18/05/2004
31903968	J05AB15	12/06/2007
31111108	J05AB15	10/12/2009
31154366	J05AB15	07/11/2008
32058126	J05AB15	16/09/2010
32013543	J05AB15	03/10/2008
31339785	J05AB15	30/07/2007
31580940	J05AB15	19/10/2007
31052272	J05AB15	27/07/2009
31070900	J05AB15	18/10/2004
31677081	J05AB15	05/11/2007
31107785	J05AB15	25/02/2008
32026900	J05AB15	04/07/2008
