patient_id	covar_name	date
16815009	J04AB02	29/09/2010
16977131	J04AB02	30/03/2011
3940545	J04AB02	04/11/2008
8292751	J04AB02	27/07/2007
9231972	J04AB02	12/06/2009
9208920	J04AB02	25/08/2010
10001363	J04AB02	24/11/2008
9285417	J04AB02	29/12/2004
25054606	J04AB02	19/01/2007
1303002	J04AB02	04/02/2011
21805775	J04AB02	29/04/2005
9298866	J04AB02	11/03/2004
7967014	J04AB02	03/12/2010
1192135	J04AB02	03/05/2005
1191405	J04AB02	01/05/2005
9873104	J04AB02	24/01/2008
25170569	J04AB02	27/09/2002
1566989	J04AB02	10/03/2003
189189	J04AB02	11/05/2006
2144824	J04AB02	10/09/2003
2043588	J04AB02	04/12/2008
901033	J04AB02	01/09/2001
3050342	J04AB02	19/08/2009
2778364	J04AB02	17/12/2008
2409456	J04AB02	08/06/2006
26351330	J04AB02	22/06/2007
419430	J04AB02	24/03/2009
184271	J04AB02	09/09/2005
26588342	J04AB02	24/05/2011
21066126	J04AB02	10/08/2006
26857716	J04AB02	04/06/2009
26879702	J04AB02	05/01/2009
26954470	J04AB02	02/12/2005
27011917	J04AB02	10/12/2006
27152044	J04AB02	08/12/2010
27295884	J04AB02	21/04/2006
27633578	J04AB02	03/07/2005
178525	J04AB02	26/07/2006
33095291	J04AB02	30/05/2007
33029275	J04AB02	27/06/2007
33012415	J04AB02	05/12/2007
33059213	J04AB02	05/10/2010
180195	J04AB02	16/12/2009
33030275	J04AB02	10/02/2009
18771349	J04AB02	10/01/2009
23407914	J04AB02	07/10/2003
16618677	J04AB02	17/03/2005
31186931	J04AB02	23/08/2007
31285717	J04AB02	26/01/2005
31559608	J04AB02	06/02/2006
31493727	J04AB02	14/07/2006
31822514	J04AB02	05/08/2005
32159529	J04AB02	25/05/2007
31107119	J04AB02	30/09/2009
31738312	J04AB02	20/11/2009
31458732	J04AB02	07/10/2009
31345734	J04AB02	06/03/2008
32057356	J04AB02	28/12/2009
31320945	J04AB02	25/04/2007
31793155	J04AB02	19/09/2008
32128882	J04AB02	06/07/2009
32215161	J04AB02	16/01/2002
31734613	J04AB02	12/02/2007
31891996	J04AB02	08/09/2009
32197317	J04AB02	28/04/2008
32169066	J04AB02	30/05/2005
31849795	J04AB02	29/07/2010
31049195	J04AB02	17/12/2003
31528765	J04AB02	08/03/2005
