patient_id	covar_name	date
9311739	J01MB04	18/06/2010
6751368	J01MB04	15/01/2010
9295737	J01MB04	21/10/2004
173267	J01MB04	31/05/2000
1517390	J01MB04	28/05/2002
8783486	J01MB04	19/05/2005
9304423	J01MB04	26/07/2006
10002297	J01MB04	29/04/2008
23996759	J01MB04	22/05/2003
23511042	J01MB04	16/12/2009
12614422	J01MB04	03/02/2010
7964982	J01MB04	23/03/2010
1263401	J01MB04	12/12/2000
648114	J01MB04	10/01/2010
1849477	J01MB04	24/02/2006
13984759	J01MB04	09/06/2000
1545758	J01MB04	27/03/2003
6599648	J01MB04	11/12/2000
26139483	J01MB04	01/06/2009
1547134	J01MB04	22/01/2002
7964309	J01MB04	23/09/2009
7781663	J01MB04	04/02/2008
26138587	J01MB04	13/03/2008
6598268	J01MB04	28/12/2009
18365866	J01MB04	30/04/2007
1199856	J01MB04	15/04/2004
1209849	J01MB04	05/10/2007
1135144	J01MB04	26/01/2005
1066140	J01MB04	08/09/2010
1103247	J01MB04	07/07/2000
26481067	J01MB04	20/02/2001
18222850	J01MB04	22/05/2003
17742348	J01MB04	07/11/2008
17742172	J01MB04	29/05/2002
17323744	J01MB04	08/10/2003
17741586	J01MB04	14/03/2007
17742169	J01MB04	17/05/2006
424822	J01MB04	14/04/2010
184353	J01MB04	15/05/2006
464282	J01MB04	22/01/2007
423574	J01MB04	07/02/2000
305231	J01MB04	18/12/2006
17741653	J01MB04	31/10/2000
185927	J01MB04	24/05/2004
28055845	J01MB04	10/10/2007
28068401	J01MB04	19/11/2008
28065315	J01MB04	05/07/2004
28085935	J01MB04	10/08/2009
24666302	J01MB04	30/01/2008
25742981	J01MB04	21/06/2006
18191861	J01MB04	04/04/2011
19423946	J01MB04	26/07/2006
18197709	J01MB04	26/06/2003
1909227	J01MB04	29/12/2008
26856096	J01MB04	01/08/2005
26628519	J01MB04	24/10/2007
26706338	J01MB04	03/07/2006
26619130	J01MB04	23/02/2011
21064366	J01MB04	11/02/2004
16567893	J01MB04	21/10/2010
16567909	J01MB04	02/04/2004
26717898	J01MB04	17/07/2008
26619245	J01MB04	23/03/2011
26702888	J01MB04	25/09/2009
26912985	J01MB04	13/09/2010
26959391	J01MB04	02/07/2009
26745307	J01MB04	04/11/2008
26711269	J01MB04	01/04/2008
26714083	J01MB04	25/11/2005
26721990	J01MB04	16/04/2004
26878871	J01MB04	11/01/2006
26900035	J01MB04	26/09/2005
26874108	J01MB04	11/12/2006
26878753	J01MB04	13/08/2007
26730688	J01MB04	21/07/2005
26812125	J01MB04	11/05/2005
26815899	J01MB04	05/08/2002
26717132	J01MB04	03/01/2008
26955339	J01MB04	18/01/2007
27080149	J01MB04	28/07/2009
27128238	J01MB04	26/01/2005
27042887	J01MB04	25/05/2004
27023851	J01MB04	04/09/2008
27170821	J01MB04	29/12/2009
27130080	J01MB04	06/08/2009
27130094	J01MB04	27/04/2011
27219884	J01MB04	25/11/2009
27219885	J01MB04	25/11/2010
27244538	J01MB04	13/08/2005
27365421	J01MB04	11/11/2008
27356310	J01MB04	09/11/2004
27304667	J01MB04	04/04/2005
27360872	J01MB04	06/10/2009
27317311	J01MB04	12/08/2004
26992572	J01MB04	07/08/2009
27595400	J01MB04	30/03/2010
27642131	J01MB04	09/04/2007
27647784	J01MB04	08/03/2005
27588942	J01MB04	02/05/2006
27646878	J01MB04	15/11/2006
27623999	J01MB04	28/07/2009
27442320	J01MB04	07/01/2008
27420117	J01MB04	04/07/2009
27741644	J01MB04	22/04/2009
27614610	J01MB04	21/01/2010
27614866	J01MB04	05/12/2008
27151908	J01MB04	25/02/2010
27128882	J01MB04	16/08/2010
27127806	J01MB04	28/12/2001
27130014	J01MB04	11/11/2003
27350725	J01MB04	02/10/2003
26783819	J01MB04	24/01/2008
27244772	J01MB04	27/11/2007
24671344	J01MB04	15/09/2010
27783016	J01MB04	26/05/2008
26915531	J01MB04	05/02/2010
27716439	J01MB04	25/02/2011
27684664	J01MB04	17/01/2005
27784044	J01MB04	17/10/2003
27773248	J01MB04	28/03/2007
27782453	J01MB04	05/07/2009
27673496	J01MB04	27/09/2010
26996328	J01MB04	11/10/2006
27679826	J01MB04	21/02/2003
27597325	J01MB04	08/07/2008
27475366	J01MB04	16/04/2010
27623685	J01MB04	13/08/2007
27083023	J01MB04	13/11/2007
21651701	J01MB04	17/03/2008
12993306	J01MB04	21/02/2003
9072497	J01MB04	28/10/2005
27683295	J01MB04	04/07/2008
27804764	J01MB04	30/09/2003
27758605	J01MB04	10/07/2008
27576566	J01MB04	20/04/2007
27597341	J01MB04	05/09/2008
27452134	J01MB04	25/03/2004
27783755	J01MB04	31/01/2007
26878759	J01MB04	28/01/2008
26973087	J01MB04	30/06/2004
26877058	J01MB04	16/06/2009
26900545	J01MB04	19/05/2009
33086922	J01MB04	25/09/2003
33016797	J01MB04	18/09/2001
33070878	J01MB04	03/05/2011
33072648	J01MB04	11/11/2003
20983764	J01MB04	24/11/2004
33072639	J01MB04	09/09/2004
33019050	J01MB04	09/04/2010
28019180	J01MB04	21/11/2008
27878671	J01MB04	13/10/2009
21114621	J01MB04	29/07/2009
16138565	J01MB04	03/09/2003
33200178	J01MB04	30/09/2002
16177936	J01MB04	29/05/2009
28023797	J01MB04	23/03/2009
28022506	J01MB04	21/06/2010
16183731	J01MB04	13/04/2004
16125165	J01MB04	12/01/2004
16706166	J01MB04	02/08/2000
21117653	J01MB04	05/05/2009
16598501	J01MB04	18/04/2011
16598711	J01MB04	01/03/2004
31716241	J01MB04	21/05/2004
32109045	J01MB04	04/03/2008
31093440	J01MB04	29/06/2005
31611686	J01MB04	24/02/2006
31328921	J01MB04	09/05/2000
31398449	J01MB04	20/01/2010
32192909	J01MB04	10/06/2005
31959560	J01MB04	02/10/2001
31315407	J01MB04	14/03/2006
31335672	J01MB04	26/02/2002
32106251	J01MB04	21/10/2008
31278522	J01MB04	28/09/2009
31904246	J01MB04	20/04/2007
32236017	J01MB04	03/03/2008
32172998	J01MB04	08/11/2000
31899057	J01MB04	29/07/2009
32201838	J01MB04	27/10/2003
31986505	J01MB04	25/01/2005
31422298	J01MB04	06/09/2006
31703574	J01MB04	15/03/2004
32228473	J01MB04	05/05/2006
31570017	J01MB04	29/11/2005
31337953	J01MB04	30/07/2004
31793463	J01MB04	21/08/2000
31100263	J01MB04	21/02/2006
