patient_id	covar_name	date
9214995	L04AA06	09/05/2011
12690514	L04AA06	09/02/2011
16979253	L04AA06	23/06/2010
25335939	L04AA06	09/05/2011
6592623	L04AA06	31/05/2011
1262130	L04AA06	14/07/2010
2239654	L04AA06	19/05/2011
904793	L04AA06	08/04/2011
904650	L04AA06	29/04/2011
6990280	L04AA06	18/05/2011
19801596	L04AA06	23/05/2011
26701512	L04AA06	16/05/2011
26894950	L04AA06	31/05/2011
26913891	L04AA06	27/05/2011
26889892	L04AA06	24/05/2011
27086485	L04AA06	30/05/2011
27127065	L04AA06	23/03/2009
27106068	L04AA06	18/07/2008
27570840	L04AA06	16/04/2010
27153595	L04AA06	11/05/2011
27772297	L04AA06	09/05/2011
27720128	L04AA06	27/04/2011
33100103	L04AA06	31/05/2011
33107313	L04AA06	19/05/2011
27647888	L04AA06	19/04/2011
33021214	L04AA06	29/04/2011
33112202	L04AA06	21/05/2011
33034268	L04AA06	17/06/2010
23343181	L04AA06	03/06/2008
16610132	L04AA06	15/04/2011
23367450	L04AA06	27/04/2011
33290109	L04AA06	21/04/2010
23333467	L04AA06	05/02/2009
23362487	L04AA06	10/05/2011
32246611	L04AA06	20/01/2011
31511644	L04AA06	29/01/2011
31091370	L04AA06	14/09/2007
31404679	L04AA06	27/01/2009
31493727	L04AA06	16/07/2010
31270706	L04AA06	20/05/2011
32100813	L04AA06	02/12/2009
31855970	L04AA06	03/03/2011
31325610	L04AA06	04/08/2009
32227760	L04AA06	24/01/2011
31429454	L04AA06	16/12/2008
31604848	L04AA06	24/01/2006
31625423	L04AA06	23/12/2010
32050605	L04AA06	11/09/2009
31937147	L04AA06	20/11/2009
31330113	L04AA06	14/06/2010
31561607	L04AA06	21/03/2007
