patient_id	covar_name	date
9214995	L04AD02	09/05/2011
6592623	L04AD02	17/02/2010
25336591	L04AD02	01/06/2011
2239654	L04AD02	19/05/2011
904793	L04AD02	03/05/2011
904650	L04AD02	27/05/2011
6990280	L04AD02	24/01/2006
26701512	L04AD02	11/03/2008
26894950	L04AD02	29/05/2011
26888927	L04AD02	27/05/2011
27086485	L04AD02	17/05/2011
27106068	L04AD02	07/02/2011
27570840	L04AD02	12/02/2010
27720128	L04AD02	12/05/2011
33100103	L04AD02	31/05/2011
33107313	L04AD02	19/05/2011
27647888	L04AD02	19/04/2011
16610132	L04AD02	15/04/2011
33290109	L04AD02	16/11/2009
23353469	L04AD02	14/05/2011
23362487	L04AD02	08/03/2011
32137222	L04AD02	17/11/2010
32246611	L04AD02	20/01/2011
31126630	L04AD02	30/08/2005
31767728	L04AD02	27/01/2010
31091370	L04AD02	05/11/2008
31404679	L04AD02	14/08/2010
31493727	L04AD02	16/07/2010
31270706	L04AD02	20/05/2011
32100813	L04AD02	14/07/2010
31325610	L04AD02	19/11/2008
31576491	L04AD02	20/03/2011
31429454	L04AD02	23/12/2009
31604848	L04AD02	16/12/2009
31625423	L04AD02	24/02/2009
32050605	L04AD02	27/05/2011
31937147	L04AD02	20/11/2009
31561607	L04AD02	17/01/2008
