patient_id	covar_name	date
2768792	L02AE04	24/08/2010
8559182	L02AE04	22/07/2010
6752652	L02AE04	05/04/2002
7093908	L02AE04	25/05/2011
8784830	L02AE04	08/06/2007
1547786	L02AE04	05/09/2001
13223182	L02AE04	08/01/2008
9376383	L02AE04	19/06/2008
8581013	L02AE04	28/02/2002
1062835	L02AE04	04/04/2011
8702733	L02AE04	10/02/2006
12765626	L02AE04	14/10/2003
8955553	L02AE04	18/01/2008
7776735	L02AE04	19/04/2011
525114	L02AE04	27/11/2009
6375893	L02AE04	11/06/2007
4699503	L02AE04	30/05/2011
1566989	L02AE04	03/05/2011
12162729	L02AE04	23/07/2001
1111994	L02AE04	09/04/2010
486077	L02AE04	25/11/2004
2070415	L02AE04	16/02/2006
1766799	L02AE04	25/03/2011
873828	L02AE04	07/03/2011
7129637	L02AE04	05/03/2011
2521846	L02AE04	18/02/2009
7136698	L02AE04	22/07/2005
2962660	L02AE04	19/11/2009
1021651	L02AE04	04/10/2004
24655567	L02AE04	23/03/2001
421960	L02AE04	12/04/2011
618177	L02AE04	29/06/2009
1367175	L02AE04	31/12/2003
19801472	L02AE04	06/11/2002
2966115	L02AE04	14/12/2009
26618929	L02AE04	06/06/2008
17160177	L02AE04	02/07/2010
26701387	L02AE04	20/03/2006
26935038	L02AE04	19/01/2005
26887048	L02AE04	28/04/2011
26949108	L02AE04	03/02/2006
27154503	L02AE04	18/06/2004
27221878	L02AE04	09/05/2011
27624260	L02AE04	22/01/2010
27631847	L02AE04	08/11/2007
648889	L02AE04	15/09/2009
27538875	L02AE04	20/01/2011
620353	L02AE04	10/05/2011
27248290	L02AE04	01/08/2008
2988539	L02AE04	14/03/2005
27802578	L02AE04	26/05/2011
33075946	L02AE04	07/05/2007
33026002	L02AE04	16/05/2011
33072253	L02AE04	09/08/2010
33029027	L02AE04	13/05/2011
33058269	L02AE04	18/10/2005
27949925	L02AE04	09/07/2007
23408868	L02AE04	28/05/2009
14187682	L02AE04	20/05/2011
33039044	L02AE04	17/12/2009
33086631	L02AE04	29/08/2003
33084361	L02AE04	16/02/2001
33051621	L02AE04	24/03/2010
33067381	L02AE04	10/08/2009
33045325	L02AE04	18/10/2000
33032983	L02AE04	28/03/2008
21113549	L02AE04	08/04/2011
33316673	L02AE04	14/03/2011
33203982	L02AE04	18/02/2011
20986036	L02AE04	28/05/2009
33201584	L02AE04	10/07/2002
23327992	L02AE04	31/07/2009
23368645	L02AE04	26/01/2011
16129910	L02AE04	06/06/2007
16613895	L02AE04	06/04/2011
23367389	L02AE04	06/06/2007
23402803	L02AE04	02/02/2004
31179758	L02AE04	19/05/2003
31394937	L02AE04	07/06/2006
31163973	L02AE04	26/01/2011
31584904	L02AE04	03/06/1999
31904861	L02AE04	29/06/2005
31111466	L02AE04	19/06/2003
31983142	L02AE04	09/12/2003
31171281	L02AE04	10/01/2005
31464764	L02AE04	07/08/2007
31366968	L02AE04	06/03/2008
31331521	L02AE04	27/11/2006
31458645	L02AE04	14/06/2006
32150114	L02AE04	29/12/2009
32062812	L02AE04	10/06/2005
32246429	L02AE04	26/12/2006
32168006	L02AE04	16/09/2009
31583648	L02AE04	25/07/2000
31356064	L02AE04	17/12/2010
31233103	L02AE04	02/02/2005
32029614	L02AE04	25/05/2007
31290437	L02AE04	05/11/2010
32144052	L02AE04	28/04/2008
31580286	L02AE04	10/10/2006
