patient_id	covar_name	date
12790716	M02AA06	25/04/2006
8979383	M02AA06	01/12/2003
9311739	M02AA06	14/07/2006
10270713	M02AA06	15/10/2007
6757349	M02AA06	20/03/2009
9323419	M02AA06	21/10/2004
9311297	M02AA06	29/05/2008
949712	M02AA06	13/09/2010
9376691	M02AA06	10/07/2009
8654002	M02AA06	11/01/2010
6747933	M02AA06	17/01/2008
61642	M02AA06	16/03/2006
21871733	M02AA06	07/12/2010
12186099	M02AA06	11/03/2011
9347565	M02AA06	14/09/2004
12478383	M02AA06	08/09/2006
9371683	M02AA06	12/11/2010
9371686	M02AA06	18/12/2009
18774365	M02AA06	24/08/2009
1942265	M02AA06	25/05/2011
14983098	M02AA06	23/12/2009
7246977	M02AA06	29/10/2010
9238570	M02AA06	22/02/2007
10002116	M02AA06	14/03/2007
944651	M02AA06	26/01/2011
132608	M02AA06	29/12/2010
9378394	M02AA06	13/04/2004
12761176	M02AA06	28/05/2007
1731330	M02AA06	19/06/2003
10395800	M02AA06	03/04/2007
7095550	M02AA06	01/09/2005
7348760	M02AA06	27/01/2010
21806479	M02AA06	26/01/2009
61487	M02AA06	19/04/2004
24950727	M02AA06	02/08/2004
17172476	M02AA06	17/09/2009
1517336	M02AA06	29/12/2003
9984973	M02AA06	20/01/2009
9373265	M02AA06	04/04/2008
9372370	M02AA06	31/08/2010
21153398	M02AA06	30/11/2007
17170113	M02AA06	08/09/2008
9284420	M02AA06	08/06/2007
10245976	M02AA06	28/06/2010
8559269	M02AA06	20/06/2006
17169827	M02AA06	07/02/2011
12182795	M02AA06	11/04/2006
9377069	M02AA06	02/03/2011
5869620	M02AA06	22/11/2010
1069458	M02AA06	02/10/2009
10247183	M02AA06	09/08/2010
3937820	M02AA06	14/02/2007
5029453	M02AA06	18/05/2011
12791129	M02AA06	12/05/2008
15384882	M02AA06	09/08/2004
25071280	M02AA06	07/09/2009
8293370	M02AA06	23/05/2005
9249976	M02AA06	20/04/2011
1302984	M02AA06	11/04/2011
7094806	M02AA06	27/08/2010
732151	M02AA06	26/07/2007
24938794	M02AA06	14/10/2008
9982943	M02AA06	01/06/2011
9382193	M02AA06	22/12/2010
9983678	M02AA06	19/04/2011
7094993	M02AA06	14/01/2005
1162228	M02AA06	01/04/2011
9390097	M02AA06	06/10/2008
18146144	M02AA06	08/02/2011
6624923	M02AA06	30/09/2003
13538926	M02AA06	22/03/2011
12479067	M02AA06	14/02/2007
7243333	M02AA06	13/01/2003
3117152	M02AA06	13/11/2007
9356877	M02AA06	19/04/2006
954970	M02AA06	20/06/2005
1124827	M02AA06	01/10/2007
16556934	M02AA06	18/01/2005
9250506	M02AA06	05/05/2011
9230477	M02AA06	24/05/2007
16977223	M02AA06	16/07/2009
8983512	M02AA06	14/02/2005
8976879	M02AA06	18/07/2006
9215166	M02AA06	02/11/2006
17173040	M02AA06	23/02/2007
9323502	M02AA06	31/05/2011
13940459	M02AA06	25/01/2006
9208920	M02AA06	28/02/2008
735454	M02AA06	10/11/2010
9249794	M02AA06	20/05/2011
10394250	M02AA06	17/10/2006
10267533	M02AA06	03/05/2007
10267667	M02AA06	26/05/2011
12689869	M02AA06	03/02/2009
23454518	M02AA06	07/03/2007
10003991	M02AA06	23/09/2008
12299958	M02AA06	21/04/2009
609117	M02AA06	28/09/2010
12766017	M02AA06	03/05/2011
8278287	M02AA06	27/05/2011
3119576	M02AA06	18/09/2009
9311828	M02AA06	03/10/2007
12695112	M02AA06	22/09/2006
21152371	M02AA06	30/06/2010
16978282	M02AA06	22/04/2008
1123071	M02AA06	13/11/2008
10245464	M02AA06	23/02/2007
9250103	M02AA06	25/05/2010
8638907	M02AA06	09/11/2009
9376813	M02AA06	01/08/2007
9250922	M02AA06	07/12/2010
21152856	M02AA06	26/10/2009
939591	M02AA06	19/04/2005
9209564	M02AA06	02/03/2007
9382705	M02AA06	14/01/2008
16559058	M02AA06	09/03/2004
9209618	M02AA06	25/05/2011
6749700	M02AA06	09/09/2009
8655391	M02AA06	27/07/2007
9383855	M02AA06	03/07/2009
14983299	M02AA06	07/04/2011
8555693	M02AA06	02/10/2006
12694616	M02AA06	30/11/2009
740565	M02AA06	08/02/2008
6746940	M02AA06	13/04/2005
7094859	M02AA06	03/10/2006
5867995	M02AA06	22/11/2010
25060595	M02AA06	05/07/2007
12739033	M02AA06	07/11/2008
61498	M02AA06	10/03/2006
21871509	M02AA06	13/07/2009
9376383	M02AA06	10/02/2010
24951792	M02AA06	21/08/2008
24937833	M02AA06	25/05/2007
21871678	M02AA06	30/07/2008
9295737	M02AA06	30/04/2004
9372898	M02AA06	24/06/2004
209647	M02AA06	06/08/2004
1937110	M02AA06	30/03/2005
7095356	M02AA06	09/06/2006
13993262	M02AA06	22/03/2007
21152857	M02AA06	13/04/2011
5026215	M02AA06	20/10/2005
601168	M02AA06	24/10/2006
9311044	M02AA06	21/09/2001
9370792	M02AA06	07/06/2005
13223855	M02AA06	29/06/2009
6757710	M02AA06	25/03/2008
10002466	M02AA06	08/11/2006
17170094	M02AA06	13/12/2010
1517537	M02AA06	26/01/2011
17171750	M02AA06	14/01/2010
9373053	M02AA06	24/11/2010
16529657	M02AA06	02/11/2010
12791017	M02AA06	07/07/2008
8974679	M02AA06	06/10/2009
9386927	M02AA06	16/12/2008
612341	M02AA06	11/05/2011
8784917	M02AA06	14/01/2004
19185008	M02AA06	14/07/2008
20548767	M02AA06	20/09/2007
8655047	M02AA06	05/05/2011
9250646	M02AA06	26/10/2010
9378296	M02AA06	28/04/2008
13222163	M02AA06	05/05/2005
8556708	M02AA06	12/09/2006
16531570	M02AA06	10/03/2010
11994782	M02AA06	06/05/2008
12690487	M02AA06	03/01/2011
1515199	M02AA06	06/03/2008
21806664	M02AA06	25/01/2006
7406739	M02AA06	24/09/2003
17173163	M02AA06	07/11/2008
208557	M02AA06	18/10/2004
16532021	M02AA06	11/08/2010
12779095	M02AA06	07/04/2005
16559168	M02AA06	22/06/2004
12780881	M02AA06	03/07/2006
9319663	M02AA06	25/07/2007
12479856	M02AA06	28/02/2005
174774	M02AA06	09/03/2001
21152123	M02AA06	03/05/2011
16557846	M02AA06	31/08/2004
7405626	M02AA06	23/02/2007
10245771	M02AA06	01/06/2009
1163865	M02AA06	29/04/2011
16927439	M02AA06	07/04/2008
10246690	M02AA06	16/07/2010
9274459	M02AA06	09/07/2008
21871596	M02AA06	11/02/2009
7383099	M02AA06	17/05/2007
6750607	M02AA06	28/12/2009
8986800	M02AA06	01/06/2004
7158560	M02AA06	10/07/2009
12830610	M02AA06	29/07/2010
24730680	M02AA06	19/01/2011
21152434	M02AA06	17/09/2008
1731389	M02AA06	24/05/2011
21152202	M02AA06	10/01/2008
1940935	M02AA06	04/04/2007
12857478	M02AA06	04/06/2009
16978129	M02AA06	17/04/2007
10332498	M02AA06	16/09/2009
63163	M02AA06	23/04/2007
15273153	M02AA06	29/06/2010
16251722	M02AA06	16/06/2010
21152720	M02AA06	13/05/2009
9249338	M02AA06	16/11/2010
8654983	M02AA06	07/05/2008
20529320	M02AA06	01/10/2004
1517271	M02AA06	12/06/2006
732283	M02AA06	05/12/2007
702098	M02AA06	29/03/2010
1516892	M02AA06	01/07/2008
6745339	M02AA06	16/04/2009
25062016	M02AA06	25/04/2011
9983422	M02AA06	05/01/2006
9983430	M02AA06	27/04/2005
1063691	M02AA06	13/02/2004
9388668	M02AA06	30/03/2007
12690118	M02AA06	27/02/2009
8698869	M02AA06	16/03/2006
6745423	M02AA06	25/09/2007
23454243	M02AA06	02/03/2011
20549826	M02AA06	02/07/2008
21152296	M02AA06	11/12/2009
1335044	M02AA06	22/06/2006
10332859	M02AA06	09/02/2004
12761323	M02AA06	10/01/2005
15427398	M02AA06	30/06/2005
10247366	M02AA06	25/03/2008
9371260	M02AA06	28/04/2011
24929910	M02AA06	15/06/2007
1695234	M02AA06	27/11/2006
9370676	M02AA06	17/08/2009
1731391	M02AA06	14/06/2010
6745727	M02AA06	02/11/2009
18774349	M02AA06	24/03/2010
9375773	M02AA06	21/06/2006
1063901	M02AA06	16/09/2004
21870782	M02AA06	06/07/2010
9371601	M02AA06	02/12/2009
8655155	M02AA06	07/03/2011
9374541	M02AA06	18/06/2004
609389	M02AA06	27/02/2009
12182622	M02AA06	31/05/2006
6745473	M02AA06	30/08/2005
1123996	M02AA06	16/11/2009
12688905	M02AA06	08/04/2011
25051083	M02AA06	15/10/2008
17171700	M02AA06	30/09/2010
22591639	M02AA06	13/07/2006
15237172	M02AA06	04/01/2011
731479	M02AA06	17/12/2010
9231512	M02AA06	09/05/2007
9293857	M02AA06	31/05/2011
8700648	M02AA06	24/02/2004
6416022	M02AA06	11/05/2011
9210774	M02AA06	30/03/2011
17172973	M02AA06	21/05/2010
6756901	M02AA06	26/01/2011
6146361	M02AA06	10/03/2010
23442777	M02AA06	27/04/2011
16559119	M02AA06	20/01/2005
14983661	M02AA06	07/12/2007
14982885	M02AA06	22/09/2009
12688652	M02AA06	11/02/2011
175318	M02AA06	16/12/2003
9984428	M02AA06	03/03/2009
1731987	M02AA06	24/05/2005
6749295	M02AA06	21/11/2006
8989341	M02AA06	12/12/2007
9377691	M02AA06	23/12/2003
608337	M02AA06	09/05/2008
9285180	M02AA06	27/12/2004
10246618	M02AA06	02/03/2004
17172387	M02AA06	15/06/2010
10394089	M02AA06	07/08/2006
9249322	M02AA06	12/08/2010
9374971	M02AA06	25/05/2010
9382397	M02AA06	22/02/2011
9327459	M02AA06	23/11/2006
21805511	M02AA06	22/09/2009
12763683	M02AA06	04/08/2010
8556671	M02AA06	14/11/2008
10003982	M02AA06	17/07/2008
16927754	M02AA06	16/07/2007
9220165	M02AA06	23/02/2007
940401	M02AA06	19/11/2008
9304311	M02AA06	21/06/2006
10270807	M02AA06	09/06/2010
23454809	M02AA06	11/10/2007
8702733	M02AA06	31/03/2011
1535079	M02AA06	21/11/2006
21806470	M02AA06	21/11/2008
209933	M02AA06	10/03/2010
7408581	M02AA06	12/11/2010
18714967	M02AA06	10/03/2008
1517390	M02AA06	27/03/2006
745191	M02AA06	07/03/2007
16977675	M02AA06	13/05/2011
24721216	M02AA06	10/05/2007
23471643	M02AA06	26/05/2008
9376584	M02AA06	01/02/2008
24930008	M02AA06	26/11/2008
10265993	M02AA06	08/10/2010
939363	M02AA06	29/08/2008
16230858	M02AA06	25/09/2006
16929808	M02AA06	22/10/2007
16530907	M02AA06	28/05/2009
10395240	M02AA06	05/05/2008
8700724	M02AA06	25/04/2011
12790379	M02AA06	17/03/2008
3322728	M02AA06	24/08/2006
9318448	M02AA06	26/11/2009
12764196	M02AA06	21/04/2005
5467749	M02AA06	12/11/2008
9304423	M02AA06	29/12/2010
9210208	M02AA06	01/12/2008
1068170	M02AA06	11/03/2008
9210517	M02AA06	29/10/2007
8556837	M02AA06	08/10/2010
1064681	M02AA06	06/05/2004
173433	M02AA06	27/09/2002
10003227	M02AA06	02/02/2011
19228686	M02AA06	27/08/2008
9178040	M02AA06	04/10/2002
5023566	M02AA06	18/03/2009
11661691	M02AA06	02/12/2010
944486	M02AA06	05/12/2007
10392609	M02AA06	18/07/2005
24764430	M02AA06	03/11/2005
12788985	M02AA06	05/07/2006
16979253	M02AA06	20/01/2011
25062695	M02AA06	12/05/2011
9382130	M02AA06	07/03/2011
9383229	M02AA06	01/12/2009
10268928	M02AA06	30/11/2009
63243	M02AA06	25/01/2011
10247511	M02AA06	04/11/2010
9302747	M02AA06	23/09/2005
12766668	M02AA06	05/04/2005
21152212	M02AA06	29/04/2011
9378502	M02AA06	18/05/2009
6280848	M02AA06	17/10/2006
17216732	M02AA06	09/06/2010
24765841	M02AA06	04/03/2011
8777089	M02AA06	20/01/2010
8655018	M02AA06	28/04/2009
21152754	M02AA06	10/09/2010
1517273	M02AA06	26/05/2011
9387904	M02AA06	07/07/2005
9983309	M02AA06	14/09/2007
10331347	M02AA06	01/07/2009
10267886	M02AA06	31/07/2009
8654889	M02AA06	06/07/2006
8654951	M02AA06	26/05/2011
1069550	M02AA06	23/03/2011
7094074	M02AA06	03/02/2010
15667822	M02AA06	10/12/2003
24730202	M02AA06	23/06/2009
6887263	M02AA06	20/05/2005
9385061	M02AA06	04/10/2007
13916747	M02AA06	30/12/2009
16483841	M02AA06	16/08/2010
12790404	M02AA06	11/09/2006
8982563	M02AA06	05/12/2006
9211278	M02AA06	25/01/2007
10004108	M02AA06	14/09/2010
7967901	M02AA06	21/02/2007
1171088	M02AA06	16/07/2010
6841194	M02AA06	09/01/2007
15899941	M02AA06	22/12/2008
8989051	M02AA06	23/03/2009
21806208	M02AA06	13/04/2011
10002429	M02AA06	20/11/2006
9378237	M02AA06	14/05/2008
7352900	M02AA06	13/01/2011
9388023	M02AA06	02/01/2008
9375870	M02AA06	14/08/2006
1637807	M02AA06	07/07/2009
8655494	M02AA06	26/04/2010
10002746	M02AA06	11/11/2005
10331626	M02AA06	29/04/2010
1446082	M02AA06	27/07/2005
6592947	M02AA06	15/05/2007
1210575	M02AA06	13/04/2011
1546771	M02AA06	09/02/2010
4700861	M02AA06	06/05/2008
1350698	M02AA06	22/12/2008
7777782	M02AA06	29/04/2008
12434207	M02AA06	16/12/2010
1666099	M02AA06	16/09/2008
1203819	M02AA06	26/08/2003
23511042	M02AA06	18/11/2003
1446158	M02AA06	25/01/2005
25458787	M02AA06	10/06/2007
7776172	M02AA06	27/10/2006
18056114	M02AA06	20/09/2006
8066781	M02AA06	06/05/2011
1415991	M02AA06	28/03/2006
6597837	M02AA06	27/01/2004
8067146	M02AA06	12/06/2009
6594575	M02AA06	05/05/2007
6423673	M02AA06	23/11/2007
1665784	M02AA06	17/05/2010
641127	M02AA06	24/06/2005
1352974	M02AA06	11/05/2009
638871	M02AA06	07/03/2006
20812178	M02AA06	20/05/2010
7964357	M02AA06	15/03/2011
514728	M02AA06	06/11/2006
1853226	M02AA06	25/05/2007
26144430	M02AA06	16/08/2009
7971655	M02AA06	29/06/2004
1848738	M02AA06	19/03/2011
7929164	M02AA06	15/01/2010
1208462	M02AA06	08/07/2008
26144617	M02AA06	13/05/2009
1055264	M02AA06	28/05/2007
7777584	M02AA06	26/03/2008
1671137	M02AA06	10/01/2008
1211343	M02AA06	10/07/2003
647177	M02AA06	30/04/2004
24944378	M02AA06	15/04/2008
6212219	M02AA06	03/01/2005
647834	M02AA06	02/12/2005
1203812	M02AA06	27/07/2010
1210615	M02AA06	14/03/2011
1852422	M02AA06	17/08/2007
1351403	M02AA06	27/07/2006
1848778	M02AA06	24/05/2011
7963931	M02AA06	14/03/2007
26145071	M02AA06	23/08/2004
7898429	M02AA06	15/09/2006
5718765	M02AA06	25/04/2008
1853304	M02AA06	05/02/2002
515444	M02AA06	10/09/2009
6591734	M02AA06	29/03/2007
514774	M02AA06	25/05/2009
1170363	M02AA06	23/09/2002
6842062	M02AA06	20/05/2010
7802074	M02AA06	11/02/2008
8175392	M02AA06	17/03/2011
6595841	M02AA06	21/08/2007
1546702	M02AA06	14/04/2009
7777409	M02AA06	31/07/2007
1445904	M02AA06	04/09/2009
1200082	M02AA06	18/08/2006
526070	M02AA06	22/02/2010
1200721	M02AA06	24/03/2006
6222899	M02AA06	04/05/2010
1417003	M02AA06	01/09/2005
1852767	M02AA06	13/11/2007
8955553	M02AA06	20/11/2007
6593866	M02AA06	31/08/2010
1666039	M02AA06	09/03/2009
648760	M02AA06	06/03/2007
1200098	M02AA06	30/01/2008
1350610	M02AA06	07/10/2008
1445979	M02AA06	02/08/2007
25844936	M02AA06	13/04/2004
1171783	M02AA06	03/03/2009
7971968	M02AA06	28/01/2008
674519	M02AA06	12/08/2003
524498	M02AA06	11/06/2002
6595079	M02AA06	25/01/2008
647609	M02AA06	28/12/2004
6212006	M02AA06	24/08/2005
1174514	M02AA06	30/01/2006
1444844	M02AA06	27/12/2004
646473	M02AA06	22/04/2008
1265201	M02AA06	23/06/2009
1419936	M02AA06	21/12/2006
8063488	M02AA06	11/05/2010
639892	M02AA06	19/07/2006
516414	M02AA06	16/11/2010
7965270	M02AA06	25/07/2007
8061402	M02AA06	05/02/2010
638786	M02AA06	04/05/2004
21092043	M02AA06	15/06/2010
515787	M02AA06	09/07/2009
648591	M02AA06	30/08/2004
1214146	M02AA06	11/05/2011
565296	M02AA06	21/04/2004
648183	M02AA06	26/04/2005
6603802	M02AA06	10/01/2011
7970589	M02AA06	11/09/2006
1171240	M02AA06	20/01/2009
8067951	M02AA06	03/12/2007
7964309	M02AA06	12/06/2009
648336	M02AA06	29/12/2003
1206490	M02AA06	20/05/2002
8956432	M02AA06	11/11/2005
1265194	M02AA06	17/09/2007
6592127	M02AA06	07/01/2007
1263776	M02AA06	10/10/2001
8068361	M02AA06	03/06/2009
5992373	M02AA06	25/10/2003
6602686	M02AA06	29/02/2008
8932937	M02AA06	29/04/2008
8067453	M02AA06	25/11/2010
1665602	M02AA06	13/04/2009
6591119	M02AA06	29/04/2008
1265356	M02AA06	19/03/2001
1665032	M02AA06	30/04/2008
6841591	M02AA06	10/01/2006
7968220	M02AA06	18/04/2006
8063275	M02AA06	23/03/2010
1665483	M02AA06	04/08/2004
639251	M02AA06	01/06/2011
640251	M02AA06	01/08/2003
2934516	M02AA06	30/05/2011
12188674	M02AA06	30/05/2011
6597726	M02AA06	09/02/2005
525429	M02AA06	17/03/2006
6423465	M02AA06	14/03/2007
1172012	M02AA06	29/12/2009
7833349	M02AA06	13/12/2006
12187307	M02AA06	19/03/2008
1426251	M02AA06	01/05/2006
5991855	M02AA06	20/04/2011
648621	M02AA06	19/06/2003
6841764	M02AA06	09/10/2009
1211090	M02AA06	27/04/2005
6423823	M02AA06	13/03/2008
639203	M02AA06	25/04/2008
6597198	M02AA06	25/05/2007
1206395	M02AA06	10/11/2006
7776505	M02AA06	14/09/2007
1091772	M02AA06	28/12/2010
1208178	M02AA06	21/04/2005
1276805	M02AA06	22/01/2002
1264564	M02AA06	13/05/2009
8061893	M02AA06	30/12/2008
6596858	M02AA06	22/12/2005
6597391	M02AA06	08/02/2008
5991761	M02AA06	21/01/2009
6596135	M02AA06	16/07/2008
1263009	M02AA06	02/01/2001
6593460	M02AA06	22/09/2000
6597060	M02AA06	18/08/2009
7801913	M02AA06	23/04/2010
1171735	M02AA06	15/12/2003
8063389	M02AA06	02/03/2011
8063147	M02AA06	04/09/2008
6592990	M02AA06	02/11/2007
6842492	M02AA06	23/03/2011
1203732	M02AA06	10/03/2003
14655044	M02AA06	25/09/2009
5992429	M02AA06	24/08/2009
1212257	M02AA06	05/03/2003
25248948	M02AA06	14/06/2007
1211946	M02AA06	23/10/2006
1262130	M02AA06	19/04/2004
4700540	M02AA06	20/07/2007
525618	M02AA06	09/07/2008
1172354	M02AA06	02/09/2008
7777716	M02AA06	19/10/2007
639428	M02AA06	27/04/2006
1320228	M02AA06	26/02/2002
6600999	M02AA06	07/11/2007
1202919	M02AA06	20/12/2010
7776373	M02AA06	30/07/2008
23843778	M02AA06	03/10/2003
6595383	M02AA06	01/10/2007
3074322	M02AA06	25/04/2005
1445888	M02AA06	27/07/2005
1200208	M02AA06	13/03/2007
1091044	M02AA06	23/03/2011
7972491	M02AA06	20/01/2004
7580200	M02AA06	17/06/2008
8357140	M02AA06	22/03/2006
7776254	M02AA06	10/09/2008
6598234	M02AA06	17/01/2006
647332	M02AA06	24/08/2007
1852962	M02AA06	26/05/2004
639310	M02AA06	03/01/2006
1212240	M02AA06	31/03/2007
25884256	M02AA06	15/04/2011
25919170	M02AA06	13/04/2010
1133221	M02AA06	28/03/2011
12666388	M02AA06	20/05/2008
25768738	M02AA06	11/02/2011
1855843	M02AA06	02/11/2009
1855659	M02AA06	17/08/2010
1133457	M02AA06	18/10/2007
25883724	M02AA06	11/02/2010
1132264	M02AA06	01/09/2008
1130346	M02AA06	28/07/2010
7968651	M02AA06	09/12/2004
1261575	M02AA06	04/10/2010
7801714	M02AA06	28/03/2011
638847	M02AA06	11/04/2006
25883584	M02AA06	13/11/2007
6974349	M02AA06	09/07/2007
1638022	M02AA06	21/09/2004
25904628	M02AA06	27/05/2011
718128	M02AA06	01/04/2009
891027	M02AA06	05/02/2008
6950924	M02AA06	14/05/2007
1132387	M02AA06	24/07/2007
1642048	M02AA06	11/04/2006
1130755	M02AA06	01/10/2009
1132218	M02AA06	26/05/2011
1101869	M02AA06	06/02/2003
1102247	M02AA06	16/05/2009
1102090	M02AA06	10/12/2004
1109481	M02AA06	30/12/2010
1110970	M02AA06	10/05/2005
1133112	M02AA06	10/02/2011
1640617	M02AA06	05/12/2006
486570	M02AA06	21/01/2008
1027312	M02AA06	06/05/2011
12640327	M02AA06	23/03/2011
6950930	M02AA06	17/06/2008
998259	M02AA06	22/06/2009
1641072	M02AA06	22/01/2004
1135310	M02AA06	11/07/2005
1099959	M02AA06	16/05/2007
189351	M02AA06	31/07/2009
25751512	M02AA06	26/02/2008
1580789	M02AA06	26/11/2001
1134288	M02AA06	06/02/2008
25750805	M02AA06	03/03/2011
25891333	M02AA06	12/07/2010
1102044	M02AA06	14/04/2004
1099585	M02AA06	08/09/2000
25768097	M02AA06	15/10/2010
1110879	M02AA06	02/12/2003
997020	M02AA06	05/01/2010
1130822	M02AA06	17/09/2009
25913321	M02AA06	27/07/2006
1134187	M02AA06	12/04/2011
994798	M02AA06	23/01/2009
1102859	M02AA06	06/05/2009
25860190	M02AA06	30/04/2010
995398	M02AA06	09/02/2001
1101989	M02AA06	06/10/2005
5987200	M02AA06	18/06/2007
1641017	M02AA06	21/03/2005
1102488	M02AA06	11/12/2009
1102000	M02AA06	03/05/2004
890201	M02AA06	01/07/2003
1854904	M02AA06	12/06/2006
890168	M02AA06	14/02/2008
1134421	M02AA06	29/04/2010
1856543	M02AA06	01/03/2007
1109593	M02AA06	04/11/2004
192735	M02AA06	02/03/2011
1103285	M02AA06	25/04/2008
1065570	M02AA06	05/03/2007
1581260	M02AA06	24/08/2006
194827	M02AA06	31/03/2005
717026	M02AA06	15/09/2009
1065329	M02AA06	17/07/2006
1134812	M02AA06	10/05/2006
1855622	M02AA06	20/08/2010
487173	M02AA06	11/07/2007
717746	M02AA06	19/01/2010
1135406	M02AA06	09/02/2006
25776375	M02AA06	02/09/2009
25776865	M02AA06	20/04/2011
1101207	M02AA06	23/02/2007
1131048	M02AA06	17/12/2004
1855136	M02AA06	27/03/2006
890380	M02AA06	26/03/2008
1103247	M02AA06	16/02/2009
25776176	M02AA06	11/10/2006
2112759	M02AA06	01/09/2006
2133129	M02AA06	24/07/2008
2059870	M02AA06	21/01/2008
2216986	M02AA06	08/06/2006
2043156	M02AA06	05/08/2005
2138308	M02AA06	17/11/2007
2216586	M02AA06	28/08/2006
2059046	M02AA06	10/02/2009
2238908	M02AA06	18/09/2007
2167024	M02AA06	08/11/2006
2217081	M02AA06	09/05/2008
2239654	M02AA06	30/07/2009
2070964	M02AA06	27/06/2008
2110088	M02AA06	11/02/2009
2215335	M02AA06	25/08/2004
2136554	M02AA06	05/02/2008
2068682	M02AA06	16/11/2010
2058963	M02AA06	11/11/2002
2058996	M02AA06	02/01/2006
2110791	M02AA06	12/11/2004
2218886	M02AA06	07/04/2004
2216049	M02AA06	15/10/2002
2113665	M02AA06	03/12/2004
2043843	M02AA06	09/07/2004
2044896	M02AA06	22/04/2003
2139902	M02AA06	18/05/2011
2059982	M02AA06	09/01/2003
2068934	M02AA06	06/10/2003
2043496	M02AA06	21/05/2003
2133822	M02AA06	23/08/2006
2217164	M02AA06	10/05/2011
2058268	M02AA06	09/04/2008
2137012	M02AA06	07/06/2007
2217471	M02AA06	02/02/2005
2070415	M02AA06	02/10/2009
2112990	M02AA06	07/10/2005
2053923	M02AA06	16/10/2002
2216812	M02AA06	23/12/2009
2215196	M02AA06	07/11/2008
904606	M02AA06	14/05/2004
902972	M02AA06	03/05/2011
902982	M02AA06	04/02/2008
2035400	M02AA06	17/02/2011
873905	M02AA06	05/07/2006
2038044	M02AA06	03/07/2007
873706	M02AA06	22/12/2010
1755172	M02AA06	12/06/2007
2053434	M02AA06	08/01/2008
2110888	M02AA06	25/05/2011
2035752	M02AA06	01/06/2011
758360	M02AA06	22/03/2001
875499	M02AA06	30/01/2009
1683248	M02AA06	25/02/2009
1755667	M02AA06	25/11/2005
1814709	M02AA06	19/01/2011
2109639	M02AA06	03/06/2010
2238458	M02AA06	08/04/2005
2136505	M02AA06	15/09/2007
2109145	M02AA06	24/10/2007
2143938	M02AA06	25/08/2003
2216323	M02AA06	01/08/2008
2040852	M02AA06	21/08/2001
1753706	M02AA06	11/02/2005
2058667	M02AA06	30/10/2009
1755871	M02AA06	16/03/2007
1752376	M02AA06	26/10/2009
876747	M02AA06	05/02/2001
903895	M02AA06	26/06/2007
903902	M02AA06	01/02/2011
876130	M02AA06	26/04/2001
1791892	M02AA06	22/11/2007
757533	M02AA06	15/03/2001
757583	M02AA06	17/02/2004
757643	M02AA06	17/05/2011
903438	M02AA06	24/08/2010
1767520	M02AA06	18/01/2008
1764621	M02AA06	14/05/2009
878248	M02AA06	16/06/2010
1683305	M02AA06	12/12/2001
1762768	M02AA06	15/04/2009
1753997	M02AA06	22/04/2008
1753216	M02AA06	02/06/2008
904017	M02AA06	05/03/2010
905133	M02AA06	30/05/2005
859374	M02AA06	23/08/2009
878751	M02AA06	06/02/2008
878756	M02AA06	24/05/2010
874253	M02AA06	27/11/2008
1763515	M02AA06	10/12/2010
1762584	M02AA06	26/01/2005
1761769	M02AA06	12/05/2003
2035821	M02AA06	29/04/2009
4689365	M02AA06	16/03/2010
3055265	M02AA06	22/07/2009
4088567	M02AA06	28/02/2006
2035931	M02AA06	19/08/2010
5471303	M02AA06	06/09/2007
2773726	M02AA06	25/05/2009
1754233	M02AA06	01/07/2003
1755227	M02AA06	29/01/2010
7134993	M02AA06	18/12/2006
2042889	M02AA06	08/05/2007
903911	M02AA06	30/06/2006
759135	M02AA06	04/06/2010
1765194	M02AA06	14/05/2009
2034398	M02AA06	19/09/2006
2034995	M02AA06	20/05/2011
1764942	M02AA06	22/04/2009
758208	M02AA06	19/11/2008
1765584	M02AA06	06/08/2010
1768450	M02AA06	28/05/2004
757756	M02AA06	20/04/2009
902525	M02AA06	09/11/2009
1762017	M02AA06	22/08/2006
1679643	M02AA06	14/09/2006
1766657	M02AA06	26/05/2010
875569	M02AA06	24/11/2006
2038567	M02AA06	17/10/2005
7043275	M02AA06	25/06/2010
2759303	M02AA06	07/06/2007
5471148	M02AA06	11/04/2006
4228920	M02AA06	11/02/2009
3054401	M02AA06	06/06/2005
3052719	M02AA06	24/05/2005
3055184	M02AA06	30/03/2009
3054684	M02AA06	28/03/2008
2812104	M02AA06	19/09/2006
3049212	M02AA06	06/03/2001
2773905	M02AA06	01/03/2004
3055375	M02AA06	03/11/2006
3052879	M02AA06	04/10/2004
3053055	M02AA06	17/09/2002
3053901	M02AA06	20/05/2004
2778659	M02AA06	15/12/2009
2778683	M02AA06	22/03/2010
4894255	M02AA06	26/09/2006
7128867	M02AA06	09/05/2001
7073226	M02AA06	23/03/2010
2766317	M02AA06	22/08/2007
3049646	M02AA06	28/08/2003
3052992	M02AA06	11/04/2006
3053021	M02AA06	12/06/2006
2574588	M02AA06	19/02/2010
2780455	M02AA06	12/05/2011
7129111	M02AA06	10/01/2003
7128035	M02AA06	24/01/2002
7128969	M02AA06	20/11/2008
2573378	M02AA06	08/08/2005
2574270	M02AA06	20/03/2009
2762396	M02AA06	13/04/2005
3054737	M02AA06	20/04/2007
3049313	M02AA06	12/11/2007
3048483	M02AA06	22/03/2010
6250668	M02AA06	10/10/2007
3053832	M02AA06	30/03/2007
2778447	M02AA06	14/08/2008
7135180	M02AA06	15/10/2010
7043389	M02AA06	06/06/2003
2775560	M02AA06	11/08/2008
3052617	M02AA06	20/05/2004
2574813	M02AA06	29/07/2008
2779963	M02AA06	12/01/2004
2811851	M02AA06	17/06/2010
2780055	M02AA06	15/10/2008
7128897	M02AA06	17/10/2002
2574625	M02AA06	19/11/2008
2219670	M02AA06	22/04/2004
2753895	M02AA06	11/07/2006
2574919	M02AA06	02/04/2008
2756223	M02AA06	30/04/2003
2524518	M02AA06	30/05/2005
2411165	M02AA06	16/10/2007
2574466	M02AA06	10/05/2006
2573816	M02AA06	27/09/2010
2526016	M02AA06	31/10/2007
2407872	M02AA06	23/10/2008
2408020	M02AA06	31/01/2008
2574334	M02AA06	03/08/2006
2519204	M02AA06	03/01/2005
2572935	M02AA06	04/05/2009
2572949	M02AA06	17/09/2008
2574068	M02AA06	22/04/2010
2573239	M02AA06	27/08/2009
2762771	M02AA06	21/04/2010
2522313	M02AA06	15/04/2005
2772820	M02AA06	13/05/2005
2755836	M02AA06	06/04/2011
2521830	M02AA06	22/09/2008
2755769	M02AA06	05/10/2010
2407695	M02AA06	23/10/2008
2406808	M02AA06	10/08/2010
2407446	M02AA06	12/08/2009
2525973	M02AA06	29/03/2006
16980304	M02AA06	30/07/2009
16979768	M02AA06	24/03/2004
2526072	M02AA06	17/01/2011
16835771	M02AA06	27/04/2011
2574203	M02AA06	13/08/2009
2574244	M02AA06	14/07/2009
17323661	M02AA06	07/10/2009
15660220	M02AA06	24/03/2009
2525520	M02AA06	10/01/2006
2574986	M02AA06	20/04/2011
2762709	M02AA06	18/05/2011
16979732	M02AA06	09/02/2006
2573859	M02AA06	07/07/2010
2713954	M02AA06	07/09/2005
2239894	M02AA06	31/03/2006
16979996	M02AA06	16/05/2006
2755386	M02AA06	19/02/2009
2755397	M02AA06	25/01/2007
9848198	M02AA06	01/04/2008
2754978	M02AA06	02/10/2007
16835317	M02AA06	11/01/2007
26460058	M02AA06	05/04/2005
26460105	M02AA06	02/03/2007
26466135	M02AA06	15/01/2008
26465782	M02AA06	08/09/2008
26460364	M02AA06	05/04/2011
26461792	M02AA06	14/09/2005
26425486	M02AA06	13/04/2000
26374767	M02AA06	25/10/2007
28040189	M02AA06	03/07/2007
26423896	M02AA06	18/12/2003
26350877	M02AA06	21/01/2010
26384059	M02AA06	10/08/2009
26410884	M02AA06	21/01/2005
26585647	M02AA06	13/04/2005
28071482	M02AA06	20/08/2002
26442555	M02AA06	22/10/2010
28062623	M02AA06	23/02/2009
28041472	M02AA06	12/09/2006
26529186	M02AA06	31/01/2008
26351869	M02AA06	05/06/2008
26481067	M02AA06	05/03/2008
26349371	M02AA06	29/12/2009
28072967	M02AA06	23/07/2002
26383930	M02AA06	28/02/2006
28042694	M02AA06	10/10/2006
26409464	M02AA06	01/04/2008
26410462	M02AA06	24/08/2010
26461925	M02AA06	22/02/2006
26456684	M02AA06	05/12/2007
26460462	M02AA06	19/08/2010
28055693	M02AA06	12/08/2008
18222757	M02AA06	03/12/2007
7128442	M02AA06	13/01/2004
7144347	M02AA06	27/02/2008
7144208	M02AA06	11/03/2005
7144216	M02AA06	15/05/2009
17323361	M02AA06	18/09/2008
7047760	M02AA06	11/05/2007
17041460	M02AA06	26/05/2011
7134844	M02AA06	26/11/2008
7128484	M02AA06	08/02/2007
7228531	M02AA06	17/09/2004
18472363	M02AA06	20/04/2010
18222877	M02AA06	18/08/2009
7144313	M02AA06	28/09/2004
7035689	M02AA06	25/09/2002
26244722	M02AA06	11/06/2004
17742639	M02AA06	12/04/2007
7143108	M02AA06	09/10/2001
18223828	M02AA06	29/09/2009
17041146	M02AA06	04/03/2008
26336640	M02AA06	05/10/2005
7137854	M02AA06	25/11/2010
18223862	M02AA06	04/05/2006
26176201	M02AA06	18/09/2007
7229425	M02AA06	13/10/2004
18222956	M02AA06	29/06/2010
26243303	M02AA06	08/04/2005
18223286	M02AA06	24/05/2010
26462074	M02AA06	11/08/2004
26244401	M02AA06	29/05/2008
17742312	M02AA06	31/07/2006
26243831	M02AA06	26/11/2008
26564522	M02AA06	14/03/2008
26409825	M02AA06	08/11/2007
26461292	M02AA06	13/01/2010
28040469	M02AA06	04/10/2007
26182006	M02AA06	19/04/2011
28041817	M02AA06	30/09/2005
28042198	M02AA06	24/03/2011
28042210	M02AA06	29/07/2003
26488449	M02AA06	17/04/2007
26410194	M02AA06	09/09/2008
26385357	M02AA06	14/07/2005
17041239	M02AA06	26/04/2010
26355054	M02AA06	09/04/2007
26255901	M02AA06	13/04/2009
23890725	M02AA06	07/07/2004
26351889	M02AA06	29/10/2002
26235928	M02AA06	17/02/2004
26178951	M02AA06	04/09/2007
28040286	M02AA06	03/10/2007
26244463	M02AA06	08/07/2010
26306610	M02AA06	26/05/2005
28042688	M02AA06	05/05/2009
17741843	M02AA06	07/01/2003
14501801	M02AA06	09/12/2004
12967061	M02AA06	25/02/2010
11351395	M02AA06	07/09/2010
11116272	M02AA06	02/03/2011
16980703	M02AA06	02/11/2004
17040834	M02AA06	23/12/2010
17041013	M02AA06	11/05/2011
7492715	M02AA06	10/09/2007
16829573	M02AA06	10/12/2007
17041018	M02AA06	24/09/2009
10490949	M02AA06	19/04/2008
17040796	M02AA06	12/06/2009
7228876	M02AA06	28/05/2004
16980576	M02AA06	04/06/2008
7140005	M02AA06	08/03/2006
14347072	M02AA06	13/07/2004
14363466	M02AA06	31/07/2007
17040534	M02AA06	11/11/2008
12735396	M02AA06	11/02/2010
16948462	M02AA06	09/11/2009
16950099	M02AA06	15/06/2010
11595869	M02AA06	27/05/2011
16835511	M02AA06	26/05/2008
185747	M02AA06	10/12/2002
185783	M02AA06	29/07/2009
1910382	M02AA06	16/01/2007
307364	M02AA06	14/02/2002
1912146	M02AA06	23/11/2006
1912188	M02AA06	18/09/2006
423010	M02AA06	11/10/2005
2959597	M02AA06	15/09/2010
1018470	M02AA06	18/05/2011
424570	M02AA06	24/05/2004
425420	M02AA06	15/09/2010
1911118	M02AA06	25/01/2008
649056	M02AA06	10/08/2006
4110046	M02AA06	23/02/2006
1018396	M02AA06	17/05/2004
650187	M02AA06	31/08/2004
427169	M02AA06	24/07/2007
419475	M02AA06	04/04/2011
185452	M02AA06	16/02/2004
185473	M02AA06	06/05/2010
1912576	M02AA06	03/10/2008
302235	M02AA06	06/05/2010
302236	M02AA06	03/06/2009
1900723	M02AA06	13/07/2005
4753170	M02AA06	17/01/2008
185633	M02AA06	14/05/2007
12979856	M02AA06	12/02/2007
419797	M02AA06	27/04/2011
184043	M02AA06	08/11/2005
28081504	M02AA06	29/11/2010
28077381	M02AA06	01/06/2010
26426004	M02AA06	18/05/2007
874500	M02AA06	11/01/2008
874875	M02AA06	05/11/2007
28091051	M02AA06	25/10/2006
2035980	M02AA06	21/03/2007
28091919	M02AA06	12/11/2007
28080570	M02AA06	24/07/2008
26261042	M02AA06	28/10/2009
3053216	M02AA06	24/09/2007
3054239	M02AA06	30/03/2010
2753836	M02AA06	23/05/2007
28091864	M02AA06	11/07/2005
28044469	M02AA06	07/12/2005
28080679	M02AA06	07/06/2010
1753843	M02AA06	04/01/2006
28091118	M02AA06	11/04/2011
2777779	M02AA06	24/08/2010
3049347	M02AA06	24/11/2009
20147226	M02AA06	26/12/2007
28087610	M02AA06	12/05/2008
904007	M02AA06	31/07/2003
28090218	M02AA06	28/08/2007
2040821	M02AA06	23/12/2008
28086628	M02AA06	20/06/2008
1754702	M02AA06	02/04/2004
28072491	M02AA06	10/06/2009
28080061	M02AA06	06/07/2004
2773937	M02AA06	26/01/2004
2045428	M02AA06	19/06/2008
427309	M02AA06	11/04/2008
183838	M02AA06	27/07/2007
424750	M02AA06	07/04/2006
428569	M02AA06	10/04/2008
6465704	M02AA06	02/07/2010
2525968	M02AA06	18/10/2007
424822	M02AA06	17/12/2002
184353	M02AA06	03/03/2011
2113791	M02AA06	29/03/2006
186102	M02AA06	19/11/2010
428027	M02AA06	04/04/2008
181538	M02AA06	05/05/2011
7228667	M02AA06	13/06/2003
420981	M02AA06	28/11/2006
2036294	M02AA06	23/04/2004
427511	M02AA06	09/05/2000
187861	M02AA06	08/01/2007
418421	M02AA06	17/06/2005
902948	M02AA06	24/07/2009
419430	M02AA06	07/10/2010
26410164	M02AA06	27/06/2008
183588	M02AA06	03/02/2006
185260	M02AA06	17/09/2009
427244	M02AA06	31/01/2005
28064907	M02AA06	12/04/2011
434457	M02AA06	13/09/2006
28059431	M02AA06	07/12/2005
186064	M02AA06	30/10/2002
185854	M02AA06	12/07/2006
2407083	M02AA06	10/05/2011
26342243	M02AA06	25/04/2006
28058974	M02AA06	12/01/2004
17741653	M02AA06	22/10/2004
874613	M02AA06	21/07/2006
28040649	M02AA06	09/05/2011
28071539	M02AA06	13/11/2008
28070991	M02AA06	29/04/2011
28063046	M02AA06	03/03/2011
28086732	M02AA06	21/09/2006
28088132	M02AA06	17/02/2009
28086566	M02AA06	07/11/2008
16979983	M02AA06	06/08/2008
28040513	M02AA06	01/09/2008
28040537	M02AA06	10/11/2008
28072352	M02AA06	06/04/2010
28077346	M02AA06	10/03/2011
28072902	M02AA06	18/01/2010
28079208	M02AA06	16/06/2010
28077137	M02AA06	27/01/2010
28072507	M02AA06	10/09/2008
26477700	M02AA06	05/09/2003
28061017	M02AA06	19/08/2005
28080744	M02AA06	20/10/2010
28072331	M02AA06	12/05/2008
28068401	M02AA06	29/08/2007
28069727	M02AA06	10/07/2006
28080549	M02AA06	25/01/2011
28093217	M02AA06	06/03/2008
28069835	M02AA06	05/03/2011
28054205	M02AA06	05/07/2007
28060556	M02AA06	16/07/2008
28042849	M02AA06	06/02/2008
28071032	M02AA06	21/10/2008
28071033	M02AA06	28/12/2010
28056661	M02AA06	10/12/2009
28060798	M02AA06	17/05/2006
28062851	M02AA06	24/07/2007
28066246	M02AA06	13/08/2007
28043285	M02AA06	05/07/2010
28072154	M02AA06	14/07/2009
24745241	M02AA06	08/03/2007
24658659	M02AA06	31/08/2005
24669451	M02AA06	21/07/2008
25648817	M02AA06	19/05/2011
24669031	M02AA06	23/06/2008
24665617	M02AA06	10/03/2009
24666713	M02AA06	03/01/2006
24657685	M02AA06	11/08/2009
24670887	M02AA06	20/02/2009
25715419	M02AA06	11/06/2008
24657220	M02AA06	30/04/2009
25535638	M02AA06	24/08/2009
24670517	M02AA06	14/12/2004
24666879	M02AA06	23/10/2003
24661878	M02AA06	24/09/2010
25741980	M02AA06	23/05/2006
25742981	M02AA06	18/04/2007
25743009	M02AA06	24/04/2006
24666922	M02AA06	02/04/2004
24665817	M02AA06	29/03/2006
24657265	M02AA06	28/12/2010
24664445	M02AA06	03/11/2009
25600261	M02AA06	20/05/2010
25743680	M02AA06	29/12/2006
24658439	M02AA06	22/07/2010
25641669	M02AA06	24/03/2005
25745431	M02AA06	06/06/2007
24657004	M02AA06	26/11/2010
24663007	M02AA06	14/11/2006
24667760	M02AA06	02/07/2004
25740455	M02AA06	01/12/2010
25743229	M02AA06	03/07/2007
1019290	M02AA06	06/10/2009
1362938	M02AA06	14/11/2005
1017590	M02AA06	25/06/2004
1016457	M02AA06	23/01/2006
1361493	M02AA06	11/08/2008
1905426	M02AA06	13/09/2006
1373198	M02AA06	20/06/2008
927467	M02AA06	20/09/2006
1366229	M02AA06	15/11/2004
1014507	M02AA06	04/09/2009
1360800	M02AA06	31/01/2005
18196434	M02AA06	18/07/2005
1373725	M02AA06	03/03/2009
18196270	M02AA06	20/05/2005
1372352	M02AA06	27/12/2010
1371652	M02AA06	22/11/2005
1029035	M02AA06	15/02/2011
1361706	M02AA06	13/12/2006
1367046	M02AA06	18/07/2008
1906965	M02AA06	23/03/2010
1363221	M02AA06	14/04/2008
1913183	M02AA06	07/03/2007
307045	M02AA06	24/04/2009
1016238	M02AA06	11/05/2011
1362420	M02AA06	11/10/2006
18195981	M02AA06	06/04/2001
422093	M02AA06	16/08/2006
1013147	M02AA06	10/07/2009
1373277	M02AA06	26/12/2007
40178	M02AA06	26/05/2008
40180	M02AA06	15/02/2005
16841249	M02AA06	10/04/2006
16841259	M02AA06	23/03/2005
1366896	M02AA06	16/03/2004
18198445	M02AA06	23/02/2011
1020390	M02AA06	08/08/2008
422239	M02AA06	19/11/2007
19801995	M02AA06	22/10/2009
18186912	M02AA06	21/08/2007
24659461	M02AA06	20/12/2004
16812198	M02AA06	15/12/2005
18196081	M02AA06	21/09/2005
21650477	M02AA06	25/08/2006
18191747	M02AA06	24/01/2005
18194003	M02AA06	17/04/2007
18196883	M02AA06	28/07/2005
18197953	M02AA06	08/03/2011
18186766	M02AA06	20/12/2010
24670235	M02AA06	13/03/2011
18196791	M02AA06	08/02/2007
21063541	M02AA06	01/02/2008
18186949	M02AA06	01/02/2011
16841220	M02AA06	14/08/2006
18187319	M02AA06	17/11/2009
19802014	M02AA06	01/06/2005
18196154	M02AA06	16/12/2004
18191207	M02AA06	23/01/2004
18187564	M02AA06	17/05/2010
19801055	M02AA06	20/04/2010
18196192	M02AA06	07/11/2005
21063510	M02AA06	09/05/2007
18197591	M02AA06	16/07/2003
18188014	M02AA06	22/05/2008
18187685	M02AA06	28/11/2008
19801472	M02AA06	05/05/2009
18187020	M02AA06	02/03/2011
18197681	M02AA06	12/03/2008
18197709	M02AA06	19/12/2005
18198495	M02AA06	13/10/2009
18197745	M02AA06	28/09/2010
21063585	M02AA06	21/07/2009
18187821	M02AA06	18/12/2006
16812701	M02AA06	20/06/2007
16841573	M02AA06	18/02/2010
1369302	M02AA06	15/01/2007
1903569	M02AA06	24/10/2003
2961611	M02AA06	05/10/2010
2246976	M02AA06	25/08/2008
2961630	M02AA06	17/08/2006
2957533	M02AA06	25/01/2008
2251150	M02AA06	28/10/2009
1343000	M02AA06	15/07/2008
1912671	M02AA06	23/07/2007
12994233	M02AA06	20/11/2009
1904262	M02AA06	11/12/2008
1912708	M02AA06	18/03/2010
1899552	M02AA06	14/06/2006
1021166	M02AA06	30/10/2008
1362618	M02AA06	15/05/2006
2958123	M02AA06	19/05/2006
3230600	M02AA06	31/03/2008
8109355	M02AA06	28/04/2005
926529	M02AA06	22/07/2007
6636027	M02AA06	20/07/2007
1906106	M02AA06	16/04/2011
1368382	M02AA06	25/10/2004
1368824	M02AA06	20/04/2006
1017468	M02AA06	09/03/2011
1363174	M02AA06	10/06/2008
26630599	M02AA06	26/11/2007
26853880	M02AA06	17/07/2008
26852141	M02AA06	02/02/2007
26636839	M02AA06	30/05/2005
26626081	M02AA06	06/08/2010
26701512	M02AA06	15/12/2004
26629598	M02AA06	20/05/2011
26719797	M02AA06	03/01/2009
26835603	M02AA06	19/12/2005
26628446	M02AA06	04/09/2009
26628447	M02AA06	27/08/2010
26776969	M02AA06	20/08/2010
26618354	M02AA06	14/11/2007
26703830	M02AA06	14/08/2007
26722085	M02AA06	03/01/2006
26706338	M02AA06	10/11/2009
26792067	M02AA06	22/03/2006
26638407	M02AA06	07/06/2005
26626019	M02AA06	30/10/2009
26620101	M02AA06	20/01/2011
26834531	M02AA06	13/02/2009
26626574	M02AA06	25/10/2010
26832267	M02AA06	25/05/2006
21552715	M02AA06	10/10/2006
13812224	M02AA06	22/09/2005
11675108	M02AA06	07/01/2011
16842212	M02AA06	26/07/2005
2994406	M02AA06	21/08/2007
22881967	M02AA06	03/01/2007
16104391	M02AA06	19/08/2004
16842013	M02AA06	24/02/2006
13872530	M02AA06	04/07/2007
12881814	M02AA06	24/08/2007
15823375	M02AA06	23/02/2007
16842238	M02AA06	11/04/2006
24663291	M02AA06	06/06/2003
15891949	M02AA06	31/03/2010
13788822	M02AA06	02/09/2010
12993757	M02AA06	23/01/2004
24663343	M02AA06	19/04/2006
2989626	M02AA06	14/04/2008
16567909	M02AA06	06/06/2007
12977815	M02AA06	05/04/2004
2990019	M02AA06	04/08/2008
26717898	M02AA06	05/10/2004
26707001	M02AA06	02/09/2008
26620846	M02AA06	26/02/2008
26700941	M02AA06	07/07/2005
25740918	M02AA06	12/01/2006
26619662	M02AA06	05/09/2007
26723126	M02AA06	10/02/2006
26616698	M02AA06	10/10/2005
26635524	M02AA06	22/10/2010
26627915	M02AA06	12/03/2009
26642699	M02AA06	30/11/2007
26706433	M02AA06	21/08/2007
16844683	M02AA06	30/09/2008
26626128	M02AA06	20/02/2007
26642839	M02AA06	25/10/2006
26630386	M02AA06	24/07/2007
26705536	M02AA06	26/06/2007
26718324	M02AA06	12/09/2007
26621448	M02AA06	15/03/2010
26643138	M02AA06	26/01/2007
25722972	M02AA06	25/10/2005
3056308	M02AA06	25/02/2004
26702888	M02AA06	22/06/2006
24577944	M02AA06	18/12/2006
22922894	M02AA06	22/12/2009
24576414	M02AA06	16/03/2009
24576415	M02AA06	16/09/2008
24577473	M02AA06	17/03/2008
24663248	M02AA06	17/08/2006
24663203	M02AA06	13/04/2006
24656301	M02AA06	10/09/2008
24580485	M02AA06	13/07/2007
22921652	M02AA06	25/03/2008
24659316	M02AA06	28/01/2011
24654931	M02AA06	23/02/2011
19968378	M02AA06	14/10/2002
22922995	M02AA06	02/06/2004
21062954	M02AA06	14/08/2009
22922696	M02AA06	16/04/2009
24656922	M02AA06	16/05/2006
22921553	M02AA06	07/09/2007
22882001	M02AA06	21/05/2007
22883329	M02AA06	07/04/2003
20101872	M02AA06	09/05/2007
22922825	M02AA06	17/08/2007
24581557	M02AA06	05/10/2010
21651855	M02AA06	26/12/2006
21651863	M02AA06	19/05/2005
22717795	M02AA06	19/05/2006
21064114	M02AA06	30/06/2006
22882260	M02AA06	29/11/2006
24577336	M02AA06	19/09/2008
24577366	M02AA06	16/02/2009
21651898	M02AA06	14/12/2007
22882719	M02AA06	03/11/2009
24658265	M02AA06	16/11/2007
26946205	M02AA06	02/12/2006
26936258	M02AA06	21/09/2009
27037437	M02AA06	16/01/2009
26948478	M02AA06	24/06/2010
26899465	M02AA06	08/03/2010
26934241	M02AA06	15/04/2008
26912476	M02AA06	28/05/2003
26936321	M02AA06	05/11/2007
26935041	M02AA06	11/05/2007
26933127	M02AA06	02/09/2008
26916169	M02AA06	04/03/2009
26914412	M02AA06	11/12/2009
26897230	M02AA06	08/04/2011
26946963	M02AA06	03/05/2010
26889844	M02AA06	15/04/2005
26935999	M02AA06	30/03/2007
26889893	M02AA06	13/07/2008
26915129	M02AA06	15/09/2009
26917769	M02AA06	21/10/2005
26947472	M02AA06	25/05/2007
26937963	M02AA06	06/05/2008
26729083	M02AA06	20/10/2008
26777748	M02AA06	24/05/2011
26781731	M02AA06	23/08/2007
26714333	M02AA06	16/03/2010
26715991	M02AA06	29/05/2011
26715051	M02AA06	22/03/2007
26854601	M02AA06	12/10/2010
26718656	M02AA06	02/10/2007
26848964	M02AA06	23/05/2008
26730088	M02AA06	22/07/2010
26779481	M02AA06	01/03/2010
26847784	M02AA06	03/11/2006
26846065	M02AA06	10/04/2007
26780109	M02AA06	16/03/2007
26780127	M02AA06	24/04/2007
26714061	M02AA06	09/05/2008
26871906	M02AA06	27/02/2007
26783665	M02AA06	16/04/2004
26714937	M02AA06	17/09/2007
26714948	M02AA06	04/10/2005
26717570	M02AA06	01/03/2010
26867297	M02AA06	11/05/2011
26716873	M02AA06	29/05/2009
26771028	M02AA06	20/12/2004
26850810	M02AA06	12/06/2006
26899205	M02AA06	04/06/2008
26897945	M02AA06	28/09/2007
26874305	M02AA06	18/01/2010
26848752	M02AA06	01/07/2010
26887344	M02AA06	04/12/2010
26872136	M02AA06	13/09/2006
26847522	M02AA06	26/09/2006
26848152	M02AA06	11/05/2007
26900035	M02AA06	12/05/2011
26877329	M02AA06	15/07/2010
26948825	M02AA06	15/03/2011
26857281	M02AA06	30/07/2010
26876907	M02AA06	02/08/2005
26876924	M02AA06	20/02/2008
26900308	M02AA06	18/04/2005
26848429	M02AA06	19/02/2008
26936159	M02AA06	22/11/2006
26881782	M02AA06	21/02/2008
26850877	M02AA06	31/05/2011
26877242	M02AA06	31/05/2010
26882035	M02AA06	14/04/2009
26848628	M02AA06	31/03/2005
26847835	M02AA06	30/04/2007
26888343	M02AA06	13/04/2007
26856371	M02AA06	13/02/2009
26874201	M02AA06	13/01/2010
26847639	M02AA06	12/06/2007
26857202	M02AA06	23/09/2008
26888607	M02AA06	16/10/2006
26804701	M02AA06	11/04/2011
26760673	M02AA06	06/10/2010
26824314	M02AA06	10/11/2004
26855158	M02AA06	17/12/2008
26802448	M02AA06	31/12/2010
26789113	M02AA06	23/06/2008
26852671	M02AA06	23/12/2009
26716668	M02AA06	28/09/2009
26804060	M02AA06	09/11/2007
26835238	M02AA06	27/04/2007
26781511	M02AA06	20/03/2009
26727258	M02AA06	20/09/2009
26803874	M02AA06	22/04/2010
26769521	M02AA06	05/05/2006
26776303	M02AA06	30/03/2009
26707554	M02AA06	27/08/2009
26812125	M02AA06	19/05/2007
26717403	M02AA06	24/10/2007
26789993	M02AA06	20/04/2011
26853762	M02AA06	02/07/2008
26717001	M02AA06	28/03/2006
26855405	M02AA06	19/08/2008
26715346	M02AA06	25/08/2005
26825165	M02AA06	18/04/2011
26743725	M02AA06	09/08/2009
26711219	M02AA06	19/02/2010
26804650	M02AA06	23/07/2010
26804665	M02AA06	11/04/2011
26776167	M02AA06	28/05/2011
26980937	M02AA06	27/11/2007
26941645	M02AA06	08/05/2006
26966714	M02AA06	22/05/2006
26976959	M02AA06	28/08/2009
26976448	M02AA06	15/09/2010
26952436	M02AA06	26/05/2011
27051381	M02AA06	18/01/2005
26977170	M02AA06	01/09/2009
26967347	M02AA06	21/10/2003
26989053	M02AA06	17/11/2008
26998473	M02AA06	13/08/2010
26989365	M02AA06	23/05/2011
26980893	M02AA06	16/07/2003
27057332	M02AA06	31/05/2011
27035927	M02AA06	15/04/2008
26975246	M02AA06	01/02/2008
26966567	M02AA06	19/07/2006
26972976	M02AA06	27/01/2005
26946040	M02AA06	17/08/2007
27105324	M02AA06	10/01/2011
27102099	M02AA06	16/03/2004
27114352	M02AA06	12/08/2008
27113524	M02AA06	02/05/2007
27126956	M02AA06	27/06/2008
27151169	M02AA06	20/04/2005
27102365	M02AA06	22/05/2007
27114769	M02AA06	09/02/2011
27116894	M02AA06	03/11/2004
27132865	M02AA06	04/05/2010
27151273	M02AA06	09/03/2010
27105669	M02AA06	10/04/2003
27084682	M02AA06	29/06/2009
27112337	M02AA06	23/02/2004
27037601	M02AA06	05/03/2009
27151349	M02AA06	08/10/2007
27137945	M02AA06	09/08/2005
27151056	M02AA06	02/12/2008
27127410	M02AA06	28/04/2005
27100098	M02AA06	04/06/2010
27099890	M02AA06	30/07/2010
27130191	M02AA06	03/10/2008
27130220	M02AA06	30/04/2007
27150951	M02AA06	27/02/2008
27116381	M02AA06	24/03/2009
27054520	M02AA06	31/05/2011
27063264	M02AA06	18/04/2006
27031628	M02AA06	16/12/2005
27126993	M02AA06	23/04/2008
27043480	M02AA06	07/12/2007
27066373	M02AA06	28/06/2006
27065288	M02AA06	31/01/2008
27043827	M02AA06	06/03/2006
27043694	M02AA06	20/06/2005
27035249	M02AA06	12/11/2010
27067240	M02AA06	11/09/2006
27072750	M02AA06	13/02/2006
27074474	M02AA06	20/07/2010
27033265	M02AA06	09/04/2008
27046397	M02AA06	11/02/2004
27056639	M02AA06	16/01/2007
27084260	M02AA06	05/03/2004
27106068	M02AA06	08/10/2004
27054901	M02AA06	09/12/2002
27085906	M02AA06	30/06/2009
27065487	M02AA06	20/05/2010
27046535	M02AA06	25/11/2010
27062802	M02AA06	14/11/2006
27116353	M02AA06	22/03/2010
27037293	M02AA06	26/05/2011
26991420	M02AA06	07/12/2004
27041065	M02AA06	28/06/2010
26996521	M02AA06	26/04/2011
27000589	M02AA06	14/12/2009
27042033	M02AA06	07/12/2010
26991593	M02AA06	31/12/2010
27024244	M02AA06	07/05/2007
27039385	M02AA06	10/06/2005
27023838	M02AA06	06/08/2007
27038352	M02AA06	12/06/2008
27037382	M02AA06	27/06/2005
27000123	M02AA06	20/07/2010
26996377	M02AA06	16/05/2011
27028236	M02AA06	10/07/2009
27014776	M02AA06	22/02/2007
27000558	M02AA06	19/01/2011
27000566	M02AA06	16/11/2010
27039199	M02AA06	18/12/2003
27034016	M02AA06	26/08/2004
27005644	M02AA06	05/10/2005
27383273	M02AA06	04/08/2008
27211585	M02AA06	11/05/2009
27150732	M02AA06	14/12/2007
27248920	M02AA06	07/02/2003
27168688	M02AA06	25/09/2006
27379761	M02AA06	14/10/2004
27148036	M02AA06	26/02/2004
27170821	M02AA06	12/04/2011
27153865	M02AA06	16/05/2007
27150434	M02AA06	07/05/2008
27152048	M02AA06	16/10/2009
27362443	M02AA06	29/04/2008
27285954	M02AA06	20/08/2009
27166936	M02AA06	14/04/2008
27172241	M02AA06	10/10/2007
27380258	M02AA06	13/03/2007
27347868	M02AA06	29/12/2005
27129573	M02AA06	27/11/2008
27383534	M02AA06	10/02/2009
27324677	M02AA06	01/04/2009
27138466	M02AA06	20/10/2006
27399841	M02AA06	04/10/2006
27218364	M02AA06	03/04/2008
27143681	M02AA06	20/05/2006
27383412	M02AA06	11/03/2009
27130080	M02AA06	27/07/2010
27151630	M02AA06	04/08/2006
27284739	M02AA06	22/09/2009
27384468	M02AA06	27/01/2006
27384510	M02AA06	11/06/2009
27286965	M02AA06	24/12/2004
27385174	M02AA06	19/01/2005
27167505	M02AA06	11/03/2009
27231218	M02AA06	05/12/2002
27365421	M02AA06	27/01/2010
27254109	M02AA06	11/10/2007
27317155	M02AA06	07/05/2011
27243228	M02AA06	05/04/2011
27198744	M02AA06	03/02/2006
27314686	M02AA06	04/01/2005
27214263	M02AA06	28/05/2009
27241615	M02AA06	01/02/2005
27247303	M02AA06	09/11/2005
27320717	M02AA06	25/08/2006
27238010	M02AA06	05/04/2005
27318305	M02AA06	01/03/2011
27236533	M02AA06	05/06/2008
27233681	M02AA06	30/06/2010
27362894	M02AA06	08/09/2010
27355027	M02AA06	13/12/2010
27234209	M02AA06	10/02/2011
27250806	M02AA06	13/08/2010
27198647	M02AA06	04/02/2009
27300731	M02AA06	04/09/2007
27383112	M02AA06	25/08/2006
27295968	M02AA06	16/10/2007
27369903	M02AA06	13/11/2009
27383808	M02AA06	12/05/2011
27351539	M02AA06	20/02/2008
27360872	M02AA06	23/04/2010
27360881	M02AA06	07/10/2009
27528322	M02AA06	14/06/2004
27305367	M02AA06	01/10/2010
27168973	M02AA06	18/04/2005
27214799	M02AA06	16/05/2011
27529972	M02AA06	13/08/2004
27345639	M02AA06	01/09/2006
27358502	M02AA06	08/02/2007
27348103	M02AA06	23/04/2008
27306585	M02AA06	20/02/2006
27384224	M02AA06	23/07/2008
27253729	M02AA06	27/01/2003
27231019	M02AA06	23/01/2008
26974923	M02AA06	16/06/2006
26992485	M02AA06	24/12/2007
27249549	M02AA06	03/07/2007
26999501	M02AA06	12/03/2007
27230962	M02AA06	07/10/2009
27231345	M02AA06	28/06/2005
26957165	M02AA06	23/05/2011
27237009	M02AA06	25/04/2005
26955105	M02AA06	26/05/2011
26975874	M02AA06	24/06/2006
27252810	M02AA06	03/05/2011
27244487	M02AA06	10/11/2000
27246020	M02AA06	02/05/2001
26988657	M02AA06	21/08/2006
27200549	M02AA06	07/11/2007
27216063	M02AA06	11/03/2011
26988730	M02AA06	03/08/2010
27169775	M02AA06	24/05/2006
27247445	M02AA06	27/08/2002
27248861	M02AA06	22/12/2006
27200892	M02AA06	15/12/2005
26959229	M02AA06	23/05/2003
27589319	M02AA06	10/08/2006
27589323	M02AA06	28/10/2009
27597168	M02AA06	09/11/2004
27639945	M02AA06	30/06/2008
27595904	M02AA06	20/09/2004
27651257	M02AA06	02/05/2005
27577554	M02AA06	11/05/2007
27588779	M02AA06	30/03/2010
27593063	M02AA06	16/12/2005
27640466	M02AA06	29/07/2005
27641540	M02AA06	08/05/2006
27589385	M02AA06	07/02/2011
27596947	M02AA06	07/02/2006
27596311	M02AA06	21/01/2011
27577722	M02AA06	17/07/2003
27623983	M02AA06	25/06/2008
27661153	M02AA06	23/12/2003
27661197	M02AA06	30/09/2005
27592171	M02AA06	06/07/2004
27574591	M02AA06	07/09/2006
27600502	M02AA06	13/06/2006
27606126	M02AA06	26/09/2007
27624082	M02AA06	24/06/2009
27601166	M02AA06	11/07/2008
27473325	M02AA06	13/07/2010
27484556	M02AA06	03/02/2010
27644250	M02AA06	04/10/2006
27493393	M02AA06	21/01/2009
27639633	M02AA06	02/08/2005
27477775	M02AA06	30/08/2004
27414276	M02AA06	12/01/2006
27493297	M02AA06	29/03/2006
27495476	M02AA06	26/06/2009
27476227	M02AA06	19/05/2010
27453809	M02AA06	29/04/2010
27640833	M02AA06	27/08/2009
27480968	M02AA06	15/10/2007
27420742	M02AA06	29/06/2005
27481473	M02AA06	21/05/2007
27493714	M02AA06	18/01/2011
27420117	M02AA06	31/10/2005
27470779	M02AA06	10/11/2008
27453625	M02AA06	18/08/2009
27658377	M02AA06	04/02/2005
27716105	M02AA06	28/01/2010
27545803	M02AA06	15/07/2010
27717220	M02AA06	17/05/2011
27707997	M02AA06	12/05/2010
27759030	M02AA06	01/04/2005
27631341	M02AA06	12/11/2004
27761731	M02AA06	08/09/2008
27765553	M02AA06	11/10/2006
27764873	M02AA06	02/05/2008
27570752	M02AA06	15/02/2004
27764879	M02AA06	20/12/2010
27570581	M02AA06	16/06/2009
27553803	M02AA06	31/10/2008
27632627	M02AA06	25/02/2011
27621512	M02AA06	21/04/2009
27621743	M02AA06	24/07/2006
27756656	M02AA06	04/01/2007
27564868	M02AA06	30/09/2010
27565607	M02AA06	16/08/2010
27614612	M02AA06	23/04/2007
27614614	M02AA06	12/03/2007
27720952	M02AA06	12/01/2007
27720960	M02AA06	04/10/2005
27614461	M02AA06	18/01/2006
27633086	M02AA06	12/03/2008
27566125	M02AA06	30/07/2010
27719035	M02AA06	05/12/2006
27571164	M02AA06	23/02/2009
27708618	M02AA06	08/02/2008
27127287	M02AA06	19/12/2007
27234075	M02AA06	05/08/2009
27237475	M02AA06	24/01/2007
27153665	M02AA06	20/05/2003
27151902	M02AA06	10/08/2007
27242158	M02AA06	31/08/2006
27283840	M02AA06	06/08/2010
27150505	M02AA06	12/04/2010
27283981	M02AA06	12/07/2007
27129607	M02AA06	02/07/2009
27148577	M02AA06	28/09/2006
27148314	M02AA06	24/08/2005
27159559	M02AA06	19/07/2010
27247057	M02AA06	09/12/2009
27163037	M02AA06	17/04/2007
27127605	M02AA06	26/06/2007
27151688	M02AA06	22/02/2010
27285401	M02AA06	16/09/2009
27144708	M02AA06	15/10/2004
27163993	M02AA06	16/05/2006
27152030	M02AA06	13/03/2009
27287076	M02AA06	29/08/2009
27295361	M02AA06	15/10/2008
27145025	M02AA06	06/06/2002
27250372	M02AA06	16/03/2007
27150593	M02AA06	18/04/2005
27148852	M02AA06	13/12/2007
27167918	M02AA06	15/12/2005
27413810	M02AA06	07/11/2006
27132827	M02AA06	09/01/2008
27476329	M02AA06	29/01/2009
27287115	M02AA06	03/06/2009
27229030	M02AA06	04/02/2005
27000618	M02AA06	26/10/2009
27785549	M02AA06	19/08/2005
27785567	M02AA06	27/07/2010
26900477	M02AA06	06/04/2010
27675236	M02AA06	29/10/2004
26718179	M02AA06	23/11/2009
27128283	M02AA06	14/02/2011
26899689	M02AA06	06/06/2005
26976144	M02AA06	16/03/2007
27663478	M02AA06	14/08/2008
25741964	M02AA06	17/10/2005
26773899	M02AA06	08/01/2008
26999763	M02AA06	02/01/2006
619935	M02AA06	23/10/2002
27126839	M02AA06	22/01/2007
27565992	M02AA06	06/06/2005
27105042	M02AA06	26/10/2007
22882517	M02AA06	10/09/2009
266530	M02AA06	12/03/2008
27780235	M02AA06	24/01/2008
26868486	M02AA06	11/03/2010
17423124	M02AA06	09/10/2007
27540070	M02AA06	12/05/2008
27674350	M02AA06	12/01/2009
27674951	M02AA06	17/03/2009
27781142	M02AA06	14/08/2006
27534470	M02AA06	11/08/2010
27684664	M02AA06	26/08/2008
27674859	M02AA06	17/11/2006
27540377	M02AA06	19/04/2011
27773248	M02AA06	09/02/2007
27684839	M02AA06	19/04/2011
27684854	M02AA06	16/12/2008
27456675	M02AA06	22/09/2005
27530374	M02AA06	31/10/2008
27667420	M02AA06	23/08/2004
27683524	M02AA06	17/06/2004
27675622	M02AA06	04/08/2003
27667453	M02AA06	31/10/2005
27719839	M02AA06	22/03/2010
27662017	M02AA06	28/01/2002
27682281	M02AA06	21/03/2006
27563283	M02AA06	09/01/2007
27480464	M02AA06	12/04/2011
27685579	M02AA06	08/06/2010
27674998	M02AA06	12/05/2006
27687159	M02AA06	16/03/2004
27662036	M02AA06	06/03/2006
27685025	M02AA06	06/09/2006
27674475	M02AA06	07/09/2005
27687182	M02AA06	13/08/2007
27770505	M02AA06	08/11/2007
27530889	M02AA06	21/03/2011
27509297	M02AA06	03/10/2005
27531063	M02AA06	15/03/2007
27531090	M02AA06	23/02/2010
27458700	M02AA06	29/04/2005
27515560	M02AA06	14/07/2009
24581729	M02AA06	13/10/2006
27686657	M02AA06	08/09/2006
27679038	M02AA06	13/11/2009
27673504	M02AA06	14/12/2006
27664133	M02AA06	01/04/2005
27151700	M02AA06	15/09/2005
27768943	M02AA06	30/03/2006
27768980	M02AA06	19/02/2008
27675067	M02AA06	14/02/2008
22922095	M02AA06	07/01/2008
27785793	M02AA06	17/05/2006
27668538	M02AA06	14/03/2007
27680041	M02AA06	06/02/2002
27716472	M02AA06	25/05/2007
27668668	M02AA06	30/12/2002
184096	M02AA06	04/10/2007
27679826	M02AA06	15/12/2004
27533492	M02AA06	02/10/2007
27675759	M02AA06	07/11/2007
27361147	M02AA06	29/05/2009
27663724	M02AA06	31/08/2010
26997885	M02AA06	17/01/2011
25713589	M02AA06	18/10/2003
27647467	M02AA06	24/09/2007
27680848	M02AA06	21/09/2010
27674208	M02AA06	31/03/2006
27674082	M02AA06	21/12/2010
1017321	M02AA06	08/03/2011
27056369	M02AA06	30/05/2006
27775176	M02AA06	03/01/2006
27444018	M02AA06	19/12/2006
27029757	M02AA06	16/04/2008
26758895	M02AA06	02/12/2008
27664493	M02AA06	01/09/2010
27671221	M02AA06	18/11/2006
27685053	M02AA06	24/10/2006
27681767	M02AA06	02/04/2007
27682306	M02AA06	20/07/2006
27669167	M02AA06	13/03/2008
27780914	M02AA06	04/02/2008
27508441	M02AA06	21/04/2009
27496720	M02AA06	03/08/2007
27597656	M02AA06	18/03/2008
27454435	M02AA06	18/12/2007
27450192	M02AA06	29/07/2008
27529083	M02AA06	21/09/2006
27444265	M02AA06	23/02/2011
27480242	M02AA06	02/07/2007
27457951	M02AA06	06/05/2004
27608043	M02AA06	09/08/2005
27535763	M02AA06	29/07/2009
27614274	M02AA06	17/06/2006
27591699	M02AA06	27/11/2009
27527681	M02AA06	21/06/2005
27591724	M02AA06	08/04/2010
27449750	M02AA06	12/04/2005
27445296	M02AA06	24/12/2007
27444508	M02AA06	08/05/2008
27453474	M02AA06	19/02/2010
26933407	M02AA06	26/09/2008
26936114	M02AA06	30/12/2005
27033377	M02AA06	23/07/2004
27051396	M02AA06	10/06/2008
27758007	M02AA06	07/05/2009
26946481	M02AA06	27/03/2007
26856618	M02AA06	05/11/2008
41170	M02AA06	30/12/2009
27668046	M02AA06	06/09/2007
24655178	M02AA06	09/02/2005
27074097	M02AA06	14/06/2010
27796602	M02AA06	02/08/2007
26619933	M02AA06	27/03/2009
27667744	M02AA06	08/03/2004
6050147	M02AA06	29/09/2006
27640778	M02AA06	25/09/2003
26777286	M02AA06	01/06/2011
26833671	M02AA06	25/03/2011
26804417	M02AA06	15/03/2007
27476855	M02AA06	12/05/2009
21651315	M02AA06	18/04/2005
26772557	M02AA06	16/08/2007
1900173	M02AA06	23/03/2005
1361526	M02AA06	24/04/2006
27154246	M02AA06	09/09/2008
22883305	M02AA06	16/05/2007
27778523	M02AA06	25/01/2006
1362693	M02AA06	02/05/2006
27535465	M02AA06	31/07/2005
27758279	M02AA06	13/02/2007
27796469	M02AA06	21/05/2004
27803448	M02AA06	19/11/2010
27761586	M02AA06	15/07/2010
24659006	M02AA06	13/08/2007
27762101	M02AA06	27/10/2010
27811161	M02AA06	31/03/2006
428085	M02AA06	06/09/2007
27797221	M02AA06	01/04/2008
27809731	M02AA06	22/12/2008
27673821	M02AA06	12/01/2006
27808054	M02AA06	01/12/2005
27686913	M02AA06	29/07/2008
27668939	M02AA06	22/01/2010
27809711	M02AA06	03/08/2006
27728042	M02AA06	26/05/2006
27675428	M02AA06	19/04/2007
27676223	M02AA06	25/08/2005
27761823	M02AA06	22/11/2004
27686028	M02AA06	29/04/2008
27804341	M02AA06	05/11/2010
27804349	M02AA06	07/04/2006
27794444	M02AA06	28/11/2007
27716806	M02AA06	03/06/2010
27665598	M02AA06	17/10/2003
27673658	M02AA06	22/11/2007
27686175	M02AA06	31/03/2008
27670711	M02AA06	11/05/2004
27668986	M02AA06	21/11/2007
27665005	M02AA06	05/11/2004
27715841	M02AA06	09/11/2006
183848	M02AA06	22/09/2004
26963640	M02AA06	19/09/2003
27623151	M02AA06	27/04/2011
27067043	M02AA06	19/12/2007
26777332	M02AA06	31/05/2011
40446	M02AA06	07/02/2006
27143296	M02AA06	23/05/2006
1912654	M02AA06	16/07/2007
26642896	M02AA06	07/12/2005
27591900	M02AA06	11/05/2005
27781111	M02AA06	05/11/2007
26804065	M02AA06	14/03/2011
27170744	M02AA06	01/03/2011
27670314	M02AA06	26/01/2004
27360456	M02AA06	14/09/2005
1018488	M02AA06	10/12/2010
18198050	M02AA06	29/04/2011
24581757	M02AA06	10/05/2005
27644928	M02AA06	10/05/2005
27614092	M02AA06	16/05/2007
27508461	M02AA06	31/05/2007
27780213	M02AA06	26/04/2004
27588768	M02AA06	08/05/2007
26974970	M02AA06	14/03/2011
26848080	M02AA06	20/09/2010
26941998	M02AA06	19/12/2008
27780895	M02AA06	12/08/2010
27533909	M02AA06	30/03/2009
27764778	M02AA06	03/01/2005
27066908	M02AA06	15/06/2006
27668760	M02AA06	02/12/2005
27808239	M02AA06	30/07/2010
27786075	M02AA06	15/02/2006
27100840	M02AA06	20/05/2004
27783755	M02AA06	23/08/2006
27778319	M02AA06	04/06/2010
27246927	M02AA06	09/10/2002
27037506	M02AA06	13/03/2008
27765475	M02AA06	27/05/2005
26877058	M02AA06	29/05/2003
27553064	M02AA06	18/01/2008
27663355	M02AA06	18/07/2003
27767563	M02AA06	24/05/2004
26935765	M02AA06	02/02/2011
27785394	M02AA06	10/11/2010
21554134	M02AA06	18/04/2011
21553613	M02AA06	28/08/2009
27666811	M02AA06	28/07/2005
33105144	M02AA06	17/08/2007
33112774	M02AA06	03/02/2010
33008470	M02AA06	04/08/2008
33022477	M02AA06	19/01/2001
33049981	M02AA06	16/05/2006
33057954	M02AA06	12/06/2007
33073806	M02AA06	01/12/2005
33083745	M02AA06	28/06/2010
33111336	M02AA06	19/09/2007
33033879	M02AA06	19/05/2008
33106412	M02AA06	10/11/2009
33065341	M02AA06	26/04/2004
33069261	M02AA06	18/02/2009
33037105	M02AA06	05/04/2011
33027621	M02AA06	31/01/2011
33005769	M02AA06	25/10/2010
33098550	M02AA06	22/10/2010
33072082	M02AA06	05/06/2007
33086922	M02AA06	24/08/2004
33051475	M02AA06	25/03/2011
33015043	M02AA06	21/02/2002
33131186	M02AA06	27/12/2010
33099564	M02AA06	03/05/2011
33073254	M02AA06	22/03/2006
33099563	M02AA06	06/10/2008
33029275	M02AA06	07/03/2006
33089683	M02AA06	09/08/2004
33000627	M02AA06	13/03/2007
33007677	M02AA06	25/08/2010
33033944	M02AA06	13/03/2008
33083573	M02AA06	16/07/2009
33018545	M02AA06	29/12/2010
33044335	M02AA06	21/10/2010
33050061	M02AA06	20/11/2001
33067601	M02AA06	04/05/2010
33065951	M02AA06	20/11/2007
33098852	M02AA06	11/06/2003
33015149	M02AA06	27/02/2001
33044195	M02AA06	08/04/2010
33001039	M02AA06	02/12/2010
33030476	M02AA06	21/05/2003
33116068	M02AA06	07/05/2008
33083676	M02AA06	11/11/2005
33003086	M02AA06	15/12/2005
33005585	M02AA06	24/06/2010
33065445	M02AA06	15/05/2007
33097452	M02AA06	01/12/2010
33073090	M02AA06	26/04/2010
33043194	M02AA06	30/04/2003
33097387	M02AA06	08/04/2008
33063325	M02AA06	20/09/2010
33065484	M02AA06	11/05/2011
33068637	M02AA06	13/03/2001
33045042	M02AA06	13/01/2004
33008912	M02AA06	21/12/2009
33025640	M02AA06	02/02/2007
33112020	M02AA06	03/05/2005
33008535	M02AA06	11/10/2008
33026966	M02AA06	27/10/2009
33081354	M02AA06	06/11/2009
33102608	M02AA06	18/05/2009
33036483	M02AA06	18/05/2011
33040270	M02AA06	25/05/2007
33098620	M02AA06	16/08/2010
33052633	M02AA06	26/04/2011
33106608	M02AA06	04/10/2010
33072306	M02AA06	27/09/2010
33058461	M02AA06	22/12/2005
33083077	M02AA06	19/05/2011
33016797	M02AA06	23/02/2011
33074340	M02AA06	11/11/2010
33116686	M02AA06	21/05/2009
33006461	M02AA06	22/11/2010
33070878	M02AA06	12/02/2007
33013922	M02AA06	28/08/2006
33071533	M02AA06	15/11/2010
33091555	M02AA06	17/06/2008
33027943	M02AA06	06/04/2006
33018138	M02AA06	28/08/2007
33053364	M02AA06	23/10/2006
33017020	M02AA06	18/07/2008
33132501	M02AA06	14/05/2010
33093712	M02AA06	21/08/2007
33111429	M02AA06	07/05/2009
33058394	M02AA06	27/02/2009
33024115	M02AA06	01/06/2010
33043709	M02AA06	03/02/2006
33104741	M02AA06	15/01/2009
33094236	M02AA06	13/12/2006
33104560	M02AA06	24/05/2011
33072303	M02AA06	25/03/2011
33045539	M02AA06	03/02/2010
33025068	M02AA06	22/01/2007
33079795	M02AA06	01/04/2011
33122862	M02AA06	30/05/2011
33096768	M02AA06	19/11/2004
33106497	M02AA06	17/09/2010
33050773	M02AA06	23/08/2008
33067406	M02AA06	21/06/2005
33004433	M02AA06	26/04/2011
33128557	M02AA06	12/09/2008
33115962	M02AA06	30/06/2005
33106661	M02AA06	29/05/2006
33065123	M02AA06	12/02/2010
33045777	M02AA06	03/02/2010
33064888	M02AA06	02/12/2008
33112822	M02AA06	23/12/2009
33098674	M02AA06	26/11/2009
33006134	M02AA06	21/03/2005
33020581	M02AA06	11/10/2007
33063559	M02AA06	03/04/2007
33051529	M02AA06	18/01/2008
33056441	M02AA06	14/04/2003
33012828	M02AA06	28/07/2010
33112374	M02AA06	16/05/2008
33090723	M02AA06	14/04/2010
33098168	M02AA06	17/09/2010
33060211	M02AA06	10/10/2007
33006169	M02AA06	11/06/2010
33071618	M02AA06	05/04/2006
33072221	M02AA06	21/01/2009
33035653	M02AA06	08/04/2010
33047656	M02AA06	19/02/2004
33084983	M02AA06	24/01/2011
33042324	M02AA06	24/09/2009
33111158	M02AA06	16/05/2007
33026052	M02AA06	26/10/2010
33096415	M02AA06	10/07/2007
33072776	M02AA06	22/03/2011
33081991	M02AA06	09/12/2004
33012303	M02AA06	23/03/2004
33106358	M02AA06	12/02/2008
33001868	M02AA06	14/10/2009
33026145	M02AA06	21/10/2005
33034999	M02AA06	22/07/2010
33055257	M02AA06	01/02/2007
33054849	M02AA06	12/03/2008
33066070	M02AA06	27/11/2006
180412	M02AA06	10/04/2007
27680372	M02AA06	04/02/2002
27806731	M02AA06	21/06/2006
435175	M02AA06	13/02/2007
24662830	M02AA06	04/12/2008
27807416	M02AA06	11/08/2009
428067	M02AA06	16/04/2007
27116853	M02AA06	12/05/2011
16843427	M02AA06	10/09/2010
21650445	M02AA06	31/10/2005
26637108	M02AA06	19/01/2007
421387	M02AA06	04/05/2006
12995018	M02AA06	26/05/2005
33043382	M02AA06	08/05/2008
183728	M02AA06	10/03/2007
26778116	M02AA06	14/11/2005
24656523	M02AA06	28/09/2010
26772188	M02AA06	28/09/2004
27805343	M02AA06	17/11/2009
27810250	M02AA06	26/08/2008
19423345	M02AA06	14/02/2008
428238	M02AA06	01/03/2006
22881940	M02AA06	22/05/2007
27805265	M02AA06	10/11/2009
186822	M02AA06	10/03/2004
13873928	M02AA06	30/06/2008
33019222	M02AA06	24/07/2002
26720883	M02AA06	07/11/2005
33020523	M02AA06	19/10/2004
18759143	M02AA06	12/05/2009
28035810	M02AA06	08/11/2008
16183250	M02AA06	13/05/2005
23397831	M02AA06	25/01/2007
33063190	M02AA06	22/10/2009
16630809	M02AA06	14/07/2004
16712757	M02AA06	18/11/2010
33253807	M02AA06	08/09/2006
16632057	M02AA06	30/08/2010
16707900	M02AA06	12/12/2005
16630949	M02AA06	17/08/2004
16640657	M02AA06	03/11/2006
16167141	M02AA06	11/05/2009
23382045	M02AA06	15/06/2005
23397514	M02AA06	01/06/2009
16135206	M02AA06	31/07/2002
16135277	M02AA06	19/05/2005
33304554	M02AA06	13/03/2008
21109472	M02AA06	10/12/2003
16184008	M02AA06	21/12/2010
14187680	M02AA06	10/10/2006
16618574	M02AA06	07/04/2008
23320348	M02AA06	09/06/2008
33060507	M02AA06	02/08/2005
33083231	M02AA06	19/12/2006
16633713	M02AA06	17/02/2011
33231539	M02AA06	02/04/2004
23380888	M02AA06	16/12/2010
33306049	M02AA06	09/12/2010
33067273	M02AA06	13/04/2010
33235235	M02AA06	15/05/2007
16626027	M02AA06	12/11/2008
16708369	M02AA06	04/10/2010
16135369	M02AA06	18/11/2008
16712669	M02AA06	08/04/2011
16612746	M02AA06	08/09/2006
33234483	M02AA06	14/03/2003
33058773	M02AA06	27/03/2007
33085897	M02AA06	08/05/2008
33004366	M02AA06	18/12/2008
33010680	M02AA06	05/11/2004
33083790	M02AA06	13/04/2009
33114304	M02AA06	10/02/2010
33041177	M02AA06	11/05/2011
33014512	M02AA06	01/03/2011
33005071	M02AA06	12/05/2011
33064899	M02AA06	06/04/2005
33033258	M02AA06	07/02/2008
33020265	M02AA06	06/06/2006
33054845	M02AA06	25/05/2005
33094299	M02AA06	08/04/2010
33105746	M02AA06	25/04/2003
33039979	M02AA06	17/03/2009
33050802	M02AA06	18/07/2007
33030547	M02AA06	04/02/2002
33025341	M02AA06	28/04/2005
33054553	M02AA06	17/05/2006
33015324	M02AA06	04/03/2010
33117698	M02AA06	01/02/2011
33052133	M02AA06	07/09/2006
33020105	M02AA06	28/06/2007
33033679	M02AA06	22/11/2007
33063405	M02AA06	10/01/2005
33061656	M02AA06	19/05/2011
33049911	M02AA06	17/05/2007
33044433	M02AA06	03/06/2010
33044945	M02AA06	22/05/2008
33091178	M02AA06	03/06/2010
33103405	M02AA06	21/05/2007
33030174	M02AA06	13/12/2010
33037707	M02AA06	13/05/2010
33000877	M02AA06	19/04/2002
33066941	M02AA06	23/08/2000
33112492	M02AA06	14/08/2007
33060011	M02AA06	17/06/2005
33083224	M02AA06	19/10/2006
33045944	M02AA06	07/07/2008
33033801	M02AA06	03/10/2007
33078532	M02AA06	10/12/2008
33093000	M02AA06	16/12/2004
33062684	M02AA06	12/09/2008
33091566	M02AA06	25/07/2001
33033729	M02AA06	20/10/2009
33007224	M02AA06	06/11/2001
33111035	M02AA06	06/08/2010
33044431	M02AA06	07/03/2006
33025051	M02AA06	20/08/2010
33085777	M02AA06	19/11/2010
33025760	M02AA06	27/10/2010
33090629	M02AA06	01/06/2011
33112040	M02AA06	05/10/2009
33086557	M02AA06	19/08/2008
33081770	M02AA06	05/01/2004
33114609	M02AA06	22/08/2005
33018712	M02AA06	28/01/2010
33050169	M02AA06	14/03/2007
33004014	M02AA06	19/02/2009
33053146	M02AA06	03/06/2004
33037440	M02AA06	16/05/2011
33018547	M02AA06	06/05/2010
33045325	M02AA06	23/01/2002
33012899	M02AA06	30/03/2011
33043411	M02AA06	08/01/2007
33065950	M02AA06	11/11/2010
33032983	M02AA06	17/10/2008
33081872	M02AA06	27/04/2007
33099116	M02AA06	28/09/2005
33016818	M02AA06	22/07/2004
33109468	M02AA06	16/04/2009
33004385	M02AA06	28/03/2003
33005144	M02AA06	01/09/2010
33105580	M02AA06	11/03/2004
33073628	M02AA06	24/09/2003
33084729	M02AA06	18/05/2011
33070678	M02AA06	26/04/2007
33093006	M02AA06	08/09/2010
33060722	M02AA06	03/08/2009
33129945	M02AA06	12/06/2009
33109220	M02AA06	14/01/2009
33028356	M02AA06	03/01/2003
33099799	M02AA06	18/03/2011
33066033	M02AA06	09/04/2010
33093016	M02AA06	29/04/2011
33008358	M02AA06	24/10/2008
33008928	M02AA06	15/04/2008
33077457	M02AA06	30/10/2002
33112092	M02AA06	28/01/2008
33061838	M02AA06	02/03/2010
33084046	M02AA06	15/10/2010
33073480	M02AA06	05/05/2011
33091039	M02AA06	18/08/2006
33100135	M02AA06	04/04/2011
33016687	M02AA06	15/01/2008
33044074	M02AA06	11/03/2011
33058122	M02AA06	20/04/2010
33072181	M02AA06	11/07/2000
33096688	M02AA06	02/09/2008
33020127	M02AA06	03/08/2007
33012988	M02AA06	03/08/2010
16616691	M02AA06	19/02/2010
16705563	M02AA06	09/11/2009
16166636	M02AA06	03/08/2007
16611190	M02AA06	13/06/2008
16636662	M02AA06	22/10/2009
16625249	M02AA06	23/10/2009
16705121	M02AA06	28/07/2006
16706289	M02AA06	16/11/2005
23381646	M02AA06	07/11/2007
24089585	M02AA06	02/06/2008
16165958	M02AA06	24/10/2008
16712490	M02AA06	29/03/2007
23408715	M02AA06	30/10/2007
23329515	M02AA06	07/03/2011
16183222	M02AA06	26/11/2003
16138404	M02AA06	03/10/2007
16138850	M02AA06	20/02/2009
23407899	M02AA06	25/04/2006
14187882	M02AA06	26/02/2010
16134895	M02AA06	22/03/2010
16683944	M02AA06	24/03/2010
33256089	M02AA06	06/04/2011
27915884	M02AA06	26/06/2008
16181789	M02AA06	18/03/2011
16707733	M02AA06	14/03/2008
18757441	M02AA06	24/05/2011
27878671	M02AA06	18/06/2007
16625697	M02AA06	29/03/2006
16168715	M02AA06	03/05/2010
23381149	M02AA06	26/10/2005
16708563	M02AA06	24/10/2008
16708428	M02AA06	24/01/2005
23381522	M02AA06	30/11/2009
16619900	M02AA06	24/03/2009
16706065	M02AA06	24/07/2006
33231347	M02AA06	16/10/2006
16183076	M02AA06	18/04/2001
16169148	M02AA06	21/09/2009
18758883	M02AA06	13/09/2010
21114621	M02AA06	24/05/2011
18771664	M02AA06	11/11/2003
23397615	M02AA06	12/11/2007
33207601	M02AA06	08/03/2011
16181636	M02AA06	20/09/2010
23362350	M02AA06	23/12/2010
16596474	M02AA06	06/09/2010
23381575	M02AA06	26/02/2009
16619058	M02AA06	16/02/2006
16181529	M02AA06	25/01/2007
33304547	M02AA06	30/12/2010
16179146	M02AA06	09/05/2001
16637147	M02AA06	16/05/2007
33243654	M02AA06	18/01/2010
33245853	M02AA06	20/05/2011
33293731	M02AA06	18/03/2011
16597365	M02AA06	28/04/2009
23364147	M02AA06	01/03/2002
16169284	M02AA06	12/09/2006
33313071	M02AA06	13/05/2009
33293086	M02AA06	03/07/2009
33308590	M02AA06	07/12/2005
18770704	M02AA06	01/09/2010
16707874	M02AA06	12/05/2005
23362937	M02AA06	03/06/2010
18755921	M02AA06	14/09/2009
23342808	M02AA06	09/08/2005
23342699	M02AA06	27/12/2010
21115290	M02AA06	28/04/2008
16655009	M02AA06	26/11/2004
16630680	M02AA06	23/12/2008
28013389	M02AA06	14/04/2009
23382344	M02AA06	15/01/2008
16708134	M02AA06	06/07/2004
23333064	M02AA06	27/04/2011
18765826	M02AA06	28/04/2006
23363972	M02AA06	07/02/2007
18755801	M02AA06	11/03/2010
18758326	M02AA06	28/03/2011
23320103	M02AA06	11/03/2005
23329499	M02AA06	05/08/2005
16708615	M02AA06	12/05/2011
16609636	M02AA06	21/05/2009
16167046	M02AA06	22/06/2006
28015655	M02AA06	24/08/2007
33209711	M02AA06	18/06/2009
16630616	M02AA06	20/04/2011
33208695	M02AA06	04/04/2011
16634154	M02AA06	29/05/2007
16178935	M02AA06	03/01/2005
33235478	M02AA06	28/12/2007
28020243	M02AA06	07/09/2007
27848097	M02AA06	01/02/2008
16136024	M02AA06	24/08/2009
23361804	M02AA06	15/06/2009
16636746	M02AA06	22/06/2010
16636874	M02AA06	03/07/2008
33229490	M02AA06	06/09/2010
16707745	M02AA06	15/11/2006
27847515	M02AA06	08/03/2007
16619902	M02AA06	22/03/2011
23407448	M02AA06	10/12/2009
18765730	M02AA06	17/03/2006
23411987	M02AA06	05/04/2005
23350491	M02AA06	27/10/2010
16649149	M02AA06	04/05/2010
16165721	M02AA06	12/05/2008
18767973	M02AA06	03/03/2005
16712016	M02AA06	08/03/2011
18770615	M02AA06	24/01/2008
23350018	M02AA06	01/12/2006
33203982	M02AA06	27/10/2009
23336381	M02AA06	05/04/2004
23402038	M02AA06	03/10/2008
23412927	M02AA06	30/01/2006
20986922	M02AA06	22/08/2006
23412035	M02AA06	19/12/2005
23401531	M02AA06	06/09/2007
16773452	M02AA06	06/04/2011
23334057	M02AA06	05/05/2011
16649380	M02AA06	27/01/2009
23364720	M02AA06	04/01/2008
16127453	M02AA06	29/11/2010
16599304	M02AA06	27/03/2003
23339422	M02AA06	04/12/2008
16708594	M02AA06	09/09/2005
23401564	M02AA06	10/03/2010
23402474	M02AA06	28/01/2005
23368758	M02AA06	03/05/2011
16125510	M02AA06	30/06/2004
16621449	M02AA06	20/09/2004
23411989	M02AA06	06/03/2008
16637193	M02AA06	20/07/2009
23366446	M02AA06	25/07/2007
18761895	M02AA06	30/04/2004
23336596	M02AA06	08/02/2006
16610026	M02AA06	15/07/2009
23411996	M02AA06	09/08/2005
23401703	M02AA06	09/02/2010
23328302	M02AA06	01/03/2007
16684728	M02AA06	26/07/2007
16186168	M02AA06	29/03/2010
16684538	M02AA06	11/02/2011
21115103	M02AA06	30/03/2007
23362640	M02AA06	11/06/2009
23362700	M02AA06	04/08/2010
33207549	M02AA06	08/09/2010
16652686	M02AA06	22/11/2006
14187892	M02AA06	29/04/2009
33245266	M02AA06	30/04/2010
33228458	M02AA06	10/03/2011
33232371	M02AA06	08/06/2009
16713099	M02AA06	15/01/2008
16165612	M02AA06	22/08/2007
20982711	M02AA06	22/02/2010
33206414	M02AA06	23/08/2010
14188146	M02AA06	11/05/2011
16631934	M02AA06	25/02/2009
18755562	M02AA06	22/07/2008
23409483	M02AA06	04/10/2004
14187360	M02AA06	04/06/2003
21116126	M02AA06	23/02/2010
16135365	M02AA06	26/02/2008
14188147	M02AA06	30/10/2006
16626274	M02AA06	06/05/2009
16637132	M02AA06	16/10/2008
33233849	M02AA06	06/11/2009
23333624	M02AA06	06/02/2009
16620100	M02AA06	15/04/2009
33200903	M02AA06	04/07/2005
16607253	M02AA06	04/02/2010
18770636	M02AA06	30/05/2008
16708154	M02AA06	03/06/2005
23193794	M02AA06	16/02/2011
23406127	M02AA06	13/03/2007
16631801	M02AA06	10/02/2009
23402116	M02AA06	29/09/2009
23354037	M02AA06	14/12/2006
16621757	M02AA06	07/02/2007
23404666	M02AA06	19/10/2007
16125107	M02AA06	27/06/2005
16168740	M02AA06	10/03/2010
16606487	M02AA06	12/05/2010
23332852	M02AA06	15/04/2010
23326017	M02AA06	22/01/2009
20986311	M02AA06	28/03/2007
16621614	M02AA06	24/09/2007
20986270	M02AA06	20/11/2009
16124510	M02AA06	04/05/2011
16623658	M02AA06	29/12/2006
16613984	M02AA06	13/06/2005
23326929	M02AA06	18/10/2005
23412017	M02AA06	05/05/2008
16648142	M02AA06	27/11/2008
16709056	M02AA06	31/05/2007
33309143	M02AA06	18/10/2005
33308567	M02AA06	21/03/2005
16637664	M02AA06	24/01/2005
33209415	M02AA06	16/11/2007
16683552	M02AA06	13/04/2005
18770491	M02AA06	10/03/2005
18755707	M02AA06	31/03/2011
16708965	M02AA06	13/04/2011
33225982	M02AA06	17/09/2008
33235211	M02AA06	13/10/2004
18756422	M02AA06	23/08/2010
16707810	M02AA06	12/08/2010
16138964	M02AA06	24/06/2002
23361932	M02AA06	07/07/2007
16631655	M02AA06	03/12/2004
16706166	M02AA06	25/07/2007
16596084	M02AA06	02/10/2006
23362182	M02AA06	03/05/2010
16636548	M02AA06	18/06/2004
16712610	M02AA06	25/04/2011
14188105	M02AA06	25/04/2008
23318897	M02AA06	23/10/2008
23362188	M02AA06	06/05/2010
18765596	M02AA06	09/11/2010
16603648	M02AA06	16/02/2007
27847279	M02AA06	12/01/2008
24463058	M02AA06	15/04/2008
16166372	M02AA06	28/07/2006
16705838	M02AA06	22/08/2002
31181468	M02AA06	18/04/2011
32140932	M02AA06	12/06/2002
31085181	M02AA06	07/07/2008
32069685	M02AA06	22/03/2011
31539683	M02AA06	17/12/2008
31764466	M02AA06	13/09/2007
31429184	M02AA06	21/09/2005
23336001	M02AA06	18/12/2007
23470573	M02AA06	30/05/2011
33244718	M02AA06	28/06/2005
23367296	M02AA06	11/07/2008
16187014	M02AA06	25/05/2005
23398442	M02AA06	22/05/2006
16124564	M02AA06	04/01/2008
23398109	M02AA06	12/05/2008
16640430	M02AA06	07/11/2007
16129910	M02AA06	28/08/2008
20985453	M02AA06	11/08/2009
20986309	M02AA06	21/09/2007
23362721	M02AA06	23/10/2009
16630904	M02AA06	25/07/2003
16186433	M02AA06	04/05/2006
23367381	M02AA06	22/10/2007
16125778	M02AA06	12/09/2009
16168690	M02AA06	30/03/2011
23336573	M02AA06	02/12/2009
28032528	M02AA06	24/05/2011
23350021	M02AA06	21/04/2010
23400909	M02AA06	17/10/2003
27847320	M02AA06	20/10/2005
27914427	M02AA06	08/01/2004
28002472	M02AA06	04/02/2011
16124871	M02AA06	11/03/2011
23381093	M02AA06	30/08/2007
23344022	M02AA06	25/01/2007
16608455	M02AA06	20/01/2010
16184392	M02AA06	14/03/2005
18762967	M02AA06	27/05/2004
27983007	M02AA06	15/12/2010
23401789	M02AA06	18/11/2010
23332688	M02AA06	20/10/2008
23406223	M02AA06	09/02/2006
16712863	M02AA06	30/05/2011
23367071	M02AA06	08/05/2007
16631824	M02AA06	28/11/2007
16168876	M02AA06	18/01/2008
23381192	M02AA06	30/12/2010
23406273	M02AA06	28/09/2007
20987135	M02AA06	19/08/2005
33313038	M02AA06	11/06/2009
23354029	M02AA06	23/09/2003
23367241	M02AA06	05/11/2007
21114237	M02AA06	10/07/2009
16127748	M02AA06	21/08/2004
27954891	M02AA06	20/11/2007
33245222	M02AA06	15/04/2008
16615226	M02AA06	05/11/2010
20984891	M02AA06	06/05/2008
23350638	M02AA06	23/05/2007
23412180	M02AA06	12/11/2007
23367214	M02AA06	27/05/2011
16655019	M02AA06	06/04/2011
23349661	M02AA06	28/05/2007
23408437	M02AA06	21/10/2010
16598025	M02AA06	27/05/2008
23350311	M02AA06	07/09/2010
16124383	M02AA06	28/03/2006
18767647	M02AA06	07/10/2008
16629163	M02AA06	31/01/2007
32192677	M02AA06	27/05/2009
31210452	M02AA06	06/04/2011
31353235	M02AA06	25/04/2006
31407717	M02AA06	28/10/2010
32164188	M02AA06	15/05/2009
32005939	M02AA06	18/12/2009
31432360	M02AA06	12/12/2007
31767304	M02AA06	11/09/2008
31311295	M02AA06	13/05/2008
31285328	M02AA06	01/10/2009
31117673	M02AA06	20/02/2008
31345711	M02AA06	23/12/2009
31243783	M02AA06	01/12/2003
31856871	M02AA06	30/05/2005
31284771	M02AA06	05/04/2005
31139565	M02AA06	11/12/2009
31689978	M02AA06	12/06/2009
31133674	M02AA06	14/05/2010
32176436	M02AA06	08/07/2005
31638051	M02AA06	29/08/2007
31262778	M02AA06	29/09/2009
31343424	M02AA06	09/10/2008
31217091	M02AA06	20/02/2007
31539856	M02AA06	29/11/2006
31791183	M02AA06	20/10/2008
31590841	M02AA06	04/10/2007
31237591	M02AA06	20/03/2009
31802366	M02AA06	26/04/2006
31823533	M02AA06	13/01/2006
31760323	M02AA06	15/11/2007
31550961	M02AA06	23/04/2007
31219084	M02AA06	31/05/2006
31683932	M02AA06	12/06/2008
31166367	M02AA06	04/10/2010
31445246	M02AA06	06/05/2008
31536904	M02AA06	23/08/2005
31573567	M02AA06	18/06/2007
31412669	M02AA06	15/07/2010
31427474	M02AA06	04/03/2005
31372636	M02AA06	26/07/2007
31777519	M02AA06	02/02/2006
31226034	M02AA06	05/10/2010
31267839	M02AA06	26/12/2003
31904660	M02AA06	19/11/2007
31344263	M02AA06	10/03/2004
31072194	M02AA06	11/08/2008
31837576	M02AA06	19/09/2007
31420742	M02AA06	24/08/2005
32246611	M02AA06	20/01/2011
32111756	M02AA06	29/12/2009
31750446	M02AA06	20/09/2007
31215985	M02AA06	23/10/2006
31733052	M02AA06	22/01/2007
31330137	M02AA06	23/04/2009
31494769	M02AA06	28/09/2009
32275097	M02AA06	13/01/2006
31126630	M02AA06	15/11/2001
31607158	M02AA06	21/12/2010
31157640	M02AA06	14/11/2008
32023018	M02AA06	07/03/2006
31934644	M02AA06	26/03/2009
31461047	M02AA06	23/12/2010
31135888	M02AA06	11/11/2004
31938606	M02AA06	28/04/2005
31175667	M02AA06	17/09/2007
31261102	M02AA06	17/08/2009
31728526	M02AA06	26/04/2002
31709531	M02AA06	08/05/2007
32080090	M02AA06	30/06/2006
32065784	M02AA06	05/01/2007
32194913	M02AA06	02/02/2006
31431883	M02AA06	08/06/2004
31530208	M02AA06	02/12/2004
32057549	M02AA06	06/11/2007
31724621	M02AA06	06/09/2007
31207975	M02AA06	28/02/2007
31956405	M02AA06	03/07/2007
31850585	M02AA06	14/05/2004
31480886	M02AA06	26/09/2006
31234642	M02AA06	14/04/2008
31841569	M02AA06	10/06/2008
31343025	M02AA06	20/01/2005
32167264	M02AA06	25/05/2007
31627593	M02AA06	08/06/2007
32126956	M02AA06	13/03/2006
31259910	M02AA06	23/11/2007
31821738	M02AA06	21/05/2007
31792698	M02AA06	22/03/2010
32038384	M02AA06	26/02/2008
31636579	M02AA06	07/11/2007
31097075	M02AA06	28/04/2005
32084052	M02AA06	15/09/2005
31744955	M02AA06	19/11/2007
32114786	M02AA06	15/10/2007
32043160	M02AA06	24/09/2004
31553943	M02AA06	23/02/2010
31735454	M02AA06	26/02/2010
31611686	M02AA06	20/07/2007
31246912	M02AA06	06/10/2009
32240562	M02AA06	22/07/2010
31121620	M02AA06	15/11/2007
31119305	M02AA06	21/07/2003
32067008	M02AA06	03/09/2008
31267641	M02AA06	02/02/2011
31793709	M02AA06	08/04/2009
31722801	M02AA06	27/11/2009
31559608	M02AA06	06/02/2008
31862063	M02AA06	06/11/2008
31649874	M02AA06	08/08/2005
31554764	M02AA06	21/08/2009
31849301	M02AA06	15/06/2006
32013445	M02AA06	22/03/2011
31860529	M02AA06	22/01/2007
31839721	M02AA06	14/03/2005
31427154	M02AA06	14/12/2006
32282394	M02AA06	26/10/2009
32261722	M02AA06	31/08/2006
31394939	M02AA06	27/06/2005
31292908	M02AA06	09/02/2006
31550038	M02AA06	09/01/2007
31299460	M02AA06	18/11/2009
31394744	M02AA06	29/11/2001
31038837	M02AA06	26/10/2010
31667854	M02AA06	28/07/2004
31983822	M02AA06	26/01/2007
32214444	M02AA06	24/03/2003
31675988	M02AA06	28/10/2005
31610368	M02AA06	26/02/2010
32167290	M02AA06	12/12/2007
31425005	M02AA06	11/09/2008
32212407	M02AA06	25/10/2007
32263828	M02AA06	20/12/2006
31894352	M02AA06	01/09/2008
31402775	M02AA06	17/05/2006
31595159	M02AA06	30/06/2006
31974767	M02AA06	20/11/2006
31267220	M02AA06	22/01/2007
31381249	M02AA06	13/02/2007
31150657	M02AA06	01/08/2007
32192753	M02AA06	29/01/2008
32216487	M02AA06	05/09/2006
31330070	M02AA06	03/08/2004
31069003	M02AA06	21/12/2007
31918792	M02AA06	04/07/2006
32054028	M02AA06	14/05/2008
31129093	M02AA06	03/03/2010
31685190	M02AA06	08/10/2008
31195680	M02AA06	24/11/2009
31799453	M02AA06	07/02/2005
31136755	M02AA06	26/11/2009
31713716	M02AA06	29/01/2007
31893494	M02AA06	04/03/2005
31269714	M02AA06	11/01/2007
31259853	M02AA06	27/05/2009
31373344	M02AA06	16/01/2008
31697444	M02AA06	16/04/2009
32201488	M02AA06	19/06/2008
31342310	M02AA06	25/08/2006
31273552	M02AA06	29/09/2006
31112167	M02AA06	23/06/2009
32221289	M02AA06	04/06/2008
31416932	M02AA06	15/01/2007
32271701	M02AA06	21/12/2006
31641342	M02AA06	13/09/2006
31480236	M02AA06	01/03/2007
31307737	M02AA06	07/03/2006
31879210	M02AA06	28/02/2011
31343858	M02AA06	13/12/2010
31771546	M02AA06	07/08/2008
32079219	M02AA06	21/10/2008
31331386	M02AA06	14/09/2007
31612836	M02AA06	14/09/2010
32166286	M02AA06	23/06/2009
31708035	M02AA06	10/07/2007
31673092	M02AA06	13/05/2009
31038591	M02AA06	08/01/2002
31539772	M02AA06	31/03/2010
31672960	M02AA06	14/01/2003
31535500	M02AA06	17/09/2004
31432354	M02AA06	22/06/2010
31765323	M02AA06	29/08/2008
31328924	M02AA06	14/11/2008
32088531	M02AA06	22/07/2002
32082561	M02AA06	11/12/2007
32197410	M02AA06	26/07/2007
32123269	M02AA06	02/06/2010
31791710	M02AA06	21/01/2008
31051184	M02AA06	17/08/2006
31855923	M02AA06	21/07/2008
31053656	M02AA06	05/05/2006
31937062	M02AA06	10/07/2008
31537958	M02AA06	13/12/2004
31950974	M02AA06	09/03/2005
31187591	M02AA06	15/12/2010
32062496	M02AA06	12/04/2004
31725328	M02AA06	09/10/2009
31334936	M02AA06	07/02/2007
31704498	M02AA06	24/01/2011
31243437	M02AA06	27/07/2009
32030940	M02AA06	17/10/2006
32162258	M02AA06	26/10/2010
31734298	M02AA06	21/10/2008
31485827	M02AA06	20/07/2009
31533378	M02AA06	03/02/2004
31929890	M02AA06	13/11/2008
31440365	M02AA06	23/11/2009
31581886	M02AA06	19/06/2007
31348177	M02AA06	10/03/2010
31397441	M02AA06	29/10/2004
31904758	M02AA06	15/09/2004
31102291	M02AA06	17/12/2007
31163185	M02AA06	06/07/2007
31312763	M02AA06	13/01/2009
31921860	M02AA06	10/12/2004
31119174	M02AA06	05/08/2008
31565451	M02AA06	22/10/2007
31874420	M02AA06	08/01/2008
31559193	M02AA06	03/10/2003
32214259	M02AA06	12/02/2007
31178001	M02AA06	19/01/2006
31735989	M02AA06	30/12/2009
31814987	M02AA06	24/06/2004
31936120	M02AA06	30/12/2004
31176048	M02AA06	04/09/2006
31241521	M02AA06	10/11/2005
31050791	M02AA06	05/04/2006
32162109	M02AA06	11/09/2008
32255643	M02AA06	22/09/2009
31311414	M02AA06	07/02/2003
31915105	M02AA06	21/10/2005
32136199	M02AA06	14/08/2007
31296696	M02AA06	21/10/2009
31192037	M02AA06	19/08/2009
31098750	M02AA06	27/05/2008
32232103	M02AA06	14/12/2009
31450548	M02AA06	22/07/2005
32188596	M02AA06	29/12/2009
31962470	M02AA06	16/07/2004
31245074	M02AA06	30/05/2008
31282414	M02AA06	02/12/2009
32059302	M02AA06	13/12/2007
32141113	M02AA06	02/12/2008
32119254	M02AA06	20/12/2007
31676218	M02AA06	10/07/2002
31464229	M02AA06	05/12/2007
31139449	M02AA06	16/12/2004
31517124	M02AA06	28/09/2010
31392273	M02AA06	04/09/2007
32106380	M02AA06	06/06/2006
31501413	M02AA06	19/08/2004
31875631	M02AA06	02/10/2009
32042526	M02AA06	09/05/2008
31177768	M02AA06	24/03/2008
32084114	M02AA06	21/05/2003
31683144	M02AA06	09/11/2009
31223044	M02AA06	13/01/2009
32018876	M02AA06	29/05/2009
32098560	M02AA06	13/03/2006
32077072	M02AA06	28/09/2009
32189899	M02AA06	15/01/2009
31740844	M02AA06	29/12/2009
31238587	M02AA06	15/12/2004
31677354	M02AA06	30/01/2006
32002948	M02AA06	17/11/2008
31926643	M02AA06	17/12/2008
32167875	M02AA06	22/05/2009
31503228	M02AA06	29/09/2005
31186394	M02AA06	15/09/2009
31832522	M02AA06	17/04/2009
31696885	M02AA06	20/07/2004
31741824	M02AA06	07/04/2006
31288965	M02AA06	04/12/2009
31369580	M02AA06	04/06/2008
31709931	M02AA06	04/12/2008
31068766	M02AA06	18/05/2007
31941810	M02AA06	01/10/2010
31482800	M02AA06	16/01/2009
32195275	M02AA06	26/12/2007
31673640	M02AA06	27/03/2007
31231208	M02AA06	14/09/2006
31412392	M02AA06	17/09/2007
31437098	M02AA06	05/05/2006
31361206	M02AA06	18/01/2008
31307903	M02AA06	14/03/2006
31795086	M02AA06	18/09/2007
31089931	M02AA06	07/12/2006
31038595	M02AA06	26/09/2007
31688773	M02AA06	30/03/2007
31602375	M02AA06	17/11/2010
31098476	M02AA06	30/08/2005
31369545	M02AA06	05/05/2008
31099227	M02AA06	21/12/2007
32204377	M02AA06	13/10/2004
31802608	M02AA06	15/03/2006
31407086	M02AA06	15/07/2008
31441426	M02AA06	12/02/2007
31673209	M02AA06	29/03/2004
32088315	M02AA06	15/02/2002
31598723	M02AA06	30/03/2007
31345749	M02AA06	01/10/2001
31285403	M02AA06	01/07/2005
31137946	M02AA06	15/11/2007
32165498	M02AA06	06/08/2008
31783926	M02AA06	09/08/2007
31831196	M02AA06	04/07/2007
31629096	M02AA06	21/11/2007
31254762	M02AA06	19/08/2005
31636822	M02AA06	20/09/2005
31788672	M02AA06	22/10/2010
31138935	M02AA06	21/05/2008
32146190	M02AA06	29/03/2007
32269533	M02AA06	26/09/2007
32128395	M02AA06	21/08/2006
31401453	M02AA06	01/12/2003
31757888	M02AA06	30/09/2009
31860679	M02AA06	23/03/2009
31589311	M02AA06	27/04/2004
31932902	M02AA06	11/12/2010
31434189	M02AA06	25/09/2008
32240004	M02AA06	04/07/2008
31505974	M02AA06	23/07/2009
31226791	M02AA06	04/09/2006
31888707	M02AA06	08/11/2006
31292890	M02AA06	22/01/2001
31930714	M02AA06	29/08/2007
31678786	M02AA06	11/06/2004
31569370	M02AA06	07/12/2009
31395707	M02AA06	21/04/2006
31095932	M02AA06	20/10/2009
31665218	M02AA06	07/08/2003
31617915	M02AA06	07/07/2006
31316108	M02AA06	19/06/2008
31120459	M02AA06	22/06/2006
32111753	M02AA06	11/05/2004
31777809	M02AA06	10/08/2006
31201150	M02AA06	15/04/2004
31246615	M02AA06	16/04/2009
31248296	M02AA06	09/03/2006
32116733	M02AA06	10/11/2008
31303279	M02AA06	06/07/2005
31990571	M02AA06	24/09/2009
31167775	M02AA06	19/10/2005
31273175	M02AA06	10/01/2007
32094579	M02AA06	17/07/2006
31916030	M02AA06	24/08/2009
31717025	M02AA06	13/10/2006
31298190	M02AA06	04/08/2009
31540780	M02AA06	15/11/2004
31219142	M02AA06	16/12/2003
31062310	M02AA06	04/11/2009
32013249	M02AA06	10/06/2005
31974787	M02AA06	30/11/2009
31566153	M02AA06	05/08/2009
32035111	M02AA06	16/04/2010
31863698	M02AA06	16/06/2004
31826383	M02AA06	07/06/2010
31396163	M02AA06	29/12/2010
31440741	M02AA06	18/07/2007
31554561	M02AA06	08/09/2010
31736913	M02AA06	17/04/2009
31888462	M02AA06	14/11/2005
31519055	M02AA06	09/11/2004
31837765	M02AA06	04/08/2009
31850342	M02AA06	18/09/2007
31522740	M02AA06	15/04/2008
31420452	M02AA06	08/07/2002
31588436	M02AA06	24/11/2005
32159787	M02AA06	15/05/2003
31334047	M02AA06	29/12/2009
31570301	M02AA06	19/04/2010
31174203	M02AA06	22/08/2008
31094327	M02AA06	10/09/2003
31325386	M02AA06	03/10/2007
31995370	M02AA06	07/05/2011
31958704	M02AA06	24/09/2004
31453067	M02AA06	18/08/2008
31914550	M02AA06	24/05/2006
32171789	M02AA06	12/11/2007
31354855	M02AA06	21/08/2006
31083007	M02AA06	08/01/2009
31041581	M02AA06	20/06/2008
32060050	M02AA06	16/05/2007
32022345	M02AA06	06/11/2006
31415468	M02AA06	02/01/2003
31462359	M02AA06	08/05/2007
31984866	M02AA06	03/12/2009
31501864	M02AA06	11/05/2009
32198464	M02AA06	26/06/2006
31077641	M02AA06	25/02/2011
31948492	M02AA06	13/06/2006
31475546	M02AA06	03/11/2005
32237294	M02AA06	19/01/2004
31258782	M02AA06	01/12/2008
31856229	M02AA06	22/01/2004
31720996	M02AA06	05/10/2010
31637667	M02AA06	10/05/2011
32006368	M02AA06	15/01/2004
31327005	M02AA06	06/11/2009
32250544	M02AA06	23/04/2007
31660557	M02AA06	08/10/2003
31474342	M02AA06	22/03/2005
32025315	M02AA06	13/11/2008
31116078	M02AA06	31/05/2007
31516751	M02AA06	19/12/2007
31340935	M02AA06	27/06/2008
31947423	M02AA06	01/02/2008
31279289	M02AA06	15/07/2008
32236449	M02AA06	19/09/2007
31333815	M02AA06	27/05/2009
31581387	M02AA06	21/02/2005
31385820	M02AA06	06/05/2005
31224613	M02AA06	15/06/2006
31888649	M02AA06	11/10/2005
31441799	M02AA06	30/08/2006
31055196	M02AA06	27/06/2006
32044352	M02AA06	04/08/2009
31925352	M02AA06	28/06/2006
32084009	M02AA06	07/02/2011
31672769	M02AA06	05/12/2008
32090511	M02AA06	01/04/2004
32009303	M02AA06	22/05/2008
32014902	M02AA06	21/07/2005
31134548	M02AA06	03/12/2007
31140552	M02AA06	13/03/2009
32227835	M02AA06	07/03/2008
32250443	M02AA06	23/09/2008
31964079	M02AA06	10/04/2006
31633490	M02AA06	03/11/2009
31555309	M02AA06	15/10/2008
31584060	M02AA06	02/11/2006
31348347	M02AA06	31/08/2004
31619024	M02AA06	11/07/2007
31496361	M02AA06	12/03/2009
31244492	M02AA06	08/06/2009
31101370	M02AA06	14/04/2010
31336014	M02AA06	18/11/2004
31741891	M02AA06	24/10/2008
31915153	M02AA06	24/03/2009
31537972	M02AA06	27/05/2008
31247441	M02AA06	24/10/2007
31574292	M02AA06	21/05/2007
32274759	M02AA06	17/10/2007
32031342	M02AA06	26/09/2008
31201536	M02AA06	26/01/2004
31668256	M02AA06	08/03/2011
31463038	M02AA06	09/12/2010
31745661	M02AA06	13/03/2006
32269608	M02AA06	05/05/2005
32232978	M02AA06	20/09/2007
32257488	M02AA06	18/09/2009
32156268	M02AA06	14/01/2005
31096804	M02AA06	28/07/2006
31655898	M02AA06	07/09/2005
31749969	M02AA06	25/09/2008
31336062	M02AA06	31/05/2007
31500856	M02AA06	27/06/2006
31576491	M02AA06	18/06/2002
31792641	M02AA06	13/07/2010
31140079	M02AA06	10/01/2008
31054447	M02AA06	25/02/2009
31430347	M02AA06	09/12/2004
31942616	M02AA06	15/02/2007
32058126	M02AA06	14/08/2007
32172413	M02AA06	25/09/2009
32094491	M02AA06	07/11/2006
31737920	M02AA06	30/05/2005
31321280	M02AA06	31/05/2005
32156190	M02AA06	02/10/2007
31485364	M02AA06	29/01/2010
31051001	M02AA06	24/01/2007
31421565	M02AA06	16/10/2003
31217067	M02AA06	15/11/2005
32038162	M02AA06	20/05/2008
31047317	M02AA06	23/11/2005
31971481	M02AA06	03/07/2007
31324320	M02AA06	30/09/2002
31669160	M02AA06	19/10/2009
31300579	M02AA06	19/06/2007
32250024	M02AA06	22/09/2006
31500194	M02AA06	23/12/2008
31795089	M02AA06	20/12/2006
31460189	M02AA06	17/12/2004
31283871	M02AA06	31/01/2003
32245742	M02AA06	21/02/2007
31819996	M02AA06	30/06/2008
31970294	M02AA06	14/04/2008
31919328	M02AA06	16/01/2007
31204192	M02AA06	05/06/2006
31755456	M02AA06	12/09/2005
32263249	M02AA06	21/02/2008
31693651	M02AA06	24/08/2006
32007468	M02AA06	01/10/2007
31429891	M02AA06	15/11/2004
31962312	M02AA06	26/02/2009
31928407	M02AA06	02/03/2007
31087682	M02AA06	17/11/2008
31674536	M02AA06	23/07/2007
31233533	M02AA06	26/06/2007
31228560	M02AA06	15/10/2010
32003164	M02AA06	14/06/2007
32270593	M02AA06	28/11/2008
31237702	M02AA06	23/05/2003
31369349	M02AA06	29/09/2009
32073876	M02AA06	30/01/2004
31375081	M02AA06	22/03/2007
31511111	M02AA06	25/01/2007
32135671	M02AA06	13/12/2007
31470090	M02AA06	22/12/2009
31084479	M02AA06	06/11/2006
31954330	M02AA06	01/10/2003
32034190	M02AA06	16/09/2008
31691952	M02AA06	27/07/2006
31054095	M02AA06	15/03/2007
31488671	M02AA06	27/03/2008
31345381	M02AA06	03/08/2005
32053220	M02AA06	05/01/2011
31323159	M02AA06	26/06/2009
32245866	M02AA06	03/11/2005
31400190	M02AA06	23/07/2008
32053203	M02AA06	09/06/2003
31563177	M02AA06	27/07/2005
31058694	M02AA06	22/05/2007
31386321	M02AA06	04/06/2009
31642235	M02AA06	20/07/2009
31390110	M02AA06	22/09/2006
31556519	M02AA06	26/03/2007
31949780	M02AA06	12/03/2004
31874491	M02AA06	28/03/2003
31359021	M02AA06	09/06/2009
32280267	M02AA06	26/12/2006
31774208	M02AA06	27/11/2007
31901197	M02AA06	05/10/2007
31288005	M02AA06	23/03/2010
32079185	M02AA06	05/10/2007
31050269	M02AA06	01/10/2009
31970954	M02AA06	20/12/2007
32274565	M02AA06	23/04/2009
31462204	M02AA06	09/04/2007
31961729	M02AA06	11/09/2009
31378201	M02AA06	09/01/2008
32008810	M02AA06	05/10/2005
32232823	M02AA06	05/05/2008
31127796	M02AA06	21/11/2008
31936735	M02AA06	15/04/2008
31647102	M02AA06	21/07/2004
31534740	M02AA06	10/01/2011
31613901	M02AA06	03/07/2009
31306717	M02AA06	09/10/2009
31656010	M02AA06	29/06/2009
32250083	M02AA06	02/11/2010
31254302	M02AA06	27/11/2008
31925806	M02AA06	18/03/2009
31817457	M02AA06	01/02/2010
31476713	M02AA06	21/12/2009
31766558	M02AA06	04/06/2004
32159782	M02AA06	08/10/2009
31089238	M02AA06	12/02/2008
32092391	M02AA06	14/06/2004
31126133	M02AA06	29/08/2007
31445281	M02AA06	13/03/2009
32091415	M02AA06	21/05/2004
31720251	M02AA06	28/08/2007
32012934	M02AA06	22/08/2007
31444827	M02AA06	29/08/2008
31848507	M02AA06	15/12/2008
31724163	M02AA06	09/05/2008
31819648	M02AA06	29/04/2003
31949691	M02AA06	08/01/2008
32059744	M02AA06	14/07/2010
31403807	M02AA06	17/06/2009
32203926	M02AA06	24/10/2006
31548173	M02AA06	10/08/2009
31522805	M02AA06	25/04/2005
31309161	M02AA06	17/07/2006
31258967	M02AA06	19/11/2004
31188039	M02AA06	10/12/2009
31938734	M02AA06	10/01/2008
31076403	M02AA06	12/04/2005
31657268	M02AA06	17/04/2006
31487065	M02AA06	18/06/2008
31608584	M02AA06	20/12/2007
31348815	M02AA06	16/03/2007
31326292	M02AA06	05/05/2006
31381073	M02AA06	30/09/2004
32129473	M02AA06	19/11/2007
31307812	M02AA06	03/06/2008
32265630	M02AA06	02/02/2006
31073086	M02AA06	22/06/2010
32223637	M02AA06	20/04/2004
31273240	M02AA06	04/01/2007
31579343	M02AA06	01/12/2006
31755351	M02AA06	31/07/2007
31683931	M02AA06	30/06/2009
32109768	M02AA06	30/06/2006
31968700	M02AA06	15/12/2006
31824276	M02AA06	30/03/2004
31742008	M02AA06	30/09/2004
31877363	M02AA06	11/03/2003
31697500	M02AA06	18/03/2009
31329423	M02AA06	24/08/2009
31758759	M02AA06	10/08/2007
32079324	M02AA06	19/07/2007
31944943	M02AA06	27/12/2010
32194931	M02AA06	16/06/2010
31101996	M02AA06	03/06/2005
31725926	M02AA06	26/09/2001
31453269	M02AA06	19/12/2003
31553390	M02AA06	12/06/2008
32190489	M02AA06	11/05/2010
32205231	M02AA06	19/07/2005
31711892	M02AA06	04/03/2009
32007326	M02AA06	08/09/2009
31334282	M02AA06	30/10/2009
31665416	M02AA06	02/11/2006
31672025	M02AA06	13/11/2009
31031117	M02AA06	19/04/2007
31904808	M02AA06	18/05/2005
31520527	M02AA06	09/08/2007
31739715	M02AA06	21/05/2002
31927282	M02AA06	08/02/2008
31163879	M02AA06	11/06/2010
31382341	M02AA06	25/11/2009
32196272	M02AA06	04/04/2001
31080402	M02AA06	04/02/2005
31639285	M02AA06	07/10/2003
32253466	M02AA06	18/08/2010
31548747	M02AA06	22/01/2008
31493005	M02AA06	08/04/2011
31448770	M02AA06	24/06/2008
31143409	M02AA06	18/04/2008
31822263	M02AA06	27/04/2007
31237625	M02AA06	23/12/2009
31052272	M02AA06	09/12/2005
31515814	M02AA06	08/08/2006
31102748	M02AA06	25/09/2007
31478675	M02AA06	18/02/2008
31830506	M02AA06	06/11/2003
32210034	M02AA06	19/01/2001
31783128	M02AA06	03/12/2009
31337953	M02AA06	07/08/2008
32142008	M02AA06	04/12/2006
31605696	M02AA06	23/02/2007
31176367	M02AA06	20/09/2010
31682121	M02AA06	03/10/2008
31145497	M02AA06	03/03/2004
31126064	M02AA06	13/11/2008
31929700	M02AA06	23/10/2006
31770506	M02AA06	11/10/2007
32016456	M02AA06	29/12/2005
31687887	M02AA06	04/02/2005
32014179	M02AA06	04/11/2003
31576739	M02AA06	17/06/2008
31349007	M02AA06	30/03/2010
32262590	M02AA06	14/08/2007
31053935	M02AA06	08/11/2010
31977948	M02AA06	28/05/2009
32207420	M02AA06	25/05/2004
31981251	M02AA06	09/07/2010
31760431	M02AA06	02/07/2008
31718355	M02AA06	12/11/2008
32257706	M02AA06	27/09/2010
31186969	M02AA06	06/10/2004
31202980	M02AA06	25/02/2010
31517413	M02AA06	19/02/2008
32281526	M02AA06	15/11/2010
31490502	M02AA06	21/04/2004
31812494	M02AA06	26/05/2005
31318653	M02AA06	09/05/2007
32253685	M02AA06	13/12/2007
31538518	M02AA06	16/06/2009
31260854	M02AA06	24/07/2009
31206444	M02AA06	24/11/2003
32026871	M02AA06	11/12/2009
31879102	M02AA06	21/02/2005
31665530	M02AA06	10/07/2007
31788106	M02AA06	09/02/2006
31964287	M02AA06	15/12/2008
31591023	M02AA06	11/08/2006
32105540	M02AA06	04/03/2011
31314418	M02AA06	27/03/2007
31126735	M02AA06	21/09/2005
32155937	M02AA06	11/01/2006
31736383	M02AA06	02/04/2007
31083826	M02AA06	11/10/2006
31844229	M02AA06	16/12/2010
32016098	M02AA06	05/02/2008
31897149	M02AA06	25/06/2007
31854529	M02AA06	24/11/2005
32194941	M02AA06	23/06/2004
32266454	M02AA06	10/12/2009
31330113	M02AA06	18/11/2009
31603013	M02AA06	19/07/2005
32280905	M02AA06	17/10/2003
32257105	M02AA06	14/05/2007
31653156	M02AA06	20/11/2009
32004090	M02AA06	22/03/2007
31976789	M02AA06	14/05/2007
31159520	M02AA06	31/05/2005
31449578	M02AA06	19/11/2009
31528004	M02AA06	25/11/2004
31819062	M02AA06	21/07/2008
31638137	M02AA06	13/07/2009
31790134	M02AA06	02/02/2007
31893641	M02AA06	18/02/2009
31227221	M02AA06	02/09/2010
31863861	M02AA06	19/04/2005
31432953	M02AA06	24/11/2004
32029614	M02AA06	26/04/2007
31418783	M02AA06	16/08/2007
31479508	M02AA06	07/03/2003
32069570	M02AA06	08/04/2008
32053883	M02AA06	29/06/2009
31536931	M02AA06	23/05/2008
31290437	M02AA06	09/06/2005
31317319	M02AA06	31/01/2005
31089113	M02AA06	20/05/2008
31396223	M02AA06	02/12/2009
32192670	M02AA06	19/10/2005
31752102	M02AA06	16/12/2009
31732633	M02AA06	12/04/2007
31615865	M02AA06	15/06/2009
31900396	M02AA06	10/11/2003
31797705	M02AA06	01/06/2009
31751029	M02AA06	03/05/2007
31855887	M02AA06	19/02/2008
31421108	M02AA06	25/07/2006
32237490	M02AA06	01/07/2009
31197469	M02AA06	07/09/2010
32143088	M02AA06	25/11/2008
32255955	M02AA06	19/01/2005
32070505	M02AA06	29/05/2007
31222269	M02AA06	14/09/2006
32197242	M02AA06	02/02/2009
31549235	M02AA06	16/09/2008
31820747	M02AA06	03/07/2009
31165916	M02AA06	30/03/2006
32205678	M02AA06	10/11/2010
31549325	M02AA06	07/12/2009
31333007	M02AA06	14/03/2008
31049468	M02AA06	30/04/2008
31624367	M02AA06	05/05/2008
31807657	M02AA06	27/10/2003
31124763	M02AA06	28/02/2007
32011511	M02AA06	28/04/2008
31398669	M02AA06	23/05/2008
31333245	M02AA06	26/08/2008
32178757	M02AA06	20/05/2004
32142477	M02AA06	11/04/2007
31647108	M02AA06	13/02/2008
31850117	M02AA06	26/05/2005
31504109	M02AA06	16/01/2004
