patient_id	covar_name	date
9311739	M01AC06	27/11/2006
10332522	M01AC06	03/06/2005
10245764	M01AC06	03/04/2007
729621	M01AC06	09/06/2010
6040714	M01AC06	29/11/2007
21859577	M01AC06	12/09/2006
61642	M01AC06	16/03/2006
3331774	M01AC06	16/01/2008
6417675	M01AC06	20/02/2007
6749631	M01AC06	23/03/2006
10001615	M01AC06	18/05/2009
61487	M01AC06	29/09/2003
9340914	M01AC06	13/03/2006
21153398	M01AC06	02/01/2007
8559269	M01AC06	20/06/2006
9249976	M01AC06	16/10/2007
3354089	M01AC06	13/10/2009
3503101	M01AC06	10/02/2005
12479067	M01AC06	14/02/2007
10003193	M01AC06	02/08/2007
10603970	M01AC06	15/11/2007
3288904	M01AC06	20/05/2005
949632	M01AC06	25/11/2010
16977223	M01AC06	03/10/2006
6748364	M01AC06	05/10/2006
9373512	M01AC06	28/03/2007
6235942	M01AC06	01/12/2010
10003991	M01AC06	21/04/2006
1434506	M01AC06	10/08/2006
7335727	M01AC06	05/09/2008
15064574	M01AC06	30/12/2005
21153444	M01AC06	02/03/2006
7353549	M01AC06	20/02/2006
12688723	M01AC06	24/08/2006
3939012	M01AC06	18/08/2009
6751368	M01AC06	05/07/2004
6748141	M01AC06	21/02/2008
23443312	M01AC06	18/11/2010
25043628	M01AC06	06/04/2009
12857769	M01AC06	24/02/2010
1069732	M01AC06	17/11/2010
9268428	M01AC06	12/01/2011
10268349	M01AC06	30/05/2005
6080444	M01AC06	09/08/2006
12830688	M01AC06	23/01/2009
23442333	M01AC06	14/04/2005
6749026	M01AC06	17/11/2008
1461145	M01AC06	28/07/2003
12694616	M01AC06	27/06/2006
8567614	M01AC06	12/07/2010
5031499	M01AC06	06/04/2010
10270239	M01AC06	07/09/2007
24721420	M01AC06	12/07/2007
24937833	M01AC06	24/05/2010
1069182	M01AC06	28/07/2008
7095356	M01AC06	27/12/2005
16531906	M01AC06	13/07/2006
612341	M01AC06	14/02/2005
24938766	M01AC06	07/12/2010
7151632	M01AC06	27/01/2010
23442756	M01AC06	25/02/2008
9371647	M01AC06	24/01/2011
1069020	M01AC06	09/01/2006
9285061	M01AC06	23/07/2008
3288866	M01AC06	20/06/2008
12690478	M01AC06	09/10/2007
6744255	M01AC06	20/12/2005
12479856	M01AC06	09/09/2003
21152676	M01AC06	18/07/2006
16531942	M01AC06	15/11/2007
11957639	M01AC06	23/10/2009
12695067	M01AC06	30/11/2007
10271438	M01AC06	16/03/2011
12689672	M01AC06	06/05/2011
9274459	M01AC06	05/06/2006
7383099	M01AC06	17/05/2007
16554489	M01AC06	17/01/2011
25071403	M01AC06	14/12/2009
1607459	M01AC06	20/01/2009
1940935	M01AC06	04/05/2009
12857478	M01AC06	20/05/2010
16978129	M01AC06	06/07/2005
15273153	M01AC06	08/07/2010
1069069	M01AC06	15/10/2010
11993430	M01AC06	22/05/2007
10003771	M01AC06	24/10/2008
603045	M01AC06	24/02/2010
21152296	M01AC06	12/09/2007
10332859	M01AC06	04/04/2006
1936084	M01AC06	08/02/2011
6748351	M01AC06	24/09/2009
12831650	M01AC06	10/11/2008
1303002	M01AC06	04/10/2005
1069551	M01AC06	26/02/2007
9231095	M01AC06	18/05/2010
1067499	M01AC06	09/07/2008
12302432	M01AC06	28/02/2011
7404595	M01AC06	26/09/2008
1517495	M01AC06	11/05/2009
16671617	M01AC06	28/05/2010
17434848	M01AC06	18/08/2009
9231512	M01AC06	18/09/2007
8699018	M01AC06	13/02/2004
611828	M01AC06	23/03/2006
12831015	M01AC06	04/11/2009
12766814	M01AC06	03/11/2006
9210774	M01AC06	14/10/2009
16530712	M01AC06	17/12/2008
25042008	M01AC06	01/10/2009
8974881	M01AC06	02/11/2009
8989341	M01AC06	21/02/2008
608337	M01AC06	25/09/2003
10394089	M01AC06	23/04/2007
6143196	M01AC06	09/01/2006
730440	M01AC06	27/11/2009
731545	M01AC06	04/09/2009
8569369	M01AC06	31/10/2007
945347	M01AC06	31/05/2011
19230673	M01AC06	21/04/2008
25051546	M01AC06	04/09/2006
940401	M01AC06	22/09/2010
9304311	M01AC06	14/12/2010
25052219	M01AC06	23/06/2008
9328308	M01AC06	03/04/2008
9226926	M01AC06	24/03/2010
10605420	M01AC06	16/10/2007
20565596	M01AC06	08/08/2006
12695481	M01AC06	15/12/2005
8570485	M01AC06	22/03/2011
6752418	M01AC06	09/03/2010
14858420	M01AC06	03/07/2007
12790379	M01AC06	30/07/2009
7094703	M01AC06	10/08/2004
22024900	M01AC06	28/04/2009
20529755	M01AC06	10/12/2010
9304423	M01AC06	05/08/2003
6415215	M01AC06	02/02/2007
10003227	M01AC06	11/05/2006
12766507	M01AC06	06/04/2005
9323777	M01AC06	31/05/2006
6748368	M01AC06	16/11/2007
25063184	M01AC06	18/02/2004
12739708	M01AC06	21/03/2007
9285511	M01AC06	27/10/2010
24864967	M01AC06	24/04/2007
1069550	M01AC06	29/10/2003
10004179	M01AC06	27/02/2008
9384479	M01AC06	07/06/2005
15669345	M01AC06	09/12/2008
1067775	M01AC06	19/11/2010
23441979	M01AC06	17/11/2010
9388023	M01AC06	18/11/2008
10002746	M01AC06	13/05/2008
1424358	M01AC06	01/10/2004
4700861	M01AC06	01/03/2011
1417651	M01AC06	03/10/2008
24720121	M01AC06	26/07/2010
1446158	M01AC06	30/04/2007
1352974	M01AC06	12/11/2001
6601589	M01AC06	19/10/2005
12614422	M01AC06	31/10/2007
1296516	M01AC06	17/07/2007
1264701	M01AC06	19/02/2010
1852451	M01AC06	14/09/2000
6212219	M01AC06	19/05/2009
1205551	M01AC06	02/04/2009
8934911	M01AC06	16/04/2007
12612964	M01AC06	13/06/2006
24718852	M01AC06	12/03/2010
647695	M01AC06	10/07/2006
515444	M01AC06	20/01/2010
638967	M01AC06	23/09/2008
1209248	M01AC06	20/03/2007
1200640	M01AC06	26/03/2008
1205817	M01AC06	30/03/2009
1262655	M01AC06	09/11/2010
4699898	M01AC06	20/06/2005
6595352	M01AC06	01/07/2005
1353433	M01AC06	20/08/2009
7770971	M01AC06	30/10/2002
6604048	M01AC06	05/06/2002
1546702	M01AC06	29/07/2004
7777409	M01AC06	10/04/2007
13986469	M01AC06	30/12/2010
1353807	M01AC06	22/07/2009
6593866	M01AC06	19/04/2004
1445979	M01AC06	09/06/2006
641933	M01AC06	20/11/2003
1205262	M01AC06	13/05/2011
1670557	M01AC06	16/12/2005
1418023	M01AC06	29/03/2007
524498	M01AC06	18/05/2001
6211809	M01AC06	19/08/2005
6594082	M01AC06	06/07/2004
6594887	M01AC06	15/02/2002
6599454	M01AC06	08/04/2011
6602978	M01AC06	16/07/2003
1669715	M01AC06	11/01/2006
7776735	M01AC06	10/03/2010
8061402	M01AC06	11/12/2002
12613148	M01AC06	06/10/2004
4700483	M01AC06	29/12/2009
515787	M01AC06	28/10/2003
1206150	M01AC06	03/04/2007
648183	M01AC06	21/10/2008
4363537	M01AC06	18/02/2009
641313	M01AC06	17/04/2008
6367124	M01AC06	12/07/2010
1205994	M01AC06	20/04/2010
15738137	M01AC06	29/12/2010
1264156	M01AC06	20/04/2011
1420732	M01AC06	31/05/2002
12189158	M01AC06	21/10/2008
8067453	M01AC06	26/01/2004
1205375	M01AC06	21/04/2009
4700171	M01AC06	29/10/2008
1356070	M01AC06	27/04/2011
1547572	M01AC06	01/08/2003
6601213	M01AC06	26/06/2008
1852461	M01AC06	25/05/1999
7966714	M01AC06	19/05/2009
7966509	M01AC06	23/05/2011
4700472	M01AC06	24/10/2006
7777513	M01AC06	11/03/2010
6598268	M01AC06	09/06/2006
6595121	M01AC06	21/06/2004
7969204	M01AC06	11/01/2006
4699503	M01AC06	30/05/2011
4700452	M01AC06	24/04/2008
6425452	M01AC06	26/02/2004
7769413	M01AC06	24/03/2008
641672	M01AC06	19/01/2004
639355	M01AC06	26/01/2004
1204015	M01AC06	16/12/2010
1353317	M01AC06	23/04/2008
7967559	M01AC06	08/06/2007
525618	M01AC06	19/12/2002
1278011	M01AC06	27/12/2001
6423611	M01AC06	23/06/2003
1443262	M01AC06	02/02/2009
1262999	M01AC06	02/12/2009
23843778	M01AC06	30/01/2008
1545327	M01AC06	04/11/2009
7580200	M01AC06	22/11/2010
8357140	M01AC06	22/04/2008
4700277	M01AC06	18/04/2011
13986679	M01AC06	02/11/2007
1263138	M01AC06	19/06/2009
7848835	M01AC06	21/08/2010
25884256	M01AC06	22/12/2010
1133473	M01AC06	06/02/2007
3672726	M01AC06	26/07/2007
1638449	M01AC06	22/07/2010
1638216	M01AC06	16/08/2005
25883724	M01AC06	06/06/2005
1132264	M01AC06	03/11/2008
717570	M01AC06	30/01/2009
1134894	M01AC06	10/06/2009
1130346	M01AC06	27/07/2009
6598193	M01AC06	19/11/2006
1639524	M01AC06	18/10/2010
486362	M01AC06	27/12/2007
1638022	M01AC06	07/11/2006
1638747	M01AC06	19/04/2007
6950924	M01AC06	10/11/2009
1638786	M01AC06	12/05/2004
716480	M01AC06	11/11/2009
1100704	M01AC06	26/04/2011
1101869	M01AC06	11/06/2004
4678867	M01AC06	28/11/2008
1102247	M01AC06	03/01/2007
195582	M01AC06	30/08/2004
1103757	M01AC06	27/01/2006
1103355	M01AC06	19/05/2008
1100188	M01AC06	03/03/2005
1640838	M01AC06	16/06/2005
25767664	M01AC06	21/10/2010
1638565	M01AC06	04/10/2005
4688914	M01AC06	08/02/2007
6899947	M01AC06	17/03/2008
6914096	M01AC06	19/10/2010
1103441	M01AC06	09/05/2011
4675807	M01AC06	01/04/2009
1135310	M01AC06	16/08/2005
994239	M01AC06	07/03/2011
1638850	M01AC06	29/07/2004
1101830	M01AC06	23/07/2007
1102451	M01AC06	27/05/2003
1638220	M01AC06	11/06/2008
1111259	M01AC06	13/07/2007
25889094	M01AC06	31/08/2009
1580789	M01AC06	04/01/2005
16037274	M01AC06	26/01/2009
486308	M01AC06	05/07/2005
25894850	M01AC06	11/02/2010
716545	M01AC06	12/06/2009
1102009	M01AC06	25/08/2003
1639056	M01AC06	11/09/2006
1101989	M01AC06	31/08/2010
135815	M01AC06	24/03/1999
1552120	M01AC06	12/07/2004
1641017	M01AC06	28/02/2005
1640338	M01AC06	01/09/2010
25894824	M01AC06	01/07/2010
25892496	M01AC06	06/03/2008
996393	M01AC06	09/08/2004
192735	M01AC06	30/09/2004
1103928	M01AC06	03/05/2006
1640729	M01AC06	04/03/2008
194827	M01AC06	23/03/2007
486077	M01AC06	17/12/2004
194090	M01AC06	30/07/2010
1066880	M01AC06	29/03/2004
1135038	M01AC06	22/04/2010
1638244	M01AC06	25/04/2011
487173	M01AC06	23/11/2005
1110455	M01AC06	29/06/2005
1134708	M01AC06	04/01/2006
1031773	M01AC06	16/01/2004
25776775	M01AC06	23/05/2011
1648548	M01AC06	22/11/2006
1101207	M01AC06	22/01/2009
1103551	M01AC06	12/12/2002
997266	M01AC06	03/05/2004
2043930	M01AC06	17/09/2007
2217407	M01AC06	12/02/2007
2138308	M01AC06	14/03/2007
2214495	M01AC06	04/03/2008
2214534	M01AC06	30/06/2008
2070225	M01AC06	25/02/2005
2070964	M01AC06	02/07/2009
1638660	M01AC06	25/04/2003
2058996	M01AC06	05/05/2008
2109210	M01AC06	31/01/2011
2133258	M01AC06	26/05/2009
2043315	M01AC06	27/10/2005
2139511	M01AC06	10/02/2011
2214563	M01AC06	07/10/2008
2140686	M01AC06	20/12/2006
2133531	M01AC06	23/10/2007
2139418	M01AC06	26/05/2005
858856	M01AC06	11/11/2002
1755010	M01AC06	22/08/2006
874596	M01AC06	21/11/2007
758615	M01AC06	22/06/2007
859956	M01AC06	16/01/2006
875533	M01AC06	22/01/2002
1755826	M01AC06	25/04/2011
2053456	M01AC06	10/12/2007
2136703	M01AC06	22/12/2009
2035752	M01AC06	05/05/2004
2053540	M01AC06	18/09/2007
2109639	M01AC06	31/05/2007
2138285	M01AC06	18/06/2010
2043588	M01AC06	22/12/2008
902237	M01AC06	09/07/2002
859110	M01AC06	14/08/2008
1762485	M01AC06	27/01/2006
876130	M01AC06	26/09/2000
1765141	M01AC06	21/08/2007
1766578	M01AC06	15/12/2010
875480	M01AC06	04/07/2001
903206	M01AC06	21/09/2005
904619	M01AC06	01/07/2003
902142	M01AC06	10/03/2010
874253	M01AC06	02/02/2011
1763515	M01AC06	21/08/2006
2759226	M01AC06	13/03/2007
2758263	M01AC06	09/02/2009
7134993	M01AC06	18/11/2003
3050289	M01AC06	15/06/2005
2057791	M01AC06	16/02/2010
902525	M01AC06	01/07/2002
902575	M01AC06	03/07/2003
1762246	M01AC06	11/03/2004
903248	M01AC06	23/05/2008
1679643	M01AC06	12/04/2006
1766657	M01AC06	19/05/2005
1762839	M01AC06	14/02/2011
875569	M01AC06	17/11/2004
2777238	M01AC06	06/09/2007
7038536	M01AC06	15/05/2007
2775987	M01AC06	20/01/2011
3054684	M01AC06	19/06/2008
2812104	M01AC06	16/07/2009
2778659	M01AC06	14/01/2009
2778683	M01AC06	23/03/2011
2774863	M01AC06	19/05/2011
2780455	M01AC06	22/10/2007
2778364	M01AC06	18/10/2005
2762396	M01AC06	01/06/2011
3055002	M01AC06	26/06/2003
3049128	M01AC06	10/08/2004
7043389	M01AC06	30/04/2004
2766082	M01AC06	21/05/2004
2780055	M01AC06	13/04/2011
2755178	M01AC06	07/06/2005
2525787	M01AC06	04/06/2009
2512738	M01AC06	07/05/2007
2574919	M01AC06	05/09/2003
2520741	M01AC06	18/08/2006
2525988	M01AC06	27/07/2004
2755836	M01AC06	04/08/2003
2765533	M01AC06	22/07/2009
16980304	M01AC06	06/04/2004
11163810	M01AC06	03/07/2009
2753218	M01AC06	12/02/2004
17040721	M01AC06	14/03/2006
2525914	M01AC06	03/05/2006
2407008	M01AC06	29/12/2004
2573859	M01AC06	02/01/2009
2764242	M01AC06	24/04/2003
16948347	M01AC06	11/04/2011
12970363	M01AC06	15/05/2008
2755397	M01AC06	06/02/2008
2754978	M01AC06	10/07/2008
12215748	M01AC06	12/04/2007
26460364	M01AC06	08/02/2011
26424856	M01AC06	20/04/2009
26384044	M01AC06	22/05/2009
28049312	M01AC06	27/04/2004
26456181	M01AC06	10/05/2010
28045160	M01AC06	10/01/2011
26461925	M01AC06	31/03/2006
28063102	M01AC06	12/07/2005
7137547	M01AC06	28/09/2006
20147123	M01AC06	04/08/2005
7229461	M01AC06	05/09/2005
7134844	M01AC06	17/05/2007
26237160	M01AC06	10/02/2011
7229328	M01AC06	01/03/2004
17041146	M01AC06	21/01/2009
7137238	M01AC06	26/05/2010
7137260	M01AC06	16/10/2006
20146851	M01AC06	06/06/2006
17323541	M01AC06	28/12/2005
7229425	M01AC06	07/03/2011
18222956	M01AC06	11/07/2006
6990388	M01AC06	20/04/2007
26338968	M01AC06	11/02/2005
26462371	M01AC06	02/02/2011
26455732	M01AC06	03/02/2005
26409825	M01AC06	08/05/2003
26182006	M01AC06	07/05/2007
22092867	M01AC06	21/06/2007
26349981	M01AC06	31/10/2006
26244463	M01AC06	27/12/2007
26306610	M01AC06	21/06/2005
26285056	M01AC06	02/12/2010
15732511	M01AC06	26/03/2009
17041013	M01AC06	05/04/2010
17041018	M01AC06	14/04/2011
8117960	M01AC06	25/05/2009
17040796	M01AC06	29/03/2011
7228892	M01AC06	03/02/2004
7228900	M01AC06	07/12/2006
11091916	M01AC06	13/03/2009
17323744	M01AC06	13/01/2010
14347072	M01AC06	29/07/2009
11162423	M01AC06	10/05/2011
12472322	M01AC06	17/07/2009
17323625	M01AC06	08/04/2009
7253070	M01AC06	23/02/2009
304879	M01AC06	28/12/2010
304932	M01AC06	27/02/2009
1900806	M01AC06	17/12/2005
425123	M01AC06	15/05/2008
422896	M01AC06	04/10/2010
464363	M01AC06	13/09/2010
421262	M01AC06	10/03/2004
185633	M01AC06	29/08/2007
420644	M01AC06	10/04/2006
2215741	M01AC06	22/03/2010
877449	M01AC06	20/04/2007
28090753	M01AC06	24/01/2003
28091901	M01AC06	10/12/2004
3054239	M01AC06	28/02/2008
28083670	M01AC06	12/12/2009
28092355	M01AC06	10/05/2004
2215450	M01AC06	01/04/2008
28083095	M01AC06	08/05/2008
2777704	M01AC06	28/03/2007
28091118	M01AC06	20/10/2010
2777779	M01AC06	26/08/2009
2778926	M01AC06	10/12/2009
26457855	M01AC06	26/10/2010
904007	M01AC06	12/06/2008
28090931	M01AC06	10/09/2004
28072491	M01AC06	29/04/2010
2055267	M01AC06	17/12/2004
28080061	M01AC06	19/01/2005
2045428	M01AC06	10/10/2007
17041007	M01AC06	04/04/2007
17324548	M01AC06	21/10/2004
427372	M01AC06	07/01/2002
303884	M01AC06	01/04/2005
265904	M01AC06	22/01/2003
419430	M01AC06	11/04/2005
187527	M01AC06	12/11/2008
183588	M01AC06	27/06/2008
423811	M01AC06	08/10/1999
185305	M01AC06	24/08/2006
185854	M01AC06	11/03/2005
874613	M01AC06	05/03/2010
28071895	M01AC06	10/12/2010
28043953	M01AC06	10/01/2011
28060981	M01AC06	05/08/2008
28072361	M01AC06	04/08/2006
28080744	M01AC06	07/05/2010
28060557	M01AC06	19/12/2003
28071032	M01AC06	24/03/2008
875829	M01AC06	19/04/2006
28066246	M01AC06	17/06/2004
28058671	M01AC06	04/08/2009
24669944	M01AC06	25/10/2005
24663344	M01AC06	13/10/2008
24671421	M01AC06	20/11/2009
24668092	M01AC06	11/07/2008
25741980	M01AC06	26/08/2009
25727066	M01AC06	13/09/2010
25740545	M01AC06	16/12/2009
25743793	M01AC06	27/08/2009
421960	M01AC06	31/12/2001
1900288	M01AC06	09/05/2011
1903682	M01AC06	06/04/2010
927467	M01AC06	03/02/2010
1903723	M01AC06	08/04/2010
1367046	M01AC06	26/10/2004
1363047	M01AC06	04/10/2005
1911322	M01AC06	31/05/2007
1373981	M01AC06	07/11/2003
1013147	M01AC06	02/09/2005
1366896	M01AC06	28/09/2004
19801995	M01AC06	23/10/2002
21063153	M01AC06	28/08/2006
18196791	M01AC06	03/10/2007
18187579	M01AC06	20/10/2006
19422888	M01AC06	12/01/2009
3230752	M01AC06	17/06/2005
1910115	M01AC06	22/05/2008
2988326	M01AC06	08/09/2005
1899549	M01AC06	07/10/2003
1899552	M01AC06	16/12/2005
1018757	M01AC06	31/03/2004
1016009	M01AC06	07/04/2010
26831736	M01AC06	05/12/2009
26701873	M01AC06	09/03/2011
26856096	M01AC06	06/06/2007
26707647	M01AC06	07/10/2010
26707649	M01AC06	08/07/2010
26703830	M01AC06	13/01/2006
26790948	M01AC06	12/04/2007
26831751	M01AC06	30/12/2009
26706338	M01AC06	30/08/2004
26835533	M01AC06	02/10/2008
26853499	M01AC06	11/03/2009
22881924	M01AC06	02/02/2005
13872249	M01AC06	10/03/2006
12974334	M01AC06	26/03/2009
12993757	M01AC06	24/01/2005
12975735	M01AC06	17/03/2010
24663343	M01AC06	22/03/2010
24654532	M01AC06	17/08/2005
26717898	M01AC06	05/10/2004
26625650	M01AC06	09/01/2004
26722846	M01AC06	20/01/2006
26701106	M01AC06	28/04/2005
26616690	M01AC06	07/04/2008
26617547	M01AC06	29/03/2011
26627915	M01AC06	02/10/2006
26706433	M01AC06	22/06/2010
26705536	M01AC06	23/06/2010
26720626	M01AC06	20/04/2005
26703240	M01AC06	10/05/2006
26640331	M01AC06	16/03/2009
24582582	M01AC06	21/12/2010
24668853	M01AC06	22/05/2007
24581631	M01AC06	05/04/2005
22882178	M01AC06	14/07/2006
26938219	M01AC06	15/05/2007
26946205	M01AC06	04/04/2011
26941361	M01AC06	14/01/2011
26894979	M01AC06	07/12/2010
26940680	M01AC06	01/02/2011
26946237	M01AC06	22/11/2004
26934370	M01AC06	08/10/2009
26920797	M01AC06	21/07/2005
26948632	M01AC06	13/12/2004
26945353	M01AC06	21/04/2004
26890470	M01AC06	26/02/2010
26937963	M01AC06	30/08/2004
26934561	M01AC06	27/04/2011
26759164	M01AC06	17/02/2009
26714333	M01AC06	23/05/2011
26715786	M01AC06	22/10/2009
26854601	M01AC06	21/08/2008
26848964	M01AC06	24/05/2004
26776408	M01AC06	21/09/2010
26714937	M01AC06	27/01/2009
26854197	M01AC06	28/01/2009
26714825	M01AC06	27/03/2007
26874424	M01AC06	11/06/2010
26874283	M01AC06	25/05/2009
26948825	M01AC06	23/03/2009
26881042	M01AC06	10/08/2005
26900308	M01AC06	04/10/2010
26858643	M01AC06	07/04/2009
26850877	M01AC06	08/05/2008
26856371	M01AC06	23/11/2006
26856655	M01AC06	27/07/2007
26793287	M01AC06	14/02/2008
26835238	M01AC06	02/03/2009
26812125	M01AC06	07/10/2005
26789993	M01AC06	07/08/2008
26704060	M01AC06	12/01/2006
26833689	M01AC06	15/12/2008
26947328	M01AC06	30/01/2007
27052262	M01AC06	25/05/2010
26955339	M01AC06	06/11/2007
26967298	M01AC06	01/10/2004
26989053	M01AC06	18/02/2006
26988800	M01AC06	22/12/2009
26966264	M01AC06	07/08/2006
27043376	M01AC06	26/06/2006
27071882	M01AC06	26/04/2006
27071926	M01AC06	22/02/2006
27105324	M01AC06	27/04/2011
27114769	M01AC06	04/11/2010
27084455	M01AC06	21/07/2008
27116884	M01AC06	21/01/2011
27085859	M01AC06	07/12/2005
27086190	M01AC06	19/11/2010
27086224	M01AC06	05/09/2005
27083147	M01AC06	27/05/2010
27024673	M01AC06	09/12/2004
27137945	M01AC06	30/01/2004
27106884	M01AC06	02/12/2005
27078255	M01AC06	11/01/2006
27100098	M01AC06	03/05/2011
27151506	M01AC06	22/05/2006
27084312	M01AC06	24/02/2007
27086986	M01AC06	17/07/2010
27043665	M01AC06	16/06/2005
27067204	M01AC06	06/05/2011
27043480	M01AC06	23/08/2006
27043981	M01AC06	23/08/2005
27073118	M01AC06	24/02/2009
27082854	M01AC06	11/02/2010
27042753	M01AC06	27/10/2004
27044414	M01AC06	31/03/2009
27111690	M01AC06	17/09/2009
27033292	M01AC06	15/07/2008
27063122	M01AC06	18/04/2011
27034398	M01AC06	27/12/2007
27116353	M01AC06	28/03/2006
27037502	M01AC06	31/08/2005
27012391	M01AC06	04/02/2010
27042189	M01AC06	04/05/2005
27000418	M01AC06	16/10/2010
27039385	M01AC06	03/10/2007
27042240	M01AC06	09/05/2006
27042121	M01AC06	25/05/2006
27023735	M01AC06	07/02/2011
27026487	M01AC06	18/09/2008
26996376	M01AC06	06/10/2005
26996261	M01AC06	03/09/2010
26993286	M01AC06	27/11/2006
26993137	M01AC06	18/01/2006
27022026	M01AC06	01/10/2010
27032118	M01AC06	26/08/2009
27172399	M01AC06	20/08/2009
27168688	M01AC06	08/04/2010
27169345	M01AC06	18/01/2011
27170821	M01AC06	10/02/2011
27152044	M01AC06	21/10/2007
27171122	M01AC06	31/03/2006
27166936	M01AC06	22/09/2009
27172241	M01AC06	02/11/2005
27172057	M01AC06	16/03/2009
27146985	M01AC06	02/11/2006
27163611	M01AC06	05/10/2004
27384510	M01AC06	13/03/2006
27167505	M01AC06	23/12/2005
27365421	M01AC06	22/06/2005
27247303	M01AC06	05/07/2010
27216925	M01AC06	25/05/2010
27247991	M01AC06	18/05/2011
27349311	M01AC06	20/05/2011
27355027	M01AC06	22/01/2007
27358246	M01AC06	09/11/2005
27170681	M01AC06	10/02/2009
27348027	M01AC06	22/01/2007
27168973	M01AC06	20/09/2005
27358502	M01AC06	29/08/2006
26992485	M01AC06	19/02/2008
27286648	M01AC06	27/11/2002
26945772	M01AC06	05/05/2008
26955105	M01AC06	25/08/2008
27210972	M01AC06	25/08/2010
26988666	M01AC06	25/01/2007
27169743	M01AC06	30/04/2009
27597168	M01AC06	10/09/2007
27595904	M01AC06	03/08/2010
27595400	M01AC06	13/03/2008
27589231	M01AC06	05/05/2009
27592604	M01AC06	26/11/2008
27596955	M01AC06	14/02/2006
27596311	M01AC06	27/02/2008
27613638	M01AC06	24/08/2009
27646502	M01AC06	16/11/2004
27476407	M01AC06	11/09/2006
27473960	M01AC06	07/08/2007
27493376	M01AC06	26/06/2006
27493393	M01AC06	30/03/2006
27647443	M01AC06	28/09/2005
27474475	M01AC06	10/10/2005
27472401	M01AC06	10/12/2004
27473971	M01AC06	25/02/2010
27420939	M01AC06	21/10/2010
27543287	M01AC06	06/09/2004
27764749	M01AC06	01/04/2003
27707969	M01AC06	02/12/2005
27765512	M01AC06	06/11/2003
27759030	M01AC06	30/07/2006
27763475	M01AC06	14/03/2005
27570752	M01AC06	07/08/2008
27756732	M01AC06	07/10/2009
27570581	M01AC06	22/07/2008
27756656	M01AC06	03/09/2008
27614612	M01AC06	10/11/2006
27623442	M01AC06	14/09/2001
27566088	M01AC06	25/01/2010
27571569	M01AC06	13/03/2009
27153665	M01AC06	14/09/2005
27228930	M01AC06	31/07/2007
27230589	M01AC06	18/08/2005
27163037	M01AC06	27/06/2009
27166399	M01AC06	15/06/2009
27285401	M01AC06	25/02/2002
27153250	M01AC06	05/02/2004
27147685	M01AC06	23/08/2001
27129091	M01AC06	24/05/2011
27167937	M01AC06	05/10/2009
27284645	M01AC06	11/01/2011
27149164	M01AC06	24/09/2010
27782560	M01AC06	30/07/2009
27162838	M01AC06	27/05/2008
26959831	M01AC06	23/04/2011
27252613	M01AC06	18/11/2010
27355622	M01AC06	10/04/2006
27533964	M01AC06	30/11/2007
27772053	M01AC06	07/09/2005
27716439	M01AC06	06/02/2009
27533855	M01AC06	25/03/2008
27533892	M01AC06	23/04/2008
27458286	M01AC06	10/03/2008
27539683	M01AC06	22/01/2010
27719839	M01AC06	01/06/2011
27563283	M01AC06	11/11/2009
27679322	M01AC06	11/08/2005
27480464	M01AC06	14/09/2010
27782467	M01AC06	29/05/2003
27530707	M01AC06	23/02/2008
27475520	M01AC06	09/03/2005
27457636	M01AC06	07/11/2005
27679944	M01AC06	03/03/2005
27779766	M01AC06	20/05/2005
27509297	M01AC06	16/03/2006
27515560	M01AC06	10/03/2011
27771990	M01AC06	15/09/2009
27783400	M01AC06	02/01/2004
26776231	M01AC06	02/04/2009
27680594	M01AC06	14/09/2001
27668538	M01AC06	26/09/2007
27109811	M01AC06	22/11/2005
27771463	M01AC06	26/11/2009
27781732	M01AC06	18/04/2006
27646450	M01AC06	28/08/2006
27648593	M01AC06	14/02/2006
27480179	M01AC06	30/06/2006
27442007	M01AC06	22/03/2005
27608043	M01AC06	07/11/2005
27515977	M01AC06	08/06/2010
27475366	M01AC06	20/01/2009
27496273	M01AC06	10/03/2010
27477049	M01AC06	16/05/2011
26933407	M01AC06	07/04/2010
21651701	M01AC06	22/11/2005
27171129	M01AC06	01/07/2009
22883469	M01AC06	15/09/2005
22883305	M01AC06	03/06/2010
27663255	M01AC06	19/08/2008
27797221	M01AC06	25/04/2006
27805828	M01AC06	17/05/2011
27666334	M01AC06	22/04/2008
27676260	M01AC06	25/09/2008
27808474	M01AC06	13/06/2003
27716815	M01AC06	02/03/2007
27716826	M01AC06	17/02/2010
27670711	M01AC06	27/02/2006
27795914	M01AC06	21/09/2005
27667214	M01AC06	13/06/2007
27170744	M01AC06	21/09/2009
27352070	M01AC06	31/01/2011
26951341	M01AC06	05/10/2009
27309041	M01AC06	21/05/2007
27780213	M01AC06	08/06/2005
27588768	M01AC06	09/07/2007
27680864	M01AC06	24/02/2009
27369005	M01AC06	23/01/2008
26941998	M01AC06	13/09/2010
27782172	M01AC06	04/11/2003
27716323	M01AC06	24/02/2009
26711256	M01AC06	08/06/2006
27765475	M01AC06	18/11/2009
27782003	M01AC06	21/10/2005
27799572	M01AC06	05/12/2003
27806522	M01AC06	30/07/2010
27028528	M01AC06	28/10/2008
27087876	M01AC06	11/05/2011
33040260	M01AC06	04/07/2007
33112774	M01AC06	17/11/2008
33043346	M01AC06	09/09/2010
33051320	M01AC06	25/08/2008
33061414	M01AC06	24/09/2009
33018984	M01AC06	19/05/2011
33100103	M01AC06	02/10/2007
33022764	M01AC06	28/02/2011
33099558	M01AC06	06/06/2001
33098550	M01AC06	08/04/2011
33033701	M01AC06	05/12/2007
33086922	M01AC06	30/11/2007
33092896	M01AC06	14/10/2004
33041016	M01AC06	09/02/2007
33109326	M01AC06	26/05/2010
33062908	M01AC06	29/10/2008
33033119	M01AC06	19/11/2008
33074802	M01AC06	28/02/2006
33089459	M01AC06	20/09/2006
33013872	M01AC06	27/08/2003
33098852	M01AC06	04/06/2002
33030987	M01AC06	09/12/2009
33103468	M01AC06	29/01/2008
33065445	M01AC06	20/04/2007
33041335	M01AC06	20/11/2009
33028516	M01AC06	13/11/2007
33043194	M01AC06	06/03/2009
33060437	M01AC06	20/10/2005
33071273	M01AC06	02/04/2007
33045042	M01AC06	23/03/2004
33025640	M01AC06	02/02/2007
33091047	M01AC06	22/09/2009
33008987	M01AC06	30/06/2010
33023079	M01AC06	05/09/2008
33038577	M01AC06	18/04/2008
33036483	M01AC06	08/11/2006
33086083	M01AC06	05/09/2005
33010518	M01AC06	18/11/2005
33097238	M01AC06	10/06/2004
33083077	M01AC06	29/01/2009
33065720	M01AC06	07/03/2006
33050069	M01AC06	16/04/2007
33016797	M01AC06	19/10/2009
33110326	M01AC06	30/04/2004
33116686	M01AC06	22/01/2008
33109340	M01AC06	25/01/2010
33070878	M01AC06	09/08/2010
33066807	M01AC06	04/11/2009
33111017	M01AC06	11/05/2011
33053364	M01AC06	22/04/2004
33017020	M01AC06	24/04/2007
33066288	M01AC06	19/09/2007
33052130	M01AC06	24/11/2010
33068276	M01AC06	23/12/2010
33097581	M01AC06	06/06/2003
33105550	M01AC06	23/08/2010
33058394	M01AC06	12/12/2007
33024115	M01AC06	18/06/2001
33066943	M01AC06	19/08/2010
33072303	M01AC06	21/03/2011
33072253	M01AC06	27/09/2007
33079795	M01AC06	24/02/2004
33117202	M01AC06	19/06/2008
33108978	M01AC06	16/12/2008
33115962	M01AC06	28/01/2011
33104669	M01AC06	22/05/2007
33006134	M01AC06	23/10/2002
33107937	M01AC06	28/02/2005
33020581	M01AC06	15/06/2005
33123534	M01AC06	31/07/2008
33020304	M01AC06	20/09/2001
33056441	M01AC06	08/06/2007
33012828	M01AC06	18/03/2011
33013033	M01AC06	16/01/2007
33000142	M01AC06	25/04/2002
33098168	M01AC06	28/04/2003
33060211	M01AC06	11/12/2003
33071618	M01AC06	18/05/2011
33111158	M01AC06	16/05/2005
33016075	M01AC06	10/02/2011
33065816	M01AC06	14/02/2011
33050206	M01AC06	04/11/2009
33072776	M01AC06	11/10/2005
33102563	M01AC06	10/07/2003
33001862	M01AC06	09/01/2006
33066001	M01AC06	27/08/2010
33033051	M01AC06	12/07/2001
33037551	M01AC06	07/09/2009
27680372	M01AC06	12/05/2004
26637123	M01AC06	31/05/2011
26624685	M01AC06	15/02/2007
33042521	M01AC06	30/12/2005
183728	M01AC06	04/09/2007
27800569	M01AC06	12/09/2005
27800265	M01AC06	06/09/2004
27805343	M01AC06	16/11/2005
26852078	M01AC06	05/05/2008
27796565	M01AC06	29/05/2006
186822	M01AC06	27/02/2009
33066382	M01AC06	28/07/2008
23408153	M01AC06	28/12/2009
33037240	M01AC06	14/10/2009
16773808	M01AC06	26/11/2007
33109924	M01AC06	12/05/2010
16653328	M01AC06	19/05/2011
23407522	M01AC06	11/12/2009
33314256	M01AC06	04/05/2011
16634931	M01AC06	13/09/2010
33060507	M01AC06	05/12/2007
16654622	M01AC06	12/04/2007
33306049	M01AC06	10/11/2008
16135369	M01AC06	16/06/2009
16612746	M01AC06	10/03/2006
33012908	M01AC06	16/12/2003
33114304	M01AC06	25/05/2010
33024104	M01AC06	18/03/2008
33020265	M01AC06	25/11/2003
33030547	M01AC06	04/02/2002
33026712	M01AC06	10/09/2001
33015324	M01AC06	14/03/2011
33052133	M01AC06	16/08/2006
33051621	M01AC06	02/07/2003
33063405	M01AC06	22/11/2004
33088532	M01AC06	15/01/2010
33013638	M01AC06	23/10/2008
33049911	M01AC06	24/03/2011
33024855	M01AC06	29/10/2003
33000877	M01AC06	26/02/2010
33079595	M01AC06	17/09/2010
33112492	M01AC06	16/02/2005
33060011	M01AC06	24/03/2011
33020070	M01AC06	20/02/2009
33025768	M01AC06	10/10/2001
33033729	M01AC06	01/06/2011
33002545	M01AC06	11/10/2006
33074768	M01AC06	02/08/2010
33005415	M01AC06	05/03/2008
33086557	M01AC06	21/03/2005
33043124	M01AC06	09/05/2011
33055487	M01AC06	26/08/2009
33045325	M01AC06	07/02/2006
33012899	M01AC06	22/11/2006
33065950	M01AC06	11/05/2009
33026483	M01AC06	11/02/2009
33073688	M01AC06	27/03/2006
33085766	M01AC06	31/01/2011
33005144	M01AC06	16/12/2008
33081131	M01AC06	31/03/2004
33030998	M01AC06	28/04/2009
33099087	M01AC06	23/07/2008
33091322	M01AC06	04/02/2011
33105580	M01AC06	20/04/2010
33087055	M01AC06	04/06/2003
33073628	M01AC06	03/11/2009
33084091	M01AC06	24/08/2007
33129945	M01AC06	12/06/2009
33028356	M01AC06	21/04/2004
33099799	M01AC06	01/02/2005
33112092	M01AC06	18/10/2007
33083819	M01AC06	21/05/2010
33072181	M01AC06	09/10/2007
33012988	M01AC06	06/04/2004
33201120	M01AC06	26/09/2008
16166636	M01AC06	13/06/2008
16625249	M01AC06	17/02/2010
16652899	M01AC06	28/11/2008
16135178	M01AC06	06/05/2008
16138404	M01AC06	23/06/2008
16138850	M01AC06	13/01/2004
23407899	M01AC06	24/11/2009
16134895	M01AC06	01/06/2011
16610929	M01AC06	17/11/2006
16625697	M01AC06	12/04/2007
33233293	M01AC06	01/06/2010
33231347	M01AC06	18/05/2011
33315653	M01AC06	27/12/2010
28005728	M01AC06	12/05/2011
14188303	M01AC06	03/02/2003
16181498	M01AC06	25/08/2009
16610882	M01AC06	27/05/2011
16165687	M01AC06	03/11/2008
33293731	M01AC06	14/11/2002
33254673	M01AC06	08/04/2011
23362937	M01AC06	06/02/2009
33299575	M01AC06	15/09/2010
21109099	M01AC06	28/04/2006
23382344	M01AC06	09/03/2007
18765826	M01AC06	14/09/2004
16138565	M01AC06	28/03/2005
16606979	M01AC06	19/07/2010
18758326	M01AC06	14/06/2007
18755678	M01AC06	13/05/2011
16609636	M01AC06	09/06/2009
16705669	M01AC06	03/05/2011
16183490	M01AC06	18/01/2002
28005534	M01AC06	07/05/2008
16612949	M01AC06	29/04/2004
16626180	M01AC06	25/11/2005
16626099	M01AC06	15/09/2008
21115002	M01AC06	03/04/2009
16138984	M01AC06	08/08/2002
33221017	M01AC06	02/08/2007
16165721	M01AC06	12/05/2008
16621553	M01AC06	31/01/2006
23411989	M01AC06	09/12/2010
23337230	M01AC06	11/04/2006
18769370	M01AC06	07/10/2010
16652686	M01AC06	26/05/2009
16165612	M01AC06	23/02/2009
14188147	M01AC06	26/04/2002
18765623	M01AC06	14/07/2006
23406440	M01AC06	30/06/2006
23406127	M01AC06	13/11/2006
28015053	M01AC06	12/05/2011
16607281	M01AC06	19/09/2007
23326017	M01AC06	14/12/2004
33207727	M01AC06	03/03/2011
23355216	M01AC06	16/03/2010
23326929	M01AC06	04/03/2004
16637922	M01AC06	12/06/2007
33225982	M01AC06	06/02/2009
16615324	M01AC06	02/03/2011
27975673	M01AC06	21/07/2008
28026267	M01AC06	25/05/2011
18757709	M01AC06	05/02/2010
33266891	M01AC06	04/09/2008
16639460	M01AC06	14/02/2008
31778183	M01AC06	30/10/2006
31260586	M01AC06	25/01/2008
33307676	M01AC06	27/04/2011
16773532	M01AC06	10/03/2011
23334083	M01AC06	12/12/2007
16613468	M01AC06	31/05/2005
23349604	M01AC06	27/05/2011
16186433	M01AC06	04/05/2006
23349644	M01AC06	12/08/2003
23310316	M01AC06	05/06/2009
16623344	M01AC06	06/07/2005
23354686	M01AC06	06/12/2009
21114237	M01AC06	12/09/2008
20981736	M01AC06	01/06/2011
23353743	M01AC06	19/02/2007
20981775	M01AC06	17/12/2007
23353918	M01AC06	22/01/2008
23367214	M01AC06	10/12/2009
18764796	M01AC06	14/04/2004
23408437	M01AC06	22/02/2008
16181041	M01AC06	12/05/2011
23410678	M01AC06	27/05/2011
31126405	M01AC06	08/08/2005
32035438	M01AC06	19/04/2006
31043924	M01AC06	17/02/2006
31949519	M01AC06	29/11/2005
31178740	M01AC06	27/09/2005
31313850	M01AC06	06/02/2006
31122088	M01AC06	16/11/2005
32154846	M01AC06	24/11/2004
31532768	M01AC06	16/08/2006
31838503	M01AC06	18/10/2004
31386556	M01AC06	07/01/2004
31226034	M01AC06	05/10/2010
31117278	M01AC06	07/07/2010
32091220	M01AC06	27/11/2009
31465800	M01AC06	12/03/2010
31904660	M01AC06	20/04/2006
31589693	M01AC06	31/01/2007
31750446	M01AC06	13/10/2005
32026760	M01AC06	09/04/2008
31921252	M01AC06	18/12/2006
31285255	M01AC06	25/08/2008
31082542	M01AC06	22/02/2007
31037188	M01AC06	28/06/2005
31979808	M01AC06	24/09/2008
31310556	M01AC06	29/09/2005
31607158	M01AC06	04/07/2006
31195757	M01AC06	10/09/2008
31074296	M01AC06	27/10/2009
31758571	M01AC06	07/06/2001
31796372	M01AC06	11/10/2010
31996663	M01AC06	21/02/2007
31267881	M01AC06	29/04/2002
31156348	M01AC06	03/01/2008
31577746	M01AC06	22/07/2004
31318979	M01AC06	16/02/2010
31523326	M01AC06	26/11/2007
31043915	M01AC06	14/03/2006
32190654	M01AC06	09/12/2008
32194913	M01AC06	21/02/2011
32083278	M01AC06	26/11/2004
31692601	M01AC06	26/05/2006
31355341	M01AC06	30/11/2007
31207975	M01AC06	28/02/2007
31642302	M01AC06	11/01/2002
31230585	M01AC06	17/08/2007
31787535	M01AC06	28/11/2006
31462347	M01AC06	12/05/2004
31097075	M01AC06	08/11/2006
31787133	M01AC06	06/09/2006
31259515	M01AC06	26/04/2006
32199313	M01AC06	14/12/2009
31390699	M01AC06	20/12/2005
32087272	M01AC06	29/11/2006
31119305	M01AC06	21/07/2003
31324814	M01AC06	31/05/2007
31324576	M01AC06	31/07/2006
31609959	M01AC06	06/02/2007
31111511	M01AC06	25/05/2006
31557995	M01AC06	22/03/2007
32057379	M01AC06	15/09/2006
31554764	M01AC06	22/07/2009
31328173	M01AC06	16/03/2007
32242515	M01AC06	22/04/2004
31267473	M01AC06	01/06/2006
32038212	M01AC06	22/05/2009
31752788	M01AC06	05/01/2006
31616283	M01AC06	23/04/2008
32168735	M01AC06	20/09/2005
32246359	M01AC06	13/05/2004
32166665	M01AC06	12/04/2005
31963757	M01AC06	22/11/2005
31246303	M01AC06	16/01/2004
31979526	M01AC06	20/04/2009
31675988	M01AC06	08/08/2007
31983416	M01AC06	02/11/2006
32248059	M01AC06	19/09/2006
31738398	M01AC06	18/07/2007
31102345	M01AC06	27/10/2008
31873426	M01AC06	20/10/2006
31469090	M01AC06	16/06/2006
31491434	M01AC06	30/04/2008
32146428	M01AC06	15/02/2008
31077840	M01AC06	17/09/2009
32156110	M01AC06	19/02/2009
31381249	M01AC06	20/12/2010
31328921	M01AC06	16/10/2009
31943101	M01AC06	17/07/2006
31370288	M01AC06	18/01/2010
31926336	M01AC06	27/11/2009
31049207	M01AC06	04/11/2008
31892114	M01AC06	06/08/2007
32093110	M01AC06	12/09/2008
32283839	M01AC06	17/12/2009
31342310	M01AC06	14/06/2006
31903099	M01AC06	09/12/2005
31416932	M01AC06	07/11/2006
31822514	M01AC06	30/11/2007
31054792	M01AC06	18/07/2005
31083744	M01AC06	19/06/2009
31579814	M01AC06	23/07/2009
31225273	M01AC06	04/11/2004
31538580	M01AC06	27/10/2005
31731345	M01AC06	23/05/2005
32106342	M01AC06	08/10/2007
32013323	M01AC06	23/03/2006
31328924	M01AC06	11/12/2006
31922721	M01AC06	19/06/2007
31977169	M01AC06	13/09/2005
31203374	M01AC06	18/03/2009
32044425	M01AC06	14/03/2008
32074407	M01AC06	09/02/2011
31537958	M01AC06	13/10/2004
31722183	M01AC06	22/03/2011
31704498	M01AC06	07/02/2005
31584904	M01AC06	06/07/2006
32052348	M01AC06	28/04/2006
31697928	M01AC06	09/11/2005
31790214	M01AC06	22/04/2008
31528243	M01AC06	08/01/2004
31440365	M01AC06	28/01/2004
31773930	M01AC06	15/05/2009
31216186	M01AC06	19/09/2006
31350240	M01AC06	04/01/2005
31124913	M01AC06	16/08/2006
31031330	M01AC06	10/11/2009
31554738	M01AC06	26/05/2009
31369355	M01AC06	25/08/2003
31689803	M01AC06	05/11/2004
31830918	M01AC06	11/08/2005
31559193	M01AC06	21/02/2002
31627822	M01AC06	13/11/2006
31890843	M01AC06	14/12/2005
31178001	M01AC06	09/03/2009
31665027	M01AC06	15/03/2005
32081702	M01AC06	24/11/2005
31585946	M01AC06	16/01/2006
31927982	M01AC06	30/10/2006
31108030	M01AC06	09/02/2005
31745772	M01AC06	09/11/2004
32079331	M01AC06	09/12/2005
31477629	M01AC06	07/08/2003
31098750	M01AC06	17/11/2008
31938416	M01AC06	15/03/2007
31745109	M01AC06	02/10/2006
32139283	M01AC06	08/08/2005
32278996	M01AC06	24/09/2009
32258145	M01AC06	27/06/2003
31282414	M01AC06	01/10/2004
31651246	M01AC06	01/03/2006
31053170	M01AC06	30/06/2010
32199258	M01AC06	11/08/2009
31576384	M01AC06	22/09/2009
31373620	M01AC06	23/12/2008
31682435	M01AC06	19/10/2006
31828310	M01AC06	09/02/2004
31622713	M01AC06	01/02/2005
31775370	M01AC06	14/07/2009
31770635	M01AC06	25/11/2009
32260330	M01AC06	24/10/2005
31148626	M01AC06	25/01/2005
31538662	M01AC06	07/11/2008
31858004	M01AC06	29/04/2008
32244255	M01AC06	21/02/2003
31390850	M01AC06	16/02/2007
31177768	M01AC06	17/03/2008
31895165	M01AC06	17/01/2007
31697821	M01AC06	02/12/2008
31401562	M01AC06	12/01/2007
31940782	M01AC06	29/05/2009
31165776	M01AC06	21/01/2009
31186394	M01AC06	22/12/2004
31789005	M01AC06	30/09/2003
31660701	M01AC06	28/04/2004
31526446	M01AC06	23/02/2007
31941810	M01AC06	01/10/2010
31998738	M01AC06	27/12/2006
32115409	M01AC06	02/11/2005
31335672	M01AC06	26/08/2010
31673640	M01AC06	17/04/2007
31232500	M01AC06	23/10/2006
31768821	M01AC06	16/09/2009
31557066	M01AC06	28/05/2004
31185558	M01AC06	26/01/2006
32017201	M01AC06	12/02/2001
31693536	M01AC06	31/03/2006
31664100	M01AC06	17/03/2009
31687550	M01AC06	18/10/2005
32229216	M01AC06	10/07/2006
31743549	M01AC06	10/08/2006
32032672	M01AC06	01/12/2003
31285403	M01AC06	27/05/2005
32280955	M01AC06	25/10/2005
31316151	M01AC06	24/06/2004
32141974	M01AC06	16/02/2006
31628762	M01AC06	27/12/2006
31750115	M01AC06	29/10/2004
31731142	M01AC06	11/07/2005
32240004	M01AC06	19/06/2006
31172170	M01AC06	28/12/2006
31298297	M01AC06	15/06/2005
32200367	M01AC06	12/08/2003
31685583	M01AC06	07/09/2009
32227466	M01AC06	14/04/2009
31128087	M01AC06	20/05/2005
31617915	M01AC06	07/07/2006
32105527	M01AC06	13/08/2009
32116733	M01AC06	16/10/2008
31497778	M01AC06	28/10/2005
32094579	M01AC06	17/07/2007
31502915	M01AC06	29/06/2005
31782918	M01AC06	09/07/2002
31505938	M01AC06	30/01/2007
31633130	M01AC06	16/12/2003
32013249	M01AC06	05/09/2006
31826383	M01AC06	12/01/2009
31765504	M01AC06	16/05/2002
32157023	M01AC06	26/09/2007
31820931	M01AC06	08/01/2007
32179337	M01AC06	26/06/2006
31419213	M01AC06	08/02/2010
31619120	M01AC06	20/10/2009
31331521	M01AC06	20/07/2006
31538537	M01AC06	03/12/2008
31766221	M01AC06	25/11/2009
31143643	M01AC06	11/09/2009
31109895	M01AC06	13/07/2004
31784866	M01AC06	28/10/2002
31827495	M01AC06	28/02/2006
32187498	M01AC06	28/02/2003
31672694	M01AC06	18/08/2008
31984866	M01AC06	18/05/2007
31564399	M01AC06	18/05/2009
31258782	M01AC06	07/03/2007
32259318	M01AC06	27/07/2005
31597078	M01AC06	02/01/2008
32080097	M01AC06	19/10/2009
31407464	M01AC06	16/07/2003
31384268	M01AC06	31/07/2009
32112633	M01AC06	26/03/2009
31346856	M01AC06	10/02/2009
31174190	M01AC06	06/08/2007
31211614	M01AC06	22/10/2008
31054768	M01AC06	02/03/2006
31605887	M01AC06	07/12/2007
31747041	M01AC06	03/02/2006
32250443	M01AC06	08/08/2002
31813832	M01AC06	22/12/2003
31169763	M01AC06	12/05/2005
31936343	M01AC06	12/02/2009
31633490	M01AC06	14/03/2007
31135885	M01AC06	04/03/2009
31889249	M01AC06	16/09/2008
31901788	M01AC06	10/10/2006
31654996	M01AC06	17/03/2009
31527790	M01AC06	03/12/2009
31336014	M01AC06	25/11/2005
31670185	M01AC06	04/04/2005
31537972	M01AC06	21/11/2006
31632909	M01AC06	28/07/2005
31054507	M01AC06	08/03/2007
31171608	M01AC06	23/07/2009
31532897	M01AC06	10/12/2008
31659118	M01AC06	27/12/2005
31824277	M01AC06	14/11/2008
32257488	M01AC06	11/06/2007
31729599	M01AC06	05/03/2002
31378839	M01AC06	21/09/2006
31652044	M01AC06	07/02/2007
31051001	M01AC06	02/06/2005
31031831	M01AC06	06/05/2010
31220049	M01AC06	05/01/2007
32141842	M01AC06	09/10/2006
32038162	M01AC06	17/07/2008
31609748	M01AC06	23/07/2009
31325838	M01AC06	01/06/2005
31575578	M01AC06	28/03/2008
31161794	M01AC06	28/02/2011
32217922	M01AC06	30/03/2007
32094124	M01AC06	02/12/2005
31477325	M01AC06	06/04/2006
32257370	M01AC06	12/01/2005
32083993	M01AC06	23/04/2008
31198323	M01AC06	10/09/2007
32263249	M01AC06	26/10/2009
32007468	M01AC06	15/04/2005
31175621	M01AC06	17/10/2006
31962312	M01AC06	03/12/2009
31339785	M01AC06	08/11/2007
32089790	M01AC06	08/02/2007
31375081	M01AC06	08/10/2008
31938524	M01AC06	22/04/2009
31057431	M01AC06	25/10/2007
32143143	M01AC06	15/06/2006
31054095	M01AC06	05/04/2006
31090012	M01AC06	08/09/2005
32014336	M01AC06	28/10/2009
31705386	M01AC06	22/03/2011
31434499	M01AC06	30/01/2004
31805527	M01AC06	23/11/2009
31378201	M01AC06	26/07/2004
32232823	M01AC06	15/06/2005
31522054	M01AC06	24/06/2003
31777213	M01AC06	12/05/2008
31925806	M01AC06	02/11/2005
32242989	M01AC06	03/03/2000
32159782	M01AC06	16/12/2009
32249939	M01AC06	30/05/2008
31118426	M01AC06	05/04/2006
31126133	M01AC06	09/11/2006
32141661	M01AC06	16/04/2009
31702764	M01AC06	29/10/2009
31847191	M01AC06	01/02/2005
32200828	M01AC06	10/08/2006
31055737	M01AC06	13/08/2008
32164020	M01AC06	29/01/2010
32203926	M01AC06	17/01/2005
31184541	M01AC06	22/09/2008
31177447	M01AC06	20/08/2007
31305570	M01AC06	13/03/2006
31753804	M01AC06	22/02/2006
31216309	M01AC06	01/12/2009
32171804	M01AC06	29/08/2007
32045804	M01AC06	21/01/2011
32024696	M01AC06	24/10/2008
31250490	M01AC06	04/01/2011
31445382	M01AC06	05/06/2006
31758759	M01AC06	15/03/2006
31725926	M01AC06	03/03/2005
31613697	M01AC06	07/02/2011
31032144	M01AC06	20/10/2006
31665416	M01AC06	04/07/2006
31883663	M01AC06	27/07/2005
31180076	M01AC06	20/05/2010
31621633	M01AC06	03/12/2008
31848757	M01AC06	26/10/2005
32221090	M01AC06	06/04/2005
31385542	M01AC06	20/06/2006
32079666	M01AC06	11/03/2005
32152276	M01AC06	06/10/2005
31910311	M01AC06	08/05/2006
31901024	M01AC06	02/12/2004
32273927	M01AC06	15/12/2009
31759943	M01AC06	11/07/2002
32158955	M01AC06	15/04/2008
31703754	M01AC06	07/11/2007
31168630	M01AC06	14/07/2006
31515814	M01AC06	17/08/2007
31830506	M01AC06	07/02/2007
31783128	M01AC06	06/10/2005
31682121	M01AC06	03/09/2007
31145497	M01AC06	27/01/2004
31641752	M01AC06	10/01/2006
31344355	M01AC06	26/12/2005
31361602	M01AC06	20/12/2006
32008833	M01AC06	16/01/2007
31703364	M01AC06	16/12/2008
32129515	M01AC06	28/10/2008
32221527	M01AC06	03/10/2005
31756059	M01AC06	22/09/2006
31532333	M01AC06	24/10/2005
32129489	M01AC06	26/09/2007
31495297	M01AC06	28/01/2005
31870354	M01AC06	12/01/2004
31560929	M01AC06	07/12/2005
31933305	M01AC06	18/04/2007
31522715	M01AC06	07/07/2004
32225962	M01AC06	25/07/2007
32253685	M01AC06	06/06/2006
31728355	M01AC06	27/07/2005
31532640	M01AC06	07/02/2011
31490180	M01AC06	27/12/2007
32242783	M01AC06	11/07/2006
31814249	M01AC06	30/08/2006
32021899	M01AC06	21/05/2009
32280905	M01AC06	10/04/2006
31102716	M01AC06	27/07/2005
31572849	M01AC06	16/04/2008
31790134	M01AC06	18/06/2007
31459563	M01AC06	29/09/2005
32234308	M01AC06	13/12/2009
31673165	M01AC06	29/01/2004
31931082	M01AC06	02/09/2005
32207231	M01AC06	20/10/2010
31206884	M01AC06	03/12/2001
31882443	M01AC06	01/06/2009
32183049	M01AC06	12/08/2005
31470956	M01AC06	15/12/2006
31771015	M01AC06	05/11/2007
32095886	M01AC06	18/02/2008
31227279	M01AC06	18/12/2008
31824460	M01AC06	29/06/2004
32218115	M01AC06	16/11/2009
31793463	M01AC06	02/08/2002
31454501	M01AC06	02/02/2006
31524901	M01AC06	02/07/2004
32205678	M01AC06	06/07/2010
31443097	M01AC06	05/07/2004
31566843	M01AC06	18/06/2010
31564838	M01AC06	03/02/2005
32011511	M01AC06	01/07/2009
32238133	M01AC06	02/02/2010
31778043	M01AC06	07/02/2008
31833338	M01AC06	07/02/2006
32142477	M01AC06	22/05/2007
32248123	M01AC06	19/07/2007
