patient_id	covar_name	date
7349356	M01AB01	15/10/2008
9319410	M01AB01	21/03/2006
10270337	M01AB01	15/10/2010
6040714	M01AB01	04/11/2008
13222987	M01AB01	14/03/2008
8655621	M01AB01	19/03/2008
9984973	M01AB01	04/07/2007
732079	M01AB01	30/08/2004
23455261	M01AB01	12/05/2009
21153398	M01AB01	13/12/2005
11407938	M01AB01	16/06/2004
949238	M01AB01	11/07/2003
9298997	M01AB01	09/06/2008
8979056	M01AB01	24/05/2011
1069599	M01AB01	12/04/2010
21153105	M01AB01	23/05/2007
24730115	M01AB01	06/05/2008
9231971	M01AB01	29/04/2011
10393855	M01AB01	25/10/2010
8654299	M01AB01	06/09/2010
9212611	M01AB01	13/12/2010
10394066	M01AB01	26/04/2005
3288904	M01AB01	19/10/2004
12479828	M01AB01	10/08/2006
3123234	M01AB01	04/06/2004
21152552	M01AB01	18/06/2010
12689869	M01AB01	26/09/2008
939943	M01AB01	16/06/2005
7335727	M01AB01	19/09/2008
9319630	M01AB01	01/06/2011
1515940	M01AB01	10/01/2005
10332940	M01AB01	21/04/2006
3322587	M01AB01	18/06/2009
9178196	M01AB01	05/01/2006
1069732	M01AB01	04/06/2008
13223810	M01AB01	27/10/2010
24937833	M01AB01	04/01/2006
17216427	M01AB01	20/08/2008
9294943	M01AB01	30/06/2010
8655802	M01AB01	16/10/2009
12739874	M01AB01	11/02/2011
3120195	M01AB01	23/02/2009
17170094	M01AB01	25/04/2006
8279117	M01AB01	03/01/2008
8989666	M01AB01	13/10/2008
1125167	M01AB01	19/11/2004
8975603	M01AB01	07/09/2004
23471462	M01AB01	28/05/2009
10267871	M01AB01	14/11/2007
5812460	M01AB01	03/05/2010
10393847	M01AB01	03/07/2009
10604775	M01AB01	13/07/2007
12186603	M01AB01	13/01/2003
21974194	M01AB01	16/03/2006
25041900	M01AB01	02/11/2009
19184518	M01AB01	28/03/2011
7221119	M01AB01	27/09/2005
947534	M01AB01	14/02/2002
1068919	M01AB01	25/05/2006
704267	M01AB01	17/02/2006
8642044	M01AB01	31/03/2008
1936084	M01AB01	22/07/2010
21870725	M01AB01	27/09/2006
9382262	M01AB01	08/07/2009
701680	M01AB01	26/09/2008
3329757	M01AB01	07/08/2006
945609	M01AB01	09/06/2004
9376288	M01AB01	03/03/2011
20546433	M01AB01	11/01/2007
8569187	M01AB01	08/09/2008
3291956	M01AB01	15/04/2010
1068416	M01AB01	07/11/2007
1515452	M01AB01	31/07/2003
4836831	M01AB01	31/03/2009
1936960	M01AB01	07/01/2010
9382397	M01AB01	29/05/2009
10002562	M01AB01	05/05/2008
9304311	M01AB01	08/11/2005
24764394	M01AB01	04/01/2010
25052219	M01AB01	26/05/2011
7160662	M01AB01	16/11/2005
8785262	M01AB01	05/04/2010
611337	M01AB01	01/08/2008
12856801	M01AB01	03/02/2004
12800078	M01AB01	20/12/2005
3333455	M01AB01	04/11/2005
10270381	M01AB01	21/02/2006
15900346	M01AB01	01/06/2009
15375732	M01AB01	12/05/2011
8783486	M01AB01	07/05/2009
7094703	M01AB01	24/08/2004
3503073	M01AB01	07/03/2005
6757758	M01AB01	15/10/2003
173433	M01AB01	10/10/2005
20564355	M01AB01	09/08/2006
20548457	M01AB01	13/02/2006
1937567	M01AB01	13/05/2008
9383229	M01AB01	06/11/2006
12691896	M01AB01	19/10/2009
945163	M01AB01	21/07/2006
1069550	M01AB01	20/11/2007
6415450	M01AB01	17/12/2002
1067775	M01AB01	26/12/2005
10394362	M01AB01	09/06/2006
1445557	M01AB01	24/04/2006
1424358	M01AB01	16/12/2004
639967	M01AB01	22/02/2010
1276114	M01AB01	09/06/2010
8923087	M01AB01	25/02/2009
24941626	M01AB01	07/01/2010
1206466	M01AB01	27/08/2004
26145674	M01AB01	21/03/2008
1850904	M01AB01	26/08/2008
4416098	M01AB01	10/01/2008
1852451	M01AB01	04/05/2000
1852422	M01AB01	29/08/2006
6596593	M01AB01	03/02/2010
7972566	M01AB01	04/05/2011
1199932	M01AB01	25/03/2011
1276765	M01AB01	18/08/2010
1417003	M01AB01	01/07/2003
1666039	M01AB01	09/03/2009
5992233	M01AB01	26/01/2011
1445979	M01AB01	08/05/2009
1091342	M01AB01	01/11/2009
1276998	M01AB01	02/07/2010
4699708	M01AB01	11/04/2008
6594944	M01AB01	02/10/2008
1204129	M01AB01	27/10/2008
6424908	M01AB01	11/11/2002
648183	M01AB01	27/03/2003
6213484	M01AB01	04/11/2004
8956432	M01AB01	20/12/2005
7972720	M01AB01	29/03/2006
1321151	M01AB01	06/10/2004
1665602	M01AB01	10/04/2008
1265356	M01AB01	15/03/2005
1206456	M01AB01	13/04/2011
1295728	M01AB01	21/06/2010
6597726	M01AB01	17/01/2007
6599963	M01AB01	02/01/2009
1200884	M01AB01	27/05/2010
4700171	M01AB01	21/04/2008
7848344	M01AB01	25/01/2007
1210283	M01AB01	12/07/2010
539531	M01AB01	07/04/2003
1208178	M01AB01	23/09/2009
7777513	M01AB01	13/02/2006
7776144	M01AB01	29/05/2009
7770079	M01AB01	22/10/2007
7769677	M01AB01	04/05/2006
1263009	M01AB01	03/05/2011
5162420	M01AB01	16/06/2008
1202324	M01AB01	05/08/2008
6212704	M01AB01	04/08/2006
6602253	M01AB01	19/06/2007
1415968	M01AB01	06/06/2005
24941220	M01AB01	27/04/2011
6592990	M01AB01	04/03/2010
641968	M01AB01	03/04/2009
4700540	M01AB01	20/07/2007
1208324	M01AB01	26/08/2008
641620	M01AB01	27/11/2008
7580200	M01AB01	21/01/2009
24941684	M01AB01	26/05/2011
8066338	M01AB01	06/09/2005
647332	M01AB01	02/07/2009
639310	M01AB01	05/06/2008
646416	M01AB01	04/04/2007
5975450	M01AB01	21/12/2010
12189499	M01AB01	22/12/2006
4687530	M01AB01	24/05/2010
1208371	M01AB01	31/07/2008
1638022	M01AB01	15/01/2003
1641137	M01AB01	29/12/2006
996038	M01AB01	27/07/2010
1638565	M01AB01	15/09/2006
717738	M01AB01	01/04/2003
1099959	M01AB01	12/02/2003
25884624	M01AB01	25/03/2010
1638850	M01AB01	07/03/2001
25889094	M01AB01	05/10/2010
25750805	M01AB01	15/05/2009
1638528	M01AB01	25/09/2001
1552431	M01AB01	13/01/2010
1101335	M01AB01	19/04/2011
996909	M01AB01	29/07/2010
1641017	M01AB01	21/03/2005
1855296	M01AB01	28/04/2011
1103928	M01AB01	06/06/2007
717026	M01AB01	07/04/2006
2216952	M01AB01	09/03/2010
2109549	M01AB01	20/10/2006
2109579	M01AB01	15/10/2004
2109340	M01AB01	23/02/2007
2218729	M01AB01	03/10/2006
2139902	M01AB01	29/11/2006
2059982	M01AB01	14/01/2003
2137012	M01AB01	21/02/2007
2216812	M01AB01	09/11/2004
758615	M01AB01	06/09/2006
758360	M01AB01	16/08/2007
878003	M01AB01	02/10/2001
2140245	M01AB01	25/10/2005
2108829	M01AB01	14/08/2006
904870	M01AB01	30/07/2002
903860	M01AB01	18/03/2005
859454	M01AB01	12/05/2004
755775	M01AB01	12/09/2000
1683307	M01AB01	02/04/2003
1761985	M01AB01	15/07/2008
2759226	M01AB01	01/12/2005
1755227	M01AB01	03/05/2010
1754624	M01AB01	06/05/2011
903911	M01AB01	17/08/2009
876211	M01AB01	06/03/2006
858961	M01AB01	10/09/2001
858702	M01AB01	23/01/2004
3052465	M01AB01	05/10/2005
2776510	M01AB01	30/05/2006
7048223	M01AB01	22/04/2009
2813592	M01AB01	29/08/2007
2779361	M01AB01	29/04/2009
2779249	M01AB01	19/05/2010
3048800	M01AB01	27/04/2011
2774142	M01AB01	04/11/2010
7043469	M01AB01	22/01/2010
2779963	M01AB01	14/03/2007
2811840	M01AB01	16/05/2011
2525787	M01AB01	18/07/2008
2756025	M01AB01	08/07/2004
2519294	M01AB01	27/08/2003
2407695	M01AB01	02/02/2005
17741931	M01AB01	16/12/2004
2573859	M01AB01	20/07/2009
2407047	M01AB01	19/06/2006
26410492	M01AB01	10/09/2005
28053920	M01AB01	10/05/2011
28051262	M01AB01	24/05/2011
28050537	M01AB01	07/03/2011
28049312	M01AB01	03/11/2003
26409445	M01AB01	07/05/2010
17746470	M01AB01	28/04/2000
7137654	M01AB01	05/03/2009
18222779	M01AB01	11/11/2003
7129253	M01AB01	02/10/2002
10908469	M01AB01	06/11/2009
17742348	M01AB01	16/07/2001
26462074	M01AB01	14/11/2007
26261314	M01AB01	20/05/2011
26461292	M01AB01	04/04/2008
26243565	M01AB01	12/04/2005
17041239	M01AB01	24/03/2008
26384460	M01AB01	18/08/2010
26255901	M01AB01	15/05/2009
18472135	M01AB01	04/10/2006
26244463	M01AB01	25/04/2005
17040830	M01AB01	22/08/2006
464151	M01AB01	10/03/2011
876393	M01AB01	29/01/2004
26478302	M01AB01	25/03/2011
28091901	M01AB01	20/10/2008
2753836	M01AB01	10/12/2003
1754240	M01AB01	15/03/2010
28080882	M01AB01	21/07/2008
28091078	M01AB01	03/03/2005
904811	M01AB01	23/12/2008
28091962	M01AB01	17/09/2008
2040821	M01AB01	28/09/2009
2055267	M01AB01	20/03/2006
427309	M01AB01	16/09/2008
424750	M01AB01	10/11/2003
428741	M01AB01	13/06/2006
301938	M01AB01	17/08/2009
28064907	M01AB01	23/04/2008
418315	M01AB01	10/06/2003
186057	M01AB01	22/06/2009
186064	M01AB01	12/11/2002
186935	M01AB01	28/04/2010
28055135	M01AB01	20/06/2007
28055777	M01AB01	01/03/2011
28065834	M01AB01	08/08/2008
28072361	M01AB01	19/01/2011
28049752	M01AB01	13/02/2003
28051807	M01AB01	15/01/2009
28051808	M01AB01	24/04/2008
28087444	M01AB01	02/01/2003
26488704	M01AB01	15/12/2010
28051668	M01AB01	26/09/2008
28071032	M01AB01	30/05/2001
859404	M01AB01	24/04/2003
28072263	M01AB01	05/09/2002
24669944	M01AB01	10/07/1999
25727444	M01AB01	24/03/2004
25742981	M01AB01	29/01/2009
24668665	M01AB01	21/02/2008
25738847	M01AB01	11/05/2004
18190173	M01AB01	21/03/2003
18190199	M01AB01	10/10/2008
1903682	M01AB01	30/06/2006
1367639	M01AB01	13/06/2008
1368084	M01AB01	09/06/2010
41017	M01AB01	29/05/2007
21386520	M01AB01	20/12/2006
18197637	M01AB01	05/03/2003
18195492	M01AB01	21/04/2004
21063340	M01AB01	23/11/2007
2961611	M01AB01	23/05/2006
2251076	M01AB01	20/04/2005
1367330	M01AB01	04/06/2001
2988353	M01AB01	24/06/2008
1371577	M01AB01	11/04/2007
26833829	M01AB01	01/02/2008
26628935	M01AB01	01/03/2011
16568033	M01AB01	06/06/2003
16105997	M01AB01	01/06/2009
13788822	M01AB01	02/09/2003
2988492	M01AB01	07/10/2010
16843976	M01AB01	11/02/2009
26620827	M01AB01	29/03/2011
26620846	M01AB01	30/12/2010
26620234	M01AB01	11/01/2011
26617524	M01AB01	22/05/2007
26617547	M01AB01	25/10/2008
16842391	M01AB01	02/01/2007
26719166	M01AB01	25/08/2009
22883329	M01AB01	02/02/2007
24656409	M01AB01	09/03/2010
22921995	M01AB01	03/04/2007
26936433	M01AB01	03/03/2010
26889853	M01AB01	18/08/2008
26877917	M01AB01	29/06/2010
26846065	M01AB01	20/11/2009
26783665	M01AB01	16/04/2004
26762111	M01AB01	26/07/2010
26717587	M01AB01	09/02/2010
26872603	M01AB01	12/05/2005
26874283	M01AB01	19/07/2010
26876830	M01AB01	05/08/2010
26933046	M01AB01	05/11/2007
26789735	M01AB01	22/04/2005
26957990	M01AB01	24/08/2009
26992609	M01AB01	11/07/2008
26988906	M01AB01	15/09/2008
27086095	M01AB01	23/03/2011
27149654	M01AB01	27/09/2007
27087139	M01AB01	15/04/2011
27064483	M01AB01	25/05/2009
26995047	M01AB01	15/12/2009
27148666	M01AB01	22/03/2007
27171122	M01AB01	03/09/2007
27171067	M01AB01	25/08/2006
27197989	M01AB01	27/01/2010
27313906	M01AB01	25/08/2010
27238000	M01AB01	26/11/2005
27366710	M01AB01	05/02/2007
27210678	M01AB01	20/11/2006
27171600	M01AB01	24/03/2007
27313810	M01AB01	26/09/2007
27345781	M01AB01	23/10/2006
27356077	M01AB01	24/11/2010
27253841	M01AB01	14/02/2006
26957165	M01AB01	18/04/2010
26957237	M01AB01	26/01/2011
27210972	M01AB01	19/01/2011
27241971	M01AB01	03/02/2009
27596970	M01AB01	08/05/2008
27709153	M01AB01	27/05/2008
27493925	M01AB01	14/05/2009
27493267	M01AB01	29/04/2011
27659873	M01AB01	07/12/2001
27543445	M01AB01	30/05/2006
27633199	M01AB01	08/06/2010
27708618	M01AB01	13/08/2010
27568058	M01AB01	30/09/2010
27160809	M01AB01	15/02/2011
27160905	M01AB01	17/11/2004
27159863	M01AB01	03/11/2008
27287115	M01AB01	17/12/2010
26773899	M01AB01	19/11/2007
2960222	M01AB01	05/09/2007
24671344	M01AB01	14/05/2008
27681578	M01AB01	18/02/2011
27687204	M01AB01	23/01/2002
24581729	M01AB01	21/05/2007
26933040	M01AB01	13/10/2009
27663724	M01AB01	17/05/2010
27664493	M01AB01	26/01/2005
27301086	M01AB01	04/08/2010
27321107	M01AB01	04/04/2011
27449518	M01AB01	20/11/2003
27449789	M01AB01	21/07/2004
1910012	M01AB01	30/04/2008
27680237	M01AB01	23/03/2011
27493512	M01AB01	11/02/2010
27441654	M01AB01	29/10/2008
27325643	M01AB01	17/02/2009
27780213	M01AB01	26/05/2009
27676304	M01AB01	24/07/2002
33129627	M01AB01	21/12/2009
33031759	M01AB01	09/10/2008
33061832	M01AB01	02/05/2000
33092896	M01AB01	11/09/2007
33041016	M01AB01	17/07/2001
33062908	M01AB01	24/11/2010
33050061	M01AB01	01/10/2009
33085299	M01AB01	08/02/2005
33089216	M01AB01	24/10/2006
33070878	M01AB01	11/02/2011
33066807	M01AB01	05/05/2005
33111429	M01AB01	22/10/2002
33064809	M01AB01	25/05/2011
33100593	M01AB01	17/11/2003
33071618	M01AB01	11/11/2005
33084983	M01AB01	26/05/2010
33083974	M01AB01	06/04/2005
33067653	M01AB01	14/10/2010
33012303	M01AB01	31/03/2011
27680372	M01AB01	18/10/2010
25727103	M01AB01	17/05/2011
185054	M01AB01	06/10/2004
23320348	M01AB01	23/07/2009
16626027	M01AB01	16/02/2010
27915598	M01AB01	10/03/2011
24463719	M01AB01	04/05/2011
33086631	M01AB01	03/11/2000
33058319	M01AB01	22/11/2007
33106625	M01AB01	16/08/2010
33049405	M01AB01	04/02/2009
33004559	M01AB01	24/02/2011
33101385	M01AB01	06/07/2009
33109860	M01AB01	22/02/2011
33028356	M01AB01	24/07/2003
33027780	M01AB01	05/05/2011
33073595	M01AB01	16/12/2009
33064084	M01AB01	09/08/2004
16179088	M01AB01	10/01/2008
16640297	M01AB01	04/11/2003
16615854	M01AB01	03/05/2011
16606508	M01AB01	18/05/2005
23407899	M01AB01	03/12/2008
18757479	M01AB01	15/10/2009
28015410	M01AB01	02/07/2009
23407371	M01AB01	03/11/2008
16705925	M01AB01	09/11/2000
16652659	M01AB01	21/01/2008
23341131	M01AB01	02/11/2006
16612802	M01AB01	13/07/2006
16649380	M01AB01	24/01/2007
20985317	M01AB01	14/01/2011
23354563	M01AB01	01/02/2007
16684728	M01AB01	11/12/2007
33312501	M01AB01	03/06/2010
24463838	M01AB01	30/05/2005
33214460	M01AB01	02/07/2010
23354092	M01AB01	15/09/2010
23401821	M01AB01	28/04/2011
23414018	M01AB01	28/10/2008
16640187	M01AB01	23/05/2005
33235211	M01AB01	06/03/2008
16603648	M01AB01	03/10/2005
31487753	M01AB01	09/01/2006
32047106	M01AB01	05/07/2007
31799020	M01AB01	22/06/2004
31119324	M01AB01	04/03/2003
16705297	M01AB01	16/02/2006
20986325	M01AB01	28/11/2007
33232018	M01AB01	17/06/2009
27848565	M01AB01	19/05/2004
20985351	M01AB01	29/03/2007
16181041	M01AB01	25/08/2008
32157770	M01AB01	21/08/2008
31132640	M01AB01	25/04/2003
31286749	M01AB01	27/02/2007
31634584	M01AB01	10/05/2011
31638051	M01AB01	25/04/2005
31222630	M01AB01	11/02/2008
31547137	M01AB01	22/05/2000
31129644	M01AB01	05/05/2006
32264948	M01AB01	05/10/2006
31053095	M01AB01	28/12/2004
31948525	M01AB01	08/09/2004
31504878	M01AB01	31/07/2007
31735550	M01AB01	15/09/2003
31385939	M01AB01	19/03/2001
31267839	M01AB01	07/02/2011
31469674	M01AB01	21/07/2009
31112152	M01AB01	24/06/2004
31577920	M01AB01	25/09/2006
31756119	M01AB01	15/04/2008
31156348	M01AB01	17/01/2007
31742897	M01AB01	05/11/2008
31724621	M01AB01	21/09/2006
31787535	M01AB01	09/07/2004
32170654	M01AB01	27/10/2005
32008715	M01AB01	13/08/2003
31826357	M01AB01	18/10/2002
32117832	M01AB01	17/11/2009
31374627	M01AB01	21/12/2004
31121620	M01AB01	13/03/2009
32195861	M01AB01	23/11/2006
31294029	M01AB01	22/04/2004
31619803	M01AB01	09/12/2010
32023890	M01AB01	30/03/2000
31738398	M01AB01	20/07/2004
31884872	M01AB01	30/03/2006
31143129	M01AB01	02/02/2007
31930395	M01AB01	25/06/2003
31849623	M01AB01	10/06/2002
31703414	M01AB01	15/10/2007
32221033	M01AB01	16/05/2007
31728927	M01AB01	20/07/2009
31052455	M01AB01	10/11/2009
31311243	M01AB01	31/01/2006
31381643	M01AB01	02/09/2002
31047188	M01AB01	05/11/2009
31291103	M01AB01	09/09/2009
31620870	M01AB01	17/03/2006
32091134	M01AB01	29/12/2003
31301351	M01AB01	21/03/2005
31181801	M01AB01	16/06/2009
31150111	M01AB01	08/10/2008
32141818	M01AB01	07/04/2008
31136366	M01AB01	09/02/2006
31745915	M01AB01	05/04/2010
31429536	M01AB01	22/03/2010
31473550	M01AB01	24/06/2009
32178350	M01AB01	24/06/2008
32056262	M01AB01	22/06/2006
31410060	M01AB01	08/04/2002
31097143	M01AB01	19/06/2006
31927982	M01AB01	10/01/2005
31723265	M01AB01	26/12/2008
31283139	M01AB01	27/10/2008
32115182	M01AB01	28/04/2005
31745109	M01AB01	23/04/2003
31615395	M01AB01	11/02/2009
32148306	M01AB01	30/01/2008
31087709	M01AB01	09/10/2006
31827264	M01AB01	05/05/2008
31669838	M01AB01	11/07/2005
32189808	M01AB01	14/07/2010
31200904	M01AB01	18/09/2003
31171281	M01AB01	18/09/2008
31392273	M01AB01	07/03/2008
31568634	M01AB01	31/05/2010
31502961	M01AB01	21/10/2002
31223261	M01AB01	05/08/2005
31270762	M01AB01	23/08/2006
31398819	M01AB01	29/07/2004
31466278	M01AB01	26/12/2007
32100016	M01AB01	12/02/2007
31527057	M01AB01	21/04/2004
31999088	M01AB01	26/08/2010
31297860	M01AB01	10/09/2002
31832522	M01AB01	27/12/2007
32115409	M01AB01	25/06/2008
31358155	M01AB01	23/08/2007
31046464	M01AB01	18/05/2007
31298511	M01AB01	10/05/2004
31541366	M01AB01	25/08/2006
31407086	M01AB01	25/05/2006
31729337	M01AB01	21/03/2003
31104821	M01AB01	05/10/2006
32040365	M01AB01	12/12/2007
31628762	M01AB01	29/03/2005
31194543	M01AB01	09/03/2011
32172595	M01AB01	28/04/2004
31932902	M01AB01	05/12/2008
32053549	M01AB01	20/12/2006
31356177	M01AB01	23/08/2006
32227466	M01AB01	26/02/2008
32116733	M01AB01	22/01/2007
31665008	M01AB01	06/06/2005
31474377	M01AB01	31/05/2002
31961565	M01AB01	16/02/2009
31997411	M01AB01	12/11/2007
31236380	M01AB01	06/09/2007
31619120	M01AB01	12/09/2003
31830192	M01AB01	16/08/2005
32095585	M01AB01	12/02/2007
31396352	M01AB01	27/05/2005
32047284	M01AB01	25/03/2008
31867997	M01AB01	12/05/2006
31290320	M01AB01	17/02/2004
31669980	M01AB01	16/02/2011
31684997	M01AB01	05/05/2009
31245311	M01AB01	04/11/2002
32198464	M01AB01	19/10/2009
31232170	M01AB01	08/08/2007
32000334	M01AB01	19/12/2007
31417692	M01AB01	16/03/2009
31864534	M01AB01	28/06/2002
32236449	M01AB01	14/01/2003
31036239	M01AB01	25/05/2009
31704070	M01AB01	21/08/2006
31730497	M01AB01	17/11/2005
31830078	M01AB01	03/11/2008
31422757	M01AB01	28/12/2005
31633490	M01AB01	15/12/2005
31689683	M01AB01	27/08/2007
31864509	M01AB01	13/11/2006
31697645	M01AB01	19/03/2008
32205911	M01AB01	07/07/2009
31632909	M01AB01	23/04/2007
31370471	M01AB01	25/04/2006
32277020	M01AB01	21/01/2004
32130047	M01AB01	07/02/2006
31745661	M01AB01	04/08/2008
31824277	M01AB01	04/04/2008
32156268	M01AB01	27/03/2006
31299817	M01AB01	20/09/2004
31159201	M01AB01	06/11/2003
31629176	M01AB01	02/06/2004
32172413	M01AB01	22/10/2009
32094491	M01AB01	07/11/2006
31109547	M01AB01	18/04/2005
31675841	M01AB01	19/11/2007
32119583	M01AB01	18/05/2006
31300579	M01AB01	02/07/2008
31161794	M01AB01	16/01/2008
32254836	M01AB01	19/12/2003
32257370	M01AB01	03/12/2007
31194705	M01AB01	25/05/2005
32003164	M01AB01	14/06/2007
32073876	M01AB01	20/10/2009
31919027	M01AB01	23/05/2001
31571787	M01AB01	26/01/2006
31979608	M01AB01	26/02/2010
31074304	M01AB01	22/03/2006
31653453	M01AB01	16/03/2009
31632832	M01AB01	18/07/2006
31679146	M01AB01	06/06/2001
32111220	M01AB01	02/03/2007
31955894	M01AB01	04/01/2010
32113542	M01AB01	25/06/2007
31606163	M01AB01	27/09/2005
31254302	M01AB01	30/07/2009
32185395	M01AB01	05/07/2005
32127700	M01AB01	02/03/2006
31539521	M01AB01	11/05/2007
31742835	M01AB01	06/07/2006
32077909	M01AB01	10/12/2007
31705615	M01AB01	29/06/2007
32125852	M01AB01	30/09/2009
31305570	M01AB01	07/06/2004
32129473	M01AB01	01/10/2003
31618175	M01AB01	16/10/2009
31315620	M01AB01	09/10/2008
32109768	M01AB01	06/06/2003
31323296	M01AB01	23/12/2010
31758759	M01AB01	15/02/2008
31732736	M01AB01	28/06/2005
31767577	M01AB01	01/10/2008
31229693	M01AB01	20/02/2008
31304698	M01AB01	19/04/2005
31748673	M01AB01	03/04/2006
31812042	M01AB01	22/08/2005
31817295	M01AB01	26/06/2008
31171012	M01AB01	21/06/2007
31840483	M01AB01	11/02/2008
31065248	M01AB01	23/01/2006
32042863	M01AB01	05/09/2006
31637853	M01AB01	13/10/2009
32172086	M01AB01	07/12/2009
32263832	M01AB01	23/09/2002
31568832	M01AB01	22/04/2008
31599156	M01AB01	26/07/2010
31324057	M01AB01	26/05/2008
31668649	M01AB01	30/05/2008
31396970	M01AB01	24/03/2009
32047851	M01AB01	05/10/2007
31610930	M01AB01	13/06/2008
31559291	M01AB01	11/02/2005
31997273	M01AB01	26/11/2009
31312394	M01AB01	09/01/2007
32195630	M01AB01	23/06/2003
32241011	M01AB01	23/12/2003
31426144	M01AB01	18/01/2010
31197659	M01AB01	01/09/2008
31071012	M01AB01	11/05/2009
32242873	M01AB01	15/11/2006
31694665	M01AB01	10/03/2011
32018650	M01AB01	05/02/2004
32045046	M01AB01	30/10/2003
31931082	M01AB01	28/10/2010
31566767	M01AB01	12/06/2008
31076665	M01AB01	19/06/2006
32255967	M01AB01	22/10/2001
32072112	M01AB01	09/10/2002
31464524	M01AB01	16/03/2004
31778043	M01AB01	15/07/2008
32020763	M01AB01	11/09/2009
31649595	M01AB01	22/08/2002
31372876	M01AB01	09/03/2011
31924637	M01AB01	09/10/2009
31850117	M01AB01	05/03/2004
