patient_id	covar_name	date
15901954	N05CD05	16/06/2003
8559182	N05CD05	11/04/2006
3335602	N05CD05	22/07/2004
16530712	N05CD05	29/04/2009
12189529	N05CD05	20/12/2003
1850285	N05CD05	25/01/2002
2068682	N05CD05	30/08/2005
925785	N05CD05	09/09/2004
17831080	N05CD05	15/07/2008
26939942	N05CD05	08/09/2004
27794211	N05CD05	21/08/2006
33101385	N05CD05	19/05/2011
18770491	N05CD05	16/02/2006
31530846	N05CD05	22/03/2011
31067713	N05CD05	20/01/2011
31677354	N05CD05	03/08/2007
32261215	N05CD05	02/10/2006
31837765	N05CD05	20/11/2009
31275321	N05CD05	31/01/2003
