patient_id	covar_name	date
25041749	N04BD01	05/10/2005
1276765	N04BD01	13/09/2001
6601131	N04BD01	05/05/2011
6598274	N04BD01	05/02/2010
28041048	N04BD01	09/02/2009
429077	N04BD01	12/09/2003
18187355	N04BD01	04/05/2011
26790332	N04BD01	29/02/2008
33041016	N04BD01	05/10/2000
33030987	N04BD01	01/11/2010
33005022	N04BD01	08/09/2006
33089947	N04BD01	12/05/2011
33066033	N04BD01	22/07/2010
27947649	N04BD01	08/09/2008
16168876	N04BD01	13/03/2006
31662126	N04BD01	26/11/2009
32246359	N04BD01	08/09/2005
31054626	N04BD01	07/10/2009
31553569	N04BD01	07/03/2006
31740844	N04BD01	30/04/2008
31244492	N04BD01	02/10/2009
31053838	N04BD01	13/05/2010
32117849	N04BD01	22/11/2006
31228142	N04BD01	23/04/2007
31552134	N04BD01	11/01/2005
