patient_id	covar_name	date
9347565	N05AA01	10/10/2001
1068210	N05AA01	24/05/2006
21872266	N05AA01	14/11/2003
5023566	N05AA01	26/01/2006
6599178	N05AA01	29/11/2005
6842063	N05AA01	15/01/2004
1202919	N05AA01	19/08/2008
905210	N05AA01	02/03/2011
22881924	N05AA01	25/01/2008
26720306	N05AA01	13/06/2010
26768872	N05AA01	26/03/2007
26982772	N05AA01	27/07/2007
27134502	N05AA01	17/11/2006
27496720	N05AA01	08/07/2009
27694886	N05AA01	13/05/2009
33011602	N05AA01	22/06/2005
33034545	N05AA01	21/07/2005
18755921	N05AA01	02/05/2008
31681815	N05AA01	02/08/2006
31744955	N05AA01	22/12/2009
32246359	N05AA01	15/06/2006
31198523	N05AA01	05/01/2006
32141296	N05AA01	26/03/2002
31474377	N05AA01	02/09/2004
32244933	N05AA01	19/12/2010
31038907	N05AA01	27/09/2006
31931703	N05AA01	29/12/2009
32192035	N05AA01	20/08/2004
31916785	N05AA01	16/12/2004
