patient_id	covar_name	date
6749631	N05BA13	25/07/2006
1063242	N05BA13	29/11/2010
9300271	N05BA13	07/02/2007
9982943	N05BA13	24/03/2004
9389011	N05BA13	28/07/2008
21804843	N05BA13	14/10/2010
9389876	N05BA13	13/05/2009
745546	N05BA13	02/06/2004
3298642	N05BA13	09/03/2004
19228281	N05BA13	22/12/2008
16230858	N05BA13	05/05/2011
9135559	N05BA13	05/07/2007
13986519	N05BA13	11/09/2009
1320092	N05BA13	28/01/2003
1851987	N05BA13	07/11/2001
640790	N05BA13	26/02/2004
1850285	N05BA13	13/03/2001
641933	N05BA13	13/05/2005
1346900	N05BA13	24/07/2000
7838720	N05BA13	25/03/2004
6597538	N05BA13	05/11/2007
24719490	N05BA13	17/02/2009
1547134	N05BA13	16/03/2010
6600842	N05BA13	20/11/2007
13986535	N05BA13	23/05/2001
525534	N05BA13	05/12/2007
1417941	N05BA13	07/10/2002
7847509	N05BA13	02/03/2005
8956475	N05BA13	05/02/2010
12613860	N05BA13	03/05/2011
25248948	N05BA13	27/12/2005
648547	N05BA13	20/05/2003
7783154	N05BA13	05/09/2005
639310	N05BA13	03/03/2011
1851693	N05BA13	27/01/2009
1103491	N05BA13	04/03/2005
1855368	N05BA13	18/01/2011
1102247	N05BA13	15/04/2002
1102090	N05BA13	10/07/2001
12161450	N05BA13	13/03/2007
1110970	N05BA13	26/08/2009
1101830	N05BA13	05/10/2007
1639147	N05BA13	30/06/2010
25750805	N05BA13	10/02/2004
1099585	N05BA13	21/06/2001
1102919	N05BA13	22/12/2008
1640729	N05BA13	12/01/2009
1101985	N05BA13	21/05/2007
2034654	N05BA13	18/04/2005
26465782	N05BA13	08/05/2010
28091051	N05BA13	01/02/2011
28072491	N05BA13	17/09/2009
28059634	N05BA13	11/07/2008
28072376	N05BA13	23/09/2010
28071181	N05BA13	13/01/2006
28071033	N05BA13	26/10/2009
25741729	N05BA13	19/10/2005
22757992	N05BA13	09/11/2009
13812224	N05BA13	09/11/2010
2989932	N05BA13	01/10/2008
26894834	N05BA13	12/05/2011
27065338	N05BA13	24/05/2011
26994751	N05BA13	04/02/2008
26967221	N05BA13	08/06/2009
27660624	N05BA13	05/12/2002
27162937	N05BA13	16/04/2004
27687292	N05BA13	18/09/2002
27674960	N05BA13	29/07/2005
27533971	N05BA13	06/04/2010
27667263	N05BA13	19/02/2009
424408	N05BA13	13/05/2003
27325643	N05BA13	24/11/2008
33066649	N05BA13	23/10/2001
33030987	N05BA13	25/12/2010
33043546	N05BA13	18/04/2011
33072464	N05BA13	21/05/2009
33030108	N05BA13	10/05/2011
33073796	N05BA13	21/12/2007
33091621	N05BA13	07/03/2005
33072776	N05BA13	08/06/2005
33004416	N05BA13	06/11/2003
33007739	N05BA13	23/05/2002
27798157	N05BA13	24/11/2010
16773808	N05BA13	04/05/2011
33109924	N05BA13	19/07/2010
33117698	N05BA13	11/01/2008
33044203	N05BA13	29/11/2006
33028840	N05BA13	02/11/2005
33019718	N05BA13	16/05/2011
33027037	N05BA13	17/05/2011
33088645	N05BA13	05/11/2009
21109139	N05BA13	28/03/2007
21113911	N05BA13	27/04/2011
23335031	N05BA13	24/05/2011
33306067	N05BA13	17/04/2007
16616087	N05BA13	14/07/2009
21110120	N05BA13	03/01/2007
23354036	N05BA13	03/05/2011
23368415	N05BA13	27/05/2011
23355216	N05BA13	16/03/2010
33225410	N05BA13	11/08/2010
28023361	N05BA13	24/06/2009
33312705	N05BA13	13/05/2011
16623961	N05BA13	04/06/2008
23354151	N05BA13	16/12/2008
23354017	N05BA13	02/02/2010
23353918	N05BA13	18/08/2008
31760323	N05BA13	18/10/2007
31979189	N05BA13	04/02/2005
31400525	N05BA13	23/04/2003
31614093	N05BA13	09/12/2010
31503956	N05BA13	01/07/2010
32166665	N05BA13	24/02/2010
31138705	N05BA13	29/04/2010
31684707	N05BA13	29/09/2009
31765323	N05BA13	15/10/2010
32005669	N05BA13	27/12/2010
32276553	N05BA13	16/03/2007
31897252	N05BA13	18/11/2009
31223044	N05BA13	28/07/2005
31626899	N05BA13	07/12/2007
31953204	N05BA13	03/01/2003
32108495	N05BA13	28/04/2004
32192987	N05BA13	27/12/2005
31767601	N05BA13	17/12/2004
31429518	N05BA13	04/04/2008
31967869	N05BA13	29/01/2002
31641600	N05BA13	12/07/2010
32228473	N05BA13	22/12/2009
32209127	N05BA13	29/08/2005
32264935	N05BA13	17/03/2008
31780491	N05BA13	10/01/2006
32031559	N05BA13	11/12/2006
31365685	N05BA13	15/05/2008
31456279	N05BA13	25/11/2009
31073086	N05BA13	11/05/2007
31950452	N05BA13	07/04/2004
32109768	N05BA13	18/04/2002
31465993	N05BA13	06/10/2006
31539771	N05BA13	25/01/2011
31358567	N05BA13	04/04/2008
32028704	N05BA13	02/01/2007
31983907	N05BA13	04/04/2007
31559291	N05BA13	28/09/2000
31462224	N05BA13	17/06/2009
31347384	N05BA13	27/02/2007
31408458	N05BA13	24/02/2009
31697109	N05BA13	30/12/2009
31916785	N05BA13	19/06/2002
32233104	N05BA13	23/12/2008
31484142	N05BA13	22/12/2003
31649595	N05BA13	07/05/1999
31080214	N05BA13	18/11/2008
