patient_id	covar_name	date
14865414	N06AB06	30/12/2009
6757349	N06AB06	03/05/2011
13223061	N06AB06	03/09/2010
6040714	N06AB06	24/08/2005
8977102	N06AB06	03/09/2003
1068148	N06AB06	09/02/2006
6417502	N06AB06	20/05/2003
8582118	N06AB06	10/05/2011
9347565	N06AB06	23/02/2011
3940324	N06AB06	02/03/2010
6749631	N06AB06	03/10/2006
8784088	N06AB06	15/12/2009
10269870	N06AB06	17/01/2008
21156478	N06AB06	03/12/2010
61487	N06AB06	16/04/2007
3335602	N06AB06	22/07/2004
17169827	N06AB06	27/09/2007
949238	N06AB06	17/05/2011
8651505	N06AB06	26/03/2009
11661106	N06AB06	29/09/2006
9328550	N06AB06	13/11/2008
8977394	N06AB06	31/07/2006
8555445	N06AB06	18/09/2007
8293370	N06AB06	04/06/2008
8655719	N06AB06	08/01/2009
12779443	N06AB06	22/10/2010
7094806	N06AB06	03/09/2010
1162228	N06AB06	01/04/2011
15854322	N06AB06	09/12/2010
16919807	N06AB06	09/05/2011
1547786	N06AB06	21/09/2007
10001720	N06AB06	22/04/2003
59209	N06AB06	18/09/2001
3123404	N06AB06	31/05/2006
21872266	N06AB06	22/08/2005
8983512	N06AB06	25/03/2009
6748364	N06AB06	29/04/2011
6235632	N06AB06	04/08/2009
13940459	N06AB06	09/11/2010
6235942	N06AB06	11/01/2006
16978282	N06AB06	30/11/2010
9302851	N06AB06	19/05/2011
731962	N06AB06	27/04/2005
20547221	N06AB06	01/06/2011
9178196	N06AB06	04/06/2009
6833478	N06AB06	19/02/2008
9268428	N06AB06	23/12/2009
6749700	N06AB06	31/03/2011
6080444	N06AB06	19/11/2009
10713520	N06AB06	17/05/2011
6749753	N06AB06	10/03/2011
9227211	N06AB06	09/05/2011
9997591	N06AB06	22/09/2004
5031417	N06AB06	11/04/2011
6745780	N06AB06	09/05/2011
8786041	N06AB06	25/04/2007
9376383	N06AB06	24/02/2005
7094087	N06AB06	10/05/2011
608864	N06AB06	12/06/2009
5035192	N06AB06	25/03/2009
13223855	N06AB06	03/05/2011
10953751	N06AB06	08/04/2011
10001766	N06AB06	25/04/2011
9387994	N06AB06	27/04/2006
8655047	N06AB06	19/09/2005
8651170	N06AB06	07/05/2009
7152251	N06AB06	14/04/2011
12696466	N06AB06	23/01/2008
6749370	N06AB06	05/05/2011
23454785	N06AB06	05/12/2006
5021563	N06AB06	18/04/2011
21152676	N06AB06	07/04/2005
8977888	N06AB06	16/09/2009
11957639	N06AB06	19/05/2009
1062835	N06AB06	01/06/2011
12695067	N06AB06	26/04/2011
9376034	N06AB06	18/11/2009
5031702	N06AB06	19/05/2011
17216022	N06AB06	11/10/2005
6759421	N06AB06	16/02/2009
5812191	N06AB06	27/07/2004
20566164	N06AB06	24/01/2000
16977246	N06AB06	23/02/2010
1517271	N06AB06	12/01/2005
16487315	N06AB06	13/12/2010
6748533	N06AB06	04/02/2009
704267	N06AB06	30/11/2002
731887	N06AB06	02/10/2008
12739599	N06AB06	19/10/2006
12478422	N06AB06	09/05/2011
1303002	N06AB06	06/05/2008
15383965	N06AB06	20/05/2011
1069126	N06AB06	04/10/2007
10245628	N06AB06	09/08/2010
8651651	N06AB06	01/06/2011
9250324	N06AB06	21/12/2006
3940176	N06AB06	06/06/2006
7352379	N06AB06	21/09/2010
703443	N06AB06	17/12/2002
10604502	N06AB06	23/05/2011
3119036	N06AB06	27/04/2011
10246462	N06AB06	04/05/2011
1335724	N06AB06	22/09/2009
8295054	N06AB06	24/02/2009
18220597	N06AB06	22/12/2010
24764394	N06AB06	21/05/2011
6080455	N06AB06	01/06/2011
3121795	N06AB06	28/06/2007
6758836	N06AB06	24/07/2007
5813348	N06AB06	03/11/2004
16977675	N06AB06	12/11/2010
12800078	N06AB06	08/03/2010
9347974	N06AB06	02/11/2010
12695481	N06AB06	10/09/2009
15517602	N06AB06	02/03/2010
9304423	N06AB06	22/12/2003
6415215	N06AB06	18/11/2009
6417039	N06AB06	26/05/2003
731004	N06AB06	17/03/2011
9349186	N06AB06	06/03/2007
21871671	N06AB06	16/09/2009
3290897	N06AB06	06/05/2005
3304386	N06AB06	24/05/2011
3122199	N06AB06	21/05/2009
12690928	N06AB06	07/03/2011
10270612	N06AB06	24/08/2010
9309579	N06AB06	04/10/2005
3304658	N06AB06	17/11/2009
5022239	N06AB06	25/06/2009
24730044	N06AB06	31/01/2008
23998234	N06AB06	07/10/2010
24721032	N06AB06	22/10/2007
23996759	N06AB06	05/05/2011
7968770	N06AB06	07/12/2005
1200223	N06AB06	08/04/2011
1852203	N06AB06	29/04/2011
1206063	N06AB06	29/11/2006
1851166	N06AB06	10/02/2000
8066182	N06AB06	13/12/2007
6601880	N06AB06	20/05/2005
12614422	N06AB06	08/03/2010
6603276	N06AB06	10/04/2003
1851987	N06AB06	28/03/2011
13986597	N06AB06	27/03/2006
640790	N06AB06	22/10/2009
18365576	N06AB06	23/05/2011
7800178	N06AB06	08/03/2010
1264700	N06AB06	10/10/2005
1444879	N06AB06	11/02/2010
1852451	N06AB06	26/10/2001
1203812	N06AB06	26/08/2005
1205858	N06AB06	12/01/2007
8934911	N06AB06	14/03/2005
26145071	N06AB06	11/08/2009
638967	N06AB06	27/01/2009
6594059	N06AB06	08/03/2007
13984900	N06AB06	08/04/2011
4699898	N06AB06	06/05/2011
7777409	N06AB06	25/05/2011
6599178	N06AB06	02/06/2005
15706676	N06AB06	10/11/2010
26139614	N06AB06	18/11/2009
10199107	N06AB06	03/08/2010
648760	N06AB06	05/02/2009
1208200	N06AB06	13/10/2009
6594082	N06AB06	02/07/2001
6602978	N06AB06	15/12/2010
639892	N06AB06	31/05/2011
1356172	N06AB06	26/05/2011
1443076	N06AB06	30/05/2011
7966834	N06AB06	24/04/2006
7848502	N06AB06	04/11/2008
648336	N06AB06	07/12/2006
1265194	N06AB06	08/02/2007
645474	N06AB06	22/08/2006
640857	N06AB06	24/05/2011
13984558	N06AB06	23/03/2011
540075	N06AB06	19/04/2011
1417941	N06AB06	16/05/2005
12613095	N06AB06	06/08/2010
564957	N06AB06	15/05/2006
1446069	N06AB06	20/04/2011
7801045	N06AB06	17/10/2006
1205375	N06AB06	18/03/2011
1207086	N06AB06	11/04/2002
1172012	N06AB06	28/04/2011
1263626	N06AB06	24/05/2010
1264564	N06AB06	05/06/2006
7770079	N06AB06	17/05/2011
6595121	N06AB06	30/05/2011
7800187	N06AB06	08/04/2011
7969019	N06AB06	30/05/2007
7967744	N06AB06	01/07/2009
7850197	N06AB06	04/05/2011
12615435	N06AB06	15/04/2008
6602975	N06AB06	11/04/2011
1202451	N06AB06	24/05/2011
641968	N06AB06	30/10/2003
1850819	N06AB06	08/01/2003
25248948	N06AB06	16/05/2011
1199703	N06AB06	01/03/2011
7777716	N06AB06	05/10/2010
1202919	N06AB06	14/07/2008
12189511	N06AB06	28/09/2001
1545327	N06AB06	23/01/2006
7776254	N06AB06	21/01/2010
6598234	N06AB06	22/08/2008
1209005	N06AB06	05/05/2011
24940355	N06AB06	19/05/2004
1276627	N06AB06	11/05/2011
1205740	N06AB06	08/03/2004
1850488	N06AB06	19/03/2007
1320083	N06AB06	26/11/2004
639310	N06AB06	26/11/2007
1212240	N06AB06	14/07/2010
1133221	N06AB06	27/01/2009
1851693	N06AB06	15/04/2011
135900	N06AB06	07/05/2011
716428	N06AB06	06/02/2009
1130346	N06AB06	23/07/2007
1355913	N06AB06	12/01/2009
1206141	N06AB06	15/01/2010
486362	N06AB06	05/08/2010
891027	N06AB06	02/07/2004
1102090	N06AB06	06/03/2003
1103763	N06AB06	18/05/2011
195582	N06AB06	18/05/2011
1100188	N06AB06	02/02/2007
4688914	N06AB06	19/01/2006
1027312	N06AB06	04/11/2009
487297	N06AB06	18/05/2011
1638850	N06AB06	12/09/2005
1101830	N06AB06	03/06/2003
25913606	N06AB06	13/05/2011
134659	N06AB06	29/04/2002
1648154	N06AB06	11/05/2011
999093	N06AB06	20/02/2008
1639056	N06AB06	24/07/2006
1855343	N06AB06	28/09/2009
1006885	N06AB06	17/05/2011
716068	N06AB06	22/01/2003
1103928	N06AB06	03/04/2006
717026	N06AB06	14/01/2007
1134812	N06AB06	16/06/2007
717746	N06AB06	15/05/2002
1131855	N06AB06	30/08/2005
135306	N06AB06	23/01/2010
2043156	N06AB06	07/06/2002
2059046	N06AB06	17/01/2011
2214933	N06AB06	23/02/2010
2110088	N06AB06	01/12/2008
2218729	N06AB06	08/01/2004
2142935	N06AB06	13/09/2010
2139488	N06AB06	20/12/2010
2139418	N06AB06	14/05/2007
2036391	N06AB06	24/08/2004
2044424	N06AB06	15/11/2007
903902	N06AB06	17/08/2010
1682937	N06AB06	05/12/2005
1764848	N06AB06	27/08/2004
1766049	N06AB06	30/06/2004
1766799	N06AB06	06/09/2005
3055265	N06AB06	24/08/2004
1767375	N06AB06	27/08/2009
2773905	N06AB06	21/10/2003
2760092	N06AB06	20/03/2006
3053901	N06AB06	20/11/2009
3053210	N06AB06	14/01/2007
3049646	N06AB06	11/07/2003
2520047	N06AB06	22/03/2011
2756706	N06AB06	01/06/2011
2520741	N06AB06	23/05/2011
2522530	N06AB06	18/05/2011
2519204	N06AB06	01/08/2003
2408292	N06AB06	07/03/2005
2755836	N06AB06	20/06/2007
2522258	N06AB06	22/05/2011
2407564	N06AB06	24/03/2004
16835317	N06AB06	08/01/2008
26566168	N06AB06	03/06/2005
26461518	N06AB06	19/05/2010
17746457	N06AB06	07/05/2011
7137654	N06AB06	05/03/2008
18472490	N06AB06	02/09/2010
22497799	N06AB06	08/05/2008
20033277	N06AB06	05/08/2002
18223828	N06AB06	11/04/2007
17041146	N06AB06	19/05/2010
26351251	N06AB06	05/05/2011
26244401	N06AB06	10/09/2002
26409825	N06AB06	27/10/2005
26457520	N06AB06	28/04/2011
28042210	N06AB06	13/09/2004
26261562	N06AB06	27/04/2010
26423547	N06AB06	24/03/2010
26458743	N06AB06	20/04/2006
26255901	N06AB06	15/05/2007
9880688	N06AB06	15/05/2008
8117960	N06AB06	02/02/2010
421458	N06AB06	24/05/2011
1911118	N06AB06	20/06/2001
2958619	N06AB06	27/06/2003
2958823	N06AB06	31/03/2007
1903162	N06AB06	24/10/2006
2960514	N06AB06	23/05/2011
419475	N06AB06	14/12/2007
1904412	N06AB06	26/06/2001
1021651	N06AB06	01/06/2011
28090208	N06AB06	17/05/2011
26426004	N06AB06	13/01/2010
28044182	N06AB06	08/09/2008
28052808	N06AB06	25/05/2011
28091105	N06AB06	18/04/2008
2219393	N06AB06	17/10/2007
28079834	N06AB06	27/12/2006
2055267	N06AB06	06/05/2011
434471	N06AB06	12/05/2011
303035	N06AB06	17/05/2011
7136413	N06AB06	27/04/2011
463352	N06AB06	03/06/2008
187788	N06AB06	25/11/2003
649639	N06AB06	26/09/2006
419430	N06AB06	06/08/2009
26441817	N06AB06	10/05/2007
28052365	N06AB06	12/06/2003
28082158	N06AB06	11/02/2009
28066204	N06AB06	30/06/2008
28045853	N06AB06	13/05/2011
28057599	N06AB06	16/10/2006
28043285	N06AB06	28/03/2008
25648817	N06AB06	05/07/2006
25743561	N06AB06	26/05/2011
25535638	N06AB06	13/01/2006
25741980	N06AB06	15/04/2011
24662063	N06AB06	31/05/2011
24658550	N06AB06	01/06/2011
24668183	N06AB06	24/03/2010
25742981	N06AB06	06/03/2011
25743607	N06AB06	06/05/2011
24662681	N06AB06	14/09/2007
26623679	N06AB06	04/06/2007
25738797	N06AB06	25/01/2011
25740455	N06AB06	17/11/2005
1019290	N06AB06	18/08/2005
1015551	N06AB06	13/05/2010
19964901	N06AB06	06/05/2009
1361853	N06AB06	14/01/2008
18195981	N06AB06	25/07/2010
16566958	N06AB06	29/04/2011
1372631	N06AB06	15/12/1998
18189106	N06AB06	11/11/2004
18191327	N06AB06	21/05/2011
18188133	N06AB06	14/03/2011
18195701	N06AB06	04/01/2011
18194731	N06AB06	18/05/2011
18551274	N06AB06	09/05/2011
19800570	N06AB06	26/05/2011
19801472	N06AB06	24/05/2010
16812882	N06AB06	24/05/2011
18191652	N06AB06	22/02/2007
19804975	N06AB06	13/09/2005
22766292	N06AB06	06/05/2004
18194676	N06AB06	29/05/2011
1019721	N06AB06	23/12/2002
2250411	N06AB06	19/05/2011
420454	N06AB06	11/04/2001
1030639	N06AB06	10/03/2008
2965411	N06AB06	14/04/2005
1017682	N06AB06	23/04/2010
1363174	N06AB06	20/09/2000
26710784	N06AB06	28/03/2011
26722694	N06AB06	09/02/2009
26790268	N06AB06	13/05/2011
26700153	N06AB06	13/03/2009
26831751	N06AB06	07/03/2011
26706338	N06AB06	04/05/2008
26718272	N06AB06	22/03/2005
26720825	N06AB06	15/02/2006
26777501	N06AB06	02/12/2005
16105363	N06AB06	14/05/2011
3254435	N06AB06	27/02/2006
2987979	N06AB06	02/08/2004
24577045	N06AB06	29/04/2009
16105473	N06AB06	25/06/2007
9025779	N06AB06	06/02/2008
16810058	N06AB06	13/05/2011
26625650	N06AB06	23/09/2010
26701387	N06AB06	12/11/2010
12974415	N06AB06	03/07/2006
24651623	N06AB06	06/07/2010
22621949	N06AB06	04/07/2008
21554193	N06AB06	22/03/2005
22922409	N06AB06	25/03/2009
23475652	N06AB06	09/11/2001
23451824	N06AB06	31/05/2011
23462845	N06AB06	15/03/2005
22921995	N06AB06	09/11/2009
22922309	N06AB06	28/05/2011
26946205	N06AB06	06/08/2007
26950141	N06AB06	11/01/2006
26933127	N06AB06	10/02/2011
26948632	N06AB06	28/06/2004
26945367	N06AB06	27/05/2011
26959307	N06AB06	01/06/2007
26897795	N06AB06	11/05/2011
26938886	N06AB06	01/02/2010
26959391	N06AB06	23/05/2011
26933470	N06AB06	08/05/2011
26730017	N06AB06	10/01/2011
26715824	N06AB06	21/09/2009
26713577	N06AB06	07/07/2005
26847529	N06AB06	28/09/2005
26877329	N06AB06	12/05/2011
26864172	N06AB06	02/07/2010
26888469	N06AB06	12/05/2011
26783712	N06AB06	16/08/2004
26711448	N06AB06	16/02/2006
26776303	N06AB06	11/05/2011
26793740	N06AB06	09/05/2011
26742253	N06AB06	04/02/2011
26835837	N06AB06	08/01/2008
26851485	N06AB06	30/12/2010
26815899	N06AB06	01/10/2009
26825165	N06AB06	08/04/2009
26977641	N06AB06	08/11/2009
26966714	N06AB06	21/03/2011
27106289	N06AB06	01/06/2011
27101595	N06AB06	03/03/2011
27100788	N06AB06	18/03/2011
27116096	N06AB06	11/01/2008
27100651	N06AB06	24/05/2004
27087727	N06AB06	12/05/2011
27102811	N06AB06	08/03/2005
27055689	N06AB06	20/06/2008
27033025	N06AB06	30/12/2010
27034569	N06AB06	16/03/2009
27049108	N06AB06	31/12/2010
27085882	N06AB06	26/10/2004
26991420	N06AB06	21/10/2009
26994454	N06AB06	06/05/2011
27041316	N06AB06	05/11/2003
26978263	N06AB06	19/05/2011
27042092	N06AB06	24/08/2004
27014990	N06AB06	16/05/2011
27362443	N06AB06	09/12/2005
27383534	N06AB06	04/09/2008
27358985	N06AB06	15/10/2004
27153422	N06AB06	04/12/2004
27238052	N06AB06	06/05/2011
27305570	N06AB06	11/04/2011
27253334	N06AB06	24/09/2003
27352037	N06AB06	13/01/2011
27357940	N06AB06	28/05/2010
27364443	N06AB06	23/03/2010
27360856	N06AB06	21/06/2006
27370248	N06AB06	27/04/2009
27390428	N06AB06	14/04/2011
26956671	N06AB06	02/07/2008
27253823	N06AB06	10/09/2002
26967221	N06AB06	26/09/2008
27253729	N06AB06	24/05/2011
27199347	N06AB06	19/02/2002
26959013	N06AB06	01/06/2004
26952329	N06AB06	04/12/2003
27169637	N06AB06	30/09/2010
27169775	N06AB06	14/03/2008
27171327	N06AB06	02/04/2004
27577033	N06AB06	23/02/2010
27633300	N06AB06	16/05/2011
27473383	N06AB06	08/07/2005
27639481	N06AB06	17/05/2011
27658377	N06AB06	21/11/2007
27716882	N06AB06	22/11/2006
27756348	N06AB06	08/09/2010
27758847	N06AB06	30/10/2006
27607180	N06AB06	14/06/2007
27543445	N06AB06	04/06/2003
27551398	N06AB06	13/04/2008
27572901	N06AB06	08/09/2010
27563182	N06AB06	16/05/2011
27604948	N06AB06	04/09/2008
27150779	N06AB06	31/05/2011
27138764	N06AB06	14/05/2011
27127605	N06AB06	11/05/2011
27154144	N06AB06	22/12/2004
27151886	N06AB06	15/06/2004
27284148	N06AB06	23/04/2008
1016318	N06AB06	23/07/2009
27780235	N06AB06	07/05/2011
27781891	N06AB06	04/05/2011
27784044	N06AB06	27/05/2011
27573631	N06AB06	10/01/2006
27531352	N06AB06	07/05/2011
27475077	N06AB06	07/04/2011
27532981	N06AB06	31/03/2005
27784418	N06AB06	03/05/2011
25739681	N06AB06	15/05/2011
25717446	N06AB06	04/09/2009
27680726	N06AB06	19/10/2005
27241868	N06AB06	16/05/2007
27566797	N06AB06	23/11/2010
27682344	N06AB06	31/01/2007
27444528	N06AB06	07/09/2010
27539930	N06AB06	27/10/2009
27496720	N06AB06	02/05/2011
26933189	N06AB06	25/05/2011
27171129	N06AB06	22/05/2011
2959222	N06AB06	01/06/2011
27796469	N06AB06	23/07/2009
26742398	N06AB06	20/09/2006
27764988	N06AB06	11/02/2011
27799688	N06AB06	27/02/2007
27758876	N06AB06	27/10/2009
27793920	N06AB06	02/01/2003
27709451	N06AB06	04/10/2004
27694886	N06AB06	01/12/2010
27067043	N06AB06	08/05/2011
27686096	N06AB06	09/06/2009
27325643	N06AB06	18/05/2009
27474579	N06AB06	20/03/2011
27520212	N06AB06	02/12/2003
27309041	N06AB06	21/12/2010
27687008	N06AB06	07/02/2007
27533909	N06AB06	10/10/2007
27794211	N06AB06	23/05/2011
27352679	N06AB06	22/02/2005
27785385	N06AB06	16/02/2007
27769702	N06AB06	17/05/2011
33040260	N06AB06	26/10/2004
33071674	N06AB06	06/05/2009
33103102	N06AB06	17/01/2011
33035460	N06AB06	15/06/2009
33033701	N06AB06	08/05/2008
33127148	N06AB06	10/05/2011
33101389	N06AB06	22/07/2002
33100233	N06AB06	29/06/2006
33011602	N06AB06	21/05/2011
33073611	N06AB06	08/09/2003
33056893	N06AB06	13/06/2007
33050607	N06AB06	09/04/2009
33067601	N06AB06	08/08/2006
33021438	N06AB06	23/01/2007
33065951	N06AB06	21/02/2008
33069210	N06AB06	19/05/2011
33030987	N06AB06	30/05/2011
33061411	N06AB06	29/10/2003
33055912	N06AB06	26/05/2011
33065445	N06AB06	02/10/2009
33105346	N06AB06	12/04/2010
33069498	N06AB06	08/06/2010
33108903	N06AB06	31/05/2011
33081368	N06AB06	16/05/2011
33086083	N06AB06	05/09/2005
33025193	N06AB06	13/05/2011
33016797	N06AB06	28/05/2011
33081884	N06AB06	09/08/2007
33111605	N06AB06	07/04/2004
33070878	N06AB06	15/05/2001
33080281	N06AB06	08/04/2010
33111429	N06AB06	27/05/2003
33028747	N06AB06	29/04/2011
33087436	N06AB06	07/11/2007
33011562	N06AB06	27/04/2010
33098869	N06AB06	28/10/2004
33083327	N06AB06	18/05/2011
33066018	N06AB06	11/08/2009
33018999	N06AB06	16/11/2007
33072253	N06AB06	05/05/2005
33004433	N06AB06	02/02/2007
33039975	N06AB06	05/07/2005
33098553	N06AB06	10/02/2006
33051131	N06AB06	23/05/2007
33085372	N06AB06	31/01/2011
33072776	N06AB06	04/01/2010
33102563	N06AB06	16/02/2004
33012303	N06AB06	20/05/2010
12994297	N06AB06	31/05/2004
2962167	N06AB06	28/08/2001
180195	N06AB06	12/11/2008
27811908	N06AB06	20/10/2003
33042521	N06AB06	24/09/2003
27800051	N06AB06	15/06/2010
27805178	N06AB06	07/08/2009
1373130	N06AB06	21/02/2006
19423345	N06AB06	19/01/2005
33008240	N06AB06	03/05/2011
27086613	N06AB06	27/12/2005
12980341	N06AB06	21/04/2005
16637397	N06AB06	22/12/2005
16632057	N06AB06	30/10/2007
33064650	N06AB06	21/06/2007
33046012	N06AB06	25/05/2011
21109127	N06AB06	24/07/2008
33072639	N06AB06	04/03/2004
33022070	N06AB06	25/10/2000
33004366	N06AB06	11/03/2010
33087670	N06AB06	09/11/2004
33039979	N06AB06	25/09/2008
33061656	N06AB06	10/12/2008
33091178	N06AB06	31/05/2007
33074992	N06AB06	15/03/2011
33044203	N06AB06	29/05/2002
33025702	N06AB06	02/02/2003
33000877	N06AB06	14/10/2002
33034545	N06AB06	04/12/2003
33026699	N06AB06	31/05/2011
33101101	N06AB06	15/03/2004
33098360	N06AB06	13/04/2010
33033801	N06AB06	22/09/2003
33011109	N06AB06	31/05/2011
33104544	N06AB06	23/05/2011
33020653	N06AB06	11/03/2011
33000591	N06AB06	30/07/2002
33050169	N06AB06	30/05/2011
33043124	N06AB06	15/09/2010
33104966	N06AB06	12/01/2010
33018547	N06AB06	15/02/2005
33097532	N06AB06	27/05/2011
33043674	N06AB06	02/04/2009
33082095	N06AB06	28/10/2008
33004385	N06AB06	13/09/2001
33023069	N06AB06	20/12/2010
33046881	N06AB06	18/12/2006
33087055	N06AB06	10/01/2005
33066033	N06AB06	20/11/2009
33008928	N06AB06	11/12/2007
33100135	N06AB06	23/08/2007
33025238	N06AB06	12/04/2004
33079612	N06AB06	04/05/2005
33093762	N06AB06	30/07/2003
33064283	N06AB06	11/05/2011
33024570	N06AB06	05/05/2011
33080840	N06AB06	25/02/2009
33304646	N06AB06	11/05/2011
16179088	N06AB06	05/04/2010
16625249	N06AB06	10/05/2005
20982121	N06AB06	25/04/2011
33316055	N06AB06	27/05/2011
16138404	N06AB06	23/06/2008
33311914	N06AB06	15/06/2009
16712484	N06AB06	13/02/2006
33288807	N06AB06	15/03/2011
16181194	N06AB06	04/06/2008
33231347	N06AB06	03/06/2004
28021554	N06AB06	16/11/2009
18771664	N06AB06	19/09/2005
16181529	N06AB06	17/03/2006
16708333	N06AB06	26/03/2008
28023165	N06AB06	28/04/2011
18764526	N06AB06	25/04/2006
16184117	N06AB06	09/10/2002
28026151	N06AB06	30/05/2011
23362937	N06AB06	12/09/2008
33313682	N06AB06	06/05/2011
23408488	N06AB06	03/05/2010
27915577	N06AB06	11/11/2010
18765717	N06AB06	03/01/2007
16138565	N06AB06	03/04/2002
23329499	N06AB06	30/05/2011
16596222	N06AB06	30/06/2010
27912569	N06AB06	04/11/2008
16630616	N06AB06	19/05/2009
16636746	N06AB06	13/11/2007
27847497	N06AB06	25/09/2002
16619366	N06AB06	13/04/2011
16139405	N06AB06	19/04/2005
23402038	N06AB06	04/02/2011
18770821	N06AB06	09/11/2001
23364720	N06AB06	19/03/2010
16127453	N06AB06	22/03/2004
23402466	N06AB06	31/05/2011
16610026	N06AB06	26/06/2008
21011325	N06AB06	05/04/2010
16186168	N06AB06	07/09/2007
16652686	N06AB06	02/12/2008
14187360	N06AB06	17/05/2011
28000766	N06AB06	22/03/2011
23346872	N06AB06	08/05/2006
16631760	N06AB06	22/10/2010
16631801	N06AB06	14/10/2009
18755933	N06AB06	31/05/2011
23332918	N06AB06	16/11/2007
16706310	N06AB06	17/05/2004
14187576	N06AB06	28/11/2003
16705838	N06AB06	31/05/2011
31654280	N06AB06	09/05/2007
31434046	N06AB06	13/02/2007
31364482	N06AB06	05/08/2005
31465264	N06AB06	18/12/2007
16652830	N06AB06	19/06/2007
33288276	N06AB06	23/05/2011
16186784	N06AB06	05/05/2011
33244556	N06AB06	15/06/2007
23401605	N06AB06	11/05/2011
23362189	N06AB06	28/01/2008
18764796	N06AB06	19/05/2011
23347347	N06AB06	03/05/2011
16599419	N06AB06	13/01/2003
31119558	N06AB06	05/04/2005
31812813	N06AB06	23/07/2007
32128014	N06AB06	09/03/2005
31541778	N06AB06	26/10/2010
31399008	N06AB06	12/02/2010
31614831	N06AB06	02/08/2002
31183705	N06AB06	10/12/2010
31359861	N06AB06	12/11/2008
32250001	N06AB06	19/06/2008
31339338	N06AB06	27/01/2006
32025408	N06AB06	31/01/2007
32201045	N06AB06	06/11/2008
32233119	N06AB06	18/03/2004
31514711	N06AB06	21/10/2010
31073820	N06AB06	31/07/2003
32041896	N06AB06	22/09/2005
31573567	N06AB06	26/04/2005
32048150	N06AB06	01/10/2009
31777519	N06AB06	07/11/2002
31515657	N06AB06	29/12/2010
31282373	N06AB06	10/09/2010
31446823	N06AB06	30/04/2007
31434919	N06AB06	24/05/2004
31706287	N06AB06	10/03/2010
31538378	N06AB06	13/02/2006
31753023	N06AB06	31/07/2010
32262911	N06AB06	11/10/2005
31979808	N06AB06	21/07/2006
31330755	N06AB06	04/03/2011
31943324	N06AB06	28/11/2007
31516467	N06AB06	01/04/2004
31260334	N06AB06	15/10/2010
31213209	N06AB06	08/09/2003
31100891	N06AB06	17/05/2010
32134154	N06AB06	06/02/2008
31841569	N06AB06	02/10/2000
31451599	N06AB06	12/07/2010
31115938	N06AB06	10/01/2003
32017791	N06AB06	14/10/2005
31566931	N06AB06	06/04/2011
31751181	N06AB06	17/05/2005
31673775	N06AB06	19/12/2007
31299460	N06AB06	17/09/2001
32246359	N06AB06	15/06/2006
31813848	N06AB06	14/01/2004
32217439	N06AB06	19/04/2007
31183723	N06AB06	10/06/2004
31583384	N06AB06	22/03/2004
31675988	N06AB06	11/09/2008
31286555	N06AB06	13/01/2006
31385826	N06AB06	25/02/2011
31277367	N06AB06	12/12/2007
32146428	N06AB06	10/01/2008
31102341	N06AB06	13/12/2005
32000290	N06AB06	28/02/2006
31624771	N06AB06	14/06/2005
31984748	N06AB06	14/10/2004
31105428	N06AB06	29/10/2009
31282769	N06AB06	18/06/2009
31290105	N06AB06	27/02/2003
31195680	N06AB06	24/03/2008
31751610	N06AB06	17/08/2009
31655762	N06AB06	02/12/2010
31103413	N06AB06	11/07/2005
31416932	N06AB06	24/07/2003
31343858	N06AB06	13/12/2005
31731345	N06AB06	17/06/2002
31591322	N06AB06	13/07/2007
31665059	N06AB06	21/12/2006
31121989	N06AB06	18/10/2010
31977169	N06AB06	12/08/2004
32045169	N06AB06	02/11/2009
31187591	N06AB06	14/11/2007
32111233	N06AB06	12/01/2009
32105750	N06AB06	24/02/2010
31790214	N06AB06	14/09/2004
32243083	N06AB06	19/07/2002
31065321	N06AB06	26/02/2010
31566542	N06AB06	14/05/2007
31970563	N06AB06	13/12/2007
31698320	N06AB06	15/11/2010
31407204	N06AB06	16/04/2004
31046930	N06AB06	07/12/2009
32215699	N06AB06	29/07/2010
31112466	N06AB06	10/11/2009
32281367	N06AB06	09/01/2007
31897252	N06AB06	05/07/2010
32218906	N06AB06	25/06/2009
31651640	N06AB06	11/12/2009
32119020	N06AB06	27/05/2009
31755855	N06AB06	08/04/2011
31825612	N06AB06	22/03/2011
31514428	N06AB06	03/12/2009
32029554	N06AB06	01/06/2005
32173766	N06AB06	07/04/2003
31601115	N06AB06	03/08/2010
31875631	N06AB06	28/05/2003
31804204	N06AB06	20/08/2009
32067477	N06AB06	18/01/2005
31527057	N06AB06	04/04/2007
31666600	N06AB06	18/12/2010
31583115	N06AB06	25/11/2008
31709931	N06AB06	13/07/2009
31779664	N06AB06	01/12/2008
31950369	N06AB06	30/12/2010
31308618	N06AB06	16/12/2010
32141296	N06AB06	14/11/2000
31688773	N06AB06	24/02/2011
31626899	N06AB06	04/09/2006
32141512	N06AB06	02/06/2005
31542332	N06AB06	26/04/2004
31793361	N06AB06	15/11/2010
31697726	N06AB06	27/04/2001
32051143	N06AB06	24/02/2006
31142174	N06AB06	16/04/2008
31917486	N06AB06	02/03/2011
31750115	N06AB06	29/10/2004
31382526	N06AB06	04/11/2009
32018111	N06AB06	05/10/2006
31620017	N06AB06	08/03/2011
31678786	N06AB06	26/02/2003
31792078	N06AB06	31/05/2004
32137030	N06AB06	29/11/2010
31750227	N06AB06	21/02/2010
32065071	N06AB06	19/10/2009
31091667	N06AB06	21/12/2006
31550481	N06AB06	23/07/2007
31167229	N06AB06	12/01/2006
32099327	N06AB06	16/07/2010
31289840	N06AB06	07/08/2006
31131188	N06AB06	29/12/2010
31786114	N06AB06	06/04/2011
31068246	N06AB06	12/03/2007
31082208	N06AB06	16/02/2007
32125428	N06AB06	28/10/2004
31200673	N06AB06	07/01/2009
31038907	N06AB06	15/12/2010
31953447	N06AB06	23/09/2004
31855302	N06AB06	28/05/2007
32236449	N06AB06	02/02/2011
31566058	N06AB06	30/04/2001
31518038	N06AB06	25/10/2006
31640798	N06AB06	20/12/2006
32054315	N06AB06	25/07/2007
31964079	N06AB06	22/02/2005
32008235	N06AB06	02/04/2009
31050240	N06AB06	20/02/2009
31788136	N06AB06	19/01/2010
31686887	N06AB06	14/10/2010
32081758	N06AB06	23/12/2009
32278236	N06AB06	27/08/2003
32235440	N06AB06	17/02/2009
31336014	N06AB06	27/08/2008
31761481	N06AB06	20/03/2003
31537972	N06AB06	17/04/2007
31247441	N06AB06	24/05/2011
31087836	N06AB06	07/08/2006
32163814	N06AB06	29/10/2008
31463038	N06AB06	09/12/2010
31268190	N06AB06	15/11/2005
31078274	N06AB06	12/05/2009
31245792	N06AB06	22/12/2009
31057692	N06AB06	16/04/2003
32210631	N06AB06	25/10/2010
31684900	N06AB06	11/12/2006
31051001	N06AB06	13/04/2007
32201838	N06AB06	06/10/2004
31339822	N06AB06	23/04/2007
32177047	N06AB06	24/10/2005
31194218	N06AB06	11/12/2009
31755456	N06AB06	12/04/2004
32258928	N06AB06	24/11/2009
31084479	N06AB06	19/04/2006
32099788	N06AB06	20/01/2011
31349105	N06AB06	17/01/2006
32281133	N06AB06	25/11/2009
31055063	N06AB06	03/12/2003
31565378	N06AB06	12/09/2006
31131974	N06AB06	29/08/2008
31547301	N06AB06	14/04/2008
32209127	N06AB06	07/10/2003
31228142	N06AB06	16/12/2009
31559202	N06AB06	02/01/2003
31071468	N06AB06	17/04/2006
31429454	N06AB06	22/08/2005
31774644	N06AB06	11/12/2007
31883298	N06AB06	14/11/2007
32189217	N06AB06	18/08/2008
31051598	N06AB06	14/08/2003
32173478	N06AB06	08/05/2011
32197175	N06AB06	16/10/2007
31372051	N06AB06	27/02/2007
31493704	N06AB06	20/10/2006
32192035	N06AB06	06/10/2005
31827456	N06AB06	01/02/2007
31935285	N06AB06	25/03/2009
31754369	N06AB06	27/05/2005
31216872	N06AB06	25/07/2006
31143232	N06AB06	06/02/2007
31076403	N06AB06	26/12/2006
31245180	N06AB06	27/05/2009
31197319	N06AB06	26/12/2007
31306352	N06AB06	26/02/2004
31159044	N06AB06	03/09/2010
31228032	N06AB06	27/02/2007
31658052	N06AB06	24/11/2006
31867411	N06AB06	05/01/2007
32163120	N06AB06	23/02/2011
31833135	N06AB06	25/06/2010
32109768	N06AB06	12/03/2007
31524569	N06AB06	03/01/2008
31811807	N06AB06	18/05/2009
32190489	N06AB06	24/11/2005
32048578	N06AB06	13/12/2007
31494795	N06AB06	17/11/2000
31523503	N06AB06	16/11/2005
31918157	N06AB06	06/10/2008
31465993	N06AB06	05/11/2004
31641763	N06AB06	26/11/2002
31960354	N06AB06	14/11/2006
32042863	N06AB06	25/11/2008
31476789	N06AB06	29/06/2010
31539771	N06AB06	25/01/2011
32209026	N06AB06	16/12/2009
31247458	N06AB06	26/05/2004
31294738	N06AB06	01/06/2006
31725976	N06AB06	09/11/2005
32158955	N06AB06	15/07/2010
32267988	N06AB06	22/11/2006
32210034	N06AB06	07/02/2002
31195123	N06AB06	16/12/2010
31659751	N06AB06	03/05/2000
31854439	N06AB06	26/07/2006
31825014	N06AB06	18/07/2008
31735387	N06AB06	28/10/2009
32254414	N06AB06	04/05/2007
31687887	N06AB06	01/12/2008
32028704	N06AB06	20/10/2004
31042576	N06AB06	26/05/2009
31435495	N06AB06	29/04/2002
31546626	N06AB06	02/06/2006
31378626	N06AB06	04/02/2009
31964287	N06AB06	22/10/2008
32204347	N06AB06	14/12/2009
31192222	N06AB06	03/12/2009
31083826	N06AB06	08/11/2006
31872910	N06AB06	23/05/2006
31814249	N06AB06	30/12/2009
31312898	N06AB06	18/09/2006
31254437	N06AB06	17/04/2007
31828985	N06AB06	21/01/2011
31138289	N06AB06	07/07/2010
31694665	N06AB06	19/10/2009
31434667	N06AB06	09/10/2007
31861365	N06AB06	03/12/2009
31548210	N06AB06	06/06/2002
32253149	N06AB06	17/03/2011
31863861	N06AB06	26/01/2009
32071031	N06AB06	07/12/2009
31479508	N06AB06	08/09/2006
32019277	N06AB06	21/12/2007
32174287	N06AB06	02/03/2011
31611630	N06AB06	17/06/2003
31615865	N06AB06	09/09/2010
31930818	N06AB06	10/09/2007
32121072	N06AB06	21/10/2003
32122599	N06AB06	11/04/2011
31608836	N06AB06	04/12/2010
31188817	N06AB06	07/04/2011
31282517	N06AB06	26/02/2004
31733685	N06AB06	22/03/2002
31099545	N06AB06	14/11/2007
31561607	N06AB06	04/11/2009
31217504	N06AB06	18/01/2011
32205678	N06AB06	10/11/2010
31624367	N06AB06	19/02/2007
32016763	N06AB06	16/01/2007
31569630	N06AB06	09/04/2007
32066321	N06AB06	02/02/2005
32238551	N06AB06	21/07/2003
31649595	N06AB06	21/04/2008
31703712	N06AB06	07/11/2005
31372876	N06AB06	12/01/2011
31412764	N06AB06	18/01/2006
