patient_id	covar_name	date
1726934	NBMAMA	14/03/1988
9300271	NBMAMA	21/07/2010
12766797	NBMAMA	06/08/2007
9385544	NBMAMA	04/10/2010
12729352	NBMAMA	24/01/2011
20565112	NBMAMA	17/12/2007
9995414	NBMAMA	18/05/2010
3288827	NBMAMA	17/11/2009
949778	NBMAMA	13/02/1939
10048890	NBMAMA	10/04/2008
9208920	NBMAMA	04/12/2008
205360	NBMAMA	20/07/1947
7246007	NBMAMA	30/11/2004
10605419	NBMAMA	27/02/2000
21247608	NBMAMA	01/12/2010
6752638	NBMAMA	06/10/2005
12731744	NBMAMA	05/06/2007
17174935	NBMAMA	03/02/2011
20549085	NBMAMA	24/04/2009
8975603	NBMAMA	11/02/2003
9340826	NBMAMA	16/05/1940
5812411	NBMAMA	06/09/2007
9996154	NBMAMA	19/04/1975
9319663	NBMAMA	20/10/2005
12766930	NBMAMA	06/05/1976
5031259	NBMAMA	20/05/2008
734132	NBMAMA	17/03/2003
12767162	NBMAMA	24/05/2011
22537806	NBMAMA	01/07/1974
1162907	NBMAMA	27/05/2009
24951302	NBMAMA	17/07/2007
12183581	NBMAMA	29/04/2003
10003864	NBMAMA	29/06/2009
6080455	NBMAMA	25/01/2010
24729124	NBMAMA	13/02/2002
8582021	NBMAMA	06/02/1942
12187177	NBMAMA	09/12/2005
24724353	NBMAMA	27/12/2007
3125131	NBMAMA	08/12/1934
12766507	NBMAMA	02/12/1997
173217	NBMAMA	17/06/2009
9285381	NBMAMA	19/03/2007
12788802	NBMAMA	04/09/2008
731670	NBMAMA	13/09/2005
9319365	NBMAMA	21/12/2006
8573478	NBMAMA	07/09/2006
5864959	NBMAMA	14/10/2003
60897	NBMAMA	12/04/2002
10002429	NBMAMA	15/03/2005
603794	NBMAMA	29/03/2011
4699710	NBMAMA	03/08/2007
1444339	NBMAMA	03/12/2004
674448	NBMAMA	16/06/2006
1210462	NBMAMA	11/07/2005
1852424	NBMAMA	17/09/2004
24941626	NBMAMA	09/02/2009
25448782	NBMAMA	22/06/2003
12189329	NBMAMA	22/08/1962
6597633	NBMAMA	02/02/2009
7848224	NBMAMA	15/07/1961
6599130	NBMAMA	01/03/2010
639892	NBMAMA	07/12/1945
7800679	NBMAMA	29/01/1998
1206150	NBMAMA	23/11/2004
1262006	NBMAMA	20/08/1971
8063389	NBMAMA	27/02/2009
5992383	NBMAMA	10/06/1931
4700304	NBMAMA	27/04/2004
7706534	NBMAMA	15/02/1982
13986679	NBMAMA	26/12/1977
1107488	NBMAMA	31/10/2008
1133457	NBMAMA	21/06/1996
891364	NBMAMA	25/04/2011
25894850	NBMAMA	25/03/2003
1105844	NBMAMA	19/05/2000
1110455	NBMAMA	19/05/2004
2038762	NBMAMA	01/05/1950
859067	NBMAMA	29/10/2003
3053847	NBMAMA	09/07/2007
1762017	NBMAMA	18/02/2003
2759303	NBMAMA	15/01/2004
2756105	NBMAMA	26/05/2008
3049128	NBMAMA	19/02/1958
2525185	NBMAMA	04/09/2006
2407651	NBMAMA	31/12/1995
28059430	NBMAMA	17/11/2008
20673463	NBMAMA	23/02/2007
26236394	NBMAMA	19/05/2011
18222562	NBMAMA	07/12/2006
26478954	NBMAMA	26/03/2007
17041018	NBMAMA	13/05/2008
16980452	NBMAMA	16/09/2009
16825352	NBMAMA	18/10/2005
1910163	NBMAMA	28/02/1980
463154	NBMAMA	12/07/1994
1903018	NBMAMA	10/06/2010
1900897	NBMAMA	15/06/2004
649048	NBMAMA	31/12/1983
180654	NBMAMA	12/12/2005
1903162	NBMAMA	13/12/2005
433186	NBMAMA	22/06/2006
185583	NBMAMA	25/05/2004
302264	NBMAMA	16/05/2006
185672	NBMAMA	22/01/2010
2959751	NBMAMA	22/01/2005
6577042	NBMAMA	01/08/2006
462935	NBMAMA	16/04/2003
28080570	NBMAMA	05/02/2005
2215450	NBMAMA	01/07/2010
28063227	NBMAMA	14/02/2009
435889	NBMAMA	28/12/2010
26201016	NBMAMA	05/06/1960
187527	NBMAMA	16/04/2008
425295	NBMAMA	08/01/2010
184252	NBMAMA	19/04/2005
185854	NBMAMA	09/02/2007
26342243	NBMAMA	20/04/2010
28068401	NBMAMA	21/04/2000
25738604	NBMAMA	14/11/2003
24662189	NBMAMA	01/06/2011
24670517	NBMAMA	10/06/2005
24661880	NBMAMA	01/08/2005
25742680	NBMAMA	30/05/2006
24659548	NBMAMA	08/11/1992
1365359	NBMAMA	14/01/2003
1911424	NBMAMA	20/12/2010
1029354	NBMAMA	27/01/1951
1017590	NBMAMA	25/01/2006
1020847	NBMAMA	23/02/2006
180311	NBMAMA	30/06/2009
1020212	NBMAMA	20/01/2006
2964440	NBMAMA	08/08/2007
18196081	NBMAMA	04/02/2010
16840863	NBMAMA	19/10/2005
21064722	NBMAMA	15/01/2009
18187564	NBMAMA	19/05/2009
19786147	NBMAMA	16/03/2011
19424222	NBMAMA	18/05/2005
16568445	NBMAMA	06/06/2008
2959110	NBMAMA	15/02/2011
2987616	NBMAMA	27/04/2005
2249107	NBMAMA	09/11/2006
1912708	NBMAMA	14/06/2004
1910693	NBMAMA	27/07/2002
618369	NBMAMA	26/06/2009
1019222	NBMAMA	15/06/2009
26853880	NBMAMA	08/06/2007
26710646	NBMAMA	12/05/2004
26793408	NBMAMA	07/03/2003
26721606	NBMAMA	17/06/1970
26834696	NBMAMA	05/03/2010
26835974	NBMAMA	29/09/2009
2994406	NBMAMA	21/07/2009
3251946	NBMAMA	07/01/2009
24576897	NBMAMA	17/09/2008
24579514	NBMAMA	05/09/2005
24577045	NBMAMA	07/05/2007
13871949	NBMAMA	07/07/2003
11674892	NBMAMA	13/11/2002
26620234	NBMAMA	26/05/2006
26707378	NBMAMA	15/10/2004
16192805	NBMAMA	25/03/2010
22883584	NBMAMA	24/03/2010
21553577	NBMAMA	03/01/2008
24665451	NBMAMA	18/05/2010
24593662	NBMAMA	05/05/2005
21552734	NBMAMA	14/03/2011
22885092	NBMAMA	27/05/2010
22921553	NBMAMA	28/03/2008
21651643	NBMAMA	15/10/2009
21651863	NBMAMA	12/09/2006
24503300	NBMAMA	10/09/2009
24585345	NBMAMA	01/12/2010
26961811	NBMAMA	28/06/2005
26940680	NBMAMA	21/12/2007
26916727	NBMAMA	25/02/2005
26894366	NBMAMA	09/09/2010
26915217	NBMAMA	24/05/2007
26916381	NBMAMA	02/08/2004
26940146	NBMAMA	14/09/2007
26889844	NBMAMA	21/08/2006
26959391	NBMAMA	13/01/2004
27038844	NBMAMA	04/06/2007
26887430	NBMAMA	16/07/2010
26878505	NBMAMA	24/09/2010
26780574	NBMAMA	18/09/2008
26779381	NBMAMA	04/12/2007
26854601	NBMAMA	19/02/2010
26754258	NBMAMA	19/10/2007
26863320	NBMAMA	19/09/2008
26754408	NBMAMA	04/11/2009
26867285	NBMAMA	11/05/2004
26881378	NBMAMA	24/10/2008
26847522	NBMAMA	24/03/2007
26858782	NBMAMA	11/02/2009
26849091	NBMAMA	15/11/2010
26888469	NBMAMA	06/03/2006
26916425	NBMAMA	18/04/2006
26824339	NBMAMA	17/06/2009
26801999	NBMAMA	01/12/2010
26760950	NBMAMA	30/05/2006
26800322	NBMAMA	10/03/2011
27073378	NBMAMA	09/06/2010
26947330	NBMAMA	12/05/2011
26939942	NBMAMA	12/11/1976
27078348	NBMAMA	28/08/2007
27101595	NBMAMA	18/05/2009
26995244	NBMAMA	09/04/2008
27115927	NBMAMA	26/05/1999
27116096	NBMAMA	03/02/2006
27130220	NBMAMA	01/01/2005
27062396	NBMAMA	24/06/2008
27072750	NBMAMA	18/06/2007
27065702	NBMAMA	17/08/2007
27051410	NBMAMA	23/05/2008
27039739	NBMAMA	24/03/2004
26994451	NBMAMA	12/04/1996
26978032	NBMAMA	24/12/2004
27023735	NBMAMA	13/08/2007
27004152	NBMAMA	17/06/1955
26981833	NBMAMA	02/12/2004
27034016	NBMAMA	05/07/2005
27211585	NBMAMA	16/09/2008
27172057	NBMAMA	23/01/2010
27364092	NBMAMA	29/09/2009
27244531	NBMAMA	01/10/2007
27244071	NBMAMA	25/05/2006
27314488	NBMAMA	21/04/1972
27246882	NBMAMA	06/08/2004
27316281	NBMAMA	26/07/2010
27321815	NBMAMA	02/09/2010
27366918	NBMAMA	03/09/2008
27363267	NBMAMA	10/01/2011
27364693	NBMAMA	31/05/2006
27326516	NBMAMA	07/04/1975
27231019	NBMAMA	19/01/2004
26999501	NBMAMA	31/05/2010
27230962	NBMAMA	18/04/2008
27217481	NBMAMA	19/01/1989
27237373	NBMAMA	10/06/2010
27389179	NBMAMA	21/03/2005
26995455	NBMAMA	07/03/2008
27597168	NBMAMA	11/01/1969
27642131	NBMAMA	14/09/2010
27591859	NBMAMA	22/03/2006
27658780	NBMAMA	13/10/2009
27476407	NBMAMA	29/01/2009
27472551	NBMAMA	10/12/2007
27640872	NBMAMA	11/08/2007
27756324	NBMAMA	25/11/1943
27764876	NBMAMA	12/02/2004
27621512	NBMAMA	23/04/2008
27570683	NBMAMA	23/12/2009
27573207	NBMAMA	24/11/2005
27571164	NBMAMA	07/04/2005
27128882	NBMAMA	18/07/1994
27233968	NBMAMA	24/12/2008
27242158	NBMAMA	09/09/2004
27144217	NBMAMA	24/02/2011
27148126	NBMAMA	13/03/2003
27148150	NBMAMA	18/05/2009
27133059	NBMAMA	08/06/2005
27230683	NBMAMA	23/07/2009
27132508	NBMAMA	02/02/1994
27144953	NBMAMA	05/10/1953
1016318	NBMAMA	25/06/2006
27318641	NBMAMA	22/08/2005
27014620	NBMAMA	24/11/2005
26973816	NBMAMA	11/12/2000
27035691	NBMAMA	24/12/2010
27767863	NBMAMA	06/08/2004
27780765	NBMAMA	26/03/2008
27784044	NBMAMA	11/01/2006
27673275	NBMAMA	13/12/2004
27673948	NBMAMA	24/01/1982
27687209	NBMAMA	23/05/1995
27530889	NBMAMA	23/06/1972
27666103	NBMAMA	19/08/1997
27669980	NBMAMA	29/05/2008
27682366	NBMAMA	16/12/2006
27686657	NBMAMA	07/09/2005
27666079	NBMAMA	11/04/2005
26833036	NBMAMA	30/04/2007
27668113	NBMAMA	25/08/2010
26992037	NBMAMA	20/02/2006
1014513	NBMAMA	29/06/2009
27540587	NBMAMA	19/10/2007
27512339	NBMAMA	18/05/2007
27591660	NBMAMA	11/01/2008
27657455	NBMAMA	08/06/1996
27528685	NBMAMA	11/05/2005
27535798	NBMAMA	14/04/2007
27449750	NBMAMA	12/02/1994
27306147	NBMAMA	25/02/2009
27648764	NBMAMA	02/06/2009
27798023	NBMAMA	06/02/2006
27673527	NBMAMA	07/10/2005
26824795	NBMAMA	16/07/2007
24580966	NBMAMA	26/04/2006
19796397	NBMAMA	31/08/2005
27086174	NBMAMA	28/03/2006
27804721	NBMAMA	20/12/2010
27805968	NBMAMA	17/07/2008
27716815	NBMAMA	21/10/2005
27686175	NBMAMA	14/01/1968
27797102	NBMAMA	26/04/2005
27797699	NBMAMA	14/06/1954
26963640	NBMAMA	12/04/1972
26794931	NBMAMA	13/04/2010
27285152	NBMAMA	08/05/2008
27799358	NBMAMA	25/08/2006
27571285	NBMAMA	23/11/2004
27664220	NBMAMA	05/01/2004
27360456	NBMAMA	15/12/2008
27047014	NBMAMA	01/03/2006
26711749	NBMAMA	16/08/2006
27539994	NBMAMA	01/01/2001
27780895	NBMAMA	01/06/2006
27759993	NBMAMA	21/04/2005
27761679	NBMAMA	12/03/2008
27783816	NBMAMA	02/06/2009
27666811	NBMAMA	13/03/2006
33099563	NBMAMA	24/02/2006
33056893	NBMAMA	13/05/2004
33041335	NBMAMA	23/04/2010
33023977	NBMAMA	28/11/2001
33014702	NBMAMA	20/05/2011
33029033	NBMAMA	28/01/1996
33020291	NBMAMA	11/01/2001
33070039	NBMAMA	29/03/2006
27800144	NBMAMA	07/10/2008
26881208	NBMAMA	05/05/1959
27805178	NBMAMA	04/10/2006
185517	NBMAMA	12/04/2011
21554553	NBMAMA	24/01/1945
13757021	NBMAMA	28/03/2008
12980341	NBMAMA	14/03/2011
33017359	NBMAMA	25/06/2010
23407522	NBMAMA	22/12/2004
33026564	NBMAMA	30/04/2002
33013257	NBMAMA	21/08/2003
33025298	NBMAMA	30/09/2009
33028453	NBMAMA	06/11/2006
33065070	NBMAMA	11/03/2008
33034545	NBMAMA	10/07/2009
33030836	NBMAMA	11/08/2008
33058347	NBMAMA	21/04/2010
33025238	NBMAMA	10/12/2010
33304646	NBMAMA	01/01/1985
16639146	NBMAMA	01/01/2002
16774800	NBMAMA	31/05/2004
21109058	NBMAMA	22/07/2004
16708333	NBMAMA	08/08/2003
16166263	NBMAMA	26/02/2009
28020243	NBMAMA	27/02/2008
16600525	NBMAMA	12/01/2009
16168742	NBMAMA	14/03/2008
18770615	NBMAMA	30/11/1938
23371267	NBMAMA	19/01/2001
27939754	NBMAMA	17/02/2010
16184623	NBMAMA	27/07/2009
16124378	NBMAMA	20/06/2000
23327879	NBMAMA	03/11/2004
23401278	NBMAMA	27/02/2009
16606863	NBMAMA	21/05/2003
16126950	NBMAMA	21/10/1995
16621680	NBMAMA	02/06/2008
21102426	NBMAMA	11/05/2010
29547364	NBMAMA	08/04/2011
32282396	NBMAMA	17/11/1999
32157658	NBMAMA	05/05/2009
31661668	NBMAMA	21/06/1992
31326230	NBMAMA	14/09/2009
31817892	NBMAMA	01/01/1981
31557290	NBMAMA	19/07/1999
31259169	NBMAMA	18/07/2010
32056283	NBMAMA	11/07/2006
32268858	NBMAMA	26/10/2004
31431883	NBMAMA	25/10/2005
32147380	NBMAMA	25/05/2009
31347879	NBMAMA	29/05/2009
31807455	NBMAMA	07/12/1950
31570188	NBMAMA	11/12/2005
32087272	NBMAMA	09/01/2007
31386151	NBMAMA	02/06/2010
32023890	NBMAMA	11/05/2007
31598897	NBMAMA	25/01/1994
31851354	NBMAMA	21/06/2010
31402775	NBMAMA	02/03/2007
31221801	NBMAMA	26/06/2006
32187756	NBMAMA	21/10/2006
31374114	NBMAMA	01/01/1977
31109819	NBMAMA	16/08/2007
31112167	NBMAMA	27/10/2004
31402789	NBMAMA	11/09/2009
31943518	NBMAMA	27/08/2008
31054792	NBMAMA	28/03/2006
31459968	NBMAMA	01/07/1994
32080325	NBMAMA	05/06/2001
31814754	NBMAMA	06/05/2005
31422146	NBMAMA	09/09/1992
32056059	NBMAMA	16/10/2007
31925372	NBMAMA	02/10/1973
31977064	NBMAMA	05/06/2008
31260435	NBMAMA	25/01/2010
31490089	NBMAMA	08/01/2007
31243991	NBMAMA	28/09/1999
31359087	NBMAMA	17/06/2005
31092206	NBMAMA	16/04/2008
32214259	NBMAMA	12/06/2002
31659492	NBMAMA	07/03/2008
31669838	NBMAMA	07/11/2008
32119020	NBMAMA	22/11/2006
32187145	NBMAMA	05/12/2006
32015095	NBMAMA	25/10/1959
31350214	NBMAMA	15/02/2011
31999310	NBMAMA	10/07/2003
31960064	NBMAMA	02/12/2009
31567596	NBMAMA	29/04/2004
32201890	NBMAMA	23/12/2010
31269212	NBMAMA	02/03/2004
32142087	NBMAMA	24/11/2006
31594061	NBMAMA	25/04/2003
31326832	NBMAMA	20/03/2009
31184041	NBMAMA	08/03/2010
31773253	NBMAMA	12/03/2010
32204377	NBMAMA	01/12/2008
31990029	NBMAMA	18/12/2003
31949391	NBMAMA	15/07/2008
31352150	NBMAMA	23/04/2007
32167648	NBMAMA	03/03/2010
31979328	NBMAMA	18/09/2007
32281617	NBMAMA	08/06/2004
32096000	NBMAMA	19/05/2011
31082922	NBMAMA	11/07/2005
32215294	NBMAMA	14/02/2005
32173789	NBMAMA	22/02/2008
31899152	NBMAMA	17/12/2007
31552136	NBMAMA	30/01/1985
32125428	NBMAMA	16/04/1955
31815105	NBMAMA	06/04/2005
31979275	NBMAMA	15/09/2004
31480157	NBMAMA	24/11/2008
31995728	NBMAMA	18/07/1956
31713979	NBMAMA	03/02/2006
31496361	NBMAMA	06/06/2004
31574292	NBMAMA	15/10/2008
31168786	NBMAMA	16/05/2008
31866880	NBMAMA	02/02/2005
31559079	NBMAMA	23/10/2000
31924312	NBMAMA	10/04/2006
31250528	NBMAMA	14/06/2005
31974995	NBMAMA	15/09/2003
31506437	NBMAMA	11/04/2008
31054095	NBMAMA	31/05/2005
31530134	NBMAMA	29/08/2005
31552724	NBMAMA	12/09/2007
31177028	NBMAMA	14/04/2004
31145470	NBMAMA	10/02/1996
32037246	NBMAMA	10/01/2003
31860135	NBMAMA	29/04/2002
31835647	NBMAMA	13/02/2011
31222515	NBMAMA	23/03/2005
31929235	NBMAMA	27/02/2002
31099021	NBMAMA	27/09/2004
31754369	NBMAMA	09/06/1999
31927973	NBMAMA	19/06/2006
31447337	NBMAMA	17/02/1950
31923362	NBMAMA	17/05/1981
31540148	NBMAMA	14/10/2002
31854601	NBMAMA	20/01/2010
31578969	NBMAMA	25/12/1981
31587701	NBMAMA	24/09/2001
31432709	NBMAMA	17/09/2007
31951572	NBMAMA	27/01/2009
31360029	NBMAMA	04/06/2010
31048637	NBMAMA	30/12/2008
31701827	NBMAMA	21/01/2005
31770506	NBMAMA	12/02/2010
32125877	NBMAMA	23/04/2002
32225048	NBMAMA	15/04/2002
31095551	NBMAMA	23/03/2004
31049917	NBMAMA	20/11/1943
31072503	NBMAMA	24/01/2010
31593757	NBMAMA	21/10/2007
31821619	NBMAMA	27/02/2002
31928015	NBMAMA	17/05/2010
32008603	NBMAMA	30/07/2009
31405949	NBMAMA	25/10/1996
31984418	NBMAMA	18/05/2010
31918461	NBMAMA	12/02/1973
31796695	NBMAMA	01/12/2003
31188817	NBMAMA	22/09/2008
31867881	NBMAMA	01/09/2008
31446226	NBMAMA	13/07/2005
