patient_id	covar_name	date
132608	N05CD03	19/05/2011
5024202	N05CD03	29/01/2009
6887463	N05CD03	23/02/2004
3939012	N05CD03	27/02/2002
6080444	N05CD03	28/08/2006
7406503	N05CD03	19/11/2010
16100399	N05CD03	16/05/2011
1334775	N05CD03	11/02/2011
1566989	N05CD03	10/03/2003
1134812	N05CD03	03/02/2006
904017	N05CD03	14/06/2002
28041048	N05CD03	16/05/2011
28063519	N05CD03	06/05/2011
28066813	N05CD03	17/05/2011
21554193	N05CD03	19/10/2004
26951083	N05CD03	11/09/2006
27106289	N05CD03	28/12/2008
27106791	N05CD03	28/04/2011
26998318	N05CD03	19/04/2006
27249436	N05CD03	01/06/2011
26989957	N05CD03	03/08/2006
27252267	N05CD03	07/08/2007
27389179	N05CD03	29/06/2005
27414681	N05CD03	27/09/2009
27765512	N05CD03	09/04/2003
27614461	N05CD03	08/09/2008
27151908	N05CD03	24/06/2010
27100372	N05CD03	30/07/2010
27520212	N05CD03	19/05/2011
33018895	N05CD03	08/03/2004
33106497	N05CD03	18/09/2006
27798157	N05CD03	04/05/2011
33104966	N05CD03	01/02/2011
28033422	N05CD03	06/02/2006
23408488	N05CD03	24/03/2010
16600620	N05CD03	17/05/2011
28022840	N05CD03	29/09/2010
20989808	N05CD03	17/05/2011
33228458	N05CD03	20/05/2011
18770491	N05CD03	23/07/2002
16708802	N05CD03	25/05/2011
31429601	N05CD03	07/09/2007
32261215	N05CD03	30/06/2008
32112412	N05CD03	19/12/2006
31316108	N05CD03	25/03/2003
31109164	N05CD03	11/11/2005
31786114	N05CD03	14/11/2008
31102918	N05CD03	26/11/2009
31632144	N05CD03	20/12/2009
31852625	N05CD03	27/11/2001
31787887	N05CD03	21/04/2006
31221792	N05CD03	15/04/2004
31615865	N05CD03	23/06/2004
31675341	N05CD03	05/02/2010
31080214	N05CD03	23/06/2010
