patient_id	covar_name	date
6040714	N07CA02	02/12/2010
1068148	N07CA02	10/05/2010
15384882	N07CA02	08/09/2003
730741	N07CA02	21/12/2010
10271445	N07CA02	30/08/2007
8786041	N07CA02	27/05/2011
20549727	N07CA02	09/07/2007
3502847	N07CA02	19/05/2011
9371601	N07CA02	15/11/2010
21782270	N07CA02	25/05/2011
645707	N07CA02	23/05/2011
1665187	N07CA02	16/10/2006
643518	N07CA02	10/06/2003
7969967	N07CA02	10/08/2010
1276627	N07CA02	09/06/2003
1102090	N07CA02	12/03/2002
1109593	N07CA02	19/02/2008
2766244	N07CA02	13/06/2003
3053366	N07CA02	16/07/2001
28041683	N07CA02	28/09/2010
7229461	N07CA02	09/01/2004
7228900	N07CA02	24/02/2003
649405	N07CA02	29/07/2008
28056581	N07CA02	13/05/2004
28090511	N07CA02	01/07/2004
21553830	N07CA02	03/05/2011
1016009	N07CA02	28/03/2011
27054520	N07CA02	01/05/2010
27042092	N07CA02	17/05/2011
27383534	N07CA02	20/09/2005
27353083	N07CA02	17/05/2010
27218776	N07CA02	22/03/2008
27521437	N07CA02	27/04/2009
27109811	N07CA02	04/05/2011
27614274	N07CA02	18/01/2007
27614816	N07CA02	23/01/2007
27796173	N07CA02	05/09/2008
33029033	N07CA02	07/03/2011
33068508	N07CA02	03/01/2007
183728	N07CA02	16/10/2003
16178210	N07CA02	20/02/2008
33112492	N07CA02	13/10/2006
21109661	N07CA02	23/09/2009
33313071	N07CA02	13/01/2010
23408423	N07CA02	13/05/2011
27927780	N07CA02	23/07/2010
23381566	N07CA02	15/12/2008
16653597	N07CA02	24/08/2007
23412207	N07CA02	18/03/2011
31796372	N07CA02	20/10/2006
31166710	N07CA02	04/10/1999
32099327	N07CA02	07/01/2005
31354855	N07CA02	10/10/2005
31953204	N07CA02	11/08/2000
31283871	N07CA02	01/10/2010
32026788	N07CA02	06/07/2007
31087698	N07CA02	10/12/2009
31444827	N07CA02	29/09/2009
31320303	N07CA02	13/04/2009
