patient_id	covar_name	date
8979383	N06AX03	14/07/2004
18502914	N06AX03	09/04/2007
8655719	N06AX03	10/04/2008
730169	N06AX03	06/04/2009
23443312	N06AX03	14/05/2011
14982498	N06AX03	28/04/2011
6112286	N06AX03	21/05/2009
17969122	N06AX03	15/07/2010
24930936	N06AX03	25/01/2005
1517271	N06AX03	15/10/2004
15554053	N06AX03	05/05/2011
20546500	N06AX03	06/10/2004
19228281	N06AX03	22/07/2008
9377350	N06AX03	24/04/2008
3332130	N06AX03	12/04/2010
6415450	N06AX03	18/05/2011
1546390	N06AX03	16/07/2003
25448782	N06AX03	14/06/2007
1852451	N06AX03	26/04/2011
8062012	N06AX03	12/11/2002
6842289	N06AX03	28/12/2010
7848502	N06AX03	11/11/2010
7972720	N06AX03	04/05/2011
1417941	N06AX03	23/03/2011
1207086	N06AX03	11/09/2003
13985332	N06AX03	02/07/2006
1090924	N06AX03	15/06/2005
2109145	N06AX03	26/02/2004
904362	N06AX03	24/10/2007
3055184	N06AX03	17/10/2000
2755855	N06AX03	11/05/2007
26425992	N06AX03	13/02/2002
26244453	N06AX03	06/05/2008
16979546	N06AX03	23/05/2011
1911118	N06AX03	24/07/2002
419475	N06AX03	16/10/2007
28065857	N06AX03	19/01/2011
26426004	N06AX03	03/07/2002
3053216	N06AX03	28/01/2004
264967	N06AX03	07/08/2009
649031	N06AX03	30/01/2004
25741980	N06AX03	10/02/2010
25742981	N06AX03	07/11/2006
24658487	N06AX03	16/05/2011
1374276	N06AX03	27/07/2007
21063510	N06AX03	25/02/2002
16568733	N06AX03	14/01/2007
926529	N06AX03	17/03/2010
17125574	N06AX03	30/05/2011
22881967	N06AX03	16/11/2003
21554193	N06AX03	27/05/2011
26959534	N06AX03	06/05/2011
26950826	N06AX03	06/05/2011
26714948	N06AX03	13/08/2008
26845956	N06AX03	05/09/2006
27034975	N06AX03	28/06/2005
26998098	N06AX03	10/03/2005
27133477	N06AX03	28/09/2003
27102811	N06AX03	09/04/2008
27137973	N06AX03	10/12/2006
27127065	N06AX03	11/03/2008
27379761	N06AX03	26/04/2011
27219884	N06AX03	01/06/2011
27317311	N06AX03	12/05/2011
27217738	N06AX03	07/02/2007
27709153	N06AX03	09/05/2011
27765512	N06AX03	20/04/2005
27543445	N06AX03	15/07/2009
27760704	N06AX03	29/10/2003
27151908	N06AX03	30/07/2008
27284148	N06AX03	21/05/2007
648889	N06AX03	24/11/2004
17423124	N06AX03	17/05/2011
27533492	N06AX03	28/05/2011
27445289	N06AX03	27/05/2011
27694886	N06AX03	20/10/2008
27662240	N06AX03	26/03/2007
27471521	N06AX03	22/08/2006
27775707	N06AX03	02/05/2005
27782172	N06AX03	05/05/2005
33062908	N06AX03	06/04/2004
24663992	N06AX03	06/03/2002
27798157	N06AX03	30/06/2005
265805	N06AX03	19/08/2009
33253720	N06AX03	03/05/2011
33097532	N06AX03	27/05/2011
33099116	N06AX03	10/10/2002
33066033	N06AX03	14/09/2010
33231347	N06AX03	03/06/2004
14188303	N06AX03	17/11/2005
27913617	N06AX03	23/12/2010
23293211	N06AX03	10/05/2011
16613534	N06AX03	15/04/2011
16139405	N06AX03	01/08/2008
16631316	N06AX03	14/01/2011
23339422	N06AX03	21/01/2010
21011848	N06AX03	17/03/2009
16124521	N06AX03	27/11/2002
33209870	N06AX03	24/11/2009
16774792	N06AX03	16/09/2009
23326929	N06AX03	01/07/2008
16139599	N06AX03	29/04/2009
23382501	N06AX03	13/04/2006
23381566	N06AX03	16/11/2004
16706166	N06AX03	12/06/2002
16705838	N06AX03	26/05/2005
20989409	N06AX03	27/10/2010
31508294	N06AX03	15/06/2009
31359861	N06AX03	03/07/2006
31800025	N06AX03	11/05/2001
31776570	N06AX03	03/03/2004
31987098	N06AX03	02/04/2007
31813848	N06AX03	15/09/2006
32265725	N06AX03	04/12/2009
31539072	N06AX03	12/04/2007
31102291	N06AX03	20/10/2008
31553569	N06AX03	27/10/2006
32182514	N06AX03	05/01/2008
31390850	N06AX03	16/11/2006
31660701	N06AX03	01/08/2001
31268040	N06AX03	18/02/2009
31950369	N06AX03	16/02/2006
32141296	N06AX03	03/07/2002
31501864	N06AX03	11/06/2007
31154933	N06AX03	29/06/2006
31070465	N06AX03	16/04/2004
31596789	N06AX03	28/01/2004
32081758	N06AX03	23/12/2009
31850345	N06AX03	15/06/2010
31673216	N06AX03	16/12/2008
31819648	N06AX03	31/10/2008
31787887	N06AX03	11/10/2005
31552134	N06AX03	11/01/2005
31566066	N06AX03	15/03/2011
31833963	N06AX03	28/09/2005
