patient_id	covar_name	date
12694596	N06AB10	22/11/2010
3285168	N06AB10	01/06/2011
3501983	N06AB10	31/08/2006
6758571	N06AB10	18/01/2007
10333557	N06AB10	29/11/2005
13223061	N06AB10	15/11/2007
1123839	N06AB10	31/05/2011
9135592	N06AB10	23/09/2010
6040714	N06AB10	01/06/2009
1068148	N06AB10	25/04/2006
9251250	N06AB10	26/11/2010
8654401	N06AB10	11/06/2010
8521498	N06AB10	20/04/2009
12182578	N06AB10	11/04/2011
6756847	N06AB10	11/04/2008
12760945	N06AB10	03/05/2011
12774896	N06AB10	18/05/2011
9176899	N06AB10	01/06/2010
14817020	N06AB10	16/02/2010
21551019	N06AB10	07/03/2011
3940324	N06AB10	16/12/2009
8784088	N06AB10	05/05/2011
61487	N06AB10	18/05/2011
3333113	N06AB10	24/09/2007
1732204	N06AB10	18/04/2007
9984973	N06AB10	02/03/2011
18628739	N06AB10	05/05/2010
21153398	N06AB10	02/02/2011
16977385	N06AB10	04/05/2011
11993675	N06AB10	16/11/2006
5034257	N06AB10	28/08/2008
8977394	N06AB10	30/06/2005
9134837	N06AB10	11/09/2006
8636894	N06AB10	02/12/2008
9249976	N06AB10	31/05/2011
610072	N06AB10	05/05/2011
21153105	N06AB10	12/05/2011
6757275	N06AB10	08/06/2009
12760243	N06AB10	30/05/2011
12781913	N06AB10	07/07/2008
10331924	N06AB10	24/09/2007
8571389	N06AB10	21/04/2009
12829808	N06AB10	16/03/2009
1547786	N06AB10	13/05/2011
16531369	N06AB10	02/03/2009
3124502	N06AB10	21/02/2011
8293863	N06AB10	25/05/2011
8975154	N06AB10	30/05/2011
6235632	N06AB10	20/12/2007
3500978	N06AB10	09/11/2007
9295478	N06AB10	26/01/2006
10392001	N06AB10	02/12/2010
12688967	N06AB10	25/05/2011
9231972	N06AB10	04/03/2008
19184498	N06AB10	19/11/2010
9208920	N06AB10	09/12/2010
8960480	N06AB10	06/09/2007
9386691	N06AB10	12/05/2011
6746752	N06AB10	30/11/2009
20547221	N06AB10	03/02/2009
9383919	N06AB10	25/03/2010
608929	N06AB10	15/11/2010
20325622	N06AB10	06/10/2010
1069732	N06AB10	26/05/2010
17049862	N06AB10	17/05/2011
9389011	N06AB10	18/07/2008
6080444	N06AB10	30/12/2005
12831552	N06AB10	01/06/2011
8700313	N06AB10	16/11/2009
17174935	N06AB10	12/04/2011
5867543	N06AB10	16/03/2011
8277792	N06AB10	10/12/2008
9300058	N06AB10	02/08/2006
8976564	N06AB10	19/06/2009
8979574	N06AB10	24/02/2011
15914106	N06AB10	16/05/2011
8784331	N06AB10	08/02/2011
3332738	N06AB10	23/05/2011
8654132	N06AB10	09/11/2009
608864	N06AB10	26/11/2009
6759472	N06AB10	16/11/2006
21152857	N06AB10	06/06/2008
12220480	N06AB10	05/06/2008
25041749	N06AB10	05/10/2005
13222335	N06AB10	01/06/2011
9294363	N06AB10	03/09/2004
19089604	N06AB10	29/04/2011
9984923	N06AB10	27/07/2007
6757389	N06AB10	20/06/2008
9373053	N06AB10	11/05/2011
20549780	N06AB10	16/11/2005
23442756	N06AB10	24/02/2010
9211842	N06AB10	19/05/2011
13735550	N06AB10	31/05/2011
17172780	N06AB10	23/05/2011
9386317	N06AB10	08/04/2010
9328263	N06AB10	24/07/2007
12185241	N06AB10	26/10/2010
1163237	N06AB10	29/11/2005
8977888	N06AB10	27/12/2008
10245771	N06AB10	11/05/2011
16915547	N06AB10	19/05/2011
6747003	N06AB10	20/05/2011
12173193	N06AB10	19/09/2007
9250225	N06AB10	06/07/2010
7405489	N06AB10	18/12/2007
8785120	N06AB10	07/04/2011
6416595	N06AB10	23/02/2009
21875563	N06AB10	29/03/2011
21871596	N06AB10	09/03/2011
21804843	N06AB10	08/10/2010
12186603	N06AB10	18/05/2011
12760574	N06AB10	13/06/2008
8567599	N06AB10	28/06/2007
3354511	N06AB10	29/03/2006
25042468	N06AB10	08/09/2009
609566	N06AB10	24/03/2011
1517271	N06AB10	06/05/2009
12737954	N06AB10	04/05/2011
16487315	N06AB10	04/02/2010
9388668	N06AB10	04/05/2011
9389414	N06AB10	20/05/2011
12183551	N06AB10	29/04/2011
12739599	N06AB10	06/09/2005
21870725	N06AB10	01/10/2010
6415196	N06AB10	04/11/2009
18774349	N06AB10	08/06/2009
9389876	N06AB10	24/10/2008
8655155	N06AB10	26/03/2009
1123996	N06AB10	11/05/2011
15379888	N06AB10	25/06/2008
9387895	N06AB10	21/06/2005
25063270	N06AB10	01/06/2011
611175	N06AB10	07/04/2005
9250324	N06AB10	26/04/2011
21152999	N06AB10	14/05/2010
9230569	N06AB10	28/05/2007
6416022	N06AB10	13/06/2006
16926616	N06AB10	28/04/2010
7352379	N06AB10	03/05/2010
10332613	N06AB10	15/04/2009
25071236	N06AB10	08/02/2011
1068416	N06AB10	08/10/2008
24930964	N06AB10	12/04/2011
9386360	N06AB10	25/05/2011
10394089	N06AB10	04/11/2010
8651304	N06AB10	27/05/2011
6758769	N06AB10	28/02/2011
8295054	N06AB10	11/05/2011
19228281	N06AB10	18/05/2007
6080455	N06AB10	03/11/2009
1535079	N06AB10	09/11/2009
1067871	N06AB10	08/04/2009
20565596	N06AB10	06/05/2011
5028600	N06AB10	01/03/2011
23471643	N06AB10	26/08/2010
18163097	N06AB10	04/02/2011
8559033	N06AB10	19/04/2011
10331751	N06AB10	26/11/2007
8700724	N06AB10	27/12/2010
24722223	N06AB10	15/12/2009
1433271	N06AB10	10/11/2005
24765903	N06AB10	04/03/2009
9304423	N06AB10	21/08/2007
21856470	N06AB10	07/04/2011
24938903	N06AB10	18/08/2010
9285503	N06AB10	12/08/2008
6415215	N06AB10	15/12/2010
8570807	N06AB10	30/05/2006
12763994	N06AB10	13/08/2009
9383229	N06AB10	06/06/2008
20557064	N06AB10	07/09/2007
8959106	N06AB10	24/05/2010
17172555	N06AB10	06/05/2011
6417619	N06AB10	27/04/2011
8558113	N06AB10	12/05/2009
6757580	N06AB10	14/01/2005
9135559	N06AB10	10/03/2011
8777089	N06AB10	07/06/2010
12777882	N06AB10	17/09/2010
24730055	N06AB10	03/07/2007
9231136	N06AB10	16/03/2006
6035529	N06AB10	09/05/2011
7160922	N06AB10	02/06/2005
1515178	N06AB10	16/05/2008
24765014	N06AB10	08/06/2005
7769748	N06AB10	09/03/2011
21806208	N06AB10	30/05/2011
7407053	N06AB10	24/10/2006
9375873	N06AB10	18/05/2011
11188249	N06AB10	05/01/2011
10002746	N06AB10	02/09/2009
22013417	N06AB10	25/05/2011
1666268	N06AB10	28/08/2009
1354046	N06AB10	16/05/2006
24718616	N06AB10	18/09/2009
1546771	N06AB10	24/05/2011
8934968	N06AB10	07/08/2008
6423594	N06AB10	08/05/2011
438703	N06AB10	31/07/2007
6601880	N06AB10	01/06/2006
12809904	N06AB10	28/04/2009
437691	N06AB10	26/04/2006
1669821	N06AB10	01/06/2011
25335939	N06AB10	09/05/2011
1419222	N06AB10	18/05/2011
6212357	N06AB10	19/08/2009
6603276	N06AB10	31/05/2011
1415901	N06AB10	11/05/2011
7848911	N06AB10	14/03/2011
645386	N06AB10	11/01/2011
12613571	N06AB10	23/04/2010
515721	N06AB10	12/03/2009
7770599	N06AB10	22/04/2009
19776182	N06AB10	08/04/2011
7770640	N06AB10	19/04/2007
1852451	N06AB10	04/05/2011
1379813	N06AB10	15/09/2009
8062012	N06AB10	15/12/2010
1205858	N06AB10	18/08/2010
7966101	N06AB10	19/05/2011
26138989	N06AB10	13/09/2010
12613205	N06AB10	16/06/2010
8934911	N06AB10	03/03/2006
7966882	N06AB10	21/10/2009
1203945	N06AB10	17/12/2004
13984900	N06AB10	12/01/2009
1666507	N06AB10	09/05/2011
24720128	N06AB10	26/01/2011
6595352	N06AB10	13/07/2010
18366741	N06AB10	29/12/2009
1666026	N06AB10	10/11/2008
22103860	N06AB10	23/05/2011
1418084	N06AB10	20/11/2006
6599178	N06AB10	18/04/2011
24719823	N06AB10	24/02/2011
1171783	N06AB10	06/06/2007
1418023	N06AB10	05/05/2009
640398	N06AB10	25/05/2011
1346900	N06AB10	16/05/2011
6597538	N06AB10	15/07/2005
4381496	N06AB10	06/04/2006
6212006	N06AB10	16/05/2011
6591197	N06AB10	23/06/2005
6602978	N06AB10	22/04/2010
7970963	N06AB10	02/02/2010
24719490	N06AB10	17/05/2011
18366106	N06AB10	28/01/2008
645626	N06AB10	10/05/2011
1264946	N06AB10	07/04/2008
7585937	N06AB10	01/02/2011
6425493	N06AB10	09/02/2010
1445809	N06AB10	11/10/2004
1214146	N06AB10	20/04/2011
6602631	N06AB10	23/05/2011
7657311	N06AB10	17/01/2011
641668	N06AB10	24/01/2008
7848502	N06AB10	04/04/2011
22585985	N06AB10	21/08/2009
648336	N06AB10	06/05/2011
1349535	N06AB10	28/04/2011
14695879	N06AB10	24/05/2011
7966461	N06AB10	31/05/2011
24718990	N06AB10	15/03/2010
1424903	N06AB10	05/08/2008
6601131	N06AB10	05/05/2011
540075	N06AB10	29/06/2007
7781663	N06AB10	25/01/2008
1417941	N06AB10	13/05/2010
1665602	N06AB10	28/05/2011
6591119	N06AB10	03/01/2008
6841591	N06AB10	13/12/2007
8063275	N06AB10	06/03/2009
1665483	N06AB10	09/09/2010
2934516	N06AB10	08/05/2011
12613417	N06AB10	13/04/2011
7801716	N06AB10	31/03/2011
564939	N06AB10	05/05/2011
8934613	N06AB10	16/04/2009
6594016	N06AB10	16/10/2008
25335456	N06AB10	24/05/2011
5991761	N06AB10	11/05/2011
6601829	N06AB10	08/05/2008
8956475	N06AB10	02/06/2010
13985332	N06AB10	25/05/2011
4700452	N06AB10	17/08/2007
1850960	N06AB10	09/04/2007
647941	N06AB10	11/05/2011
6212704	N06AB10	07/04/2005
1295868	N06AB10	16/03/2009
1276257	N06AB10	06/09/2006
648003	N06AB10	07/07/2008
18365866	N06AB10	10/03/2008
12187756	N06AB10	21/03/2011
1415854	N06AB10	12/02/2010
6592990	N06AB10	17/05/2011
13264943	N06AB10	15/12/2010
12613860	N06AB10	03/05/2011
1202451	N06AB10	12/04/2011
25248948	N06AB10	24/05/2011
6424945	N06AB10	12/05/2011
1211624	N06AB10	17/10/2008
1090924	N06AB10	18/05/2011
7777716	N06AB10	30/05/2011
1202919	N06AB10	06/11/2008
1356232	N06AB10	28/03/2006
12189511	N06AB10	28/03/2011
7732495	N06AB10	22/04/2010
6594333	N06AB10	17/05/2011
1200653	N06AB10	08/07/2008
6602094	N06AB10	17/03/2011
1417722	N06AB10	23/02/2010
7706534	N06AB10	30/04/2007
7783154	N06AB10	02/07/2008
12614723	N06AB10	09/05/2011
6212361	N06AB10	13/11/2009
13116462	N06AB10	26/05/2011
1850488	N06AB10	19/07/2005
1641372	N06AB10	08/05/2009
1133221	N06AB10	31/07/2008
1133457	N06AB10	13/04/2011
1851693	N06AB10	02/01/2009
1110947	N06AB10	18/06/2010
1130346	N06AB10	28/07/2010
1425322	N06AB10	17/02/2010
996675	N06AB10	24/09/2009
1103491	N06AB10	16/09/2010
22844462	N06AB10	28/06/2010
1100704	N06AB10	20/06/2008
1132237	N06AB10	14/04/2005
1102247	N06AB10	01/10/2010
6392849	N06AB10	28/10/2008
5975487	N06AB10	10/03/2010
1102090	N06AB10	21/09/2009
135806	N06AB10	06/04/2011
1103763	N06AB10	20/10/2010
1130304	N06AB10	21/08/2008
12640327	N06AB10	17/05/2011
715994	N06AB10	22/02/2007
1134288	N06AB10	03/10/2008
25776569	N06AB10	10/11/2009
25817849	N06AB10	08/08/2005
6513850	N06AB10	24/03/2011
189189	N06AB10	19/08/2005
999093	N06AB10	12/05/2011
25894286	N06AB10	04/05/2011
1581257	N06AB10	16/03/2011
133899	N06AB10	19/05/2011
6513876	N06AB10	02/02/2011
1855343	N06AB10	17/06/2010
1641035	N06AB10	09/05/2011
1111994	N06AB10	11/11/2010
190945	N06AB10	17/04/2009
1581260	N06AB10	12/05/2011
1134812	N06AB10	24/06/2010
1132627	N06AB10	13/03/2009
717746	N06AB10	15/03/2005
25776775	N06AB10	23/05/2011
25908066	N06AB10	12/02/2007
1131048	N06AB10	07/01/2010
1131855	N06AB10	22/08/2005
2059870	N06AB10	19/04/2011
2214534	N06AB10	20/04/2010
2059046	N06AB10	05/05/2011
2164170	N06AB10	17/12/2010
2218729	N06AB10	22/06/2007
2068934	N06AB10	29/03/2011
2216845	N06AB10	16/09/2009
2140399	N06AB10	01/04/2005
2139488	N06AB10	13/10/2010
2041105	N06AB10	16/02/2010
2059211	N06AB10	21/04/2008
902957	N06AB10	04/12/2010
2036391	N06AB10	18/02/2011
2034262	N06AB10	29/07/2008
2034532	N06AB10	16/07/2010
859215	N06AB10	26/07/2010
2140421	N06AB10	05/11/2009
2035752	N06AB10	23/06/2010
2139279	N06AB10	04/02/2009
2142967	N06AB10	19/06/2006
2058667	N06AB10	22/02/2011
2058510	N06AB10	25/02/2011
1791892	N06AB10	23/04/2008
1682937	N06AB10	08/03/2010
1765747	N06AB10	09/01/2009
757643	N06AB10	06/07/2009
1762072	N06AB10	27/05/2009
2777014	N06AB10	28/06/2010
6335061	N06AB10	10/05/2007
3053335	N06AB10	16/05/2011
7134993	N06AB10	18/04/2011
2039713	N06AB10	30/09/2010
1762344	N06AB10	23/08/2007
7037584	N06AB10	18/06/2010
2041614	N06AB10	16/05/2011
1764942	N06AB10	05/05/2011
858702	N06AB10	05/03/2007
860142	N06AB10	27/05/2008
2765835	N06AB10	08/04/2011
7047183	N06AB10	06/05/2011
2774863	N06AB10	15/04/2009
3052992	N06AB10	30/09/2010
2776744	N06AB10	22/09/2010
2765080	N06AB10	02/07/2007
2755178	N06AB10	07/06/2005
2756706	N06AB10	07/01/2010
2754283	N06AB10	04/05/2011
2524518	N06AB10	21/05/2011
2573816	N06AB10	04/05/2010
2407872	N06AB10	04/01/2007
2522313	N06AB10	10/03/2007
2772820	N06AB10	30/05/2011
2756684	N06AB10	11/12/2009
2575070	N06AB10	22/03/2006
2521933	N06AB10	14/09/2010
16979732	N06AB10	04/03/2011
16835317	N06AB10	30/05/2011
26460058	N06AB10	14/02/2008
28068948	N06AB10	01/06/2010
26462682	N06AB10	18/05/2011
26462699	N06AB10	01/02/2008
26441939	N06AB10	19/05/2011
26351975	N06AB10	06/07/2005
26481067	N06AB10	13/09/2010
28045160	N06AB10	19/10/2006
26461518	N06AB10	10/03/2010
7047760	N06AB10	17/05/2011
17041460	N06AB10	31/10/2008
20673717	N06AB10	17/02/2010
7228785	N06AB10	10/05/2011
18222850	N06AB10	04/02/2011
7048780	N06AB10	11/06/2010
26236533	N06AB10	18/04/2011
26236039	N06AB10	03/05/2011
18223862	N06AB10	10/09/2010
7029283	N06AB10	14/09/2006
20023965	N06AB10	10/10/2008
26338968	N06AB10	16/03/2011
20147230	N06AB10	10/05/2011
26409825	N06AB10	17/07/2008
26462901	N06AB10	02/12/2010
20673582	N06AB10	20/08/2010
26463678	N06AB10	30/07/2010
28042198	N06AB10	21/03/2006
28042210	N06AB10	11/03/2010
22092867	N06AB10	11/01/2008
26488369	N06AB10	10/05/2011
18471446	N06AB10	01/12/2009
26384460	N06AB10	01/06/2011
17324116	N06AB10	20/08/2009
26235928	N06AB10	23/08/2010
26351541	N06AB10	20/08/2008
26244453	N06AB10	05/04/2011
9603730	N06AB10	23/09/2009
16836654	N06AB10	06/09/2007
16836109	N06AB10	23/11/2009
7135727	N06AB10	01/02/2010
8117960	N06AB10	03/01/2007
10490915	N06AB10	11/05/2011
13003749	N06AB10	18/06/2009
1910163	N06AB10	27/04/2011
300617	N06AB10	04/05/2011
184185	N06AB10	14/07/2010
1910382	N06AB10	20/05/2008
425132	N06AB10	09/05/2011
2965493	N06AB10	16/07/2009
1900897	N06AB10	06/06/2008
1903000	N06AB10	16/04/2011
1910935	N06AB10	25/09/2007
1911118	N06AB10	16/04/2007
6577193	N06AB10	02/03/2006
4110046	N06AB10	05/04/2009
185359	N06AB10	05/07/2010
433439	N06AB10	01/03/2006
2963419	N06AB10	08/03/2011
419475	N06AB10	17/08/2010
433748	N06AB10	11/01/2011
1900723	N06AB10	17/11/2010
1904412	N06AB10	17/02/2005
4262552	N06AB10	29/12/2008
6570339	N06AB10	22/07/2008
426744	N06AB10	05/05/2011
303161	N06AB10	18/04/2011
12979856	N06AB10	21/06/2010
2960079	N06AB10	14/11/2008
12994706	N06AB10	18/01/2006
2215741	N06AB10	01/06/2011
16825771	N06AB10	24/05/2011
28080570	N06AB10	01/06/2011
26481625	N06AB10	14/03/2011
11524756	N06AB10	12/09/2008
2522225	N06AB10	23/10/2009
28044182	N06AB10	03/05/2011
28080679	N06AB10	03/09/2009
1753843	N06AB10	16/05/2011
28091105	N06AB10	04/03/2011
28087610	N06AB10	06/08/2010
26462845	N06AB10	17/12/2008
28072491	N06AB10	15/10/2007
28083747	N06AB10	28/04/2011
28080061	N06AB10	23/01/2008
28090121	N06AB10	30/09/2010
186102	N06AB10	24/02/2011
437584	N06AB10	06/05/2011
17746159	N06AB10	19/04/2011
418421	N06AB10	25/05/2011
419430	N06AB10	06/08/2008
182089	N06AB10	28/03/2011
301074	N06AB10	17/05/2011
186064	N06AB10	06/05/2011
265392	N06AB10	29/05/2006
859897	N06AB10	18/03/2011
185927	N06AB10	13/12/2010
28055834	N06AB10	13/09/2010
28053782	N06AB10	07/01/2011
28066682	N06AB10	20/11/2008
28080549	N06AB10	25/01/2011
28066204	N06AB10	11/06/2007
28045829	N06AB10	24/05/2011
28069841	N06AB10	07/03/2011
28071033	N06AB10	22/04/2009
28045890	N06AB10	23/04/2009
24669451	N06AB10	25/05/2011
25535638	N06AB10	16/11/2006
25556018	N06AB10	15/07/2009
25741980	N06AB10	19/11/2010
24664876	N06AB10	01/06/2011
24664523	N06AB10	28/11/2007
25539451	N06AB10	02/06/2009
25588570	N06AB10	10/01/2008
24668234	N06AB10	18/01/2011
24668665	N06AB10	28/05/2011
24670042	N06AB10	20/04/2007
25704459	N06AB10	10/04/2011
24666053	N06AB10	20/04/2006
24664366	N06AB10	22/05/2010
24663007	N06AB10	15/01/2009
24657011	N06AB10	12/05/2011
24668649	N06AB10	17/05/2011
26629170	N06AB10	30/05/2011
24665845	N06AB10	15/01/2008
24667949	N06AB10	17/05/2011
1019290	N06AB10	10/07/2007
1021057	N06AB10	18/09/2008
1911410	N06AB10	12/11/2007
1020352	N06AB10	16/05/2011
1014856	N06AB10	25/03/2011
1015551	N06AB10	18/05/2011
1372823	N06AB10	31/10/2006
1374276	N06AB10	09/05/2011
19965265	N06AB10	30/08/2005
1903682	N06AB10	29/10/2007
1370928	N06AB10	19/02/2008
1363712	N06AB10	01/12/2010
1013085	N06AB10	05/03/2010
1019857	N06AB10	08/01/2010
1029992	N06AB10	19/07/2010
1366697	N06AB10	01/07/2008
1359321	N06AB10	31/03/2005
16566958	N06AB10	25/02/2009
16566979	N06AB10	24/11/2008
1368854	N06AB10	11/10/2007
422231	N06AB10	21/05/2011
1359659	N06AB10	18/08/2005
18199909	N06AB10	01/11/2009
21386521	N06AB10	07/06/2010
18194003	N06AB10	30/05/2011
18189507	N06AB10	17/04/2009
18194455	N06AB10	07/09/2007
21063008	N06AB10	02/09/2008
16567128	N06AB10	17/11/2005
19423946	N06AB10	12/02/2009
19801472	N06AB10	20/05/2011
17596151	N06AB10	11/12/2008
22766292	N06AB10	10/05/2011
18193951	N06AB10	01/07/2010
16568733	N06AB10	19/11/2010
1903111	N06AB10	16/11/2007
1911817	N06AB10	25/05/2011
1906291	N06AB10	21/05/2010
4317303	N06AB10	08/10/2010
2249019	N06AB10	26/05/2011
2249107	N06AB10	25/07/2007
1900679	N06AB10	05/05/2010
2250411	N06AB10	02/07/2007
1015859	N06AB10	02/06/2008
1899549	N06AB10	06/02/2007
1015918	N06AB10	12/05/2011
1989405	N06AB10	10/03/2008
1019222	N06AB10	19/05/2011
26833959	N06AB10	08/07/2010
26792147	N06AB10	01/04/2009
26794179	N06AB10	03/03/2007
26782527	N06AB10	30/03/2011
26852141	N06AB10	20/05/2011
26626081	N06AB10	11/03/2011
26701873	N06AB10	04/05/2011
26719743	N06AB10	02/12/2010
26722694	N06AB10	26/03/2009
26719457	N06AB10	26/05/2011
26700153	N06AB10	17/10/2008
26833423	N06AB10	08/07/2008
26628935	N06AB10	27/04/2011
26637068	N06AB10	31/05/2011
26630135	N06AB10	23/05/2011
26720817	N06AB10	24/01/2008
26856605	N06AB10	19/10/2005
26638407	N06AB10	27/05/2011
26834531	N06AB10	31/03/2011
12993861	N06AB10	18/04/2011
17128641	N06AB10	12/05/2011
2989757	N06AB10	02/04/2007
2987979	N06AB10	16/05/2011
24577045	N06AB10	09/10/2008
16105473	N06AB10	16/10/2006
16567620	N06AB10	27/09/2010
13788822	N06AB10	18/05/2011
21553551	N06AB10	26/09/2010
17165183	N06AB10	31/01/2007
26717898	N06AB10	05/09/2007
16810058	N06AB10	30/05/2008
26628248	N06AB10	15/05/2011
26618323	N06AB10	10/12/2009
26723041	N06AB10	27/05/2011
25740921	N06AB10	14/06/2005
26640542	N06AB10	17/07/2006
26616688	N06AB10	06/05/2011
16844556	N06AB10	24/05/2011
26707413	N06AB10	20/04/2011
26723126	N06AB10	08/05/2006
26703594	N06AB10	10/03/2010
26620755	N06AB10	30/06/2010
26723222	N06AB10	11/05/2009
26642904	N06AB10	18/09/2007
11674234	N06AB10	28/02/2008
26702888	N06AB10	20/05/2011
26616643	N06AB10	14/06/2010
26618242	N06AB10	01/06/2011
24578320	N06AB10	07/04/2009
24576414	N06AB10	02/03/2011
24581188	N06AB10	16/05/2011
24580499	N06AB10	05/09/2009
24664298	N06AB10	22/07/2008
22922995	N06AB10	20/05/2011
19968501	N06AB10	14/03/2008
21554193	N06AB10	06/08/2007
21651799	N06AB10	26/01/2009
24656409	N06AB10	28/11/2010
23451824	N06AB10	11/03/2011
24581156	N06AB10	19/05/2011
26917078	N06AB10	23/07/2010
26959939	N06AB10	20/10/2010
26932610	N06AB10	21/06/2007
26894948	N06AB10	10/11/2008
26946237	N06AB10	27/05/2011
26959534	N06AB10	20/05/2011
26935501	N06AB10	01/06/2011
26950826	N06AB10	06/05/2011
26907322	N06AB10	28/05/2007
26932901	N06AB10	03/05/2006
26948632	N06AB10	31/05/2011
26948113	N06AB10	16/02/2009
26897795	N06AB10	25/02/2011
26930368	N06AB10	16/06/2010
26936020	N06AB10	25/11/2009
26949733	N06AB10	21/06/2010
26949743	N06AB10	04/03/2011
26932449	N06AB10	26/09/2008
26730017	N06AB10	18/05/2011
26879225	N06AB10	30/05/2011
26777748	N06AB10	08/11/2005
26720306	N06AB10	31/12/2007
26758937	N06AB10	28/11/2010
26742016	N06AB10	10/05/2011
26854601	N06AB10	28/05/2011
26877917	N06AB10	15/10/2010
26703793	N06AB10	02/02/2010
26857096	N06AB10	11/04/2011
26730108	N06AB10	10/05/2010
26714061	N06AB10	05/02/2010
26871932	N06AB10	04/04/2007
26779298	N06AB10	06/08/2010
26720115	N06AB10	29/08/2008
26847106	N06AB10	28/12/2009
26863482	N06AB10	11/04/2011
26876200	N06AB10	15/02/2011
26874283	N06AB10	05/03/2007
26848422	N06AB10	09/01/2007
26876069	N06AB10	06/05/2011
26939100	N06AB10	19/11/2010
26859766	N06AB10	11/01/2011
26848628	N06AB10	11/07/2005
26856371	N06AB10	21/01/2011
26847639	N06AB10	14/08/2007
26942306	N06AB10	03/03/2010
26851758	N06AB10	07/05/2011
26851800	N06AB10	01/06/2011
26810566	N06AB10	18/04/2011
26835238	N06AB10	06/03/2007
26792107	N06AB10	09/05/2011
26789735	N06AB10	05/05/2009
26776303	N06AB10	06/07/2010
26829352	N06AB10	08/05/2011
26834404	N06AB10	26/10/2010
26770174	N06AB10	03/05/2011
26790021	N06AB10	16/11/2010
26851485	N06AB10	11/05/2011
26776668	N06AB10	04/03/2011
26717132	N06AB10	29/04/2009
26825165	N06AB10	23/03/2009
26833689	N06AB10	29/05/2011
26995682	N06AB10	23/04/2007
26992284	N06AB10	19/05/2011
26977552	N06AB10	25/08/2010
26981147	N06AB10	26/05/2011
26995388	N06AB10	12/05/2011
26988800	N06AB10	30/05/2011
26956977	N06AB10	01/06/2009
27031524	N06AB10	29/05/2011
26939942	N06AB10	14/12/2006
26997476	N06AB10	13/05/2011
27043376	N06AB10	24/03/2009
26976896	N06AB10	31/05/2011
26990531	N06AB10	14/12/2007
27105329	N06AB10	29/04/2010
27112721	N06AB10	12/09/2006
27149748	N06AB10	24/08/2007
27136867	N06AB10	30/06/2008
27127480	N06AB10	31/03/2011
27086068	N06AB10	16/05/2011
27116989	N06AB10	29/05/2011
27109851	N06AB10	01/10/2009
27115659	N06AB10	04/03/2011
27037601	N06AB10	06/05/2011
27100393	N06AB10	07/07/2010
27151056	N06AB10	11/05/2011
27133554	N06AB10	07/12/2010
27151096	N06AB10	24/05/2011
27102811	N06AB10	10/05/2005
27106339	N06AB10	03/01/2011
27033025	N06AB10	26/07/2007
27062255	N06AB10	28/03/2011
27061447	N06AB10	23/02/2007
27034569	N06AB10	16/05/2011
27029722	N06AB10	11/05/2011
27046614	N06AB10	31/03/2009
27062156	N06AB10	11/05/2011
27065487	N06AB10	05/09/2008
27113881	N06AB10	07/05/2010
27055101	N06AB10	26/02/2010
27054066	N06AB10	08/10/2010
27038308	N06AB10	10/05/2011
26991420	N06AB10	15/07/2009
27024854	N06AB10	20/05/2011
26996974	N06AB10	25/05/2011
27036972	N06AB10	01/06/2011
26996216	N06AB10	26/01/2006
26994966	N06AB10	23/11/2010
26991921	N06AB10	22/01/2010
27000699	N06AB10	09/04/2009
27025011	N06AB10	16/02/2011
27026108	N06AB10	16/05/2011
27024263	N06AB10	09/03/2010
26994837	N06AB10	19/01/2010
26994848	N06AB10	15/04/2009
27022026	N06AB10	11/10/2007
27024702	N06AB10	22/07/2009
27037839	N06AB10	29/12/2010
26998766	N06AB10	13/05/2011
27170731	N06AB10	04/04/2011
27400146	N06AB10	21/03/2011
27388891	N06AB10	11/05/2011
27325567	N06AB10	01/10/2009
27286384	N06AB10	08/07/2010
27171122	N06AB10	04/06/2009
27326175	N06AB10	19/05/2011
27325913	N06AB10	23/11/2005
27213388	N06AB10	26/11/2008
27129573	N06AB10	26/05/2011
27130080	N06AB10	22/10/2010
27286968	N06AB10	07/08/2009
27166818	N06AB10	20/10/2010
27244696	N06AB10	13/05/2011
27211077	N06AB10	19/04/2007
27396771	N06AB10	11/06/2009
27368673	N06AB10	09/02/2009
27315277	N06AB10	14/09/2009
27324202	N06AB10	14/10/2010
27170658	N06AB10	29/06/2010
27349595	N06AB10	17/04/2006
27321815	N06AB10	21/06/2010
27369903	N06AB10	24/02/2009
27352037	N06AB10	03/04/2007
27367264	N06AB10	18/03/2010
27360856	N06AB10	18/05/2011
27220409	N06AB10	13/09/2006
27348533	N06AB10	22/06/2007
27305367	N06AB10	15/02/2010
27390453	N06AB10	05/05/2011
27319826	N06AB10	22/05/2009
27319905	N06AB10	29/05/2011
27253823	N06AB10	28/04/2011
27254030	N06AB10	24/05/2010
27249965	N06AB10	26/05/2011
27170019	N06AB10	11/03/2009
26957165	N06AB10	31/05/2011
26957726	N06AB10	22/09/2005
27389179	N06AB10	10/05/2011
27241360	N06AB10	11/02/2011
26967647	N06AB10	21/05/2007
26979715	N06AB10	18/11/2008
27171327	N06AB10	25/05/2011
26989196	N06AB10	17/05/2011
26997585	N06AB10	27/04/2009
27597168	N06AB10	13/01/2006
27592082	N06AB10	12/07/2010
27593063	N06AB10	19/09/2006
27642131	N06AB10	20/05/2011
27568172	N06AB10	03/05/2011
27622219	N06AB10	02/03/2011
27595721	N06AB10	06/06/2008
27596311	N06AB10	03/06/2005
27646502	N06AB10	26/05/2011
27470568	N06AB10	15/02/2010
27414554	N06AB10	18/02/2008
27481161	N06AB10	23/05/2011
27445432	N06AB10	19/05/2011
27453703	N06AB10	19/12/2006
27493387	N06AB10	26/12/2008
27660426	N06AB10	26/02/2008
27493267	N06AB10	26/04/2011
27642736	N06AB10	10/05/2011
27476227	N06AB10	21/06/2010
27480968	N06AB10	17/03/2011
27645639	N06AB10	22/07/2010
27427456	N06AB10	27/12/2004
27448710	N06AB10	03/11/2008
27657086	N06AB10	25/05/2011
27716882	N06AB10	20/05/2011
27717220	N06AB10	20/09/2005
27572767	N06AB10	08/01/2007
27708161	N06AB10	11/11/2008
27564660	N06AB10	22/10/2007
27756348	N06AB10	26/05/2010
27707969	N06AB10	02/04/2009
27564600	N06AB10	04/04/2011
27743940	N06AB10	02/05/2006
27752383	N06AB10	29/04/2010
27607181	N06AB10	28/05/2009
27566543	N06AB10	08/05/2008
27551398	N06AB10	08/09/2004
27544471	N06AB10	04/12/2007
27720067	N06AB10	28/03/2011
27572901	N06AB10	31/07/2008
27565661	N06AB10	18/03/2011
27565857	N06AB10	01/06/2011
27573207	N06AB10	12/05/2011
27544033	N06AB10	20/04/2011
27545579	N06AB10	29/09/2010
27153665	N06AB10	08/05/2011
27147794	N06AB10	30/04/2010
27160607	N06AB10	03/06/2009
27153923	N06AB10	01/06/2011
27143752	N06AB10	07/02/2011
27150779	N06AB10	21/07/2007
27132788	N06AB10	20/10/2008
27285401	N06AB10	31/05/2011
27287115	N06AB10	11/05/2011
27229030	N06AB10	18/02/2005
26998989	N06AB10	25/05/2011
27785567	N06AB10	08/05/2008
26702902	N06AB10	31/05/2011
27782560	N06AB10	31/05/2011
26976144	N06AB10	26/05/2008
26975914	N06AB10	26/03/2008
648889	N06AB10	17/06/2009
27663478	N06AB10	16/06/2006
27249520	N06AB10	17/02/2010
26829603	N06AB10	12/01/2010
1016318	N06AB10	30/05/2011
27248683	N06AB10	23/04/2009
27516033	N06AB10	19/04/2010
27716439	N06AB10	04/05/2011
27772101	N06AB10	17/05/2011
27718156	N06AB10	17/03/2011
27538788	N06AB10	25/05/2011
27533855	N06AB10	01/03/2007
27671060	N06AB10	24/05/2011
27682049	N06AB10	04/09/2009
27665250	N06AB10	15/05/2011
27772597	N06AB10	17/07/2006
27473685	N06AB10	16/11/2010
27480464	N06AB10	27/05/2011
27532981	N06AB10	09/09/2009
27475520	N06AB10	12/01/2011
27496435	N06AB10	20/05/2011
27470095	N06AB10	18/03/2010
24654854	N06AB10	08/04/2011
27668538	N06AB10	16/05/2011
26858670	N06AB10	10/09/2009
27352244	N06AB10	06/03/2009
27679826	N06AB10	14/02/2011
27543143	N06AB10	13/06/2006
27369999	N06AB10	05/05/2011
27663724	N06AB10	02/07/2007
27810748	N06AB10	15/03/2006
27674082	N06AB10	16/05/2008
27719911	N06AB10	14/04/2011
27680750	N06AB10	16/05/2011
27198984	N06AB10	04/12/2009
27648562	N06AB10	16/05/2011
27508678	N06AB10	02/12/2009
27537759	N06AB10	11/01/2007
27496739	N06AB10	16/02/2009
27529083	N06AB10	28/04/2011
27602543	N06AB10	25/04/2006
27528685	N06AB10	01/03/2011
27512714	N06AB10	28/11/2006
27608043	N06AB10	23/07/2010
27614281	N06AB10	08/08/2007
27574011	N06AB10	29/10/2007
27591699	N06AB10	28/04/2009
27591724	N06AB10	20/12/2004
27643404	N06AB10	01/06/2011
26933407	N06AB10	17/05/2011
27707840	N06AB10	15/06/2006
27116483	N06AB10	25/08/2006
26619933	N06AB10	13/12/2010
27666873	N06AB10	29/03/2011
26830544	N06AB10	31/03/2009
25542610	N06AB10	18/04/2011
27043127	N06AB10	22/07/2009
1904202	N06AB10	23/02/2007
1910012	N06AB10	07/01/2010
27133136	N06AB10	13/04/2010
27803448	N06AB10	16/02/2011
27812357	N06AB10	28/05/2011
27805384	N06AB10	10/05/2011
26760653	N06AB10	25/05/2011
27579596	N06AB10	29/11/2010
27595452	N06AB10	10/12/2010
27220336	N06AB10	19/04/2011
27764988	N06AB10	09/08/2009
27668465	N06AB10	02/07/2007
27708064	N06AB10	02/11/2009
27799688	N06AB10	14/05/2010
27758876	N06AB10	21/03/2007
27793920	N06AB10	26/05/2011
27797371	N06AB10	16/05/2011
27799100	N06AB10	16/07/2008
27765654	N06AB10	30/05/2011
27804103	N06AB10	30/05/2011
27676260	N06AB10	06/10/2006
27667263	N06AB10	19/02/2009
27709451	N06AB10	08/03/2006
26865262	N06AB10	13/05/2011
27715841	N06AB10	28/02/2011
27764267	N06AB10	16/10/2006
27758552	N06AB10	21/01/2010
27662240	N06AB10	19/05/2011
27716869	N06AB10	11/12/2009
27794774	N06AB10	29/09/2005
27516419	N06AB10	05/05/2008
1911207	N06AB10	31/05/2006
620759	N06AB10	19/11/2007
27474579	N06AB10	14/05/2007
27170744	N06AB10	11/05/2011
27720525	N06AB10	13/12/2007
19800992	N06AB10	09/05/2011
27520212	N06AB10	23/03/2011
26896740	N06AB10	31/05/2011
24581757	N06AB10	05/05/2011
27471521	N06AB10	22/01/2008
27588768	N06AB10	01/06/2011
26975695	N06AB10	16/11/2009
26848080	N06AB10	26/05/2011
21554527	N06AB10	25/08/2010
26715183	N06AB10	30/10/2009
27682984	N06AB10	15/03/2010
27572773	N06AB10	30/05/2011
27718920	N06AB10	31/05/2011
27283919	N06AB10	17/09/2010
27160813	N06AB10	06/03/2007
27782658	N06AB10	17/05/2011
27352486	N06AB10	25/05/2011
27785385	N06AB10	16/04/2009
26887104	N06AB10	19/04/2007
26855749	N06AB10	06/08/2009
33040260	N06AB10	06/09/2005
33008470	N06AB10	09/03/2010
33018984	N06AB10	31/03/2011
33111336	N06AB10	05/01/2011
33072664	N06AB10	30/03/2011
33072082	N06AB10	15/01/2008
33033701	N06AB10	31/01/2008
33086922	N06AB10	20/04/2007
33065576	N06AB10	30/08/2010
33077958	N06AB10	03/06/2009
33062908	N06AB10	01/08/2007
33085788	N06AB10	04/03/2011
33099219	N06AB10	23/10/2006
33033944	N06AB10	14/08/2006
33101266	N06AB10	13/07/2007
33083573	N06AB10	30/05/2011
33085936	N06AB10	06/04/2010
33067601	N06AB10	07/02/2011
33045066	N06AB10	29/11/2006
33030987	N06AB10	10/03/2009
33103882	N06AB10	31/05/2011
33114019	N06AB10	23/02/2011
33055912	N06AB10	24/02/2010
33054165	N06AB10	09/05/2011
33105346	N06AB10	20/04/2011
33025822	N06AB10	19/09/2010
33108903	N06AB10	04/05/2009
33026966	N06AB10	19/10/2006
33088577	N06AB10	16/10/2006
33072290	N06AB10	18/05/2011
33050069	N06AB10	04/12/2008
33080281	N06AB10	06/10/2010
33027943	N06AB10	07/03/2006
33072179	N06AB10	25/05/2011
33116452	N06AB10	17/11/2010
33112449	N06AB10	23/03/2011
33097581	N06AB10	05/05/2010
33028747	N06AB10	14/12/2008
33005022	N06AB10	18/04/2005
33099866	N06AB10	07/07/2010
33071918	N06AB10	04/02/2011
33098869	N06AB10	25/10/2004
33066018	N06AB10	04/03/2011
33038986	N06AB10	03/05/2011
33072253	N06AB10	22/02/2007
33079795	N06AB10	15/06/2010
33090387	N06AB10	11/05/2011
33008425	N06AB10	18/02/2010
33031927	N06AB10	11/07/2007
33106840	N06AB10	04/05/2011
33113368	N06AB10	08/04/2008
33030108	N06AB10	03/09/2009
33100593	N06AB10	04/05/2011
33054043	N06AB10	21/07/2009
33127008	N06AB10	04/02/2011
33073796	N06AB10	07/12/2010
33023752	N06AB10	13/05/2010
33038806	N06AB10	05/06/2008
33006169	N06AB10	20/05/2011
33024491	N06AB10	07/03/2008
33085372	N06AB10	08/08/2007
33091621	N06AB10	03/04/2010
33026052	N06AB10	11/05/2011
33067653	N06AB10	11/08/2006
33005410	N06AB10	27/11/2007
33072776	N06AB10	26/04/2011
33059213	N06AB10	10/06/2010
33011692	N06AB10	01/03/2010
33026145	N06AB10	20/05/2011
33014069	N06AB10	22/07/2008
33117108	N06AB10	25/05/2011
2963608	N06AB10	28/06/2010
304463	N06AB10	28/12/2005
33097057	N06AB10	03/12/2010
27661862	N06AB10	18/05/2005
33014006	N06AB10	10/01/2011
27803662	N06AB10	09/08/2010
6636104	N06AB10	14/02/2011
27796540	N06AB10	28/04/2009
187834	N06AB10	13/04/2011
12980458	N06AB10	19/04/2011
27800055	N06AB10	28/01/2008
27805178	N06AB10	15/05/2011
24663992	N06AB10	03/03/2011
27800569	N06AB10	18/06/2005
27798157	N06AB10	07/10/2008
33063821	N06AB10	03/06/2008
24661802	N06AB10	15/04/2011
27668753	N06AB10	17/05/2011
33008240	N06AB10	17/02/2010
26626671	N06AB10	27/05/2011
27087830	N06AB10	13/01/2011
12980341	N06AB10	10/09/2010
24666775	N06AB10	12/08/2010
265805	N06AB10	26/09/2008
23362899	N06AB10	13/04/2011
16712568	N06AB10	30/11/2010
33109924	N06AB10	02/02/2007
16167141	N06AB10	09/07/2007
23382045	N06AB10	11/12/2008
33064650	N06AB10	09/03/2009
33014996	N06AB10	21/02/2011
33304554	N06AB10	29/10/2010
16178210	N06AB10	03/01/2011
23320348	N06AB10	28/12/2006
33231539	N06AB10	12/04/2011
20983764	N06AB10	18/08/2010
16612849	N06AB10	22/09/2008
16602253	N06AB10	09/03/2009
33077626	N06AB10	03/03/2011
33240083	N06AB10	07/09/2010
33234595	N06AB10	19/07/2007
23335211	N06AB10	12/05/2011
33091181	N06AB10	21/11/2006
33004734	N06AB10	28/09/2010
33094299	N06AB10	10/03/2009
33106850	N06AB10	17/06/2010
33005091	N06AB10	27/06/2008
33056325	N06AB10	08/02/2011
33117698	N06AB10	17/05/2011
33033679	N06AB10	19/06/2006
33073370	N06AB10	23/05/2011
33088532	N06AB10	08/07/2010
33013638	N06AB10	20/12/2010
33110773	N06AB10	12/01/2007
33053569	N06AB10	12/04/2011
33044945	N06AB10	25/04/2008
33091178	N06AB10	28/05/2008
33057719	N06AB10	01/08/2006
33112492	N06AB10	18/05/2011
33026699	N06AB10	01/02/2011
33093395	N06AB10	01/04/2009
33033482	N06AB10	03/04/2007
33045618	N06AB10	24/02/2011
33074065	N06AB10	27/05/2011
33113117	N06AB10	21/07/2009
33085397	N06AB10	29/01/2009
33052051	N06AB10	14/04/2011
33020653	N06AB10	07/09/2009
33005415	N06AB10	14/12/2006
33112040	N06AB10	25/06/2010
33023608	N06AB10	29/03/2007
33020543	N06AB10	18/06/2009
33034590	N06AB10	06/11/2009
33050169	N06AB10	13/07/2005
33104966	N06AB10	24/05/2005
33053146	N06AB10	17/11/2008
33075595	N06AB10	03/11/2006
33033727	N06AB10	11/06/2010
33007261	N06AB10	14/09/2010
33096256	N06AB10	08/03/2011
33004385	N06AB10	25/10/2004
33005144	N06AB10	20/05/2011
33091322	N06AB10	16/03/2009
33087055	N06AB10	01/03/2011
33066983	N06AB10	08/02/2011
33109860	N06AB10	21/09/2005
33091289	N06AB10	15/11/2010
33011684	N06AB10	25/04/2011
33066033	N06AB10	11/10/2005
33008928	N06AB10	01/06/2009
33112092	N06AB10	07/02/2005
33129831	N06AB10	06/05/2010
33003742	N06AB10	17/05/2011
33103069	N06AB10	04/05/2011
33033745	N06AB10	17/01/2011
33026290	N06AB10	03/05/2011
33100135	N06AB10	24/07/2006
33053638	N06AB10	30/04/2009
33007894	N06AB10	10/05/2011
33058122	N06AB10	14/10/2008
33080840	N06AB10	01/06/2011
23227463	N06AB10	16/09/2005
33234694	N06AB10	31/05/2011
23342582	N06AB10	14/12/2010
23370144	N06AB10	14/07/2010
16166333	N06AB10	12/05/2011
16179088	N06AB10	04/05/2011
16634466	N06AB10	27/08/2007
16625249	N06AB10	16/12/2010
27983775	N06AB10	22/02/2010
33226133	N06AB10	27/04/2010
21114091	N06AB10	26/08/2009
16684319	N06AB10	26/07/2007
16596794	N06AB10	19/07/2007
16612611	N06AB10	06/09/2010
23329515	N06AB10	17/01/2011
16606508	N06AB10	16/12/2008
27985054	N06AB10	20/07/2009
33219113	N06AB10	14/01/2009
27934625	N06AB10	19/10/2010
16610929	N06AB10	30/03/2011
21109139	N06AB10	28/03/2007
23396603	N06AB10	23/05/2011
33235704	N06AB10	15/11/2010
16636482	N06AB10	26/04/2010
33231347	N06AB10	16/09/2004
21114663	N06AB10	07/08/2009
33264985	N06AB10	09/05/2011
18771664	N06AB10	06/03/2007
16181675	N06AB10	28/05/2008
14188303	N06AB10	05/09/2008
28029027	N06AB10	23/03/2011
28016533	N06AB10	11/06/2010
18768005	N06AB10	03/05/2011
18769506	N06AB10	16/03/2011
16635211	N06AB10	11/08/2008
33298283	N06AB10	29/04/2011
16610882	N06AB10	10/12/2008
16165687	N06AB10	16/05/2011
27880027	N06AB10	17/04/2009
28023165	N06AB10	01/04/2009
16609624	N06AB10	23/08/2004
33253197	N06AB10	01/06/2011
33310131	N06AB10	10/03/2009
27913617	N06AB10	26/05/2011
23362937	N06AB10	18/09/2006
27913588	N06AB10	01/07/2009
24463738	N06AB10	16/07/2008
33307085	N06AB10	01/06/2011
23399352	N06AB10	06/11/2006
28020948	N06AB10	17/04/2009
20965244	N06AB10	19/04/2010
18755801	N06AB10	04/05/2011
28022811	N06AB10	14/04/2010
33203750	N06AB10	15/07/2009
33204424	N06AB10	24/12/2008
23396351	N06AB10	29/11/2010
23344028	N06AB10	31/05/2007
33248203	N06AB10	06/05/2011
28000274	N06AB10	30/05/2011
28016723	N06AB10	04/06/2009
23361804	N06AB10	11/08/2006
16713884	N06AB10	19/03/2007
16636746	N06AB10	19/05/2011
23408120	N06AB10	17/09/2009
18770821	N06AB10	31/05/2011
16773887	N06AB10	10/05/2011
20986036	N06AB10	25/02/2011
16599304	N06AB10	03/05/2011
16186342	N06AB10	30/12/2004
16125510	N06AB10	29/03/2011
23346675	N06AB10	12/05/2011
16648802	N06AB10	19/05/2011
23336003	N06AB10	13/07/2010
16124521	N06AB10	17/11/2005
16609666	N06AB10	13/01/2009
23353969	N06AB10	07/02/2011
33305856	N06AB10	10/11/2009
16623061	N06AB10	17/05/2011
23362700	N06AB10	30/10/2009
33206523	N06AB10	18/05/2011
18755562	N06AB10	18/12/2008
33306712	N06AB10	27/05/2011
24463048	N06AB10	18/05/2011
21116126	N06AB10	03/02/2010
33228285	N06AB10	01/06/2011
27954341	N06AB10	12/04/2011
16634522	N06AB10	25/05/2011
33254059	N06AB10	12/01/2011
33233833	N06AB10	13/05/2011
23327823	N06AB10	27/06/2008
16184118	N06AB10	24/02/2010
28022506	N06AB10	09/05/2011
23354612	N06AB10	27/07/2009
23346872	N06AB10	31/05/2011
16171769	N06AB10	05/02/2010
23404666	N06AB10	19/05/2011
16124919	N06AB10	29/07/2009
27864905	N06AB10	18/03/2011
33235413	N06AB10	05/04/2011
23327879	N06AB10	30/05/2011
23353946	N06AB10	06/02/2008
23350072	N06AB10	10/05/2011
23326929	N06AB10	27/05/2011
23412017	N06AB10	26/05/2011
16707718	N06AB10	16/05/2008
33208211	N06AB10	25/05/2011
18769218	N06AB10	10/03/2010
27847304	N06AB10	05/05/2011
33201602	N06AB10	04/10/2010
21101295	N06AB10	03/11/2010
27864923	N06AB10	29/03/2011
33225410	N06AB10	11/08/2010
23332918	N06AB10	29/10/2007
23382501	N06AB10	13/04/2006
28017091	N06AB10	03/02/2010
27975673	N06AB10	20/05/2011
16606863	N06AB10	16/11/2006
33293952	N06AB10	27/05/2010
23409015	N06AB10	13/09/2005
18757709	N06AB10	05/02/2010
16625109	N06AB10	05/05/2006
31434046	N06AB10	01/04/2011
31497572	N06AB10	10/12/2010
31322157	N06AB10	15/12/2009
31967836	N06AB10	27/11/2006
33308242	N06AB10	23/07/2008
28013456	N06AB10	05/10/2006
16124564	N06AB10	20/07/2004
33231972	N06AB10	18/03/2011
33220514	N06AB10	28/09/2004
16705297	N06AB10	05/11/2010
16623961	N06AB10	26/04/2011
24139993	N06AB10	12/05/2009
23362721	N06AB10	20/08/2007
23352140	N06AB10	27/09/2006
16605934	N06AB10	09/11/2006
23326630	N06AB10	20/05/2011
16621680	N06AB10	27/05/2011
23336418	N06AB10	01/09/2010
20985230	N06AB10	02/11/2010
16623063	N06AB10	03/01/2011
27913220	N06AB10	20/05/2010
20986217	N06AB10	30/04/2010
23310316	N06AB10	27/01/2009
21101114	N06AB10	03/11/2010
27984029	N06AB10	23/03/2010
16124871	N06AB10	08/02/2008
16712509	N06AB10	05/11/2010
28012288	N06AB10	14/01/2011
23315594	N06AB10	03/05/2007
16623344	N06AB10	08/06/2007
33290165	N06AB10	05/05/2011
23401156	N06AB10	24/11/2004
27848565	N06AB10	27/07/2005
27895998	N06AB10	05/05/2011
16186784	N06AB10	08/03/2007
23339585	N06AB10	16/01/2008
23326983	N06AB10	16/05/2011
33244556	N06AB10	18/12/2007
16598726	N06AB10	19/10/2006
21011417	N06AB10	19/05/2011
16619749	N06AB10	16/09/2010
23401236	N06AB10	25/05/2009
23353918	N06AB10	06/05/2011
16774678	N06AB10	27/05/2010
21108043	N06AB10	06/05/2011
23350311	N06AB10	13/05/2011
16621754	N06AB10	05/10/2006
33297074	N06AB10	29/10/2010
31133735	N06AB10	24/03/2010
31115859	N06AB10	08/08/2008
31178102	N06AB10	23/08/2010
31530846	N06AB10	28/04/2006
31165115	N06AB10	24/01/2011
31355319	N06AB10	24/03/2010
31675939	N06AB10	06/11/2009
31696470	N06AB10	13/08/2010
31338329	N06AB10	15/06/2010
31083013	N06AB10	09/12/2010
31458464	N06AB10	11/04/2011
32264049	N06AB10	29/03/2010
31407462	N06AB10	28/12/2007
31683932	N06AB10	14/07/2010
31235313	N06AB10	18/08/2008
31217335	N06AB10	09/07/2009
31453699	N06AB10	25/06/2010
31504878	N06AB10	13/05/2005
31777519	N06AB10	05/01/2006
31287836	N06AB10	16/04/2009
31282373	N06AB10	19/10/2006
32007885	N06AB10	19/07/2010
31820890	N06AB10	09/09/2005
31998448	N06AB10	19/04/2006
31979808	N06AB10	25/09/2007
31178234	N06AB10	25/08/2009
31571390	N06AB10	21/01/2011
32121191	N06AB10	16/12/2008
31712443	N06AB10	20/04/2010
32226719	N06AB10	28/12/2010
32194913	N06AB10	10/12/2004
31224811	N06AB10	24/03/2010
31431883	N06AB10	08/02/2011
31521249	N06AB10	12/11/2010
31724621	N06AB10	13/03/2009
31285717	N06AB10	04/05/2010
32038384	N06AB10	10/02/2011
32224890	N06AB10	28/10/2010
31315923	N06AB10	08/04/2011
31336940	N06AB10	29/04/2008
32261660	N06AB10	16/12/2009
31390699	N06AB10	13/06/2006
31623695	N06AB10	25/06/2007
31667595	N06AB10	17/03/2009
31913299	N06AB10	09/12/2009
31111511	N06AB10	19/04/2010
31987098	N06AB10	10/03/2011
31649874	N06AB10	28/05/2008
31645014	N06AB10	10/07/2008
31816975	N06AB10	04/12/2009
31225363	N06AB10	24/04/2007
31267473	N06AB10	02/11/2009
31687054	N06AB10	09/12/2010
31135470	N06AB10	20/12/2007
31521473	N06AB10	11/06/2007
32036937	N06AB10	09/03/2007
31294029	N06AB10	22/02/2005
31813848	N06AB10	20/11/2009
32166665	N06AB10	13/12/2010
31904333	N06AB10	16/07/2009
31534125	N06AB10	11/04/2011
31478904	N06AB10	30/12/2009
31704433	N06AB10	14/11/2008
31184648	N06AB10	30/06/2008
31114979	N06AB10	04/01/2007
32012725	N06AB10	09/02/2010
31274972	N06AB10	10/12/2009
31513523	N06AB10	25/10/2010
31624771	N06AB10	21/01/2011
31070304	N06AB10	15/11/2010
31290105	N06AB10	05/11/2010
31066431	N06AB10	27/11/2008
31582998	N06AB10	16/12/2010
31547356	N06AB10	12/11/2008
31542276	N06AB10	24/03/2008
31273552	N06AB10	13/07/2005
31416932	N06AB10	30/06/2008
31276549	N06AB10	16/07/2010
31339893	N06AB10	27/02/2008
31792074	N06AB10	15/07/2008
32080325	N06AB10	21/11/2008
32144525	N06AB10	28/06/2007
31225273	N06AB10	19/11/2010
32250577	N06AB10	14/04/2008
31765323	N06AB10	21/03/2011
31815808	N06AB10	14/12/2009
31768361	N06AB10	09/02/2011
31099804	N06AB10	31/01/2007
31174566	N06AB10	14/02/2007
31537958	N06AB10	17/09/2009
32059871	N06AB10	16/08/2010
31722183	N06AB10	10/06/2010
32111233	N06AB10	15/06/2010
32105750	N06AB10	15/10/2007
31633993	N06AB10	21/10/2005
32251012	N06AB10	21/09/2005
31102291	N06AB10	17/12/2008
31259396	N06AB10	10/12/2009
31359087	N06AB10	18/11/2009
31924919	N06AB10	31/07/2010
31097143	N06AB10	17/12/2010
31533827	N06AB10	20/11/2009
31231145	N06AB10	11/12/2006
32281367	N06AB10	08/10/2010
32054451	N06AB10	18/11/2010
31216838	N06AB10	18/11/2008
31345069	N06AB10	28/02/2006
31313682	N06AB10	04/08/2006
32221355	N06AB10	03/03/2010
32185161	N06AB10	19/11/2008
32148306	N06AB10	21/07/2010
31963758	N06AB10	23/03/2010
31480290	N06AB10	26/11/2009
31624184	N06AB10	20/01/2009
31464229	N06AB10	18/11/2008
31440348	N06AB10	24/11/2010
31239562	N06AB10	09/06/2009
31186578	N06AB10	06/02/2006
31576384	N06AB10	28/04/2011
31174835	N06AB10	03/05/2007
31480774	N06AB10	27/08/2009
31411109	N06AB10	27/07/2006
32246746	N06AB10	07/04/2010
31875631	N06AB10	10/12/2009
31515324	N06AB10	25/06/2010
31370484	N06AB10	05/11/2008
31058744	N06AB10	01/08/2006
32077072	N06AB10	17/12/2008
31495525	N06AB10	19/09/2008
31238587	N06AB10	19/05/2008
31848002	N06AB10	03/05/2006
31989637	N06AB10	09/03/2011
32087044	N06AB10	23/09/2008
31660701	N06AB10	17/06/2008
31709931	N06AB10	23/02/2009
31482800	N06AB10	23/09/2009
31259629	N06AB10	17/01/2011
31332767	N06AB10	26/01/2006
32115409	N06AB10	26/11/2009
31600437	N06AB10	30/05/2011
32264291	N06AB10	17/05/2011
31456588	N06AB10	30/12/2010
31378249	N06AB10	03/10/2007
31693536	N06AB10	07/04/2009
31927028	N06AB10	06/04/2011
31626899	N06AB10	07/12/2007
32229216	N06AB10	14/04/2011
31992521	N06AB10	23/12/2010
31615359	N06AB10	13/05/2008
31224191	N06AB10	25/01/2011
32062032	N06AB10	25/10/2010
31380160	N06AB10	16/12/2008
31189360	N06AB10	21/10/2010
32136529	N06AB10	18/09/2006
31930714	N06AB10	29/12/2009
31678786	N06AB10	05/10/2006
31084179	N06AB10	12/07/2010
31168706	N06AB10	28/08/2006
31683193	N06AB10	15/12/2010
32277528	N06AB10	13/12/2008
31654266	N06AB10	10/03/2011
31790760	N06AB10	18/09/2009
31615936	N06AB10	03/11/2008
31523044	N06AB10	06/04/2011
31778667	N06AB10	05/06/2006
31061509	N06AB10	15/12/2008
32035111	N06AB10	12/04/2010
31444748	N06AB10	11/04/2008
31366968	N06AB10	14/05/2007
31830669	N06AB10	05/10/2006
31189205	N06AB10	30/11/2009
32029542	N06AB10	31/01/2006
32135246	N06AB10	30/07/2010
31592848	N06AB10	15/10/2009
31225570	N06AB10	25/04/2006
32149623	N06AB10	18/06/2009
32200321	N06AB10	22/12/2010
31354855	N06AB10	20/10/2009
31953204	N06AB10	22/01/2008
31296461	N06AB10	25/10/2006
32244881	N06AB10	10/05/2006
31250279	N06AB10	24/09/2009
31082208	N06AB10	09/05/2011
32125428	N06AB10	27/02/2007
31903968	N06AB10	19/12/2008
31746041	N06AB10	21/05/2009
32176725	N06AB10	09/06/2006
31597078	N06AB10	18/11/2008
31921945	N06AB10	30/09/2010
31699051	N06AB10	22/10/2010
31328945	N06AB10	29/12/2006
31346856	N06AB10	14/12/2006
32127892	N06AB10	24/03/2006
31581387	N06AB10	11/01/2011
31447714	N06AB10	13/09/2006
32090511	N06AB10	09/03/2007
31624444	N06AB10	12/01/2009
31600599	N06AB10	24/01/2011
31283408	N06AB10	24/03/2009
31747041	N06AB10	06/09/2006
31401177	N06AB10	15/12/2009
31078164	N06AB10	07/07/2006
31422757	N06AB10	06/04/2009
31252802	N06AB10	04/07/2006
31210443	N06AB10	15/01/2008
31375145	N06AB10	08/05/2011
32193941	N06AB10	05/04/2006
31834979	N06AB10	17/08/2009
31514901	N06AB10	15/07/2010
31445349	N06AB10	18/12/2009
31370471	N06AB10	29/09/2009
31304320	N06AB10	21/12/2009
31254441	N06AB10	26/02/2010
31328206	N06AB10	16/10/2006
31338971	N06AB10	20/07/2006
31310885	N06AB10	25/04/2011
31675235	N06AB10	08/03/2005
31559079	N06AB10	09/03/2011
31788025	N06AB10	25/03/2010
31058197	N06AB10	09/10/2007
31075396	N06AB10	19/10/2007
31611337	N06AB10	09/09/2009
31981387	N06AB10	18/12/2009
32141842	N06AB10	23/12/2009
31628105	N06AB10	01/04/2008
31392538	N06AB10	18/02/2009
31784685	N06AB10	22/01/2008
31468640	N06AB10	13/11/2007
31622529	N06AB10	18/08/2006
31609748	N06AB10	05/05/2011
31807086	N06AB10	30/05/2005
31161794	N06AB10	30/06/2009
32257370	N06AB10	22/07/2009
31829600	N06AB10	24/05/2006
32259958	N06AB10	05/11/2008
31198323	N06AB10	15/12/2008
31085337	N06AB10	23/12/2010
31858880	N06AB10	26/11/2010
32007468	N06AB10	24/11/2005
31916168	N06AB10	22/07/2010
31926632	N06AB10	04/12/2008
31339785	N06AB10	08/11/2007
31406432	N06AB10	06/11/2008
31428838	N06AB10	11/04/2011
31605917	N06AB10	01/09/2008
31047505	N06AB10	11/06/2008
31592928	N06AB10	14/12/2010
31767218	N06AB10	03/11/2008
31987476	N06AB10	07/12/2010
32143143	N06AB10	02/06/2008
31096124	N06AB10	05/01/2011
31565378	N06AB10	08/11/2010
32139036	N06AB10	21/02/2008
31184345	N06AB10	01/09/2004
31176011	N06AB10	10/01/2005
31719301	N06AB10	14/05/2010
32228473	N06AB10	07/05/2008
31959483	N06AB10	04/08/2008
31711982	N06AB10	15/02/2007
31444085	N06AB10	02/11/2010
31559202	N06AB10	31/01/2006
31580940	N06AB10	11/03/2011
31378501	N06AB10	14/10/2010
31962165	N06AB10	11/11/2005
31647102	N06AB10	21/11/2008
31636987	N06AB10	14/01/2005
31092295	N06AB10	27/12/2007
31289556	N06AB10	19/12/2008
32195050	N06AB10	09/10/2009
32141661	N06AB10	23/03/2010
31612837	N06AB10	23/12/2008
31570017	N06AB10	19/11/2010
31720251	N06AB10	13/05/2008
31929235	N06AB10	22/10/2009
31184461	N06AB10	30/12/2009
32058821	N06AB10	05/02/2009
31435158	N06AB10	02/12/2009
31038384	N06AB10	19/02/2007
31228479	N06AB10	15/12/2010
31447337	N06AB10	26/10/2009
31228032	N06AB10	31/08/2010
32045804	N06AB10	23/06/2008
31833135	N06AB10	23/11/2010
32241554	N06AB10	27/08/2007
31227006	N06AB10	19/01/2011
31944943	N06AB10	20/12/2010
31512689	N06AB10	22/07/2005
31295862	N06AB10	15/11/2010
31419355	N06AB10	01/03/2006
31336713	N06AB10	28/10/2009
32118813	N06AB10	23/05/2008
31382341	N06AB10	25/11/2009
31523503	N06AB10	12/06/2007
31852625	N06AB10	06/11/2006
31641763	N06AB10	07/04/2011
31155311	N06AB10	18/12/2010
31656298	N06AB10	09/05/2008
31242923	N06AB10	16/12/2009
31237625	N06AB10	11/04/2011
31304092	N06AB10	20/12/2010
31659751	N06AB10	02/11/2010
31568832	N06AB10	27/03/2008
31819179	N06AB10	18/10/2010
31980952	N06AB10	18/11/2009
31073361	N06AB10	02/12/2009
31328449	N06AB10	01/12/2010
32028704	N06AB10	02/01/2007
32207420	N06AB10	22/10/2008
31239879	N06AB10	19/03/2007
31378626	N06AB10	15/01/2007
31707970	N06AB10	11/02/2010
31141423	N06AB10	25/06/2010
31788566	N06AB10	18/01/2010
31427802	N06AB10	19/11/2008
31419416	N06AB10	07/06/2006
32253685	N06AB10	26/05/2009
31538518	N06AB10	12/12/2007
31067211	N06AB10	01/06/2007
31879102	N06AB10	23/03/2009
31735196	N06AB10	09/03/2011
32008903	N06AB10	02/02/2011
31034301	N06AB10	29/11/2010
32090185	N06AB10	19/02/2007
32133275	N06AB10	13/02/2006
31169643	N06AB10	15/12/2008
31102716	N06AB10	11/10/2007
31416360	N06AB10	22/05/2008
31436135	N06AB10	15/11/2010
31572849	N06AB10	17/02/2009
31137728	N06AB10	05/11/2004
31479508	N06AB10	22/12/2009
32261108	N06AB10	13/03/2006
31171065	N06AB10	22/06/2010
31290437	N06AB10	05/11/2010
31430690	N06AB10	30/10/2009
31768630	N06AB10	24/07/2007
31636015	N06AB10	13/10/2009
31611630	N06AB10	28/09/2005
31384316	N06AB10	02/07/2008
31615865	N06AB10	16/04/2008
31690797	N06AB10	18/05/2009
31824460	N06AB10	27/02/2007
32122599	N06AB10	22/12/2008
32156620	N06AB10	20/11/2008
31833963	N06AB10	05/10/2010
32200995	N06AB10	15/12/2009
32008482	N06AB10	17/10/2006
31856511	N06AB10	28/02/2011
32128208	N06AB10	26/07/2007
31721691	N06AB10	16/12/2010
32016763	N06AB10	26/01/2006
31675341	N06AB10	30/05/2008
32016112	N06AB10	17/02/2009
31922177	N06AB10	22/10/2010
31072345	N06AB10	02/12/2010
31703712	N06AB10	02/12/2004
31763555	N06AB10	24/06/2005
