patient_id	covar_name	date
6181929	N05AD01	05/03/2010
1937760	N05AD01	06/11/2003
6747933	N05AD01	04/05/2010
8643970	N05AD01	08/04/2008
24729407	N05AD01	27/09/2010
949778	N05AD01	13/02/2006
20535914	N05AD01	27/04/2010
16109831	N05AD01	24/05/2011
704332	N05AD01	03/05/2011
6752622	N05AD01	12/04/2004
14641279	N05AD01	07/10/2010
6080444	N05AD01	27/12/2006
608864	N05AD01	03/05/2011
6759472	N05AD01	24/01/2006
20565332	N05AD01	17/05/2005
9295112	N05AD01	27/12/2010
9382870	N05AD01	07/02/2011
16920398	N05AD01	22/06/2010
16977246	N05AD01	18/11/2009
8292672	N05AD01	20/08/2008
24764733	N05AD01	03/06/2008
25059661	N05AD01	29/09/2005
292904	N05AD01	05/05/2011
6040773	N05AD01	23/02/2006
19228281	N05AD01	02/06/2006
10270807	N05AD01	22/12/2008
207629	N05AD01	26/03/2004
12182966	N05AD01	27/09/2004
8559033	N05AD01	06/09/2007
15929648	N05AD01	15/10/2010
21152754	N05AD01	21/01/2011
5024803	N05AD01	13/05/2011
9249839	N05AD01	16/05/2011
1546390	N05AD01	28/02/2007
18365564	N05AD01	07/04/2011
7929164	N05AD01	27/05/2011
1356229	N05AD01	10/12/2010
7966882	N05AD01	28/02/2008
6597538	N05AD01	07/01/2005
7718915	N05AD01	24/05/2011
7847087	N05AD01	09/05/2011
1354463	N05AD01	11/04/2011
7968475	N05AD01	22/10/2007
1276321	N05AD01	28/06/2009
6400754	N05AD01	23/04/2007
1261894	N05AD01	18/10/2003
6424945	N05AD01	14/05/2011
525618	N05AD01	06/04/2011
1417328	N05AD01	30/12/2002
8955143	N05AD01	09/09/2008
1170644	N05AD01	27/01/2003
25860190	N05AD01	29/04/2009
21283186	N05AD01	31/05/2010
2070225	N05AD01	07/02/2011
2132832	N05AD01	03/11/2008
2139488	N05AD01	16/03/2009
2038886	N05AD01	28/05/2011
859956	N05AD01	05/09/2007
905210	N05AD01	17/05/2011
904362	N05AD01	22/04/2008
3054684	N05AD01	14/10/2009
2574588	N05AD01	25/04/2011
7448043	N05AD01	20/08/2009
26244534	N05AD01	14/05/2011
20147230	N05AD01	14/12/2010
423754	N05AD01	18/04/2011
429077	N05AD01	25/11/2010
1900723	N05AD01	27/05/2004
2766081	N05AD01	24/05/2011
28069809	N05AD01	08/11/2006
24655998	N05AD01	21/01/2009
24661692	N05AD01	19/01/2010
24657011	N05AD01	16/04/2008
41128	N05AD01	26/05/2011
18187355	N05AD01	12/05/2011
18197591	N05AD01	03/05/2011
2987616	N05AD01	11/06/2007
26637068	N05AD01	31/05/2011
14309295	N05AD01	06/10/2008
16840615	N05AD01	27/05/2011
26628248	N05AD01	18/10/2006
16843475	N05AD01	06/05/2011
24582582	N05AD01	16/08/2010
24579555	N05AD01	30/11/2010
26946237	N05AD01	10/03/2009
26945400	N05AD01	08/05/2011
26833703	N05AD01	08/10/2008
26780754	N05AD01	06/04/2011
26811537	N05AD01	25/03/2009
26760283	N05AD01	27/01/2011
26972749	N05AD01	22/10/2008
27106791	N05AD01	17/12/2010
27033644	N05AD01	17/04/2008
26994454	N05AD01	20/04/2011
26994966	N05AD01	25/11/2010
27362102	N05AD01	13/05/2011
27159946	N05AD01	18/03/2011
27383534	N05AD01	08/01/2010
27383412	N05AD01	29/08/2005
27246754	N05AD01	31/03/2010
27169775	N05AD01	16/10/2008
27171327	N05AD01	11/05/2011
27546225	N05AD01	25/05/2011
27577033	N05AD01	13/01/2009
27600750	N05AD01	29/01/2010
27616698	N05AD01	11/05/2009
27442320	N05AD01	01/06/2009
27493619	N05AD01	28/06/2007
27444188	N05AD01	05/05/2011
27449058	N05AD01	27/12/2010
27647443	N05AD01	17/03/2008
27759030	N05AD01	13/01/2006
27572901	N05AD01	06/05/2011
27546307	N05AD01	23/02/2011
27132788	N05AD01	10/11/2003
27167731	N05AD01	14/09/2010
27160272	N05AD01	07/04/2011
648889	N05AD01	16/06/2010
27530374	N05AD01	15/01/2004
27458555	N05AD01	23/03/2010
27540250	N05AD01	26/01/2010
27530445	N05AD01	28/09/2009
27538271	N05AD01	25/06/2010
27477146	N05AD01	20/01/2011
27354432	N05AD01	27/06/2009
27804349	N05AD01	21/04/2009
424408	N05AD01	28/04/2003
423194	N05AD01	17/02/2002
27471521	N05AD01	11/05/2010
27794211	N05AD01	05/05/2008
186266	N05AD01	01/03/2009
33018984	N05AD01	19/10/2006
33043763	N05AD01	24/09/2003
33093855	N05AD01	23/09/2010
33001039	N05AD01	02/12/2010
33008912	N05AD01	23/01/2007
33016797	N05AD01	21/12/2010
33081884	N05AD01	29/01/2009
33084411	N05AD01	26/05/2011
33095386	N05AD01	03/07/2008
33056194	N05AD01	12/06/2009
27805343	N05AD01	20/05/2011
33083231	N05AD01	25/02/2008
33039979	N05AD01	10/10/2005
33027037	N05AD01	25/04/2011
33025051	N05AD01	13/12/2010
33053146	N05AD01	19/01/2009
33070455	N05AD01	02/02/2009
33087055	N05AD01	02/09/2007
23381149	N05AD01	03/05/2011
18768957	N05AD01	18/05/2009
23381959	N05AD01	03/03/2005
27849109	N05AD01	27/08/2010
28022840	N05AD01	23/11/2010
23366881	N05AD01	18/04/2011
23339422	N05AD01	18/08/2010
33209870	N05AD01	12/11/2009
27928159	N05AD01	31/03/2009
20986311	N05AD01	24/04/2008
33254413	N05AD01	04/03/2011
23409015	N05AD01	19/10/2006
23406762	N05AD01	22/12/2006
23413392	N05AD01	19/06/2007
23326983	N05AD01	19/01/2011
16598025	N05AD01	09/12/2010
31966573	N05AD01	18/02/2010
31041033	N05AD01	15/11/2010
32000763	N05AD01	24/04/2008
32038384	N05AD01	01/10/2009
31561242	N05AD01	28/12/2010
31988348	N05AD01	09/05/2008
31780608	N05AD01	22/09/2010
32246359	N05AD01	16/11/2005
31624771	N05AD01	26/08/2005
31505588	N05AD01	31/10/2003
31572163	N05AD01	02/03/2011
31418145	N05AD01	21/12/2010
32258424	N05AD01	05/10/2010
31553569	N05AD01	21/02/2007
32244371	N05AD01	17/06/2009
32238575	N05AD01	27/07/2005
31925603	N05AD01	10/11/2009
31911477	N05AD01	15/04/2009
31288965	N05AD01	12/02/2004
32112412	N05AD01	05/03/2009
32199644	N05AD01	25/04/2009
31671119	N05AD01	11/05/2009
31830669	N05AD01	13/07/2010
32244933	N05AD01	22/03/2010
32281205	N05AD01	10/06/2008
31953204	N05AD01	14/06/2007
31096236	N05AD01	23/10/2006
31883127	N05AD01	01/12/2005
31542939	N05AD01	26/07/2007
32062851	N05AD01	01/12/2009
31349175	N05AD01	06/04/2011
31790586	N05AD01	03/03/2009
32278236	N05AD01	06/11/2003
31057692	N05AD01	13/12/2006
32187156	N05AD01	06/02/2006
31684900	N05AD01	15/05/2006
31714524	N05AD01	09/12/2008
31194218	N05AD01	11/12/2009
31755456	N05AD01	31/08/2009
32205096	N05AD01	21/01/2009
31321749	N05AD01	21/11/2008
31412458	N05AD01	08/11/2007
31587651	N05AD01	28/10/2009
31923362	N05AD01	05/04/2002
31315620	N05AD01	23/11/2009
31798971	N05AD01	14/12/2010
31852625	N05AD01	27/11/2001
31237625	N05AD01	24/02/2010
31230333	N05AD01	21/12/2009
32211844	N05AD01	16/12/2009
31659751	N05AD01	19/03/2001
32279180	N05AD01	18/10/2006
31310846	N05AD01	23/04/2003
31605598	N05AD01	23/05/2005
31566066	N05AD01	19/02/2010
31451631	N05AD01	31/01/2005
31031334	N05AD01	17/11/2003
31222269	N05AD01	03/09/2010
31593910	N05AD01	09/09/2010
31730157	N05AD01	30/08/2004
