patient_id	covar_name	date
8561029	N01BA03	26/02/2007
753097	N01BA03	06/06/2007
22697820	N01BA03	25/03/2011
5566098	N01BA03	25/11/2010
612357	N01BA03	04/04/2002
7249633	N01BA03	22/12/2005
25071403	N01BA03	01/07/2008
6281599	N01BA03	18/05/2009
9225853	N01BA03	23/09/2008
8960215	N01BA03	30/08/2007
21805914	N01BA03	12/05/2009
949299	N01BA03	18/07/2005
8572398	N01BA03	04/01/2006
19179650	N01BA03	24/03/2010
16927503	N01BA03	11/08/2003
1350474	N01BA03	19/10/2004
7779623	N01BA03	17/02/2011
1647457	N01BA03	14/02/2011
1353013	N01BA03	09/06/2010
195582	N01BA03	29/02/2008
6914096	N01BA03	16/05/2011
758615	N01BA03	16/03/2007
859050	N01BA03	02/09/2002
26235503	N01BA03	07/03/2011
4328546	N01BA03	13/10/2008
2753836	N01BA03	18/12/2008
2777779	N01BA03	01/07/2009
904007	N01BA03	14/09/2010
18191327	N01BA03	26/11/2004
18187355	N01BA03	03/04/2008
26700714	N01BA03	16/03/2007
26989053	N01BA03	29/11/2010
27085563	N01BA03	11/10/2010
27606372	N01BA03	25/04/2006
27149229	N01BA03	17/01/2006
27686953	N01BA03	31/10/2005
33055424	N01BA03	16/04/2009
33050061	N01BA03	19/09/2006
33016101	N01BA03	28/01/2009
27846920	N01BA03	10/06/2009
33015324	N01BA03	29/01/2010
33007224	N01BA03	15/12/2000
33050169	N01BA03	01/03/2005
33080840	N01BA03	01/06/2011
33202123	N01BA03	10/05/2006
32156704	N01BA03	14/10/2009
20990624	N01BA03	19/07/2010
20990779	N01BA03	07/09/2009
20991046	N01BA03	24/09/2007
31418719	N01BA03	09/12/2003
31847683	N01BA03	17/09/2010
31595601	N01BA03	23/12/2002
31863722	N01BA03	22/04/2004
31330137	N01BA03	25/01/2007
31900779	N01BA03	05/03/2009
32110895	N01BA03	19/06/2007
31319796	N01BA03	08/05/2006
31402775	N01BA03	27/12/2007
31513948	N01BA03	18/11/2005
31457261	N01BA03	14/07/2010
32158991	N01BA03	07/04/2008
31878203	N01BA03	21/11/2008
32035320	N01BA03	10/02/2009
31299103	N01BA03	07/03/2011
31519231	N01BA03	12/01/2007
31150023	N01BA03	08/04/2005
31629479	N01BA03	25/11/2008
31089828	N01BA03	29/05/2007
31533998	N01BA03	02/11/2006
31505481	N01BA03	18/03/2010
31268040	N01BA03	27/09/2007
32002925	N01BA03	05/05/2008
31240579	N01BA03	31/03/2009
32067863	N01BA03	22/01/2009
31958127	N01BA03	25/06/2007
32159112	N01BA03	09/11/2009
31796342	N01BA03	30/05/2005
31509829	N01BA03	02/12/2008
31609110	N01BA03	29/12/2005
32042223	N01BA03	02/04/2009
31045073	N01BA03	05/09/2002
32092229	N01BA03	21/09/2004
31714303	N01BA03	25/10/2000
31338608	N01BA03	29/04/2008
31741891	N01BA03	14/04/2005
31342035	N01BA03	25/03/2009
31577491	N01BA03	14/01/2005
31924312	N01BA03	03/04/2007
31321280	N01BA03	03/03/2006
31611337	N01BA03	13/02/2009
31541557	N01BA03	22/01/2004
31352561	N01BA03	21/04/2008
31243849	N01BA03	05/11/2010
31563177	N01BA03	11/05/2007
31622937	N01BA03	25/07/2006
31869811	N01BA03	01/12/2008
31901938	N01BA03	07/09/2001
31084386	N01BA03	16/04/2009
31504318	N01BA03	09/07/2010
32173526	N01BA03	20/11/2007
31412353	N01BA03	15/06/2010
31833801	N01BA03	18/03/2009
31854011	N01BA03	14/11/2005
31682966	N01BA03	06/07/2009
31863435	N01BA03	24/04/2003
32267951	N01BA03	29/02/2008
31490502	N01BA03	21/07/2010
31921601	N01BA03	01/12/2008
31449578	N01BA03	08/04/2011
31834739	N01BA03	09/12/2008
31991628	N01BA03	11/07/2006
32255955	N01BA03	01/03/2006
31435904	N01BA03	13/09/2006
31895078	N01BA03	07/08/2008
32220436	N01BA03	02/01/2007
