patient_id	covar_name	date
1607811	N06DX02	21/12/2009
12689969	N06DX02	25/01/2005
17172476	N06DX02	09/06/2008
6749491	N06DX02	24/11/2010
10006386	N06DX02	30/01/2009
3939012	N06DX02	05/05/2011
6751368	N06DX02	15/04/2011
20547221	N06DX02	20/02/2009
9294363	N06DX02	14/01/2010
19185008	N06DX02	21/09/2010
20549727	N06DX02	25/05/2011
16978129	N06DX02	09/08/2010
12171465	N06DX02	10/02/2011
12858903	N06DX02	13/06/2007
3292667	N06DX02	15/09/2009
8292672	N06DX02	14/02/2005
7162181	N06DX02	06/04/2010
1123996	N06DX02	03/03/2008
25051083	N06DX02	05/10/2006
9250324	N06DX02	09/05/2008
12173020	N06DX02	31/01/2003
8582021	N06DX02	25/05/2011
9304423	N06DX02	22/03/2011
11661691	N06DX02	30/07/2008
6707615	N06DX02	19/12/2007
21152754	N06DX02	10/07/2009
24730202	N06DX02	13/01/2006
5022239	N06DX02	28/03/2011
1418232	N06DX02	21/07/2010
21782270	N06DX02	06/05/2011
10331626	N06DX02	13/09/2007
438703	N06DX02	12/05/2003
1419222	N06DX02	30/04/2007
6599628	N06DX02	28/10/2002
1206466	N06DX02	02/07/2003
1209255	N06DX02	26/12/2009
1848778	N06DX02	10/04/2007
12189908	N06DX02	27/12/2000
1545533	N06DX02	14/01/2011
1850465	N06DX02	26/04/2011
8933362	N06DX02	01/06/2011
1211123	N06DX02	18/05/2011
1172012	N06DX02	18/02/2002
639203	N06DX02	09/12/2008
1320212	N06DX02	05/05/2011
24940303	N06DX02	22/01/2010
6425452	N06DX02	10/12/2008
6593460	N06DX02	22/02/2005
7801133	N06DX02	25/02/2005
6595126	N06DX02	15/04/2002
1545327	N06DX02	31/05/2004
1320083	N06DX02	12/09/2003
6951044	N06DX02	22/05/2010
716938	N06DX02	12/02/2010
1425322	N06DX02	01/03/2006
25768791	N06DX02	21/04/2010
1102247	N06DX02	02/07/2007
1027312	N06DX02	11/03/2009
16036321	N06DX02	11/05/2010
1579746	N06DX02	19/10/2009
25913321	N06DX02	10/02/2010
716180	N06DX02	01/06/2011
1006885	N06DX02	27/05/2011
890201	N06DX02	28/11/2007
2070080	N06DX02	06/08/2009
2070140	N06DX02	16/05/2011
2038044	N06DX02	05/11/2010
2053456	N06DX02	31/10/2008
903543	N06DX02	21/09/2006
1763515	N06DX02	15/03/2010
2035821	N06DX02	25/09/2009
2774863	N06DX02	03/05/2011
2754268	N06DX02	03/11/2009
2408299	N06DX02	19/03/2007
2407446	N06DX02	13/10/2006
26566168	N06DX02	04/05/2010
17041460	N06DX02	23/03/2006
17041145	N06DX02	04/04/2011
26336640	N06DX02	12/05/2011
26235519	N06DX02	28/05/2009
26338101	N06DX02	06/05/2009
22833179	N06DX02	29/01/2010
26441458	N06DX02	31/08/2010
26244463	N06DX02	07/05/2011
17041018	N06DX02	11/01/2011
307239	N06DX02	21/04/2006
185359	N06DX02	04/06/2007
7128685	N06DX02	05/06/2007
26457855	N06DX02	07/07/2009
425921	N06DX02	23/11/2004
421846	N06DX02	29/09/2008
28055845	N06DX02	25/05/2011
28072320	N06DX02	23/03/2005
28071783	N06DX02	26/12/2001
28062851	N06DX02	10/12/2010
28045890	N06DX02	02/03/2009
24655567	N06DX02	21/06/2005
24663399	N06DX02	28/02/2008
25741980	N06DX02	04/03/2010
24662681	N06DX02	16/04/2010
18194003	N06DX02	02/11/2007
19800570	N06DX02	10/09/2009
21064688	N06DX02	14/10/2008
1904747	N06DX02	10/05/2011
1363174	N06DX02	10/07/2006
22881967	N06DX02	05/11/2007
12876840	N06DX02	02/02/2010
26717898	N06DX02	05/10/2004
24580635	N06DX02	09/12/2004
26915351	N06DX02	19/05/2011
26915565	N06DX02	31/05/2010
26889844	N06DX02	06/04/2005
26730017	N06DX02	11/08/2005
26850877	N06DX02	28/11/2010
26804701	N06DX02	17/04/2008
26995682	N06DX02	08/04/2011
26966264	N06DX02	10/10/2008
26997528	N06DX02	11/03/2011
27037293	N06DX02	05/05/2011
26997004	N06DX02	26/05/2010
27004493	N06DX02	03/03/2011
27000699	N06DX02	25/11/2010
26994692	N06DX02	27/05/2011
27168688	N06DX02	12/02/2009
27244662	N06DX02	01/06/2011
27219070	N06DX02	12/04/2010
27362717	N06DX02	05/08/2008
27362271	N06DX02	19/05/2009
27172066	N06DX02	20/05/2011
27197496	N06DX02	26/07/2007
27481175	N06DX02	14/02/2011
27481473	N06DX02	26/05/2011
27763475	N06DX02	21/05/2010
27551398	N06DX02	10/06/2010
27564868	N06DX02	24/05/2011
27716087	N06DX02	02/06/2010
27658878	N06DX02	31/05/2011
27149164	N06DX02	28/01/2010
27000618	N06DX02	28/05/2011
27785567	N06DX02	02/06/2006
27066420	N06DX02	02/04/2007
27679924	N06DX02	01/09/2009
27778908	N06DX02	18/03/2010
26992037	N06DX02	16/05/2011
12981829	N06DX02	10/05/2011
33018984	N06DX02	17/09/2008
33081749	N06DX02	16/04/2007
33067601	N06DX02	07/02/2011
33027806	N06DX02	16/05/2011
33053438	N06DX02	04/03/2011
33065445	N06DX02	03/03/2009
33025822	N06DX02	22/10/2008
33050069	N06DX02	04/11/2010
33081884	N06DX02	14/08/2008
33064888	N06DX02	22/02/2010
33020581	N06DX02	31/05/2001
33015655	N06DX02	21/12/2005
33019197	N06DX02	11/10/2005
33072776	N06DX02	22/03/2011
27661862	N06DX02	15/07/2005
27061980	N06DX02	13/10/2009
16135206	N06DX02	04/07/2006
33252437	N06DX02	17/12/2010
33041177	N06DX02	24/07/2006
33050802	N06DX02	22/05/2011
33083395	N06DX02	17/10/2002
33091178	N06DX02	20/08/2010
33006775	N06DX02	21/02/2008
33020070	N06DX02	15/04/2011
33033801	N06DX02	13/09/2007
33000591	N06DX02	10/06/2010
33089997	N06DX02	31/05/2011
33089335	N06DX02	04/01/2007
33088276	N06DX02	13/05/2011
33087055	N06DX02	09/01/2009
33066033	N06DX02	05/01/2010
33029780	N06DX02	24/05/2011
23315706	N06DX02	25/05/2007
16616536	N06DX02	03/05/2006
18758929	N06DX02	02/12/2010
14188303	N06DX02	22/09/2009
16179146	N06DX02	31/05/2010
16165687	N06DX02	08/10/2004
23329242	N06DX02	15/01/2010
18758326	N06DX02	19/07/2004
33207689	N06DX02	13/05/2010
23334059	N06DX02	21/01/2010
28023159	N06DX02	12/01/2011
23346675	N06DX02	01/03/2007
21011548	N06DX02	02/11/2010
16184071	N06DX02	04/05/2011
21108023	N06DX02	23/12/2010
23381987	N06DX02	21/02/2008
23342956	N06DX02	12/08/2005
28038777	N06DX02	26/02/2010
16186400	N06DX02	05/04/2010
16186327	N06DX02	18/05/2007
23326929	N06DX02	26/02/2010
28023361	N06DX02	24/06/2009
23354151	N06DX02	29/12/2010
28013056	N06DX02	14/04/2011
16636987	N06DX02	12/03/2010
23413392	N06DX02	04/12/2006
16623344	N06DX02	26/05/2011
23408437	N06DX02	07/04/2011
33265063	N06DX02	05/03/2010
32269071	N06DX02	26/05/2006
31989592	N06DX02	17/11/2010
31791183	N06DX02	23/03/2010
31488155	N06DX02	23/02/2009
32159710	N06DX02	07/03/2008
31194005	N06DX02	12/07/2010
31445246	N06DX02	25/11/2008
31344263	N06DX02	29/06/2006
31446823	N06DX02	29/04/2008
31728526	N06DX02	17/01/2008
31800025	N06DX02	02/10/2007
31813848	N06DX02	15/09/2006
31035751	N06DX02	19/02/2008
31977477	N06DX02	06/06/2006
32088708	N06DX02	29/05/2011
32185788	N06DX02	05/05/2005
31941625	N06DX02	26/06/2007
31359743	N06DX02	18/10/2002
31959694	N06DX02	07/05/2009
31673640	N06DX02	28/11/2003
31868813	N06DX02	28/05/2008
31119403	N06DX02	08/08/2006
32102604	N06DX02	15/02/2007
31061509	N06DX02	09/05/2006
32265697	N06DX02	28/10/2010
31186229	N06DX02	22/09/2004
31995370	N06DX02	07/09/2007
32082014	N06DX02	02/07/2003
31948492	N06DX02	05/02/2009
31070465	N06DX02	21/12/2010
31230558	N06DX02	15/03/2005
31405567	N06DX02	04/02/2003
31485364	N06DX02	29/01/2010
31689712	N06DX02	05/02/2007
32205096	N06DX02	04/05/2006
31825346	N06DX02	23/03/2005
32231244	N06DX02	10/05/2007
31444827	N06DX02	20/04/2010
32090445	N06DX02	28/04/2010
32167646	N06DX02	24/02/2011
32210034	N06DX02	30/04/2002
31564966	N06DX02	27/03/2009
31360382	N06DX02	09/03/2005
32028980	N06DX02	02/09/2010
31805543	N06DX02	12/11/2004
31291105	N06DX02	10/07/2009
31183147	N06DX02	28/05/2002
31585275	N06DX02	08/06/2009
32272952	N06DX02	08/09/2010
32158039	N06DX02	08/03/2011
