patient_id	covar_name	date
8554413	P02CC01	04/07/2005
10866379	P02CC01	12/12/2008
25071580	P02CC01	23/10/2002
16922088	P02CC01	15/06/2010
13986519	P02CC01	11/03/2008
1444548	P02CC01	16/04/2007
19402838	P02CC01	25/03/2010
18038978	P02CC01	23/03/2011
19402537	P02CC01	05/09/2006
1208178	P02CC01	11/03/2010
8066983	P02CC01	28/01/2003
6597391	P02CC01	14/04/2003
6633906	P02CC01	04/07/2009
19402429	P02CC01	04/09/2008
7952194	P02CC01	10/06/2008
11459203	P02CC01	20/04/2011
717208	P02CC01	23/01/2008
1425870	P02CC01	24/11/2005
2090087	P02CC01	14/02/2007
2087936	P02CC01	16/11/2004
2087693	P02CC01	09/01/2003
2366671	P02CC01	25/06/2003
2072714	P02CC01	01/04/2004
2087753	P02CC01	29/11/2006
2088216	P02CC01	24/05/2006
758125	P02CC01	18/06/2007
2040233	P02CC01	30/05/2005
7089584	P02CC01	02/02/2010
16836413	P02CC01	05/01/2005
26461826	P02CC01	22/11/2005
26410294	P02CC01	27/05/2005
26437142	P02CC01	27/01/2006
17323541	P02CC01	10/05/2007
26288378	P02CC01	25/03/2010
26392479	P02CC01	09/12/2004
26488369	P02CC01	31/01/2008
26478954	P02CC01	02/12/2008
7136983	P02CC01	27/06/2008
2966799	P02CC01	02/12/2008
1028505	P02CC01	23/05/2003
437093	P02CC01	06/07/2010
6012771	P02CC01	22/10/2010
435970	P02CC01	02/09/2004
435593	P02CC01	13/07/2004
13092444	P02CC01	22/10/2009
180024	P02CC01	09/02/2004
28072766	P02CC01	21/07/2004
178573	P02CC01	23/05/2000
18199130	P02CC01	07/01/2008
620562	P02CC01	17/10/2005
18199400	P02CC01	16/11/2009
19280219	P02CC01	04/04/2008
17412370	P02CC01	24/09/2009
2968098	P02CC01	05/08/2009
1906568	P02CC01	31/08/2006
6563419	P02CC01	15/12/2004
13446708	P02CC01	09/01/2009
10824686	P02CC01	07/10/2005
24597902	P02CC01	26/09/2007
14311129	P02CC01	13/04/2007
24581697	P02CC01	24/01/2005
26865535	P02CC01	01/10/2010
26726937	P02CC01	24/11/2008
26979358	P02CC01	02/12/2009
27053658	P02CC01	27/12/2007
27032728	P02CC01	18/06/2003
27153123	P02CC01	27/03/2007
27047429	P02CC01	20/10/2010
27021911	P02CC01	16/02/2006
27387678	P02CC01	14/03/2007
27327858	P02CC01	02/03/2009
27232386	P02CC01	15/10/2010
27222310	P02CC01	30/06/2010
27420519	P02CC01	19/08/2009
27553541	P02CC01	10/10/2001
26900477	P02CC01	02/11/2005
27244772	P02CC01	26/02/2001
21553339	P02CC01	29/06/2007
27759597	P02CC01	11/05/2004
27063841	P02CC01	14/01/2011
27170744	P02CC01	14/10/2008
33118863	P02CC01	01/02/2010
33041335	P02CC01	16/02/2001
33097374	P02CC01	07/04/2008
33090887	P02CC01	20/12/2010
33084051	P02CC01	15/01/2009
33042936	P02CC01	23/02/2007
33113135	P02CC01	07/02/2002
16645939	P02CC01	15/11/2006
33069675	P02CC01	04/01/2006
33070678	P02CC01	13/03/2003
33235295	P02CC01	04/05/2006
16646080	P02CC01	25/05/2007
33293731	P02CC01	02/02/2001
33221866	P02CC01	18/06/2004
28001216	P02CC01	01/02/2011
28032734	P02CC01	22/07/2009
28001029	P02CC01	07/02/2011
23385783	P02CC01	07/12/2006
33240728	P02CC01	31/01/2005
31259612	P02CC01	10/09/2004
31175603	P02CC01	18/11/2009
31163973	P02CC01	11/12/2007
32264795	P02CC01	18/09/2006
31238587	P02CC01	23/06/2008
32184743	P02CC01	07/12/2006
31308618	P02CC01	05/08/2010
31993988	P02CC01	22/10/2002
31538379	P02CC01	13/11/2009
31316108	P02CC01	01/02/2005
31323734	P02CC01	25/01/2007
31546151	P02CC01	22/11/2006
31872828	P02CC01	07/02/2003
32275147	P02CC01	05/11/2003
31765681	P02CC01	25/02/2010
32011804	P02CC01	14/01/2009
31168786	P02CC01	05/11/2004
31342035	P02CC01	11/12/2007
31745891	P02CC01	25/06/2007
31729399	P02CC01	10/05/2005
31842837	P02CC01	10/11/2008
31380809	P02CC01	12/06/2008
31512689	P02CC01	15/03/2006
31491948	P02CC01	22/04/2004
31433301	P02CC01	13/04/2007
31933208	P02CC01	23/02/2010
32276605	P02CC01	02/11/2009
31571106	P02CC01	29/05/2006
32273148	P02CC01	18/02/2008
