patient_id	covar_name	date
8654002	R01AD01	01/03/2011
1068148	R01AD01	13/06/2005
132608	R01AD01	21/05/2007
8655621	R01AD01	29/12/2009
17169827	R01AD01	13/02/2008
12186014	R01AD01	12/06/2009
23505942	R01AD01	07/11/2002
60228	R01AD01	15/05/2009
12857769	R01AD01	28/04/2004
175156	R01AD01	11/05/2011
9300058	R01AD01	07/06/2004
8655802	R01AD01	27/05/2010
8288602	R01AD01	02/01/2002
5865752	R01AD01	02/02/2005
3938143	R01AD01	06/10/2009
12858903	R01AD01	04/04/2006
9301174	R01AD01	01/07/2003
13950951	R01AD01	12/02/2007
8511391	R01AD01	31/05/2010
1433271	R01AD01	16/05/2000
8276707	R01AD01	19/09/2007
8654947	R01AD01	23/05/2011
9231681	R01AD01	23/05/2000
8655586	R01AD01	16/08/2010
8277071	R01AD01	28/08/2007
24718616	R01AD01	06/02/2004
24719448	R01AD01	27/05/2003
1264701	R01AD01	18/01/2006
6424808	R01AD01	10/04/2008
1262655	R01AD01	25/02/2010
1321721	R01AD01	26/05/2006
1853285	R01AD01	23/11/2009
1853589	R01AD01	10/11/2009
524498	R01AD01	09/02/2010
1204066	R01AD01	28/03/2005
24719646	R01AD01	23/07/2002
24718581	R01AD01	27/02/2006
1350929	R01AD01	27/03/2003
1320967	R01AD01	14/03/2006
1264156	R01AD01	03/06/2010
1264298	R01AD01	28/01/2009
1265356	R01AD01	10/05/2006
525429	R01AD01	22/01/2007
1264564	R01AD01	20/11/2006
1320212	R01AD01	09/11/2004
1262678	R01AD01	28/01/2009
5162420	R01AD01	26/03/2003
1262550	R01AD01	05/02/2004
7847933	R01AD01	03/01/2007
1263138	R01AD01	08/04/2008
24718506	R01AD01	25/01/2006
1320083	R01AD01	26/11/2004
13733143	R01AD01	02/04/2004
24719753	R01AD01	04/06/2007
1103491	R01AD01	03/04/2003
1102009	R01AD01	16/03/2000
1103285	R01AD01	06/10/2005
2133045	R01AD01	31/08/2004
1755826	R01AD01	20/07/2004
1755158	R01AD01	08/02/2005
874724	R01AD01	17/05/2006
874558	R01AD01	05/10/2007
902142	R01AD01	08/06/2007
28072011	R01AD01	03/01/2008
1902966	R01AD01	08/11/1999
1904412	R01AD01	13/09/1999
4889299	R01AD01	28/09/2010
28063839	R01AD01	03/05/2011
28071539	R01AD01	07/05/2001
28070991	R01AD01	09/01/2007
28072352	R01AD01	18/01/2002
28072376	R01AD01	21/01/2010
28072766	R01AD01	01/08/2001
28071033	R01AD01	21/01/2004
25727444	R01AD01	13/12/2004
1366141	R01AD01	20/07/2006
26917214	R01AD01	01/06/2001
27105375	R01AD01	13/04/2005
27054901	R01AD01	27/04/2006
27352654	R01AD01	20/12/2004
27562978	R01AD01	26/09/2005
27607215	R01AD01	18/01/2005
27661892	R01AD01	01/04/2004
27662036	R01AD01	08/03/2005
27532981	R01AD01	11/06/2010
27520824	R01AD01	02/12/2006
27676342	R01AD01	04/01/2002
27662240	R01AD01	15/09/2004
33010461	R01AD01	23/05/2005
33026002	R01AD01	06/07/2007
33096317	R01AD01	28/05/2002
33016797	R01AD01	05/04/2011
33110034	R01AD01	13/12/2005
33095119	R01AD01	17/09/2009
33097006	R01AD01	25/03/2010
33030873	R01AD01	07/12/2005
33049967	R01AD01	15/11/2004
33017279	R01AD01	13/12/2005
33087055	R01AD01	12/02/2001
33000272	R01AD01	22/08/2007
23221219	R01AD01	21/09/2000
16139583	R01AD01	17/05/2004
18768290	R01AD01	20/01/2010
14187106	R01AD01	28/04/2003
33232567	R01AD01	29/03/2004
16610867	R01AD01	02/03/2004
16133358	R01AD01	01/12/2000
16138211	R01AD01	11/04/2003
18758697	R01AD01	27/06/2008
31296400	R01AD01	15/02/2010
31224867	R01AD01	08/01/2007
31473062	R01AD01	12/01/2007
31515657	R01AD01	02/02/2004
32033042	R01AD01	26/02/2003
32275097	R01AD01	07/10/2004
31893613	R01AD01	16/02/2006
31716241	R01AD01	29/09/2009
31630215	R01AD01	25/10/2004
31940790	R01AD01	18/10/2004
31517361	R01AD01	22/05/2006
31710696	R01AD01	09/10/2007
32020201	R01AD01	04/01/2008
31602279	R01AD01	18/03/2002
31807812	R01AD01	10/03/2005
32045521	R01AD01	25/11/2004
31271559	R01AD01	18/03/2004
31775322	R01AD01	04/12/2008
32008025	R01AD01	15/06/2001
31048294	R01AD01	29/04/2004
31819522	R01AD01	18/06/2007
31735989	R01AD01	09/01/2009
31414303	R01AD01	05/05/2009
31851804	R01AD01	23/05/2006
31931296	R01AD01	17/04/2006
31638235	R01AD01	09/12/2004
31580668	R01AD01	01/06/2005
31659785	R01AD01	24/04/2009
31993122	R01AD01	10/06/2002
32084114	R01AD01	30/03/2009
31035978	R01AD01	24/07/2007
31394212	R01AD01	11/11/2003
31242520	R01AD01	27/02/2007
32010721	R01AD01	13/12/2010
31522740	R01AD01	04/11/2010
31533410	R01AD01	14/03/2008
32183399	R01AD01	29/12/2008
32104033	R01AD01	11/02/2009
31501290	R01AD01	16/04/2009
31257672	R01AD01	26/05/2003
31936343	R01AD01	08/03/2011
32128520	R01AD01	13/06/2007
32187886	R01AD01	01/04/2005
31826945	R01AD01	14/11/2008
31675235	R01AD01	01/03/1999
32247746	R01AD01	04/11/2009
31533289	R01AD01	16/12/2003
32057825	R01AD01	25/04/2005
32232109	R01AD01	14/02/2008
31191725	R01AD01	18/05/2009
32126069	R01AD01	31/03/2009
31736653	R01AD01	13/04/2004
31359021	R01AD01	02/12/2008
31079877	R01AD01	01/03/2011
31691761	R01AD01	04/04/2001
32127700	R01AD01	26/02/2008
31374529	R01AD01	20/05/2003
31925538	R01AD01	23/03/2009
32125852	R01AD01	27/03/2002
31514955	R01AD01	21/05/2002
31616921	R01AD01	24/01/2011
31948589	R01AD01	18/03/2005
31951572	R01AD01	23/11/2009
31758759	R01AD01	10/08/2006
31360029	R01AD01	18/05/2009
31085927	R01AD01	23/05/2002
31606385	R01AD01	06/03/2009
31980666	R01AD01	11/02/2011
31477918	R01AD01	06/03/2007
31696750	R01AD01	17/10/2002
31209696	R01AD01	12/04/2002
31205160	R01AD01	10/03/2008
31328449	R01AD01	08/02/2007
31980436	R01AD01	10/05/2006
31271030	R01AD01	04/01/2006
31362253	R01AD01	29/12/2008
32220436	R01AD01	25/10/2002
31690667	R01AD01	18/11/2004
31986039	R01AD01	15/05/2002
32016112	R01AD01	15/03/2005
