patient_id	covar_name	date
12689436	R06AX29	26/05/2011
6298556	R06AX29	30/05/2011
5867289	R06AX29	17/05/2011
8639773	R06AX29	31/05/2011
8641010	R06AX29	27/05/2011
12730771	R06AX29	12/05/2011
16479331	R06AX29	23/05/2011
6594082	R06AX29	30/04/2011
8061893	R06AX29	30/05/2011
405341	R06AX29	12/05/2011
1567790	R06AX29	24/05/2011
1581159	R06AX29	30/05/2011
26462371	R06AX29	10/05/2011
27085746	R06AX29	25/05/2011
27718156	R06AX29	28/04/2011
26824795	R06AX29	26/04/2011
27078842	R06AX29	31/05/2011
16625816	R06AX29	25/05/2011
33058773	R06AX29	23/05/2011
33065917	R06AX29	25/05/2011
33311924	R06AX29	25/05/2011
27913765	R06AX29	31/05/2011
