patient_id	covar_name	date
5034754	R01AC03	29/04/2009
729621	R01AC03	09/02/2007
12773401	R01AC03	24/05/2006
21871733	R01AC03	08/05/2007
8652217	R01AC03	29/04/2011
23471437	R01AC03	11/05/2011
19007857	R01AC03	29/04/2008
6245065	R01AC03	14/05/2007
1731330	R01AC03	24/02/2003
21156478	R01AC03	10/03/2010
12761131	R01AC03	15/05/2006
17954142	R01AC03	03/05/2010
14133505	R01AC03	25/05/2010
12760749	R01AC03	15/10/2008
704170	R01AC03	13/06/2008
11580998	R01AC03	24/03/2010
1547786	R01AC03	10/12/2004
16977153	R01AC03	14/01/2011
6079444	R01AC03	11/05/2006
6887580	R01AC03	23/02/2009
8785722	R01AC03	30/04/2010
9208920	R01AC03	22/01/2009
948323	R01AC03	25/05/2011
9175670	R01AC03	14/03/2002
704332	R01AC03	18/09/2008
8786640	R01AC03	21/11/2007
6416606	R01AC03	11/04/2006
16559058	R01AC03	04/01/2010
19179021	R01AC03	06/05/2008
9371920	R01AC03	19/05/2009
12738323	R01AC03	06/06/2007
20283218	R01AC03	02/06/2010
10270239	R01AC03	25/07/2007
7094087	R01AC03	30/05/2006
6937234	R01AC03	05/05/2006
209647	R01AC03	27/04/2005
8985268	R01AC03	20/11/2007
8652236	R01AC03	29/04/2009
13009432	R01AC03	09/05/2003
9318547	R01AC03	29/09/2010
9390046	R01AC03	18/05/2006
9328199	R01AC03	18/11/2005
16559022	R01AC03	25/03/2004
7152290	R01AC03	02/02/2005
14982674	R01AC03	30/04/2008
8975603	R01AC03	09/02/2004
12857656	R01AC03	11/05/2007
10267158	R01AC03	11/03/2011
19231749	R01AC03	24/01/2007
8784792	R01AC03	28/01/2008
10332543	R01AC03	06/05/2009
10331265	R01AC03	17/05/2006
24730680	R01AC03	14/02/2006
3326971	R01AC03	13/06/2001
6416965	R01AC03	27/08/2007
1069069	R01AC03	30/03/2010
12728050	R01AC03	16/05/2007
12790442	R01AC03	03/08/2010
20549826	R01AC03	30/05/2001
15427398	R01AC03	19/02/2008
21870782	R01AC03	30/03/2007
25051083	R01AC03	16/05/2008
9220227	R01AC03	10/05/2005
6756901	R01AC03	18/01/2011
25052021	R01AC03	30/10/2008
25071236	R01AC03	26/10/2006
16559119	R01AC03	15/12/2009
14983378	R01AC03	02/08/2007
8277508	R01AC03	06/07/2010
7350747	R01AC03	12/05/2006
8651304	R01AC03	11/05/2011
3298642	R01AC03	26/02/2009
24764465	R01AC03	20/01/2005
3307871	R01AC03	21/05/2007
8784119	R01AC03	17/03/2010
3122928	R01AC03	06/02/2006
25042130	R01AC03	25/04/2011
8511391	R01AC03	21/11/2005
25042115	R01AC03	07/02/2007
3125131	R01AC03	27/02/2008
6626450	R01AC03	06/05/2008
63636	R01AC03	07/10/2003
5023779	R01AC03	16/02/2006
14641265	R01AC03	16/11/2010
3502209	R01AC03	07/03/2008
24864967	R01AC03	19/12/2008
5024803	R01AC03	15/10/2010
13222119	R01AC03	11/05/2005
8784295	R01AC03	20/07/2001
10004108	R01AC03	10/04/2007
1203819	R01AC03	07/06/2007
12188862	R01AC03	23/02/2011
23511042	R01AC03	11/05/2006
1379001	R01AC03	16/05/2008
7824020	R01AC03	22/05/2001
7964357	R01AC03	22/12/2005
13081584	R01AC03	17/06/2009
1379573	R01AC03	23/12/2009
26144617	R01AC03	15/10/2004
18366191	R01AC03	15/03/2011
1853285	R01AC03	05/04/2004
516372	R01AC03	30/12/2009
1352039	R01AC03	09/07/2002
13985993	R01AC03	23/05/2008
1214146	R01AC03	15/12/2009
1210171	R01AC03	25/01/2008
1276805	R01AC03	05/05/2003
645737	R01AC03	10/12/2002
1545327	R01AC03	05/04/2004
1379065	R01AC03	26/04/2007
1100666	R01AC03	25/05/2006
1647348	R01AC03	13/11/2006
4687471	R01AC03	01/03/2011
1578937	R01AC03	17/09/2008
1100188	R01AC03	23/03/2001
134966	R01AC03	18/03/1999
4672411	R01AC03	17/09/2008
1135359	R01AC03	06/03/2009
1855343	R01AC03	18/06/2004
1106686	R01AC03	12/04/2010
890168	R01AC03	29/12/2003
717746	R01AC03	09/03/2010
249389	R01AC03	24/06/2010
2041465	R01AC03	04/02/2008
1765141	R01AC03	13/04/2011
757536	R01AC03	11/01/2008
2760233	R01AC03	03/06/2008
2407695	R01AC03	22/03/2007
26460105	R01AC03	06/05/2010
26423834	R01AC03	01/10/2005
26442650	R01AC03	13/11/2009
17325261	R01AC03	22/03/2007
26410194	R01AC03	21/12/2005
26351889	R01AC03	14/04/2011
16961870	R01AC03	03/05/2010
421458	R01AC03	12/11/2007
418178	R01AC03	13/10/2010
1912881	R01AC03	18/12/2002
5015854	R01AC03	03/06/2010
435689	R01AC03	04/02/2003
428209	R01AC03	18/05/2000
419797	R01AC03	13/09/2001
28091919	R01AC03	03/02/2005
3055456	R01AC03	11/10/2000
418520	R01AC03	26/07/2002
420238	R01AC03	19/01/2007
419140	R01AC03	31/08/2006
184560	R01AC03	08/02/2005
418404	R01AC03	17/05/2000
419430	R01AC03	28/08/2007
179027	R01AC03	23/03/2007
418234	R01AC03	02/12/2009
418315	R01AC03	04/12/2009
463683	R01AC03	08/05/2007
28049523	R01AC03	06/10/2008
26385293	R01AC03	29/12/2003
25742932	R01AC03	02/12/2008
25743839	R01AC03	26/12/2008
25741006	R01AC03	02/12/2008
25742981	R01AC03	25/03/2008
25743009	R01AC03	20/08/2008
25554270	R01AC03	24/10/2003
178619	R01AC03	22/09/2003
1020352	R01AC03	05/03/2007
1905426	R01AC03	27/09/2001
1369115	R01AC03	22/12/2003
1020473	R01AC03	23/02/2009
1016574	R01AC03	15/05/2003
1374923	R01AC03	11/10/2004
18195981	R01AC03	06/09/2005
1372631	R01AC03	22/12/2004
18199277	R01AC03	29/03/2011
18196192	R01AC03	27/04/2006
18193244	R01AC03	13/12/2002
18195492	R01AC03	27/12/2004
19786096	R01AC03	14/04/1998
12977360	R01AC03	09/06/2009
2959095	R01AC03	08/07/2010
2960430	R01AC03	05/11/2003
1374589	R01AC03	08/01/2008
2250994	R01AC03	16/05/2007
1361578	R01AC03	04/01/2008
418928	R01AC03	05/12/2001
1362618	R01AC03	06/11/2007
1910693	R01AC03	14/06/2001
1368804	R01AC03	04/12/2007
26642783	R01AC03	21/10/2002
26856605	R01AC03	06/05/2004
16567752	R01AC03	25/05/2006
16105651	R01AC03	23/05/2006
26721016	R01AC03	22/12/2008
26638606	R01AC03	25/03/2003
25740817	R01AC03	17/05/2006
24654931	R01AC03	23/06/2004
22621949	R01AC03	19/05/2003
24503300	R01AC03	15/04/2004
26934601	R01AC03	27/05/2004
26950407	R01AC03	18/01/2005
26878505	R01AC03	17/03/2005
26742016	R01AC03	10/05/2007
26887048	R01AC03	25/10/2007
26767581	R01AC03	07/06/2007
26874543	R01AC03	15/03/2006
26873673	R01AC03	04/10/2004
26859334	R01AC03	24/06/2004
26801251	R01AC03	12/03/2010
26776452	R01AC03	30/01/2009
26979143	R01AC03	17/08/2010
26939494	R01AC03	26/12/2003
27133143	R01AC03	16/05/2008
27100098	R01AC03	18/07/2005
27061482	R01AC03	29/03/2011
27061759	R01AC03	31/05/2006
27056963	R01AC03	19/12/2000
27002175	R01AC03	02/08/2010
26978375	R01AC03	14/04/2010
26978733	R01AC03	06/04/2004
27036781	R01AC03	26/10/2005
26994861	R01AC03	26/09/2007
27041217	R01AC03	04/01/2005
27148077	R01AC03	11/02/2008
27148073	R01AC03	05/02/2008
27318011	R01AC03	12/05/2006
27356518	R01AC03	18/12/2006
27365164	R01AC03	04/05/2005
26967221	R01AC03	26/02/2003
27173410	R01AC03	17/03/2010
27231019	R01AC03	02/01/2006
26955621	R01AC03	31/05/2007
27200549	R01AC03	18/04/2008
27251427	R01AC03	16/05/2007
27579109	R01AC03	29/11/2010
27658212	R01AC03	03/08/2005
27642131	R01AC03	02/11/2010
27577013	R01AC03	17/10/2006
27764879	R01AC03	24/03/2011
27551398	R01AC03	22/02/2000
27553732	R01AC03	23/05/2003
27572899	R01AC03	27/03/2008
27633086	R01AC03	23/05/2007
27242158	R01AC03	21/06/2010
27773455	R01AC03	04/10/2006
27778688	R01AC03	23/09/2004
27662387	R01AC03	05/04/2005
27533674	R01AC03	19/05/2003
27538788	R01AC03	11/06/2008
27766630	R01AC03	08/07/2008
27683287	R01AC03	29/12/2003
27679924	R01AC03	09/09/2003
27686854	R01AC03	24/09/2003
27684951	R01AC03	12/11/2004
27768943	R01AC03	04/12/2002
27782735	R01AC03	22/06/2004
22921854	R01AC03	07/04/2011
418255	R01AC03	09/11/2010
27767036	R01AC03	21/05/2009
27540244	R01AC03	07/01/2010
27759567	R01AC03	23/05/2009
27766338	R01AC03	24/08/2007
27681186	R01AC03	16/05/2001
27764267	R01AC03	18/11/2005
27763606	R01AC03	02/07/2007
27662240	R01AC03	14/04/2004
183848	R01AC03	03/01/2005
27765475	R01AC03	02/07/2007
27784366	R01AC03	06/06/2006
27663382	R01AC03	26/12/2003
33088577	R01AC03	26/04/2005
33115962	R01AC03	19/05/2006
33017392	R01AC03	29/04/2010
33019197	R01AC03	13/05/2004
33067653	R01AC03	04/04/2007
33054849	R01AC03	07/08/2009
27680372	R01AC03	15/02/2008
27115918	R01AC03	27/09/2007
3057080	R01AC03	26/12/2005
13498162	R01AC03	24/05/2010
33008240	R01AC03	13/05/2004
33098294	R01AC03	23/05/2002
21109472	R01AC03	24/05/2011
23320348	R01AC03	09/05/2005
16654622	R01AC03	21/12/2004
33240083	R01AC03	19/04/2006
33069675	R01AC03	04/07/2006
33025702	R01AC03	07/10/2008
33002545	R01AC03	02/06/2004
33105985	R01AC03	14/09/2001
33101088	R01AC03	08/04/2009
33109220	R01AC03	10/05/2010
33040568	R01AC03	16/02/2001
18769476	R01AC03	06/03/2006
16774206	R01AC03	29/04/2008
33293488	R01AC03	18/03/2005
16658143	R01AC03	10/09/2009
16683830	R01AC03	11/01/2010
16625746	R01AC03	06/04/2006
28015248	R01AC03	14/05/2008
16135921	R01AC03	16/10/2000
27912578	R01AC03	10/02/2009
27895246	R01AC03	21/05/2007
27912569	R01AC03	04/11/2008
16653209	R01AC03	20/05/2008
23336805	R01AC03	30/01/2009
16124295	R01AC03	09/03/2004
23339422	R01AC03	02/05/2007
16125510	R01AC03	06/06/2006
16654674	R01AC03	11/05/2009
16640372	R01AC03	17/02/2007
16622958	R01AC03	23/10/2003
23332852	R01AC03	21/02/2008
33244922	R01AC03	06/06/2006
18757709	R01AC03	31/05/2010
16184392	R01AC03	08/05/2007
16601039	R01AC03	19/10/2004
23333046	R01AC03	15/10/2010
23332754	R01AC03	15/04/2008
20985173	R01AC03	13/01/2006
33240728	R01AC03	30/05/2003
31119558	R01AC03	11/01/2008
31651515	R01AC03	28/09/2006
31590499	R01AC03	04/02/2005
31681468	R01AC03	01/07/2010
31366887	R01AC03	26/12/2002
31558228	R01AC03	14/01/2004
32183770	R01AC03	16/05/2006
31323143	R01AC03	25/08/2006
31353977	R01AC03	03/03/2004
31166367	R01AC03	04/10/2004
32188695	R01AC03	02/04/2001
32279478	R01AC03	16/03/2005
31704051	R01AC03	24/03/2006
31626798	R01AC03	13/03/2009
31931500	R01AC03	16/02/2007
31285255	R01AC03	30/10/2006
31749706	R01AC03	11/05/2009
31597061	R01AC03	16/03/2006
32233519	R01AC03	25/02/2009
31504553	R01AC03	23/05/2006
32209638	R01AC03	23/11/2009
31697096	R01AC03	08/05/2008
31792571	R01AC03	19/05/2008
32104654	R01AC03	27/09/2007
31845370	R01AC03	22/04/2008
32185300	R01AC03	03/02/2005
31526161	R01AC03	19/05/2006
31706007	R01AC03	11/12/2006
31627391	R01AC03	27/02/2007
31938937	R01AC03	16/05/2007
32279522	R01AC03	20/05/2005
31315923	R01AC03	18/06/2009
31234749	R01AC03	01/03/2011
31814751	R01AC03	01/06/2009
32070869	R01AC03	28/02/2008
31286648	R01AC03	19/05/2004
32276946	R01AC03	10/06/2010
31859918	R01AC03	05/04/2004
31503956	R01AC03	02/06/2004
32166665	R01AC03	16/06/2008
31183723	R01AC03	17/12/2004
32023890	R01AC03	24/03/2006
31317017	R01AC03	16/11/2007
31332969	R01AC03	18/05/2006
32187756	R01AC03	20/05/2005
31666781	R01AC03	04/12/2003
31069003	R01AC03	07/05/2003
31844189	R01AC03	14/08/2003
31467991	R01AC03	31/01/2008
31505588	R01AC03	09/12/2005
31365988	R01AC03	17/10/2002
31826417	R01AC03	08/02/2007
31792074	R01AC03	06/03/2008
32085028	R01AC03	25/03/2008
31612836	R01AC03	17/12/2010
32021516	R01AC03	18/05/2007
31447433	R01AC03	14/02/2008
31407758	R01AC03	10/05/2005
31189560	R01AC03	25/06/2007
32269218	R01AC03	28/10/2009
31267249	R01AC03	22/05/2007
32174919	R01AC03	20/02/2006
31327958	R01AC03	12/05/2009
31553657	R01AC03	18/05/2007
31286316	R01AC03	13/05/2009
31411740	R01AC03	26/03/2009
31547706	R01AC03	17/02/2006
31970563	R01AC03	29/05/2007
31553248	R01AC03	27/04/2005
31301711	R01AC03	26/05/2005
31349019	R01AC03	05/03/2004
31835145	R01AC03	10/03/2008
31216838	R01AC03	24/10/2002
32188596	R01AC03	28/02/2008
31539967	R01AC03	21/04/2003
31285770	R01AC03	31/05/2010
31357765	R01AC03	31/01/2006
32011951	R01AC03	27/04/2009
32173766	R01AC03	09/05/2005
31775370	R01AC03	31/05/2007
31270762	R01AC03	15/06/2007
32125824	R01AC03	28/06/2004
31824870	R01AC03	16/05/2008
31965808	R01AC03	24/03/2009
31460267	R01AC03	03/05/2006
32278983	R01AC03	18/10/2004
31637616	R01AC03	26/05/2009
31768821	R01AC03	23/05/2008
32017201	R01AC03	10/01/2005
31298511	R01AC03	18/08/2009
31622874	R01AC03	30/09/2008
31602375	R01AC03	28/02/2007
31626899	R01AC03	18/05/2006
31216426	R01AC03	09/03/2009
31980687	R01AC03	05/07/2010
31640259	R01AC03	04/06/2009
32102290	R01AC03	28/12/2005
31473901	R01AC03	25/05/2001
31888707	R01AC03	28/09/2010
31648346	R01AC03	23/01/2007
31521420	R01AC03	23/03/2010
31800102	R01AC03	11/04/2003
31916030	R01AC03	12/03/2004
31615936	R01AC03	21/01/2009
31421234	R01AC03	22/06/2007
31714340	R01AC03	12/05/2003
31537932	R01AC03	24/02/2005
31331521	R01AC03	12/01/2009
31901522	R01AC03	31/08/2006
32200321	R01AC03	08/05/2007
31533410	R01AC03	03/03/2008
31761935	R01AC03	08/06/2009
31856229	R01AC03	22/04/2005
32006368	R01AC03	09/03/2011
31408994	R01AC03	08/04/2011
31138394	R01AC03	05/06/2002
31532198	R01AC03	15/03/2004
31813777	R01AC03	15/05/2009
31577349	R01AC03	04/02/2003
31703573	R01AC03	08/05/2007
31065301	R01AC03	21/03/2005
32084841	R01AC03	14/03/2007
31919019	R01AC03	27/05/2004
31747956	R01AC03	21/05/2007
31574292	R01AC03	09/03/2006
31854473	R01AC03	10/05/2007
31911177	R01AC03	16/05/2006
31588888	R01AC03	24/04/2008
32060851	R01AC03	16/02/2006
31338971	R01AC03	30/10/2006
31217961	R01AC03	19/05/2006
32176198	R01AC03	09/06/2006
32141842	R01AC03	27/06/2006
32119583	R01AC03	13/03/2006
31274140	R01AC03	17/02/2006
31783569	R01AC03	22/09/2003
31898173	R01AC03	16/10/2009
32254966	R01AC03	28/09/2009
31442352	R01AC03	10/02/2004
31422698	R01AC03	09/06/2004
31324970	R01AC03	09/05/2006
31533731	R01AC03	06/06/2007
32111220	R01AC03	28/05/2009
31043046	R01AC03	19/03/2008
31547301	R01AC03	10/04/2007
31552724	R01AC03	04/03/2008
31675069	R01AC03	09/03/2005
31297379	R01AC03	06/05/2004
31975805	R01AC03	11/05/2009
31127796	R01AC03	21/11/2008
31092295	R01AC03	04/05/2005
31145470	R01AC03	06/04/2006
32130416	R01AC03	01/12/2009
32178154	R01AC03	31/01/2002
32038799	R01AC03	03/06/2004
31238640	R01AC03	17/06/2005
31298549	R01AC03	25/03/2009
32109768	R01AC03	11/11/2005
31505976	R01AC03	18/03/2003
31512350	R01AC03	27/03/2003
31304698	R01AC03	13/02/2009
32198903	R01AC03	29/10/2008
31465993	R01AC03	12/11/2009
31339613	R01AC03	14/02/2006
31513020	R01AC03	01/12/2008
32081649	R01AC03	17/01/2005
32197464	R01AC03	28/11/2005
31493410	R01AC03	23/04/2004
31519051	R01AC03	21/12/2006
31601474	R01AC03	30/03/2009
32243623	R01AC03	08/06/2004
31848909	R01AC03	14/06/2004
31549675	R01AC03	01/02/2008
31176638	R01AC03	22/11/2005
31623792	R01AC03	28/05/2004
31591242	R01AC03	08/05/2001
32045046	R01AC03	05/05/2004
31585215	R01AC03	26/05/2006
31528765	R01AC03	18/03/2004
31452945	R01AC03	06/04/2005
32182415	R01AC03	06/04/2006
32122873	R01AC03	16/05/2007
31951386	R01AC03	31/01/2005
31293037	R01AC03	17/03/2009
31564531	R01AC03	27/01/2004
31165938	R01AC03	28/08/2008
32061134	R01AC03	18/05/2004
31657716	R01AC03	13/07/2007
32205678	R01AC03	09/03/2007
31682920	R01AC03	18/05/2009
32176704	R01AC03	29/11/2004
32066321	R01AC03	26/11/2002
31446226	R01AC03	03/03/2004
31421066	R01AC03	21/03/2007
31720031	R01AC03	08/10/2009
31555376	R01AC03	23/05/2003
