patient_id	covar_name	date
25066998	R03CC02	29/04/2004
16929778	R03CC02	07/06/2004
12772348	R03CC02	12/03/2007
24004970	R03CC02	14/01/2010
24722159	R03CC02	10/03/2006
25062174	R03CC02	23/03/2010
740507	R03CC02	25/05/2009
3550672	R03CC02	24/05/2004
8788155	R03CC02	16/05/2005
25066092	R03CC02	15/03/2004
10866379	R03CC02	22/12/2003
8787236	R03CC02	24/03/2006
12783500	R03CC02	17/12/2007
20910320	R03CC02	16/09/2009
10866247	R03CC02	02/07/2002
8788069	R03CC02	06/02/2008
8787412	R03CC02	03/10/2005
10372234	R03CC02	03/12/2007
739946	R03CC02	09/12/1999
8554604	R03CC02	15/07/2008
25054476	R03CC02	21/02/2005
740865	R03CC02	03/12/2007
8985628	R03CC02	29/05/2006
1964322	R03CC02	18/11/2002
16922593	R03CC02	07/07/2006
7770511	R03CC02	28/01/2005
21806208	R03CC02	05/03/2007
6598413	R03CC02	02/04/2003
1169659	R03CC02	09/05/2007
1474251	R03CC02	12/05/2006
1203819	R03CC02	02/06/2003
17932194	R03CC02	03/11/2005
1090730	R03CC02	01/03/2004
7635178	R03CC02	14/12/2004
6634150	R03CC02	03/05/2007
7776172	R03CC02	12/05/2009
1851166	R03CC02	11/09/2008
404818	R03CC02	20/01/2005
638871	R03CC02	17/03/2005
405185	R03CC02	28/04/2008
1201565	R03CC02	16/03/2007
24943888	R03CC02	11/11/2003
19402838	R03CC02	21/08/2009
4433535	R03CC02	06/04/2011
1379406	R03CC02	02/07/2004
18646634	R03CC02	04/01/2011
1191344	R03CC02	14/11/2003
24943208	R03CC02	29/12/2009
1474394	R03CC02	23/12/2010
540436	R03CC02	19/03/2003
24944378	R03CC02	18/05/2007
18366191	R03CC02	18/03/2011
24941050	R03CC02	15/01/2007
1474100	R03CC02	16/03/2005
7905833	R03CC02	02/05/2006
7782182	R03CC02	24/02/2003
18038978	R03CC02	08/04/2009
12189908	R03CC02	17/01/2005
1854071	R03CC02	22/09/2004
21477563	R03CC02	21/05/2009
18038827	R03CC02	22/04/2010
7444020	R03CC02	24/06/2010
6382757	R03CC02	15/12/2008
11457524	R03CC02	17/11/2010
7770971	R03CC02	08/05/2007
7777409	R03CC02	11/03/2010
6842063	R03CC02	23/05/2011
5992233	R03CC02	28/04/2007
25177752	R03CC02	09/10/2009
1379379	R03CC02	11/12/2008
1192135	R03CC02	10/11/2003
524498	R03CC02	27/08/2009
13109261	R03CC02	05/05/2010
1091342	R03CC02	24/04/2006
917993	R03CC02	11/06/2008
6633918	R03CC02	04/04/2006
26139493	R03CC02	16/05/2007
917736	R03CC02	22/02/2006
405045	R03CC02	13/04/2005
6841316	R03CC02	03/03/2006
1210330	R03CC02	25/02/2010
7820053	R03CC02	17/10/2005
6841352	R03CC02	17/01/2005
1265194	R03CC02	09/05/2002
6555456	R03CC02	07/07/2010
5992373	R03CC02	04/10/2004
18039020	R03CC02	23/01/2006
7771744	R03CC02	23/05/2003
9497958	R03CC02	29/06/2009
1192190	R03CC02	31/10/2002
1192084	R03CC02	12/12/2003
14942149	R03CC02	12/08/2005
19402420	R03CC02	02/04/2011
1378713	R03CC02	20/03/2006
539531	R03CC02	03/02/2006
7782277	R03CC02	11/03/2004
25177475	R03CC02	07/01/2010
6555460	R03CC02	26/12/2008
25176638	R03CC02	29/01/2007
1379025	R03CC02	20/09/2002
1379495	R03CC02	11/06/2008
404765	R03CC02	29/09/2004
404608	R03CC02	24/10/2006
5992383	R03CC02	11/10/2005
6842492	R03CC02	24/03/2007
20074642	R03CC02	03/10/2003
13986237	R03CC02	24/09/2002
9498070	R03CC02	26/05/2010
6633906	R03CC02	07/02/2011
24944667	R03CC02	13/01/2009
1209849	R03CC02	09/08/2005
645737	R03CC02	31/07/2008
404974	R03CC02	18/02/2005
3459139	R03CC02	28/02/2007
1054556	R03CC02	02/04/2003
18038752	R03CC02	10/11/2010
18039023	R03CC02	14/12/2007
23843778	R03CC02	05/06/2009
14884073	R03CC02	25/06/2010
1379065	R03CC02	13/07/2004
7770064	R03CC02	27/03/2003
5992669	R03CC02	29/04/2007
13986679	R03CC02	09/01/2008
1191254	R03CC02	14/03/2005
1474271	R03CC02	05/03/2008
639310	R03CC02	28/11/2005
18998981	R03CC02	27/04/2006
1274586	R03CC02	13/01/2006
25897464	R03CC02	16/11/2010
1578228	R03CC02	10/02/2011
1566989	R03CC02	02/12/2010
25900612	R03CC02	22/02/2011
1567088	R03CC02	19/12/2005
1578102	R03CC02	12/07/2005
25176961	R03CC02	08/03/2006
4676284	R03CC02	12/05/2009
25873651	R03CC02	14/02/2011
25897243	R03CC02	17/11/2009
1577582	R03CC02	31/01/2006
6495063	R03CC02	27/06/2007
8002086	R03CC02	04/12/2008
1567457	R03CC02	07/09/2009
3643698	R03CC02	19/02/2007
1577675	R03CC02	02/05/2007
6492632	R03CC02	16/03/2007
6492704	R03CC02	23/01/2009
134966	R03CC02	19/01/2004
3807400	R03CC02	15/02/2002
1275138	R03CC02	03/01/2008
6494913	R03CC02	28/10/2010
25897175	R03CC02	18/04/2011
6513850	R03CC02	06/11/2007
25897169	R03CC02	29/10/2009
3656508	R03CC02	29/12/2006
25900633	R03CC02	05/11/2010
4675932	R03CC02	19/06/2007
4675953	R03CC02	26/12/2006
890246	R03CC02	22/04/2003
25900572	R03CC02	09/11/2010
25897255	R03CC02	08/04/2011
3655963	R03CC02	15/03/2007
6492820	R03CC02	09/08/2010
1855343	R03CC02	12/05/2006
1577851	R03CC02	15/04/2004
4675753	R03CC02	08/02/2006
25873517	R03CC02	05/07/2010
25883547	R03CC02	27/05/2008
4675831	R03CC02	05/04/2006
6492625	R03CC02	13/11/2008
25897453	R03CC02	22/03/2010
6492768	R03CC02	04/04/2007
25897029	R03CC02	04/12/2006
1134421	R03CC02	30/01/2008
1065365	R03CC02	25/08/2008
3656203	R03CC02	02/05/2006
25768735	R03CC02	13/02/2002
25884924	R03CC02	20/11/2009
1135038	R03CC02	27/12/2007
25900580	R03CC02	19/07/2010
8002141	R03CC02	03/08/2010
6492401	R03CC02	22/07/2010
1101196	R03CC02	26/12/2000
2087891	R03CC02	20/02/2006
2365510	R03CC02	18/07/2003
2087693	R03CC02	02/04/2002
2087753	R03CC02	28/12/2004
2411588	R03CC02	23/09/2005
2088442	R03CC02	12/05/2004
901547	R03CC02	20/05/2002
2035752	R03CC02	17/10/2002
2055176	R03CC02	29/06/2007
249238	R03CC02	03/01/2002
2088216	R03CC02	10/05/2005
901698	R03CC02	21/11/2002
7089484	R03CC02	06/03/2007
4149328	R03CC02	15/11/2005
2757796	R03CC02	16/03/2005
4228487	R03CC02	22/11/2006
4552132	R03CC02	07/10/2007
2757482	R03CC02	31/01/2003
7128867	R03CC02	25/04/2002
7128969	R03CC02	11/05/2006
6630115	R03CC02	06/09/2007
7043389	R03CC02	09/03/2004
5884475	R03CC02	29/01/2007
2411925	R03CC02	16/05/2007
2522772	R03CC02	09/06/2008
2526860	R03CC02	25/06/2007
2523242	R03CC02	14/02/2007
2757419	R03CC02	24/10/2003
26392037	R03CC02	22/09/2006
26210785	R03CC02	11/03/2006
7976451	R03CC02	26/07/2007
17219263	R03CC02	12/01/2007
7987159	R03CC02	13/09/2007
26392599	R03CC02	30/12/2004
26436536	R03CC02	05/01/2009
11533934	R03CC02	09/05/2008
16832533	R03CC02	29/01/2008
17893260	R03CC02	13/12/2010
16961631	R03CC02	22/02/2005
9643749	R03CC02	12/05/2008
11533840	R03CC02	26/03/2009
7987077	R03CC02	04/06/2010
18068223	R03CC02	03/06/2003
16962769	R03CC02	14/01/2004
2968002	R03CC02	20/01/2006
2967555	R03CC02	31/10/2002
435689	R03CC02	16/06/1998
435701	R03CC02	01/09/1998
437377	R03CC02	04/11/2004
1900723	R03CC02	30/11/2007
425076	R03CC02	20/02/2007
28074831	R03CC02	26/10/2001
26478302	R03CC02	27/12/2007
28075157	R03CC02	29/12/2008
16832916	R03CC02	26/04/2010
28044182	R03CC02	28/12/2001
28075070	R03CC02	27/08/2007
434471	R03CC02	15/04/2003
180341	R03CC02	13/12/1999
179027	R03CC02	11/03/2003
426562	R03CC02	28/01/2008
28062417	R03CC02	27/03/2000
28073409	R03CC02	17/11/2008
28073313	R03CC02	26/05/2008
28073428	R03CC02	15/02/2010
24664859	R03CC02	01/06/2005
25537185	R03CC02	01/12/2004
24670759	R03CC02	26/01/2011
178619	R03CC02	02/02/2001
1343858	R03CC02	17/04/2000
620281	R03CC02	09/01/2002
1020473	R03CC02	07/01/2007
619414	R03CC02	05/10/2000
178979	R03CC02	08/01/2003
1343151	R03CC02	28/11/2000
17410688	R03CC02	31/01/2000
1362618	R03CC02	25/08/2008
2252318	R03CC02	27/11/2002
9063949	R03CC02	05/11/2007
2997982	R03CC02	11/05/2005
26795814	R03CC02	22/02/2010
26796008	R03CC02	15/04/2010
26825417	R03CC02	06/08/2010
24485599	R03CC02	25/09/2008
12952767	R03CC02	08/12/2010
10824903	R03CC02	14/04/2005
2998199	R03CC02	15/09/2008
19966968	R03CC02	06/02/2007
22885092	R03CC02	12/06/2001
26948438	R03CC02	08/03/2010
26943211	R03CC02	26/01/2005
26940369	R03CC02	29/08/2000
26961078	R03CC02	09/03/2004
26961108	R03CC02	15/12/2003
26759540	R03CC02	29/05/2007
26754408	R03CC02	18/12/2002
26850877	R03CC02	04/03/2008
26880615	R03CC02	09/12/2010
26775692	R03CC02	31/10/2005
26795604	R03CC02	17/10/2005
27082033	R03CC02	28/11/2008
27061807	R03CC02	02/04/2008
26944586	R03CC02	24/01/2003
26969246	R03CC02	12/01/2009
26954882	R03CC02	17/01/2002
27030806	R03CC02	18/09/2003
27047581	R03CC02	16/02/2007
27103339	R03CC02	29/12/2004
27103558	R03CC02	30/12/2003
27108278	R03CC02	03/03/2008
27108300	R03CC02	24/01/2004
27099915	R03CC02	25/08/2003
27082135	R03CC02	05/05/2008
27084973	R03CC02	22/05/2006
27078403	R03CC02	12/03/2007
27134721	R03CC02	18/10/2004
27048430	R03CC02	18/12/2003
27048879	R03CC02	11/05/2007
27030545	R03CC02	20/02/2006
27030615	R03CC02	10/12/2009
27027271	R03CC02	28/11/2010
27162490	R03CC02	27/03/2009
27222570	R03CC02	04/06/2007
27295832	R03CC02	21/03/2006
27295852	R03CC02	07/12/2004
26943081	R03CC02	23/11/2007
27590992	R03CC02	13/11/2007
27591057	R03CC02	02/01/2002
27484386	R03CC02	23/02/2011
27484221	R03CC02	14/12/2007
27547797	R03CC02	11/03/2003
27295603	R03CC02	18/02/2002
27134586	R03CC02	20/10/2009
27228930	R03CC02	07/12/2000
27294754	R03CC02	06/02/2007
27161370	R03CC02	10/02/2010
27145240	R03CC02	23/11/2005
27146134	R03CC02	24/11/2005
27131619	R03CC02	24/01/2002
27295361	R03CC02	15/12/2003
27161329	R03CC02	20/04/2011
27286544	R03CC02	22/07/2004
27145994	R03CC02	27/11/2006
27146052	R03CC02	24/10/2007
26759770	R03CC02	03/10/2006
26969021	R03CC02	11/11/2006
27296373	R03CC02	01/03/2002
27777460	R03CC02	01/03/2007
27131477	R03CC02	16/08/2006
27766630	R03CC02	09/12/2003
27678332	R03CC02	30/11/2001
27454577	R03CC02	26/08/2009
27678951	R03CC02	19/06/2006
27678368	R03CC02	28/12/2004
27678502	R03CC02	28/02/2002
27766579	R03CC02	03/10/2006
27678444	R03CC02	17/11/2003
27767142	R03CC02	18/12/2006
27689213	R03CC02	10/12/2002
27082259	R03CC02	30/09/2005
27575437	R03CC02	23/11/2010
19796397	R03CC02	03/01/2003
26795592	R03CC02	24/11/2010
27103226	R03CC02	29/12/2006
27484270	R03CC02	22/10/2008
27390791	R03CC02	23/06/2008
27771604	R03CC02	30/06/2004
33117897	R03CC02	26/11/2009
33078853	R03CC02	21/04/2010
33031382	R03CC02	12/12/2007
33125119	R03CC02	04/12/2007
33035121	R03CC02	07/06/2004
33099318	R03CC02	10/02/2009
33066288	R03CC02	15/04/2003
33106661	R03CC02	28/02/2002
33007386	R03CC02	28/10/2009
33090887	R03CC02	01/12/2010
33126750	R03CC02	06/03/2008
33020581	R03CC02	13/11/2002
33012415	R03CC02	16/11/2001
33126891	R03CC02	11/06/2008
33113135	R03CC02	22/04/2008
26727611	R03CC02	26/02/2009
33043382	R03CC02	22/01/2007
436222	R03CC02	10/12/2007
2967605	R03CC02	13/08/2002
33073816	R03CC02	01/03/2004
27872711	R03CC02	02/04/2007
16647769	R03CC02	13/12/2007
27874229	R03CC02	27/01/2011
33104458	R03CC02	14/04/2007
33128935	R03CC02	30/04/2010
33025614	R03CC02	02/02/2004
33063405	R03CC02	07/02/2007
33074096	R03CC02	20/04/2006
33033729	R03CC02	09/04/2002
33056435	R03CC02	22/04/2002
33030500	R03CC02	08/03/2007
33124262	R03CC02	22/02/2010
33021593	R03CC02	08/09/2008
33091308	R03CC02	27/11/2001
28035025	R03CC02	11/01/2006
33235295	R03CC02	27/11/2002
16647831	R03CC02	03/12/2008
16639844	R03CC02	17/06/2004
33250319	R03CC02	28/01/2008
33250332	R03CC02	09/01/2002
33243654	R03CC02	20/02/2007
27998518	R03CC02	06/11/2006
16680141	R03CC02	08/03/2007
16652153	R03CC02	29/08/2006
16172391	R03CC02	10/02/2005
27947649	R03CC02	21/11/2008
16138984	R03CC02	10/03/2010
16173420	R03CC02	16/01/2002
21105223	R03CC02	03/05/2007
16679810	R03CC02	23/02/2006
20991532	R03CC02	08/06/2004
33250509	R03CC02	21/11/2000
27998588	R03CC02	29/11/2004
28023306	R03CC02	02/02/2010
23319566	R03CC02	27/09/2004
27837120	R03CC02	01/06/2007
16648250	R03CC02	23/03/2007
20990975	R03CC02	29/03/2004
27872602	R03CC02	30/09/2005
28004575	R03CC02	07/02/2007
27970428	R03CC02	30/03/2005
27998488	R03CC02	20/03/2006
28248551	R03CC02	16/02/2011
30552472	R03CC02	28/04/2011
28850482	R03CC02	12/04/2011
28814499	R03CC02	02/03/2011
33220514	R03CC02	13/03/2009
16648158	R03CC02	05/04/2010
16648224	R03CC02	07/06/2004
20990779	R03CC02	03/07/2006
30736940	R03CC02	28/01/2011
30613718	R03CC02	16/05/2011
21105748	R03CC02	19/01/2007
30751339	R03CC02	16/03/2011
29830441	R03CC02	11/03/2011
31655296	R03CC02	09/12/2003
32173295	R03CC02	27/11/2006
31805853	R03CC02	26/11/2008
31071477	R03CC02	19/04/2006
31340895	R03CC02	04/08/2006
32278529	R03CC02	11/01/2007
31989161	R03CC02	06/03/2009
31733187	R03CC02	12/04/2005
31467601	R03CC02	31/03/2004
31652340	R03CC02	29/11/2005
31137773	R03CC02	17/10/2006
31589693	R03CC02	24/08/2006
31487332	R03CC02	04/02/2004
31863722	R03CC02	27/05/2002
32101616	R03CC02	05/11/2007
31992684	R03CC02	12/01/2005
32069381	R03CC02	11/06/2007
31703158	R03CC02	28/04/2009
31898729	R03CC02	02/12/2004
31690018	R03CC02	09/04/2007
31084883	R03CC02	27/11/2006
31302598	R03CC02	28/11/2006
31490015	R03CC02	22/08/2007
31088492	R03CC02	25/11/2003
31626228	R03CC02	11/12/2007
31319796	R03CC02	21/12/2004
32054331	R03CC02	14/04/2003
31627724	R03CC02	05/03/2001
31062838	R03CC02	08/11/1999
32187040	R03CC02	26/11/2004
31558576	R03CC02	23/12/2004
31328096	R03CC02	14/03/2007
31164792	R03CC02	26/09/2003
32078521	R03CC02	05/06/2006
32106342	R03CC02	28/05/2001
31374776	R03CC02	26/10/2009
31249462	R03CC02	03/07/2008
32227236	R03CC02	18/04/2002
32084541	R03CC02	12/11/2007
32030940	R03CC02	11/12/2006
31977064	R03CC02	03/06/2004
31193920	R03CC02	27/11/2006
31103963	R03CC02	26/12/2003
31543742	R03CC02	02/11/2006
31301711	R03CC02	19/04/2001
31565602	R03CC02	14/12/2007
31331374	R03CC02	24/11/2005
31392273	R03CC02	17/02/2005
31530588	R03CC02	11/01/2008
31621628	R03CC02	25/01/2006
32226553	R03CC02	25/09/2009
31365873	R03CC02	23/01/2004
31621930	R03CC02	05/03/2007
31567343	R03CC02	17/04/2002
31349496	R03CC02	26/09/2006
31683633	R03CC02	15/03/2004
31854191	R03CC02	02/11/2006
31112738	R03CC02	23/03/2004
31232354	R03CC02	23/12/2003
31047407	R03CC02	13/01/2009
31701618	R03CC02	23/03/2006
31691265	R03CC02	09/12/2004
31710128	R03CC02	13/08/2008
31776900	R03CC02	03/02/2009
32000302	R03CC02	24/07/2003
32095769	R03CC02	31/07/2007
31371048	R03CC02	05/03/2002
31271069	R03CC02	29/03/2005
31696946	R03CC02	20/03/2003
31851021	R03CC02	30/09/2010
32020453	R03CC02	09/03/2004
31050834	R03CC02	25/10/2002
32128882	R03CC02	21/02/2006
32057100	R03CC02	17/05/1999
32147188	R03CC02	30/11/2006
31775570	R03CC02	21/01/2003
32144561	R03CC02	13/06/2007
31895384	R03CC02	30/06/2010
31541557	R03CC02	05/11/2003
31857542	R03CC02	05/02/2004
31465406	R03CC02	26/09/2002
31761549	R03CC02	22/12/2004
31813820	R03CC02	18/01/2007
31364029	R03CC02	13/12/2005
31829865	R03CC02	30/01/2006
31901938	R03CC02	09/10/2002
31625079	R03CC02	04/05/2007
31265532	R03CC02	01/12/2006
31136108	R03CC02	08/11/2004
31365396	R03CC02	14/02/2006
31997972	R03CC02	27/11/2007
32018231	R03CC02	27/01/2006
32183854	R03CC02	10/06/2003
31487862	R03CC02	22/03/2004
32261044	R03CC02	02/06/2009
31215447	R03CC02	24/06/2005
31819179	R03CC02	05/05/2008
32268071	R03CC02	21/04/2005
31162175	R03CC02	14/06/2004
31829268	R03CC02	03/04/2007
32276605	R03CC02	16/01/2007
31214283	R03CC02	19/08/2003
31301358	R03CC02	14/03/2005
32043649	R03CC02	03/11/2006
32054919	R03CC02	27/12/2004
31632551	R03CC02	26/12/2005
31601651	R03CC02	10/04/2006
