patient_id	covar_name	date
24951660	SORDER	04/02/2005
3940306	SORDER	26/10/2006
21372644	SORDER	18/10/2010
5030597	SORDER	09/10/2008
24730236	SORDER	26/01/2006
8582729	SORDER	01/01/1988
9221602	SORDER	17/11/2010
3323175	SORDER	04/04/2006
9999776	SORDER	13/11/2007
8282083	SORDER	30/07/2007
8977102	SORDER	18/06/2001
21859577	SORDER	31/05/2006
15427808	SORDER	17/12/2003
1524837	SORDER	10/12/2010
21871733	SORDER	18/11/2005
9283222	SORDER	15/02/2001
8641990	SORDER	26/02/2004
23471437	SORDER	04/04/2008
20564963	SORDER	06/11/2009
12689969	SORDER	25/01/2005
1516960	SORDER	18/09/2007
12774510	SORDER	07/09/2004
10269371	SORDER	29/12/2008
753097	SORDER	13/02/2002
5813371	SORDER	28/09/2010
5031451	SORDER	16/09/2008
3940324	SORDER	02/03/2007
10269870	SORDER	26/06/2009
9340095	SORDER	20/05/2009
9372370	SORDER	04/06/2010
702188	SORDER	29/09/2005
9284420	SORDER	27/05/2002
11407938	SORDER	13/05/2005
16977385	SORDER	18/08/2010
208451	SORDER	10/10/2005
12778095	SORDER	30/12/2009
24951836	SORDER	09/05/2007
8980074	SORDER	05/05/2009
9385413	SORDER	20/04/2004
15900439	SORDER	26/04/2004
22918279	SORDER	19/11/2010
12791129	SORDER	06/04/2005
7405502	SORDER	30/03/1926
21152973	SORDER	27/07/2010
9300494	SORDER	15/02/2008
610072	SORDER	13/03/2009
24938794	SORDER	24/07/2006
8975430	SORDER	23/01/2008
600579	SORDER	23/12/2010
7150018	SORDER	14/01/2008
1162228	SORDER	07/04/2009
12806895	SORDER	24/05/2011
12689052	SORDER	15/02/2010
9125579	SORDER	30/01/2001
12761775	SORDER	16/01/2007
12829808	SORDER	08/11/1995
10393855	SORDER	08/04/2011
9371955	SORDER	20/08/2010
10267216	SORDER	11/09/2006
12771955	SORDER	02/02/2007
9212611	SORDER	16/01/2006
3117152	SORDER	19/01/2005
210163	SORDER	13/01/2004
9298961	SORDER	17/08/2005
10269118	SORDER	04/01/1990
5032331	SORDER	13/09/2007
25062174	SORDER	21/12/2010
948941	SORDER	05/09/2005
9983468	SORDER	29/08/2007
16530652	SORDER	14/05/2003
5035573	SORDER	17/05/2007
21370276	SORDER	19/01/2007
17173040	SORDER	11/08/2009
12688967	SORDER	03/07/2009
15427261	SORDER	11/05/2009
1188645	SORDER	29/12/2009
12899348	SORDER	23/04/2008
12182293	SORDER	09/02/2007
1939337	SORDER	21/11/2006
948323	SORDER	23/04/2008
5814094	SORDER	29/06/2007
1434506	SORDER	04/02/2004
12779350	SORDER	06/09/2005
3119576	SORDER	11/10/2006
21152371	SORDER	24/10/2006
12696060	SORDER	10/12/2009
6177297	SORDER	13/09/2007
7220369	SORDER	12/07/2007
1936765	SORDER	15/05/2006
10866971	SORDER	11/11/2010
6177055	SORDER	30/11/2009
1162008	SORDER	04/05/2010
9386259	SORDER	28/09/2006
6751368	SORDER	23/08/2005
8638907	SORDER	05/02/2008
9215559	SORDER	09/11/2007
3322587	SORDER	06/05/2011
12730770	SORDER	14/11/2008
9249480	SORDER	16/11/2006
21153344	SORDER	14/10/2004
10270319	SORDER	10/09/2010
16087795	SORDER	26/02/2010
611635	SORDER	20/02/2008
734248	SORDER	27/03/2003
702001	SORDER	25/11/2005
14983299	SORDER	02/11/2004
12738323	SORDER	15/09/2009
10270534	SORDER	03/10/2003
6749026	SORDER	15/09/2004
12765942	SORDER	23/03/1999
5565850	SORDER	24/05/2011
9231397	SORDER	20/10/2010
20569667	SORDER	02/02/2007
9300058	SORDER	30/03/2009
11994947	SORDER	14/05/2009
12690816	SORDER	20/12/2004
21871509	SORDER	17/08/2005
12829787	SORDER	23/01/2009
3937964	SORDER	09/03/2010
3125700	SORDER	13/12/2005
8655802	SORDER	09/11/2006
7245281	SORDER	16/04/2007
948258	SORDER	03/05/2006
8294054	SORDER	12/09/2000
13009432	SORDER	01/06/1998
6746616	SORDER	09/10/2002
5026215	SORDER	14/05/2008
9318547	SORDER	29/12/2004
13223855	SORDER	19/05/2010
21148894	SORDER	13/04/2009
61548	SORDER	02/12/2002
10867625	SORDER	10/01/2005
3126286	SORDER	23/08/2007
7242025	SORDER	28/12/2005
9339219	SORDER	31/01/2000
1163371	SORDER	16/08/2007
19525527	SORDER	26/09/2007
9209479	SORDER	24/03/2010
9285061	SORDER	24/01/2011
7245600	SORDER	21/12/2004
15425387	SORDER	27/04/2010
13932241	SORDER	07/02/2008
3288866	SORDER	31/08/2010
12690478	SORDER	12/04/2010
604775	SORDER	02/06/2006
702531	SORDER	21/04/2004
948626	SORDER	20/07/2001
12691956	SORDER	30/11/2006
12479856	SORDER	20/05/2010
16978229	SORDER	26/08/2010
25054568	SORDER	05/01/2010
25062558	SORDER	16/04/2004
7405626	SORDER	26/11/1942
16915547	SORDER	22/07/2010
12174179	SORDER	13/10/2008
7095604	SORDER	18/07/2005
7095167	SORDER	09/06/2008
12857013	SORDER	16/10/1922
12690074	SORDER	18/11/2010
3247747	SORDER	24/02/2003
3940167	SORDER	06/10/2008
10331265	SORDER	15/07/2009
8787236	SORDER	27/11/2008
9284482	SORDER	31/05/2005
20566164	SORDER	20/10/2004
16978129	SORDER	13/10/2010
3333511	SORDER	29/10/2004
8567599	SORDER	16/09/2004
9373441	SORDER	09/08/2004
9386536	SORDER	03/12/2010
17172812	SORDER	11/03/2010
12182796	SORDER	07/09/2006
12691571	SORDER	25/03/2011
6889143	SORDER	29/04/2004
16920652	SORDER	25/08/2009
1063691	SORDER	07/02/2007
10457413	SORDER	16/02/2010
20351368	SORDER	02/02/1999
12858584	SORDER	13/05/2003
23454243	SORDER	15/11/2002
7336239	SORDER	24/02/2004
10332860	SORDER	07/10/2005
21152296	SORDER	26/02/2004
12858119	SORDER	24/07/2006
24930465	SORDER	02/10/2003
12689596	SORDER	22/04/2009
1303002	SORDER	13/02/2007
1063901	SORDER	29/01/2003
8787412	SORDER	23/11/2009
8655155	SORDER	13/05/2010
609389	SORDER	27/10/2009
6178655	SORDER	18/10/2004
1433232	SORDER	02/06/2009
6937269	SORDER	30/01/2008
9319288	SORDER	10/09/2004
25059498	SORDER	02/12/2008
17216322	SORDER	14/01/2009
1607075	SORDER	17/09/2010
20564727	SORDER	16/08/2006
3117156	SORDER	26/01/2011
21370517	SORDER	12/09/2007
24930409	SORDER	05/10/2006
731479	SORDER	28/10/2004
7160936	SORDER	27/01/2010
12789665	SORDER	11/07/2008
6745916	SORDER	12/12/2003
8699018	SORDER	21/12/2007
3939234	SORDER	26/01/2007
9210548	SORDER	27/12/2007
16530712	SORDER	11/05/2009
703443	SORDER	27/04/2010
10604502	SORDER	14/05/2010
6887561	SORDER	04/02/2008
7246149	SORDER	10/05/2007
1939431	SORDER	12/03/2009
7406503	SORDER	01/03/2011
1515149	SORDER	19/03/2007
21371389	SORDER	25/03/2008
16927097	SORDER	29/10/1957
12857039	SORDER	01/03/2004
1938824	SORDER	29/12/2006
8581195	SORDER	03/07/2007
11661262	SORDER	14/01/2002
9378605	SORDER	24/05/2007
15900881	SORDER	25/06/2004
16927754	SORDER	03/03/2006
10604015	SORDER	27/10/2009
15901339	SORDER	26/02/2009
25051272	SORDER	06/02/2008
947196	SORDER	06/06/2008
8556635	SORDER	14/03/2008
8784083	SORDER	20/04/2001
12173020	SORDER	15/01/2010
6184310	SORDER	02/12/2008
209933	SORDER	06/10/2010
5813363	SORDER	12/03/2004
5035790	SORDER	12/11/2007
1942264	SORDER	20/05/2003
9311451	SORDER	11/04/2006
734194	SORDER	05/03/2010
17170248	SORDER	11/04/2008
19153820	SORDER	18/07/2007
3292475	SORDER	01/04/2011
18163097	SORDER	08/01/2010
16554513	SORDER	28/07/2010
9383142	SORDER	20/01/2006
25041845	SORDER	02/03/2007
6622144	SORDER	12/02/2003
16484170	SORDER	14/09/2010
8783486	SORDER	26/05/2006
21153008	SORDER	10/02/2010
1944301	SORDER	15/01/2010
1433271	SORDER	19/05/2003
753709	SORDER	12/04/2005
9304423	SORDER	02/03/2007
12478868	SORDER	27/06/2008
12783015	SORDER	01/03/2006
8655586	SORDER	05/01/2009
3332798	SORDER	18/05/2007
8979392	SORDER	17/01/2007
24715534	SORDER	11/10/2007
1068868	SORDER	04/02/2003
942576	SORDER	11/09/2001
4805	SORDER	06/06/2007
12737779	SORDER	10/09/2008
16100399	SORDER	02/06/2010
20414136	SORDER	03/01/2002
16979253	SORDER	06/02/2008
3122616	SORDER	25/06/2009
9284806	SORDER	18/04/2007
12788802	SORDER	03/02/2010
7160942	SORDER	10/12/2010
9302747	SORDER	22/05/2009
6177775	SORDER	03/06/2005
6280848	SORDER	23/08/2007
10265958	SORDER	16/01/2006
9372568	SORDER	29/09/2008
9311223	SORDER	24/07/2007
3301140	SORDER	26/01/1972
3122199	SORDER	24/10/2006
731670	SORDER	29/05/2008
611534	SORDER	22/01/2007
945163	SORDER	26/10/2010
1517273	SORDER	24/03/2003
12790687	SORDER	03/12/2010
8784100	SORDER	28/03/2011
5024803	SORDER	20/03/1994
1068743	SORDER	01/02/2002
24714483	SORDER	07/07/2009
12790404	SORDER	30/01/2006
3303038	SORDER	14/11/2005
24765014	SORDER	28/10/2004
1418232	SORDER	22/12/2004
7781621	SORDER	18/11/1999
15899941	SORDER	07/05/2009
21806208	SORDER	17/03/2009
1067775	SORDER	04/03/2004
23472124	SORDER	04/05/2009
23442845	SORDER	02/06/2004
18086424	SORDER	04/10/2005
24721032	SORDER	01/01/2000
21644622	SORDER	10/09/2009
1206919	SORDER	19/09/2006
6424891	SORDER	22/06/2004
7849301	SORDER	08/01/2004
641170	SORDER	13/06/2006
13578215	SORDER	27/10/2009
1474251	SORDER	02/12/2005
1350698	SORDER	11/01/2005
1666099	SORDER	13/04/2007
6599595	SORDER	01/03/2002
7957371	SORDER	18/10/2006
13388507	SORDER	01/01/1961
26145000	SORDER	30/05/2005
18056114	SORDER	19/09/2003
641127	SORDER	27/11/2002
1669821	SORDER	14/12/2010
1419222	SORDER	29/11/2004
18365564	SORDER	24/03/2010
25960621	SORDER	23/11/2000
7971655	SORDER	24/01/2006
1425158	SORDER	16/09/2008
1171151	SORDER	08/11/2006
6599628	SORDER	06/07/2010
1444433	SORDER	24/04/2008
8068502	SORDER	07/10/2004
7777189	SORDER	21/07/2009
674348	SORDER	24/05/2005
4700332	SORDER	08/01/2007
24719453	SORDER	04/10/2005
24944378	SORDER	05/04/2004
7801846	SORDER	07/12/2006
1264701	SORDER	24/10/2005
1200287	SORDER	28/07/2005
6212219	SORDER	16/06/2003
1205153	SORDER	15/04/2009
1350325	SORDER	28/05/2010
5076581	SORDER	22/08/2008
1351403	SORDER	30/04/2003
7771581	SORDER	01/12/2000
1848778	SORDER	29/04/2009
7963931	SORDER	21/01/2005
18038978	SORDER	14/07/2004
1276395	SORDER	11/08/1951
12189908	SORDER	18/09/2000
9566644	SORDER	09/01/2006
1205817	SORDER	13/09/2005
514774	SORDER	17/10/2008
12615430	SORDER	06/03/2008
1852312	SORDER	01/01/1987
1170363	SORDER	29/11/2005
6595841	SORDER	09/06/2006
24941069	SORDER	26/10/2004
1201480	SORDER	12/05/2004
1200082	SORDER	17/03/1960
7970955	SORDER	28/08/2007
6599178	SORDER	30/04/2007
1276765	SORDER	28/02/2006
1416316	SORDER	03/08/2000
1200721	SORDER	28/05/2002
13984759	SORDER	19/06/2006
8955553	SORDER	19/09/2005
13984960	SORDER	21/07/2008
1350610	SORDER	20/11/2003
2934862	SORDER	29/05/2008
1205262	SORDER	22/09/2005
7659795	SORDER	24/04/2009
7968503	SORDER	13/09/2006
6595079	SORDER	04/08/2009
1261455	SORDER	27/08/2006
1208200	SORDER	17/05/2007
7770097	SORDER	15/03/2010
7967255	SORDER	25/01/2006
6599648	SORDER	15/04/2011
539234	SORDER	01/10/2003
1203312	SORDER	22/01/2007
525724	SORDER	03/05/2005
1174514	SORDER	21/02/2011
6598467	SORDER	09/07/2001
1669715	SORDER	31/08/2007
1352915	SORDER	20/11/2000
26139483	SORDER	20/05/2009
1200505	SORDER	07/01/2005
1547134	SORDER	24/11/2008
1211123	SORDER	24/01/2003
638786	SORDER	01/01/2011
7971482	SORDER	22/10/2007
6424908	SORDER	29/03/2011
13985993	SORDER	30/01/2006
1214146	SORDER	30/10/2009
6592449	SORDER	10/12/2003
1356172	SORDER	20/09/2010
6597013	SORDER	02/11/2007
4363537	SORDER	01/08/2007
7848502	SORDER	01/03/2005
7964309	SORDER	24/03/2006
539256	SORDER	19/03/2008
6841316	SORDER	01/02/2007
15738137	SORDER	05/08/2009
26139303	SORDER	17/08/2009
9815985	SORDER	23/10/2009
6842461	SORDER	21/04/2005
1443666	SORDER	29/05/2007
1665032	SORDER	19/05/2009
647207	SORDER	11/12/2002
1207086	SORDER	21/04/2006
1208366	SORDER	08/03/1943
1210171	SORDER	15/12/2008
639251	SORDER	11/02/2011
26145711	SORDER	11/05/2009
1202819	SORDER	15/03/2006
1172012	SORDER	04/06/2003
438613	SORDER	24/04/1989
1055143	SORDER	31/05/2006
1202351	SORDER	07/04/2003
6841764	SORDER	22/01/2007
1852461	SORDER	14/10/2002
6423823	SORDER	08/02/2010
1277189	SORDER	28/09/2007
6333747	SORDER	02/01/2009
652526	SORDER	27/01/2006
22270819	SORDER	15/01/2009
1850567	SORDER	14/07/2009
539779	SORDER	31/03/2003
8061893	SORDER	05/05/2004
6375893	SORDER	27/05/2011
6597391	SORDER	23/09/2003
1206589	SORDER	15/04/1964
1206524	SORDER	24/11/2003
7770079	SORDER	10/05/2005
6555460	SORDER	22/10/2010
7964660	SORDER	22/04/2005
6595121	SORDER	23/05/2002
1054690	SORDER	09/11/2004
1353316	SORDER	13/06/2003
7850197	SORDER	25/02/2009
1415968	SORDER	16/02/2006
7801913	SORDER	01/07/2003
1171735	SORDER	30/08/2004
639819	SORDER	20/12/2007
7849517	SORDER	01/08/2008
6423585	SORDER	28/12/2009
7777625	SORDER	16/07/2009
7800396	SORDER	11/10/2010
1353317	SORDER	02/08/2002
1091283	SORDER	03/12/2009
1849702	SORDER	24/01/1993
6424945	SORDER	16/04/2007
525618	SORDER	09/06/2004
19958838	SORDER	24/02/2010
640471	SORDER	05/07/2004
7846528	SORDER	03/02/2010
6423611	SORDER	31/08/2009
1417872	SORDER	28/11/2007
6599608	SORDER	20/12/2006
648547	SORDER	12/03/2005
6594333	SORDER	29/01/2007
651744	SORDER	18/12/2006
6595126	SORDER	16/07/2001
6602094	SORDER	09/01/2006
1545327	SORDER	20/12/2001
1261139	SORDER	25/09/2006
12189048	SORDER	01/06/2005
515412	SORDER	31/08/2004
1419033	SORDER	09/09/2008
12709263	SORDER	04/12/2006
7972491	SORDER	04/10/2007
1349840	SORDER	27/07/2007
640253	SORDER	26/07/2004
1191254	SORDER	11/05/2007
6603214	SORDER	19/10/2005
25861674	SORDER	25/03/2008
1133473	SORDER	03/06/2009
1639158	SORDER	18/09/2006
1100157	SORDER	16/08/2006
1106460	SORDER	24/06/2003
12575092	SORDER	23/06/2008
1131878	SORDER	04/03/2003
1110947	SORDER	29/04/2004
7850216	SORDER	29/02/2008
651862	SORDER	18/11/2003
6591446	SORDER	08/05/2006
1856200	SORDER	14/02/2007
1638708	SORDER	02/10/2007
1101869	SORDER	01/01/1980
25894562	SORDER	12/07/2004
1102247	SORDER	20/10/2006
135798	SORDER	04/12/2000
25919168	SORDER	26/01/2011
195582	SORDER	24/04/2008
1638565	SORDER	02/04/2004
6899947	SORDER	16/04/2010
12640327	SORDER	05/10/2009
995675	SORDER	11/08/2003
1108078	SORDER	21/05/2004
1641072	SORDER	10/07/2009
994239	SORDER	10/11/2008
12636453	SORDER	29/07/2009
486875	SORDER	02/03/1936
25817849	SORDER	29/01/2009
996461	SORDER	06/09/2004
1110879	SORDER	14/09/2006
1638528	SORDER	03/04/2006
1552431	SORDER	21/12/2009
999093	SORDER	13/09/2005
25860190	SORDER	13/06/2005
717762	SORDER	25/09/2008
1101989	SORDER	02/07/2003
1855343	SORDER	06/05/2005
1131424	SORDER	23/03/2011
717464	SORDER	24/10/1997
1102000	SORDER	28/06/2001
1103285	SORDER	01/01/1980
486077	SORDER	26/09/2008
22844101	SORDER	25/10/2005
1066880	SORDER	08/04/2010
1134812	SORDER	14/04/2009
6951023	SORDER	06/03/2009
1132627	SORDER	06/04/2004
1130372	SORDER	20/08/2007
1135406	SORDER	16/02/2004
25776775	SORDER	12/01/2007
2112751	SORDER	30/03/2005
2059817	SORDER	13/04/2004
2070080	SORDER	11/07/2008
2138308	SORDER	20/04/2010
2072067	SORDER	28/02/2005
2144824	SORDER	13/01/2004
2112951	SORDER	30/03/2010
2072811	SORDER	03/01/2006
2059081	SORDER	09/03/2011
2214933	SORDER	01/01/2000
2218925	SORDER	12/04/2005
2218607	SORDER	25/04/2003
2133429	SORDER	27/08/2009
2072169	SORDER	17/02/2003
2042982	SORDER	20/02/2004
2068602	SORDER	07/05/2010
2144480	SORDER	11/04/2007
2071437	SORDER	04/03/2010
2217702	SORDER	06/05/2011
2048426	SORDER	17/12/2010
2133515	SORDER	16/04/2004
2059131	SORDER	21/03/2002
858856	SORDER	13/02/2008
904606	SORDER	26/06/2002
902982	SORDER	19/12/2005
1767215	SORDER	18/02/2008
2036391	SORDER	14/03/2011
2109655	SORDER	10/03/2003
2218788	SORDER	04/05/2010
2036978	SORDER	23/02/1927
2143483	SORDER	31/03/1966
2053752	SORDER	05/12/2003
859110	SORDER	16/04/2004
2038338	SORDER	13/11/2002
903553	SORDER	04/12/2006
904870	SORDER	25/03/2003
876284	SORDER	11/06/2004
904532	SORDER	31/07/2010
1764616	SORDER	11/04/2005
1765422	SORDER	24/03/2004
904619	SORDER	05/11/2007
1763515	SORDER	16/12/2009
2038256	SORDER	12/07/2004
3049475	SORDER	24/11/2003
4088224	SORDER	20/07/2005
2773726	SORDER	18/12/2006
3050342	SORDER	08/10/2009
2042889	SORDER	09/08/2001
904075	SORDER	26/02/2002
2777770	SORDER	16/03/2011
901284	SORDER	03/11/1999
1752749	SORDER	22/04/2010
904406	SORDER	14/10/2009
1765584	SORDER	29/02/2008
858702	SORDER	01/06/2005
1679643	SORDER	12/05/2009
1766657	SORDER	19/05/2005
875564	SORDER	31/10/2007
2038567	SORDER	24/02/2004
2766244	SORDER	01/01/2000
3054060	SORDER	14/11/2002
3054907	SORDER	21/03/2006
3048572	SORDER	24/03/2008
2761723	SORDER	22/05/2007
2812092	SORDER	01/01/1980
4548131	SORDER	27/10/2008
2757482	SORDER	23/11/2009
4088249	SORDER	21/04/2010
2777436	SORDER	25/05/2006
2774533	SORDER	10/02/2011
3049319	SORDER	07/05/2003
3049327	SORDER	30/01/2007
3048483	SORDER	22/03/2010
2774334	SORDER	26/03/2004
2776148	SORDER	03/05/2006
2773960	SORDER	27/01/2006
2764043	SORDER	24/01/2011
2755178	SORDER	03/06/2009
2524097	SORDER	27/07/2005
2574466	SORDER	25/01/2011
2753144	SORDER	16/03/2010
2407313	SORDER	29/05/2006
2520741	SORDER	01/01/2001
2574068	SORDER	27/03/2003
2520367	SORDER	25/10/2010
2378437	SORDER	14/10/2004
2522313	SORDER	01/04/2011
2756961	SORDER	19/08/2002
2357436	SORDER	27/09/2004
2521654	SORDER	16/03/2010
2408550	SORDER	05/10/2004
12733538	SORDER	27/05/2011
2526072	SORDER	27/02/2003
2713002	SORDER	02/02/2010
2525920	SORDER	21/04/2006
2522658	SORDER	19/04/2007
16835810	SORDER	13/03/2008
2574986	SORDER	03/02/2009
7462311	SORDER	06/07/2008
2526998	SORDER	28/01/2011
12215748	SORDER	11/12/2006
26461792	SORDER	25/06/2008
28040189	SORDER	17/09/2008
26462699	SORDER	30/12/2009
28047608	SORDER	28/03/1922
26525231	SORDER	10/05/2010
26423223	SORDER	03/07/2000
28049312	SORDER	05/05/2000
26461925	SORDER	09/09/2005
17746457	SORDER	14/03/2002
8116477	SORDER	20/09/2004
17324362	SORDER	21/08/2003
17747332	SORDER	20/04/2009
7137494	SORDER	29/07/2009
7111922	SORDER	21/08/2008
7136882	SORDER	04/04/2006
18222884	SORDER	28/12/2001
26222136	SORDER	17/12/2001
7137285	SORDER	24/11/2010
26260903	SORDER	25/05/2011
17744958	SORDER	10/01/2006
17323525	SORDER	30/04/2008
7142308	SORDER	10/03/2003
26243303	SORDER	06/10/1943
20147169	SORDER	03/10/2005
18223286	SORDER	12/01/1927
26338968	SORDER	05/08/2009
26425357	SORDER	12/01/2005
20147542	SORDER	29/04/2008
17742312	SORDER	12/04/2010
22005699	SORDER	18/06/2008
26462901	SORDER	02/12/2010
26410194	SORDER	05/08/1940
26385357	SORDER	22/09/2005
26383122	SORDER	06/03/2008
17218884	SORDER	26/09/2005
26199050	SORDER	24/04/2003
26207800	SORDER	23/05/2005
20147034	SORDER	16/04/2010
26384450	SORDER	16/10/1929
26182891	SORDER	25/11/2003
18472135	SORDER	27/05/2011
26350360	SORDER	11/08/2004
26349981	SORDER	09/08/2010
26244453	SORDER	31/03/2010
26244463	SORDER	14/07/2004
26285056	SORDER	03/06/2008
7693867	SORDER	07/11/2008
13243612	SORDER	15/01/2009
17040830	SORDER	09/06/2008
16979916	SORDER	28/01/2010
7137411	SORDER	13/09/2007
8117960	SORDER	25/10/1948
18026037	SORDER	31/03/2009
10490915	SORDER	25/09/2001
7228900	SORDER	21/02/2006
13085495	SORDER	10/12/2008
7136999	SORDER	01/10/2009
14347072	SORDER	07/10/2008
7228483	SORDER	10/02/2010
16836479	SORDER	14/06/2007
421437	SORDER	16/06/2004
185772	SORDER	13/12/2004
184115	SORDER	22/08/2007
1910382	SORDER	17/11/2008
300241	SORDER	21/01/2011
302093	SORDER	08/04/2010
436094	SORDER	11/03/2004
1902966	SORDER	29/08/2008
1910927	SORDER	26/01/2006
2964631	SORDER	17/08/2009
2959597	SORDER	07/11/2005
2965544	SORDER	25/04/2002
1913318	SORDER	28/03/2003
2989368	SORDER	03/03/2011
307239	SORDER	24/01/2003
4110200	SORDER	17/04/2007
2244430	SORDER	27/11/2007
302849	SORDER	13/02/2002
650187	SORDER	06/09/2005
305334	SORDER	20/04/2011
418435	SORDER	25/07/2001
464504	SORDER	05/10/2004
464508	SORDER	28/01/2002
2962363	SORDER	23/03/2010
2958887	SORDER	02/03/2009
4748390	SORDER	01/12/2006
306607	SORDER	12/03/2008
300775	SORDER	19/02/2010
180032	SORDER	25/05/2005
301569	SORDER	04/05/2007
4889299	SORDER	25/09/2006
426744	SORDER	01/10/2003
420644	SORDER	23/01/2004
2964457	SORDER	06/09/2001
464603	SORDER	29/01/2010
16835354	SORDER	11/05/2011
18223003	SORDER	26/04/2005
20515560	SORDER	11/10/2010
28087560	SORDER	21/01/2009
28083644	SORDER	12/05/2004
2753836	SORDER	02/05/2011
9495019	SORDER	21/04/2010
28090874	SORDER	07/06/2006
28091695	SORDER	16/06/2009
28091864	SORDER	08/10/2004
1754240	SORDER	19/07/2010
28055652	SORDER	24/07/2007
28077299	SORDER	15/04/2008
28080662	SORDER	31/05/2010
2755772	SORDER	20/02/2007
26437285	SORDER	01/03/2007
28082470	SORDER	30/04/2004
3049347	SORDER	28/04/2004
2778926	SORDER	02/01/1999
2763164	SORDER	25/03/2010
28049418	SORDER	01/01/2000
2108998	SORDER	04/09/2006
28092877	SORDER	24/04/2008
2755660	SORDER	20/12/2007
2765586	SORDER	24/02/2010
28087794	SORDER	08/02/1995
7137629	SORDER	18/11/2008
619579	SORDER	25/04/2007
424823	SORDER	15/02/1999
186094	SORDER	01/09/2009
419140	SORDER	28/08/2002
419216	SORDER	20/11/2009
17324548	SORDER	24/08/2005
184560	SORDER	23/04/2010
266554	SORDER	27/08/2007
271966	SORDER	11/06/2001
187189	SORDER	27/10/2004
184746	SORDER	14/02/2008
427511	SORDER	18/12/2000
305474	SORDER	28/04/2011
179817	SORDER	02/04/2002
26441817	SORDER	20/09/2007
28053711	SORDER	21/09/2005
28090730	SORDER	13/03/2003
423574	SORDER	01/08/1988
423586	SORDER	23/09/2009
427930	SORDER	11/11/1998
433324	SORDER	21/04/2009
424515	SORDER	24/01/2007
875765	SORDER	28/05/2003
874613	SORDER	22/08/2002
463961	SORDER	22/10/2009
28088132	SORDER	16/03/2005
28045934	SORDER	22/08/2006
28044312	SORDER	10/01/2005
28072352	SORDER	14/01/2005
28063631	SORDER	01/06/2006
28044232	SORDER	11/09/2008
28065571	SORDER	04/03/2004
28074969	SORDER	23/12/2005
26590655	SORDER	29/11/2004
28056641	SORDER	05/05/2010
28066246	SORDER	02/01/2001
25648817	SORDER	07/02/2007
24665274	SORDER	08/11/2001
25743561	SORDER	28/01/2011
25723788	SORDER	12/05/2003
24670887	SORDER	15/12/2004
24666868	SORDER	25/02/2008
24658515	SORDER	28/09/2005
24662063	SORDER	12/02/2002
24655998	SORDER	09/11/2009
24658550	SORDER	04/02/2003
25742981	SORDER	14/03/2011
25715917	SORDER	03/09/2005
24664553	SORDER	13/05/2004
24671457	SORDER	08/02/2011
25742512	SORDER	03/04/2006
24659548	SORDER	09/02/2009
24658487	SORDER	16/02/2010
25641180	SORDER	10/09/2003
25600261	SORDER	24/12/2003
24667017	SORDER	20/05/2002
25745431	SORDER	31/08/2007
25740545	SORDER	18/11/2009
25706995	SORDER	27/05/2006
24657011	SORDER	26/02/2007
25551952	SORDER	03/09/2010
1361265	SORDER	08/05/2007
465564	SORDER	21/11/2003
1361887	SORDER	09/02/2011
925896	SORDER	27/04/2011
178500	SORDER	26/03/2004
1361509	SORDER	25/01/2006
1370134	SORDER	15/06/1998
926013	SORDER	29/01/2008
927467	SORDER	15/03/2010
421963	SORDER	28/03/2007
421990	SORDER	14/10/2002
180311	SORDER	20/01/2003
1372352	SORDER	03/03/2006
1374923	SORDER	30/09/2009
1030200	SORDER	06/04/2010
1906965	SORDER	29/07/2009
1021447	SORDER	19/03/2003
1363788	SORDER	02/11/2000
1908278	SORDER	27/03/2008
1373976	SORDER	23/09/2005
1373981	SORDER	04/06/1926
1373997	SORDER	30/01/2002
40178	SORDER	18/01/2008
18201425	SORDER	22/10/2003
16566979	SORDER	04/02/2008
1372571	SORDER	29/04/1999
1372573	SORDER	11/02/2004
1372602	SORDER	09/11/2005
1371015	SORDER	25/05/1995
19800240	SORDER	25/06/2008
1359005	SORDER	14/04/2005
21553830	SORDER	08/04/2005
24659456	SORDER	19/02/2008
19423779	SORDER	23/07/2007
18199426	SORDER	26/01/2004
20070622	SORDER	10/09/2007
18188871	SORDER	28/11/2002
18194120	SORDER	12/02/2003
18187564	SORDER	16/11/2007
18193244	SORDER	14/06/2006
18186683	SORDER	28/07/2010
19424222	SORDER	27/08/2008
18197591	SORDER	10/09/2003
18199365	SORDER	14/05/2010
25740582	SORDER	02/12/2010
19801472	SORDER	19/09/2006
18195242	SORDER	19/07/2010
18197681	SORDER	30/03/2009
18193951	SORDER	04/01/2001
18195492	SORDER	18/04/2002
20077803	SORDER	28/09/2005
21063340	SORDER	22/12/2010
25742893	SORDER	19/07/2005
6045629	SORDER	23/08/2006
1371776	SORDER	20/01/2011
1903630	SORDER	15/10/1999
2957533	SORDER	26/09/1928
620398	SORDER	22/10/2008
2250994	SORDER	17/05/2010
2250411	SORDER	03/08/2001
2963681	SORDER	28/07/2010
1343014	SORDER	24/05/2006
1912671	SORDER	15/06/2009
1015859	SORDER	18/07/2008
2959230	SORDER	17/09/2001
1899549	SORDER	18/10/2010
2958103	SORDER	07/04/2009
2959039	SORDER	16/06/2007
2965700	SORDER	05/06/2008
2997982	SORDER	11/10/2007
1016009	SORDER	11/09/2009
2961485	SORDER	03/04/2006
6563463	SORDER	14/05/2010
1368352	SORDER	06/04/2005
1368382	SORDER	27/02/2007
1017468	SORDER	28/01/2003
2965735	SORDER	06/05/2008
1909157	SORDER	11/09/2001
26703633	SORDER	02/03/2010
26804444	SORDER	23/04/2008
26805929	SORDER	11/11/2008
26621205	SORDER	21/11/2005
26778699	SORDER	13/10/2005
26724144	SORDER	09/08/2010
26775659	SORDER	21/05/2009
26835603	SORDER	25/01/2006
26628519	SORDER	07/03/2006
26630499	SORDER	01/04/2009
26707647	SORDER	07/04/2006
26700714	SORDER	24/01/2011
26830552	SORDER	06/11/2006
26791625	SORDER	05/01/2011
26722085	SORDER	31/05/2004
26625877	SORDER	02/02/2010
26637124	SORDER	23/07/2002
26801033	SORDER	01/01/1990
26792067	SORDER	13/03/1994
26792577	SORDER	04/07/2007
26638407	SORDER	22/09/2006
26830450	SORDER	22/12/2005
26628351	SORDER	23/02/2006
26803235	SORDER	29/09/2005
26704047	SORDER	23/01/2009
26805217	SORDER	29/04/2011
26784359	SORDER	13/10/2009
26768844	SORDER	18/03/2011
21552715	SORDER	10/10/2006
17157171	SORDER	08/10/2009
12975487	SORDER	20/04/2009
11675108	SORDER	19/01/2008
2988700	SORDER	23/02/2009
22881967	SORDER	08/06/2005
9025811	SORDER	08/02/2011
11749296	SORDER	09/08/2007
15810669	SORDER	01/06/2004
14309823	SORDER	07/09/2008
16567775	SORDER	09/05/2003
17165387	SORDER	09/06/1949
16842238	SORDER	31/12/2009
2987010	SORDER	07/12/2010
24663343	SORDER	01/01/2000
16844334	SORDER	06/10/2005
12950966	SORDER	22/03/2001
12952223	SORDER	08/06/2009
16567909	SORDER	08/10/2009
12994885	SORDER	06/09/2007
17165199	SORDER	01/03/2005
12876840	SORDER	12/06/2008
26722558	SORDER	15/05/2009
26618280	SORDER	25/04/1977
26618323	SORDER	28/11/2006
26628009	SORDER	01/04/2009
17163138	SORDER	11/02/2009
26619662	SORDER	17/03/2011
16843475	SORDER	04/03/1953
26706433	SORDER	30/04/2007
26723222	SORDER	11/09/2008
26616636	SORDER	05/12/2006
24654918	SORDER	26/05/2003
24664289	SORDER	02/11/2005
24593662	SORDER	15/01/2007
24659705	SORDER	10/11/2003
22922995	SORDER	28/02/2011
21064263	SORDER	03/09/2010
24658809	SORDER	30/06/2008
25633833	SORDER	26/02/2009
24656355	SORDER	19/08/2008
22883329	SORDER	08/03/2010
22717795	SORDER	16/10/2009
21651484	SORDER	03/09/2008
24582056	SORDER	20/02/2006
24495200	SORDER	27/07/2006
24581156	SORDER	06/03/2008
24668141	SORDER	05/05/2005
26946205	SORDER	09/10/2008
27037437	SORDER	15/06/2010
26931533	SORDER	02/11/1927
26960002	SORDER	26/05/2009
26938768	SORDER	26/02/2008
26896291	SORDER	16/10/2008
26890259	SORDER	03/03/2008
26915351	SORDER	30/04/2009
26891000	SORDER	14/01/2011
26935041	SORDER	11/05/2007
26916727	SORDER	02/10/2009
26916742	SORDER	01/09/2009
26950866	SORDER	20/06/2006
26916065	SORDER	09/01/2003
26894834	SORDER	08/05/2006
26945353	SORDER	18/02/2004
26933338	SORDER	09/06/2004
26958880	SORDER	14/11/2007
26889893	SORDER	01/01/1990
26916210	SORDER	24/06/2005
26949743	SORDER	14/09/2006
26890470	SORDER	10/12/2010
26890479	SORDER	21/11/2007
26937963	SORDER	25/07/2007
26995117	SORDER	17/12/2010
26959827	SORDER	23/10/2007
26768406	SORDER	15/12/2008
26715712	SORDER	25/10/2006
26901736	SORDER	22/04/2009
26781731	SORDER	14/01/2011
26760881	SORDER	02/04/2009
26858061	SORDER	02/01/2007
26880919	SORDER	01/08/2007
26753075	SORDER	06/08/2008
26711854	SORDER	06/02/2004
26759249	SORDER	11/01/2005
26730108	SORDER	01/12/1973
26742445	SORDER	28/05/2007
26720218	SORDER	29/10/2004
26728296	SORDER	25/03/2008
26871724	SORDER	10/11/2004
26714825	SORDER	28/04/2006
26726334	SORDER	28/06/2006
26728966	SORDER	06/05/2003
26850810	SORDER	09/06/2004
26899205	SORDER	22/02/2007
26877181	SORDER	20/02/2004
26878871	SORDER	06/04/2006
26874108	SORDER	21/09/2001
26881014	SORDER	15/06/2010
26877295	SORDER	07/11/2005
26876626	SORDER	08/10/2010
26876830	SORDER	29/01/2010
26881042	SORDER	02/06/2009
26887815	SORDER	02/06/2009
26878446	SORDER	04/06/2010
26930721	SORDER	11/03/2005
26872535	SORDER	04/11/2002
26848429	SORDER	12/05/2009
26845956	SORDER	26/05/2008
26936159	SORDER	10/12/2008
26916444	SORDER	28/06/2001
26846652	SORDER	01/07/2010
26868482	SORDER	18/01/2011
26938380	SORDER	10/09/2009
26887072	SORDER	05/10/2009
26874201	SORDER	13/11/2003
26864788	SORDER	14/08/2006
26851788	SORDER	31/05/2006
26851812	SORDER	26/04/2005
26804701	SORDER	19/02/2010
26789438	SORDER	25/03/2009
26760377	SORDER	29/03/2007
26767978	SORDER	30/05/2005
26795906	SORDER	04/02/2009
26824290	SORDER	25/11/2010
26825273	SORDER	18/05/1998
26792943	SORDER	21/05/2007
26801423	SORDER	04/04/2006
26803088	SORDER	09/12/2005
26832788	SORDER	20/08/2007
26850367	SORDER	17/08/2010
26768866	SORDER	07/02/2007
26704060	SORDER	02/05/2008
26834590	SORDER	15/02/2006
26789304	SORDER	02/11/2010
26791959	SORDER	17/05/2006
26725843	SORDER	25/10/2007
26855111	SORDER	22/09/2010
26833689	SORDER	14/03/2007
26995682	SORDER	12/11/2004
27074189	SORDER	28/10/2008
27074190	SORDER	07/01/2008
26955265	SORDER	13/09/1999
26947651	SORDER	17/06/2005
26976941	SORDER	09/02/2010
26990015	SORDER	01/08/2007
26955462	SORDER	11/09/2009
26966068	SORDER	19/10/2007
26967347	SORDER	09/09/2002
26995398	SORDER	16/06/2009
26956173	SORDER	30/11/2004
26966264	SORDER	16/09/2008
26967891	SORDER	14/05/2008
26953366	SORDER	13/12/2010
26980893	SORDER	11/03/2004
26997528	SORDER	23/01/2006
27066870	SORDER	30/11/2009
27035927	SORDER	17/01/2003
26971626	SORDER	01/06/2006
26973183	SORDER	04/06/2008
26946040	SORDER	05/07/2010
26990547	SORDER	11/11/2010
26973602	SORDER	08/01/2009
27103295	SORDER	26/07/2010
27151528	SORDER	19/01/2007
27086485	SORDER	15/03/2005
27149610	SORDER	15/06/2005
27077499	SORDER	01/10/2004
27116904	SORDER	25/06/1976
27083800	SORDER	24/09/2007
27086102	SORDER	20/04/2011
27132865	SORDER	12/04/2007
27113171	SORDER	09/10/2006
27116989	SORDER	18/05/2010
27104539	SORDER	13/05/2008
27128741	SORDER	13/08/2007
27100788	SORDER	11/11/2005
27113644	SORDER	05/02/2007
27151349	SORDER	09/01/2001
27133523	SORDER	20/05/2003
27114640	SORDER	13/01/2004
27133554	SORDER	17/09/2003
27152955	SORDER	06/04/2005
27108993	SORDER	05/10/2007
27134245	SORDER	25/05/2011
27084312	SORDER	23/01/2006
27154503	SORDER	31/07/2008
27113698	SORDER	22/05/2007
27130228	SORDER	22/11/2005
27083227	SORDER	31/07/2006
27054520	SORDER	02/12/2004
27033167	SORDER	13/11/2003
27043665	SORDER	14/02/2008
27061141	SORDER	13/03/1946
27064483	SORDER	08/04/2010
27067204	SORDER	24/01/2006
27126993	SORDER	21/11/2001
27034569	SORDER	15/12/2006
27065338	SORDER	03/02/2005
27047429	SORDER	19/10/2009
27043694	SORDER	17/07/2000
27127065	SORDER	12/11/2002
27066049	SORDER	23/03/2009
27063432	SORDER	28/08/2006
27075029	SORDER	28/03/2011
27079797	SORDER	18/09/2009
27066583	SORDER	22/02/2010
27074537	SORDER	27/05/2009
27035099	SORDER	15/02/1954
27113047	SORDER	02/03/2006
27111690	SORDER	17/07/2008
27032533	SORDER	26/05/2009
27034376	SORDER	29/01/2009
27034398	SORDER	23/11/2010
27055530	SORDER	20/07/2010
27046535	SORDER	29/07/2003
27116319	SORDER	31/01/2003
27038308	SORDER	29/06/2007
27040881	SORDER	31/08/1953
26991420	SORDER	20/09/2007
26993888	SORDER	31/03/2005
27036441	SORDER	01/11/2001
27032133	SORDER	31/07/1945
27033748	SORDER	20/01/2003
27041065	SORDER	23/06/2005
26995047	SORDER	23/01/2009
27014498	SORDER	03/03/1999
27003201	SORDER	04/02/2009
27036626	SORDER	18/03/2011
27041316	SORDER	21/07/2010
27014607	SORDER	01/01/2001
27025920	SORDER	05/02/2007
27028745	SORDER	26/10/2006
27026108	SORDER	24/12/2006
27014753	SORDER	04/04/2006
27013186	SORDER	16/12/1998
27015154	SORDER	07/08/2009
27025820	SORDER	22/09/2008
27038386	SORDER	05/11/2004
27028367	SORDER	18/05/2007
27032118	SORDER	27/11/1928
27039849	SORDER	27/10/2006
27211585	SORDER	19/06/2007
27358740	SORDER	11/03/2005
27215101	SORDER	17/05/2010
27153865	SORDER	08/10/2005
27285367	SORDER	21/01/2005
27172241	SORDER	24/11/1995
27168777	SORDER	04/03/2009
27347868	SORDER	28/04/2006
27324629	SORDER	14/03/2007
27164095	SORDER	15/09/2004
27390322	SORDER	14/10/2004
27164137	SORDER	28/09/2006
27348600	SORDER	05/02/2007
27369270	SORDER	14/10/2008
27165895	SORDER	04/11/2010
27327945	SORDER	13/05/2010
27327490	SORDER	14/08/2009
27327948	SORDER	11/02/2003
27349067	SORDER	26/08/2009
27211300	SORDER	07/04/1934
27130080	SORDER	24/02/2004
27286033	SORDER	18/05/2011
27148073	SORDER	18/01/2005
27387977	SORDER	02/02/2010
27244662	SORDER	24/09/2004
27316566	SORDER	14/02/2006
27309287	SORDER	12/05/2009
27198906	SORDER	09/06/2004
27317155	SORDER	01/08/1923
27198744	SORDER	25/02/2009
27351845	SORDER	10/05/2005
27237978	SORDER	01/10/2010
27199578	SORDER	02/06/2005
27238000	SORDER	30/06/2005
27233568	SORDER	17/02/2009
27242681	SORDER	14/04/2004
27254189	SORDER	22/10/2008
27214043	SORDER	19/10/2005
27252743	SORDER	14/10/2002
27306463	SORDER	30/11/2009
27246882	SORDER	07/03/2011
27308692	SORDER	06/09/2002
27211899	SORDER	01/01/1980
27383808	SORDER	05/05/2001
27308294	SORDER	05/08/2002
27324405	SORDER	04/12/2008
27346014	SORDER	17/11/2009
27349983	SORDER	11/12/2002
27358040	SORDER	25/09/2007
27301971	SORDER	19/06/2008
27360872	SORDER	26/03/2007
27306518	SORDER	25/03/2008
27364311	SORDER	19/07/2007
27305367	SORDER	19/11/2010
27296141	SORDER	22/02/2011
27296182	SORDER	06/10/2010
27315986	SORDER	27/04/2007
27327858	SORDER	07/03/2007
27348103	SORDER	21/06/2007
27308798	SORDER	02/05/2003
27352654	SORDER	29/07/2005
26968902	SORDER	09/11/2009
27232800	SORDER	04/05/2005
27251819	SORDER	14/08/2008
27253371	SORDER	26/04/2005
26993674	SORDER	10/01/2006
26976299	SORDER	06/04/2011
26943084	SORDER	27/05/2011
27244390	SORDER	01/10/2003
26957779	SORDER	13/10/2006
27253481	SORDER	09/04/2010
27240072	SORDER	20/04/2007
27213814	SORDER	13/07/2009
26957279	SORDER	29/10/2007
27286718	SORDER	09/02/2009
26952329	SORDER	15/04/2003
27252810	SORDER	25/05/1937
26975890	SORDER	15/10/2009
27216063	SORDER	11/11/2005
27169743	SORDER	17/11/2010
27169775	SORDER	03/03/2011
27247445	SORDER	05/03/2009
26954926	SORDER	28/12/2004
26967685	SORDER	10/10/2008
26952287	SORDER	04/01/2006
27241952	SORDER	17/01/2011
27196869	SORDER	08/05/2007
27241971	SORDER	23/04/2009
27606689	SORDER	03/09/2010
27639945	SORDER	28/04/2006
27647922	SORDER	29/05/2007
27573021	SORDER	09/11/2007
27576845	SORDER	23/03/2010
27568161	SORDER	05/05/2005
27613638	SORDER	23/03/2006
27646878	SORDER	11/05/2010
27646512	SORDER	24/05/2006
27656239	SORDER	29/11/1936
27657894	SORDER	18/05/1994
27595843	SORDER	10/12/2007
27606372	SORDER	26/05/2011
27641838	SORDER	13/02/2009
27449058	SORDER	30/10/2009
27427506	SORDER	28/06/2010
27661768	SORDER	21/09/2010
27414554	SORDER	14/09/2009
27659651	SORDER	02/02/2005
27471234	SORDER	23/11/2004
27660521	SORDER	11/11/2002
27641299	SORDER	04/09/2008
27453703	SORDER	25/09/2006
27493393	SORDER	28/09/2006
27443971	SORDER	15/12/2010
27480685	SORDER	16/06/2008
27481473	SORDER	08/06/2006
27493714	SORDER	26/05/2010
27426393	SORDER	29/03/2007
27458483	SORDER	16/06/2009
27459000	SORDER	27/07/2007
27420339	SORDER	19/01/2005
27659873	SORDER	16/06/2006
27647658	SORDER	21/07/2010
27415090	SORDER	09/05/2011
27764531	SORDER	30/06/2003
27632876	SORDER	17/09/2010
27426977	SORDER	27/07/2007
27761452	SORDER	08/09/2010
27563640	SORDER	25/02/2010
27596385	SORDER	04/06/2004
27707969	SORDER	21/05/2009
27765512	SORDER	29/03/2004
27542102	SORDER	21/08/2006
27761731	SORDER	06/03/2008
27544065	SORDER	23/10/1922
27758848	SORDER	28/07/2004
27607215	SORDER	12/02/2010
27551401	SORDER	09/09/2010
27569358	SORDER	11/02/2011
27614661	SORDER	12/03/2007
27614612	SORDER	17/01/2008
27565194	SORDER	01/02/2010
27764087	SORDER	02/06/2003
27762131	SORDER	06/03/2002
27617784	SORDER	08/06/2005
27614461	SORDER	29/01/2010
27757330	SORDER	13/05/2005
27558827	SORDER	08/03/2007
27543865	SORDER	11/02/2011
27568394	SORDER	27/11/2009
27542965	SORDER	15/04/2009
27716033	SORDER	29/01/2007
27567514	SORDER	16/11/2009
27571153	SORDER	22/01/2008
27716087	SORDER	15/11/2006
27633264	SORDER	09/10/2009
27147571	SORDER	15/06/2004
27285246	SORDER	07/10/2005
27151908	SORDER	04/11/2005
27286838	SORDER	21/02/2008
27126578	SORDER	16/05/2011
27242158	SORDER	26/01/2011
27165352	SORDER	31/05/2011
27230589	SORDER	22/02/2005
27167394	SORDER	26/08/2009
27275082	SORDER	19/03/2003
27148314	SORDER	05/09/2007
27148992	SORDER	02/09/2004
27147888	SORDER	10/12/2002
27285444	SORDER	23/09/2004
27284550	SORDER	17/05/2004
27147928	SORDER	30/03/2009
27147326	SORDER	26/04/2010
27127605	SORDER	23/09/2008
27133070	SORDER	05/09/2005
27130014	SORDER	12/12/2008
27160272	SORDER	08/04/2003
27284226	SORDER	31/10/2005
27445969	SORDER	03/02/2009
27146606	SORDER	24/03/2003
27250342	SORDER	15/09/2008
27286544	SORDER	01/01/1999
27232494	SORDER	09/05/2006
27287223	SORDER	05/02/2010
26637730	SORDER	23/01/2003
26900477	SORDER	04/05/2011
27451408	SORDER	18/03/2010
26720527	SORDER	06/10/2008
27783605	SORDER	26/01/2011
27131848	SORDER	19/08/2010
26997492	SORDER	28/12/2005
27303081	SORDER	24/08/2008
26970953	SORDER	02/10/2009
27321829	SORDER	06/03/2008
18187165	SORDER	18/05/2011
20070922	SORDER	15/11/2002
27126591	SORDER	19/07/2007
26959831	SORDER	08/02/2007
27219474	SORDER	28/09/2010
27244772	SORDER	24/02/2010
22882517	SORDER	28/08/2009
26948927	SORDER	02/01/1962
26846863	SORDER	10/07/2008
18199767	SORDER	21/08/1954
17423124	SORDER	17/11/2005
27475185	SORDER	09/10/2009
27772306	SORDER	27/01/2004
27534090	SORDER	21/12/1957
27718156	SORDER	08/07/2010
27454877	SORDER	09/11/2010
27533855	SORDER	01/01/2000
27683287	SORDER	25/04/2002
27673317	SORDER	23/01/2008
27540379	SORDER	20/09/2006
27533892	SORDER	10/11/2005
27665250	SORDER	22/05/2002
27458286	SORDER	22/01/2008
27682540	SORDER	12/01/2009
27679924	SORDER	06/08/2002
27454341	SORDER	24/02/2011
27535587	SORDER	31/03/2010
27535600	SORDER	07/01/2010
27669827	SORDER	05/05/2009
27678271	SORDER	01/06/2010
27454845	SORDER	13/04/2007
27309498	SORDER	25/11/2003
27782453	SORDER	30/09/2003
27679944	SORDER	27/05/2009
27779766	SORDER	29/04/2008
27674475	SORDER	10/04/2006
27478598	SORDER	27/11/2009
27675037	SORDER	06/06/2003
27669909	SORDER	25/10/2005
27780521	SORDER	12/05/2003
27784418	SORDER	25/10/2002
27515560	SORDER	01/06/2006
27682597	SORDER	31/07/2006
27772297	SORDER	19/10/2004
27514984	SORDER	18/04/2005
24581729	SORDER	27/06/2005
27687190	SORDER	03/03/2009
27766470	SORDER	05/03/2010
27680041	SORDER	12/06/2002
18195688	SORDER	13/02/2008
27644870	SORDER	02/02/2006
27777283	SORDER	11/03/2011
27670984	SORDER	06/11/2008
27543143	SORDER	30/11/2005
1343895	SORDER	06/10/2005
27785751	SORDER	16/05/2011
26952463	SORDER	31/03/2008
26972390	SORDER	03/08/2009
27684001	SORDER	22/08/2006
27767036	SORDER	18/11/2004
27775176	SORDER	10/10/2006
27024856	SORDER	01/02/2011
27694648	SORDER	01/01/1986
27682306	SORDER	28/03/1996
27307886	SORDER	06/03/2009
27539930	SORDER	09/10/2003
27646450	SORDER	21/02/2011
27648580	SORDER	27/03/2003
27621975	SORDER	20/01/2011
27648225	SORDER	13/03/2009
27515481	SORDER	19/08/2008
27480242	SORDER	10/09/2004
27644736	SORDER	23/12/2009
27449105	SORDER	21/06/2000
27531023	SORDER	23/03/2010
27614281	SORDER	17/05/2005
27540244	SORDER	18/11/2004
27515695	SORDER	26/04/2004
27617503	SORDER	04/03/2011
27602647	SORDER	13/12/1939
27450119	SORDER	14/11/2009
27530445	SORDER	28/09/2009
27648753	SORDER	07/12/2004
27317472	SORDER	19/07/2006
27589530	SORDER	28/10/2004
27453474	SORDER	06/04/2005
26946481	SORDER	16/03/2011
26777286	SORDER	26/08/2008
27657567	SORDER	14/01/2003
27657600	SORDER	19/05/2005
27160154	SORDER	18/06/2007
26948254	SORDER	14/03/2003
27043127	SORDER	29/05/2007
27454186	SORDER	26/07/2006
27764992	SORDER	13/05/2004
27540391	SORDER	28/02/2011
26946173	SORDER	09/06/2008
25742764	SORDER	14/01/2005
26955076	SORDER	18/03/2005
27248290	SORDER	16/08/2007
27308435	SORDER	13/05/1983
27000730	SORDER	01/09/2010
27576086	SORDER	18/09/2008
27359351	SORDER	28/08/2009
27758279	SORDER	08/03/2010
27563581	SORDER	28/11/2001
16567572	SORDER	14/05/2010
27319324	SORDER	16/02/2010
26959747	SORDER	23/09/2004
27809277	SORDER	22/05/2006
27765029	SORDER	28/11/1927
27806604	SORDER	21/04/2006
27793739	SORDER	30/06/2010
27799728	SORDER	04/07/2008
27663903	SORDER	15/03/2006
27806448	SORDER	22/12/2004
27695073	SORDER	18/08/2006
27695081	SORDER	25/02/2011
27664631	SORDER	02/03/2006
27760199	SORDER	15/01/2003
26980969	SORDER	05/05/2006
27758964	SORDER	11/06/2008
27684439	SORDER	24/06/2002
27716744	SORDER	29/10/2009
27766338	SORDER	26/01/2007
27761994	SORDER	26/07/2010
27797674	SORDER	31/01/2005
27670335	SORDER	15/02/2002
2250493	SORDER	12/02/2009
27676342	SORDER	01/05/2002
27693818	SORDER	07/03/2006
27765164	SORDER	16/05/2008
27285750	SORDER	26/05/2004
27718995	SORDER	04/05/2007
27763606	SORDER	09/09/2008
27794365	SORDER	22/07/2009
27758584	SORDER	16/03/2010
27795914	SORDER	08/09/2005
27785106	SORDER	14/11/2003
27666876	SORDER	27/09/2001
27686096	SORDER	28/07/2005
27667214	SORDER	27/07/2001
40446	SORDER	25/10/2004
1368878	SORDER	15/11/2010
27551678	SORDER	23/04/2008
27025860	SORDER	25/11/2008
27520212	SORDER	09/10/2009
27444655	SORDER	08/07/2008
27451801	SORDER	21/02/2009
27492432	SORDER	24/03/2010
27471521	SORDER	01/01/2003
27591732	SORDER	29/01/2007
27563021	SORDER	20/12/2010
27768286	SORDER	18/08/2009
27533909	SORDER	27/07/2009
27764778	SORDER	28/01/2008
27397875	SORDER	25/11/2005
27668760	SORDER	16/02/2004
27774207	SORDER	27/09/2006
27783755	SORDER	21/06/2007
27775802	SORDER	26/04/2011
24667086	SORDER	15/10/2004
27680801	SORDER	08/12/2009
26760853	SORDER	23/02/2010
2957951	SORDER	17/03/1962
13497915	SORDER	03/02/2005
27664782	SORDER	24/01/2002
27718898	SORDER	06/07/2006
27005510	SORDER	22/05/2008
27383602	SORDER	09/03/2005
27574497	SORDER	07/10/2002
27796173	SORDER	19/01/2009
26953555	SORDER	14/06/2007
27795958	SORDER	01/10/2010
27767563	SORDER	30/04/2008
27168190	SORDER	29/09/2004
27807963	SORDER	22/12/2005
27806522	SORDER	08/02/2006
27027072	SORDER	15/02/2007
26873786	SORDER	23/08/2005
27670466	SORDER	15/04/1963
33028364	SORDER	20/04/2007
33049981	SORDER	18/06/2009
33057954	SORDER	07/09/2007
33023244	SORDER	02/10/2008
33020018	SORDER	07/05/2009
33081749	SORDER	15/05/2006
33035460	SORDER	21/02/2006
33085564	SORDER	18/11/2002
33061630	SORDER	09/07/2010
33003168	SORDER	25/09/2003
33106189	SORDER	21/08/2008
33018416	SORDER	05/10/2004
33131186	SORDER	01/12/2010
33092896	SORDER	22/09/2003
33019807	SORDER	21/03/2000
33088355	SORDER	18/09/2008
33093595	SORDER	25/09/2009
33116068	SORDER	18/09/2009
33041335	SORDER	07/11/2000
33079717	SORDER	01/03/2006
33093896	SORDER	05/10/2005
33070783	SORDER	06/03/2008
33008912	SORDER	18/03/1924
33025640	SORDER	09/09/2002
33025822	SORDER	22/10/2008
33081368	SORDER	26/03/2001
33096317	SORDER	23/01/2009
33049687	SORDER	11/01/2006
33106608	SORDER	30/01/2008
33113036	SORDER	09/07/2003
33035975	SORDER	20/06/2006
33111359	SORDER	24/09/2010
33081884	SORDER	17/04/2008
33059857	SORDER	11/04/2002
33046386	SORDER	26/04/2006
33089670	SORDER	25/09/2008
33104741	SORDER	05/09/2007
33015969	SORDER	01/10/2007
33064888	SORDER	04/01/2006
33107937	SORDER	02/04/2004
33020581	SORDER	04/10/2006
33084051	SORDER	06/07/2006
33020304	SORDER	29/03/2006
33032013	SORDER	23/08/2007
33101284	SORDER	23/07/2003
33111158	SORDER	13/12/2006
33015558	SORDER	13/04/2011
33036463	SORDER	20/03/2007
33096415	SORDER	11/07/2008
33005008	SORDER	16/07/2009
33097035	SORDER	27/02/2008
33045248	SORDER	20/09/2001
33052309	SORDER	17/05/2010
33054849	SORDER	03/02/2009
27807020	SORDER	23/02/2009
27811936	SORDER	27/09/2005
27661862	SORDER	17/11/2006
27807079	SORDER	14/01/2004
27796872	SORDER	11/10/1930
2967103	SORDER	09/05/1994
27798354	SORDER	04/09/2007
27806731	SORDER	03/04/2008
6636104	SORDER	29/10/2004
24664671	SORDER	03/10/2006
428067	SORDER	07/05/2007
27116853	SORDER	11/03/1944
1361620	SORDER	22/07/2010
27112593	SORDER	14/05/1933
27115918	SORDER	29/05/2007
26624685	SORDER	24/07/2006
183728	SORDER	29/03/2007
2997907	SORDER	11/05/2010
24665895	SORDER	08/05/2008
16566948	SORDER	10/11/2009
26638174	SORDER	21/04/2005
418464	SORDER	15/11/2002
27812539	SORDER	15/01/2008
27086613	SORDER	13/10/2006
16166466	SORDER	16/06/2008
23362899	SORDER	01/04/1973
33063190	SORDER	18/09/2008
33219101	SORDER	29/08/2000
33299348	SORDER	07/04/2009
28013065	SORDER	28/07/2010
16178210	SORDER	19/11/2010
16181771	SORDER	23/11/2007
18771300	SORDER	16/11/2004
16646449	SORDER	15/03/2011
16602390	SORDER	26/05/2005
16626027	SORDER	14/12/2005
24465483	SORDER	19/03/2008
16135633	SORDER	04/02/2010
33112165	SORDER	12/01/2005
23305226	SORDER	07/05/2010
33105641	SORDER	18/02/2004
33020434	SORDER	07/04/1996
33116869	SORDER	07/08/2006
33020265	SORDER	19/07/2004
33110135	SORDER	04/01/2006
33025825	SORDER	16/05/2011
33053569	SORDER	30/01/2007
33130528	SORDER	20/05/2011
33071619	SORDER	09/04/1999
33088193	SORDER	07/02/2011
33100304	SORDER	01/10/2007
33000877	SORDER	28/06/2004
33106625	SORDER	28/03/2011
33006775	SORDER	21/01/2002
33000408	SORDER	09/09/2009
33019718	SORDER	12/03/2007
33086301	SORDER	26/12/2006
33054822	SORDER	30/04/2007
33027037	SORDER	09/12/2000
33007224	SORDER	16/04/2008
33120429	SORDER	17/07/2009
33067381	SORDER	21/01/2010
33000591	SORDER	26/05/2003
33050169	SORDER	14/10/2004
33043124	SORDER	28/09/2006
33053146	SORDER	13/07/2009
33048842	SORDER	10/02/2009
33086602	SORDER	03/05/2006
33089947	SORDER	15/10/2004
33113513	SORDER	07/01/2002
33081131	SORDER	05/09/2006
33096009	SORDER	04/01/1999
33070678	SORDER	28/10/2005
33093006	SORDER	12/03/2004
33106195	SORDER	18/10/2000
33011514	SORDER	04/02/2010
33067910	SORDER	29/09/2004
33079144	SORDER	29/01/2009
33112092	SORDER	19/01/2006
33003742	SORDER	28/08/2008
33057009	SORDER	12/03/2010
33029780	SORDER	31/07/2009
33039051	SORDER	18/01/2010
33053587	SORDER	20/06/2005
33041601	SORDER	22/10/2004
33012988	SORDER	01/10/2008
33034248	SORDER	09/02/2011
33201120	SORDER	03/02/2004
23342675	SORDER	27/03/2009
33304646	SORDER	20/07/2005
16684319	SORDER	19/01/2009
23408715	SORDER	24/10/2005
16711947	SORDER	22/11/2004
33308174	SORDER	19/07/2010
16136273	SORDER	27/05/2003
23407899	SORDER	19/06/2007
27841942	SORDER	03/03/2008
16705468	SORDER	07/12/2004
16712962	SORDER	27/10/2010
27915884	SORDER	22/05/2003
20983642	SORDER	01/07/2004
16712484	SORDER	16/01/2005
16168715	SORDER	14/07/2008
33265198	SORDER	09/09/2010
16708223	SORDER	16/09/2003
20983485	SORDER	03/01/2011
23396448	SORDER	22/07/2005
16138857	SORDER	15/04/2004
33239879	SORDER	19/03/2007
33207607	SORDER	24/06/2009
23328953	SORDER	25/02/2005
16181636	SORDER	02/11/2001
14188303	SORDER	26/01/2011
33238335	SORDER	27/03/2007
16596009	SORDER	12/03/2007
18769506	SORDER	12/04/2005
33224931	SORDER	04/12/2007
27846479	SORDER	06/11/2006
14187073	SORDER	11/10/2010
33308590	SORDER	15/04/2009
21113911	SORDER	01/01/1933
16680141	SORDER	03/04/2007
16655009	SORDER	07/09/2007
21001195	SORDER	06/08/2003
16601498	SORDER	10/02/2009
33228189	SORDER	03/02/1974
23408488	SORDER	22/08/2007
33208741	SORDER	03/02/2011
16596125	SORDER	20/07/1941
27910248	SORDER	26/05/2004
28018665	SORDER	23/05/2011
28033454	SORDER	28/05/2003
20965244	SORDER	16/11/2009
28029025	SORDER	14/09/2009
27848350	SORDER	13/02/2006
23319901	SORDER	04/01/2010
16652659	SORDER	10/11/1982
16596196	SORDER	21/04/2009
33307357	SORDER	24/08/2010
16680316	SORDER	01/10/2010
23381402	SORDER	03/11/2008
16630616	SORDER	05/02/2008
16634952	SORDER	03/04/1931
33235478	SORDER	03/04/2008
16773855	SORDER	25/01/2007
33307268	SORDER	17/07/1943
23293211	SORDER	13/08/2007
27848097	SORDER	30/06/2000
27849109	SORDER	17/05/2004
33207689	SORDER	20/04/2011
16600525	SORDER	20/08/2008
16610132	SORDER	28/09/2010
27847497	SORDER	15/05/2001
28017141	SORDER	24/02/2009
16619366	SORDER	16/12/2010
16705277	SORDER	12/11/2010
18769407	SORDER	13/05/2002
16631316	SORDER	16/04/2010
23349579	SORDER	15/01/2007
23334037	SORDER	21/10/2005
16708594	SORDER	24/09/2004
33308519	SORDER	31/05/2011
16621458	SORDER	05/05/2011
23351320	SORDER	18/05/2004
16124521	SORDER	04/05/2009
16609666	SORDER	27/08/2007
27849394	SORDER	29/06/2004
23368715	SORDER	22/08/2007
16610043	SORDER	17/06/2005
23383661	SORDER	03/05/2011
16626226	SORDER	10/09/2009
16652686	SORDER	18/10/2007
33306037	SORDER	10/03/2005
16596274	SORDER	22/11/2001
16631934	SORDER	19/08/2003
23409176	SORDER	24/01/2011
33294335	SORDER	17/02/2003
23319611	SORDER	22/04/2010
33309872	SORDER	15/11/2006
16172349	SORDER	16/08/2000
23346872	SORDER	08/05/2006
16631801	SORDER	29/03/2006
16124869	SORDER	03/12/2007
23354037	SORDER	19/11/2010
23354742	SORDER	05/12/2005
16125107	SORDER	16/11/2009
28018073	SORDER	04/12/2008
16180694	SORDER	10/08/2010
16647301	SORDER	01/06/2007
33235413	SORDER	23/07/2010
28015053	SORDER	04/03/2009
16648250	SORDER	16/11/2006
18762074	SORDER	31/08/2009
27848664	SORDER	21/08/2003
23327123	SORDER	18/04/2011
23353946	SORDER	08/02/2011
27927780	SORDER	17/03/2009
23411792	SORDER	10/09/2003
16598513	SORDER	05/10/2010
16125137	SORDER	11/12/2006
23412776	SORDER	05/12/2007
28026109	SORDER	27/05/2011
33225982	SORDER	14/01/2011
33235211	SORDER	31/03/2008
18770540	SORDER	20/07/2004
33235625	SORDER	01/09/2009
23361932	SORDER	12/06/2007
16607575	SORDER	03/03/2010
21113130	SORDER	06/11/2007
16631655	SORDER	17/06/2008
16706310	SORDER	01/01/2008
28033520	SORDER	03/07/2009
28019289	SORDER	28/04/2009
16602618	SORDER	09/10/2009
24463058	SORDER	14/05/2003
32131386	SORDER	18/11/2008
32181933	SORDER	07/10/2003
31654280	SORDER	25/05/2011
32003019	SORDER	28/10/2010
31227250	SORDER	04/04/2008
31705550	SORDER	07/04/2009
31429184	SORDER	21/09/2005
31119324	SORDER	27/07/2006
23385894	SORDER	08/11/2005
16598677	SORDER	08/03/2011
23401327	SORDER	21/04/2004
16181768	SORDER	25/03/2009
16636710	SORDER	07/09/2006
33315149	SORDER	24/01/2011
23406038	SORDER	08/02/2005
23341083	SORDER	11/12/2006
23402638	SORDER	08/04/2008
16127130	SORDER	05/06/2006
23350021	SORDER	16/02/2010
16654918	SORDER	15/06/2006
16625422	SORDER	02/02/2009
21103023	SORDER	01/01/1946
16683312	SORDER	02/05/2006
18762967	SORDER	29/04/2004
16623344	SORDER	01/01/1999
30009849	SORDER	20/09/2010
21107879	SORDER	25/03/2008
18868960	SORDER	04/03/2004
16138495	SORDER	08/07/2003
21109687	SORDER	04/02/2010
33231415	SORDER	18/12/2008
16648484	SORDER	03/05/2006
33232567	SORDER	19/03/2001
33244556	SORDER	11/05/2010
20985559	SORDER	22/02/2007
20985996	SORDER	26/03/2009
16124541	SORDER	14/06/2007
16124817	SORDER	24/08/2000
23353743	SORDER	25/05/2004
33234644	SORDER	29/02/2008
16615226	SORDER	16/12/2010
20991046	SORDER	20/02/2009
21108093	SORDER	13/07/2010
16712077	SORDER	03/08/2007
16187426	SORDER	29/10/2004
16127046	SORDER	12/06/2006
16598025	SORDER	07/09/2009
16181041	SORDER	18/07/1947
33246911	SORDER	12/10/1977
21102422	SORDER	03/12/2003
16637211	SORDER	09/08/2005
16613739	SORDER	01/10/2009
32080561	SORDER	16/01/1963
31794946	SORDER	24/03/2009
31590499	SORDER	11/07/2005
31767304	SORDER	02/03/2010
32240697	SORDER	03/05/2007
32118212	SORDER	23/02/2005
31178102	SORDER	06/02/2006
32030015	SORDER	02/12/2008
32128014	SORDER	15/11/2001
31664512	SORDER	05/09/2006
31301888	SORDER	11/09/2009
31181325	SORDER	08/08/2007
31839575	SORDER	03/10/2006
31551569	SORDER	27/05/2011
31652602	SORDER	28/02/2010
31047161	SORDER	07/04/2011
32035438	SORDER	25/05/2000
32183304	SORDER	21/09/2005
31081494	SORDER	01/03/2010
31472385	SORDER	19/02/2007
31751528	SORDER	26/03/2009
32196437	SORDER	25/03/2009
31392573	SORDER	19/07/2006
31079772	SORDER	08/02/1987
32268129	SORDER	22/02/2008
31530945	SORDER	08/01/2009
31281157	SORDER	27/08/2010
32032989	SORDER	28/03/2008
32075888	SORDER	10/11/2009
31045693	SORDER	02/02/2007
31123402	SORDER	26/01/2009
31217091	SORDER	07/02/2007
31376054	SORDER	26/01/2010
31178740	SORDER	14/08/2007
31424970	SORDER	18/08/2006
31683226	SORDER	11/04/2008
31791183	SORDER	01/01/1999
31386591	SORDER	24/07/2009
32201045	SORDER	11/01/2008
32184157	SORDER	02/11/1999
31802366	SORDER	29/04/2004
31304300	SORDER	19/11/2008
31742073	SORDER	14/12/2005
31219084	SORDER	25/05/2009
31524449	SORDER	21/02/2008
31756111	SORDER	26/05/2006
32150921	SORDER	14/05/2004
31224867	SORDER	13/11/2006
31920995	SORDER	16/02/2006
31658952	SORDER	22/02/2008
31547137	SORDER	04/11/2004
31383807	SORDER	24/10/2006
31194005	SORDER	28/05/2009
31391321	SORDER	30/03/2010
31540098	SORDER	22/02/2011
31760303	SORDER	28/06/2005
31908448	SORDER	19/02/2010
32277407	SORDER	10/02/2010
31605965	SORDER	10/09/2009
31053095	SORDER	15/09/2005
32277713	SORDER	25/12/2006
31243230	SORDER	03/10/2008
32051911	SORDER	04/12/2002
31720754	SORDER	10/03/2005
31966573	SORDER	03/05/2004
31733187	SORDER	11/09/2009
31391915	SORDER	10/07/2007
31502399	SORDER	20/09/2005
31512526	SORDER	23/10/2009
31854978	SORDER	15/01/2008
31341912	SORDER	27/04/2010
31634372	SORDER	03/04/2006
31698148	SORDER	13/01/2006
31420742	SORDER	10/12/2009
32246611	SORDER	21/12/2009
32111756	SORDER	30/08/2001
31525679	SORDER	26/05/2003
31719362	SORDER	14/02/2011
32057338	SORDER	09/01/2007
32148747	SORDER	29/10/2007
31071465	SORDER	21/10/2010
31211155	SORDER	18/08/2010
31074296	SORDER	18/03/2002
31664596	SORDER	06/09/2010
31511644	SORDER	11/01/2007
32030521	SORDER	27/11/2010
31198033	SORDER	27/02/2007
31943324	SORDER	30/01/2008
31494703	SORDER	28/06/2003
31314921	SORDER	30/08/2010
31267881	SORDER	07/07/2009
32023018	SORDER	09/02/2007
31203868	SORDER	01/04/2004
31471313	SORDER	30/05/2005
31260370	SORDER	05/10/2005
31096797	SORDER	21/06/2004
31271455	SORDER	23/09/2010
31140630	SORDER	04/11/2008
31765083	SORDER	17/08/2010
32031617	SORDER	15/12/2009
31260334	SORDER	08/02/2007
31334072	SORDER	28/08/2009
31444295	SORDER	04/02/2005
31472076	SORDER	31/05/2004
32241182	SORDER	16/04/2010
31771133	SORDER	18/04/2008
31833062	SORDER	28/12/2004
32099105	SORDER	21/01/2009
32139931	SORDER	11/02/2009
31265732	SORDER	15/02/2011
32185300	SORDER	27/02/2006
32114112	SORDER	21/02/2006
31849582	SORDER	25/08/2008
32250774	SORDER	06/05/2008
31527690	SORDER	17/05/2002
31841569	SORDER	17/12/2007
31451599	SORDER	08/02/2003
31879546	SORDER	30/05/2006
31259910	SORDER	16/04/2003
31769821	SORDER	13/05/2009
31033667	SORDER	04/05/2011
31857916	SORDER	24/05/2007
31543142	SORDER	22/06/2010
31205373	SORDER	16/12/2002
31491295	SORDER	23/01/2007
31858594	SORDER	20/07/2006
31894356	SORDER	06/02/2004
31301004	SORDER	08/09/2009
31858954	SORDER	30/10/2009
31033353	SORDER	02/08/2007
32144155	SORDER	01/02/2010
31839581	SORDER	03/05/2011
31234749	SORDER	14/01/2005
31236375	SORDER	28/04/1928
31294958	SORDER	01/02/2010
32283309	SORDER	30/05/1954
32015344	SORDER	04/09/2009
32221854	SORDER	13/11/2006
31885376	SORDER	11/01/2007
31267641	SORDER	09/02/2009
31197084	SORDER	02/11/2006
31278219	SORDER	27/01/2005
31942319	SORDER	06/05/2011
31722801	SORDER	03/12/2010
32119827	SORDER	16/09/2003
31987098	SORDER	06/06/2009
32262744	SORDER	21/02/2007
31489624	SORDER	13/01/2006
31394293	SORDER	12/05/2010
31558121	SORDER	06/02/2007
31479689	SORDER	24/09/2001
31352468	SORDER	27/06/2002
31164192	SORDER	16/07/2010
31645014	SORDER	17/02/2010
31140897	SORDER	23/09/2005
32080947	SORDER	14/12/2010
31308678	SORDER	12/05/2010
31937978	SORDER	17/08/2009
31999224	SORDER	05/10/2006
31471110	SORDER	08/10/2007
31204769	SORDER	30/09/2009
32137823	SORDER	26/01/2010
31914183	SORDER	24/06/2003
31424423	SORDER	16/04/2008
31155896	SORDER	15/03/2006
31694445	SORDER	24/09/2010
31182927	SORDER	20/03/2009
31577686	SORDER	08/08/2003
31903832	SORDER	30/09/2005
31988348	SORDER	23/06/2008
31679755	SORDER	11/09/2009
32036937	SORDER	25/07/2006
32072934	SORDER	26/05/2010
32030395	SORDER	16/12/2005
31057853	SORDER	04/09/2009
31534125	SORDER	25/01/2011
31217153	SORDER	02/11/2009
32136402	SORDER	16/11/2007
32123385	SORDER	27/10/2010
31041646	SORDER	20/12/2010
32280643	SORDER	03/04/2007
31929756	SORDER	13/01/2003
32056435	SORDER	06/05/2005
31447101	SORDER	20/10/2010
31669630	SORDER	07/06/2000
31241477	SORDER	30/01/2004
31505016	SORDER	10/12/2007
32255310	SORDER	12/01/2010
31054817	SORDER	03/04/2006
31085353	SORDER	29/09/2005
31491434	SORDER	07/12/2007
31187422	SORDER	26/01/2005
31580241	SORDER	05/09/2006
31159827	SORDER	26/04/2010
32166456	SORDER	12/01/2010
31274972	SORDER	30/10/1998
31150657	SORDER	05/06/2002
31421685	SORDER	19/01/2005
31380333	SORDER	04/04/2005
31865716	SORDER	30/01/2006
31330070	SORDER	02/03/2010
31427792	SORDER	23/03/2009
31858634	SORDER	05/01/2011
32187040	SORDER	21/02/2005
31923736	SORDER	16/06/2010
31943181	SORDER	30/12/2009
31290105	SORDER	13/06/2005
31171842	SORDER	18/11/2010
31655813	SORDER	07/12/2005
31044730	SORDER	05/10/2006
32154292	SORDER	10/04/2006
31866867	SORDER	24/04/1947
31674817	SORDER	01/04/2005
31109819	SORDER	10/05/2005
31083810	SORDER	10/07/2008
32283839	SORDER	14/10/2009
32222307	SORDER	07/08/2002
31435940	SORDER	02/12/2003
31633458	SORDER	23/04/2008
31416932	SORDER	19/12/2003
31577829	SORDER	27/01/2011
32280758	SORDER	28/11/2002
32000982	SORDER	24/03/2011
31339893	SORDER	31/01/2006
32133208	SORDER	01/01/1990
31083744	SORDER	16/09/2008
32226856	SORDER	20/10/2009
31389119	SORDER	05/05/1999
31628964	SORDER	18/08/2008
31565489	SORDER	09/06/2010
31999844	SORDER	31/07/2009
31225273	SORDER	27/04/2010
31538821	SORDER	13/05/2011
31518942	SORDER	31/07/2009
31488544	SORDER	28/05/2007
31672960	SORDER	21/12/2007
31046912	SORDER	01/09/2006
31217229	SORDER	02/07/2007
31033442	SORDER	21/04/2004
31538568	SORDER	15/09/2004
31275966	SORDER	15/04/2003
31477864	SORDER	04/01/2009
31736075	SORDER	10/05/2011
32231333	SORDER	18/02/2008
32044425	SORDER	15/04/2002
31855923	SORDER	22/09/2006
31863748	SORDER	28/12/2005
32128998	SORDER	29/04/2008
31937062	SORDER	25/09/2007
31957892	SORDER	21/01/2010
32141500	SORDER	29/07/2008
32111233	SORDER	28/04/2005
31892951	SORDER	14/05/2004
31166710	SORDER	12/07/2007
32186902	SORDER	10/10/2008
31283433	SORDER	18/07/2007
32180519	SORDER	11/10/2006
32192909	SORDER	15/04/2004
31638278	SORDER	09/04/1994
31367199	SORDER	20/05/2011
31548897	SORDER	09/03/2006
31847227	SORDER	18/09/2008
32032935	SORDER	12/05/2006
32100197	SORDER	07/10/2003
31528243	SORDER	29/01/2003
31181412	SORDER	25/03/2004
32176414	SORDER	24/05/2006
32038064	SORDER	10/01/2005
32238733	SORDER	27/12/2009
31689810	SORDER	30/07/2007
32064736	SORDER	14/09/2009
32107232	SORDER	28/09/2004
32226413	SORDER	10/11/2005
31959560	SORDER	27/02/2009
31581886	SORDER	06/05/2011
31256661	SORDER	05/07/2006
32157877	SORDER	27/04/2006
31597401	SORDER	18/09/2003
32247153	SORDER	19/01/2007
31776909	SORDER	13/02/2001
31071475	SORDER	30/09/2009
31877486	SORDER	19/01/2009
31995891	SORDER	07/04/2009
31775471	SORDER	01/01/1980
32005669	SORDER	17/08/1949
31707939	SORDER	22/02/2011
31957088	SORDER	20/11/2002
32246352	SORDER	22/10/2009
31163185	SORDER	14/04/2008
31446321	SORDER	23/09/2008
31554738	SORDER	03/08/2006
31458988	SORDER	08/11/2007
31203748	SORDER	19/10/2006
31469914	SORDER	15/02/1988
31559193	SORDER	22/04/2009
31886657	SORDER	01/04/2009
31856966	SORDER	04/08/2005
31097143	SORDER	12/04/2011
32035559	SORDER	11/04/2011
31701050	SORDER	14/10/2005
31166872	SORDER	14/10/2005
31446789	SORDER	14/07/1943
31107119	SORDER	22/05/2007
31054626	SORDER	18/10/2004
31585946	SORDER	28/12/2007
31442204	SORDER	13/05/2009
31915105	SORDER	24/07/2007
31036364	SORDER	10/05/2011
31046930	SORDER	10/10/2010
31584781	SORDER	26/04/2011
31193496	SORDER	20/07/2004
31745772	SORDER	25/09/2009
31136895	SORDER	23/08/2004
31644954	SORDER	09/05/2007
31931296	SORDER	22/04/2004
32100813	SORDER	24/08/2004
31871197	SORDER	24/10/2006
32241350	SORDER	19/03/2007
32130459	SORDER	11/08/2008
32188596	SORDER	11/02/2005
31539967	SORDER	11/03/2004
31089828	SORDER	09/12/2010
31087709	SORDER	09/09/2008
32087808	SORDER	22/02/2010
32080498	SORDER	09/09/2004
31669838	SORDER	30/12/2009
31871938	SORDER	02/06/2005
31847576	SORDER	25/02/2011
31851612	SORDER	05/03/2010
32055695	SORDER	08/11/2006
31480290	SORDER	23/10/2003
31333762	SORDER	25/01/2005
31939535	SORDER	26/01/2011
31518181	SORDER	01/09/2003
32186650	SORDER	14/01/2011
31589830	SORDER	28/08/2006
31342812	SORDER	26/02/2007
31857606	SORDER	14/12/2008
32085915	SORDER	04/01/2010
31074151	SORDER	25/08/2009
31448652	SORDER	07/12/2009
31508328	SORDER	29/05/2006
31186578	SORDER	14/01/2008
31576384	SORDER	12/11/2009
32002259	SORDER	20/01/2005
32267009	SORDER	30/07/2004
31213457	SORDER	04/06/2002
31041614	SORDER	03/09/2007
31514428	SORDER	15/12/1999
32123123	SORDER	24/04/2001
31447055	SORDER	20/04/2009
31319783	SORDER	19/06/2000
31986530	SORDER	13/05/2005
31548817	SORDER	11/02/2008
31470909	SORDER	20/10/2003
32230659	SORDER	11/11/2009
31088675	SORDER	17/07/2009
31352374	SORDER	26/06/2009
31770635	SORDER	18/10/2004
32206045	SORDER	23/04/2004
31555789	SORDER	20/01/2010
32094502	SORDER	21/11/2008
32015095	SORDER	05/11/1996
31565001	SORDER	18/05/2009
32194037	SORDER	20/02/2007
31248907	SORDER	20/07/2005
31897930	SORDER	09/10/2007
31097038	SORDER	17/11/2009
31339883	SORDER	20/12/2005
31220339	SORDER	16/09/2008
31670310	SORDER	06/11/2009
31824870	SORDER	07/04/2008
31788012	SORDER	01/10/2003
31899957	SORDER	09/05/2008
31889191	SORDER	30/10/2009
31357989	SORDER	04/04/2006
31120658	SORDER	05/05/2008
31793183	SORDER	14/02/2008
32233545	SORDER	06/05/2005
31213211	SORDER	16/01/2006
31965808	SORDER	14/04/2009
31677354	SORDER	03/08/2007
32230729	SORDER	09/03/2007
31288965	SORDER	28/03/2008
31460267	SORDER	30/09/2010
31660701	SORDER	12/03/2007
31490416	SORDER	19/02/2009
31268040	SORDER	13/01/1994
32181336	SORDER	05/02/2008
31844771	SORDER	14/09/2010
31526446	SORDER	21/01/2005
31482800	SORDER	10/11/2004
31959694	SORDER	19/01/2004
31358155	SORDER	07/09/2004
31848497	SORDER	21/07/2008
31030398	SORDER	20/03/2009
32141200	SORDER	10/02/2005
31076193	SORDER	22/08/2000
32002925	SORDER	18/01/2008
32041096	SORDER	03/04/2008
31759592	SORDER	11/02/2009
31656483	SORDER	21/09/2006
31862985	SORDER	31/03/2004
31927171	SORDER	14/03/2005
31081419	SORDER	16/05/2008
31739653	SORDER	16/12/2010
31676103	SORDER	27/01/2010
31767974	SORDER	14/09/2004
31071290	SORDER	22/03/2006
32141512	SORDER	08/08/2007
31314219	SORDER	01/03/2006
31992521	SORDER	25/01/2008
32260483	SORDER	20/04/2005
31510535	SORDER	27/08/2002
31281235	SORDER	05/07/2004
32062032	SORDER	05/11/2008
32032672	SORDER	17/12/2008
31044179	SORDER	25/06/2004
31627009	SORDER	13/06/2008
31151293	SORDER	25/04/2005
31544956	SORDER	05/07/2007
31309780	SORDER	14/05/2004
31806375	SORDER	26/10/2006
31049394	SORDER	20/12/2010
31728384	SORDER	18/05/2004
31316151	SORDER	10/06/2008
32229637	SORDER	02/07/2010
31176750	SORDER	23/05/2005
31761920	SORDER	30/01/2008
31636822	SORDER	12/12/2005
31262572	SORDER	07/05/2010
31314597	SORDER	18/01/2011
31725652	SORDER	14/01/2010
32106251	SORDER	11/04/2008
31608988	SORDER	17/04/2007
32269533	SORDER	09/05/2007
31524254	SORDER	02/07/2007
31186375	SORDER	20/02/2006
31586183	SORDER	19/01/2006
31886229	SORDER	16/11/2009
32268493	SORDER	15/05/2003
31785047	SORDER	19/06/2003
31989659	SORDER	23/06/2004
31866202	SORDER	23/02/2011
31860679	SORDER	04/02/2011
31434189	SORDER	04/01/2005
31559062	SORDER	31/03/2004
31293266	SORDER	26/01/2009
31338511	SORDER	24/09/2008
32272111	SORDER	11/05/2005
31721310	SORDER	25/02/2003
32200367	SORDER	06/03/2003
31195235	SORDER	21/10/2009
31555386	SORDER	04/03/2009
31429286	SORDER	21/03/2001
31683193	SORDER	17/01/2005
31815039	SORDER	21/01/2010
31771936	SORDER	08/10/2007
31822050	SORDER	27/10/2008
31800102	SORDER	23/09/2002
31642511	SORDER	22/04/2010
31057437	SORDER	26/10/2010
31070067	SORDER	10/08/2010
31517481	SORDER	20/08/2003
31990571	SORDER	01/09/2004
31593327	SORDER	16/08/2006
31497778	SORDER	27/03/2008
31182996	SORDER	01/03/2005
31743661	SORDER	21/01/2002
31211511	SORDER	11/02/2009
31916030	SORDER	10/06/2004
31742774	SORDER	18/01/2007
32183116	SORDER	16/02/2000
31203209	SORDER	18/12/2008
31502925	SORDER	21/12/2010
31298190	SORDER	27/12/2007
31540780	SORDER	04/03/2005
31061509	SORDER	13/02/2009
31507430	SORDER	06/07/2004
31388540	SORDER	27/08/2010
31177793	SORDER	05/02/2010
31992539	SORDER	27/03/2002
32026942	SORDER	16/01/2007
31435581	SORDER	27/10/2009
31974242	SORDER	06/09/2004
31359358	SORDER	01/01/1991
31954124	SORDER	21/07/2004
31981150	SORDER	01/01/1995
31144301	SORDER	01/01/1950
31826383	SORDER	23/11/2009
31835704	SORDER	28/04/2008
31086133	SORDER	29/06/2006
31389366	SORDER	18/10/2010
31736913	SORDER	13/04/2005
31888462	SORDER	22/03/2010
31461892	SORDER	19/12/2004
31426233	SORDER	23/06/2008
31272830	SORDER	25/08/2006
32258866	SORDER	24/09/2001
31443414	SORDER	20/05/2010
31383554	SORDER	05/07/2010
32157023	SORDER	08/03/2011
31746215	SORDER	05/11/2010
31584708	SORDER	15/04/2008
31169813	SORDER	29/01/2010
31588436	SORDER	24/05/2006
31766471	SORDER	08/03/2007
31437090	SORDER	05/07/2006
32080813	SORDER	24/01/2005
31536161	SORDER	20/05/2011
31854539	SORDER	26/05/2004
31325386	SORDER	21/07/2006
31274163	SORDER	18/02/2008
31453067	SORDER	10/05/2011
31454994	SORDER	16/06/2009
32095585	SORDER	26/02/2007
31744116	SORDER	06/02/2004
31816065	SORDER	18/04/2006
32179849	SORDER	13/01/2011
32202991	SORDER	16/06/2006
31442959	SORDER	11/05/2007
32174906	SORDER	12/01/2011
31743497	SORDER	17/01/2005
31355090	SORDER	11/05/2009
31137112	SORDER	28/04/2003
31132462	SORDER	06/09/2007
31672694	SORDER	21/05/2002
31391687	SORDER	04/04/2007
31895100	SORDER	01/04/2005
31948492	SORDER	24/09/2008
31481613	SORDER	28/04/2010
31608216	SORDER	16/10/2001
31124520	SORDER	20/04/2005
32176725	SORDER	24/11/2006
31597078	SORDER	24/08/2005
32250490	SORDER	16/06/2009
31286119	SORDER	11/10/2010
31606344	SORDER	08/07/2004
31200673	SORDER	27/02/2006
31886795	SORDER	28/12/2007
31735964	SORDER	15/04/2003
31408994	SORDER	01/01/1992
31502497	SORDER	07/12/2005
31860480	SORDER	15/11/2007
31802920	SORDER	14/04/2011
31823539	SORDER	02/11/2007
31943703	SORDER	29/12/2000
31888649	SORDER	23/01/2007
31840478	SORDER	29/12/2008
31643551	SORDER	29/01/2008
31598491	SORDER	29/04/2011
31325610	SORDER	14/06/2006
31374650	SORDER	27/03/2008
32055682	SORDER	30/03/2004
31293194	SORDER	28/06/2005
31396958	SORDER	22/04/2009
32156969	SORDER	29/07/2010
31797949	SORDER	16/09/2009
31412210	SORDER	19/11/2007
32141467	SORDER	22/06/2010
31173830	SORDER	21/02/2011
31401177	SORDER	14/10/2010
32227283	SORDER	15/10/2010
31349175	SORDER	19/04/2004
31062380	SORDER	26/09/2007
31051511	SORDER	13/03/2008
31050240	SORDER	01/08/2008
31420535	SORDER	21/02/2006
32258288	SORDER	15/04/2004
31697645	SORDER	01/12/2008
31604259	SORDER	22/03/2011
32187886	SORDER	08/03/2007
31244492	SORDER	24/08/2005
32160956	SORDER	09/02/2011
31898256	SORDER	08/07/2008
31850595	SORDER	03/06/2008
31926216	SORDER	14/01/2010
31608008	SORDER	12/11/2007
31151654	SORDER	19/01/2010
31510398	SORDER	02/12/2002
31304320	SORDER	26/11/2008
31089758	SORDER	22/09/2005
32277020	SORDER	04/02/2008
32130047	SORDER	22/04/2003
31303621	SORDER	28/09/2005
32018263	SORDER	15/07/2005
31991627	SORDER	05/09/2008
31053838	SORDER	01/01/1994
32110747	SORDER	18/02/1980
32039244	SORDER	31/01/2007
31098580	SORDER	22/02/2011
31856647	SORDER	22/11/2007
31826945	SORDER	30/03/2010
31600449	SORDER	17/12/2004
32257488	SORDER	11/02/2010
31096804	SORDER	04/02/2010
32187626	SORDER	23/05/2005
31506933	SORDER	23/11/2006
31729599	SORDER	29/03/2006
31856153	SORDER	16/05/2003
31503301	SORDER	27/05/2008
32231943	SORDER	14/12/2004
31057692	SORDER	30/04/2003
31940534	SORDER	04/05/2006
31414209	SORDER	17/11/2005
31191195	SORDER	06/07/2010
31942616	SORDER	27/01/2003
31712371	SORDER	18/01/2010
31075273	SORDER	01/10/2007
31194670	SORDER	17/08/2004
31042629	SORDER	17/01/2001
31499812	SORDER	03/09/2010
32258540	SORDER	18/08/2003
31929084	SORDER	04/09/2009
32156190	SORDER	15/09/2005
31031831	SORDER	30/10/2001
31220049	SORDER	28/02/2006
31416711	SORDER	16/03/2009
31468640	SORDER	11/11/2009
31049978	SORDER	13/04/2009
31971481	SORDER	02/08/2005
31357291	SORDER	31/01/2003
32118462	SORDER	18/02/2009
31067422	SORDER	29/05/2007
31795089	SORDER	27/05/2004
31161794	SORDER	04/11/2005
32185963	SORDER	09/10/2008
31209907	SORDER	22/09/2005
31477325	SORDER	18/05/2009
32257370	SORDER	28/11/2000
32185239	SORDER	28/07/1945
31194705	SORDER	04/08/2004
32083993	SORDER	21/11/2008
31639593	SORDER	10/10/2007
32174885	SORDER	02/02/2007
31919328	SORDER	13/11/2009
32092830	SORDER	27/05/2010
31219001	SORDER	25/10/2007
32007468	SORDER	04/06/1944
32231459	SORDER	02/11/2005
31995451	SORDER	01/06/1993
31962312	SORDER	13/11/2007
32168657	SORDER	24/01/2006
31107101	SORDER	22/06/2010
32087335	SORDER	15/07/2010
31723824	SORDER	17/03/2008
31075024	SORDER	01/07/1935
32073876	SORDER	16/02/2009
31737242	SORDER	19/08/2008
31702748	SORDER	06/11/2008
31504927	SORDER	12/09/2006
32025648	SORDER	23/03/2011
31249805	SORDER	13/04/2009
31227478	SORDER	12/08/2005
31938524	SORDER	20/05/2005
32026788	SORDER	16/12/2005
31484206	SORDER	10/03/2011
31939727	SORDER	22/09/2009
32034190	SORDER	31/10/2008
31672938	SORDER	24/11/2009
31557113	SORDER	08/09/2006
31895340	SORDER	07/07/2004
31605098	SORDER	19/09/2006
31345381	SORDER	13/01/2010
31216105	SORDER	29/06/2010
32053220	SORDER	05/01/2011
31306237	SORDER	11/10/2006
31214599	SORDER	28/07/2005
31073534	SORDER	28/03/2005
31272512	SORDER	22/07/2008
31679146	SORDER	17/11/2000
32153613	SORDER	08/03/1954
31125310	SORDER	01/12/2003
32267795	SORDER	27/05/2004
31947419	SORDER	16/05/1948
32226214	SORDER	08/06/2004
31953400	SORDER	17/04/2008
31415210	SORDER	17/10/2008
32069234	SORDER	08/07/2009
31416750	SORDER	10/09/2008
31771079	SORDER	03/09/2010
31184345	SORDER	21/12/2008
31401131	SORDER	04/05/2009
31693991	SORDER	07/10/2008
31547301	SORDER	03/03/2006
31359021	SORDER	29/01/2010
31240257	SORDER	08/10/2010
31747520	SORDER	12/08/2003
31288005	SORDER	10/12/2008
31942339	SORDER	16/11/2007
31131105	SORDER	25/01/2006
31675069	SORDER	11/08/2005
31536866	SORDER	19/10/2007
32032305	SORDER	22/05/2001
31297268	SORDER	29/04/2004
32274565	SORDER	01/04/2007
31956858	SORDER	27/07/2009
31462204	SORDER	10/01/2007
31881434	SORDER	29/08/2008
31962165	SORDER	27/01/2010
31729955	SORDER	09/07/2003
31092295	SORDER	02/12/2010
31333613	SORDER	20/02/2004
31534740	SORDER	07/06/2004
32244131	SORDER	24/08/2009
31415220	SORDER	25/04/2011
31301336	SORDER	06/05/2008
32029714	SORDER	12/08/2009
31244800	SORDER	01/01/1963
31801091	SORDER	11/12/2008
31881754	SORDER	18/11/2008
31471970	SORDER	18/02/2010
32159782	SORDER	13/02/2008
32225093	SORDER	23/03/2011
31474269	SORDER	05/08/2008
32217404	SORDER	19/01/2009
31237337	SORDER	07/01/2004
32141661	SORDER	25/02/2010
31129628	SORDER	16/11/2007
32042838	SORDER	31/01/2011
31699191	SORDER	11/02/2010
32026060	SORDER	01/04/2005
31604848	SORDER	04/04/2005
32118990	SORDER	19/02/2010
31435158	SORDER	12/01/2005
31851503	SORDER	18/02/2010
31721319	SORDER	24/04/2002
32059744	SORDER	14/03/2007
31399039	SORDER	25/02/2008
31819303	SORDER	05/05/2004
31323394	SORDER	07/01/2011
32085978	SORDER	21/03/2005
31353393	SORDER	23/02/2009
31443039	SORDER	24/05/2006
32093512	SORDER	03/03/2006
31735472	SORDER	08/07/2008
31143232	SORDER	27/06/2007
32267617	SORDER	01/08/2006
31095519	SORDER	30/11/2006
31348815	SORDER	30/11/2009
31795658	SORDER	16/05/2007
31381073	SORDER	09/05/1941
31393998	SORDER	12/02/2008
31955769	SORDER	23/10/2009
31658052	SORDER	19/05/2005
32024696	SORDER	04/02/2008
32223637	SORDER	23/10/2008
31213814	SORDER	02/02/2001
31273240	SORDER	09/03/2005
31312698	SORDER	06/05/2004
32226138	SORDER	19/02/2003
31160888	SORDER	24/05/2011
31683931	SORDER	14/11/2007
31604883	SORDER	22/02/2011
32109768	SORDER	01/12/2009
31824276	SORDER	18/03/2008
31742008	SORDER	03/09/2007
31445382	SORDER	09/11/2004
31391526	SORDER	02/11/2010
31207593	SORDER	10/11/2008
31505976	SORDER	25/10/2001
31219886	SORDER	08/02/2002
31293711	SORDER	13/07/2008
31703185	SORDER	24/10/2008
31473945	SORDER	11/06/2008
31040325	SORDER	26/11/2007
31089665	SORDER	02/11/2005
32128497	SORDER	24/04/2001
31422425	SORDER	03/07/2000
31904808	SORDER	04/08/2010
31632371	SORDER	09/03/2004
31910942	SORDER	11/10/2005
31892282	SORDER	13/05/2004
31068631	SORDER	08/10/2009
31812042	SORDER	18/11/2004
31171012	SORDER	18/08/2006
31589962	SORDER	09/05/2011
31627623	SORDER	09/03/2011
31163879	SORDER	20/10/2005
31523503	SORDER	05/03/2008
32260474	SORDER	19/09/2008
31682966	SORDER	18/12/2008
31071531	SORDER	19/10/2004
31633456	SORDER	17/05/2010
31784063	SORDER	19/02/2008
31848757	SORDER	16/05/2006
31711449	SORDER	29/04/2008
31353873	SORDER	16/07/2009
31363680	SORDER	27/04/2011
32144323	SORDER	20/12/2006
31142564	SORDER	29/07/2008
31907199	SORDER	23/06/2009
31385542	SORDER	27/05/2005
32153981	SORDER	17/11/2004
31693070	SORDER	01/10/2010
31608962	SORDER	17/02/2003
31845001	SORDER	27/02/2007
31474582	SORDER	19/08/2009
31333055	SORDER	16/02/2003
32163177	SORDER	24/02/2004
31669907	SORDER	30/09/2009
31480655	SORDER	13/11/2009
31251502	SORDER	11/07/2007
31606385	SORDER	17/10/2008
31649946	SORDER	29/04/1999
31247458	SORDER	31/03/2011
31475408	SORDER	28/04/2009
31146142	SORDER	20/03/2007
31759943	SORDER	07/08/2007
31943993	SORDER	27/07/2009
32211844	SORDER	09/11/2004
31110042	SORDER	21/06/2010
32167646	SORDER	05/07/2002
32210034	SORDER	23/10/2000
32018466	SORDER	13/01/2006
31614670	SORDER	08/03/2010
31754789	SORDER	13/02/2007
31436600	SORDER	07/06/2010
31061564	SORDER	29/04/2011
32142008	SORDER	17/12/2004
31634632	SORDER	03/12/2002
31600813	SORDER	24/01/2000
32221337	SORDER	21/11/2007
31682121	SORDER	04/05/2009
31734230	SORDER	20/07/2010
31641752	SORDER	03/02/2010
32131358	SORDER	08/01/2010
31601474	SORDER	30/10/2007
32268403	SORDER	24/01/2006
31477918	SORDER	22/02/2010
31929700	SORDER	09/07/2009
31160689	SORDER	16/03/2009
31751005	SORDER	09/12/2009
31285868	SORDER	03/10/2007
32073056	SORDER	26/06/2009
31506905	SORDER	15/11/2010
31699160	SORDER	20/12/2007
31177849	SORDER	10/10/2007
31893484	SORDER	22/03/2004
31750049	SORDER	13/08/2004
31476527	SORDER	14/08/2007
31812691	SORDER	25/09/1986
32129489	SORDER	28/04/2005
31493196	SORDER	07/10/2004
31315245	SORDER	01/01/1972
31495297	SORDER	02/07/2008
32129185	SORDER	17/06/2009
31870354	SORDER	04/11/2009
32257706	SORDER	19/06/1961
31662742	SORDER	08/03/2005
32117491	SORDER	03/02/2011
31517413	SORDER	25/11/2010
31707970	SORDER	14/10/2010
31943141	SORDER	13/08/2007
32013785	SORDER	27/05/2011
31863050	SORDER	13/10/2008
32150934	SORDER	13/05/2010
31788566	SORDER	28/09/2001
31160946	SORDER	26/02/2010
31142678	SORDER	25/06/2007
31318204	SORDER	17/08/2004
32078125	SORDER	14/10/2009
32141546	SORDER	11/04/2008
31538518	SORDER	30/04/2009
31980436	SORDER	08/07/2002
31997385	SORDER	23/10/2009
31738650	SORDER	12/02/2008
31177288	SORDER	18/06/2010
31459260	SORDER	18/10/2007
31696583	SORDER	18/05/2010
32062092	SORDER	19/04/2002
32214317	SORDER	13/09/2006
32028980	SORDER	23/07/2009
31030569	SORDER	12/05/2010
31126735	SORDER	29/11/2008
31476644	SORDER	07/10/2004
31034301	SORDER	04/04/2011
32086971	SORDER	23/04/2009
31748675	SORDER	18/10/2010
31952034	SORDER	27/10/2008
32266454	SORDER	04/04/2003
31805543	SORDER	15/07/2005
31321267	SORDER	12/01/2010
31214283	SORDER	16/05/2007
31326461	SORDER	19/01/2007
31505217	SORDER	06/07/2005
31377746	SORDER	21/02/2011
31777603	SORDER	10/05/2006
31144302	SORDER	12/05/2004
31653156	SORDER	17/01/2010
31301358	SORDER	06/11/2009
31391377	SORDER	05/02/2007
31788498	SORDER	23/11/2010
31436135	SORDER	27/09/2006
31572849	SORDER	27/06/2007
31605598	SORDER	25/08/2010
31842217	SORDER	22/07/2009
31467275	SORDER	26/03/2008
31933257	SORDER	27/03/2009
31571106	SORDER	16/10/2001
31673165	SORDER	13/06/2008
31767352	SORDER	24/01/2008
31907428	SORDER	31/03/2009
31405289	SORDER	05/04/2011
31752416	SORDER	07/01/2009
31362191	SORDER	18/02/2008
31103612	SORDER	28/02/2011
31148510	SORDER	14/10/2010
31442581	SORDER	19/01/2006
32281779	SORDER	11/04/2007
31991026	SORDER	06/02/2006
31946086	SORDER	05/12/2007
31107785	SORDER	05/05/2010
31486375	SORDER	25/08/2008
31752102	SORDER	22/06/2004
31636015	SORDER	13/07/2005
31047275	SORDER	20/12/2010
31757127	SORDER	19/05/2009
31754577	SORDER	23/01/2007
31994625	SORDER	18/02/2010
31818828	SORDER	20/09/2010
32183049	SORDER	13/12/2005
31564531	SORDER	17/02/1992
31948792	SORDER	02/01/2009
31797705	SORDER	11/03/2008
31666504	SORDER	09/02/2000
31429343	SORDER	10/09/2009
31732556	SORDER	10/01/2011
32121072	SORDER	15/01/2010
31915873	SORDER	08/02/2008
32218115	SORDER	13/08/2009
32237490	SORDER	08/09/2000
31188817	SORDER	29/05/2008
31370315	SORDER	20/10/2005
32178811	SORDER	12/09/2006
31282517	SORDER	02/06/2003
32143088	SORDER	05/10/1998
31515034	SORDER	16/02/2010
32264453	SORDER	30/01/2009
31283930	SORDER	10/03/2006
32070505	SORDER	03/07/2006
31197126	SORDER	11/05/2005
31482847	SORDER	05/05/2008
31549235	SORDER	10/06/1999
31731125	SORDER	25/04/2003
31963367	SORDER	01/07/2004
31534241	SORDER	23/06/2009
31241398	SORDER	19/11/2010
31760263	SORDER	12/04/2007
32169290	SORDER	20/06/1977
32205678	SORDER	15/03/2005
32267215	SORDER	04/10/2010
32158039	SORDER	15/04/2008
31844576	SORDER	09/10/2006
31446226	SORDER	24/06/2003
31529342	SORDER	20/12/2004
31402203	SORDER	07/02/2007
31398669	SORDER	13/09/2005
31687405	SORDER	09/06/2008
31559312	SORDER	28/10/2010
31778043	SORDER	11/08/2006
31649595	SORDER	07/11/2006
31626979	SORDER	28/01/2008
32011659	SORDER	09/09/2008
31555376	SORDER	26/10/2010
31653094	SORDER	20/01/2010
32094975	SORDER	13/02/2007
31716315	SORDER	07/12/2007
31838445	SORDER	23/11/2010
