patient_id	covar_name	date
5034754	VIH	28/07/2008
7094192	VIH	03/12/2004
16098821	VIH	07/01/2009
16087795	VIH	22/05/2008
3330955	VIH	09/02/2005
15901751	VIH	09/10/2003
732722	VIH	12/06/2009
20564727	VIH	26/01/2006
16097839	VIH	04/08/2009
16097957	VIH	10/04/2006
6887650	VIH	26/04/2010
15898930	VIH	21/03/2006
1335810	VIH	16/07/2009
15431480	VIH	19/08/2009
11325278	VIH	12/11/2008
1546390	VIH	02/05/2000
7971599	VIH	11/10/2004
8956428	VIH	30/03/1996
1418557	VIH	18/02/2010
652715	VIH	06/02/2001
14695835	VIH	09/07/2009
13733143	VIH	23/03/2009
7847315	VIH	02/01/2007
1110477	VIH	02/03/2000
1131855	VIH	24/11/2005
1765747	VIH	02/11/2007
757533	VIH	21/03/2000
2524518	VIH	21/07/2009
28043917	VIH	18/02/2008
20146495	VIH	01/08/1984
17746638	VIH	01/01/1986
26236210	VIH	05/07/2005
16980703	VIH	03/04/2004
437093	VIH	07/11/2001
26661214	VIH	28/11/2000
26793792	VIH	26/07/2007
10826727	VIH	15/05/2003
21651514	VIH	21/03/2011
26948438	VIH	19/02/2001
26781478	VIH	01/01/2006
26876140	VIH	01/12/2000
26848628	VIH	08/10/2004
26834404	VIH	02/12/2010
27134468	VIH	17/01/2008
27113158	VIH	16/09/2009
27607215	VIH	25/09/2006
26637275	VIH	01/01/2000
27496273	VIH	18/09/1994
27799100	VIH	05/03/2009
27665141	VIH	30/08/1994
33055329	VIH	22/10/2009
33011062	VIH	06/01/2007
28036263	VIH	24/11/2006
33124927	VIH	18/11/2010
33085777	VIH	15/10/2001
33112464	VIH	30/08/2004
33014328	VIH	22/11/1966
18765874	VIH	09/11/2009
33248203	VIH	01/01/1989
33224157	VIH	20/01/2001
33226292	VIH	14/07/2009
16631973	VIH	10/05/2010
20986175	VIH	13/11/2008
23402345	VIH	26/05/1998
23327879	VIH	03/11/2004
16611002	VIH	18/06/2009
33207544	VIH	14/01/2009
33246372	VIH	10/06/2009
33253232	VIH	30/04/1970
31936867	VIH	17/09/2004
32217710	VIH	02/11/2003
31573567	VIH	31/01/2003
31095215	VIH	04/06/2009
31203477	VIH	11/01/2010
31069460	VIH	05/11/2002
31415101	VIH	12/10/2003
31990790	VIH	27/10/2009
31835091	VIH	01/05/2010
31119305	VIH	01/01/1992
31935031	VIH	30/12/1999
32012725	VIH	01/10/2008
31813951	VIH	24/11/2006
32221033	VIH	22/11/2000
31799453	VIH	13/02/2008
31141007	VIH	12/05/2004
31473614	VIH	03/11/2009
32056168	VIH	07/12/2004
31650910	VIH	28/12/2010
31290505	VIH	18/11/2009
31685282	VIH	13/05/2011
32171234	VIH	01/04/2005
31835258	VIH	31/10/2001
31811051	VIH	11/05/2010
31728182	VIH	30/10/2002
32211007	VIH	07/09/2004
31450325	VIH	19/01/2004
31880603	VIH	25/06/2002
32132555	VIH	11/01/2005
32196475	VIH	19/06/2000
31600437	VIH	30/09/2010
31393891	VIH	06/10/2008
31881949	VIH	19/07/2007
31761466	VIH	27/01/2004
32171097	VIH	10/10/1998
32157554	VIH	04/11/2008
32195092	VIH	21/02/2002
32067448	VIH	25/10/2006
31903968	VIH	10/06/2002
31474342	VIH	10/03/2004
31811871	VIH	02/02/2005
31439969	VIH	24/02/2009
32053592	VIH	13/02/2009
31289556	VIH	12/03/2006
31200412	VIH	05/05/1999
32127700	VIH	14/09/2006
32247368	VIH	20/08/2002
31178202	VIH	09/11/2008
32220964	VIH	02/11/1989
32006225	VIH	07/05/2010
31269724	VIH	07/07/2010
31068921	VIH	04/03/2011
31136816	VIH	29/09/2003
31216338	VIH	02/06/2003
31422598	VIH	10/09/2009
31247458	VIH	01/01/2002
31285337	VIH	07/12/2006
31943993	VIH	18/03/2005
31074922	VIH	12/07/1985
32151556	VIH	02/07/2003
31088911	VIH	01/01/2007
31177725	VIH	01/01/2001
31195414	VIH	01/12/2006
31136542	VIH	11/02/2003
32176704	VIH	22/04/2003
32178757	VIH	05/10/2009
