patient_id	covar_name	date
17369693	A10AB04	07/07/2010
9214995	A10AB04	09/05/2011
2767848	A10AB04	04/12/2003
8639376	A10AB04	29/10/2009
731905	A10AB04	18/08/2010
208557	A10AB04	10/10/2008
9323777	A10AB04	18/04/2011
10245737	A10AB04	21/03/2011
1851987	A10AB04	09/12/2009
1420780	A10AB04	27/08/2004
8068179	A10AB04	05/05/2011
717026	A10AB04	31/01/2011
2072956	A10AB04	14/09/2009
2042077	A10AB04	13/08/2008
2134010	A10AB04	11/12/2009
2053983	A10AB04	02/03/2004
1764780	A10AB04	10/04/2007
860336	A10AB04	29/01/2003
3055444	A10AB04	30/12/2010
2526072	A10AB04	13/02/2003
20673717	A10AB04	29/05/2007
13049153	A10AB04	23/11/2010
14364649	A10AB04	30/05/2011
418234	A10AB04	15/04/2011
24666302	A10AB04	15/03/2010
24662681	A10AB04	21/01/2011
25704459	A10AB04	09/04/2003
26941008	A10AB04	29/06/2005
26715319	A10AB04	17/04/2011
27149748	A10AB04	28/02/2007
27098823	A10AB04	29/12/2009
27211457	A10AB04	06/05/2011
27460528	A10AB04	19/05/2011
27573184	A10AB04	14/04/2011
26976144	A10AB04	07/02/2007
27805592	A10AB04	21/08/2008
27772297	A10AB04	21/05/2011
26970741	A10AB04	27/12/2007
27804341	A10AB04	19/04/2011
27797674	A10AB04	05/05/2011
27314862	A10AB04	21/05/2011
33133444	A10AB04	27/04/2011
33023892	A10AB04	03/02/2010
33091621	A10AB04	09/03/2010
33053742	A10AB04	30/05/2011
22881940	A10AB04	23/05/2011
33209204	A10AB04	18/04/2011
23328512	A10AB04	04/01/2011
33228038	A10AB04	07/04/2011
33249205	A10AB04	01/06/2011
23402038	A10AB04	01/04/2011
16615324	A10AB04	19/01/2010
20982002	A10AB04	30/05/2011
32100781	A10AB04	20/01/2010
31126630	A10AB04	17/07/2006
31396539	A10AB04	27/09/2006
31459109	A10AB04	21/12/2007
31336940	A10AB04	27/12/2010
32238796	A10AB04	04/11/2010
31735454	A10AB04	17/12/2010
31205880	A10AB04	28/12/2006
32214444	A10AB04	01/03/2005
32212407	A10AB04	03/03/2011
31827685	A10AB04	21/07/2010
31471872	A10AB04	29/11/2005
31259853	A10AB04	02/08/2006
31585879	A10AB04	17/05/2011
31222949	A10AB04	20/07/2005
32186902	A10AB04	26/11/2007
32002259	A10AB04	22/06/2006
31282883	A10AB04	05/07/2005
31045812	A10AB04	24/04/2008
31765504	A10AB04	18/06/2009
31577402	A10AB04	11/11/2008
32280545	A10AB04	15/09/2008
31125341	A10AB04	03/11/2009
31929544	A10AB04	07/12/2010
31898173	A10AB04	30/10/2008
31084479	A10AB04	18/11/2008
32045804	A10AB04	03/04/2009
32136272	A10AB04	18/06/2008
31897149	A10AB04	24/03/2011
31561607	A10AB04	02/10/2009
31807657	A10AB04	14/12/2009
32116282	A10AB04	15/12/2008
32159461	A10AB04	07/12/2007
