patient_id	covar_name	date
8276701	ANGOR	23/07/2007
5812962	ANGOR	15/02/2011
16815009	ANGOR	22/03/2000
6166130	ANGOR	23/03/2006
7094993	ANGOR	01/09/2009
21152371	ANGOR	19/02/2007
6751368	ANGOR	26/07/2004
9376813	ANGOR	26/10/2004
5812596	ANGOR	01/01/1997
5814184	ANGOR	30/04/2009
16558782	ANGOR	01/07/2009
9300058	ANGOR	09/11/2010
9310772	ANGOR	13/04/1998
9294363	ANGOR	24/05/2010
20557462	ANGOR	27/10/2009
16559168	ANGOR	16/02/2007
9996121	ANGOR	13/12/2004
21974194	ANGOR	06/04/2005
9214840	ANGOR	07/04/2005
6159770	ANGOR	12/04/2006
3328652	ANGOR	15/10/1989
6759252	ANGOR	22/03/2005
11578588	ANGOR	30/01/2009
5028278	ANGOR	30/12/2009
9293857	ANGOR	20/11/1998
14983661	ANGOR	01/04/2003
6747893	ANGOR	19/07/2007
6749295	ANGOR	02/01/1995
8976509	ANGOR	03/03/2009
6707615	ANGOR	10/10/1998
7160942	ANGOR	24/09/2001
5866143	ANGOR	04/01/2001
17618962	ANGOR	13/01/2010
24765014	ANGOR	01/01/2003
6415450	ANGOR	21/09/2000
1637807	ANGOR	16/03/2010
7966594	ANGOR	28/01/1997
1200223	ANGOR	25/08/2010
1853226	ANGOR	20/11/2010
639912	ANGOR	20/12/2005
1417904	ANGOR	29/12/2008
1356229	ANGOR	09/07/2002
7800389	ANGOR	04/03/2009
12189908	ANGOR	03/12/2004
645794	ANGOR	13/04/2005
1200808	ANGOR	04/04/2003
1415985	ANGOR	07/03/2006
7970955	ANGOR	22/10/2010
5956259	ANGOR	17/01/2008
1443647	ANGOR	30/04/2004
6602655	ANGOR	05/03/2007
1356524	ANGOR	21/05/2003
7800679	ANGOR	24/01/2002
26139483	ANGOR	29/12/2006
8955504	ANGOR	07/07/2003
6212365	ANGOR	21/02/2002
674212	ANGOR	19/02/1924
7970589	ANGOR	05/07/2006
14695879	ANGOR	11/10/2009
11286075	ANGOR	29/10/2008
6841591	ANGOR	23/09/2005
5992267	ANGOR	06/04/2009
13986458	ANGOR	18/04/2002
1850567	ANGOR	02/08/2007
15667199	ANGOR	05/05/2008
1443510	ANGOR	28/05/2007
1202324	ANGOR	13/01/2003
8063389	ANGOR	27/02/2009
7800730	ANGOR	22/06/2009
1424080	ANGOR	30/01/2008
8955143	ANGOR	09/06/2008
24940355	ANGOR	12/03/2010
6603214	ANGOR	14/06/1938
1638216	ANGOR	19/05/2010
135900	ANGOR	28/01/1999
651862	ANGOR	17/11/2004
1855368	ANGOR	23/04/2001
890075	ANGOR	24/02/2006
1131198	ANGOR	14/11/2003
1638220	ANGOR	23/05/2008
25750805	ANGOR	02/03/2001
1647271	ANGOR	01/01/2004
25860190	ANGOR	26/12/2001
716180	ANGOR	19/02/1995
1855343	ANGOR	18/05/2000
1641017	ANGOR	26/11/2001
1134812	ANGOR	28/03/2007
2059817	ANGOR	07/01/2005
2040077	ANGOR	01/01/2002
2071345	ANGOR	28/07/2003
2067508	ANGOR	25/09/2009
2109593	ANGOR	11/12/1987
2049637	ANGOR	02/05/2006
2048440	ANGOR	24/08/2004
2140686	ANGOR	19/11/2007
2214358	ANGOR	01/08/2001
877568	ANGOR	22/07/2003
1752550	ANGOR	29/10/2002
902321	ANGOR	01/08/2006
2377893	ANGOR	05/04/2006
903543	ANGOR	29/05/2001
2038121	ANGOR	08/07/2010
1763515	ANGOR	05/10/1987
1765194	ANGOR	24/11/1999
902525	ANGOR	01/01/1995
3052996	ANGOR	27/08/2003
2759631	ANGOR	26/09/2006
2777436	ANGOR	04/07/2003
2779188	ANGOR	01/01/1999
2407328	ANGOR	25/01/2007
2573025	ANGOR	25/01/2011
2519294	ANGOR	01/01/1999
2755836	ANGOR	11/02/2011
2525759	ANGOR	25/02/2003
16979732	ANGOR	09/05/2003
2755386	ANGOR	27/01/1999
9848198	ANGOR	12/12/2007
26488037	ANGOR	27/03/2006
26489080	ANGOR	25/03/1932
28063102	ANGOR	19/02/2004
17323361	ANGOR	25/04/2003
7134474	ANGOR	13/10/2009
26338790	ANGOR	10/03/2005
23889578	ANGOR	04/02/2009
26488449	ANGOR	21/02/2007
16836654	ANGOR	06/02/2003
7567270	ANGOR	13/06/2003
16935538	ANGOR	28/10/2008
421437	ANGOR	14/02/2008
1910243	ANGOR	03/03/2003
2962363	ANGOR	03/04/2008
302260	ANGOR	25/11/1998
2959751	ANGOR	11/10/2000
28083946	ANGOR	11/06/2003
28086148	ANGOR	10/09/2009
419216	ANGOR	11/03/2001
304345	ANGOR	23/11/2001
423324	ANGOR	13/12/1999
184640	ANGOR	10/04/2007
185260	ANGOR	07/03/2002
423546	ANGOR	13/05/2011
28064907	ANGOR	13/05/2008
28090511	ANGOR	08/04/2004
649902	ANGOR	30/07/2001
28068045	ANGOR	04/05/2006
876220	ANGOR	27/06/2002
28072510	ANGOR	01/01/1989
28054205	ANGOR	22/08/2005
28054497	ANGOR	30/05/1997
28044315	ANGOR	08/06/2007
24665617	ANGOR	24/01/1999
24657685	ANGOR	20/07/2000
24658550	ANGOR	09/09/2010
24657011	ANGOR	17/11/2004
1019432	ANGOR	19/03/2001
620834	ANGOR	14/04/2003
19424121	ANGOR	09/03/2005
40584	ANGOR	19/12/2001
1905306	ANGOR	30/11/2000
40240	ANGOR	14/01/2002
1372573	ANGOR	09/02/2005
1371015	ANGOR	08/04/2010
17831080	ANGOR	03/03/2008
18187564	ANGOR	01/01/1990
18201064	ANGOR	22/05/2003
19765489	ANGOR	27/09/2001
1904747	ANGOR	28/07/2006
1989439	ANGOR	28/07/1936
26630599	ANGOR	08/02/2000
26855912	ANGOR	13/09/2009
26782658	ANGOR	14/05/2001
12994807	ANGOR	24/04/2003
24654532	ANGOR	10/11/2000
16567909	ANGOR	12/05/1924
2990019	ANGOR	17/11/1941
26642042	ANGOR	17/08/2002
26718324	ANGOR	07/06/2002
24578320	ANGOR	05/03/2011
21553632	ANGOR	07/09/2007
24581788	ANGOR	01/09/2001
24651623	ANGOR	05/08/2005
24666854	ANGOR	21/06/2010
22921551	ANGOR	01/06/2007
21651636	ANGOR	13/01/2004
24656409	ANGOR	31/03/2003
24582056	ANGOR	01/09/2003
21651898	ANGOR	01/12/2001
26950141	ANGOR	03/10/2007
26891000	ANGOR	01/10/1998
26935041	ANGOR	28/10/2002
26916982	ANGOR	29/03/2005
26897522	ANGOR	01/01/2000
26958880	ANGOR	11/01/2002
26857096	ANGOR	11/05/2010
26717570	ANGOR	13/12/2002
26742475	ANGOR	29/08/2003
26847529	ANGOR	02/01/2004
26863265	ANGOR	01/12/2005
26900035	ANGOR	12/12/2005
26900308	ANGOR	21/02/2007
26800799	ANGOR	01/12/2000
26793342	ANGOR	12/09/2007
26776303	ANGOR	13/01/2000
26783769	ANGOR	23/08/2004
26712779	ANGOR	14/02/2001
26716935	ANGOR	19/02/2001
26715346	ANGOR	25/09/2006
26999711	ANGOR	02/11/1999
27149748	ANGOR	16/10/2007
27086107	ANGOR	27/10/2003
27084686	ANGOR	16/05/2006
27104567	ANGOR	19/02/2008
27114640	ANGOR	16/11/1985
27104236	ANGOR	14/11/2002
27099894	ANGOR	31/01/2003
27115263	ANGOR	10/11/2003
27064483	ANGOR	09/05/2007
27079600	ANGOR	14/01/2002
27031739	ANGOR	26/11/2004
27065356	ANGOR	20/05/2009
27043827	ANGOR	18/04/2006
27037293	ANGOR	16/01/2007
27027925	ANGOR	27/10/2003
26991593	ANGOR	20/02/2006
26994966	ANGOR	17/04/2011
27014237	ANGOR	13/07/2007
27026228	ANGOR	01/08/2003
27013879	ANGOR	05/11/1989
26993286	ANGOR	10/04/2006
27216577	ANGOR	17/02/2005
27170821	ANGOR	02/01/2004
27153865	ANGOR	12/12/2006
27362443	ANGOR	26/06/2007
27369270	ANGOR	28/08/2001
27384579	ANGOR	02/06/2003
27383412	ANGOR	03/04/2003
27383432	ANGOR	08/09/2003
27384468	ANGOR	11/06/2003
27385174	ANGOR	07/04/2003
27172931	ANGOR	10/07/2002
27368382	ANGOR	19/02/2002
27244696	ANGOR	25/03/2002
27254123	ANGOR	16/06/2005
27173189	ANGOR	05/09/2005
27215927	ANGOR	07/09/2007
27355027	ANGOR	01/02/2008
27234209	ANGOR	07/10/2008
27368805	ANGOR	02/06/2010
27383112	ANGOR	11/12/2002
27351539	ANGOR	15/09/2006
27313810	ANGOR	06/10/2010
27303739	ANGOR	15/09/2010
27347687	ANGOR	12/11/2010
27384224	ANGOR	21/07/2003
26955705	ANGOR	30/03/2008
26957273	ANGOR	15/03/2005
27252105	ANGOR	26/04/2001
27200892	ANGOR	09/03/2001
26989189	ANGOR	23/03/2005
27606689	ANGOR	05/10/2005
27595644	ANGOR	28/05/2007
27589583	ANGOR	22/11/2002
27643016	ANGOR	15/05/2009
27623539	ANGOR	23/10/2003
27648016	ANGOR	15/10/2006
27493925	ANGOR	26/03/2001
27481247	ANGOR	08/07/2004
27471234	ANGOR	05/11/2004
27473960	ANGOR	31/03/2011
27427637	ANGOR	23/01/2006
27470779	ANGOR	14/12/2009
27622861	ANGOR	07/09/2005
27614533	ANGOR	05/03/2009
27614610	ANGOR	11/01/2008
27764087	ANGOR	02/06/2003
27658878	ANGOR	31/05/1998
27153923	ANGOR	06/06/2006
27167758	ANGOR	07/01/2004
27147685	ANGOR	10/12/2001
27152030	ANGOR	17/12/2010
27153595	ANGOR	01/01/1990
27128117	ANGOR	28/12/2006
26900477	ANGOR	26/02/2002
16104517	ANGOR	23/10/2001
27674951	ANGOR	23/10/2006
27533892	ANGOR	28/06/2001
27679924	ANGOR	20/08/2002
27454409	ANGOR	05/08/2008
27309498	ANGOR	24/04/2008
27475077	ANGOR	16/02/2001
27686318	ANGOR	03/08/2010
27770717	ANGOR	10/10/2007
27459230	ANGOR	01/01/1992
27530889	ANGOR	08/11/1992
27534169	ANGOR	25/06/2006
27783400	ANGOR	29/06/1994
27531259	ANGOR	27/05/2011
26980682	ANGOR	01/01/1998
26916719	ANGOR	01/08/2005
27685053	ANGOR	13/06/2001
26835703	ANGOR	07/02/2006
26933407	ANGOR	22/06/2001
1028687	ANGOR	15/12/2003
27657567	ANGOR	27/03/1993
26805773	ANGOR	07/08/2007
26635534	ANGOR	08/01/2002
26946173	ANGOR	01/01/1997
27220336	ANGOR	02/02/2006
27695073	ANGOR	20/10/2005
27804721	ANGOR	20/04/2011
27720814	ANGOR	27/10/2003
27797094	ANGOR	02/04/2008
27384357	ANGOR	04/04/2003
26770940	ANGOR	06/01/2008
26770406	ANGOR	24/12/2004
27025860	ANGOR	30/07/2005
27658055	ANGOR	08/01/2003
27664782	ANGOR	14/04/2010
27366636	ANGOR	01/05/2005
33015982	ANGOR	23/03/2010
33086083	ANGOR	26/10/2004
33079795	ANGOR	25/02/2009
33096415	ANGOR	15/01/2003
33028180	ANGOR	12/03/1926
27806731	ANGOR	03/08/2010
6636104	ANGOR	29/10/2004
184941	ANGOR	17/07/2003
2958097	ANGOR	03/05/2011
27977666	ANGOR	19/12/2006
16181122	ANGOR	14/01/2010
16178210	ANGOR	15/01/2008
16639585	ANGOR	15/06/1984
33041177	ANGOR	07/10/2008
33053711	ANGOR	13/10/2009
33007224	ANGOR	14/11/2007
33011985	ANGOR	18/03/2003
33093762	ANGOR	14/07/2008
33000272	ANGOR	03/06/2003
23343181	ANGOR	20/08/2004
18768448	ANGOR	14/10/2005
23408715	ANGOR	01/02/2008
21100900	ANGOR	11/01/2007
33239195	ANGOR	23/05/2006
23328225	ANGOR	12/04/2007
18771349	ANGOR	18/08/2003
21114678	ANGOR	01/01/2001
16618603	ANGOR	23/07/2009
16655753	ANGOR	04/07/2003
16139313	ANGOR	24/02/1939
16640222	ANGOR	19/02/2009
16639614	ANGOR	04/04/1994
16601443	ANGOR	24/11/2009
16684774	ANGOR	29/04/2002
33240080	ANGOR	24/01/2011
23361804	ANGOR	20/12/2001
16619951	ANGOR	14/07/1999
16610132	ANGOR	18/07/2003
27847515	ANGOR	06/02/1944
28017377	ANGOR	01/09/2006
20985633	ANGOR	13/08/2009
16654742	ANGOR	22/03/2007
16631934	ANGOR	18/01/2007
27934474	ANGOR	06/05/2009
16184118	ANGOR	04/01/2005
23319611	ANGOR	19/03/2000
21116941	ANGOR	02/01/2009
16606487	ANGOR	15/05/2003
21099787	ANGOR	18/03/2010
28000578	ANGOR	01/01/1995
16684088	ANGOR	25/10/2001
20982124	ANGOR	04/11/2008
33314233	ANGOR	05/06/2000
14187576	ANGOR	10/05/2010
31181468	ANGOR	04/09/2002
32276689	ANGOR	18/09/2009
31219404	ANGOR	25/08/2009
33306337	ANGOR	18/12/1998
16613895	ANGOR	01/01/2002
23367381	ANGOR	01/04/2009
16623344	ANGOR	02/02/2010
23413421	ANGOR	06/10/2003
27880957	ANGOR	25/06/2003
16621754	ANGOR	14/01/2004
32269071	ANGOR	26/03/2010
31501961	ANGOR	01/01/2000
31541778	ANGOR	21/05/2007
31969796	ANGOR	22/04/2002
31983188	ANGOR	17/01/2005
31393143	ANGOR	11/02/2009
32025408	ANGOR	17/09/2009
31237591	ANGOR	04/02/2008
31451455	ANGOR	01/01/2003
31298093	ANGOR	18/09/2008
31246115	ANGOR	05/09/2003
31976717	ANGOR	14/12/1998
31644416	ANGOR	13/01/2006
31344263	ANGOR	26/04/2007
31446823	ANGOR	24/04/2007
32220882	ANGOR	12/05/2001
31919424	ANGOR	05/02/2009
31842253	ANGOR	01/02/2007
31207975	ANGOR	10/10/2003
31343025	ANGOR	23/01/2002
31596585	ANGOR	08/06/2004
31039899	ANGOR	26/10/2010
31564150	ANGOR	12/01/2007
32268623	ANGOR	09/07/2001
31987098	ANGOR	25/05/1990
31893770	ANGOR	01/03/2006
31816975	ANGOR	01/02/2001
31067054	ANGOR	04/09/2007
31440386	ANGOR	12/12/2000
32091340	ANGOR	18/10/2006
31877612	ANGOR	02/02/2010
31038837	ANGOR	03/08/2004
31529916	ANGOR	19/10/2005
31543007	ANGOR	16/04/2011
32280643	ANGOR	21/12/2005
31675988	ANGOR	13/04/2009
31505016	ANGOR	24/06/1995
31974767	ANGOR	04/01/2010
32252581	ANGOR	16/01/2009
31066431	ANGOR	21/07/2003
31574504	ANGOR	25/11/2003
31915254	ANGOR	26/10/2007
31049207	ANGOR	22/04/2004
31655762	ANGOR	20/09/1999
32093110	ANGOR	19/07/2002
31821410	ANGOR	03/03/2008
31641342	ANGOR	08/10/2009
31255539	ANGOR	03/10/2001
31331386	ANGOR	15/07/2004
31109367	ANGOR	21/03/2000
31289640	ANGOR	09/02/1991
32254642	ANGOR	10/05/2011
31518942	ANGOR	09/03/2009
31520729	ANGOR	03/04/2000
31334936	ANGOR	02/12/2004
31418145	ANGOR	08/11/2005
31510728	ANGOR	02/11/2006
32243106	ANGOR	26/11/2007
32271367	ANGOR	09/01/1999
31522893	ANGOR	14/09/2009
31584781	ANGOR	02/07/2010
31876841	ANGOR	27/01/2011
31968363	ANGOR	29/10/2008
32100813	ANGOR	25/03/1994
32140978	ANGOR	24/03/2003
32037940	ANGOR	22/07/2009
31722466	ANGOR	03/07/2003
31249724	ANGOR	20/05/2009
32002259	ANGOR	03/10/2005
31223261	ANGOR	21/08/2003
31984945	ANGOR	07/05/2004
31340688	ANGOR	18/10/2000
31075591	ANGOR	28/06/2004
31991581	ANGOR	21/10/2005
31669309	ANGOR	15/09/2008
32004312	ANGOR	28/04/2010
32190370	ANGOR	22/01/2002
31392340	ANGOR	01/01/2006
31081419	ANGOR	09/03/2007
32092147	ANGOR	20/12/2005
31396735	ANGOR	10/01/2001
31356177	ANGOR	30/10/2002
31683193	ANGOR	30/08/2004
32204959	ANGOR	17/10/2005
32111753	ANGOR	02/02/1992
31474377	ANGOR	26/11/1996
32265697	ANGOR	25/04/2003
32099327	ANGOR	04/08/2005
32273397	ANGOR	25/02/2004
31731106	ANGOR	13/09/2006
31282676	ANGOR	19/09/2007
31828425	ANGOR	18/01/2010
32202991	ANGOR	11/06/1999
32197469	ANGOR	10/11/2009
32195373	ANGOR	03/02/2004
31761844	ANGOR	19/06/2009
31467050	ANGOR	29/05/2003
32006368	ANGOR	12/04/2002
31481139	ANGOR	22/04/1996
31886795	ANGOR	01/01/2001
31346856	ANGOR	13/03/2007
31417692	ANGOR	17/05/2006
31419290	ANGOR	16/04/2002
31528759	ANGOR	25/04/2002
32236750	ANGOR	24/11/2002
32174291	ANGOR	13/12/2007
31258244	ANGOR	29/09/2006
31162260	ANGOR	04/06/2004
31031949	ANGOR	17/07/2003
31153085	ANGOR	19/01/2007
31270547	ANGOR	25/08/2010
32227283	ANGOR	23/04/2002
32008235	ANGOR	12/11/1980
31791803	ANGOR	25/07/2004
31336014	ANGOR	12/09/2005
31539806	ANGOR	04/03/2009
31370471	ANGOR	09/07/2007
32156268	ANGOR	03/04/2002
31611594	ANGOR	06/08/2008
31054447	ANGOR	07/01/2007
31929084	ANGOR	25/06/2007
31219593	ANGOR	01/10/2001
32185239	ANGOR	05/02/2009
31819996	ANGOR	07/01/2004
31693651	ANGOR	31/05/2006
31087682	ANGOR	02/04/2007
31805814	ANGOR	18/12/2008
31852671	ANGOR	23/01/2009
31557460	ANGOR	08/09/2008
31084479	ANGOR	22/01/1995
31244480	ANGOR	03/05/2011
32065291	ANGOR	07/04/2005
31734758	ANGOR	03/02/2004
31939506	ANGOR	27/11/2006
31183406	ANGOR	08/04/2008
32203926	ANGOR	27/04/2010
32090445	ANGOR	07/04/2010
32073892	ANGOR	30/07/2010
31487065	ANGOR	12/11/2004
31159044	ANGOR	01/01/1983
31391383	ANGOR	17/04/2008
31579343	ANGOR	26/05/2009
32090626	ANGOR	12/02/2004
31767577	ANGOR	01/09/1999
31883663	ANGOR	15/03/2005
31486840	ANGOR	14/08/2006
32017943	ANGOR	03/04/2007
31115224	ANGOR	05/07/2002
31465993	ANGOR	03/10/2003
31641763	ANGOR	30/06/2009
31960354	ANGOR	27/11/2006
31805078	ANGOR	26/01/1997
32158955	ANGOR	10/06/2008
31937215	ANGOR	01/01/1992
32263832	ANGOR	13/06/2008
32181681	ANGOR	29/06/2009
31556912	ANGOR	08/11/2005
32206935	ANGOR	13/04/2000
32151556	ANGOR	02/07/2003
31517608	ANGOR	30/04/2008
32129185	ANGOR	03/01/2008
31166868	ANGOR	03/05/2011
31342309	ANGOR	12/05/2004
31908779	ANGOR	17/04/2009
31473263	ANGOR	21/05/2008
31192222	ANGOR	02/03/2007
32266454	ANGOR	20/11/2002
31809237	ANGOR	30/03/2000
31625738	ANGOR	04/05/1946
31689849	ANGOR	06/10/2003
31561962	ANGOR	26/02/2008
32029170	ANGOR	30/06/2005
31404878	ANGOR	05/12/2008
31797705	ANGOR	26/02/2008
31927385	ANGOR	01/01/1994
32195427	ANGOR	27/01/2011
32283093	ANGOR	05/09/2008
31733685	ANGOR	24/01/2003
32072112	ANGOR	23/02/2010
31593910	ANGOR	23/04/2001
31967668	ANGOR	29/01/2009
31921740	ANGOR	15/04/2008
