patient_id	covar_name	date
25052542	A10BB12	04/09/2009
8784088	A10BB12	21/12/2010
8279983	A10BB12	18/05/2011
21152973	A10BB12	24/05/2011
8979056	A10BB12	27/09/2010
1068704	A10BB12	21/07/2008
9212611	A10BB12	27/07/2006
730169	A10BB12	11/10/2007
9302090	A10BB12	13/05/2011
734248	A10BB12	22/12/2010
8558909	A10BB12	21/07/2009
8277775	A10BB12	07/01/2010
8979574	A10BB12	08/02/2008
9294943	A10BB12	26/05/2011
1069182	A10BB12	28/09/2007
1069172	A10BB12	17/04/2009
8639376	A10BB12	30/08/2007
5029306	A10BB12	25/02/2011
731159	A10BB12	07/01/2010
19184518	A10BB12	04/01/2011
25052298	A10BB12	13/04/2010
1063691	A10BB12	17/05/2011
1069126	A10BB12	04/12/2008
16530712	A10BB12	05/06/2009
8292030	A10BB12	01/12/2003
10394089	A10BB12	24/08/2008
10266866	A10BB12	28/04/2011
9304423	A10BB12	03/12/2010
21152754	A10BB12	03/05/2011
9249839	A10BB12	26/03/2010
608353	A10BB12	18/02/2011
639912	A10BB12	08/04/2011
1276830	A10BB12	30/06/2008
1444332	A10BB12	25/05/2011
7971599	A10BB12	13/10/2009
4699898	A10BB12	07/05/2010
7971968	A10BB12	10/09/2008
24719884	A10BB12	26/11/2007
24719988	A10BB12	12/05/2011
7770079	A10BB12	11/12/2007
1262678	A10BB12	24/11/2009
8068179	A10BB12	14/10/2008
25960205	A10BB12	29/05/2011
1278011	A10BB12	21/12/2010
565153	A10BB12	18/02/2009
674262	A10BB12	01/03/2011
674219	A10BB12	21/03/2011
1443624	A10BB12	11/01/2011
1211126	A10BB12	09/03/2011
1133221	A10BB12	17/01/2007
135900	A10BB12	24/03/2002
1638747	A10BB12	30/05/2007
1855368	A10BB12	08/09/2004
1581159	A10BB12	28/06/2010
1640603	A10BB12	21/02/2007
25915017	A10BB12	13/04/2011
998259	A10BB12	23/12/2009
1648154	A10BB12	11/05/2011
1648875	A10BB12	30/05/2011
1131941	A10BB12	31/03/2010
486308	A10BB12	10/05/2011
25913321	A10BB12	21/10/2006
717026	A10BB12	27/01/2011
1558068	A10BB12	05/03/2007
1101196	A10BB12	11/05/2011
2070080	A10BB12	12/04/2011
2070964	A10BB12	08/06/2010
1647977	A10BB12	11/01/2006
2068620	A10BB12	16/05/2011
1752991	A10BB12	21/03/2011
7047183	A10BB12	28/12/2006
2520416	A10BB12	28/03/2011
2525914	A10BB12	10/05/2011
26461696	A10BB12	16/04/2011
26478282	A10BB12	16/11/2005
20147123	A10BB12	19/05/2004
17741284	A10BB12	19/02/2007
10085916	A10BB12	25/05/2011
1910243	A10BB12	26/12/2000
185359	A10BB12	25/03/2011
422491	A10BB12	20/05/2011
184887	A10BB12	04/03/2008
426744	A10BB12	07/02/2011
187189	A10BB12	25/05/2011
186409	A10BB12	13/11/2007
649902	A10BB12	03/04/2011
28055135	A10BB12	14/12/2009
26505114	A10BB12	27/04/2011
25535638	A10BB12	09/11/2005
24658550	A10BB12	13/05/2008
25743607	A10BB12	23/02/2011
24666922	A10BB12	04/04/2011
24667663	A10BB12	01/06/2009
1373198	A10BB12	20/05/2011
21553390	A10BB12	05/04/2011
1906965	A10BB12	21/07/2006
18191606	A10BB12	05/11/2009
18194120	A10BB12	30/04/2008
18197681	A10BB12	02/11/2005
18190987	A10BB12	04/04/2011
1019179	A10BB12	17/05/2011
26851371	A10BB12	25/12/2009
26776551	A10BB12	19/04/2011
26824685	A10BB12	04/09/2007
26776993	A10BB12	29/05/2011
26703830	A10BB12	16/05/2011
26624375	A10BB12	06/04/2011
26624474	A10BB12	01/08/2010
26829529	A10BB12	04/03/2011
26704047	A10BB12	21/09/2010
2989757	A10BB12	25/03/2011
13788822	A10BB12	24/05/2005
26628248	A10BB12	05/05/2011
26721085	A10BB12	14/02/2011
26642021	A10BB12	06/05/2011
26721016	A10BB12	10/05/2011
26620755	A10BB12	25/04/2007
2990113	A10BB12	21/12/2007
24655486	A10BB12	05/10/2009
24667198	A10BB12	26/05/2011
21651387	A10BB12	04/11/2010
21651855	A10BB12	22/07/2007
22512676	A10BB12	17/02/2011
26935278	A10BB12	16/05/2011
26912985	A10BB12	15/07/2010
26945353	A10BB12	11/05/2011
26945400	A10BB12	24/03/2011
26915143	A10BB12	23/06/2009
26949733	A10BB12	17/08/2005
26759164	A10BB12	23/09/2007
26879235	A10BB12	24/05/2011
26760220	A10BB12	02/05/2011
26776065	A10BB12	11/04/2011
26864665	A10BB12	20/04/2011
26710863	A10BB12	26/04/2011
26742475	A10BB12	21/06/2007
26768998	A10BB12	16/02/2007
26714735	A10BB12	21/09/2009
26899997	A10BB12	18/10/2010
26900451	A10BB12	16/04/2009
26887072	A10BB12	22/05/2011
26780757	A10BB12	19/03/2011
26783590	A10BB12	23/03/2011
26789993	A10BB12	20/04/2011
26742253	A10BB12	28/02/2011
26830866	A10BB12	12/05/2011
26711151	A10BB12	25/01/2011
26711219	A10BB12	04/05/2011
27072138	A10BB12	11/07/2008
26969569	A10BB12	15/01/2009
26976448	A10BB12	22/01/2011
27034975	A10BB12	23/05/2011
27136847	A10BB12	11/07/2002
27114481	A10BB12	11/03/2011
27116935	A10BB12	22/12/2010
27151273	A10BB12	16/11/2004
27133477	A10BB12	13/03/2010
27116163	A10BB12	15/11/2009
27104236	A10BB12	24/07/2010
27133601	A10BB12	11/01/2010
27064483	A10BB12	03/11/2009
27067103	A10BB12	11/04/2008
27026108	A10BB12	12/02/2011
27150732	A10BB12	07/11/2007
27170737	A10BB12	01/06/2011
27172399	A10BB12	26/05/2011
27159946	A10BB12	22/05/2011
27143681	A10BB12	11/04/2011
27127254	A10BB12	11/05/2011
27368382	A10BB12	03/06/2007
27317155	A10BB12	04/05/2011
27313906	A10BB12	17/05/2010
27314686	A10BB12	01/04/2008
27246351	A10BB12	22/01/2011
27317083	A10BB12	02/10/2005
27368805	A10BB12	27/05/2011
27361885	A10BB12	06/08/2010
27383112	A10BB12	09/11/2009
27386320	A10BB12	19/11/2009
27362271	A10BB12	16/02/2011
27218443	A10BB12	30/04/2008
27238217	A10BB12	24/05/2011
26989570	A10BB12	02/02/2011
26989189	A10BB12	16/03/2011
27596914	A10BB12	13/09/2008
27415382	A10BB12	14/01/2011
27493714	A10BB12	23/03/2011
27474528	A10BB12	09/06/2006
27658377	A10BB12	15/03/2008
27708195	A10BB12	10/03/2009
27764749	A10BB12	17/03/2004
27761424	A10BB12	25/03/2011
27716087	A10BB12	11/09/2008
27153250	A10BB12	26/03/2002
27284226	A10BB12	04/03/2002
27165699	A10BB12	11/04/2011
26637275	A10BB12	18/12/2008
27539673	A10BB12	26/05/2011
27686318	A10BB12	17/05/2011
27314117	A10BB12	17/08/2009
27673504	A10BB12	17/04/2011
184096	A10BB12	17/03/2011
27785173	A10BB12	30/05/2011
27684000	A10BB12	25/05/2011
27537397	A10BB12	28/01/2011
27597656	A10BB12	02/02/2009
27602350	A10BB12	09/05/2011
27444265	A10BB12	18/03/2004
27442007	A10BB12	06/02/2011
27591724	A10BB12	25/03/2008
27623692	A10BB12	24/03/2006
27589530	A10BB12	25/05/2011
26933407	A10BB12	17/04/2007
21651315	A10BB12	27/10/2009
27686913	A10BB12	16/09/2008
27695081	A10BB12	16/05/2007
27760549	A10BB12	28/04/2011
27718674	A10BB12	05/10/2004
428276	A10BB12	22/05/2009
27768740	A10BB12	10/05/2011
26872972	A10BB12	03/08/2010
27366636	A10BB12	16/05/2011
33022477	A10BB12	20/12/2004
33043763	A10BB12	18/04/2011
33106813	A10BB12	26/03/2002
33050607	A10BB12	17/12/2007
33030987	A10BB12	14/07/2008
33032891	A10BB12	27/04/2011
33045042	A10BB12	21/10/2010
33025640	A10BB12	02/08/2008
33045539	A10BB12	29/05/2001
33025068	A10BB12	23/04/2009
33054779	A10BB12	08/01/2007
33050773	A10BB12	22/05/2011
33004433	A10BB12	02/07/2010
33003806	A10BB12	25/02/2011
33063559	A10BB12	16/11/2007
33123534	A10BB12	20/08/2010
185054	A10BB12	08/01/2008
1372143	A10BB12	29/08/2002
33008240	A10BB12	16/10/2006
33091669	A10BB12	18/03/2011
16135277	A10BB12	05/02/2009
16183385	A10BB12	25/04/2011
16135633	A10BB12	09/03/2011
33089297	A10BB12	18/10/2006
33083395	A10BB12	31/05/2005
33108000	A10BB12	15/03/2011
33005415	A10BB12	30/05/2011
33043411	A10BB12	25/07/2006
33097532	A10BB12	19/04/2011
33011985	A10BB12	17/06/2003
33060722	A10BB12	17/09/2009
33007891	A10BB12	16/07/2009
33066033	A10BB12	19/04/2011
33024570	A10BB12	05/05/2011
33313168	A10BB12	27/04/2011
27878671	A10BB12	21/02/2003
18768076	A10BB12	07/07/2010
18771664	A10BB12	10/04/2007
16618603	A10BB12	28/03/2011
16597365	A10BB12	28/12/2004
23362937	A10BB12	22/01/2007
18755921	A10BB12	05/05/2011
24463738	A10BB12	24/03/2011
16712648	A10BB12	28/04/2011
23336381	A10BB12	09/05/2011
23366881	A10BB12	23/06/2010
33289335	A10BB12	24/03/2011
28019140	A10BB12	05/05/2011
23397279	A10BB12	09/05/2011
16636819	A10BB12	12/09/2007
23368645	A10BB12	26/01/2011
16631760	A10BB12	23/12/2004
23354037	A10BB12	06/05/2011
23410691	A10BB12	15/02/2011
23412051	A10BB12	02/12/2010
23325461	A10BB12	29/03/2011
33289106	A10BB12	25/01/2010
16615324	A10BB12	26/08/2009
23334083	A10BB12	23/05/2011
16127130	A10BB12	18/09/2007
16603341	A10BB12	18/09/2007
33312890	A10BB12	02/12/2010
18755454	A10BB12	05/01/2011
16648484	A10BB12	05/06/2008
23367680	A10BB12	01/06/2011
31243783	A10BB12	28/04/2009
31053990	A10BB12	30/06/2005
31447892	A10BB12	21/04/2010
31271455	A10BB12	30/10/2008
32246675	A10BB12	14/12/2010
31396351	A10BB12	02/03/2011
31596585	A10BB12	08/10/2008
31611998	A10BB12	20/08/2010
31614093	A10BB12	29/10/2009
31394939	A10BB12	12/11/2008
31143235	A10BB12	27/12/2010
31565972	A10BB12	13/04/2010
31800609	A10BB12	27/10/2010
31404591	A10BB12	12/12/2008
31038591	A10BB12	16/04/2011
31217229	A10BB12	29/12/2010
31142772	A10BB12	06/03/2008
31559193	A10BB12	26/08/2010
31245074	A10BB12	15/12/2008
32189808	A10BB12	29/11/2010
31507581	A10BB12	20/11/2007
31694959	A10BB12	30/12/2010
32028950	A10BB12	24/11/2009
32128395	A10BB12	03/04/2006
32240004	A10BB12	29/11/2004
31685583	A10BB12	18/12/2007
31797390	A10BB12	18/03/2010
31822050	A10BB12	02/03/2011
31608488	A10BB12	23/06/2008
31330729	A10BB12	07/02/2011
32006368	A10BB12	02/12/2008
32176725	A10BB12	27/11/2006
32014902	A10BB12	16/12/2009
31637166	A10BB12	08/04/2011
31270547	A10BB12	23/12/2010
31271333	A10BB12	01/10/2003
31856647	A10BB12	17/07/2008
31570040	A10BB12	09/12/2010
31430347	A10BB12	16/02/2006
31204532	A10BB12	24/08/2006
31970294	A10BB12	05/02/2011
32245403	A10BB12	20/01/2011
31369349	A10BB12	16/11/2009
31504927	A10BB12	24/01/2010
31470090	A10BB12	11/01/2011
31216105	A10BB12	12/04/2011
31311199	A10BB12	20/03/2007
31656010	A10BB12	19/07/2006
31819648	A10BB12	31/10/2008
31833135	A10BB12	23/11/2010
32269432	A10BB12	06/11/2007
31822263	A10BB12	13/11/2006
31146142	A10BB12	07/01/2011
31344355	A10BB12	04/12/2007
31576739	A10BB12	06/11/2006
32059240	A10BB12	23/12/2008
31699160	A10BB12	22/10/2008
31129489	A10BB12	21/12/2009
31701260	A10BB12	15/10/2009
31281596	A10BB12	17/10/2008
31746758	A10BB12	19/09/2007
31045796	A10BB12	24/03/2010
31823756	A10BB12	17/08/2006
32266454	A10BB12	02/08/2006
32062791	A10BB12	28/01/2011
31947491	A10BB12	09/11/2009
32011511	A10BB12	03/02/2003
