patient_id	covar_name	date
12790716	AIT	30/11/2006
7023743	AIT	30/04/2007
9319410	AIT	06/07/2004
12200269	AIT	25/03/2009
16109927	AIT	21/10/2006
8784390	AIT	09/04/2008
12689817	AIT	29/03/1995
11407938	AIT	25/02/2010
11995010	AIT	07/10/2008
24722159	AIT	23/12/2004
8652950	AIT	17/12/2003
1340637	AIT	13/08/2009
24004747	AIT	12/05/2008
10394066	AIT	01/01/2000
9250922	AIT	24/02/2009
206194	AIT	14/05/2009
12773101	AIT	03/01/2005
12220480	AIT	05/06/2008
25041749	AIT	25/05/2010
7152290	AIT	01/12/2006
1069172	AIT	16/09/2008
9311118	AIT	24/10/1991
5027051	AIT	30/10/2009
9299339	AIT	26/05/2005
12173193	AIT	16/11/2006
7095167	AIT	11/11/2008
9382870	AIT	08/02/2011
21974194	AIT	29/07/1997
1731389	AIT	05/02/2002
9388668	AIT	16/02/2009
12689596	AIT	05/11/2004
21870782	AIT	16/01/2008
173267	AIT	13/09/2000
21871587	AIT	02/08/2005
3333134	AIT	16/02/2000
18163097	AIT	02/06/2008
8783486	AIT	26/04/2010
173433	AIT	28/07/2008
11661691	AIT	18/12/2008
23996759	AIT	11/07/2006
24940643	AIT	10/09/2002
18366394	AIT	11/08/2006
1210825	AIT	28/04/2011
23511042	AIT	18/12/2007
7776172	AIT	21/12/2006
7770599	AIT	15/04/2011
1665322	AIT	30/03/2005
645794	AIT	15/04/2008
1853230	AIT	13/06/1991
4699898	AIT	08/12/2005
13984759	AIT	29/12/2005
516372	AIT	14/03/2008
1206194	AIT	27/01/2004
8933284	AIT	18/08/2003
6602655	AIT	26/07/1929
7771937	AIT	08/05/2006
7970589	AIT	29/09/2010
6601131	AIT	02/04/2003
6841764	AIT	23/05/2011
539779	AIT	01/10/2009
5991761	AIT	13/03/2008
538978	AIT	10/03/2011
6594523	AIT	05/07/2000
7849145	AIT	27/01/2011
1349681	AIT	23/12/2009
12613860	AIT	02/03/2005
4700540	AIT	05/04/2011
8955143	AIT	14/07/2003
7776373	AIT	01/07/2002
12189048	AIT	07/07/1995
2552474	AIT	05/07/2006
1209005	AIT	27/01/2005
1852196	AIT	15/10/2009
15798351	AIT	06/03/2008
998259	AIT	17/09/2009
1006203	AIT	19/05/2010
890246	AIT	31/07/2001
4678967	AIT	13/07/2005
890168	AIT	02/06/1928
2218596	AIT	28/08/1998
2048950	AIT	23/12/2005
2038762	AIT	01/01/1996
1765422	AIT	12/06/1930
759135	AIT	08/01/2009
3052996	AIT	30/03/2008
2759631	AIT	16/11/2009
2774142	AIT	10/07/2008
7048927	AIT	04/11/2002
2811851	AIT	29/10/2009
2764043	AIT	29/05/2009
2574919	AIT	07/10/2003
2519294	AIT	21/10/2003
16980193	AIT	03/05/2007
2408212	AIT	20/03/2002
26456684	AIT	31/12/2004
24847569	AIT	11/05/2009
17324100	AIT	17/03/2011
17041554	AIT	04/01/2006
26235928	AIT	10/07/2009
17741843	AIT	14/02/2000
16836654	AIT	02/01/2007
14347072	AIT	23/03/2011
186183	AIT	18/04/2009
2960150	AIT	27/09/2004
28077381	AIT	16/01/2009
423546	AIT	01/01/1997
2407083	AIT	11/11/2000
28072902	AIT	28/06/2002
28060557	AIT	24/09/2003
28072154	AIT	04/10/2005
25648817	AIT	16/12/2008
24661671	AIT	04/06/2008
24664553	AIT	22/01/2011
24657011	AIT	21/11/2001
24663987	AIT	06/04/2009
1900288	AIT	16/10/1946
1014856	AIT	11/12/2003
18190205	AIT	19/03/2003
1365817	AIT	16/05/2007
1363788	AIT	16/11/2004
1373976	AIT	25/06/2007
1900381	AIT	24/05/2009
422231	AIT	24/02/2011
18193980	AIT	16/03/2009
19800484	AIT	16/02/2011
18196791	AIT	05/02/2002
19801596	AIT	10/03/2008
2986710	AIT	23/12/2008
1030188	AIT	07/06/2006
1910693	AIT	29/06/1995
1366720	AIT	01/01/2004
26630599	AIT	01/05/2010
26830314	AIT	31/10/2009
14311205	AIT	18/06/2002
3254435	AIT	12/03/2009
12975544	AIT	11/02/2008
16105498	AIT	21/02/2001
21064366	AIT	12/03/2009
26630037	AIT	13/03/2006
24667198	AIT	23/12/2010
24651623	AIT	18/11/2004
24582582	AIT	20/02/2010
24581986	AIT	20/06/2010
22922776	AIT	16/10/2000
21651387	AIT	24/11/2006
27012625	AIT	19/04/2011
26730017	AIT	28/11/2003
26713271	AIT	01/02/2008
26742445	AIT	01/11/2007
26864665	AIT	05/05/1939
26887048	AIT	30/08/2005
26888601	AIT	13/01/2011
26804701	AIT	15/04/2006
26783712	AIT	22/12/2010
26824274	AIT	21/01/2002
26781490	AIT	04/08/2006
26715346	AIT	03/09/2002
26977158	AIT	05/07/1993
27109318	AIT	15/12/2009
27085041	AIT	16/11/2004
27033025	AIT	14/05/2004
27062156	AIT	27/03/2011
27057227	AIT	14/01/2010
26998494	AIT	14/03/2006
26997004	AIT	02/12/2004
26994454	AIT	25/06/2010
26981833	AIT	23/03/2000
27041680	AIT	13/03/2003
26996642	AIT	18/11/2004
27039817	AIT	13/05/2003
27400146	AIT	22/12/2007
27172399	AIT	08/01/2010
27172241	AIT	03/07/2002
27384579	AIT	09/10/2002
27211457	AIT	01/01/2000
27316566	AIT	23/04/2009
27320518	AIT	12/05/2003
27369903	AIT	14/10/2004
27349973	AIT	14/09/2010
27300856	AIT	16/10/2003
27360856	AIT	12/04/2005
27362271	AIT	25/11/2005
27168973	AIT	07/10/2005
27197845	AIT	20/03/2010
26990612	AIT	05/10/2007
26954926	AIT	22/08/2002
27218860	AIT	01/06/2001
27589323	AIT	07/06/2009
27632436	AIT	21/04/2008
27546225	AIT	02/06/1916
27660974	AIT	06/04/2005
27577033	AIT	26/10/2009
27592722	AIT	29/11/2010
27444188	AIT	12/08/2003
27473960	AIT	09/02/2009
27126578	AIT	07/09/2010
27147888	AIT	26/11/2003
27153250	AIT	11/07/2006
26720527	AIT	24/02/2009
24579212	AIT	17/12/2003
18187165	AIT	16/08/2001
27773698	AIT	30/04/2003
27684839	AIT	18/11/2002
27546527	AIT	13/11/2008
27458555	AIT	11/06/2005
27664085	AIT	01/03/2002
27668538	AIT	26/06/2006
27355732	AIT	08/04/2005
27621975	AIT	04/03/2009
27480179	AIT	12/12/1995
27477146	AIT	13/04/2010
27673521	AIT	10/05/2006
27083023	AIT	12/09/2008
27764992	AIT	19/05/2009
27398357	AIT	29/11/1927
25742764	AIT	27/04/2009
27719296	AIT	07/04/2011
27760886	AIT	16/09/2009
27676239	AIT	21/11/2000
27757222	AIT	01/01/2001
27804349	AIT	28/01/2011
27720525	AIT	28/12/2005
27453651	AIT	13/08/2007
27775707	AIT	13/12/2002
26887104	AIT	06/11/2006
27087876	AIT	09/08/2004
33068739	AIT	10/05/2011
33074802	AIT	15/05/1918
33069367	AIT	24/03/2008
33051958	AIT	01/10/2001
33018738	AIT	15/01/2008
33056431	AIT	27/01/2003
33039975	AIT	15/05/1999
33073771	AIT	05/03/2002
33015655	AIT	19/10/2005
33081991	AIT	13/02/1995
27605240	AIT	11/04/2007
1361620	AIT	24/02/2005
27084187	AIT	05/02/2009
33020523	AIT	29/03/2010
23408153	AIT	26/02/2002
14187440	AIT	06/04/2007
16135277	AIT	30/06/2000
16178210	AIT	02/10/2000
16654622	AIT	17/04/2009
33025051	AIT	23/05/2011
33055487	AIT	08/08/2008
33105580	AIT	15/12/2005
33024570	AIT	23/06/2006
16705530	AIT	10/03/2008
16135123	AIT	17/01/2007
18771482	AIT	13/04/1991
27984436	AIT	16/10/1991
16138404	AIT	03/03/2006
23362747	AIT	11/01/2006
18771664	AIT	28/07/2004
16618603	AIT	21/09/2009
16182953	AIT	19/12/2008
23408488	AIT	02/08/2010
23362181	AIT	16/02/2011
28033454	AIT	11/01/2006
18758326	AIT	19/07/2004
27849109	AIT	08/10/2008
33224173	AIT	01/01/1987
23334037	AIT	28/07/2010
20989739	AIT	15/02/2010
23313268	AIT	01/01/2000
16177936	AIT	20/10/2003
16636819	AIT	10/06/2008
16637047	AIT	10/03/1959
23353839	AIT	18/06/2009
16631801	AIT	14/08/2008
33238515	AIT	08/07/2008
27915568	AIT	19/12/1937
27927780	AIT	30/11/2010
23326929	AIT	09/12/2008
28000578	AIT	21/11/2009
20982124	AIT	18/02/2009
16607575	AIT	05/08/2009
33289106	AIT	21/01/2009
33254413	AIT	11/04/2011
16126950	AIT	16/01/1995
33306337	AIT	15/05/2001
28013056	AIT	06/03/2007
23346655	AIT	30/09/2010
16602630	AIT	19/10/2004
16623344	AIT	08/04/2007
16598726	AIT	03/05/2011
23354017	AIT	16/03/1999
16712077	AIT	25/05/2004
33224968	AIT	18/11/2010
23401717	AIT	01/04/2010
33315724	AIT	14/10/2010
31590499	AIT	29/04/2003
31389763	AIT	15/07/2009
31541778	AIT	07/09/2005
31530945	AIT	15/03/2011
31954565	AIT	15/10/1989
31451455	AIT	21/01/2009
31395361	AIT	13/01/2008
31420742	AIT	12/05/2009
31259169	AIT	18/07/2008
31494769	AIT	09/08/2006
31511644	AIT	01/03/1997
31934644	AIT	05/07/2006
31799718	AIT	23/05/2006
31938606	AIT	17/12/2010
31942667	AIT	03/04/1992
32117625	AIT	13/09/2007
31858594	AIT	01/01/1986
32118654	AIT	20/10/1992
32255201	AIT	01/10/2004
31267167	AIT	25/01/2011
31753190	AIT	29/06/2010
31816975	AIT	10/03/2004
31779494	AIT	13/07/2009
32122580	AIT	11/12/2006
31496213	AIT	26/02/2008
31061135	AIT	22/07/2009
31655762	AIT	17/05/2011
31825550	AIT	27/01/2005
31225273	AIT	25/03/2004
31059046	AIT	16/07/2008
31905886	AIT	18/07/2006
31997788	AIT	26/06/1995
32105750	AIT	22/09/2005
32185788	AIT	31/03/2003
31476847	AIT	29/11/2002
31231113	AIT	24/02/2009
31874420	AIT	17/08/2009
31213831	AIT	01/12/2001
31698052	AIT	25/09/2009
31166521	AIT	09/12/2008
32211007	AIT	23/02/2005
31480774	AIT	01/07/2006
31392273	AIT	19/04/2010
31622713	AIT	10/01/1974
32213697	AIT	12/05/2009
32206045	AIT	25/02/2009
31184673	AIT	17/09/2010
32100016	AIT	19/04/2009
31779283	AIT	25/06/2010
32002948	AIT	18/06/2003
32261215	AIT	30/03/2011
31526446	AIT	18/12/2010
32089605	AIT	01/12/1998
31394212	AIT	01/11/2003
31911327	AIT	18/07/1990
31104821	AIT	04/03/1980
31555386	AIT	25/08/2008
31990571	AIT	02/01/2008
32199151	AIT	02/03/2006
31061509	AIT	13/02/2009
31924531	AIT	17/03/2003
31377253	AIT	24/06/2010
31086081	AIT	23/03/2006
32159787	AIT	23/02/2010
31072055	AIT	23/10/2007
31289840	AIT	07/02/2007
31467050	AIT	10/08/2006
31730481	AIT	17/03/2010
32046883	AIT	12/06/2010
31367824	AIT	19/12/1993
31569281	AIT	26/03/2009
31864534	AIT	17/02/2006
31586866	AIT	17/09/2008
31415742	AIT	11/03/2008
31634514	AIT	03/06/2009
32148445	AIT	02/07/2004
31756578	AIT	19/02/2004
32132565	AIT	05/09/2008
31221320	AIT	24/01/2008
31159201	AIT	28/12/2004
31312456	AIT	16/04/2009
31339822	AIT	20/05/2010
31329418	AIT	13/10/2009
31103697	AIT	18/03/2011
31249592	AIT	17/08/2006
32015901	AIT	06/06/2006
31429454	AIT	07/12/2009
32250083	AIT	08/07/2009
31881754	AIT	10/11/2010
31722771	AIT	05/02/2004
31523713	AIT	14/02/2002
31833135	AIT	10/01/2011
31324107	AIT	06/03/2007
32273927	AIT	02/10/2006
31110042	AIT	22/02/2001
31954783	AIT	18/02/2010
31359498	AIT	01/06/2006
31674612	AIT	27/05/2008
31828038	AIT	06/05/2002
31746758	AIT	19/05/2006
31426144	AIT	26/11/2001
31929829	AIT	05/04/2005
32101400	AIT	09/02/2010
31436135	AIT	31/03/2003
31697109	AIT	05/11/2010
31209541	AIT	19/01/2006
31291105	AIT	05/07/2002
31888473	AIT	06/03/2007
31608836	AIT	01/01/1995
31905297	AIT	13/12/2005
31733685	AIT	20/04/2009
31165916	AIT	13/01/2011
