patient_id	covar_name	date
730169	A10BG03	23/01/2008
8277775	A10BG03	14/09/2006
5813351	A10BG03	19/04/2011
1063691	A10BG03	17/05/2011
1068416	A10BG03	20/08/2008
15900346	A10BG03	30/03/2005
10266866	A10BG03	04/11/2008
1069269	A10BG03	10/02/2011
1851987	A10BG03	10/08/2006
1545758	A10BG03	30/05/2011
1208133	A10BG03	25/09/2008
1424080	A10BG03	22/11/2007
716654	A10BG03	23/09/2008
25915017	A10BG03	09/06/2010
717026	A10BG03	26/04/2011
25776176	A10BG03	17/05/2005
2133314	A10BG03	04/05/2011
1647977	A10BG03	30/05/2011
16979853	A10BG03	25/01/2008
9848198	A10BG03	17/04/2008
26258038	A10BG03	04/11/2008
28044182	A10BG03	10/09/2007
186409	A10BG03	08/03/2004
28043953	A10BG03	18/05/2011
26792577	A10BG03	10/03/2011
26945353	A10BG03	24/03/2011
26776065	A10BG03	22/04/2011
27474528	A10BG03	17/10/2010
27764749	A10BG03	16/08/2008
27759030	A10BG03	30/04/2011
27242158	A10BG03	20/10/2005
33040260	A10BG03	02/07/2008
33093896	A10BG03	07/07/2009
33045539	A10BG03	11/05/2011
33063559	A10BG03	28/07/2008
33091669	A10BG03	18/05/2011
16640292	A10BG03	21/07/2005
23407522	A10BG03	29/12/2009
16634931	A10BG03	23/05/2011
33063789	A10BG03	17/05/2011
33082095	A10BG03	01/12/2010
23407899	A10BG03	18/04/2011
33306707	A10BG03	27/04/2011
16625697	A10BG03	05/10/2009
33208331	A10BG03	27/01/2011
27847497	A10BG03	09/05/2011
23339422	A10BG03	24/02/2009
16615324	A10BG03	27/04/2011
16622928	A10BG03	04/12/2008
16613468	A10BG03	31/03/2008
16127130	A10BG03	13/05/2003
21102991	A10BG03	25/09/2008
31047161	A10BG03	23/03/2011
31644416	A10BG03	28/06/2010
31424621	A10BG03	06/05/2009
31485859	A10BG03	08/04/2011
31222949	A10BG03	24/09/2010
31502961	A10BG03	06/02/2007
31087176	A10BG03	07/10/2008
31355037	A10BG03	02/09/2010
31074963	A10BG03	21/12/2010
31973866	A10BG03	23/11/2010
31746758	A10BG03	18/10/2010
32266454	A10BG03	01/02/2008
31422127	A10BG03	02/12/2009
31853795	A10BG03	29/04/2004
