patient_id	covar_name	date
8294969	A10BB09	13/07/2010
12692050	A10BB09	26/05/2011
739474	A10BB09	06/12/2009
3938112	A10BB09	10/05/2011
9231971	A10BB09	01/02/2010
12479828	A10BB09	17/05/2011
949778	A10BB09	07/03/2005
15900660	A10BB09	04/05/2011
6179188	A10BB09	14/11/2007
3289024	A10BB09	30/03/2011
3939012	A10BB09	05/05/2011
6177297	A10BB09	28/04/2011
9383919	A10BB09	18/12/2008
18582121	A10BB09	05/11/2010
11660918	A10BB09	07/07/2010
9372898	A10BB09	19/11/2008
1069182	A10BB09	04/10/2004
9294363	A10BB09	28/05/2010
10268936	A10BB09	31/05/2011
731159	A10BB09	15/10/2007
25052298	A10BB09	28/07/2010
10395603	A10BB09	24/10/2008
20546433	A10BB09	19/05/2011
10246462	A10BB09	20/04/2011
8292030	A10BB09	18/09/2009
17172387	A10BB09	27/05/2011
730440	A10BB09	27/04/2011
5813370	A10BB09	17/04/2011
9311451	A10BB09	01/06/2011
23471643	A10BB09	22/06/2010
6752418	A10BB09	25/05/2011
17170104	A10BB09	28/05/2011
8783486	A10BB09	27/04/2010
7352620	A10BB09	15/03/2006
10331347	A10BB09	25/05/2011
1851987	A10BB09	09/12/2009
7965989	A10BB09	27/05/2011
1545758	A10BB09	21/04/2010
24719884	A10BB09	14/02/2003
1295941	A10BB09	06/11/2003
6841316	A10BB09	13/03/2007
6213484	A10BB09	30/11/2010
1263776	A10BB09	03/02/2005
12605907	A10BB09	17/07/2008
1665187	A10BB09	19/05/2011
7770079	A10BB09	17/05/2011
6603579	A10BB09	17/05/2011
1202324	A10BB09	20/08/2006
7801913	A10BB09	04/05/2011
8956746	A10BB09	07/11/2007
7776373	A10BB09	09/05/2011
1425106	A10BB09	19/03/2004
1443624	A10BB09	14/10/2005
135900	A10BB09	20/03/2002
25860190	A10BB09	25/05/2011
25892496	A10BB09	25/05/2011
1581260	A10BB09	30/09/2010
2139902	A10BB09	13/10/2004
2059982	A10BB09	21/12/2009
2133531	A10BB09	19/05/2011
2162696	A10BB09	03/04/2011
2053434	A10BB09	20/05/2011
2040264	A10BB09	27/04/2011
905655	A10BB09	06/10/2010
1683150	A10BB09	13/04/2011
2055126	A10BB09	19/04/2011
2055265	A10BB09	24/09/2010
2777238	A10BB09	06/04/2009
2777495	A10BB09	27/05/2011
2812092	A10BB09	29/10/2009
3049212	A10BB09	15/04/2011
4088249	A10BB09	11/05/2005
2778183	A10BB09	19/05/2011
2774142	A10BB09	15/05/2011
2813159	A10BB09	07/10/2009
2774327	A10BB09	23/05/2011
2763841	A10BB09	24/08/2006
3055444	A10BB09	09/07/2009
2524518	A10BB09	31/08/2005
2407328	A10BB09	17/05/2011
2520741	A10BB09	23/05/2011
2755318	A10BB09	17/02/2011
2755836	A10BB09	10/02/2009
2525914	A10BB09	13/11/2003
2525520	A10BB09	18/02/2011
16979853	A10BB09	05/04/2006
26458657	A10BB09	14/09/2010
26409683	A10BB09	20/04/2011
7129492	A10BB09	11/05/2011
8116685	A10BB09	05/05/2011
7036365	A10BB09	25/03/2011
7229328	A10BB09	04/12/2006
26243506	A10BB09	20/11/2006
7142308	A10BB09	25/04/2011
26243303	A10BB09	10/05/2011
26338790	A10BB09	13/05/2011
17324116	A10BB09	22/08/2005
433263	A10BB09	19/05/2011
266315	A10BB09	08/04/2011
1754702	A10BB09	13/05/2011
187189	A10BB09	03/08/2009
28064907	A10BB09	10/08/2009
28088132	A10BB09	29/04/2011
28052032	A10BB09	09/05/2011
28064975	A10BB09	05/01/2011
28043643	A10BB09	01/06/2011
28071034	A10BB09	10/03/2011
28057599	A10BB09	17/03/2009
24661814	A10BB09	24/04/2011
24666863	A10BB09	16/12/2009
24655998	A10BB09	20/04/2011
25742981	A10BB09	10/05/2011
25743607	A10BB09	10/04/2008
24657011	A10BB09	15/02/2008
1362938	A10BB09	24/04/2011
1020566	A10BB09	27/05/2011
1015611	A10BB09	25/05/2011
1029701	A10BB09	18/03/2010
1913183	A10BB09	28/04/2011
1363828	A10BB09	21/05/2011
2989739	A10BB09	16/11/2010
26851371	A10BB09	10/06/2010
26628519	A10BB09	31/05/2011
26706338	A10BB09	13/05/2011
26792577	A10BB09	26/05/2011
16842943	A10BB09	03/09/2008
26620755	A10BB09	01/02/2006
16192804	A10BB09	03/05/2011
2990113	A10BB09	27/05/2011
24578320	A10BB09	15/05/2011
24528370	A10BB09	16/08/2010
26963483	A10BB09	10/04/2011
26920797	A10BB09	14/12/2005
26895844	A10BB09	31/05/2011
26932935	A10BB09	31/05/2011
26714937	A10BB09	27/01/2011
26833703	A10BB09	15/03/2011
26830866	A10BB09	15/02/2011
27072138	A10BB09	08/05/2011
27136847	A10BB09	09/09/2002
27062005	A10BB09	18/05/2011
27066049	A10BB09	23/05/2011
27064536	A10BB09	30/05/2011
27031301	A10BB09	25/05/2011
27063095	A10BB09	18/05/2011
27150732	A10BB09	24/04/2011
27171122	A10BB09	20/06/2009
27362443	A10BB09	11/10/2006
27217926	A10BB09	16/12/2010
27368382	A10BB09	03/06/2007
27317155	A10BB09	10/09/2003
27314686	A10BB09	11/08/2008
27528401	A10BB09	29/05/2011
27345639	A10BB09	18/04/2007
27384224	A10BB09	15/05/2011
27217738	A10BB09	14/07/2006
26955705	A10BB09	19/05/2009
27169743	A10BB09	03/05/2011
27574600	A10BB09	18/08/2010
27632256	A10BB09	27/04/2011
27427637	A10BB09	25/05/2011
27474528	A10BB09	11/10/2008
27473971	A10BB09	04/11/2010
27469908	A10BB09	28/05/2011
27572382	A10BB09	28/04/2011
27757050	A10BB09	10/05/2011
27708195	A10BB09	09/05/2011
27764749	A10BB09	04/03/2006
27752383	A10BB09	19/01/2008
27719042	A10BB09	04/05/2011
27242158	A10BB09	15/03/2005
27153250	A10BB09	22/05/2011
27284226	A10BB09	24/05/2011
648889	A10BB09	12/04/2011
27164268	A10BB09	17/03/2011
27773248	A10BB09	20/04/2011
27563279	A10BB09	27/05/2011
27708450	A10BB09	16/07/2010
27682597	A10BB09	30/05/2011
27674137	A10BB09	10/05/2011
27163713	A10BB09	30/05/2011
26709865	A10BB09	21/04/2009
27241868	A10BB09	08/04/2011
27780914	A10BB09	21/05/2011
27444265	A10BB09	01/01/2006
27527439	A10BB09	31/08/2009
27398357	A10BB09	27/09/2010
27709323	A10BB09	23/10/2006
27716815	A10BB09	01/03/2010
27025860	A10BB09	30/04/2011
19803797	A10BB09	09/04/2011
26941998	A10BB09	16/05/2011
27037506	A10BB09	02/01/2010
33101389	A10BB09	28/03/2011
33030987	A10BB09	28/05/2011
33002793	A10BB09	26/05/2011
33025068	A10BB09	17/06/2008
1361620	A10BB09	29/12/2008
1372143	A10BB09	09/04/2011
16630809	A10BB09	28/07/2005
23407522	A10BB09	26/05/2011
16712669	A10BB09	25/05/2011
33042798	A10BB09	12/08/2010
33043411	A10BB09	25/05/2011
33050859	A10BB09	07/03/2011
33011985	A10BB09	30/11/2005
33058715	A10BB09	20/11/2001
33066033	A10BB09	28/04/2006
16705563	A10BB09	09/05/2011
16683944	A10BB09	16/05/2011
27878671	A10BB09	14/08/2006
33265198	A10BB09	18/05/2011
21100250	A10BB09	01/06/2011
18758648	A10BB09	26/03/2010
33245853	A10BB09	15/11/2004
18758326	A10BB09	11/04/2011
16654162	A10BB09	28/05/2009
33231021	A10BB09	25/06/2008
23339422	A10BB09	26/06/2009
23325742	A10BB09	30/04/2010
20985394	A10BB09	30/05/2011
18768769	A10BB09	25/04/2011
23355331	A10BB09	13/08/2009
23346962	A10BB09	22/03/2011
20985576	A10BB09	19/04/2011
16599332	A10BB09	11/02/2010
16637664	A10BB09	19/05/2011
33235211	A10BB09	15/12/2004
23367381	A10BB09	12/01/2009
23401464	A10BB09	27/05/2011
16186784	A10BB09	02/02/2010
32269071	A10BB09	22/12/2009
31637638	A10BB09	25/07/2010
32005939	A10BB09	15/04/2011
31877026	A10BB09	29/12/2009
31638063	A10BB09	10/02/2011
32144827	A10BB09	07/09/2010
32184157	A10BB09	14/11/2007
31225025	A10BB09	25/11/2009
31053990	A10BB09	25/02/2010
31391321	A10BB09	21/12/2010
31644416	A10BB09	19/04/2010
31504878	A10BB09	03/12/2008
31642740	A10BB09	22/02/2011
31391599	A10BB09	07/12/2009
32026760	A10BB09	12/03/2011
31238053	A10BB09	02/05/2011
32023018	A10BB09	29/03/2010
31271455	A10BB09	06/09/2010
31207975	A10BB09	03/10/2006
31894356	A10BB09	14/12/2009
31455492	A10BB09	17/12/2008
31201487	A10BB09	05/02/2010
31682763	A10BB09	23/10/2003
31455126	A10BB09	23/07/2009
31282041	A10BB09	04/05/2005
32195861	A10BB09	02/10/2007
31374419	A10BB09	08/04/2011
31669630	A10BB09	26/11/2009
31565972	A10BB09	20/12/2007
32221033	A10BB09	11/11/2008
31370288	A10BB09	22/03/2002
31836944	A10BB09	14/12/2010
31342310	A10BB09	21/07/2006
31800609	A10BB09	21/04/2009
31641342	A10BB09	30/12/2009
31289640	A10BB09	11/02/2011
32123269	A10BB09	02/04/2008
32231333	A10BB09	29/10/2010
31520729	A10BB09	11/12/2009
31407436	A10BB09	26/04/2004
31559193	A10BB09	15/07/2003
31851612	A10BB09	12/05/2011
32153978	A10BB09	11/12/2009
32164645	A10BB09	24/06/2010
31507581	A10BB09	21/05/2007
31075591	A10BB09	28/02/2005
31332044	A10BB09	21/01/2008
31665712	A10BB09	09/02/2007
31418205	A10BB09	26/01/2011
31061037	A10BB09	18/12/2008
31835498	A10BB09	05/11/2009
31414275	A10BB09	30/12/2010
31329070	A10BB09	08/12/2009
31736977	A10BB09	13/07/2010
32229637	A10BB09	30/10/2009
31186375	A10BB09	30/09/2010
31566913	A10BB09	08/03/2010
31051214	A10BB09	08/03/2011
32272111	A10BB09	11/05/2005
31356177	A10BB09	15/12/2008
32227466	A10BB09	06/10/2008
31797390	A10BB09	23/09/2004
31087176	A10BB09	07/10/2008
31095932	A10BB09	17/12/2010
31522507	A10BB09	15/03/2011
31791853	A10BB09	15/12/2010
31440741	A10BB09	19/01/2011
31471199	A10BB09	15/12/2009
31048154	A10BB09	03/12/2010
31086081	A10BB09	24/11/2010
32027600	A10BB09	27/01/2011
32194499	A10BB09	02/10/2006
32253318	A10BB09	19/12/2008
31782680	A10BB09	19/01/2005
32022345	A10BB09	12/01/2011
32022210	A10BB09	06/10/2009
31895100	A10BB09	14/09/2009
32215164	A10BB09	09/12/2010
32195373	A10BB09	07/02/2007
31479774	A10BB09	30/12/2010
31490483	A10BB09	21/12/2010
31596789	A10BB09	04/12/2009
31518038	A10BB09	10/12/2010
31153085	A10BB09	08/08/2010
31732643	A10BB09	22/05/2009
31401177	A10BB09	30/04/2011
31290625	A10BB09	19/11/2008
31748071	A10BB09	31/05/2007
31370565	A10BB09	28/06/2010
32081758	A10BB09	12/12/2006
31527098	A10BB09	07/04/2011
32088000	A10BB09	13/10/2010
31707215	A10BB09	16/03/2011
31611594	A10BB09	02/12/2010
31940534	A10BB09	27/10/2010
31430347	A10BB09	26/01/2009
32217546	A10BB09	29/11/2010
31087682	A10BB09	02/03/2011
31995928	A10BB09	20/11/2008
31357506	A10BB09	22/12/2008
32175406	A10BB09	20/07/2007
31062629	A10BB09	06/05/2009
31975805	A10BB09	01/12/2008
31936735	A10BB09	16/05/2008
31301336	A10BB09	09/12/2010
31539521	A10BB09	15/12/2008
32118990	A10BB09	01/12/2009
31095601	A10BB09	07/12/2008
31161532	A10BB09	20/10/2005
31877363	A10BB09	22/10/2009
31150601	A10BB09	04/12/2009
32269432	A10BB09	11/11/2009
31308776	A10BB09	03/12/2009
31163879	A10BB09	27/10/2010
31549250	A10BB09	10/12/2008
31910311	A10BB09	27/02/2006
32264460	A10BB09	20/01/2011
31209591	A10BB09	29/03/2007
31237625	A10BB09	03/01/2007
31146142	A10BB09	30/12/2009
32267988	A10BB09	04/12/2006
31199814	A10BB09	22/05/2011
32122555	A10BB09	06/10/2010
31576739	A10BB09	11/12/2008
31558486	A10BB09	29/10/2010
31878709	A10BB09	22/12/2010
32271150	A10BB09	29/08/2007
32236174	A10BB09	06/03/2006
31150444	A10BB09	25/10/2010
32242783	A10BB09	27/05/2009
32093133	A10BB09	03/05/2011
31714304	A10BB09	23/12/2010
31711441	A10BB09	07/10/2010
32154430	A10BB09	14/09/2009
31709125	A10BB09	01/07/2003
31458992	A10BB09	22/06/2007
31853621	A10BB09	21/03/2011
31404878	A10BB09	16/06/2009
31566066	A10BB09	16/03/2011
31593910	A10BB09	09/09/2010
31947491	A10BB09	15/05/2008
31333245	A10BB09	08/10/2009
