patient_id	covar_name	date
8581315	A12BA04	05/05/2011
6747933	A12BA04	25/06/2004
733774	A12BA04	10/09/2004
5031451	A12BA04	10/02/2006
5030705	A12BA04	23/11/2007
9372370	A12BA04	13/05/2011
9383747	A12BA04	03/01/2011
24722159	A12BA04	07/04/2011
7094806	A12BA04	14/08/2009
9982943	A12BA04	09/06/2006
5812596	A12BA04	02/05/2005
8699154	A12BA04	04/02/2009
15667860	A12BA04	13/10/2004
8555693	A12BA04	19/01/2007
5029514	A12BA04	22/12/2010
3117787	A12BA04	28/02/2007
7242025	A12BA04	01/04/2011
13861443	A12BA04	26/11/2010
9299339	A12BA04	12/05/2008
12857013	A12BA04	26/05/2011
25052298	A12BA04	31/03/2011
17382370	A12BA04	11/05/2010
12690514	A12BA04	06/10/2010
1303002	A12BA04	04/10/2004
8786220	A12BA04	04/03/2004
9284324	A12BA04	10/07/2006
9293857	A12BA04	17/05/2011
5029473	A12BA04	23/11/2010
16927097	A12BA04	26/01/2006
12857039	A12BA04	16/12/2008
9285180	A12BA04	28/10/2008
2768422	A12BA04	17/10/2005
12691458	A12BA04	10/12/2009
5813363	A12BA04	29/10/2009
23471965	A12BA04	03/12/2007
17170528	A12BA04	02/05/2011
16979253	A12BA04	16/04/2009
9203860	A12BA04	25/06/2010
1516973	A12BA04	24/05/2004
641170	A12BA04	19/03/2010
8955922	A12BA04	25/07/2006
24941050	A12BA04	05/04/2010
7800389	A12BA04	01/12/2010
7777409	A12BA04	19/04/2011
13984759	A12BA04	17/11/2010
524498	A12BA04	21/09/2010
6593148	A12BA04	29/12/2008
1205994	A12BA04	07/04/2011
4699350	A12BA04	23/06/2006
6594510	A12BA04	22/10/2010
1171486	A12BA04	14/09/2009
1204719	A12BA04	27/02/2003
1205584	A12BA04	22/12/2004
539674	A12BA04	26/01/2007
13264943	A12BA04	20/04/2010
1424080	A12BA04	16/04/2009
15798351	A12BA04	25/05/2011
1638022	A12BA04	30/06/2006
134966	A12BA04	07/03/2006
1638850	A12BA04	13/12/2005
25860190	A12BA04	23/07/2010
1855343	A12BA04	11/09/2001
903895	A12BA04	11/07/2008
1764621	A12BA04	12/08/2008
2811902	A12BA04	13/09/2006
17041554	A12BA04	07/01/2011
2959751	A12BA04	18/11/2004
184043	A12BA04	12/01/2011
874346	A12BA04	14/05/2011
2777704	A12BA04	25/07/2008
24655567	A12BA04	13/04/2011
24655154	A12BA04	21/07/2006
1366853	A12BA04	03/05/1999
19802014	A12BA04	27/03/2010
18197591	A12BA04	29/09/2009
12977023	A12BA04	11/02/2005
1366406	A12BA04	01/03/2005
16842252	A12BA04	30/05/2011
16567909	A12BA04	31/05/2011
26628248	A12BA04	10/05/2010
26723222	A12BA04	04/09/2009
26784601	A12BA04	22/05/2008
26939724	A12BA04	26/05/2011
27098823	A12BA04	06/04/2010
27078801	A12BA04	07/08/2009
27065487	A12BA04	08/08/2008
26991420	A12BA04	09/11/2005
27216624	A12BA04	14/01/2011
27169373	A12BA04	23/02/2010
27383534	A12BA04	19/05/2011
27384468	A12BA04	22/05/2011
27316566	A12BA04	11/05/2011
27362717	A12BA04	02/09/2009
27396888	A12BA04	09/05/2007
27220409	A12BA04	02/06/2006
27308399	A12BA04	31/07/2007
27308798	A12BA04	15/07/2008
27252105	A12BA04	18/06/2004
27660974	A12BA04	06/04/2005
27493925	A12BA04	25/05/2011
27493393	A12BA04	11/01/2010
27631341	A12BA04	07/05/2010
27543445	A12BA04	20/04/2011
27648180	A12BA04	11/05/2011
27496261	A12BA04	28/04/2011
24582476	A12BA04	13/05/2011
27783945	A12BA04	03/02/2009
27667247	A12BA04	20/10/2008
18199611	A12BA04	30/08/2002
33017862	A12BA04	25/02/2010
33028516	A12BA04	16/05/2011
33050069	A12BA04	05/01/2007
33070878	A12BA04	22/02/2007
33018138	A12BA04	21/12/2009
33018999	A12BA04	03/04/2010
33032821	A12BA04	04/08/2009
23335211	A12BA04	26/04/2011
33090531	A12BA04	05/04/2011
33008084	A12BA04	27/07/2010
33101385	A12BA04	30/03/2011
33028356	A12BA04	22/09/2009
18762930	A12BA04	11/05/2011
33297088	A12BA04	27/05/2011
27847497	A12BA04	14/05/2004
16631316	A12BA04	03/06/2009
20989808	A12BA04	20/10/2010
21110120	A12BA04	09/09/2004
23339422	A12BA04	09/06/2005
23401564	A12BA04	26/05/2005
21011848	A12BA04	17/03/2009
23326417	A12BA04	13/03/2008
33307467	A12BA04	14/05/2008
16623848	A12BA04	18/12/2007
20986270	A12BA04	21/03/2006
16706310	A12BA04	06/05/2011
16602618	A12BA04	29/12/2005
31540727	A12BA04	27/10/2009
23413554	A12BA04	10/04/2006
16640430	A12BA04	08/05/2007
23412047	A12BA04	12/06/2006
33204004	A12BA04	09/12/2009
23410160	A12BA04	06/09/2010
16603341	A12BA04	07/01/2003
31989592	A12BA04	21/08/2009
31409038	A12BA04	14/07/2010
31527063	A12BA04	17/03/2010
31683932	A12BA04	23/12/2009
31445246	A12BA04	02/12/2010
31817892	A12BA04	18/05/2006
31588614	A12BA04	02/01/2008
31605404	A12BA04	10/04/2003
31260334	A12BA04	17/01/2005
31345157	A12BA04	26/12/2008
31381296	A12BA04	30/01/2007
31873426	A12BA04	14/10/2010
31385826	A12BA04	25/02/2011
31219050	A12BA04	20/04/2006
31545829	A12BA04	23/02/2007
32192753	A12BA04	29/02/2008
31066431	A12BA04	10/07/2007
31136755	A12BA04	17/03/2006
31655762	A12BA04	30/10/2007
31604924	A12BA04	03/10/2007
31822514	A12BA04	20/06/2008
31389119	A12BA04	26/07/2004
32085028	A12BA04	02/10/2008
31612836	A12BA04	19/09/2007
31166710	A12BA04	31/01/2001
31216431	A12BA04	29/08/2006
31997788	A12BA04	18/08/2008
31959560	A12BA04	08/05/2006
31712701	A12BA04	09/02/2004
31289568	A12BA04	25/03/2009
32018491	A12BA04	20/12/2010
32100813	A12BA04	24/06/2008
31851612	A12BA04	05/10/2001
32084233	A12BA04	25/11/2009
31369580	A12BA04	14/09/2006
31335672	A12BA04	11/03/2008
31862985	A12BA04	14/09/2006
31517191	A12BA04	02/10/2008
32173642	A12BA04	12/11/2009
31831196	A12BA04	22/12/2005
31916030	A12BA04	30/01/2009
32033587	A12BA04	21/12/2009
31653793	A12BA04	09/05/2003
31566153	A12BA04	26/04/2010
31992539	A12BA04	04/08/2004
32099327	A12BA04	14/04/2005
31914550	A12BA04	21/07/2008
31041581	A12BA04	06/02/2011
31137112	A12BA04	12/11/2009
31132462	A12BA04	29/08/2007
31488547	A12BA04	08/09/2010
31406581	A12BA04	11/06/2008
31465949	A12BA04	28/11/2005
32049606	A12BA04	23/05/2006
31111389	A12BA04	04/09/2006
31992865	A12BA04	26/07/2007
31883127	A12BA04	19/11/2009
31555309	A12BA04	21/05/2007
31916613	A12BA04	18/10/2005
32232978	A12BA04	06/10/2010
31626969	A12BA04	15/12/2009
31711216	A12BA04	19/01/2009
32068625	A12BA04	10/03/2011
32172413	A12BA04	22/01/2003
31339822	A12BA04	06/02/2009
32260224	A12BA04	17/05/2006
31097872	A12BA04	13/10/2004
31992839	A12BA04	08/10/2007
32270655	A12BA04	24/01/2011
31096124	A12BA04	14/01/2011
32048334	A12BA04	24/03/2004
32063147	A12BA04	16/05/2006
31058694	A12BA04	10/02/2010
32267703	A12BA04	02/04/2009
31767577	A12BA04	04/07/2006
31725976	A12BA04	21/04/2006
32206935	A12BA04	10/10/2005
31703364	A12BA04	19/11/2008
31030230	A12BA04	13/11/2006
31104559	A12BA04	31/01/2005
31150444	A12BA04	07/10/2002
31081424	A12BA04	15/07/2008
32090185	A12BA04	08/02/2006
31733512	A12BA04	10/08/2007
31929829	A12BA04	19/02/2007
32154430	A12BA04	08/09/2004
31102716	A12BA04	15/12/2008
31480321	A12BA04	11/02/2003
31452945	A12BA04	09/06/2006
31065530	A12BA04	04/03/2011
31905651	A12BA04	04/12/2008
32122599	A12BA04	11/04/2011
31573542	A12BA04	21/03/2006
31222269	A12BA04	02/03/2011
31947491	A12BA04	25/10/2006
32026900	A12BA04	23/11/2009
