patient_id	covar_name	date
8979383	A11CA01	09/09/2010
8567548	A11CA01	28/05/2009
9618081	A11CA01	28/05/2008
21859577	A11CA01	16/11/2009
8294602	A11CA01	04/05/2010
12194393	A11CA01	18/03/2009
3293005	A11CA01	06/03/2007
9378394	A11CA01	06/07/2007
1731330	A11CA01	30/01/2009
7349652	A11CA01	03/03/2009
21156478	A11CA01	18/04/2005
5024202	A11CA01	10/12/2007
8294007	A11CA01	22/07/2009
24938794	A11CA01	04/01/2011
7094993	A11CA01	06/02/2007
10267272	A11CA01	28/09/2006
3288904	A11CA01	02/11/2009
12729740	A11CA01	04/07/2006
9020545	A11CA01	08/05/2009
8785722	A11CA01	04/10/2004
10003991	A11CA01	14/01/2008
9387253	A11CA01	10/06/2009
21371425	A11CA01	08/11/2006
6752622	A11CA01	27/09/2002
6752638	A11CA01	02/02/2007
8643667	A11CA01	17/06/2008
23472056	A11CA01	14/10/2009
9294943	A11CA01	05/03/2008
1937110	A11CA01	06/04/2010
23472073	A11CA01	04/06/2008
3288763	A11CA01	12/06/2007
7153968	A11CA01	19/10/2004
10389838	A11CA01	12/09/2008
9373053	A11CA01	27/11/2006
3289106	A11CA01	02/01/2007
8279117	A11CA01	02/12/2010
7151632	A11CA01	05/01/2005
19185008	A11CA01	21/12/2009
7243139	A11CA01	24/02/2011
5865752	A11CA01	09/01/2008
1300852	A11CA01	16/10/2007
7160853	A11CA01	29/07/2010
12173193	A11CA01	04/10/2010
12764781	A11CA01	04/07/2006
8569753	A11CA01	12/03/2010
12765070	A11CA01	12/09/2006
1517271	A11CA01	06/06/2005
12764876	A11CA01	16/03/2006
1516892	A11CA01	28/12/2007
10332860	A11CA01	29/11/2007
3292667	A11CA01	10/03/2004
9284324	A11CA01	27/06/2008
1069126	A11CA01	23/02/2007
611347	A11CA01	25/10/2004
25063270	A11CA01	30/05/2006
10331846	A11CA01	04/08/2009
8982768	A11CA01	27/01/2009
9296225	A11CA01	05/06/2008
12774611	A11CA01	11/11/2010
23442777	A11CA01	01/02/2011
10246462	A11CA01	19/04/2007
21371389	A11CA01	09/02/2011
9374971	A11CA01	25/02/2011
5024989	A11CA01	02/11/2005
10003982	A11CA01	24/02/2010
603859	A11CA01	11/11/2008
8582021	A11CA01	17/01/2003
5864938	A11CA01	24/06/2009
24865037	A11CA01	15/12/2009
1467007	A11CA01	31/08/2010
10331912	A11CA01	19/01/2011
6415215	A11CA01	06/07/2006
9349186	A11CA01	30/01/2007
16979253	A11CA01	15/07/2008
9383229	A11CA01	10/06/2010
10333295	A11CA01	16/04/2008
3290897	A11CA01	19/01/2011
21152754	A11CA01	10/09/2010
4833526	A11CA01	26/09/2008
21373085	A11CA01	30/05/2011
13388507	A11CA01	20/08/2009
6603958	A11CA01	01/06/2005
12189529	A11CA01	09/08/2000
13984900	A11CA01	19/07/2010
1445530	A11CA01	09/03/2006
7966545	A11CA01	03/03/2009
7966172	A11CA01	28/09/2010
12613148	A11CA01	09/02/2006
1356172	A11CA01	25/07/2005
6603802	A11CA01	05/12/2003
8066420	A11CA01	28/12/2005
1350929	A11CA01	05/05/2011
13987343	A11CA01	01/04/2003
1320212	A11CA01	30/03/2011
13985332	A11CA01	23/12/2008
6842492	A11CA01	02/02/2009
1320780	A11CA01	14/12/2004
13986679	A11CA01	04/06/2003
6601117	A11CA01	03/02/2011
1856226	A11CA01	22/01/2004
13733143	A11CA01	11/06/2010
1638022	A11CA01	01/12/2004
1130755	A11CA01	24/03/2011
1102247	A11CA01	13/03/2009
1102090	A11CA01	31/01/2011
1006059	A11CA01	04/03/2003
1066140	A11CA01	05/03/2003
717738	A11CA01	31/01/2008
1131198	A11CA01	14/03/2011
1102435	A11CA01	25/01/2010
1102044	A11CA01	11/11/2008
1102009	A11CA01	03/05/2007
1855343	A11CA01	31/05/2005
194827	A11CA01	30/09/2010
1135038	A11CA01	17/07/2007
716836	A11CA01	22/11/2005
2214522	A11CA01	30/01/2007
2136554	A11CA01	19/03/2004
2035752	A11CA01	07/11/2008
758360	A11CA01	17/04/2002
1642138	A11CA01	26/01/2006
904017	A11CA01	09/06/2009
2034398	A11CA01	29/11/2004
26178951	A11CA01	12/07/2005
305687	A11CA01	21/05/2007
188048	A11CA01	10/12/2004
183388	A11CA01	18/10/2007
422904	A11CA01	30/04/2009
300241	A11CA01	07/03/2005
12977457	A11CA01	18/04/2008
306198	A11CA01	13/12/2006
307259	A11CA01	18/05/2005
2958619	A11CA01	22/03/2011
1018396	A11CA01	12/04/2011
419475	A11CA01	22/08/2006
185473	A11CA01	08/08/2005
1019947	A11CA01	11/02/2008
4262552	A11CA01	24/09/2009
302264	A11CA01	20/12/2006
185672	A11CA01	16/05/2007
420644	A11CA01	28/08/2001
184353	A11CA01	24/05/2011
186094	A11CA01	29/04/2004
426906	A11CA01	14/10/2009
184560	A11CA01	07/10/2008
271966	A11CA01	10/02/2010
301668	A11CA01	02/10/2009
187788	A11CA01	02/07/2004
305474	A11CA01	05/10/2006
187527	A11CA01	17/12/2008
303624	A11CA01	10/01/2007
186944	A11CA01	25/10/2010
305231	A11CA01	18/12/2006
185854	A11CA01	11/06/2003
28047186	A11CA01	21/02/2006
25542770	A11CA01	22/04/2009
24665241	A11CA01	10/12/2004
24655753	A11CA01	16/01/2008
24657685	A11CA01	15/02/2005
25743607	A11CA01	14/02/2006
25742512	A11CA01	24/01/2008
24667888	A11CA01	20/09/2004
25743054	A11CA01	03/10/2006
24669225	A11CA01	13/02/2009
1364571	A11CA01	31/05/2000
1016457	A11CA01	18/05/2009
1372631	A11CA01	22/01/2010
1366141	A11CA01	22/09/2006
18194003	A11CA01	25/02/2005
18189507	A11CA01	31/08/2006
20070622	A11CA01	04/07/2003
18197975	A11CA01	14/12/2007
16841220	A11CA01	09/07/2008
21064688	A11CA01	22/05/2008
18187564	A11CA01	28/03/2006
18189493	A11CA01	17/01/2006
19801472	A11CA01	14/11/2007
18186972	A11CA01	19/10/2005
22757992	A11CA01	01/09/2004
18198495	A11CA01	01/06/2011
1904747	A11CA01	03/11/2009
2250911	A11CA01	25/10/2006
1904262	A11CA01	24/01/2007
1015918	A11CA01	02/10/2008
1366818	A11CA01	01/03/2011
1015295	A11CA01	19/09/2008
26719797	A11CA01	30/03/2011
26835603	A11CA01	21/01/2009
26701905	A11CA01	06/11/2008
26722036	A11CA01	13/11/2009
26790332	A11CA01	17/05/2011
26718272	A11CA01	08/07/2010
26700107	A11CA01	24/10/2008
26835683	A11CA01	07/09/2007
26706535	A11CA01	27/10/2010
13812224	A11CA01	01/08/2008
11675079	A11CA01	22/09/2010
24577065	A11CA01	06/02/2007
16844334	A11CA01	05/08/2010
12977815	A11CA01	02/12/2009
26718859	A11CA01	25/05/2010
26722551	A11CA01	23/08/2006
26707001	A11CA01	13/02/2008
26722393	A11CA01	30/06/2003
26722414	A11CA01	26/01/2010
26723041	A11CA01	28/01/2009
25740918	A11CA01	20/01/2005
26701330	A11CA01	18/09/2006
26626128	A11CA01	15/11/2007
26702724	A11CA01	15/07/2009
26721437	A11CA01	26/01/2007
24658335	A11CA01	10/03/2003
24663248	A11CA01	14/02/2011
22882178	A11CA01	14/05/2004
24579417	A11CA01	24/04/2007
20835034	A11CA01	24/06/2008
24581543	A11CA01	11/04/2008
26917078	A11CA01	28/04/2005
27023212	A11CA01	16/01/2008
26894948	A11CA01	28/09/2009
26917635	A11CA01	02/07/2009
26935514	A11CA01	13/09/2002
26916169	A11CA01	19/08/2010
26889844	A11CA01	12/01/2011
26939278	A11CA01	24/01/2002
26947472	A11CA01	20/07/2004
26714804	A11CA01	01/06/2006
26768393	A11CA01	26/02/2011
26777748	A11CA01	18/11/2009
26871724	A11CA01	08/01/2007
26863320	A11CA01	04/01/2011
26742475	A11CA01	04/05/2009
26714825	A11CA01	14/08/2007
26714437	A11CA01	26/10/2004
26775944	A11CA01	21/11/2005
26930721	A11CA01	12/02/2007
26873163	A11CA01	03/06/2004
26845417	A11CA01	11/11/2009
26784084	A11CA01	18/02/2011
26782074	A11CA01	19/05/2009
26776303	A11CA01	28/12/2005
26769553	A11CA01	17/11/2010
26717334	A11CA01	25/09/2008
27072138	A11CA01	22/04/2009
26966681	A11CA01	11/08/2010
26941704	A11CA01	07/06/2007
27056041	A11CA01	26/02/2008
26977407	A11CA01	16/08/2007
27032833	A11CA01	21/07/2005
26990737	A11CA01	15/12/2009
27078581	A11CA01	09/09/2010
27151243	A11CA01	22/06/2007
27084486	A11CA01	03/06/2010
27086102	A11CA01	03/10/2007
27109851	A11CA01	08/06/2009
27113830	A11CA01	28/06/2005
27086224	A11CA01	22/07/2008
27151096	A11CA01	29/09/2010
27100098	A11CA01	31/10/2006
27084312	A11CA01	01/04/2009
27130220	A11CA01	14/12/2005
27150951	A11CA01	27/11/2003
27072992	A11CA01	27/01/2011
27074167	A11CA01	16/12/2008
27031426	A11CA01	07/02/2008
27043480	A11CA01	24/02/2004
27043827	A11CA01	02/12/2005
27072298	A11CA01	02/05/2011
27072046	A11CA01	08/01/2010
27042033	A11CA01	01/04/2011
27000418	A11CA01	17/01/2005
26998280	A11CA01	18/10/2006
27039385	A11CA01	03/04/2003
27042240	A11CA01	13/09/2005
27039179	A11CA01	30/06/2004
27023735	A11CA01	07/01/2010
27000566	A11CA01	03/11/2009
27039849	A11CA01	26/11/2008
27150732	A11CA01	27/04/2011
27152048	A11CA01	26/10/2004
27285986	A11CA01	04/11/2008
27248578	A11CA01	14/12/2004
27130080	A11CA01	05/05/2009
27246351	A11CA01	17/02/2006
27200066	A11CA01	12/08/2004
27170658	A11CA01	24/07/2009
27349595	A11CA01	13/01/2011
27365164	A11CA01	07/01/2005
27364443	A11CA01	04/02/2003
27348103	A11CA01	01/04/2009
26956671	A11CA01	15/04/2010
26993674	A11CA01	27/05/2011
27389100	A11CA01	28/02/2006
27250923	A11CA01	08/08/2007
26955621	A11CA01	20/12/2007
26957165	A11CA01	07/05/2010
27240072	A11CA01	25/10/2004
27389179	A11CA01	24/08/2005
27241512	A11CA01	09/03/2006
26988657	A11CA01	04/09/2007
27200892	A11CA01	01/09/2010
27170060	A11CA01	29/03/2011
26989196	A11CA01	23/12/2010
27572460	A11CA01	09/07/2009
27593063	A11CA01	17/10/2005
27601592	A11CA01	15/11/2010
27707332	A11CA01	18/03/2005
27419668	A11CA01	20/07/2004
27477775	A11CA01	29/05/2008
27420258	A11CA01	18/01/2011
27460649	A11CA01	14/08/2007
27642593	A11CA01	02/11/2010
27605366	A11CA01	26/05/2011
27756348	A11CA01	19/12/2005
27764741	A11CA01	03/11/2008
27765512	A11CA01	30/11/2007
27764323	A11CA01	14/11/2006
27543445	A11CA01	28/03/2008
27756656	A11CA01	08/10/2007
27564868	A11CA01	14/02/2011
27720067	A11CA01	10/03/2009
27708618	A11CA01	10/11/2009
27242162	A11CA01	29/12/2003
27159650	A11CA01	08/04/2011
27152030	A11CA01	31/03/2010
27250456	A11CA01	19/11/2007
27250342	A11CA01	30/03/2005
27149164	A11CA01	16/12/2009
27783605	A11CA01	26/09/2006
27252613	A11CA01	19/07/2004
27475185	A11CA01	04/03/2010
27772306	A11CA01	19/02/2007
27772057	A11CA01	12/01/2011
27456675	A11CA01	07/11/2003
27679924	A11CA01	23/05/2006
27679322	A11CA01	11/08/2009
27480464	A11CA01	30/10/2006
27685579	A11CA01	18/12/2009
27778908	A11CA01	16/05/2006
27775441	A11CA01	09/08/2007
27784207	A11CA01	26/12/2008
27679826	A11CA01	28/02/2005
27062706	A11CA01	22/09/2008
27107232	A11CA01	06/04/2005
27780914	A11CA01	01/10/2008
26835519	A11CA01	14/05/2009
27648764	A11CA01	21/02/2008
26933407	A11CA01	21/09/2009
26833671	A11CA01	21/01/2008
25542610	A11CA01	05/10/2005
27576785	A11CA01	07/04/2009
21705761	A11CA01	29/12/2003
12981829	A11CA01	22/06/2004
27809204	A11CA01	29/04/2010
27708099	A11CA01	08/10/2008
428085	A11CA01	11/08/1999
27809731	A11CA01	20/04/2011
27809216	A11CA01	16/07/2009
27668939	A11CA01	06/07/2010
27808474	A11CA01	27/11/2009
27709451	A11CA01	20/07/2004
27662240	A11CA01	25/05/2003
424828	A11CA01	15/07/2006
27571285	A11CA01	20/12/2010
27781107	A11CA01	04/03/2009
27687008	A11CA01	19/08/2009
27797057	A11CA01	12/05/2006
27780213	A11CA01	21/11/2008
305067	A11CA01	22/10/2010
27764778	A11CA01	22/09/2009
27782172	A11CA01	06/11/2009
27783755	A11CA01	04/02/2009
27032665	A11CA01	23/04/2008
27765475	A11CA01	06/05/2008
27763554	A11CA01	01/09/2003
26955317	A11CA01	27/08/2008
33112774	A11CA01	20/12/2006
33106412	A11CA01	12/02/2009
33005974	A11CA01	08/04/2011
33016797	A11CA01	30/11/2004
33018895	A11CA01	04/02/2002
33027943	A11CA01	08/03/2007
33066288	A11CA01	11/11/2008
33003004	A11CA01	04/10/2006
33024115	A11CA01	12/07/2010
33050773	A11CA01	27/12/2006
33027547	A11CA01	11/07/2008
33032821	A11CA01	22/04/2003
180412	A11CA01	02/04/2004
27661862	A11CA01	15/01/2009
1029165	A11CA01	18/05/2009
27680372	A11CA01	14/10/2009
187834	A11CA01	05/05/2011
27809089	A11CA01	04/02/2011
183728	A11CA01	20/02/2008
27812443	A11CA01	08/10/2007
27808775	A11CA01	03/04/2003
27797077	A11CA01	15/05/2006
27084170	A11CA01	16/04/2010
33086713	A11CA01	24/06/2010
33234657	A11CA01	04/12/2006
23320348	A11CA01	04/10/2006
20983764	A11CA01	12/09/2010
33058773	A11CA01	02/05/2006
33030964	A11CA01	29/09/2004
33070916	A11CA01	01/04/2003
33083224	A11CA01	26/04/2011
33046872	A11CA01	08/10/2008
33025051	A11CA01	03/12/2008
33000591	A11CA01	21/08/2008
33086557	A11CA01	20/05/2010
33043124	A11CA01	31/05/2011
33097532	A11CA01	10/03/2006
33022447	A11CA01	02/08/2005
33073628	A11CA01	26/05/2010
33067910	A11CA01	19/01/2006
33044074	A11CA01	27/10/2010
33072181	A11CA01	28/05/2011
33112644	A11CA01	07/07/2009
23320149	A11CA01	17/04/2008
18743061	A11CA01	04/05/2006
33245491	A11CA01	24/09/2008
18762892	A11CA01	25/06/2008
33293772	A11CA01	12/03/2010
18755801	A11CA01	15/07/2010
23320103	A11CA01	17/09/2008
27848097	A11CA01	29/09/2003
27934525	A11CA01	30/11/2010
27817266	A11CA01	06/07/2009
18770821	A11CA01	22/11/2000
20985394	A11CA01	23/08/2010
23406429	A11CA01	01/06/2010
16631934	A11CA01	14/10/2004
28023306	A11CA01	02/07/2009
16708154	A11CA01	20/10/2006
23353839	A11CA01	15/03/2005
23412762	A11CA01	24/05/2010
20986066	A11CA01	04/02/2011
16684088	A11CA01	09/03/2009
16708965	A11CA01	25/08/2006
16138964	A11CA01	16/06/2009
16606808	A11CA01	01/03/2010
16775059	A11CA01	01/06/2009
20985453	A11CA01	21/11/2009
18770493	A11CA01	06/06/2007
23354686	A11CA01	20/05/2011
31119558	A11CA01	24/03/2006
31064957	A11CA01	20/03/2009
32176436	A11CA01	20/04/2007
32045265	A11CA01	29/05/2006
31353977	A11CA01	02/01/2008
31224867	A11CA01	28/02/2008
32041896	A11CA01	07/07/2006
31976717	A11CA01	07/04/2005
31923451	A11CA01	23/04/2010
31750446	A11CA01	20/06/2008
31494769	A11CA01	19/06/2009
31979808	A11CA01	04/01/2006
31749706	A11CA01	19/10/2005
32275097	A11CA01	10/05/2007
31651007	A11CA01	01/10/2007
32031319	A11CA01	29/06/2006
31067713	A11CA01	26/10/2005
31557548	A11CA01	04/03/2011
31431883	A11CA01	02/02/2004
32206976	A11CA01	05/11/2008
31979189	A11CA01	17/11/2005
31207975	A11CA01	18/03/2004
32114112	A11CA01	11/03/2009
31766536	A11CA01	09/05/2008
31462347	A11CA01	15/12/2006
31198881	A11CA01	08/08/2006
32171260	A11CA01	06/04/2010
31913299	A11CA01	27/11/2009
31237657	A11CA01	01/04/2005
31489624	A11CA01	13/10/2008
31558121	A11CA01	22/02/2010
31853398	A11CA01	23/05/2007
31204769	A11CA01	20/07/2009
31500490	A11CA01	01/10/2007
31074685	A11CA01	09/06/2005
31041646	A11CA01	14/05/2010
31589183	A11CA01	19/07/2006
31135234	A11CA01	10/12/2004
31634331	A11CA01	13/01/2009
32222307	A11CA01	29/03/2005
31999342	A11CA01	17/06/2003
31672960	A11CA01	27/07/2007
31099804	A11CA01	02/06/2008
31856110	A11CA01	02/02/2007
31128803	A11CA01	27/10/2008
31580653	A11CA01	27/12/2005
31050791	A11CA01	08/02/2005
31311414	A11CA01	07/07/2008
31079325	A11CA01	15/10/2009
32278996	A11CA01	15/02/2005
31580668	A11CA01	07/03/2008
31350321	A11CA01	19/11/2004
31411522	A11CA01	02/08/2006
31239204	A11CA01	25/04/2006
31440390	A11CA01	19/05/2009
31863781	A11CA01	27/11/2009
32022785	A11CA01	26/10/2005
31308618	A11CA01	08/10/2010
32233419	A11CA01	07/06/2007
31815136	A11CA01	10/02/2004
31868813	A11CA01	16/12/2008
32112412	A11CA01	20/04/2011
32032672	A11CA01	17/08/2007
31138935	A11CA01	11/12/2001
31894485	A11CA01	10/01/2005
31329977	A11CA01	19/10/2009
31892034	A11CA01	06/04/2010
31167775	A11CA01	21/02/2006
31593707	A11CA01	12/11/2007
31498345	A11CA01	30/05/2008
31444748	A11CA01	19/11/2004
31366968	A11CA01	18/08/2005
31066162	A11CA01	25/07/2006
31137112	A11CA01	04/11/2009
31669980	A11CA01	19/09/2008
31070465	A11CA01	21/12/2010
31528759	A11CA01	08/01/2007
31064899	A11CA01	08/03/2006
31605887	A11CA01	17/01/2007
31797949	A11CA01	21/08/2002
31915839	A11CA01	22/01/2008
32176236	A11CA01	12/12/2008
32081758	A11CA01	30/12/2009
31137964	A11CA01	22/01/2002
32204061	A11CA01	12/06/2008
31333700	A11CA01	15/12/2010
31058197	A11CA01	27/02/2007
32094491	A11CA01	19/07/2002
31164331	A11CA01	06/07/2004
32257370	A11CA01	12/11/2009
31741546	A11CA01	01/02/2007
31751125	A11CA01	18/10/2006
32256883	A11CA01	27/12/2006
31652599	A11CA01	11/10/2004
31928407	A11CA01	17/02/2006
31926632	A11CA01	18/02/2003
31992839	A11CA01	22/02/2008
31456917	A11CA01	05/01/2007
31416750	A11CA01	28/06/2010
31869024	A11CA01	21/05/2008
32063147	A11CA01	10/08/2005
31774644	A11CA01	28/04/2006
32070274	A11CA01	16/12/2009
31515742	A11CA01	14/01/2005
31618013	A11CA01	21/12/2006
31903971	A11CA01	13/11/2009
31445281	A11CA01	21/05/2008
31205054	A11CA01	28/07/2009
32091415	A11CA01	21/09/2006
32173478	A11CA01	22/12/2004
31217806	A11CA01	08/09/2004
31929235	A11CA01	20/12/2007
31996887	A11CA01	04/05/2009
31473091	A11CA01	28/12/2007
32125538	A11CA01	14/08/2009
31650653	A11CA01	28/11/2008
31579343	A11CA01	03/11/2008
31380809	A11CA01	16/12/2008
31445382	A11CA01	03/10/2007
31944943	A11CA01	29/11/2005
32239114	A11CA01	14/07/2006
31032144	A11CA01	02/08/2005
32007326	A11CA01	19/01/2009
31353724	A11CA01	21/06/2007
32128497	A11CA01	30/12/2009
32277047	A11CA01	04/01/2006
31154849	A11CA01	26/07/2006
31107851	A11CA01	15/11/2005
31748673	A11CA01	23/08/2004
31396659	A11CA01	18/02/2005
31163879	A11CA01	21/05/2010
31847445	A11CA01	17/09/2009
31363680	A11CA01	08/02/2005
32259429	A11CA01	26/03/2009
31244108	A11CA01	26/02/2008
31344355	A11CA01	15/11/2005
31735387	A11CA01	07/08/2006
32189767	A11CA01	07/01/2004
31501048	A11CA01	26/06/2007
31517413	A11CA01	10/08/2005
32281526	A11CA01	26/05/2008
32281524	A11CA01	07/09/2007
31423912	A11CA01	22/10/2008
31142678	A11CA01	17/04/2007
31659176	A11CA01	24/02/2011
31206444	A11CA01	15/04/2003
31443430	A11CA01	02/03/2010
31814249	A11CA01	15/02/2006
31740407	A11CA01	12/06/2008
31452945	A11CA01	02/02/2005
31742838	A11CA01	31/10/2006
31725531	A11CA01	31/03/2003
31985653	A11CA01	25/02/2009
31258919	A11CA01	17/03/2006
32142477	A11CA01	26/04/2002
31727249	A11CA01	13/06/2008
31216478	A11CA01	04/05/2010
