patient_id	covar_name	date
9425081	A06AD11	29/03/2011
9311739	A06AD11	29/05/2007
10332522	A06AD11	24/06/2005
23875772	A06AD11	14/08/2007
10270713	A06AD11	27/05/2011
8960142	A06AD11	26/06/2006
12200269	A06AD11	17/08/2007
10267737	A06AD11	10/11/2009
12779140	A06AD11	05/05/2009
12857166	A06AD11	07/03/2006
6757349	A06AD11	06/07/2005
12830854	A06AD11	16/11/2010
16109927	A06AD11	14/05/2011
9323419	A06AD11	17/08/2006
10333546	A06AD11	07/07/2006
10333557	A06AD11	09/01/2006
16109980	A06AD11	19/06/2010
9328250	A06AD11	27/05/2011
13949301	A06AD11	15/09/2010
12772348	A06AD11	19/04/2010
6747933	A06AD11	21/06/2002
7244070	A06AD11	09/03/2007
8582118	A06AD11	12/11/2007
9283222	A06AD11	13/12/2007
8521498	A06AD11	15/05/2011
9347565	A06AD11	27/08/2010
16815009	A06AD11	18/05/2011
12689969	A06AD11	06/10/2006
19007857	A06AD11	27/12/2001
9238570	A06AD11	16/01/2001
944651	A06AD11	07/06/2010
9176899	A06AD11	23/03/2011
21551019	A06AD11	12/01/2011
5031451	A06AD11	25/04/2011
6749631	A06AD11	13/11/2006
8654979	A06AD11	02/07/2007
7095550	A06AD11	06/10/2009
25062138	A06AD11	23/08/2007
8568002	A06AD11	14/07/2008
1516611	A06AD11	21/04/2009
17183316	A06AD11	09/02/2011
18628739	A06AD11	09/05/2011
12694724	A06AD11	10/10/2006
1941548	A06AD11	24/11/2006
21153398	A06AD11	02/02/2011
9284420	A06AD11	22/08/2007
9214995	A06AD11	14/08/2008
11407938	A06AD11	20/12/2007
16977385	A06AD11	11/05/2010
9377069	A06AD11	21/11/2006
9298997	A06AD11	26/04/2011
8652950	A06AD11	17/09/2008
3939492	A06AD11	01/09/2003
5024202	A06AD11	16/03/2011
15900439	A06AD11	20/11/2007
21370773	A06AD11	23/10/2001
9328550	A06AD11	18/06/2009
7405502	A06AD11	19/07/2005
15384882	A06AD11	03/11/2010
15899935	A06AD11	17/11/2008
9982943	A06AD11	27/07/2005
7094993	A06AD11	15/11/2006
6887463	A06AD11	11/03/2008
17751120	A06AD11	18/08/2010
12689052	A06AD11	18/11/2005
17169326	A06AD11	13/05/2011
8973286	A06AD11	23/07/2009
12186014	A06AD11	06/05/2011
12829808	A06AD11	16/03/2009
8698921	A06AD11	12/11/2009
10004067	A06AD11	15/09/2010
10394066	A06AD11	27/05/2011
3288904	A06AD11	06/09/2010
9984797	A06AD11	07/08/2003
10270387	A06AD11	11/01/2011
949778	A06AD11	16/02/2009
8293863	A06AD11	10/09/2007
16556934	A06AD11	21/09/2007
3122629	A06AD11	07/04/2008
8975154	A06AD11	10/02/2010
23505942	A06AD11	25/02/2008
16977223	A06AD11	16/05/2011
15900660	A06AD11	16/02/2009
9215166	A06AD11	08/01/2010
9323502	A06AD11	23/09/2008
25047523	A06AD11	19/08/2005
8785722	A06AD11	15/03/2010
19184498	A06AD11	12/04/2011
3284840	A06AD11	11/05/2009
9231451	A06AD11	16/06/2010
948323	A06AD11	03/07/2008
1122381	A06AD11	08/10/2004
16109831	A06AD11	23/05/2011
9340953	A06AD11	20/10/2005
16977028	A06AD11	08/03/2006
7353549	A06AD11	21/04/2006
12688723	A06AD11	16/04/2009
8985942	A06AD11	29/07/2010
10245464	A06AD11	25/06/2008
1936765	A06AD11	25/10/2005
5809580	A06AD11	23/02/2009
7351352	A06AD11	13/01/2005
9376813	A06AD11	07/06/2006
20547221	A06AD11	01/03/2011
12185780	A06AD11	07/03/2008
3322587	A06AD11	06/05/2011
12770781	A06AD11	26/03/2010
731536	A06AD11	30/09/2010
20578860	A06AD11	12/05/2011
7245493	A06AD11	10/06/2009
8277865	A06AD11	01/06/2007
8960965	A06AD11	30/01/2007
14859914	A06AD11	05/03/2008
15667860	A06AD11	15/12/2003
731010	A06AD11	12/04/2005
15564716	A06AD11	25/11/2009
6080444	A06AD11	08/08/2007
12831552	A06AD11	20/05/2005
11660918	A06AD11	09/02/2011
8700313	A06AD11	16/11/2010
19179639	A06AD11	29/11/2006
702001	A06AD11	20/12/2006
1941126	A06AD11	31/07/2002
12763150	A06AD11	06/11/2008
8655117	A06AD11	30/01/2007
9288958	A06AD11	17/04/2007
12739753	A06AD11	13/06/2005
12765942	A06AD11	11/03/2011
12694616	A06AD11	10/07/2009
8976564	A06AD11	30/10/2009
8979574	A06AD11	11/05/2009
15136810	A06AD11	14/04/2011
15914106	A06AD11	01/06/2011
5867088	A06AD11	29/12/2009
15880887	A06AD11	27/01/2010
12857056	A06AD11	11/05/2010
9376383	A06AD11	03/09/2004
24951792	A06AD11	21/04/2009
24952621	A06AD11	06/11/2003
24721420	A06AD11	11/03/2008
5029514	A06AD11	31/03/2011
9372898	A06AD11	24/03/2011
608864	A06AD11	18/05/2011
12739874	A06AD11	27/05/2005
3117787	A06AD11	28/02/2011
23472450	A06AD11	13/05/2011
3322508	A06AD11	27/05/2011
6746616	A06AD11	17/03/2011
6759472	A06AD11	18/11/2004
5026215	A06AD11	17/04/2008
6245113	A06AD11	21/12/2007
9996518	A06AD11	27/08/2008
10867625	A06AD11	17/10/2007
610374	A06AD11	21/12/2010
8974679	A06AD11	13/04/2010
8279117	A06AD11	14/03/2011
9339219	A06AD11	23/12/2009
1433408	A06AD11	20/02/2004
17969122	A06AD11	05/05/2011
12695840	A06AD11	11/03/2009
1516008	A06AD11	08/05/2003
9996304	A06AD11	16/01/2007
12558256	A06AD11	04/05/2010
10331189	A06AD11	08/11/2004
9250646	A06AD11	14/12/2010
8283295	A06AD11	07/03/2008
7243139	A06AD11	01/09/2006
18628876	A06AD11	10/05/2011
5865752	A06AD11	05/03/2009
13735550	A06AD11	12/01/2010
604775	A06AD11	17/12/2010
1162828	A06AD11	30/10/2008
10267158	A06AD11	13/06/2007
13951854	A06AD11	04/12/2007
9328263	A06AD11	24/07/2007
5022237	A06AD11	03/12/2008
10393861	A06AD11	12/05/2005
11247995	A06AD11	20/04/2011
1163865	A06AD11	26/08/2008
16915547	A06AD11	19/05/2011
9299339	A06AD11	25/05/2011
3304800	A06AD11	09/03/2004
8973277	A06AD11	25/10/2010
21804843	A06AD11	01/03/2010
3318713	A06AD11	21/05/2010
9382870	A06AD11	25/10/2005
3323225	A06AD11	19/10/2005
12857167	A06AD11	12/06/2006
3940167	A06AD11	12/11/2003
15667731	A06AD11	27/08/2003
6244928	A06AD11	04/04/2008
7023767	A06AD11	01/06/2011
20413411	A06AD11	19/04/2011
8972807	A06AD11	04/11/2009
3326971	A06AD11	27/07/2004
15273153	A06AD11	06/04/2011
19289186	A06AD11	31/05/2011
25042468	A06AD11	22/06/2010
9425279	A06AD11	01/06/2010
16920398	A06AD11	18/09/2008
731313	A06AD11	06/10/2005
1516892	A06AD11	09/05/2011
17419922	A06AD11	17/06/2010
11994135	A06AD11	12/01/2004
25051945	A06AD11	19/02/2008
3330955	A06AD11	14/11/2005
1063691	A06AD11	11/11/2010
6748533	A06AD11	07/07/2010
10332860	A06AD11	18/03/2010
24722227	A06AD11	03/03/2011
603045	A06AD11	19/01/2010
731887	A06AD11	29/10/2003
1335044	A06AD11	09/10/2006
15149286	A06AD11	15/12/2009
12185700	A06AD11	03/05/2011
15427398	A06AD11	15/04/2005
6177197	A06AD11	22/09/2008
12183551	A06AD11	04/09/2009
24887993	A06AD11	17/05/2011
8640991	A06AD11	12/08/2010
10284830	A06AD11	05/08/2009
6748638	A06AD11	08/02/2010
12831650	A06AD11	31/05/2011
16977321	A06AD11	15/01/2008
8788069	A06AD11	12/11/2008
8292672	A06AD11	25/04/2011
9374541	A06AD11	26/05/2010
10395525	A06AD11	28/01/2008
6745473	A06AD11	16/11/2010
1123996	A06AD11	18/12/2006
21373203	A06AD11	23/03/2009
1432627	A06AD11	17/01/2011
9319288	A06AD11	09/05/2011
15900996	A06AD11	17/05/2011
9387065	A06AD11	28/06/2004
1607075	A06AD11	03/04/2009
9250324	A06AD11	17/02/2005
8651224	A06AD11	05/06/2009
21856435	A06AD11	07/07/2010
20546500	A06AD11	10/05/2006
18575534	A06AD11	05/02/2010
20546433	A06AD11	14/03/2006
8699018	A06AD11	21/12/2007
7352379	A06AD11	15/09/2009
5029473	A06AD11	23/11/2010
9375496	A06AD11	02/07/2007
697976	A06AD11	21/08/2008
25052021	A06AD11	10/02/2010
8557985	A06AD11	18/10/2006
12688652	A06AD11	20/08/2008
12185064	A06AD11	04/05/2009
1068416	A06AD11	04/01/2010
6754440	A06AD11	02/08/2005
6749295	A06AD11	04/06/2008
8974881	A06AD11	02/03/2009
8989341	A06AD11	06/04/2006
9386360	A06AD11	04/05/2011
7094856	A06AD11	31/03/2010
9249720	A06AD11	22/09/2008
1936960	A06AD11	14/01/2010
10394089	A06AD11	03/08/2010
8581195	A06AD11	27/10/2008
11661262	A06AD11	14/05/2008
24729376	A06AD11	18/05/2006
10605339	A06AD11	03/05/2011
21871587	A06AD11	18/05/2011
9378605	A06AD11	15/09/2005
6040773	A06AD11	24/11/2009
2768422	A06AD11	03/03/2006
6746106	A06AD11	28/12/2004
10003982	A06AD11	12/03/2009
12183542	A06AD11	20/10/2004
23454809	A06AD11	31/01/2006
24764752	A06AD11	26/11/2007
9179706	A06AD11	18/02/2009
17752052	A06AD11	02/12/2009
8273132	A06AD11	07/04/2011
11573458	A06AD11	16/04/2010
10858151	A06AD11	20/05/2011
5813348	A06AD11	05/08/2010
12778202	A06AD11	24/02/2011
7158213	A06AD11	10/05/2011
10331126	A06AD11	07/04/2011
7162015	A06AD11	03/03/2008
8292798	A06AD11	13/05/2011
12695481	A06AD11	01/02/2006
18163097	A06AD11	04/02/2011
8987368	A06AD11	06/03/2007
9377350	A06AD11	12/01/2009
16530907	A06AD11	22/01/2009
15929648	A06AD11	15/10/2010
949299	A06AD11	19/12/2005
12790379	A06AD11	26/07/2005
12764196	A06AD11	10/05/2010
733479	A06AD11	14/09/2009
9304423	A06AD11	09/09/2004
10331912	A06AD11	24/05/2011
6415215	A06AD11	16/05/2011
12730992	A06AD11	07/12/2009
6757758	A06AD11	07/01/2004
5023566	A06AD11	17/02/2011
12763994	A06AD11	07/11/2007
11661691	A06AD11	16/08/2010
10392609	A06AD11	16/10/2008
16979253	A06AD11	20/05/2011
12782079	A06AD11	04/08/2004
1334775	A06AD11	15/10/2007
12762765	A06AD11	15/12/2005
17172555	A06AD11	03/01/2007
10247511	A06AD11	21/06/2006
19179650	A06AD11	24/07/2007
10393123	A06AD11	27/02/2008
6178653	A06AD11	30/04/2009
9378353	A06AD11	10/01/2008
24950607	A06AD11	08/02/2011
24951819	A06AD11	29/08/2005
9311223	A06AD11	25/08/2008
3122199	A06AD11	17/10/2007
17217433	A06AD11	29/06/2009
8655018	A06AD11	26/01/2009
12183815	A06AD11	18/03/2005
1517273	A06AD11	30/11/2010
24864967	A06AD11	17/10/2003
5864959	A06AD11	15/12/2005
19179478	A06AD11	28/10/2008
15427499	A06AD11	11/11/2010
5024803	A06AD11	08/09/2010
9995792	A06AD11	22/01/2008
6887263	A06AD11	22/01/2010
16977951	A06AD11	18/02/2010
14816674	A06AD11	05/05/2011
9385419	A06AD11	01/06/2011
13986519	A06AD11	02/04/2003
6841194	A06AD11	16/06/2009
15899941	A06AD11	14/12/2009
21372834	A06AD11	22/02/2011
23472124	A06AD11	11/03/2011
19228689	A06AD11	16/11/2010
6177699	A06AD11	12/04/2011
9375873	A06AD11	18/11/2010
23996759	A06AD11	19/08/2010
21644622	A06AD11	25/10/2005
3067637	A06AD11	03/02/2010
1546365	A06AD11	30/08/2010
7967014	A06AD11	21/04/2010
1210825	A06AD11	29/01/2008
1424358	A06AD11	04/11/2010
1169659	A06AD11	23/11/2009
1200223	A06AD11	08/04/2011
23511042	A06AD11	12/06/2008
1546390	A06AD11	10/10/2000
438703	A06AD11	04/09/2001
7972658	A06AD11	26/05/2008
8923087	A06AD11	18/11/2010
1169516	A06AD11	06/10/2006
1419222	A06AD11	27/05/2010
18365564	A06AD11	13/05/2011
404928	A06AD11	24/10/2005
25960621	A06AD11	20/07/2006
7964982	A06AD11	23/09/2010
6599628	A06AD11	19/04/2011
1850904	A06AD11	31/08/2001
7770599	A06AD11	25/09/2009
6597973	A06AD11	11/08/2009
6212955	A06AD11	31/05/2011
10227586	A06AD11	10/10/2006
1852451	A06AD11	03/08/2007
24941392	A06AD11	17/07/2008
7777348	A06AD11	18/01/2011
1356229	A06AD11	12/05/2011
1349650	A06AD11	11/02/2011
12612964	A06AD11	11/12/2009
1203945	A06AD11	03/08/2004
12189908	A06AD11	12/04/2011
7971640	A06AD11	20/07/2005
13984900	A06AD11	12/06/2007
1199932	A06AD11	18/08/2010
4699898	A06AD11	04/01/2007
24720128	A06AD11	11/05/2010
1200164	A06AD11	26/10/2004
1850285	A06AD11	16/09/2009
1276765	A06AD11	03/02/2006
1416316	A06AD11	15/12/2004
1200721	A06AD11	29/07/2010
8955553	A06AD11	13/04/2011
1353807	A06AD11	01/06/2011
8063672	A06AD11	10/05/2011
648760	A06AD11	28/09/2007
6598214	A06AD11	27/07/2010
1350610	A06AD11	27/01/2006
25844936	A06AD11	10/02/2004
26144622	A06AD11	14/06/2010
1545758	A06AD11	29/12/2003
1443647	A06AD11	22/03/2011
524498	A06AD11	10/09/2004
1346900	A06AD11	09/06/2005
7838720	A06AD11	10/05/2011
1203312	A06AD11	16/03/2011
8933284	A06AD11	05/05/2011
6212006	A06AD11	16/05/2011
6602655	A06AD11	15/03/2002
7971144	A06AD11	05/03/2009
6602978	A06AD11	19/11/2002
6633943	A06AD11	07/07/2008
1276922	A06AD11	01/09/2009
1853695	A06AD11	12/02/2004
26139483	A06AD11	27/04/2011
2723839	A06AD11	01/08/2006
645626	A06AD11	25/06/2010
7776735	A06AD11	12/04/2011
1545729	A06AD11	27/05/2010
1352039	A06AD11	25/10/2001
648591	A06AD11	26/08/2004
24943949	A06AD11	18/11/2008
526051	A06AD11	17/07/2007
7970589	A06AD11	23/02/2011
4363537	A06AD11	14/12/2010
8066420	A06AD11	01/06/2011
7848502	A06AD11	26/09/2008
6593148	A06AD11	24/04/2008
1212499	A06AD11	11/07/2007
641313	A06AD11	16/12/2010
5727446	A06AD11	16/11/2010
5992373	A06AD11	13/01/2008
6591104	A06AD11	17/11/2004
7848713	A06AD11	27/07/2009
1349082	A06AD11	17/04/2008
7967729	A06AD11	27/11/2009
7781663	A06AD11	18/04/2011
6842461	A06AD11	05/02/2010
1665602	A06AD11	25/05/2006
6842058	A06AD11	25/07/2008
564957	A06AD11	28/11/2002
1198913	A06AD11	14/05/2010
1349470	A06AD11	07/07/2010
1192190	A06AD11	23/08/2004
6841591	A06AD11	01/09/2009
7801045	A06AD11	24/01/2011
1658853	A06AD11	06/05/2011
1207086	A06AD11	27/06/2007
7968475	A06AD11	17/01/2011
6599963	A06AD11	26/04/2011
1172012	A06AD11	04/05/2011
4700171	A06AD11	07/03/2005
1443871	A06AD11	23/05/2011
6592750	A06AD11	18/05/2010
25249687	A06AD11	08/06/2009
7966714	A06AD11	27/03/2009
1208178	A06AD11	14/06/2006
15623737	A06AD11	09/02/2010
5076967	A06AD11	05/08/2007
6596858	A06AD11	26/04/2010
25335456	A06AD11	01/12/2010
1320212	A06AD11	04/07/2005
18365737	A06AD11	21/04/2010
1276321	A06AD11	15/10/2005
7770079	A06AD11	17/05/2011
6603579	A06AD11	06/10/2006
1090765	A06AD11	25/05/2011
515769	A06AD11	05/11/2003
13985332	A06AD11	10/05/2011
4700452	A06AD11	20/05/2010
1850960	A06AD11	25/05/2011
525368	A06AD11	26/11/2008
1665110	A06AD11	21/04/2010
6602253	A06AD11	11/05/2011
1379495	A06AD11	17/10/2006
1415968	A06AD11	05/04/2011
7801913	A06AD11	09/08/2007
1853440	A06AD11	03/02/2003
1205584	A06AD11	22/12/2004
6592990	A06AD11	24/04/2009
6842492	A06AD11	23/05/2011
13264943	A06AD11	27/05/2011
8956746	A06AD11	05/04/2010
17606613	A06AD11	05/07/2010
12613860	A06AD11	03/05/2004
6211670	A06AD11	08/02/2010
6424945	A06AD11	20/05/2011
1355596	A06AD11	24/05/2005
1199703	A06AD11	27/10/2010
525618	A06AD11	13/05/2011
1211624	A06AD11	07/04/2009
1417328	A06AD11	17/05/2011
1278011	A06AD11	18/06/2007
1354771	A06AD11	27/07/2009
7966257	A06AD11	20/04/2011
1206943	A06AD11	09/03/2011
8955143	A06AD11	06/04/2004
5899636	A06AD11	13/06/2008
6594333	A06AD11	30/11/2009
7779623	A06AD11	28/02/2011
23843778	A06AD11	23/03/2010
1545327	A06AD11	10/06/2009
1261139	A06AD11	29/08/2005
1203166	A06AD11	17/09/2004
4376919	A06AD11	18/01/2011
4700277	A06AD11	01/02/2011
8956639	A06AD11	13/05/2010
6597674	A06AD11	30/04/2011
12614346	A06AD11	30/05/2007
12615165	A06AD11	14/10/2010
7848835	A06AD11	11/01/2006
13116462	A06AD11	26/05/2011
6593289	A06AD11	11/03/2004
9899473	A06AD11	12/03/2009
1295976	A06AD11	23/02/2005
1647457	A06AD11	28/01/2011
1099425	A06AD11	29/04/2010
1566989	A06AD11	27/11/2002
25775681	A06AD11	19/02/2008
25883713	A06AD11	15/07/2009
1851693	A06AD11	17/03/2000
1132264	A06AD11	04/08/2009
1638261	A06AD11	16/01/2009
13733143	A06AD11	17/04/2009
10556455	A06AD11	06/08/2007
1208369	A06AD11	11/12/2008
1639039	A06AD11	16/01/2006
1638022	A06AD11	25/01/2010
1102247	A06AD11	14/07/2006
1110970	A06AD11	17/03/2005
195582	A06AD11	30/09/2008
1103757	A06AD11	10/01/2003
25915017	A06AD11	25/10/2010
486570	A06AD11	21/03/2011
3807400	A06AD11	15/10/2001
715994	A06AD11	01/02/2010
6914096	A06AD11	20/08/2008
998259	A06AD11	23/12/2010
1101747	A06AD11	24/10/2002
996518	A06AD11	16/03/2010
12636453	A06AD11	10/02/2011
1131198	A06AD11	21/09/2010
1856271	A06AD11	25/03/2011
1099959	A06AD11	22/05/2007
1577875	A06AD11	29/03/2011
1134702	A06AD11	24/03/2011
25889094	A06AD11	09/08/2010
25750805	A06AD11	14/04/2011
189189	A06AD11	24/01/2007
1648154	A06AD11	09/12/2008
25766727	A06AD11	15/09/2009
1577791	A06AD11	21/01/2011
1646970	A06AD11	26/12/2006
1640524	A06AD11	18/08/2010
4861068	A06AD11	27/08/2007
1102009	A06AD11	20/09/2010
1274932	A06AD11	14/03/2011
6392676	A06AD11	20/04/2011
25860190	A06AD11	22/03/2011
4675753	A06AD11	10/11/2006
135815	A06AD11	24/08/2010
1641017	A06AD11	25/06/2010
1102000	A06AD11	10/08/2010
1578341	A06AD11	06/08/2003
1108799	A06AD11	04/11/2003
890168	A06AD11	30/03/2010
996350	A06AD11	06/11/2007
715906	A06AD11	14/10/2005
1132627	A06AD11	02/02/2004
1131425	A06AD11	03/05/2004
716836	A06AD11	21/06/2010
12705229	A06AD11	14/09/2009
1101985	A06AD11	12/05/2008
25757178	A06AD11	30/07/2009
135306	A06AD11	29/07/2009
2040796	A06AD11	06/10/2009
2059870	A06AD11	06/05/2010
2040077	A06AD11	30/05/2011
2144824	A06AD11	23/09/2008
2214495	A06AD11	07/10/2010
2217081	A06AD11	11/04/2008
2139967	A06AD11	22/10/2010
2110088	A06AD11	15/07/2009
2164170	A06AD11	07/09/2010
2058996	A06AD11	25/02/2011
2110791	A06AD11	20/04/2011
2132832	A06AD11	05/01/2009
2043843	A06AD11	20/05/2005
2133429	A06AD11	02/04/2008
2218050	A06AD11	14/04/2009
2219403	A06AD11	09/02/2005
2059982	A06AD11	11/10/2010
2068934	A06AD11	23/02/2010
2069789	A06AD11	31/05/2011
2110391	A06AD11	11/05/2011
2133822	A06AD11	12/11/2007
2137012	A06AD11	13/08/2009
2069915	A06AD11	20/08/2009
2139418	A06AD11	01/07/2009
2070415	A06AD11	21/05/2011
758835	A06AD11	04/05/2011
858856	A06AD11	28/12/2004
904606	A06AD11	18/02/2008
1767215	A06AD11	06/05/2011
2035400	A06AD11	15/03/2008
1763042	A06AD11	23/05/2011
859956	A06AD11	14/06/2010
2034262	A06AD11	30/01/2004
859996	A06AD11	16/10/2003
859215	A06AD11	28/04/2008
2053434	A06AD11	20/05/2011
902321	A06AD11	24/05/2007
1755667	A06AD11	03/02/2011
2088216	A06AD11	08/03/2011
905430	A06AD11	04/04/2006
902237	A06AD11	25/05/2011
903895	A06AD11	11/09/2009
2038338	A06AD11	24/03/2004
904650	A06AD11	30/04/2009
903860	A06AD11	30/12/2008
904362	A06AD11	13/08/2008
2038121	A06AD11	11/04/2011
875365	A06AD11	21/07/2008
756971	A06AD11	21/10/2010
904532	A06AD11	21/10/2008
2038762	A06AD11	20/06/2007
859041	A06AD11	17/12/2008
859067	A06AD11	17/09/2002
1753997	A06AD11	08/11/2010
904017	A06AD11	06/05/2011
858925	A06AD11	03/04/2006
859374	A06AD11	24/10/2007
874441	A06AD11	07/08/2009
1763515	A06AD11	10/12/2010
1753828	A06AD11	11/03/2009
4689365	A06AD11	04/05/2011
4088519	A06AD11	01/08/2005
2773774	A06AD11	26/05/2011
904406	A06AD11	25/03/2009
2034398	A06AD11	25/04/2008
2034995	A06AD11	09/03/2009
858961	A06AD11	06/05/2010
859012	A06AD11	20/04/2010
1762017	A06AD11	18/08/2008
902391	A06AD11	29/12/2008
860139	A06AD11	03/01/2006
860142	A06AD11	18/01/2005
2766244	A06AD11	22/05/2002
2864186	A06AD11	31/01/2003
3055190	A06AD11	16/02/2001
2777495	A06AD11	22/09/2010
3055168	A06AD11	30/07/2010
4894255	A06AD11	13/03/2007
2763918	A06AD11	08/09/2010
2778364	A06AD11	14/10/2010
2777636	A06AD11	26/09/2007
2774142	A06AD11	21/05/2009
6250668	A06AD11	10/11/2006
3054486	A06AD11	23/10/2007
5884456	A06AD11	06/06/2007
2757182	A06AD11	31/05/2011
2811840	A06AD11	10/03/2010
2773960	A06AD11	09/02/2011
2525787	A06AD11	12/08/2010
2574919	A06AD11	16/09/2010
2525187	A06AD11	03/01/2005
2520230	A06AD11	07/07/2008
2407313	A06AD11	18/08/2009
2521846	A06AD11	15/12/2008
2523249	A06AD11	09/01/2004
2408020	A06AD11	12/07/2010
2522530	A06AD11	28/05/2009
2520367	A06AD11	27/04/2007
2520376	A06AD11	10/03/2011
2525988	A06AD11	29/05/2008
2573239	A06AD11	28/05/2007
2755769	A06AD11	21/08/2009
2756982	A06AD11	23/03/2007
2238871	A06AD11	18/08/2010
2407651	A06AD11	23/09/2009
2406808	A06AD11	27/11/2007
7448043	A06AD11	20/08/2009
16980510	A06AD11	26/05/2011
17323216	A06AD11	03/11/2010
16961955	A06AD11	29/05/2006
2713954	A06AD11	06/10/2010
2755397	A06AD11	21/07/2009
16835317	A06AD11	28/11/2007
28062656	A06AD11	06/07/2007
26465782	A06AD11	17/07/2007
26425709	A06AD11	03/03/2008
26425486	A06AD11	17/12/2008
28043917	A06AD11	07/07/2010
26566156	A06AD11	31/01/2011
26566168	A06AD11	08/07/2005
26488237	A06AD11	15/01/2010
28047984	A06AD11	13/02/2008
26441939	A06AD11	15/05/2011
26409683	A06AD11	30/03/2011
26351849	A06AD11	12/05/2009
28041048	A06AD11	29/01/2010
28049312	A06AD11	01/09/2004
26456181	A06AD11	12/08/2010
28066813	A06AD11	12/05/2011
26565210	A06AD11	27/04/2011
26461925	A06AD11	03/02/2011
28063102	A06AD11	24/05/2011
26564907	A06AD11	04/08/2010
28059430	A06AD11	23/12/2010
7027238	A06AD11	02/09/2010
26260880	A06AD11	16/03/2011
23678237	A06AD11	28/04/2011
17323361	A06AD11	18/11/2004
17747332	A06AD11	30/08/2001
26256480	A06AD11	03/11/2004
18472357	A06AD11	26/06/2008
7129253	A06AD11	19/05/2011
17219249	A06AD11	14/02/2007
17041146	A06AD11	27/12/2010
7229425	A06AD11	04/12/2007
6990280	A06AD11	12/06/2007
17323952	A06AD11	30/08/2007
26425415	A06AD11	23/07/2007
17747103	A06AD11	10/01/2008
20147230	A06AD11	08/04/2011
26425372	A06AD11	15/10/2002
26462364	A06AD11	24/01/2008
26217958	A06AD11	04/04/2008
23889578	A06AD11	06/04/2011
21382261	A06AD11	20/05/2011
26243565	A06AD11	20/04/2005
26182006	A06AD11	29/07/2010
28042198	A06AD11	16/06/2009
28042210	A06AD11	04/03/2003
26488449	A06AD11	27/02/2007
26410194	A06AD11	06/05/2010
26385357	A06AD11	25/07/2007
17324100	A06AD11	19/02/2004
28042025	A06AD11	24/01/2011
26565531	A06AD11	29/12/2005
26384859	A06AD11	31/03/2011
26459796	A06AD11	15/05/2009
17324116	A06AD11	22/08/2005
26454330	A06AD11	20/07/2010
12967061	A06AD11	19/12/2005
7007687	A06AD11	04/01/2007
16980703	A06AD11	07/02/2006
11583878	A06AD11	12/01/2011
17041018	A06AD11	17/02/2003
17040205	A06AD11	01/06/2011
16824550	A06AD11	12/03/2008
17040796	A06AD11	16/12/2009
17323744	A06AD11	27/09/2007
14347072	A06AD11	18/05/2011
16959538	A06AD11	29/07/2004
12472322	A06AD11	10/03/2011
421437	A06AD11	09/01/2007
2965216	A06AD11	22/12/2009
1910382	A06AD11	13/10/2008
1912188	A06AD11	25/03/2006
1899459	A06AD11	08/04/2010
425420	A06AD11	28/05/2011
180907	A06AD11	04/09/2009
464738	A06AD11	17/05/2005
302849	A06AD11	14/06/2010
650187	A06AD11	02/03/2007
4328546	A06AD11	09/12/2009
433439	A06AD11	12/07/2007
2958823	A06AD11	21/04/2010
2957391	A06AD11	06/05/2008
2960514	A06AD11	13/04/2011
429077	A06AD11	02/07/2007
2964155	A06AD11	07/04/2009
1900723	A06AD11	15/03/2011
419797	A06AD11	14/09/2000
183998	A06AD11	15/01/2007
184043	A06AD11	12/08/2010
16835354	A06AD11	04/06/2004
759194	A06AD11	03/09/2004
28084213	A06AD11	14/01/2011
26478302	A06AD11	17/08/2009
28080570	A06AD11	14/05/2010
28087560	A06AD11	23/02/2011
3053216	A06AD11	21/10/2010
3054239	A06AD11	08/04/2002
26478497	A06AD11	23/08/2007
2753836	A06AD11	18/09/2009
9495019	A06AD11	19/12/2006
7128685	A06AD11	31/05/2010
28079729	A06AD11	16/09/2010
28044182	A06AD11	29/05/2009
860408	A06AD11	27/06/2007
2040830	A06AD11	14/05/2009
2778926	A06AD11	12/04/2011
28084179	A06AD11	27/04/2011
16824532	A06AD11	02/12/2010
2755660	A06AD11	30/04/2010
424784	A06AD11	06/11/2002
428577	A06AD11	09/07/2009
17742169	A06AD11	17/09/2010
181538	A06AD11	03/03/2011
17324548	A06AD11	18/05/2011
463352	A06AD11	04/09/2008
422311	A06AD11	30/12/2009
2036294	A06AD11	06/10/2007
2068739	A06AD11	25/03/2005
184746	A06AD11	16/06/2004
437604	A06AD11	18/05/2011
437620	A06AD11	05/10/2006
427511	A06AD11	17/09/1999
463185	A06AD11	13/02/2008
418421	A06AD11	14/02/2011
419430	A06AD11	24/01/2011
179027	A06AD11	04/02/2003
28056581	A06AD11	05/03/2010
179264	A06AD11	22/05/2007
2040889	A06AD11	15/06/2005
437499	A06AD11	20/07/2005
423574	A06AD11	27/01/2006
300557	A06AD11	09/07/2010
648824	A06AD11	26/08/2008
180142	A06AD11	17/10/2002
28062996	A06AD11	04/08/2008
26588342	A06AD11	07/07/2010
28040595	A06AD11	06/02/2008
28072902	A06AD11	10/04/2008
28056522	A06AD11	01/07/2010
28079208	A06AD11	26/01/2011
28080549	A06AD11	12/01/2007
28065571	A06AD11	18/02/2009
28093204	A06AD11	16/10/2006
26477734	A06AD11	23/08/2010
875829	A06AD11	24/10/2007
28054497	A06AD11	16/09/2009
28043285	A06AD11	25/05/2011
24666302	A06AD11	10/06/2009
24655567	A06AD11	28/04/2011
24669031	A06AD11	03/08/2009
24670093	A06AD11	27/09/2010
25742330	A06AD11	24/04/2007
24745556	A06AD11	23/09/2009
25743561	A06AD11	02/04/2009
25535638	A06AD11	14/12/2010
24664127	A06AD11	10/05/2011
24655998	A06AD11	04/05/2011
25742680	A06AD11	09/10/2009
24658550	A06AD11	25/10/2010
24665519	A06AD11	16/12/2009
25742981	A06AD11	19/05/2011
24667838	A06AD11	28/12/2009
25743607	A06AD11	22/04/2010
24659548	A06AD11	07/09/2005
24658487	A06AD11	16/06/2010
25558732	A06AD11	02/02/2004
25600261	A06AD11	23/06/2008
25746656	A06AD11	06/03/2009
24669225	A06AD11	09/09/2009
25740455	A06AD11	18/05/2011
25743229	A06AD11	22/06/2006
24670725	A06AD11	04/04/2008
26629170	A06AD11	20/12/2010
24663987	A06AD11	04/10/2006
421960	A06AD11	19/05/2011
1019290	A06AD11	11/08/2010
1019300	A06AD11	11/04/2008
19770701	A06AD11	19/05/2011
1361648	A06AD11	21/12/1998
1372823	A06AD11	12/11/2007
1374270	A06AD11	17/03/1999
1370131	A06AD11	03/01/2011
1903682	A06AD11	28/03/2007
927467	A06AD11	30/03/2011
1014507	A06AD11	19/07/2009
1029035	A06AD11	14/12/2005
1374923	A06AD11	03/03/2006
1029992	A06AD11	25/04/2005
41128	A06AD11	03/11/2010
1030976	A06AD11	09/03/2009
1016176	A06AD11	27/11/2006
1363788	A06AD11	09/05/2011
18195981	A06AD11	09/08/2002
1373277	A06AD11	15/05/2011
1372573	A06AD11	04/05/2010
1372631	A06AD11	28/01/2003
422231	A06AD11	20/05/2011
18191327	A06AD11	26/11/2004
21553830	A06AD11	03/08/2010
21063153	A06AD11	29/04/2011
18194731	A06AD11	23/02/2005
18189507	A06AD11	25/05/2011
20070622	A06AD11	20/05/2011
18196791	A06AD11	22/05/2011
22841276	A06AD11	06/06/2007
18186791	A06AD11	11/06/2004
16840985	A06AD11	05/08/2010
16721167	A06AD11	21/05/2011
18187355	A06AD11	04/05/2011
18191207	A06AD11	13/05/2011
21063510	A06AD11	19/07/2001
21063513	A06AD11	24/12/2002
18187579	A06AD11	04/07/2007
17596151	A06AD11	25/03/2011
16568445	A06AD11	15/01/2003
24669397	A06AD11	12/05/2011
18193951	A06AD11	06/03/2001
18956880	A06AD11	03/10/2010
25742893	A06AD11	01/12/2010
8334836	A06AD11	23/05/2008
2987559	A06AD11	17/05/2005
2251536	A06AD11	15/05/2011
2986710	A06AD11	02/10/2006
1368304	A06AD11	17/09/2007
2675323	A06AD11	24/04/2008
2988776	A06AD11	24/09/2004
2249632	A06AD11	10/12/2009
2962765	A06AD11	18/05/2011
2957533	A06AD11	02/09/2010
1910115	A06AD11	11/11/2003
1030188	A06AD11	27/05/2011
2997814	A06AD11	11/10/2004
2252098	A06AD11	13/12/2002
2997982	A06AD11	27/06/2007
1370205	A06AD11	23/01/2008
1018757	A06AD11	11/05/2009
6636027	A06AD11	15/03/2010
1909227	A06AD11	31/03/2010
3055681	A06AD11	25/04/2008
26853880	A06AD11	26/11/2007
26622992	A06AD11	28/01/2010
26776551	A06AD11	27/05/2011
26793408	A06AD11	01/07/2008
26770131	A06AD11	18/05/2011
26784175	A06AD11	19/05/2008
26621036	A06AD11	31/05/2010
26796008	A06AD11	15/09/2009
26778699	A06AD11	20/09/2010
26707359	A06AD11	13/08/2007
26724376	A06AD11	25/09/2007
26775659	A06AD11	21/04/2008
26628519	A06AD11	07/01/2010
26628537	A06AD11	19/09/2007
26776913	A06AD11	14/12/2010
26618354	A06AD11	25/09/2009
26700714	A06AD11	09/10/2009
26700153	A06AD11	30/12/2004
26703830	A06AD11	09/05/2011
26835058	A06AD11	23/02/2009
26803235	A06AD11	22/04/2010
14311205	A06AD11	20/04/2011
2994406	A06AD11	21/05/2007
22729856	A06AD11	07/04/2011
16105363	A06AD11	17/06/2009
3254435	A06AD11	11/02/2011
16842013	A06AD11	01/08/2007
24593705	A06AD11	23/11/2010
12976348	A06AD11	31/10/2001
12952534	A06AD11	22/08/2005
17165387	A06AD11	31/10/2005
2988267	A06AD11	21/07/2009
17160992	A06AD11	22/09/2010
2987010	A06AD11	08/02/2008
21553551	A06AD11	20/02/2009
10770222	A06AD11	25/02/2010
13871949	A06AD11	30/11/2010
16567893	A06AD11	02/06/2010
16567909	A06AD11	07/01/2008
2988492	A06AD11	14/03/2005
26618280	A06AD11	29/08/2005
26628010	A06AD11	05/10/2010
26620804	A06AD11	27/09/2007
26620827	A06AD11	25/05/2011
26620846	A06AD11	15/03/2010
26722846	A06AD11	18/08/2004
25740918	A06AD11	19/05/2010
26626604	A06AD11	14/04/2009
26617547	A06AD11	04/03/2011
26720593	A06AD11	31/05/2010
26622821	A06AD11	03/11/2010
16843464	A06AD11	07/03/2005
26620306	A06AD11	15/05/2006
26722472	A06AD11	24/04/2006
26706433	A06AD11	03/03/2008
26701387	A06AD11	09/05/2006
25740817	A06AD11	18/08/2008
26719166	A06AD11	09/11/2009
2990152	A06AD11	07/07/2009
26702888	A06AD11	21/10/2009
24657567	A06AD11	16/05/2003
24594053	A06AD11	04/06/2009
24578320	A06AD11	31/07/2006
24666066	A06AD11	11/02/2005
24594122	A06AD11	29/01/2010
24581188	A06AD11	13/04/2011
24655486	A06AD11	19/04/2010
24654918	A06AD11	05/04/2011
24651623	A06AD11	11/12/2008
24666854	A06AD11	17/05/2011
24582582	A06AD11	21/03/2011
21554193	A06AD11	26/04/2006
21062954	A06AD11	14/09/2010
24577204	A06AD11	06/04/2011
22922696	A06AD11	26/04/2011
23484979	A06AD11	02/05/2011
22922409	A06AD11	19/04/2011
22921551	A06AD11	21/11/2006
24656409	A06AD11	24/05/2011
20101872	A06AD11	07/05/2009
20835034	A06AD11	23/09/2010
21651855	A06AD11	25/10/2010
21651863	A06AD11	08/06/2009
23463234	A06AD11	16/08/2010
24583664	A06AD11	11/08/2006
24578434	A06AD11	15/12/2009
21064114	A06AD11	04/05/2006
24654773	A06AD11	23/03/2010
24582056	A06AD11	06/04/2011
22715573	A06AD11	27/03/2003
21651898	A06AD11	05/04/2006
24520378	A06AD11	24/04/2006
26959942	A06AD11	16/05/2011
26932654	A06AD11	06/08/2004
26932881	A06AD11	16/04/2011
26935501	A06AD11	09/03/2005
26917313	A06AD11	23/11/2004
26948632	A06AD11	07/03/2011
26900691	A06AD11	28/09/2007
26946963	A06AD11	23/05/2011
26941906	A06AD11	05/05/2006
26945515	A06AD11	20/06/2005
26889893	A06AD11	18/09/2010
26916199	A06AD11	19/05/2011
26899361	A06AD11	11/05/2011
26944305	A06AD11	16/09/2005
26890470	A06AD11	04/03/2011
26729787	A06AD11	06/04/2009
26768379	A06AD11	21/11/2007
26879225	A06AD11	11/05/2011
26781731	A06AD11	01/04/2008
26716003	A06AD11	28/03/2011
26782134	A06AD11	09/12/2008
26854601	A06AD11	20/04/2007
26754518	A06AD11	28/03/2007
26741963	A06AD11	26/05/2011
26712625	A06AD11	28/02/2011
26759249	A06AD11	21/01/2008
26771535	A06AD11	08/11/2010
26728276	A06AD11	15/12/2004
26779481	A06AD11	26/08/2009
26758983	A06AD11	02/11/2009
26871932	A06AD11	17/03/2011
26887048	A06AD11	26/05/2011
26754414	A06AD11	20/04/2007
26867285	A06AD11	04/02/2009
26863512	A06AD11	17/05/2011
26887344	A06AD11	01/12/2008
26900035	A06AD11	31/08/2007
26877329	A06AD11	19/06/2009
26876830	A06AD11	14/12/2007
26865369	A06AD11	19/05/2010
26886801	A06AD11	26/11/2010
26845956	A06AD11	12/08/2008
26877189	A06AD11	19/10/2010
26877242	A06AD11	22/09/2010
26962652	A06AD11	28/09/2004
26862985	A06AD11	20/04/2011
26847638	A06AD11	17/01/2008
26863249	A06AD11	01/04/2011
26845241	A06AD11	13/03/2008
26833703	A06AD11	15/03/2011
26784105	A06AD11	27/03/2006
26789735	A06AD11	26/05/2010
26791857	A06AD11	05/11/2008
26776303	A06AD11	29/06/2009
26793746	A06AD11	31/08/2005
26829352	A06AD11	15/05/2011
26769553	A06AD11	03/01/2008
26812125	A06AD11	01/04/2008
26775692	A06AD11	25/09/2003
26792812	A06AD11	26/01/2006
26742253	A06AD11	04/08/2006
26714270	A06AD11	10/10/2006
26717001	A06AD11	14/03/2011
26715346	A06AD11	27/11/2009
26815919	A06AD11	18/11/2004
26853253	A06AD11	14/12/2010
26760283	A06AD11	02/06/2006
27044460	A06AD11	04/02/2008
26995682	A06AD11	04/05/2011
26977158	A06AD11	21/05/2011
26957990	A06AD11	01/02/2008
27080882	A06AD11	11/10/2005
27056041	A06AD11	09/02/2005
27056050	A06AD11	10/10/2006
26990015	A06AD11	05/01/2009
26989053	A06AD11	04/03/2011
26979441	A06AD11	20/03/2010
26973247	A06AD11	02/12/2009
26939942	A06AD11	09/05/2011
27087271	A06AD11	13/01/2011
27107902	A06AD11	05/10/2004
27105324	A06AD11	14/10/2010
27112721	A06AD11	23/08/2006
27085252	A06AD11	28/04/2011
27086485	A06AD11	30/05/2011
27086487	A06AD11	14/11/2007
27102365	A06AD11	15/02/2007
27103558	A06AD11	20/04/2005
27114769	A06AD11	09/02/2011
27087864	A06AD11	22/05/2011
27134801	A06AD11	01/09/2009
27098823	A06AD11	01/06/2007
27116894	A06AD11	31/12/2009
27086095	A06AD11	27/10/2004
27108276	A06AD11	19/04/2011
27113158	A06AD11	24/04/2008
27085859	A06AD11	03/03/2011
27087139	A06AD11	08/01/2008
27086224	A06AD11	17/05/2011
27100788	A06AD11	07/03/2011
27113018	A06AD11	09/12/2003
27133477	A06AD11	03/12/2010
27108993	A06AD11	09/06/2005
27102811	A06AD11	22/06/2010
27151506	A06AD11	10/06/2004
27085041	A06AD11	02/05/2006
27075643	A06AD11	08/09/2009
27133601	A06AD11	16/03/2011
27052734	A06AD11	26/01/2006
27046614	A06AD11	03/09/2007
27072298	A06AD11	08/10/2010
27103593	A06AD11	17/12/2010
27075029	A06AD11	05/04/2011
27082854	A06AD11	27/04/2006
27074929	A06AD11	10/03/2009
27085882	A06AD11	18/12/2006
27106068	A06AD11	18/04/2011
27060946	A06AD11	08/09/2008
27054915	A06AD11	10/09/2009
27085906	A06AD11	07/01/2011
27033115	A06AD11	23/02/2010
27078801	A06AD11	11/08/2006
27065487	A06AD11	01/06/2011
27112061	A06AD11	02/08/2004
27066800	A06AD11	17/05/2011
27056356	A06AD11	14/07/2010
27037502	A06AD11	06/09/2005
26996974	A06AD11	18/07/2005
27005260	A06AD11	24/05/2011
27041316	A06AD11	31/05/2011
27014607	A06AD11	26/06/2009
26994966	A06AD11	22/03/2011
27022968	A06AD11	07/05/2009
27036781	A06AD11	22/09/2008
27025011	A06AD11	22/08/2007
27021879	A06AD11	29/07/2005
27022688	A06AD11	28/09/2006
27038386	A06AD11	18/01/2008
27000807	A06AD11	11/05/2011
27032118	A06AD11	18/12/2007
27005513	A06AD11	03/06/2009
27039805	A06AD11	03/08/2009
27039817	A06AD11	18/09/2007
27363911	A06AD11	05/08/2008
27348961	A06AD11	10/09/2009
27379761	A06AD11	26/04/2011
27213014	A06AD11	02/09/2008
27328085	A06AD11	25/11/2009
27383534	A06AD11	04/09/2009
27138466	A06AD11	13/08/2009
27369270	A06AD11	19/05/2011
27326394	A06AD11	11/11/2008
27219870	A06AD11	17/05/2008
27148073	A06AD11	19/04/2011
27219884	A06AD11	01/06/2011
27167505	A06AD11	27/09/2006
27214070	A06AD11	03/04/2008
27254109	A06AD11	27/04/2011
27306823	A06AD11	25/01/2011
27303621	A06AD11	09/03/2011
27303624	A06AD11	27/05/2011
27214263	A06AD11	31/03/2008
27249436	A06AD11	23/10/2009
27238000	A06AD11	11/08/2010
27352971	A06AD11	01/09/2010
27319914	A06AD11	10/05/2011
27295852	A06AD11	09/11/2004
27229388	A06AD11	02/08/2002
27247846	A06AD11	08/08/2001
27315277	A06AD11	30/05/2011
27319659	A06AD11	08/09/2010
27349595	A06AD11	14/01/2005
27369903	A06AD11	04/08/2010
27346014	A06AD11	10/12/2010
27313810	A06AD11	08/10/2010
27367264	A06AD11	09/05/2011
27360881	A06AD11	10/05/2011
27361358	A06AD11	31/05/2011
27348533	A06AD11	07/10/2010
27317311	A06AD11	06/04/2010
27168973	A06AD11	16/05/2006
27362286	A06AD11	02/07/2009
27296189	A06AD11	16/03/2001
27217716	A06AD11	28/02/2011
27170141	A06AD11	22/10/2007
27246754	A06AD11	16/05/2011
27249965	A06AD11	01/07/2010
26954101	A06AD11	01/06/2011
27197845	A06AD11	09/06/2005
26957165	A06AD11	03/02/2011
26975002	A06AD11	23/05/2008
26950673	A06AD11	08/03/2005
27389179	A06AD11	04/04/2009
27212879	A06AD11	07/12/2007
27252810	A06AD11	21/02/2011
26988657	A06AD11	10/05/2011
26960523	A06AD11	03/08/2004
27247220	A06AD11	16/05/2011
27171327	A06AD11	03/08/2009
27597152	A06AD11	15/03/2007
27576235	A06AD11	11/05/2011
27607475	A06AD11	20/07/2009
27571525	A06AD11	05/04/2011
27575329	A06AD11	27/04/2005
27592082	A06AD11	28/04/2005
27546225	A06AD11	02/04/2011
27640410	A06AD11	31/10/2008
27600652	A06AD11	26/01/2011
27595644	A06AD11	02/04/2008
27641447	A06AD11	10/03/2011
27600699	A06AD11	24/05/2010
27596947	A06AD11	11/04/2007
27577033	A06AD11	21/04/2011
27600750	A06AD11	24/09/2010
27656239	A06AD11	08/09/2010
27596352	A06AD11	06/04/2009
27657894	A06AD11	21/03/2011
27614105	A06AD11	27/10/2008
27624082	A06AD11	15/12/2007
27633300	A06AD11	15/07/2010
27470568	A06AD11	14/12/2009
27442320	A06AD11	29/03/2005
27444188	A06AD11	13/03/2006
27473325	A06AD11	07/02/2006
27475827	A06AD11	03/03/2011
27493393	A06AD11	03/06/2009
27493425	A06AD11	21/05/2007
27493267	A06AD11	24/10/2008
27445390	A06AD11	16/04/2009
27473383	A06AD11	19/05/2011
27420742	A06AD11	14/05/2011
27660447	A06AD11	29/04/2008
27658377	A06AD11	18/02/2009
27647710	A06AD11	26/04/2010
27572382	A06AD11	18/05/2011
27622861	A06AD11	06/11/2009
27564070	A06AD11	24/08/2006
27707969	A06AD11	22/10/2009
27759030	A06AD11	19/10/2010
27452389	A06AD11	06/10/2010
27761731	A06AD11	17/12/2010
27564600	A06AD11	07/03/2011
27543445	A06AD11	20/07/2010
27760704	A06AD11	12/04/2010
27570581	A06AD11	31/05/2011
27564868	A06AD11	22/11/2005
27605030	A06AD11	09/12/2009
27573184	A06AD11	12/02/2008
27614614	A06AD11	14/11/2008
27614866	A06AD11	19/11/2010
27694922	A06AD11	17/05/2011
27546307	A06AD11	19/05/2011
27621566	A06AD11	04/11/2010
27761424	A06AD11	21/10/2009
27287429	A06AD11	04/01/2010
27479047	A06AD11	14/03/2011
27153665	A06AD11	12/05/2011
27151908	A06AD11	24/06/2010
27242200	A06AD11	03/03/2003
27283840	A06AD11	11/09/2009
27294843	A06AD11	05/11/2009
27228930	A06AD11	02/10/2003
27283981	A06AD11	20/11/2008
27153690	A06AD11	18/12/2006
27284523	A06AD11	31/01/2008
27147888	A06AD11	25/05/2011
27167731	A06AD11	15/08/2009
27147928	A06AD11	19/05/2011
27153800	A06AD11	14/02/2005
27146577	A06AD11	16/05/2011
27160272	A06AD11	20/01/2011
27284226	A06AD11	25/05/2011
27154137	A06AD11	31/01/2011
27295361	A06AD11	17/06/2005
27146606	A06AD11	23/05/2011
27127731	A06AD11	17/03/2005
27287802	A06AD11	21/01/2003
27127843	A06AD11	28/11/2008
27166063	A06AD11	26/04/2011
27000618	A06AD11	21/02/2011
27066420	A06AD11	12/04/2011
648889	A06AD11	25/05/2011
27321829	A06AD11	17/10/2008
27659684	A06AD11	11/05/2010
18187165	A06AD11	11/05/2011
26829603	A06AD11	01/02/2010
27352183	A06AD11	05/11/2007
27237301	A06AD11	02/10/2010
266530	A06AD11	21/05/2011
27533964	A06AD11	27/05/2011
27665197	A06AD11	07/01/2004
27772057	A06AD11	04/08/2008
27772101	A06AD11	22/09/2004
27533855	A06AD11	20/09/2006
27784044	A06AD11	08/05/2011
27773248	A06AD11	17/05/2011
27684789	A06AD11	11/11/2005
27456675	A06AD11	29/03/2011
27530374	A06AD11	30/05/2011
27785654	A06AD11	29/03/2010
27771588	A06AD11	07/04/2008
27683524	A06AD11	16/05/2007
27533224	A06AD11	20/09/2007
27686318	A06AD11	23/12/2010
27477136	A06AD11	23/05/2011
27531095	A06AD11	10/01/2005
27771990	A06AD11	02/06/2005
27678444	A06AD11	10/01/2008
27664085	A06AD11	04/05/2011
24654854	A06AD11	18/02/2008
27687190	A06AD11	28/10/2008
27666079	A06AD11	20/09/2010
27782736	A06AD11	23/05/2011
27533492	A06AD11	28/05/2011
27543143	A06AD11	30/05/2011
27369999	A06AD11	24/05/2010
27785751	A06AD11	30/05/2011
418255	A06AD11	01/08/2006
26952463	A06AD11	14/08/2009
27355732	A06AD11	15/06/2006
26825187	A06AD11	15/06/2007
27672548	A06AD11	15/06/2005
27687332	A06AD11	17/12/2002
27669167	A06AD11	24/05/2006
27539930	A06AD11	25/02/2011
27602719	A06AD11	15/12/2008
27648180	A06AD11	22/05/2011
27602350	A06AD11	23/07/2008
27575437	A06AD11	25/05/2011
27480179	A06AD11	12/02/2008
27455159	A06AD11	20/01/2005
27477235	A06AD11	16/07/2004
27302745	A06AD11	20/05/2011
27449518	A06AD11	30/08/2005
27528685	A06AD11	10/11/2004
27597325	A06AD11	08/08/2008
27459762	A06AD11	10/09/2010
27591699	A06AD11	29/07/2010
27535798	A06AD11	16/04/2004
27540250	A06AD11	24/05/2011
27574050	A06AD11	14/05/2011
27515270	A06AD11	29/04/2011
27515854	A06AD11	13/05/2011
27317448	A06AD11	06/08/2010
27477146	A06AD11	10/12/2007
27631227	A06AD11	27/04/2011
26933407	A06AD11	11/04/2010
27799332	A06AD11	29/05/2008
26946481	A06AD11	14/10/2008
26619933	A06AD11	28/05/2010
27346632	A06AD11	16/09/2010
27802903	A06AD11	18/10/2010
26777286	A06AD11	08/05/2011
26945611	A06AD11	11/08/2010
21651701	A06AD11	20/01/2010
27764992	A06AD11	09/11/2009
27398357	A06AD11	26/05/2011
27389399	A06AD11	24/11/2008
2958933	A06AD11	09/10/2007
27154246	A06AD11	11/07/2010
26992651	A06AD11	05/02/2010
27359351	A06AD11	19/08/2009
21064062	A06AD11	15/05/2011
26779066	A06AD11	09/09/2010
27796469	A06AD11	13/05/2011
27803448	A06AD11	01/07/2004
26971047	A06AD11	11/05/2011
27683295	A06AD11	20/06/2006
27579596	A06AD11	17/05/2011
26742398	A06AD11	05/01/2007
27764988	A06AD11	11/02/2011
27717617	A06AD11	08/04/2009
27763744	A06AD11	12/05/2011
27759574	A06AD11	25/09/2006
27668976	A06AD11	30/05/2011
27783945	A06AD11	24/06/2009
27720128	A06AD11	12/02/2009
27663903	A06AD11	10/06/2010
27806448	A06AD11	29/03/2011
27707606	A06AD11	16/05/2011
27686953	A06AD11	28/02/2008
27676260	A06AD11	03/11/2008
27167790	A06AD11	21/04/2010
27667247	A06AD11	25/05/2011
27810045	A06AD11	14/04/2004
27694886	A06AD11	13/05/2011
27797548	A06AD11	03/08/2004
27811586	A06AD11	06/08/2009
27797699	A06AD11	08/07/2008
27623151	A06AD11	19/08/2003
27716869	A06AD11	07/07/2006
27667214	A06AD11	11/05/2011
27384357	A06AD11	23/03/2011
27170744	A06AD11	15/01/2009
27773732	A06AD11	02/12/2010
27520212	A06AD11	22/05/2011
1361374	A06AD11	20/10/2009
24582212	A06AD11	27/10/2008
27471521	A06AD11	10/01/2005
27452134	A06AD11	22/12/2008
27797057	A06AD11	24/09/2007
301474	A06AD11	12/04/2009
27588768	A06AD11	05/01/2010
27614816	A06AD11	25/05/2011
26941998	A06AD11	28/05/2011
27775707	A06AD11	25/01/2005
27808239	A06AD11	13/02/2008
27794211	A06AD11	27/09/2005
27678355	A06AD11	17/05/2010
26866438	A06AD11	30/01/2009
26760853	A06AD11	20/09/2010
2957951	A06AD11	05/09/2008
26872972	A06AD11	19/04/2011
27763189	A06AD11	01/07/2004
26711256	A06AD11	23/05/2011
27246927	A06AD11	30/03/2011
27765473	A06AD11	20/11/2008
27765475	A06AD11	22/05/2011
27766849	A06AD11	29/05/2008
27663355	A06AD11	22/02/2011
26900545	A06AD11	31/05/2011
27796173	A06AD11	10/12/2010
27767563	A06AD11	02/06/2010
27358783	A06AD11	25/05/2011
26887104	A06AD11	28/01/2009
27807963	A06AD11	30/12/2004
27253447	A06AD11	22/03/2004
27663382	A06AD11	16/04/2010
27087876	A06AD11	11/05/2011
33040260	A06AD11	11/10/2010
33107586	A06AD11	26/08/2005
33047037	A06AD11	17/11/2003
33084349	A06AD11	05/11/2002
33018984	A06AD11	13/02/2009
33020018	A06AD11	21/09/2010
33008475	A06AD11	07/08/2009
33100103	A06AD11	08/03/2011
33104066	A06AD11	15/06/2008
33078559	A06AD11	07/05/2008
33037105	A06AD11	29/04/2009
33080368	A06AD11	24/06/2003
33043763	A06AD11	25/02/2003
33019812	A06AD11	23/10/2002
33041016	A06AD11	03/05/2011
33109326	A06AD11	26/02/2010
33077958	A06AD11	19/05/2008
33070234	A06AD11	25/01/2002
33099564	A06AD11	17/03/2003
33085788	A06AD11	16/03/2001
33113359	A06AD11	25/10/2007
33111340	A06AD11	01/09/2009
33075946	A06AD11	07/09/2007
33067601	A06AD11	01/09/2008
33089459	A06AD11	25/10/2010
33098852	A06AD11	29/04/2010
33063228	A06AD11	12/04/2011
33001039	A06AD11	17/05/2011
33065445	A06AD11	28/04/2011
33022736	A06AD11	29/09/2008
33025640	A06AD11	06/12/2008
33043461	A06AD11	01/08/2008
33126648	A06AD11	05/01/2010
33106608	A06AD11	04/02/2010
33113036	A06AD11	25/02/2011
33072290	A06AD11	24/03/2010
33050069	A06AD11	01/04/2011
33110326	A06AD11	09/05/2011
33056431	A06AD11	29/03/2007
33027943	A06AD11	06/05/2011
33028018	A06AD11	11/11/2008
33116010	A06AD11	08/02/2008
33016621	A06AD11	12/09/2008
33084411	A06AD11	24/11/2010
33052130	A06AD11	08/06/2006
33068276	A06AD11	03/06/2009
33099866	A06AD11	25/09/2007
33084645	A06AD11	07/02/2008
33018999	A06AD11	14/07/2010
33045539	A06AD11	03/02/2010
33026638	A06AD11	29/03/2005
33079795	A06AD11	01/04/2011
33008425	A06AD11	26/11/2010
33015969	A06AD11	15/02/2011
33018342	A06AD11	06/04/2009
33004433	A06AD11	06/04/2010
33104669	A06AD11	29/04/2011
33064888	A06AD11	20/07/2009
33069259	A06AD11	15/11/2005
33098337	A06AD11	20/06/2001
33113368	A06AD11	17/11/2008
33067037	A06AD11	06/08/2003
33030108	A06AD11	18/04/2011
33127008	A06AD11	24/09/2010
33132010	A06AD11	23/05/2011
33118796	A06AD11	27/04/2011
33047656	A06AD11	03/08/2007
33067653	A06AD11	11/01/2011
33072776	A06AD11	27/09/2005
33124982	A06AD11	08/06/2009
33068552	A06AD11	14/06/2010
33066001	A06AD11	11/10/2005
33079596	A06AD11	08/03/2011
33106358	A06AD11	26/02/2010
33032821	A06AD11	13/12/2010
179280	A06AD11	23/02/2004
27811936	A06AD11	12/05/2004
27796872	A06AD11	14/05/2011
27720541	A06AD11	10/03/2005
33079470	A06AD11	09/10/2003
27605240	A06AD11	23/10/2008
428067	A06AD11	10/05/2011
26637123	A06AD11	20/05/2011
2965961	A06AD11	18/02/2003
1361620	A06AD11	14/04/2005
19422878	A06AD11	05/08/2004
27798157	A06AD11	20/05/2011
13873657	A06AD11	05/09/2007
24669077	A06AD11	13/05/2005
1373130	A06AD11	28/10/2005
2959756	A06AD11	02/05/2011
33002823	A06AD11	12/05/2011
13873928	A06AD11	24/07/2007
27086613	A06AD11	13/06/2007
33019222	A06AD11	17/01/2001
265805	A06AD11	02/07/2009
16640292	A06AD11	22/06/2007
18765563	A06AD11	07/03/2006
16773808	A06AD11	24/11/2009
23382045	A06AD11	30/06/2009
16135206	A06AD11	19/06/2008
16178210	A06AD11	21/09/2010
16185833	A06AD11	21/03/2005
23320348	A06AD11	05/05/2011
16633713	A06AD11	17/02/2011
33231539	A06AD11	23/01/2004
20983764	A06AD11	14/07/2010
16619763	A06AD11	06/05/2011
33235235	A06AD11	12/06/2008
16602253	A06AD11	30/09/2005
33312211	A06AD11	03/12/2010
33077626	A06AD11	30/05/2011
16135369	A06AD11	28/12/2001
16614031	A06AD11	20/08/2007
33012908	A06AD11	27/04/2011
33090531	A06AD11	25/04/2011
33041177	A06AD11	15/01/2009
33116869	A06AD11	08/01/2008
33068298	A06AD11	27/10/2003
33070916	A06AD11	12/12/2003
33025341	A06AD11	28/02/2006
33008945	A06AD11	27/06/2006
33015324	A06AD11	22/10/2010
33116651	A06AD11	07/05/2008
33099541	A06AD11	02/03/2010
33085572	A06AD11	31/08/2010
33074992	A06AD11	05/10/2010
33000877	A06AD11	02/09/2009
33106625	A06AD11	28/03/2011
33060011	A06AD11	20/12/2010
33019718	A06AD11	19/08/2005
33078447	A06AD11	07/12/2001
33090788	A06AD11	19/05/2006
33025768	A06AD11	21/11/2007
33097482	A06AD11	02/03/2011
33027037	A06AD11	28/12/2009
33099089	A06AD11	03/09/2001
33052051	A06AD11	15/03/2011
33087238	A06AD11	11/11/2004
33050169	A06AD11	22/11/2010
33043124	A06AD11	31/05/2011
33068644	A06AD11	03/05/2006
33053146	A06AD11	30/04/2010
33098204	A06AD11	02/06/2009
33089997	A06AD11	04/01/2005
33045325	A06AD11	15/04/2009
33061480	A06AD11	28/06/2007
33097532	A06AD11	19/04/2011
33007261	A06AD11	20/02/2008
33101385	A06AD11	22/09/2009
33089947	A06AD11	22/03/2006
33061115	A06AD11	11/05/2011
33004385	A06AD11	19/05/2006
33093137	A06AD11	05/07/2010
33030998	A06AD11	08/11/2004
33072029	A06AD11	25/05/2011
33087055	A06AD11	27/05/2011
33093006	A06AD11	06/07/2009
33055038	A06AD11	18/06/2009
33004431	A06AD11	15/01/2010
33063691	A06AD11	28/09/2010
33066983	A06AD11	11/05/2004
33109860	A06AD11	21/07/2009
33067910	A06AD11	08/11/2004
33032181	A06AD11	03/06/2008
33110291	A06AD11	24/08/2009
33066033	A06AD11	19/04/2011
33086595	A06AD11	27/10/2004
33008358	A06AD11	12/06/2007
33003742	A06AD11	17/05/2011
33100135	A06AD11	29/01/2007
33039051	A06AD11	22/04/2009
33033974	A06AD11	27/01/2009
33012988	A06AD11	12/06/2006
16774206	A06AD11	04/04/2011
16166636	A06AD11	03/08/2010
16611190	A06AD11	15/09/2006
16602526	A06AD11	28/03/2005
33204026	A06AD11	26/05/2011
18771482	A06AD11	09/05/2011
23397390	A06AD11	29/04/2011
27984436	A06AD11	18/05/2009
16634678	A06AD11	12/08/2009
28021742	A06AD11	16/06/2008
14187882	A06AD11	26/04/2011
23316166	A06AD11	12/05/2011
16629078	A06AD11	16/10/2009
33258499	A06AD11	04/09/2007
16181789	A06AD11	18/05/2011
16173716	A06AD11	26/01/2005
33297088	A06AD11	05/08/2010
18768957	A06AD11	01/09/2009
33200115	A06AD11	10/12/2010
16133260	A06AD11	03/02/2004
16610720	A06AD11	04/09/2007
28021554	A06AD11	23/02/2009
27999910	A06AD11	29/04/2011
23315590	A06AD11	29/10/2007
18743061	A06AD11	16/08/2005
33207601	A06AD11	01/10/2009
23316381	A06AD11	30/07/2008
14188303	A06AD11	08/01/2010
33242352	A06AD11	05/04/2006
27865401	A06AD11	10/02/2011
33308205	A06AD11	12/09/2008
23408435	A06AD11	17/03/2009
16595962	A06AD11	20/08/2004
16596474	A06AD11	29/06/2010
33298156	A06AD11	28/08/2008
16637147	A06AD11	03/01/2006
16165687	A06AD11	31/01/2011
21117274	A06AD11	16/11/2010
16640222	A06AD11	16/03/2006
16705703	A06AD11	15/01/2001
23381959	A06AD11	09/11/2006
16182953	A06AD11	13/10/2010
28033422	A06AD11	14/12/2010
21113911	A06AD11	27/04/2011
33289683	A06AD11	30/11/2010
33298665	A06AD11	29/06/2010
28013389	A06AD11	05/01/2011
23408488	A06AD11	27/04/2011
23382344	A06AD11	15/02/2010
27877823	A06AD11	13/09/2001
16596125	A06AD11	15/01/2008
16595922	A06AD11	11/08/2008
16171684	A06AD11	29/10/2010
16606979	A06AD11	22/09/2005
33203750	A06AD11	19/02/2009
18762263	A06AD11	05/10/2010
16654162	A06AD11	04/01/2011
33312615	A06AD11	30/05/2011
16183158	A06AD11	01/03/2011
18768749	A06AD11	26/03/2004
16177766	A06AD11	12/04/2011
18762613	A06AD11	30/03/2010
28000274	A06AD11	29/04/2011
16178935	A06AD11	11/03/2011
23293211	A06AD11	31/03/2005
16184630	A06AD11	01/10/2010
27848097	A06AD11	04/05/2011
23410102	A06AD11	26/05/2011
33250951	A06AD11	11/08/2005
16640685	A06AD11	06/04/2010
16619951	A06AD11	07/10/2010
27947649	A06AD11	25/01/2011
16600704	A06AD11	11/04/2006
16705277	A06AD11	19/04/2004
21010991	A06AD11	10/12/2009
16712016	A06AD11	15/04/2011
16631316	A06AD11	14/01/2011
23402038	A06AD11	22/08/2006
23370714	A06AD11	20/04/2011
20986922	A06AD11	18/09/2008
20989808	A06AD11	14/04/2011
23401470	A06AD11	23/11/2007
16649380	A06AD11	26/01/2010
16627959	A06AD11	21/06/2004
23350435	A06AD11	07/10/2009
23402474	A06AD11	26/04/2004
16124521	A06AD11	21/08/2007
23369406	A06AD11	27/05/2011
23369058	A06AD11	31/08/2009
28028633	A06AD11	11/05/2010
23368415	A06AD11	04/04/2011
33231077	A06AD11	15/10/2010
14187892	A06AD11	05/08/2005
16654742	A06AD11	30/04/2007
33209870	A06AD11	09/11/2009
27914103	A06AD11	18/11/2009
28001776	A06AD11	19/10/2010
23342956	A06AD11	04/02/2011
16178575	A06AD11	17/07/2008
33248767	A06AD11	02/03/2009
16636819	A06AD11	12/06/2008
16633880	A06AD11	25/03/2011
28022506	A06AD11	01/12/2008
23319611	A06AD11	06/05/2010
23193794	A06AD11	08/01/2010
23353462	A06AD11	18/11/2010
23470708	A06AD11	26/05/2011
20986175	A06AD11	02/11/2007
23402345	A06AD11	14/10/2010
23402116	A06AD11	27/04/2011
16124869	A06AD11	18/04/2011
23354037	A06AD11	10/01/2011
23353469	A06AD11	10/02/2011
16607104	A06AD11	18/05/2007
16168740	A06AD11	29/02/2008
18755933	A06AD11	08/07/2010
23470982	A06AD11	16/09/2010
23406100	A06AD11	06/05/2011
23355331	A06AD11	01/07/2009
16607281	A06AD11	16/01/2006
23326017	A06AD11	14/10/2009
18728304	A06AD11	02/03/2011
20986311	A06AD11	17/04/2009
16621614	A06AD11	30/11/2010
23366586	A06AD11	16/05/2011
20985436	A06AD11	20/05/2011
27927780	A06AD11	26/04/2011
23326929	A06AD11	23/02/2011
16648142	A06AD11	20/09/2004
14189326	A06AD11	29/06/2007
21109126	A06AD11	31/05/2010
33202430	A06AD11	06/10/2008
16651439	A06AD11	03/01/2007
16637922	A06AD11	03/07/2007
33235211	A06AD11	28/04/2011
16634388	A06AD11	03/05/2010
16707810	A06AD11	15/09/2005
33225410	A06AD11	11/08/2010
14187326	A06AD11	02/07/2001
16607575	A06AD11	01/06/2011
23381566	A06AD11	05/04/2011
33291051	A06AD11	31/05/2011
16636548	A06AD11	21/03/2007
16712546	A06AD11	18/06/2004
23318897	A06AD11	18/05/2011
27983666	A06AD11	05/05/2011
23362153	A06AD11	27/06/2008
18757709	A06AD11	23/07/2010
16656226	A06AD11	28/02/2011
33201152	A06AD11	17/07/2009
31181468	A06AD11	30/05/2003
31184327	A06AD11	19/09/2008
29352730	A06AD11	09/05/2011
31364482	A06AD11	14/09/2005
32156704	A06AD11	14/10/2009
32224309	A06AD11	13/05/2009
31540727	A06AD11	13/05/2002
23336001	A06AD11	04/06/2010
33245098	A06AD11	08/04/2010
23386350	A06AD11	08/11/2010
16649316	A06AD11	12/01/2009
16124564	A06AD11	30/09/2008
16639897	A06AD11	22/12/2003
16773532	A06AD11	15/11/2010
16623961	A06AD11	26/04/2011
23349604	A06AD11	27/05/2011
23354151	A06AD11	27/08/2010
23338189	A06AD11	30/01/2008
28032528	A06AD11	12/05/2010
27847320	A06AD11	27/05/2011
21103023	A06AD11	28/03/2011
23319191	A06AD11	26/03/2007
23368818	A06AD11	19/05/2011
23327900	A06AD11	28/03/2011
16168876	A06AD11	11/05/2011
23401156	A06AD11	20/05/2011
23369142	A06AD11	28/07/2010
23367389	A06AD11	02/01/2008
18755454	A06AD11	14/05/2009
23402803	A06AD11	08/10/2007
16124689	A06AD11	29/07/2005
33244556	A06AD11	31/05/2011
16598501	A06AD11	07/01/2002
16598726	A06AD11	11/04/2011
16615226	A06AD11	18/05/2011
33312325	A06AD11	13/04/2011
23353918	A06AD11	04/06/2008
23367214	A06AD11	01/06/2011
16774215	A06AD11	06/09/2007
16598025	A06AD11	28/01/2010
21110578	A06AD11	04/12/2009
23332754	A06AD11	07/10/2010
16621754	A06AD11	10/12/2010
23343500	A06AD11	17/06/2010
33315724	A06AD11	20/04/2011
23315712	A06AD11	19/04/2011
31884529	A06AD11	26/11/2007
31218333	A06AD11	07/09/2006
31681468	A06AD11	05/05/2006
31632078	A06AD11	30/06/2005
31243783	A06AD11	26/08/2009
31541778	A06AD11	26/10/2010
31558228	A06AD11	01/06/2006
31638063	A06AD11	23/03/2005
32035438	A06AD11	28/01/2009
32183304	A06AD11	29/07/2010
31368284	A06AD11	18/03/2010
31418719	A06AD11	09/12/2003
31760268	A06AD11	06/06/2005
31641080	A06AD11	12/02/2010
31960155	A06AD11	13/07/2010
31435208	A06AD11	16/06/2010
31313850	A06AD11	24/09/2009
32250001	A06AD11	30/10/2009
31338329	A06AD11	01/09/2009
32201045	A06AD11	08/04/2008
31802366	A06AD11	29/10/2010
31780085	A06AD11	25/02/2009
32030907	A06AD11	07/07/2008
31973084	A06AD11	14/10/2009
31786629	A06AD11	20/11/2009
31900793	A06AD11	01/12/2008
31219084	A06AD11	04/01/2010
31103952	A06AD11	20/12/2006
31683932	A06AD11	24/10/2007
31547137	A06AD11	05/11/2008
31073820	A06AD11	31/07/2003
31383807	A06AD11	17/11/2010
31250085	A06AD11	31/10/2008
32233594	A06AD11	22/02/2010
31235313	A06AD11	16/04/2004
31208083	A06AD11	12/07/2005
31372636	A06AD11	29/06/2010
31976717	A06AD11	23/06/2008
31934885	A06AD11	19/11/2009
32133889	A06AD11	07/04/2011
31160621	A06AD11	27/04/2005
31226034	A06AD11	24/11/2009
32222585	A06AD11	02/12/2008
31203222	A06AD11	04/03/2008
31588614	A06AD11	18/07/2003
31446823	A06AD11	17/09/2007
31634372	A06AD11	14/10/2009
31796233	A06AD11	24/01/2003
31400996	A06AD11	13/11/2008
31378922	A06AD11	09/08/2010
31706287	A06AD11	03/11/2006
31340269	A06AD11	27/02/2006
32155986	A06AD11	28/11/2005
32273248	A06AD11	04/01/2007
31215985	A06AD11	16/02/2005
31053646	A06AD11	22/03/2006
32007446	A06AD11	15/06/2005
31260823	A06AD11	30/09/2009
31767728	A06AD11	26/06/2006
31504553	A06AD11	14/06/2005
32023018	A06AD11	30/05/2006
31605404	A06AD11	29/08/2008
31934644	A06AD11	30/10/2007
31067713	A06AD11	03/04/2009
32082591	A06AD11	10/05/2005
32011425	A06AD11	24/01/2011
31519123	A06AD11	19/03/2007
32172226	A06AD11	21/04/2003
31165793	A06AD11	19/01/2006
31542289	A06AD11	02/03/2009
31160878	A06AD11	18/02/2009
32262825	A06AD11	29/09/2004
31260334	A06AD11	15/10/2010
31969864	A06AD11	06/04/2011
31404679	A06AD11	11/08/2008
31478432	A06AD11	19/08/2005
31276014	A06AD11	15/10/2008
31922867	A06AD11	13/01/2010
32099939	A06AD11	15/11/2010
31765237	A06AD11	10/06/1999
31280316	A06AD11	07/04/2009
31628785	A06AD11	10/11/2005
31399950	A06AD11	13/05/2005
31766536	A06AD11	21/09/2005
31841569	A06AD11	20/01/2005
31514222	A06AD11	10/11/2006
31374849	A06AD11	02/08/2002
31400525	A06AD11	19/07/2004
31627593	A06AD11	17/09/2010
31787535	A06AD11	03/12/2008
31051853	A06AD11	23/01/2007
31170706	A06AD11	11/11/2008
31345157	A06AD11	26/06/2009
32224890	A06AD11	31/03/2011
31642952	A06AD11	10/01/2011
32148032	A06AD11	22/12/2009
31533750	A06AD11	01/06/2011
32144155	A06AD11	03/08/2001
31201412	A06AD11	26/06/2007
31236375	A06AD11	10/10/2007
31562450	A06AD11	02/01/2002
31677756	A06AD11	21/09/2009
31410312	A06AD11	20/05/2004
31611686	A06AD11	17/05/2005
31761283	A06AD11	04/12/2001
31793709	A06AD11	15/01/2009
32021702	A06AD11	24/09/2009
31987098	A06AD11	22/12/2009
31489624	A06AD11	27/10/2008
31122571	A06AD11	08/10/2003
31933159	A06AD11	11/04/2007
31352468	A06AD11	21/01/2010
31077319	A06AD11	17/12/2010
31771748	A06AD11	05/12/2006
32189208	A06AD11	02/07/2008
31322146	A06AD11	13/10/2006
32276110	A06AD11	17/06/2008
32282394	A06AD11	02/12/2009
31672279	A06AD11	18/03/2005
31999224	A06AD11	05/11/2007
31381296	A06AD11	04/09/2006
31060960	A06AD11	26/11/2003
31444611	A06AD11	03/03/2011
31574558	A06AD11	24/02/2006
31993382	A06AD11	23/04/2010
31988348	A06AD11	07/03/2007
31616283	A06AD11	28/04/2004
31679755	A06AD11	12/06/2009
31731947	A06AD11	24/07/2006
32168735	A06AD11	15/10/2008
32167454	A06AD11	14/09/2007
31851150	A06AD11	19/07/2010
31813848	A06AD11	07/09/2010
31534125	A06AD11	20/07/2010
31850691	A06AD11	08/04/2011
31468633	A06AD11	20/01/2009
31263799	A06AD11	10/01/2007
31041646	A06AD11	29/06/2007
31055703	A06AD11	07/03/2006
32280643	A06AD11	25/09/2006
32218783	A06AD11	03/05/2010
31598897	A06AD11	19/01/2006
32056435	A06AD11	20/03/2009
31901343	A06AD11	28/10/2005
31059184	A06AD11	20/12/2000
31107699	A06AD11	14/09/2004
31357201	A06AD11	16/09/2008
31271559	A06AD11	15/06/2007
32083864	A06AD11	30/05/2006
32022472	A06AD11	23/04/2010
31402775	A06AD11	22/03/2006
31277367	A06AD11	13/05/2009
31085353	A06AD11	19/05/2011
31990260	A06AD11	24/09/2009
31471872	A06AD11	14/03/2011
32146428	A06AD11	04/03/2008
31343010	A06AD11	19/11/2009
31654172	A06AD11	18/12/2007
31421685	A06AD11	24/02/2011
32192753	A06AD11	25/07/2000
31445619	A06AD11	12/07/2010
31918792	A06AD11	05/05/2004
31746464	A06AD11	16/04/2009
32187040	A06AD11	12/09/2003
31374114	A06AD11	19/08/2008
31136755	A06AD11	07/08/2009
31425224	A06AD11	07/09/2006
31049207	A06AD11	23/09/2009
31163272	A06AD11	21/02/2008
31109819	A06AD11	26/12/2003
31259853	A06AD11	03/11/2009
31697444	A06AD11	13/07/2004
32135703	A06AD11	17/12/2010
31342310	A06AD11	13/02/2006
31846245	A06AD11	13/12/2006
31416932	A06AD11	05/11/2004
31822514	A06AD11	23/11/2010
31641342	A06AD11	25/11/2009
31802205	A06AD11	19/12/2008
32245047	A06AD11	21/12/2010
31398449	A06AD11	06/04/2011
31331386	A06AD11	10/07/2007
31297297	A06AD11	26/03/2007
32197970	A06AD11	13/12/2005
32166286	A06AD11	28/03/2007
31752253	A06AD11	22/10/2009
31235701	A06AD11	07/03/2002
31038591	A06AD11	13/04/2005
31539772	A06AD11	10/03/2009
31672960	A06AD11	25/02/2004
31099705	A06AD11	06/06/2006
31949535	A06AD11	02/09/2008
31829326	A06AD11	18/11/2010
31567525	A06AD11	21/05/2009
32233279	A06AD11	16/03/2010
31328924	A06AD11	26/05/2004
31917687	A06AD11	07/08/2009
31636256	A06AD11	21/09/2009
31447433	A06AD11	13/11/2009
32197410	A06AD11	13/08/2008
31047288	A06AD11	21/06/2006
31352566	A06AD11	02/12/2009
32102032	A06AD11	03/07/2009
31284291	A06AD11	31/10/2006
31051184	A06AD11	14/01/2009
31076169	A06AD11	22/06/2005
31423636	A06AD11	18/10/2005
32074407	A06AD11	03/01/2008
31868358	A06AD11	04/12/2008
31108705	A06AD11	09/12/2008
31166710	A06AD11	15/03/2000
32239528	A06AD11	28/02/2008
31216431	A06AD11	12/12/2008
31759239	A06AD11	11/08/2008
31704498	A06AD11	05/06/2009
32204506	A06AD11	18/06/2008
31791916	A06AD11	16/07/2008
32035320	A06AD11	27/07/2010
31142772	A06AD11	18/05/2006
31790214	A06AD11	16/06/2009
32185788	A06AD11	18/11/2010
31224124	A06AD11	28/09/2010
32038064	A06AD11	17/10/2007
31959560	A06AD11	23/04/2007
31231113	A06AD11	09/09/2009
31299767	A06AD11	07/04/2010
32265725	A06AD11	25/06/2009
32243083	A06AD11	20/12/2002
31776909	A06AD11	09/09/2010
31719003	A06AD11	29/06/2010
31264054	A06AD11	07/10/2002
32259912	A06AD11	10/10/2008
32128492	A06AD11	01/07/2008
31397441	A06AD11	20/11/2008
32005669	A06AD11	14/09/2010
32174004	A06AD11	21/10/2005
31985233	A06AD11	09/09/2004
31184927	A06AD11	19/09/2008
31689803	A06AD11	06/07/2005
32004524	A06AD11	02/06/2009
32056262	A06AD11	15/10/2008
31097143	A06AD11	28/08/2006
31735989	A06AD11	29/06/2009
31665027	A06AD11	12/05/2005
31701050	A06AD11	09/02/2009
31103092	A06AD11	25/06/2007
31698320	A06AD11	07/09/2010
32036877	A06AD11	27/11/2007
31407204	A06AD11	17/09/1999
31396335	A06AD11	28/02/2011
31301711	A06AD11	13/01/2004
32084821	A06AD11	07/01/2011
32166018	A06AD11	20/04/2005
32136199	A06AD11	23/07/2007
31745772	A06AD11	27/03/2006
31076697	A06AD11	04/10/2005
31235668	A06AD11	27/05/2005
31283139	A06AD11	13/01/2009
31697264	A06AD11	21/04/2008
32100813	A06AD11	05/11/2002
31989306	A06AD11	04/01/2010
32258424	A06AD11	02/02/2011
31292596	A06AD11	15/10/2010
31276070	A06AD11	14/09/2007
32278996	A06AD11	08/05/2007
31638235	A06AD11	18/12/2006
31270824	A06AD11	16/12/2010
31933330	A06AD11	22/07/2003
31851612	A06AD11	05/01/2011
32153978	A06AD11	05/10/2009
32244371	A06AD11	28/12/2009
32059302	A06AD11	10/04/2001
32037940	A06AD11	09/12/2005
31464229	A06AD11	24/07/2008
31053170	A06AD11	22/11/2007
31322609	A06AD11	05/12/2008
32238575	A06AD11	20/11/2007
31267665	A06AD11	18/11/2009
31829833	A06AD11	01/04/2009
32002259	A06AD11	14/09/2006
31213457	A06AD11	15/04/2005
32262837	A06AD11	18/01/2007
31392273	A06AD11	29/12/2009
31440390	A06AD11	14/12/2009
31223261	A06AD11	09/03/2011
32260330	A06AD11	16/01/2008
31192302	A06AD11	20/10/2005
32182514	A06AD11	06/11/2007
31422036	A06AD11	17/09/2008
31501413	A06AD11	11/01/2006
31350214	A06AD11	23/10/2007
31875631	A06AD11	24/09/2009
31753548	A06AD11	09/09/2009
31534286	A06AD11	04/06/2009
31661434	A06AD11	22/09/2009
31880603	A06AD11	23/12/2009
31719017	A06AD11	15/10/2009
31490681	A06AD11	18/09/2009
31893634	A06AD11	08/10/2007
31897930	A06AD11	13/03/2006
31520032	A06AD11	18/04/2006
32004901	A06AD11	08/10/2002
31165913	A06AD11	06/04/2011
32219933	A06AD11	23/05/2006
32077464	A06AD11	28/08/2007
31223044	A06AD11	19/01/2006
32247232	A06AD11	07/05/2008
31999088	A06AD11	09/11/2010
31926643	A06AD11	15/10/2008
31893089	A06AD11	26/05/2004
31741824	A06AD11	06/04/2011
31712570	A06AD11	28/10/2009
32028950	A06AD11	24/11/2009
31660701	A06AD11	19/05/2004
31369580	A06AD11	01/12/2010
31048661	A06AD11	03/12/2008
31804458	A06AD11	31/10/2005
32261215	A06AD11	02/02/2007
32087547	A06AD11	15/02/2011
31779664	A06AD11	23/12/2010
31901912	A06AD11	31/10/2003
31118559	A06AD11	18/12/2003
32195275	A06AD11	08/04/2002
31046464	A06AD11	14/05/2008
32190370	A06AD11	22/03/2010
31267614	A06AD11	16/12/2009
31081501	A06AD11	03/10/2006
31288912	A06AD11	10/08/2007
32017201	A06AD11	20/07/2009
31815136	A06AD11	25/03/2002
32119810	A06AD11	07/05/2008
31081419	A06AD11	23/06/2006
31038595	A06AD11	22/06/2010
31584372	A06AD11	22/07/2008
32173642	A06AD11	06/04/2011
31396650	A06AD11	09/12/2009
31899790	A06AD11	27/10/2006
31602375	A06AD11	03/02/2011
31705228	A06AD11	29/09/2005
32141512	A06AD11	03/01/2005
31329070	A06AD11	12/07/2007
31319812	A06AD11	12/12/2003
31631947	A06AD11	17/12/2004
31492215	A06AD11	18/10/2005
31083276	A06AD11	15/09/2008
31793361	A06AD11	01/10/2010
31137946	A06AD11	16/11/2006
31806375	A06AD11	04/11/2008
31993988	A06AD11	14/03/2006
31240579	A06AD11	21/04/2009
31354176	A06AD11	24/11/2008
31788672	A06AD11	02/03/2011
31377619	A06AD11	22/08/2003
32010101	A06AD11	17/07/2009
31266640	A06AD11	18/08/2006
32128395	A06AD11	26/10/2004
31750115	A06AD11	17/07/2009
31989659	A06AD11	30/12/2009
31860679	A06AD11	28/11/2008
32136529	A06AD11	18/02/2010
31932902	A06AD11	26/12/2010
31396735	A06AD11	11/10/2007
31186475	A06AD11	05/06/2006
31505974	A06AD11	03/12/2009
31888707	A06AD11	27/07/2006
31173586	A06AD11	17/01/2005
32146088	A06AD11	07/09/2004
31068681	A06AD11	01/07/2004
31128087	A06AD11	13/10/2008
31637140	A06AD11	28/06/2007
31316108	A06AD11	29/08/2008
32111753	A06AD11	22/07/2009
31303279	A06AD11	06/04/2011
31990571	A06AD11	11/09/2003
31593327	A06AD11	31/08/2010
31244892	A06AD11	03/08/2009
31033092	A06AD11	09/06/2003
31514527	A06AD11	03/03/2011
32033587	A06AD11	28/03/2008
31593707	A06AD11	10/09/2009
32183116	A06AD11	19/11/2008
31782918	A06AD11	15/04/2002
32065071	A06AD11	25/04/2003
31474377	A06AD11	15/10/2009
32159112	A06AD11	19/12/2008
31992539	A06AD11	02/12/2009
32179642	A06AD11	27/11/2007
31172974	A06AD11	26/11/2009
31863698	A06AD11	30/10/2007
31235731	A06AD11	01/12/2009
31835704	A06AD11	29/03/2000
31823040	A06AD11	22/05/2008
31843748	A06AD11	01/12/2008
31554561	A06AD11	01/03/2010
32171353	A06AD11	20/05/2010
31471199	A06AD11	20/07/2010
31888462	A06AD11	10/05/2004
31426233	A06AD11	20/08/2007
32081822	A06AD11	08/03/2007
31710392	A06AD11	24/07/2007
31070039	A06AD11	29/10/2003
32083170	A06AD11	24/08/2004
32273397	A06AD11	07/09/2010
31820931	A06AD11	20/11/2009
31242151	A06AD11	29/12/2005
31289840	A06AD11	08/06/2009
31655861	A06AD11	04/02/2003
31609110	A06AD11	31/01/2006
32115145	A06AD11	03/07/2007
31142929	A06AD11	06/03/2008
31354855	A06AD11	29/06/2010
31159808	A06AD11	21/09/2004
31786114	A06AD11	19/09/2003
31415468	A06AD11	03/12/2004
31137112	A06AD11	04/06/2004
31669980	A06AD11	12/06/2007
31068246	A06AD11	31/07/2008
31672694	A06AD11	15/09/2009
32082014	A06AD11	29/08/2005
31320945	A06AD11	16/05/2007
31232170	A06AD11	12/12/2008
32125428	A06AD11	09/05/2006
31271069	A06AD11	18/09/2007
31352687	A06AD11	04/03/2002
31637667	A06AD11	12/06/2007
31820497	A06AD11	30/09/2008
31406581	A06AD11	11/01/2006
32210418	A06AD11	16/10/2003
31200673	A06AD11	30/07/2007
31474342	A06AD11	22/12/2010
31186052	A06AD11	08/08/2006
31384268	A06AD11	16/07/2010
32152162	A06AD11	28/02/2005
31490483	A06AD11	06/11/2006
31116078	A06AD11	17/10/2007
31174190	A06AD11	10/10/2007
31591787	A06AD11	10/07/2009
32282934	A06AD11	10/02/2005
32224262	A06AD11	02/08/2010
31333815	A06AD11	22/11/2004
31096236	A06AD11	22/12/2006
31341166	A06AD11	21/02/2006
32275147	A06AD11	25/05/2007
31765514	A06AD11	30/08/2007
31502904	A06AD11	29/11/2007
31596789	A06AD11	05/04/2004
31643551	A06AD11	12/03/2008
32090511	A06AD11	20/07/2004
32062851	A06AD11	20/10/2009
32009303	A06AD11	14/03/2007
32171369	A06AD11	18/04/2006
32238977	A06AD11	28/09/2006
32122282	A06AD11	26/11/2008
31926083	A06AD11	12/11/2009
32265312	A06AD11	07/06/2007
31349175	A06AD11	05/10/2005
31062380	A06AD11	11/11/2010
31964079	A06AD11	14/07/2008
31135885	A06AD11	08/07/2010
32008235	A06AD11	16/12/2009
31050240	A06AD11	15/12/2004
31847116	A06AD11	20/05/2009
31619024	A06AD11	11/08/2008
32076621	A06AD11	17/11/2005
31889249	A06AD11	26/10/2007
32081758	A06AD11	15/01/2009
32193941	A06AD11	21/09/2010
31405567	A06AD11	30/07/2008
31539806	A06AD11	26/03/2009
31657959	A06AD11	28/09/2006
31537972	A06AD11	22/07/2009
31775570	A06AD11	22/11/2001
31039433	A06AD11	18/12/2007
31894664	A06AD11	18/11/2008
31452657	A06AD11	24/05/2011
32175661	A06AD11	11/04/2006
31171608	A06AD11	16/11/2009
31341747	A06AD11	11/12/2007
31098580	A06AD11	20/10/2005
31945139	A06AD11	05/02/2003
31994929	A06AD11	07/04/2004
32065963	A06AD11	08/07/2004
31138152	A06AD11	31/07/2001
32058972	A06AD11	06/03/2009
31141817	A06AD11	10/12/2010
31254441	A06AD11	02/12/2010
31729599	A06AD11	28/02/2011
31159201	A06AD11	28/11/2006
32117849	A06AD11	30/11/2007
31057692	A06AD11	09/10/2009
31577491	A06AD11	18/02/2009
31430347	A06AD11	18/08/2004
31942616	A06AD11	18/02/2010
32058126	A06AD11	28/11/2008
31670481	A06AD11	21/02/2007
31611337	A06AD11	13/03/2009
31684900	A06AD11	28/12/2005
31712883	A06AD11	21/01/2011
31031831	A06AD11	30/05/2005
31080832	A06AD11	21/04/2006
32191042	A06AD11	27/03/2008
31949721	A06AD11	16/06/2010
31850345	A06AD11	06/10/2010
31380703	A06AD11	18/06/2009
32223263	A06AD11	30/01/2003
31745017	A06AD11	02/10/2008
31067422	A06AD11	29/05/2007
31657686	A06AD11	18/04/2006
31460189	A06AD11	12/04/2004
31807086	A06AD11	17/12/2009
32104396	A06AD11	10/08/2004
31161794	A06AD11	18/06/2003
32257370	A06AD11	25/09/2002
31489458	A06AD11	21/04/2004
31970294	A06AD11	25/06/2009
32083993	A06AD11	02/09/2003
31639593	A06AD11	29/06/2005
31919328	A06AD11	13/03/2007
31390875	A06AD11	16/05/2008
31927125	A06AD11	07/04/2011
31995451	A06AD11	19/12/2008
31962312	A06AD11	29/11/2006
31147617	A06AD11	07/10/2010
31375081	A06AD11	17/09/2007
32200227	A06AD11	06/04/2011
31401986	A06AD11	02/06/2010
31319115	A06AD11	28/03/2006
31047505	A06AD11	20/07/2010
32168006	A06AD11	26/10/2009
32036919	A06AD11	19/02/2002
31186532	A06AD11	21/09/2009
31605098	A06AD11	09/09/2008
31345381	A06AD11	17/04/2009
31420898	A06AD11	05/08/2008
31214599	A06AD11	13/05/2003
32205096	A06AD11	11/12/2008
31096124	A06AD11	14/11/2008
31090012	A06AD11	30/05/2007
31766843	A06AD11	22/01/2010
31947419	A06AD11	21/12/2010
31953400	A06AD11	25/04/2003
31368939	A06AD11	21/05/2004
31563177	A06AD11	27/03/2006
32014336	A06AD11	07/12/2006
31566072	A06AD11	29/12/2008
31386321	A06AD11	19/10/2010
32211928	A06AD11	08/03/2011
32280267	A06AD11	26/12/2006
31947465	A06AD11	04/12/2006
31678883	A06AD11	24/02/2010
31901197	A06AD11	28/03/2007
31648571	A06AD11	17/05/2006
31319521	A06AD11	29/05/2007
32239025	A06AD11	09/03/2011
32113542	A06AD11	18/02/2008
31378501	A06AD11	03/08/2006
31962165	A06AD11	02/09/2005
32232823	A06AD11	05/04/2006
31843315	A06AD11	13/03/2009
31647102	A06AD11	14/07/2008
31777213	A06AD11	06/06/2008
31340933	A06AD11	08/03/2005
31292816	A06AD11	27/12/2006
31726508	A06AD11	19/11/2009
32029714	A06AD11	05/01/2009
32221360	A06AD11	04/04/2006
31065272	A06AD11	17/04/2009
31330377	A06AD11	02/02/2007
31734758	A06AD11	21/03/2006
31903971	A06AD11	21/05/2008
31445281	A06AD11	23/04/2011
31702764	A06AD11	16/06/2008
32256945	A06AD11	07/03/2007
31051598	A06AD11	18/09/2003
32173478	A06AD11	19/05/2011
31901938	A06AD11	23/10/2003
32235458	A06AD11	20/06/2008
31604848	A06AD11	15/10/2007
31717321	A06AD11	14/07/2008
31444827	A06AD11	09/07/2008
31246026	A06AD11	20/07/2007
31724163	A06AD11	26/05/2011
32213023	A06AD11	23/11/2005
31142306	A06AD11	19/12/2007
32255508	A06AD11	11/08/2004
31399039	A06AD11	15/02/2007
32030751	A06AD11	07/03/2006
32093512	A06AD11	24/10/2007
31405983	A06AD11	02/10/2002
32173526	A06AD11	01/08/2005
31746793	A06AD11	03/05/2001
31226924	A06AD11	20/04/2010
31177447	A06AD11	11/06/2007
31076403	A06AD11	23/12/2009
31127168	A06AD11	14/03/2003
31487065	A06AD11	26/11/2009
31608584	A06AD11	07/03/2007
31225795	A06AD11	13/10/2008
31811710	A06AD11	11/01/2008
31159044	A06AD11	03/09/2010
32126935	A06AD11	15/07/2010
31391383	A06AD11	10/07/2007
31213814	A06AD11	27/11/2009
32050210	A06AD11	08/05/2008
31315620	A06AD11	22/12/2008
32118250	A06AD11	18/06/2002
32226138	A06AD11	28/06/2010
31323296	A06AD11	11/09/2003
32009536	A06AD11	01/12/2004
31036561	A06AD11	23/11/2005
31758759	A06AD11	20/02/2006
32079324	A06AD11	29/05/2006
31944943	A06AD11	09/08/2007
31545196	A06AD11	14/08/2007
31705692	A06AD11	06/05/2004
31767577	A06AD11	24/07/2009
32155126	A06AD11	28/01/2004
31755336	A06AD11	13/10/2005
32178097	A06AD11	19/10/2009
31572848	A06AD11	16/03/2006
31748673	A06AD11	07/10/2009
31883663	A06AD11	21/03/2005
31171012	A06AD11	18/08/2006
31655334	A06AD11	23/12/2003
31163879	A06AD11	26/11/2008
31854011	A06AD11	14/11/2005
31682966	A06AD11	06/04/2011
31071531	A06AD11	30/08/2004
31487862	A06AD11	08/09/2004
31641763	A06AD11	11/10/2004
31597504	A06AD11	29/06/2005
31804296	A06AD11	01/06/2010
31840483	A06AD11	09/05/2008
31960354	A06AD11	19/01/2007
31549250	A06AD11	23/09/2009
32104438	A06AD11	08/02/2010
31448770	A06AD11	31/01/2008
31393751	A06AD11	28/05/2008
31679948	A06AD11	29/10/2007
32158955	A06AD11	15/12/2009
31088663	A06AD11	06/05/2005
31304092	A06AD11	20/08/2010
32267988	A06AD11	29/03/2006
32117629	A06AD11	01/07/2003
31830506	A06AD11	21/05/2004
32210034	A06AD11	28/09/2006
31519051	A06AD11	21/06/2005
31061564	A06AD11	29/10/2009
32142008	A06AD11	31/07/2009
32144868	A06AD11	03/12/2010
31129429	A06AD11	01/09/2009
31403269	A06AD11	16/12/2008
31609117	A06AD11	25/06/2008
32263832	A06AD11	21/12/2005
31601474	A06AD11	22/01/2007
31961367	A06AD11	26/04/2005
31556912	A06AD11	03/01/2005
32206935	A06AD11	29/12/2008
32050762	A06AD11	07/04/2008
32254414	A06AD11	18/05/2007
31614016	A06AD11	18/06/2004
31400737	A06AD11	22/10/2009
31489537	A06AD11	20/12/2002
32264301	A06AD11	10/08/2005
31413160	A06AD11	08/08/2006
31756059	A06AD11	06/11/2001
31328449	A06AD11	13/01/2009
31735125	A06AD11	02/03/2011
31593623	A06AD11	30/01/2008
32207420	A06AD11	27/01/2005
32206134	A06AD11	22/07/2008
32129489	A06AD11	16/06/2009
31030230	A06AD11	09/12/2010
31493196	A06AD11	12/01/2006
31294988	A06AD11	06/11/2009
32129185	A06AD11	01/10/2010
32136272	A06AD11	04/03/2010
31104559	A06AD11	14/02/2007
31360336	A06AD11	25/08/2010
31493420	A06AD11	25/07/2007
31804586	A06AD11	17/10/2007
31933305	A06AD11	28/10/2010
31359480	A06AD11	07/06/2006
31378626	A06AD11	20/03/2007
31490502	A06AD11	28/08/2008
31556807	A06AD11	07/09/2010
31849795	A06AD11	02/11/2010
31707970	A06AD11	10/09/2007
32076594	A06AD11	15/07/2009
32172947	A06AD11	31/05/2006
31610642	A06AD11	12/11/2009
31788566	A06AD11	06/04/2011
31665299	A06AD11	23/10/2009
31427802	A06AD11	06/05/2008
32253685	A06AD11	21/08/2006
31746758	A06AD11	15/06/2010
31049205	A06AD11	07/05/2010
31264594	A06AD11	09/06/2006
31177288	A06AD11	06/06/2005
31696583	A06AD11	08/07/2009
32023313	A06AD11	02/01/2008
31735196	A06AD11	23/01/2008
31862342	A06AD11	20/01/2009
32105540	A06AD11	01/06/2005
31114959	A06AD11	10/06/2010
31741333	A06AD11	20/11/2008
31933388	A06AD11	31/10/2006
32113174	A06AD11	14/12/2007
31081424	A06AD11	04/12/2009
31897149	A06AD11	20/06/2008
31733512	A06AD11	15/02/2006
31158374	A06AD11	17/08/2007
31909312	A06AD11	22/06/2007
31685580	A06AD11	06/09/2005
31594361	A06AD11	29/05/2007
31921601	A06AD11	30/12/2010
31259283	A06AD11	03/03/2006
31171674	A06AD11	15/11/2010
31442945	A06AD11	20/02/2007
32154430	A06AD11	28/08/2009
31446349	A06AD11	11/10/2005
32132667	A06AD11	05/03/2009
31959501	A06AD11	24/09/2001
31861365	A06AD11	18/07/2007
31933257	A06AD11	26/09/2008
31480321	A06AD11	27/08/2007
31790134	A06AD11	16/09/2009
32253149	A06AD11	18/12/2009
31571106	A06AD11	03/06/2009
31805286	A06AD11	30/11/2004
32234308	A06AD11	02/12/2009
32029614	A06AD11	02/03/2007
31907428	A06AD11	24/08/2005
32148336	A06AD11	11/12/2008
31511874	A06AD11	01/09/2006
31183777	A06AD11	24/07/2009
31777453	A06AD11	13/12/2004
31916785	A06AD11	26/07/2007
31501116	A06AD11	21/11/2005
31615865	A06AD11	04/11/2005
31169067	A06AD11	07/09/2010
31888473	A06AD11	07/02/2006
31645396	A06AD11	13/10/2010
31546897	A06AD11	08/01/2007
31227279	A06AD11	28/11/2002
32274498	A06AD11	20/06/2007
32122599	A06AD11	12/12/2010
31905297	A06AD11	14/04/2008
31454501	A06AD11	27/10/2010
31217185	A06AD11	20/01/2010
32255967	A06AD11	01/08/2003
31222269	A06AD11	02/03/2011
32220436	A06AD11	09/02/2007
31561607	A06AD11	19/05/2008
31655593	A06AD11	15/04/2009
31049512	A06AD11	21/10/2004
32016763	A06AD11	25/03/2008
31696446	A06AD11	28/08/2006
31448577	A06AD11	11/03/2009
32066321	A06AD11	04/05/2010
32011511	A06AD11	21/11/2006
31550436	A06AD11	16/01/2007
31765523	A06AD11	22/09/2005
31360930	A06AD11	18/04/2006
31967668	A06AD11	24/01/2011
31691272	A06AD11	14/11/2007
31687770	A06AD11	25/04/2008
31647108	A06AD11	24/04/2009
31850117	A06AD11	26/04/2007
