patient_id	covar_name	date
12762320	A02BA02	24/03/2010
24721664	A02BA02	16/09/2010
24951660	A02BA02	01/04/2009
8979383	A02BA02	27/03/2002
23442359	A02BA02	17/07/2008
9319410	A02BA02	03/02/2005
23875772	A02BA02	28/12/2007
12738921	A02BA02	02/10/2007
21372644	A02BA02	25/02/2003
25042040	A02BA02	21/12/2007
10267737	A02BA02	30/11/2006
24730236	A02BA02	26/11/2009
12780476	A02BA02	23/06/2005
9133843	A02BA02	11/11/2005
6236520	A02BA02	16/08/2006
8784390	A02BA02	02/07/2002
8291674	A02BA02	12/02/2008
16109980	A02BA02	29/06/2010
1726934	A02BA02	10/01/2011
729621	A02BA02	12/09/2006
1940165	A02BA02	31/01/2002
6040714	A02BA02	29/09/2008
9999776	A02BA02	13/06/2007
8654002	A02BA02	24/11/2006
15035711	A02BA02	30/11/2010
9211548	A02BA02	09/01/2004
8292476	A02BA02	27/02/2002
12771754	A02BA02	21/01/2010
7244070	A02BA02	27/04/2006
8582118	A02BA02	10/05/2011
9251250	A02BA02	11/01/2007
8654401	A02BA02	29/08/2005
8559182	A02BA02	17/12/2007
9311736	A02BA02	19/04/2005
611913	A02BA02	04/10/2002
23471437	A02BA02	04/07/2006
12194393	A02BA02	28/04/2009
16815009	A02BA02	25/03/2011
20564963	A02BA02	10/05/2011
12774896	A02BA02	01/10/2007
9238570	A02BA02	18/01/2005
9309478	A02BA02	16/05/2006
10002116	A02BA02	16/04/2008
9996391	A02BA02	02/12/2010
9176899	A02BA02	27/11/2006
5813371	A02BA02	30/12/2004
1608275	A02BA02	11/03/2008
21871359	A02BA02	01/06/2004
6749631	A02BA02	22/05/2008
1731663	A02BA02	11/02/2003
8654979	A02BA02	29/11/2005
1731330	A02BA02	11/08/2003
10395800	A02BA02	19/04/2011
7349652	A02BA02	06/09/2004
6094356	A02BA02	18/09/2006
24950727	A02BA02	18/06/2008
8568002	A02BA02	02/06/2005
21870482	A02BA02	06/05/2002
12311602	A02BA02	19/04/2011
1516611	A02BA02	16/10/2008
15899686	A02BA02	24/03/2003
9214995	A02BA02	09/05/2011
11407938	A02BA02	29/03/2010
3938112	A02BA02	21/10/2010
24722159	A02BA02	15/03/2007
8960463	A02BA02	18/04/2005
3939492	A02BA02	21/07/2003
16530698	A02BA02	11/07/2006
9328550	A02BA02	09/09/2010
12729352	A02BA02	14/11/2006
15384882	A02BA02	20/02/2008
8274671	A02BA02	03/09/2007
10270793	A02BA02	11/11/2005
9249976	A02BA02	27/12/2004
8976351	A02BA02	17/08/2001
9388796	A02BA02	08/08/2007
8979056	A02BA02	30/01/2003
6625504	A02BA02	13/05/2003
8292029	A02BA02	24/03/2010
8979038	A02BA02	27/12/2007
730543	A02BA02	20/01/2011
1162228	A02BA02	01/02/2008
12477884	A02BA02	02/03/2010
15854322	A02BA02	09/12/2010
23472297	A02BA02	08/02/2006
12689052	A02BA02	02/12/2005
9390097	A02BA02	27/11/2003
8973286	A02BA02	30/06/2003
10331924	A02BA02	04/05/2009
17170188	A02BA02	23/12/2010
12479067	A02BA02	17/04/2007
10247712	A02BA02	16/12/2004
9995414	A02BA02	11/12/2007
25041739	A02BA02	07/02/2011
10394066	A02BA02	12/04/2011
59209	A02BA02	31/08/2000
16671572	A02BA02	21/04/2010
9984797	A02BA02	03/10/2003
9310935	A02BA02	17/03/2005
1694846	A02BA02	19/08/2005
9303849	A02BA02	04/04/2006
949778	A02BA02	30/05/2011
1433411	A02BA02	31/03/2008
9374623	A02BA02	24/11/2003
729812	A02BA02	19/09/2007
6759224	A02BA02	17/04/2006
702533	A02BA02	09/02/2010
8983512	A02BA02	05/03/2004
9020545	A02BA02	03/10/2005
1188645	A02BA02	20/02/2009
702090	A02BA02	25/02/2003
1930429	A02BA02	30/03/2009
12477883	A02BA02	02/10/2003
12779549	A02BA02	08/01/2008
21152552	A02BA02	28/08/2009
10605419	A02BA02	20/04/2011
20551807	A02BA02	21/02/2011
3119576	A02BA02	22/04/2002
9311828	A02BA02	16/05/2011
20564049	A02BA02	08/04/2003
12688723	A02BA02	10/03/2008
1161916	A02BA02	09/01/2002
8292513	A02BA02	22/05/2007
731962	A02BA02	18/03/2009
9386259	A02BA02	15/09/2008
6751368	A02BA02	28/06/2010
6752622	A02BA02	06/05/2004
9376347	A02BA02	17/03/2008
9250922	A02BA02	24/01/2011
20547221	A02BA02	10/11/2006
20549671	A02BA02	12/02/2003
7372257	A02BA02	29/05/2007
6417424	A02BA02	19/09/2001
12857769	A02BA02	10/09/2003
608929	A02BA02	26/08/2009
8643667	A02BA02	23/12/2010
12789429	A02BA02	29/09/2010
1302777	A02BA02	30/11/2010
7340423	A02BA02	19/10/2010
9389011	A02BA02	09/10/2007
9268428	A02BA02	14/10/2010
1937944	A02BA02	17/03/2010
2768779	A02BA02	28/04/2005
6080444	A02BA02	10/06/2010
1187397	A02BA02	19/07/2004
734248	A02BA02	30/10/2006
5035107	A02BA02	16/11/2004
14983299	A02BA02	15/03/2006
10270534	A02BA02	26/05/2011
3320517	A02BA02	16/09/2010
5867543	A02BA02	11/01/2007
740565	A02BA02	15/12/2009
21373765	A02BA02	02/12/2002
20569667	A02BA02	19/09/2006
8568268	A02BA02	10/10/2007
8786041	A02BA02	02/09/2003
12739033	A02BA02	07/05/2004
8653236	A02BA02	27/11/2008
9376383	A02BA02	08/02/2007
24951792	A02BA02	09/06/2004
3120941	A02BA02	28/11/2006
1937110	A02BA02	25/07/2002
9220097	A02BA02	13/04/2005
25051417	A02BA02	21/10/2003
8569955	A02BA02	07/03/2007
23472073	A02BA02	21/10/2005
1606582	A02BA02	18/04/2007
6759472	A02BA02	11/02/2002
9379016	A02BA02	19/07/2007
9231987	A02BA02	08/08/2002
25062482	A02BA02	24/03/2011
7152290	A02BA02	23/02/2010
8556270	A02BA02	01/02/2007
9996090	A02BA02	26/04/2006
3123206	A02BA02	11/06/2008
9375083	A02BA02	01/03/2006
8279117	A02BA02	04/03/2004
612341	A02BA02	29/03/2011
1433408	A02BA02	25/08/2005
3321866	A02BA02	22/04/2009
1162337	A02BA02	23/01/2003
9996304	A02BA02	17/05/2011
9319589	A02BA02	15/03/2006
6747967	A02BA02	04/05/2010
12789494	A02BA02	23/03/2006
9250646	A02BA02	13/04/2011
20549085	A02BA02	22/03/2002
8639376	A02BA02	23/07/2010
611433	A02BA02	17/07/2009
740366	A02BA02	19/04/2010
23442823	A02BA02	21/07/2004
9231345	A02BA02	14/09/2004
16926879	A02BA02	31/10/2008
10266394	A02BA02	22/07/2009
3501594	A02BA02	07/09/2006
612234	A02BA02	08/09/2010
1300852	A02BA02	18/03/2010
3123138	A02BA02	11/02/2008
9177749	A02BA02	10/04/2002
12479856	A02BA02	02/01/2006
8980123	A02BA02	19/06/2000
16978229	A02BA02	19/05/2010
9328263	A02BA02	03/03/2005
7349020	A02BA02	07/11/2007
13222276	A02BA02	13/03/2008
1940928	A02BA02	16/10/2001
8978915	A02BA02	06/11/2002
12478506	A02BA02	03/10/2005
12182584	A02BA02	25/07/2007
1163234	A02BA02	11/04/2006
9299339	A02BA02	25/05/2011
5812460	A02BA02	28/12/2004
12173193	A02BA02	06/10/2006
3304834	A02BA02	27/07/2009
8784792	A02BA02	21/12/2009
3937133	A02BA02	18/01/2008
6151749	A02BA02	18/10/2010
9274459	A02BA02	28/12/2007
1938542	A02BA02	17/03/2011
12790066	A02BA02	10/10/2008
21871596	A02BA02	03/06/2005
947478	A02BA02	14/08/2001
12857013	A02BA02	05/09/2008
12688464	A02BA02	11/05/2011
3502847	A02BA02	15/06/2004
3124058	A02BA02	17/05/2001
5201865	A02BA02	23/10/2009
1433461	A02BA02	03/02/2004
3247747	A02BA02	16/12/2003
12780211	A02BA02	17/09/2010
12761508	A02BA02	12/04/2010
24930936	A02BA02	01/12/2009
173517	A02BA02	13/01/2000
21373789	A02BA02	31/03/2005
20566164	A02BA02	23/01/2003
1940935	A02BA02	26/09/2005
10332498	A02BA02	15/09/2008
944325	A02BA02	28/10/2005
15434090	A02BA02	13/10/2005
3333511	A02BA02	21/08/2002
12765070	A02BA02	30/12/2008
16914726	A02BA02	11/06/2010
6889143	A02BA02	24/01/2003
16529815	A02BA02	23/07/2010
1515913	A02BA02	11/12/2000
3502098	A02BA02	20/10/2009
1938185	A02BA02	28/12/2001
12782081	A02BA02	19/11/2010
7405877	A02BA02	09/11/2010
3328765	A02BA02	06/07/2010
12730840	A02BA02	14/04/2009
12767162	A02BA02	24/06/2009
1064226	A02BA02	24/03/2003
10265951	A02BA02	28/09/2004
3330955	A02BA02	19/01/2009
8651387	A02BA02	04/03/2011
1063691	A02BA02	09/05/2003
3331417	A02BA02	27/04/2011
14859846	A02BA02	22/02/2011
23454243	A02BA02	27/04/2010
611502	A02BA02	06/04/2009
9320295	A02BA02	26/07/2005
732178	A02BA02	16/11/2004
12185700	A02BA02	23/09/2010
13223247	A02BA02	11/06/2010
9371260	A02BA02	28/12/2010
12183551	A02BA02	21/01/2011
12739599	A02BA02	18/04/2008
9327245	A02BA02	07/08/2009
6080303	A02BA02	19/10/2007
8973032	A02BA02	25/11/2010
703510	A02BA02	18/03/2010
6748638	A02BA02	02/08/2007
13994050	A02BA02	01/07/2009
2622526	A02BA02	14/08/2006
8786254	A02BA02	23/12/2003
9375773	A02BA02	28/04/2008
6745501	A02BA02	02/03/2007
8786220	A02BA02	25/04/2006
6756427	A02BA02	23/02/2005
3329757	A02BA02	17/06/2008
1940981	A02BA02	11/02/2003
8655966	A02BA02	30/05/2007
8655155	A02BA02	13/01/2009
9374541	A02BA02	19/06/2009
6888668	A02BA02	16/02/2011
945609	A02BA02	13/09/2001
1067593	A02BA02	09/10/2007
25051083	A02BA02	15/12/2008
11814620	A02BA02	18/05/2011
16530402	A02BA02	25/09/2003
10331385	A02BA02	24/06/2004
12774766	A02BA02	25/04/2011
10393675	A02BA02	16/04/2007
15061190	A02BA02	13/01/2011
24723964	A02BA02	21/01/2003
24764733	A02BA02	24/10/2005
10245628	A02BA02	22/02/2006
9376083	A02BA02	14/02/2006
8784712	A02BA02	14/02/2002
20546500	A02BA02	12/01/2000
3120831	A02BA02	01/06/2001
1942149	A02BA02	05/02/2007
9231512	A02BA02	12/05/2009
9135492	A02BA02	05/11/2003
9377924	A02BA02	23/02/2011
945665	A02BA02	19/05/2011
9346881	A02BA02	04/11/2008
25041721	A02BA02	25/03/2008
9996784	A02BA02	01/12/2008
697976	A02BA02	14/04/2003
25071580	A02BA02	05/05/2005
16559119	A02BA02	07/10/2008
14983731	A02BA02	06/06/2005
8556760	A02BA02	23/03/2010
9984428	A02BA02	28/06/2005
10246462	A02BA02	04/05/2011
20529000	A02BA02	11/05/2011
8988978	A02BA02	18/05/2004
9373440	A02BA02	10/07/2007
610477	A02BA02	28/09/2009
10332987	A02BA02	06/06/2007
10269880	A02BA02	08/02/2010
24764979	A02BA02	17/05/2007
12761502	A02BA02	13/07/2005
608337	A02BA02	25/09/2003
292904	A02BA02	03/06/2009
10246618	A02BA02	25/11/2003
9374566	A02BA02	17/03/2006
15720458	A02BA02	23/05/2011
730440	A02BA02	03/06/2003
12770831	A02BA02	12/01/2010
21871587	A02BA02	05/06/2001
9376385	A02BA02	29/07/2008
8787545	A02BA02	30/05/2011
8643485	A02BA02	08/03/2007
5024989	A02BA02	03/12/2010
8651304	A02BA02	10/05/2010
8556671	A02BA02	31/03/2006
6040773	A02BA02	30/03/2007
736944	A02BA02	15/09/2004
12183581	A02BA02	24/02/2010
25063429	A02BA02	03/09/2010
6759067	A02BA02	05/05/2011
1941220	A02BA02	13/05/2011
1462085	A02BA02	20/11/2007
8292494	A02BA02	10/11/2010
21373747	A02BA02	05/02/2010
9388272	A02BA02	04/08/2004
947196	A02BA02	28/08/2001
23454809	A02BA02	01/03/2004
16926576	A02BA02	11/10/2010
14859280	A02BA02	10/02/2011
6079922	A02BA02	23/03/2010
12173508	A02BA02	08/03/2005
7160662	A02BA02	05/03/2009
6235963	A02BA02	02/08/2005
17172482	A02BA02	05/08/2005
3328431	A02BA02	05/02/2010
209933	A02BA02	17/04/2008
12856801	A02BA02	03/02/2004
5813363	A02BA02	15/04/2004
25062686	A02BA02	16/07/2009
25048008	A02BA02	22/11/2006
23471965	A02BA02	24/11/2010
1064683	A02BA02	21/12/2007
16928007	A02BA02	22/05/2008
25043401	A02BA02	15/01/2007
12765626	A02BA02	08/10/2008
8582021	A02BA02	20/05/2008
9376584	A02BA02	01/06/2006
9370823	A02BA02	28/10/2010
21152643	A02BA02	06/05/2011
23685706	A02BA02	04/12/2009
12186350	A02BA02	30/06/2006
9377350	A02BA02	22/12/2004
9386723	A02BA02	29/12/2010
10331751	A02BA02	02/08/2004
5428629	A02BA02	05/09/2008
9376319	A02BA02	22/07/2004
9302300	A02BA02	12/06/2000
3246611	A02BA02	28/12/2007
8783486	A02BA02	08/11/2002
6243489	A02BA02	26/11/2009
12790379	A02BA02	23/01/2008
16530229	A02BA02	30/08/2007
8556206	A02BA02	23/11/2010
24952014	A02BA02	31/05/2011
1433271	A02BA02	22/07/2003
3322728	A02BA02	22/09/2010
16479239	A02BA02	10/12/2009
753709	A02BA02	02/10/2006
9220825	A02BA02	25/01/2005
1068170	A02BA02	13/01/2011
9310256	A02BA02	21/05/2008
5866498	A02BA02	18/05/2011
8294902	A02BA02	12/04/2011
1162980	A02BA02	06/03/2006
8291408	A02BA02	15/10/2001
8276707	A02BA02	23/09/2009
6079237	A02BA02	20/05/2003
12689058	A02BA02	07/10/2008
3940438	A02BA02	10/01/2008
731004	A02BA02	17/03/2005
20564355	A02BA02	03/09/2003
12766507	A02BA02	14/03/2006
730718	A02BA02	05/05/2009
5023568	A02BA02	10/02/2009
21370365	A02BA02	14/09/1999
19152943	A02BA02	01/03/2011
16530087	A02BA02	22/04/2008
24765208	A02BA02	12/01/2011
16098361	A02BA02	02/07/2007
16979253	A02BA02	05/06/2008
12692734	A02BA02	18/08/2006
25042976	A02BA02	21/07/2003
12788802	A02BA02	05/12/2005
14225181	A02BA02	16/03/2011
10247511	A02BA02	18/05/2011
21152212	A02BA02	29/10/2008
8558113	A02BA02	03/09/2010
6757580	A02BA02	05/11/2010
9378353	A02BA02	25/09/2003
8277782	A02BA02	20/04/2004
10268519	A02BA02	11/07/2005
3301140	A02BA02	12/06/2003
24765841	A02BA02	04/03/2011
1826887	A02BA02	21/04/2003
945163	A02BA02	17/09/2008
9320282	A02BA02	13/09/2010
6751810	A02BA02	26/12/2002
751585	A02BA02	13/12/2007
10270612	A02BA02	30/08/2004
5024803	A02BA02	13/05/2011
9984869	A02BA02	29/09/2010
24764494	A02BA02	20/11/2007
6744213	A02BA02	21/01/2008
8784295	A02BA02	18/02/2011
9384479	A02BA02	07/06/2005
17618962	A02BA02	10/05/2011
9385419	A02BA02	20/07/2005
24714483	A02BA02	09/06/2006
10333445	A02BA02	17/11/2009
6035529	A02BA02	01/02/2006
294603	A02BA02	08/04/2009
6415450	A02BA02	21/10/2003
7769748	A02BA02	12/02/2008
13986519	A02BA02	07/04/2006
6598367	A02BA02	04/03/2002
7781621	A02BA02	27/12/2000
13984382	A02BA02	07/12/2000
6841194	A02BA02	02/02/2007
5866117	A02BA02	18/08/2006
9378237	A02BA02	05/05/2004
603794	A02BA02	28/02/2008
9299616	A02BA02	14/01/2008
9375873	A02BA02	25/01/2008
12799896	A02BA02	13/10/2009
21644622	A02BA02	17/02/2003
8278371	A02BA02	25/03/2009
12763634	A02BA02	21/11/2008
9319598	A02BA02	27/09/2004
515932	A02BA02	01/04/2008
641170	A02BA02	13/09/2002
26139680	A02BA02	25/07/2005
640926	A02BA02	12/12/2005
1670509	A02BA02	18/11/2005
7776172	A02BA02	13/01/2010
1849585	A02BA02	30/04/2008
6601109	A02BA02	12/09/2006
1415991	A02BA02	23/05/2011
7797621	A02BA02	23/04/2002
7780208	A02BA02	06/10/2005
13081584	A02BA02	06/05/2010
1379596	A02BA02	16/08/2007
1853226	A02BA02	24/06/2010
1320118	A02BA02	20/01/2009
1851987	A02BA02	16/07/2010
1669842	A02BA02	05/07/2005
1321718	A02BA02	02/05/2007
1172020	A02BA02	02/12/2010
12605703	A02BA02	11/04/2010
1208256	A02BA02	17/05/2007
645590	A02BA02	18/09/2002
6211428	A02BA02	09/04/2002
1297038	A02BA02	16/10/2006
1665322	A02BA02	28/04/2004
7848534	A02BA02	15/03/2004
6842330	A02BA02	24/11/2008
1349650	A02BA02	12/01/2004
1276830	A02BA02	03/11/2000
6599830	A02BA02	18/07/2001
1853304	A02BA02	06/11/2007
18038985	A02BA02	30/11/2004
6841374	A02BA02	08/02/2010
638967	A02BA02	09/05/2001
1170851	A02BA02	07/06/2005
1209248	A02BA02	10/02/2005
1349300	A02BA02	24/05/2011
1854071	A02BA02	02/02/2009
13984900	A02BA02	15/06/2001
1853552	A02BA02	11/04/2003
1852312	A02BA02	11/05/1999
6597633	A02BA02	04/02/2008
13986469	A02BA02	26/04/2001
1263785	A02BA02	01/06/2004
1276765	A02BA02	22/11/2000
1200721	A02BA02	18/05/2006
5992233	A02BA02	10/12/2003
26139618	A02BA02	17/08/2005
2934862	A02BA02	06/05/2010
1205262	A02BA02	12/01/2005
1545758	A02BA02	20/05/2011
674519	A02BA02	20/08/2004
8933284	A02BA02	11/11/2010
17725242	A02BA02	12/11/2010
1296791	A02BA02	16/07/2003
6602978	A02BA02	30/10/2006
6841766	A02BA02	26/03/2008
8933362	A02BA02	01/06/2011
642912	A02BA02	25/07/2006
639892	A02BA02	16/09/2010
8955504	A02BA02	09/06/2010
1547134	A02BA02	10/09/2003
7965270	A02BA02	21/10/2009
8061402	A02BA02	03/12/2007
26139421	A02BA02	17/05/2010
7800815	A02BA02	28/05/2008
1545729	A02BA02	24/05/2011
7782943	A02BA02	28/12/2009
6603802	A02BA02	02/01/2002
26139493	A02BA02	16/05/2007
26139217	A02BA02	26/03/2007
539256	A02BA02	25/03/2003
8956630	A02BA02	04/05/2011
13986535	A02BA02	11/05/2006
6367124	A02BA02	26/11/2010
525534	A02BA02	20/05/2011
1350929	A02BA02	13/11/2003
13273125	A02BA02	06/08/2010
1264156	A02BA02	20/12/2010
7972720	A02BA02	04/05/2011
6591104	A02BA02	06/02/2003
1208195	A02BA02	21/07/2003
1850140	A02BA02	01/02/2010
540075	A02BA02	08/11/2005
1206818	A02BA02	26/05/2010
11017383	A02BA02	31/07/2008
1658853	A02BA02	11/05/2011
1277173	A02BA02	15/04/1999
1207086	A02BA02	11/04/2002
1319971	A02BA02	03/08/2004
1426345	A02BA02	02/08/2001
1202819	A02BA02	17/10/2005
8955223	A02BA02	04/01/2008
1172012	A02BA02	14/12/2010
1263626	A02BA02	06/11/2008
1378713	A02BA02	25/04/2007
648621	A02BA02	15/02/2008
6596782	A02BA02	24/05/2011
12187869	A02BA02	05/05/2004
7963946	A02BA02	11/01/2011
13986458	A02BA02	30/05/2011
1351123	A02BA02	18/08/2008
13081622	A02BA02	19/01/2010
6842460	A02BA02	31/08/2007
6555460	A02BA02	14/01/2009
7769677	A02BA02	02/02/2011
8955985	A02BA02	09/01/2009
7971322	A02BA02	13/05/2011
1850960	A02BA02	14/08/2007
1202324	A02BA02	11/10/2010
6602253	A02BA02	21/11/2003
6841266	A02BA02	18/08/2010
6841691	A02BA02	18/04/2011
6592990	A02BA02	31/08/2000
6400754	A02BA02	19/03/2007
639355	A02BA02	24/08/2006
7800730	A02BA02	29/04/2004
1199703	A02BA02	14/10/2003
26145718	A02BA02	02/06/2010
12189609	A02BA02	24/04/2000
7966096	A02BA02	11/10/2005
7776373	A02BA02	09/05/2011
1545327	A02BA02	29/10/2009
1425106	A02BA02	05/02/2002
1379065	A02BA02	16/04/2009
1349840	A02BA02	04/07/2001
1445050	A02BA02	14/11/2005
1351713	A02BA02	03/02/2003
1850404	A02BA02	26/04/2004
4700277	A02BA02	26/11/2007
404486	A02BA02	20/08/2010
2935027	A02BA02	26/09/2009
7697001	A02BA02	23/09/2010
6593289	A02BA02	16/05/2002
7849206	A02BA02	27/01/2011
1099425	A02BA02	12/03/2003
1129404	A02BA02	15/04/2002
1133221	A02BA02	11/01/2010
1640758	A02BA02	30/01/2006
25912905	A02BA02	08/07/2010
15798351	A02BA02	28/10/2009
12189499	A02BA02	05/05/2000
1132264	A02BA02	29/05/2011
716428	A02BA02	24/05/2011
25888228	A02BA02	29/12/2009
1638261	A02BA02	02/01/2008
1110947	A02BA02	10/12/2010
1261575	A02BA02	07/07/2006
1425322	A02BA02	16/08/2005
7847315	A02BA02	22/11/2005
1208369	A02BA02	24/01/2006
1129316	A02BA02	10/11/2003
25883584	A02BA02	24/08/2006
1639524	A02BA02	24/09/2010
1638708	A02BA02	14/10/2008
25891697	A02BA02	03/03/2010
22844462	A02BA02	08/11/2007
1134735	A02BA02	08/07/2004
1641154	A02BA02	12/12/2008
1102247	A02BA02	14/09/2004
25891334	A02BA02	02/01/2007
1102090	A02BA02	30/09/2005
1103763	A02BA02	19/05/2003
195582	A02BA02	18/01/2011
1639340	A02BA02	15/02/2007
1638565	A02BA02	06/04/2001
134966	A02BA02	09/08/2001
1027312	A02BA02	23/08/2006
1641058	A02BA02	02/11/2005
891364	A02BA02	31/10/2005
1639196	A02BA02	07/09/2007
1101747	A02BA02	10/01/2003
25886766	A02BA02	06/07/2010
995675	A02BA02	01/03/2010
1103441	A02BA02	17/04/2002
1638850	A02BA02	30/08/2005
1131283	A02BA02	29/01/2001
715968	A02BA02	27/04/2011
1104695	A02BA02	30/06/2004
5680429	A02BA02	01/12/2008
1101830	A02BA02	03/06/2003
1102451	A02BA02	22/03/2010
1032338	A02BA02	07/02/2002
1134288	A02BA02	27/11/2001
1639147	A02BA02	07/04/2009
25750805	A02BA02	20/12/2010
2646974	A02BA02	27/05/2011
1099585	A02BA02	13/12/2000
189189	A02BA02	20/05/2011
1648154	A02BA02	11/05/2011
21282892	A02BA02	22/07/2010
1110879	A02BA02	12/01/2005
1135359	A02BA02	02/03/2007
25891689	A02BA02	22/11/2010
1552431	A02BA02	13/01/2010
12788129	A02BA02	20/05/2009
1101335	A02BA02	27/07/2006
1100552	A02BA02	17/06/2010
1581133	A02BA02	08/11/2002
1558166	A02BA02	04/02/2005
996909	A02BA02	17/01/2001
717762	A02BA02	23/05/2011
1855343	A02BA02	12/01/2011
1552120	A02BA02	26/04/2002
1006885	A02BA02	04/07/2003
1102507	A02BA02	08/08/2001
1134693	A02BA02	19/09/2001
1131844	A02BA02	05/02/2004
1109593	A02BA02	21/04/2005
1132169	A02BA02	16/11/2010
3656051	A02BA02	05/08/2002
190945	A02BA02	26/06/2003
996350	A02BA02	27/11/2007
1103285	A02BA02	17/09/2001
1103284	A02BA02	23/01/2003
1103928	A02BA02	30/11/2004
194827	A02BA02	27/11/2002
717026	A02BA02	06/08/2004
1135038	A02BA02	25/03/2010
1555573	A02BA02	28/08/2001
16037893	A02BA02	30/10/2008
1031773	A02BA02	01/04/2003
1558068	A02BA02	15/04/2005
25886823	A02BA02	24/09/2008
1135681	A02BA02	12/01/2006
25889387	A02BA02	15/02/2011
1103551	A02BA02	24/05/2011
2136921	A02BA02	17/05/2010
2068498	A02BA02	16/04/2009
1647977	A02BA02	09/05/2011
2218596	A02BA02	21/08/2009
2058963	A02BA02	08/09/2004
2067508	A02BA02	04/02/2011
2058268	A02BA02	15/01/2002
2217471	A02BA02	21/12/2007
877568	A02BA02	25/09/2003
859996	A02BA02	03/05/2006
860279	A02BA02	06/03/2010
904929	A02BA02	23/05/2005
2140421	A02BA02	26/10/2007
1763629	A02BA02	17/06/2010
2044424	A02BA02	16/12/2003
2143938	A02BA02	27/05/2011
905430	A02BA02	23/08/2010
757536	A02BA02	26/04/2011
905655	A02BA02	15/01/2009
878841	A02BA02	21/11/2001
859041	A02BA02	23/01/2006
902142	A02BA02	22/10/2002
1763515	A02BA02	07/07/2010
1762584	A02BA02	04/01/2011
2035821	A02BA02	19/12/2003
4689365	A02BA02	11/10/2010
3055259	A02BA02	18/12/2008
2760233	A02BA02	23/01/2009
904069	A02BA02	24/10/2003
2034986	A02BA02	21/01/2008
860142	A02BA02	20/04/2009
4228920	A02BA02	24/02/2011
3052719	A02BA02	14/05/2009
3053603	A02BA02	10/01/2003
7047183	A02BA02	06/05/2011
7128035	A02BA02	24/11/2003
7128969	A02BA02	14/03/2011
7135180	A02BA02	16/04/2010
7128622	A02BA02	09/02/2005
2408474	A02BA02	01/06/2011
2752941	A02BA02	19/11/2010
2522313	A02BA02	23/08/2005
2407446	A02BA02	04/06/2008
17742027	A02BA02	21/08/2003
2522124	A02BA02	04/05/2011
2522658	A02BA02	11/04/2006
2519961	A02BA02	22/08/2006
28062656	A02BA02	16/07/2007
26410080	A02BA02	22/03/2010
26410629	A02BA02	18/10/2010
26425486	A02BA02	07/04/2000
26350877	A02BA02	25/08/2010
28059013	A02BA02	05/11/2004
28063099	A02BA02	19/04/2006
8116929	A02BA02	22/08/2003
7128442	A02BA02	12/07/2005
7134474	A02BA02	01/03/2010
7229842	A02BA02	13/02/2006
20673831	A02BA02	26/05/2009
18222877	A02BA02	20/05/2011
7139941	A02BA02	04/04/2007
26244722	A02BA02	21/08/2006
9652362	A02BA02	30/04/2011
26176201	A02BA02	05/08/2010
7136683	A02BA02	18/03/2005
26425357	A02BA02	21/07/2010
26425372	A02BA02	13/03/2001
24847695	A02BA02	14/05/2011
26425083	A02BA02	15/12/2003
26462371	A02BA02	08/07/2009
26217958	A02BA02	27/03/2008
26564522	A02BA02	09/08/2007
26441845	A02BA02	26/10/2006
20674000	A02BA02	15/05/2009
28042210	A02BA02	31/10/2003
26341767	A02BA02	18/02/2002
26459370	A02BA02	06/04/2011
26384450	A02BA02	04/05/2009
26255901	A02BA02	19/02/2001
17324116	A02BA02	19/05/2004
16836654	A02BA02	30/03/2010
13032210	A02BA02	18/04/2011
12967061	A02BA02	15/03/2004
10490976	A02BA02	30/06/2008
16952770	A02BA02	19/07/2009
13049153	A02BA02	20/04/2011
7228876	A02BA02	28/03/2003
16980452	A02BA02	17/12/2010
15650527	A02BA02	04/08/2010
422530	A02BA02	22/12/2003
185772	A02BA02	09/02/2007
2965216	A02BA02	20/01/2011
300617	A02BA02	09/03/2010
183388	A02BA02	10/05/2010
300241	A02BA02	11/05/2004
1908451	A02BA02	11/11/2008
1903409	A02BA02	01/06/2005
433263	A02BA02	14/07/2003
423010	A02BA02	15/10/1998
1900897	A02BA02	16/11/2009
306198	A02BA02	15/05/2003
301267	A02BA02	04/03/2008
307239	A02BA02	22/02/2007
307259	A02BA02	01/03/2008
302918	A02BA02	03/01/2003
184887	A02BA02	08/05/2011
433439	A02BA02	25/06/2009
419475	A02BA02	07/11/2007
185452	A02BA02	27/04/2011
422587	A02BA02	01/06/2004
300775	A02BA02	19/07/2010
1900723	A02BA02	08/11/2006
2964028	A02BA02	28/07/2003
464564	A02BA02	12/03/2008
16825771	A02BA02	23/07/2010
28077381	A02BA02	22/02/2010
28089859	A02BA02	18/05/2011
28083517	A02BA02	19/09/2000
28083692	A02BA02	04/09/2008
1754563	A02BA02	28/10/2010
28091078	A02BA02	15/03/2011
3049347	A02BA02	24/08/2007
2109580	A02BA02	03/05/2010
2132842	A02BA02	17/05/2011
13520117	A02BA02	24/04/2009
28078871	A02BA02	31/03/2005
424280	A02BA02	05/07/2005
435889	A02BA02	29/05/2010
424750	A02BA02	25/09/2000
6465704	A02BA02	26/05/2000
2525968	A02BA02	06/09/2004
186102	A02BA02	15/10/2002
181538	A02BA02	29/01/2010
649405	A02BA02	01/10/2008
304345	A02BA02	04/12/2001
187189	A02BA02	05/11/2003
184640	A02BA02	14/01/2005
2068739	A02BA02	18/09/2004
421631	A02BA02	18/06/2003
419430	A02BA02	05/05/1999
426562	A02BA02	02/04/2009
436327	A02BA02	01/07/2005
649804	A02BA02	29/10/2003
186409	A02BA02	25/02/2009
185260	A02BA02	19/01/2006
28069809	A02BA02	14/04/2006
425295	A02BA02	25/07/2007
183590	A02BA02	03/04/2003
2407083	A02BA02	12/08/2003
28058974	A02BA02	13/12/2004
265148	A02BA02	09/05/2006
185927	A02BA02	30/07/2003
28070991	A02BA02	09/08/2006
28052753	A02BA02	18/11/2004
28053782	A02BA02	16/07/2008
28071262	A02BA02	18/07/2005
28071783	A02BA02	18/04/2007
28066246	A02BA02	04/12/2000
28056690	A02BA02	01/12/2005
26488758	A02BA02	02/09/2009
24658624	A02BA02	09/04/2010
24669944	A02BA02	28/02/2003
24670093	A02BA02	11/09/2007
24665617	A02BA02	13/05/2006
24669056	A02BA02	18/01/2005
24663927	A02BA02	12/11/2009
25715383	A02BA02	31/01/2011
25641998	A02BA02	02/04/2007
25713588	A02BA02	03/03/2011
25535638	A02BA02	11/01/2006
24659447	A02BA02	08/09/2010
24661880	A02BA02	11/05/2011
24662063	A02BA02	23/09/2010
25742680	A02BA02	31/12/2010
25738531	A02BA02	12/04/2007
24670927	A02BA02	13/05/2010
25743607	A02BA02	28/08/2006
25744065	A02BA02	23/12/2010
25641792	A02BA02	07/01/2008
24666214	A02BA02	28/01/2010
24657074	A02BA02	10/03/2010
24668940	A02BA02	23/06/2004
24657011	A02BA02	13/08/2004
24670701	A02BA02	22/06/2010
24659420	A02BA02	08/12/2009
25741338	A02BA02	25/09/2009
24665845	A02BA02	10/01/2008
421960	A02BA02	17/07/2001
1365359	A02BA02	08/06/2006
1900288	A02BA02	29/01/2008
1019300	A02BA02	16/12/2004
1359894	A02BA02	17/05/2004
1911424	A02BA02	02/05/2003
1020342	A02BA02	06/09/2006
21064004	A02BA02	23/05/2011
18190199	A02BA02	09/03/2010
1343858	A02BA02	12/03/2001
1905426	A02BA02	30/05/2011
1369115	A02BA02	08/10/2008
1359193	A02BA02	06/10/2010
1372823	A02BA02	22/11/2000
1374270	A02BA02	06/04/2000
1368600	A02BA02	22/11/2007
1360745	A02BA02	25/03/2008
1020473	A02BA02	18/07/2006
1366229	A02BA02	08/05/2003
18193361	A02BA02	27/09/2004
1014507	A02BA02	11/01/2005
180311	A02BA02	13/06/2005
1371652	A02BA02	12/05/2001
16840697	A02BA02	07/12/2007
18192655	A02BA02	19/04/2008
1906965	A02BA02	16/05/2011
1913186	A02BA02	17/11/2008
1365817	A02BA02	11/10/2007
1363828	A02BA02	04/09/2001
1369224	A02BA02	13/05/2011
18198952	A02BA02	03/02/2005
1360903	A02BA02	30/10/2000
1030137	A02BA02	24/10/2005
1366853	A02BA02	03/08/2009
1018649	A02BA02	17/09/2003
1013147	A02BA02	25/01/2011
1029577	A02BA02	24/06/2009
1019112	A02BA02	27/01/2009
1016644	A02BA02	10/01/2006
1359321	A02BA02	21/06/2001
1374710	A02BA02	14/03/2006
1372573	A02BA02	09/11/2004
1372631	A02BA02	23/07/2009
1369058	A02BA02	15/02/2005
1371015	A02BA02	02/07/1999
926264	A02BA02	20/12/2001
1368854	A02BA02	28/08/2008
1366141	A02BA02	20/09/2010
422231	A02BA02	27/06/2000
1359005	A02BA02	02/12/2004
18188133	A02BA02	24/10/2003
21063127	A02BA02	02/10/2009
16812198	A02BA02	18/03/2006
18189318	A02BA02	19/07/2009
18196862	A02BA02	05/11/2002
21386520	A02BA02	06/05/2011
18197953	A02BA02	20/09/2001
16567276	A02BA02	05/10/2009
18192545	A02BA02	18/02/2011
18191207	A02BA02	26/05/2003
19801055	A02BA02	20/04/2010
18193282	A02BA02	21/03/2005
21063993	A02BA02	21/12/2007
18191652	A02BA02	29/04/2011
19801596	A02BA02	07/04/2004
1904747	A02BA02	30/06/2010
1371776	A02BA02	01/12/2004
2962765	A02BA02	20/05/2011
1365137	A02BA02	18/03/2008
1370391	A02BA02	26/11/2001
2250411	A02BA02	15/04/2003
2963681	A02BA02	03/08/2002
420454	A02BA02	09/01/2004
1030188	A02BA02	01/06/2011
1989405	A02BA02	07/01/2002
8109355	A02BA02	14/10/2005
1015995	A02BA02	12/01/2005
5703647	A02BA02	19/05/2011
1368824	A02BA02	01/02/2007
1363174	A02BA02	12/01/2010
1359768	A02BA02	26/12/2003
26703690	A02BA02	02/02/2006
26629409	A02BA02	29/06/2006
26791580	A02BA02	22/09/2009
26777136	A02BA02	13/02/2009
26626081	A02BA02	13/11/2006
26701512	A02BA02	16/12/2005
26640206	A02BA02	15/10/2003
26830512	A02BA02	10/08/2006
26722694	A02BA02	09/12/2009
26719457	A02BA02	29/01/2007
26618354	A02BA02	25/05/2009
26707630	A02BA02	30/04/2010
26700714	A02BA02	09/06/2010
26776996	A02BA02	10/12/2009
26700153	A02BA02	20/05/2011
26722085	A02BA02	24/06/2010
26800679	A02BA02	06/03/2009
26718272	A02BA02	02/11/2010
26722489	A02BA02	19/02/2010
26802409	A02BA02	17/01/2008
13812224	A02BA02	24/11/2006
2988700	A02BA02	20/05/2011
12975498	A02BA02	05/12/2002
16104648	A02BA02	07/01/2004
17121877	A02BA02	26/03/2008
2987010	A02BA02	31/05/2011
10770109	A02BA02	03/06/2008
12975430	A02BA02	22/09/2005
15891949	A02BA02	27/05/2011
11675457	A02BA02	24/11/2006
24655434	A02BA02	07/03/2006
10770222	A02BA02	11/03/2011
16567893	A02BA02	05/04/2006
2989966	A02BA02	10/03/2009
2988492	A02BA02	02/10/2009
17165183	A02BA02	09/09/2008
26722551	A02BA02	12/07/2004
26722558	A02BA02	24/11/2005
26620846	A02BA02	28/12/2007
26722846	A02BA02	03/02/2005
26659037	A02BA02	04/01/2010
26705842	A02BA02	10/06/2008
26640542	A02BA02	24/01/2003
16841844	A02BA02	19/09/2005
16843515	A02BA02	18/01/2007
14310735	A02BA02	31/05/2011
26706415	A02BA02	11/02/2011
26722745	A02BA02	25/01/2010
26722266	A02BA02	07/09/2007
26701387	A02BA02	02/05/2011
26618242	A02BA02	26/02/2004
24578320	A02BA02	02/03/2011
24658335	A02BA02	03/11/2009
24580650	A02BA02	23/10/2009
24581060	A02BA02	08/04/2008
24577473	A02BA02	05/05/2009
24663248	A02BA02	15/04/2003
24581788	A02BA02	04/02/2009
25624329	A02BA02	18/11/2004
24654931	A02BA02	30/03/2004
19968378	A02BA02	28/12/2005
21065021	A02BA02	25/02/2005
24582582	A02BA02	24/06/2010
24580218	A02BA02	15/03/2010
22921551	A02BA02	08/10/2002
22921553	A02BA02	02/04/2009
22882001	A02BA02	28/05/2008
21651387	A02BA02	13/01/2011
24583664	A02BA02	03/11/2006
21066299	A02BA02	20/07/2009
23484542	A02BA02	01/09/2009
24576957	A02BA02	09/01/2008
26942259	A02BA02	11/03/2003
27028562	A02BA02	14/05/2009
26917635	A02BA02	24/12/2008
26958469	A02BA02	18/02/2004
26935041	A02BA02	22/07/2004
26917313	A02BA02	30/09/2008
26897499	A02BA02	29/05/2011
26944866	A02BA02	09/04/2010
26916169	A02BA02	11/06/2003
26916180	A02BA02	26/11/2007
26920797	A02BA02	13/03/2006
26938608	A02BA02	08/08/2003
26946558	A02BA02	04/03/2008
26946449	A02BA02	10/02/2006
26946963	A02BA02	13/10/2006
26941906	A02BA02	27/10/2005
26917769	A02BA02	27/12/2008
26932935	A02BA02	22/08/2001
26992878	A02BA02	23/05/2011
26995117	A02BA02	21/01/2011
26942197	A02BA02	02/05/2008
26717135	A02BA02	23/08/2005
26720306	A02BA02	06/04/2011
26900241	A02BA02	04/10/2005
26781731	A02BA02	28/10/2010
26760881	A02BA02	11/06/2009
26714333	A02BA02	09/03/2005
26762365	A02BA02	30/01/2010
26742016	A02BA02	10/12/2008
26703793	A02BA02	22/05/2008
26782799	A02BA02	03/04/2010
26771518	A02BA02	24/08/2010
26776105	A02BA02	15/12/2010
26782340	A02BA02	29/04/2008
26714437	A02BA02	24/09/2010
26768988	A02BA02	07/08/2010
26859048	A02BA02	24/12/2007
26867156	A02BA02	04/12/2007
26899205	A02BA02	26/01/2009
26874543	A02BA02	30/03/2005
26857654	A02BA02	28/05/2007
26854943	A02BA02	18/04/2008
26859334	A02BA02	15/06/2006
26951590	A02BA02	23/10/2003
26936159	A02BA02	11/05/2007
26877242	A02BA02	14/12/2004
26882035	A02BA02	26/06/2010
26863190	A02BA02	25/05/2011
26802136	A02BA02	29/02/2008
26789438	A02BA02	27/05/2011
26780794	A02BA02	06/02/2006
26824327	A02BA02	05/01/2011
26789113	A02BA02	11/02/2005
26792107	A02BA02	01/06/2006
26812125	A02BA02	17/08/2001
26834404	A02BA02	08/03/2007
26714202	A02BA02	13/11/2008
26760950	A02BA02	22/08/2005
26789993	A02BA02	04/05/2006
26715319	A02BA02	01/06/2010
26835837	A02BA02	31/07/2007
26715346	A02BA02	30/08/2006
26761134	A02BA02	15/11/2005
27073825	A02BA02	04/10/2007
26976383	A02BA02	21/01/2009
26941661	A02BA02	04/07/2006
27005802	A02BA02	31/05/2011
27073378	A02BA02	04/08/2010
26947330	A02BA02	14/04/2008
27061807	A02BA02	29/01/2009
26957990	A02BA02	03/09/2003
27056041	A02BA02	01/02/2007
26957085	A02BA02	03/05/2007
26989053	A02BA02	17/01/2005
27067241	A02BA02	29/04/2009
26956977	A02BA02	24/03/2011
26939961	A02BA02	25/04/2006
26966567	A02BA02	09/06/2006
26990531	A02BA02	19/12/2008
27074052	A02BA02	10/04/2008
27074074	A02BA02	11/03/2011
27102099	A02BA02	06/02/2006
27105375	A02BA02	21/04/2009
27114481	A02BA02	11/05/2011
27113773	A02BA02	25/05/2006
27085746	A02BA02	04/11/2004
27151273	A02BA02	22/05/2007
27037601	A02BA02	11/04/2003
27113644	A02BA02	28/06/2004
27085563	A02BA02	09/09/2008
27137945	A02BA02	31/03/2005
27133462	A02BA02	22/10/2007
27153004	A02BA02	05/02/2007
27104236	A02BA02	20/12/2005
27129852	A02BA02	24/07/2003
27100098	A02BA02	12/12/2003
27130162	A02BA02	03/01/2006
27151506	A02BA02	22/05/2006
27079522	A02BA02	10/05/2011
27063268	A02BA02	19/01/2009
27031641	A02BA02	17/11/2006
27062396	A02BA02	28/11/2007
27042887	A02BA02	16/05/2011
27074265	A02BA02	24/01/2011
27073169	A02BA02	26/05/2006
27074474	A02BA02	11/03/2011
27073928	A02BA02	16/02/2007
27075029	A02BA02	26/05/2011
27074909	A02BA02	02/06/2005
27085512	A02BA02	04/07/2006
27078814	A02BA02	23/10/2006
27049237	A02BA02	13/05/2003
27055068	A02BA02	27/09/2006
27112061	A02BA02	14/11/2003
27027925	A02BA02	02/09/2004
27036442	A02BA02	15/10/2002
27040517	A02BA02	24/12/2003
27026349	A02BA02	03/05/2004
27036617	A02BA02	28/11/2002
26994454	A02BA02	21/05/2008
26981585	A02BA02	28/01/2008
27036972	A02BA02	21/01/2011
27023070	A02BA02	15/12/2007
27000699	A02BA02	25/01/2007
27025011	A02BA02	15/11/2005
27039592	A02BA02	18/12/2004
27026112	A02BA02	09/05/2007
26991142	A02BA02	22/12/2010
26994848	A02BA02	25/05/2011
26981833	A02BA02	29/07/2003
27041680	A02BA02	13/05/2011
26999375	A02BA02	31/12/2009
27000732	A02BA02	10/01/2008
27039849	A02BA02	12/01/2006
27326808	A02BA02	14/05/2004
27325120	A02BA02	01/07/2005
27172399	A02BA02	03/07/2010
27216549	A02BA02	03/05/2011
27348961	A02BA02	27/04/2006
27359182	A02BA02	30/10/2003
27170364	A02BA02	18/02/2008
27152044	A02BA02	27/09/2010
27152048	A02BA02	11/12/2010
27159939	A02BA02	10/10/2005
27169373	A02BA02	03/08/2004
27362443	A02BA02	10/11/2010
27325913	A02BA02	05/09/2004
27138511	A02BA02	14/12/2004
27213388	A02BA02	19/08/2009
27390322	A02BA02	28/01/2006
27168136	A02BA02	16/09/2010
27369270	A02BA02	24/09/2007
27383415	A02BA02	11/02/2005
27284737	A02BA02	09/05/2011
27384468	A02BA02	05/03/2007
27286965	A02BA02	26/08/2005
27244538	A02BA02	29/02/2008
27242095	A02BA02	22/11/2005
27244696	A02BA02	16/12/2002
27365421	A02BA02	22/03/2011
27254248	A02BA02	10/02/2003
27324101	A02BA02	26/12/2006
27303624	A02BA02	31/05/2011
27216925	A02BA02	22/09/2005
27173189	A02BA02	05/09/2005
27246351	A02BA02	19/09/2001
27352971	A02BA02	07/05/2011
27319914	A02BA02	09/05/2011
27319934	A02BA02	17/03/2011
27199708	A02BA02	10/12/2008
27247846	A02BA02	14/01/2003
27251650	A02BA02	16/10/2009
27367102	A02BA02	19/05/2011
27234209	A02BA02	04/03/2003
27315277	A02BA02	07/10/2009
27364608	A02BA02	27/10/2008
27386232	A02BA02	23/04/2011
27316455	A02BA02	31/12/2007
27352425	A02BA02	20/05/2011
27363018	A02BA02	17/03/2011
27314586	A02BA02	11/02/2010
27362286	A02BA02	21/09/2007
27529972	A02BA02	11/11/2006
27385032	A02BA02	13/07/2007
27308560	A02BA02	24/05/2011
27170141	A02BA02	11/02/2008
26970494	A02BA02	26/12/2005
27253371	A02BA02	29/01/2009
27173410	A02BA02	02/02/2011
27246754	A02BA02	13/04/2010
26971168	A02BA02	19/06/2001
27198035	A02BA02	12/06/2007
27173291	A02BA02	20/07/2010
27217481	A02BA02	14/11/2007
27170019	A02BA02	18/04/2005
27201035	A02BA02	29/07/2003
27197845	A02BA02	13/01/2009
27248145	A02BA02	02/04/2004
26950680	A02BA02	02/03/2005
27251955	A02BA02	08/10/2002
27241360	A02BA02	07/10/2009
27242949	A02BA02	22/10/2004
27249211	A02BA02	22/04/2003
27243072	A02BA02	02/12/2004
26952329	A02BA02	05/11/2003
26995546	A02BA02	01/06/2011
27200549	A02BA02	18/03/2009
27169637	A02BA02	27/10/2008
26962184	A02BA02	30/10/2008
26957374	A02BA02	14/12/2001
27170122	A02BA02	05/07/2010
26997585	A02BA02	23/12/2010
27595460	A02BA02	09/11/2004
27632159	A02BA02	14/05/2005
27568161	A02BA02	15/06/2004
27576444	A02BA02	22/06/2010
27643451	A02BA02	19/09/2005
27596955	A02BA02	30/10/2009
27623491	A02BA02	27/12/2007
27657894	A02BA02	06/05/2011
27608147	A02BA02	01/12/2010
27470568	A02BA02	28/09/2006
27427506	A02BA02	20/07/2005
27661768	A02BA02	31/01/2011
27481247	A02BA02	27/05/2011
27481161	A02BA02	11/08/2008
27477369	A02BA02	16/05/2011
27473960	A02BA02	09/03/2009
27479215	A02BA02	22/03/2005
27477775	A02BA02	17/12/2010
27426832	A02BA02	18/06/2004
27480998	A02BA02	22/03/2010
27420742	A02BA02	24/08/2005
27656790	A02BA02	07/08/2007
27645599	A02BA02	29/01/2008
27639481	A02BA02	03/02/2005
27659873	A02BA02	16/08/2002
27656846	A02BA02	24/07/2008
27606533	A02BA02	07/09/2009
27720513	A02BA02	08/04/2005
27571995	A02BA02	19/11/2010
27623095	A02BA02	29/07/2003
27568261	A02BA02	26/05/2006
27614533	A02BA02	20/05/2011
27765553	A02BA02	11/02/2003
27758847	A02BA02	22/10/2004
27760476	A02BA02	27/11/2003
27564620	A02BA02	26/05/2009
27563858	A02BA02	22/10/2009
27565661	A02BA02	17/05/2007
27614866	A02BA02	27/03/2007
27694922	A02BA02	27/04/2011
27570840	A02BA02	27/05/2011
27614490	A02BA02	16/10/2006
27546307	A02BA02	09/11/2004
27543863	A02BA02	03/04/2007
27716033	A02BA02	17/05/2011
27127287	A02BA02	23/01/2006
27287429	A02BA02	30/12/2009
27647737	A02BA02	04/03/2009
27658878	A02BA02	17/05/2011
27165352	A02BA02	02/03/2011
27228930	A02BA02	15/09/2003
27144212	A02BA02	09/12/2010
27148992	A02BA02	25/04/2003
27153760	A02BA02	08/03/2005
27147888	A02BA02	19/01/2004
27132788	A02BA02	01/03/2004
27167812	A02BA02	09/06/2005
27148175	A02BA02	08/03/2005
27152030	A02BA02	25/11/2010
27250456	A02BA02	10/03/2005
27285551	A02BA02	24/08/2005
27153595	A02BA02	14/07/2010
27151888	A02BA02	05/06/2008
26637275	A02BA02	06/05/2011
27785567	A02BA02	01/12/2005
26718179	A02BA02	07/12/2009
26720527	A02BA02	25/02/2004
27217239	A02BA02	31/03/2011
648889	A02BA02	15/07/2005
27663478	A02BA02	18/07/2008
27109907	A02BA02	10/01/2007
25741964	A02BA02	08/03/2005
266433	A02BA02	27/09/2006
27659130	A02BA02	04/08/2003
27244772	A02BA02	27/11/2007
24671344	A02BA02	11/09/2009
27805592	A02BA02	31/07/2006
26948927	A02BA02	08/02/2005
26982713	A02BA02	27/02/2009
462371	A02BA02	08/03/2006
26973816	A02BA02	12/08/2004
27533964	A02BA02	06/08/2008
27475185	A02BA02	09/10/2009
27301222	A02BA02	16/05/2005
27682072	A02BA02	02/10/2008
27684129	A02BA02	19/02/2003
27535710	A02BA02	13/07/2006
27682568	A02BA02	02/08/2002
27533224	A02BA02	21/06/2007
27685556	A02BA02	08/02/2002
27663566	A02BA02	02/12/2003
27663578	A02BA02	13/04/2011
27459230	A02BA02	15/05/2011
27477136	A02BA02	26/05/2011
27530889	A02BA02	27/12/2004
27515741	A02BA02	13/11/2003
27785950	A02BA02	02/01/2004
27771990	A02BA02	23/03/2011
27566836	A02BA02	17/03/2008
27664454	A02BA02	28/05/2007
27666079	A02BA02	30/01/2006
27356200	A02BA02	20/10/2003
27662860	A02BA02	10/12/2010
27679084	A02BA02	19/11/2005
27767877	A02BA02	28/02/2006
27668538	A02BA02	10/12/2003
25742146	A02BA02	06/08/2008
27666599	A02BA02	04/07/2006
184096	A02BA02	15/03/2004
22921854	A02BA02	04/12/2008
27543143	A02BA02	30/05/2011
25713589	A02BA02	21/07/2005
27666515	A02BA02	04/09/2001
25728108	A02BA02	29/04/2008
27355732	A02BA02	10/12/2007
27056369	A02BA02	25/04/2007
27680750	A02BA02	04/03/2009
27444018	A02BA02	14/05/2010
27029757	A02BA02	19/02/2008
26781149	A02BA02	31/05/2007
27664493	A02BA02	26/01/2005
27664506	A02BA02	16/08/2004
27694669	A02BA02	13/07/2007
27657801	A02BA02	12/12/2005
27449948	A02BA02	20/06/2007
27513049	A02BA02	04/11/2003
27496005	A02BA02	02/10/2008
27513167	A02BA02	15/01/2007
27515481	A02BA02	18/08/2003
27597126	A02BA02	29/07/2008
27459307	A02BA02	19/12/2005
27449518	A02BA02	01/12/2005
27528686	A02BA02	06/02/2004
27540244	A02BA02	29/09/2003
27527439	A02BA02	09/01/2004
27306147	A02BA02	26/06/2008
27538271	A02BA02	19/08/2005
26933407	A02BA02	28/12/2009
27673521	A02BA02	13/11/2008
27668046	A02BA02	04/02/2010
24655178	A02BA02	19/02/2003
27074467	A02BA02	19/11/2007
26624785	A02BA02	17/10/2005
26830544	A02BA02	21/03/2007
27244108	A02BA02	25/10/2006
27640778	A02BA02	10/09/2009
27798131	A02BA02	01/07/2009
27476855	A02BA02	16/03/2011
26933189	A02BA02	17/10/2006
26723083	A02BA02	29/01/2010
27398357	A02BA02	26/05/2011
2994338	A02BA02	27/11/2003
26946173	A02BA02	20/08/2003
27810792	A02BA02	27/01/2005
27478072	A02BA02	19/02/2009
27078515	A02BA02	16/02/2007
26619290	A02BA02	15/06/2007
26779066	A02BA02	23/03/2011
27803448	A02BA02	04/09/2003
12974648	A02BA02	08/10/2007
27024100	A02BA02	02/10/2006
12981829	A02BA02	10/05/2011
1912943	A02BA02	20/10/2003
2986748	A02BA02	27/04/2007
27809277	A02BA02	02/03/2004
27674543	A02BA02	23/02/2009
27804595	A02BA02	24/11/2010
419700	A02BA02	14/12/2010
27673821	A02BA02	17/03/2006
27759597	A02BA02	12/05/2010
27670649	A02BA02	19/05/2011
27686953	A02BA02	02/12/2003
27680384	A02BA02	07/02/2003
27675433	A02BA02	01/10/2007
27676260	A02BA02	10/02/2004
27794453	A02BA02	31/10/2006
27805960	A02BA02	20/05/2011
27716744	A02BA02	18/09/2009
27757222	A02BA02	11/04/2003
27764474	A02BA02	25/02/2003
27764235	A02BA02	20/12/2010
27665614	A02BA02	30/03/2005
27717578	A02BA02	17/07/2010
27046555	A02BA02	27/08/2007
27758552	A02BA02	31/08/2009
27664657	A02BA02	15/01/2009
27708829	A02BA02	18/01/2010
424828	A02BA02	29/05/2011
27072072	A02BA02	09/10/2008
27686096	A02BA02	15/06/2009
27667214	A02BA02	16/01/2003
27160253	A02BA02	04/06/2008
27384357	A02BA02	25/10/2006
1368878	A02BA02	28/10/2004
1373348	A02BA02	31/05/2011
27352070	A02BA02	14/08/2007
27571285	A02BA02	05/05/2008
27664220	A02BA02	28/01/2009
27037231	A02BA02	15/09/2008
27775516	A02BA02	12/12/2003
464047	A02BA02	22/01/2007
22749677	A02BA02	07/03/2010
27520212	A02BA02	11/01/2001
26951341	A02BA02	08/09/2005
27708196	A02BA02	01/10/2010
27564429	A02BA02	19/05/2011
24582212	A02BA02	13/03/2009
27614092	A02BA02	16/01/2006
26933091	A02BA02	02/07/2004
27658055	A02BA02	27/05/2011
27326126	A02BA02	16/06/2008
18199611	A02BA02	09/08/2001
27775802	A02BA02	26/04/2011
27251362	A02BA02	06/09/2004
27000532	A02BA02	02/02/2011
26852537	A02BA02	05/12/2009
27419357	A02BA02	14/05/2011
27051909	A02BA02	14/11/2006
27382238	A02BA02	22/06/2009
27246927	A02BA02	02/08/2002
27765473	A02BA02	13/02/2011
27765475	A02BA02	18/02/2003
27084129	A02BA02	16/01/2006
27283919	A02BA02	18/03/2011
27072544	A02BA02	23/07/2010
21066320	A02BA02	11/11/2008
27168190	A02BA02	19/10/2010
27666811	A02BA02	06/02/2002
27781931	A02BA02	12/04/2011
33005211	A02BA02	18/05/2006
33124190	A02BA02	02/09/2009
33006102	A02BA02	24/05/2002
33061414	A02BA02	19/10/2004
33103102	A02BA02	26/11/2004
33100103	A02BA02	31/05/2011
33061630	A02BA02	01/07/2005
33046231	A02BA02	04/12/2007
33046846	A02BA02	03/12/2008
33037105	A02BA02	02/01/2009
33066336	A02BA02	04/12/2006
33086839	A02BA02	30/12/2003
33101569	A02BA02	05/01/2001
33094244	A02BA02	17/05/2000
33077958	A02BA02	07/04/2008
33072595	A02BA02	27/05/2011
33000627	A02BA02	12/08/2003
33073611	A02BA02	16/02/2005
33056893	A02BA02	30/11/2004
33119176	A02BA02	08/07/2010
33050607	A02BA02	06/04/2009
33098852	A02BA02	24/08/2010
33027806	A02BA02	10/07/2003
33069210	A02BA02	13/01/2011
33008724	A02BA02	29/04/2008
33044195	A02BA02	04/09/2001
33027967	A02BA02	06/10/2005
33011078	A02BA02	06/05/2009
33079702	A02BA02	17/07/2002
33083676	A02BA02	01/03/2004
33097387	A02BA02	13/12/2006
33005974	A02BA02	14/06/2004
33099353	A02BA02	25/09/2008
33083502	A02BA02	24/11/2005
33008987	A02BA02	05/05/2005
33040236	A02BA02	04/09/2006
33110595	A02BA02	19/02/2002
33081354	A02BA02	04/08/2009
33102608	A02BA02	15/05/2011
33106608	A02BA02	02/01/2004
33099318	A02BA02	18/12/2006
33095116	A02BA02	17/05/2011
33065720	A02BA02	09/12/2008
33050069	A02BA02	28/04/2011
33110326	A02BA02	21/04/2003
33081884	A02BA02	13/06/2003
33111605	A02BA02	12/02/2007
33059857	A02BA02	02/04/2004
33019022	A02BA02	07/05/2007
33070878	A02BA02	15/11/2006
33080281	A02BA02	16/09/2004
33105763	A02BA02	25/10/2002
33066807	A02BA02	14/10/2010
33027943	A02BA02	10/06/2004
33002052	A02BA02	03/11/2010
33053364	A02BA02	03/03/2004
33037406	A02BA02	11/11/2002
33016621	A02BA02	14/07/2005
33093712	A02BA02	13/02/2003
33052130	A02BA02	07/04/2011
33111429	A02BA02	26/05/2011
33060643	A02BA02	20/03/2003
33071918	A02BA02	23/03/2010
33055310	A02BA02	04/01/2007
33087917	A02BA02	12/05/2008
33045539	A02BA02	28/09/2010
33026638	A02BA02	30/11/2007
33024920	A02BA02	03/05/2011
33079795	A02BA02	21/05/2001
33007678	A02BA02	18/02/2002
33135032	A02BA02	13/04/2011
33048279	A02BA02	29/04/2010
33088312	A02BA02	21/12/2007
33031927	A02BA02	19/12/2006
33018342	A02BA02	10/12/2003
33064583	A02BA02	14/07/2003
33112506	A02BA02	07/02/2006
33039975	A02BA02	02/07/2001
33107924	A02BA02	06/08/2001
33074224	A02BA02	29/11/2005
33003806	A02BA02	15/07/2005
33020581	A02BA02	15/06/2000
33001814	A02BA02	01/03/2006
33107313	A02BA02	14/05/2010
33047788	A02BA02	16/08/2004
33112070	A02BA02	27/04/2011
33073796	A02BA02	06/02/2003
33028260	A02BA02	24/03/2010
33058796	A02BA02	30/05/2003
33118796	A02BA02	28/03/2011
33020291	A02BA02	10/03/2008
33046246	A02BA02	16/05/2011
33065393	A02BA02	01/06/2011
33072221	A02BA02	25/02/2009
33046388	A02BA02	15/01/2008
33124976	A02BA02	09/05/2011
33016075	A02BA02	27/07/2010
33026052	A02BA02	08/01/2008
33063677	A02BA02	03/12/2002
33012294	A02BA02	01/12/2000
33067496	A02BA02	04/09/2008
33040223	A02BA02	29/05/2008
33001862	A02BA02	15/06/2010
33090308	A02BA02	15/01/2007
33008734	A02BA02	05/03/2009
33034999	A02BA02	08/07/2010
33007739	A02BA02	14/02/2002
33066070	A02BA02	24/02/2005
180412	A02BA02	17/02/2005
27812316	A02BA02	23/03/2007
26704007	A02BA02	01/06/2004
1368092	A02BA02	12/09/2009
27661862	A02BA02	13/03/2003
26866280	A02BA02	09/05/2011
27551829	A02BA02	05/09/2002
27807195	A02BA02	08/10/2004
421387	A02BA02	30/07/2007
27385393	A02BA02	12/11/2008
33042521	A02BA02	22/10/2002
183728	A02BA02	11/05/2011
2989892	A02BA02	30/01/2007
26718844	A02BA02	03/12/2007
27805215	A02BA02	21/08/2006
24663992	A02BA02	08/10/2008
26772188	A02BA02	28/07/2006
33063821	A02BA02	28/02/2007
19423345	A02BA02	12/09/2005
428238	A02BA02	17/11/1999
186822	A02BA02	06/03/2006
27086613	A02BA02	30/03/2009
33019222	A02BA02	02/04/2009
33072648	A02BA02	22/01/2009
33020523	A02BA02	15/01/2002
16618718	A02BA02	29/10/2004
16177914	A02BA02	18/04/2006
16637240	A02BA02	07/02/2006
33109924	A02BA02	05/02/2009
16135206	A02BA02	06/03/2000
16178210	A02BA02	27/05/2005
16639585	A02BA02	15/01/2009
33127387	A02BA02	11/10/2010
33240083	A02BA02	23/12/2005
16135369	A02BA02	26/02/2001
16603876	A02BA02	03/02/2004
33046870	A02BA02	12/11/2008
16639046	A02BA02	17/11/2010
23335211	A02BA02	06/08/2007
33113958	A02BA02	06/05/2005
33052835	A02BA02	02/08/2006
33085861	A02BA02	14/06/2001
33048233	A02BA02	16/05/2007
33086631	A02BA02	03/11/2000
33119231	A02BA02	15/06/2010
33016132	A02BA02	05/07/2010
33089746	A02BA02	17/04/2002
33024104	A02BA02	13/08/2004
33031761	A02BA02	17/09/2004
33064899	A02BA02	08/11/2006
33020265	A02BA02	23/10/2006
33048116	A02BA02	18/09/2003
33070916	A02BA02	29/12/2009
33008945	A02BA02	13/02/2006
33054553	A02BA02	15/12/2010
33020580	A02BA02	24/04/2008
33056325	A02BA02	03/09/2003
33050233	A02BA02	03/10/2006
33125697	A02BA02	13/12/2007
33063405	A02BA02	25/11/2009
33061656	A02BA02	11/01/2005
33104216	A02BA02	22/01/2007
33060956	A02BA02	03/11/2008
33024855	A02BA02	16/02/2006
33017906	A02BA02	29/05/2003
33025702	A02BA02	20/06/2008
33028840	A02BA02	01/08/2005
33104781	A02BA02	29/07/1999
33066941	A02BA02	22/05/2007
33034545	A02BA02	10/06/2005
33101101	A02BA02	23/07/2002
33083224	A02BA02	28/09/2009
33090933	A02BA02	16/03/2011
33049405	A02BA02	23/07/2004
33025768	A02BA02	29/02/2000
33027037	A02BA02	02/07/2003
33090057	A02BA02	02/05/2003
33033729	A02BA02	23/08/2005
33032465	A02BA02	31/05/2011
33000875	A02BA02	18/06/2009
33070531	A02BA02	06/08/2010
33085377	A02BA02	16/05/2011
33053905	A02BA02	01/09/2006
33034590	A02BA02	11/06/2003
33004014	A02BA02	29/11/2005
33053845	A02BA02	24/05/2011
33013714	A02BA02	03/05/2011
33004559	A02BA02	06/02/2002
33107252	A02BA02	04/07/2005
33008084	A02BA02	24/05/2011
33045325	A02BA02	19/09/2000
33044755	A02BA02	13/01/2010
33053621	A02BA02	05/04/2006
33011953	A02BA02	14/12/2007
33056714	A02BA02	02/02/2001
33099116	A02BA02	18/05/2011
33101385	A02BA02	15/09/2010
33033838	A02BA02	26/05/2011
33034268	A02BA02	10/05/2011
33096256	A02BA02	14/06/2010
33023069	A02BA02	18/05/2011
33087055	A02BA02	17/11/2006
33057611	A02BA02	31/05/2011
33007891	A02BA02	24/05/2005
33097844	A02BA02	13/05/2004
33003742	A02BA02	06/11/2008
33047751	A02BA02	15/10/2007
33027780	A02BA02	10/12/2004
33053638	A02BA02	28/08/2009
33039051	A02BA02	07/04/2009
33026558	A02BA02	09/04/2007
33027073	A02BA02	21/04/2003
33092218	A02BA02	04/09/2008
33093762	A02BA02	31/05/2011
33058332	A02BA02	01/04/2011
33064084	A02BA02	14/09/2006
33096688	A02BA02	08/11/2006
33033974	A02BA02	22/07/2003
33040010	A02BA02	09/03/2009
16625249	A02BA02	05/09/2005
16640297	A02BA02	13/02/2006
24089585	A02BA02	09/11/2009
16712490	A02BA02	15/07/2009
23397390	A02BA02	11/02/2010
16616536	A02BA02	06/10/2003
23407899	A02BA02	04/08/2006
16134895	A02BA02	09/01/2008
18762952	A02BA02	07/04/2006
16133833	A02BA02	06/06/2007
27828645	A02BA02	17/08/2005
16610599	A02BA02	20/05/2004
23397584	A02BA02	05/05/2005
33308377	A02BA02	17/02/2005
16618603	A02BA02	23/05/2011
23408435	A02BA02	31/05/2004
16617207	A02BA02	16/04/2007
28016533	A02BA02	20/04/2009
23381575	A02BA02	24/03/2010
24040104	A02BA02	11/03/2005
16637147	A02BA02	09/09/2006
27983169	A02BA02	26/03/2009
16640222	A02BA02	11/08/2005
18764526	A02BA02	13/04/2011
33289683	A02BA02	06/04/2009
27914559	A02BA02	07/12/2007
23382344	A02BA02	09/03/2007
16596125	A02BA02	13/05/2004
33313715	A02BA02	29/06/2010
18765675	A02BA02	28/12/2006
18770852	A02BA02	19/11/2004
18771905	A02BA02	14/02/2002
16138365	A02BA02	20/05/2011
16183490	A02BA02	12/01/2007
16603692	A02BA02	01/09/2004
33232471	A02BA02	26/11/2003
33309270	A02BA02	17/05/2011
23293211	A02BA02	04/06/2007
27848097	A02BA02	21/02/2011
23361804	A02BA02	06/10/2009
23407448	A02BA02	03/03/2011
28017377	A02BA02	29/09/2009
23336381	A02BA02	05/04/2004
23366881	A02BA02	22/03/2011
23402038	A02BA02	06/05/2011
23219875	A02BA02	13/09/2010
16124521	A02BA02	17/05/2000
18769331	A02BA02	04/06/2008
16610026	A02BA02	01/12/2010
18757155	A02BA02	07/09/2010
20983442	A02BA02	23/10/2006
23396411	A02BA02	17/05/2011
27928159	A02BA02	15/07/2008
33206254	A02BA02	29/04/2010
16124378	A02BA02	13/03/2002
16609724	A02BA02	04/05/2011
16129994	A02BA02	29/03/2011
23347890	A02BA02	22/05/2006
23354092	A02BA02	07/03/2005
23470615	A02BA02	13/04/2011
33228026	A02BA02	19/10/2004
33290109	A02BA02	16/11/2009
23353469	A02BA02	13/05/2011
33306599	A02BA02	23/03/2006
16125129	A02BA02	04/11/2010
23414018	A02BA02	22/12/2004
23353946	A02BA02	18/10/2005
23411881	A02BA02	09/03/2006
16599332	A02BA02	28/01/2004
16138964	A02BA02	13/01/2006
27849790	A02BA02	26/04/2002
16139599	A02BA02	18/10/2000
16652192	A02BA02	12/05/2006
14187576	A02BA02	11/09/2002
16636548	A02BA02	02/11/2006
23380736	A02BA02	12/07/2010
31487753	A02BA02	18/01/2011
31181468	A02BA02	11/10/2002
31391107	A02BA02	23/02/2006
31665307	A02BA02	30/09/2003
31666967	A02BA02	05/09/2003
31219404	A02BA02	08/12/2009
31465264	A02BA02	04/02/2005
31171272	A02BA02	19/04/2007
31540727	A02BA02	28/09/2009
16124564	A02BA02	01/07/2010
16640430	A02BA02	08/05/2007
23381215	A02BA02	05/11/2004
16609447	A02BA02	01/04/2008
33245848	A02BA02	15/11/2005
16186410	A02BA02	22/08/2000
20985663	A02BA02	16/09/2004
27914427	A02BA02	28/06/2004
21103023	A02BA02	28/03/2011
21010624	A02BA02	26/01/2010
23353994	A02BA02	24/09/2003
21102451	A02BA02	02/09/2009
27983007	A02BA02	04/09/2008
23351379	A02BA02	14/06/2010
16648299	A02BA02	17/01/2005
23340750	A02BA02	13/05/2010
21102991	A02BA02	24/05/2011
33240644	A02BA02	14/06/2007
16712077	A02BA02	05/08/2009
33224544	A02BA02	22/06/2006
16127046	A02BA02	11/01/2005
20985173	A02BA02	04/04/2005
33265168	A02BA02	26/05/2011
31157971	A02BA02	01/09/2008
32162962	A02BA02	06/04/2005
31088107	A02BA02	14/06/2006
31844179	A02BA02	23/03/2005
31311295	A02BA02	11/11/2009
32128014	A02BA02	06/10/2003
31718663	A02BA02	24/05/2005
31345711	A02BA02	04/11/2009
31062826	A02BA02	16/03/2006
31510513	A02BA02	22/09/2009
32012639	A02BA02	06/03/2008
31284771	A02BA02	24/10/2000
32144827	A02BA02	14/02/2003
31934517	A02BA02	05/08/2004
31165115	A02BA02	06/02/2007
32135502	A02BA02	06/03/2006
31418719	A02BA02	15/10/2003
31898892	A02BA02	06/03/2007
31139565	A02BA02	20/08/2003
31355319	A02BA02	07/10/2010
32176436	A02BA02	13/04/2007
31298944	A02BA02	14/04/2009
31954565	A02BA02	11/11/2010
31393143	A02BA02	09/07/2009
31949519	A02BA02	23/02/2007
31183705	A02BA02	28/10/2010
31178740	A02BA02	26/12/2001
32164001	A02BA02	27/10/2010
31791183	A02BA02	15/10/2004
31313850	A02BA02	18/03/2002
32239214	A02BA02	27/11/2008
32201045	A02BA02	19/08/2004
31537604	A02BA02	26/05/2008
31773481	A02BA02	22/12/2003
32025325	A02BA02	26/11/2002
31586751	A02BA02	17/06/2003
31949933	A02BA02	19/12/2006
32146644	A02BA02	18/03/2008
31547137	A02BA02	14/10/2002
31514711	A02BA02	27/03/2009
31587729	A02BA02	12/11/2008
32253846	A02BA02	07/02/2011
32067501	A02BA02	11/04/2007
32041896	A02BA02	06/09/2005
31817892	A02BA02	14/04/2004
32216457	A02BA02	21/02/2007
31053095	A02BA02	26/05/2011
31210288	A02BA02	06/02/2004
31927496	A02BA02	21/12/2005
31923451	A02BA02	24/07/2008
31267839	A02BA02	21/03/2005
31569011	A02BA02	03/10/2002
32117440	A02BA02	31/03/2005
31039571	A02BA02	19/10/2006
31704051	A02BA02	02/11/2007
31226662	A02BA02	05/09/2006
31344263	A02BA02	15/10/2009
31439300	A02BA02	11/12/2006
31674497	A02BA02	23/06/2004
31479374	A02BA02	04/10/2010
31698148	A02BA02	27/05/2003
31837576	A02BA02	03/11/2009
32228131	A02BA02	22/05/2003
31525679	A02BA02	23/07/2002
31639847	A02BA02	29/06/2004
32276203	A02BA02	14/09/2005
31815638	A02BA02	05/10/2005
31979808	A02BA02	26/10/2009
31580409	A02BA02	07/10/2002
31607158	A02BA02	29/12/2005
31195757	A02BA02	03/11/2010
31908375	A02BA02	05/09/2002
31786755	A02BA02	31/07/2001
32233519	A02BA02	02/10/2008
31396539	A02BA02	24/05/2006
32036113	A02BA02	29/04/2010
31605404	A02BA02	03/12/2001
31591152	A02BA02	28/11/2000
31289364	A02BA02	21/12/2001
32172226	A02BA02	16/05/2006
31516467	A02BA02	03/11/2004
31240005	A02BA02	13/01/2003
31983250	A02BA02	05/05/2008
31176341	A02BA02	17/02/2006
32268858	A02BA02	31/08/2010
31083266	A02BA02	02/10/2007
31953094	A02BA02	19/01/2005
31441696	A02BA02	19/07/2006
32169204	A02BA02	26/06/2002
31091370	A02BA02	16/02/2007
32194913	A02BA02	09/03/2006
31338973	A02BA02	02/11/2009
31224811	A02BA02	20/07/2007
31472076	A02BA02	24/02/2004
31207975	A02BA02	29/12/2003
31922867	A02BA02	17/01/2008
31642302	A02BA02	12/12/2006
31955515	A02BA02	27/02/2002
32114112	A02BA02	10/05/2005
32250774	A02BA02	18/09/2009
31301550	A02BA02	18/07/2007
31616781	A02BA02	25/09/2008
31787535	A02BA02	06/09/2006
32170654	A02BA02	01/10/2008
31285717	A02BA02	09/07/2002
31627391	A02BA02	05/12/2007
31858594	A02BA02	01/02/2006
32224890	A02BA02	01/07/2005
31097075	A02BA02	28/07/2010
32171260	A02BA02	17/03/2006
31894356	A02BA02	06/11/2009
31858954	A02BA02	09/09/2004
31662126	A02BA02	11/04/2011
31839581	A02BA02	21/06/2004
31315923	A02BA02	16/07/2009
31346765	A02BA02	03/04/2007
32076096	A02BA02	17/02/2005
31677756	A02BA02	15/12/2006
31566224	A02BA02	25/07/2002
32240562	A02BA02	29/12/2008
31896290	A02BA02	26/02/2007
31180184	A02BA02	09/12/2010
31822910	A02BA02	18/08/2003
31949372	A02BA02	17/09/2003
32020201	A02BA02	28/03/2006
31493727	A02BA02	05/07/2010
31352468	A02BA02	24/07/2007
31771748	A02BA02	05/01/2007
31427154	A02BA02	30/11/2004
32176799	A02BA02	10/01/2001
31859918	A02BA02	20/08/2009
32282980	A02BA02	10/11/2005
31702493	A02BA02	31/07/2001
31755160	A02BA02	26/01/2005
31394939	A02BA02	14/01/2003
31905201	A02BA02	02/01/2006
31842658	A02BA02	08/02/2007
32200966	A02BA02	10/04/2006
31518203	A02BA02	28/05/2004
31407519	A02BA02	31/08/2010
31687289	A02BA02	18/01/2007
31791551	A02BA02	23/05/2007
32167454	A02BA02	01/10/2004
32100804	A02BA02	23/09/2008
32246359	A02BA02	05/03/2001
31199652	A02BA02	08/02/2005
31619135	A02BA02	28/11/2008
31170499	A02BA02	22/03/2006
32117966	A02BA02	24/12/2001
31846449	A02BA02	13/03/2009
32256864	A02BA02	16/03/2001
31038837	A02BA02	19/11/2007
31468633	A02BA02	02/03/2006
31529916	A02BA02	02/09/2005
31217153	A02BA02	27/11/2001
31323587	A02BA02	25/08/2005
31088568	A02BA02	30/11/2004
31983822	A02BA02	29/09/2003
32229324	A02BA02	14/11/2007
31549314	A02BA02	23/10/2007
31106094	A02BA02	28/09/2006
31979526	A02BA02	30/08/2007
31317017	A02BA02	14/07/2003
32218783	A02BA02	17/10/2007
32214444	A02BA02	16/12/2003
31675988	A02BA02	28/03/2005
31929767	A02BA02	01/02/2010
31485859	A02BA02	03/10/2006
31806239	A02BA02	20/09/2007
31286413	A02BA02	27/01/2006
32056435	A02BA02	11/01/2005
32115425	A02BA02	21/12/2006
32170951	A02BA02	20/11/2002
31603345	A02BA02	23/03/2004
31362262	A02BA02	24/05/2004
32248107	A02BA02	04/01/2005
31592837	A02BA02	24/03/2009
31164009	A02BA02	25/06/2007
31658156	A02BA02	17/12/2009
31277367	A02BA02	18/12/2009
31409135	A02BA02	28/05/2010
31954840	A02BA02	21/08/2007
31071617	A02BA02	14/12/2010
32277220	A02BA02	08/11/2010
32283239	A02BA02	11/02/2003
31491434	A02BA02	01/03/2004
31930395	A02BA02	13/04/2005
31565972	A02BA02	23/09/2004
31545829	A02BA02	07/01/2009
31589183	A02BA02	16/04/2010
31487145	A02BA02	26/12/2003
31970088	A02BA02	19/09/2003
31469636	A02BA02	03/10/2006
31058792	A02BA02	26/02/2004
32192753	A02BA02	27/11/2001
32216487	A02BA02	02/10/2007
31174315	A02BA02	02/01/2004
31330070	A02BA02	21/05/2003
31513523	A02BA02	18/07/2006
31242310	A02BA02	01/07/2003
31133859	A02BA02	18/08/2009
31923736	A02BA02	10/02/2006
32231042	A02BA02	19/06/2006
31052455	A02BA02	12/05/2004
31135234	A02BA02	20/05/2009
31374114	A02BA02	16/02/2001
31061135	A02BA02	10/12/2003
31273481	A02BA02	06/02/2004
31383590	A02BA02	03/08/2009
31558786	A02BA02	23/01/2004
31893494	A02BA02	30/06/2005
31825046	A02BA02	31/03/2009
31545904	A02BA02	24/02/2000
32283839	A02BA02	30/04/2009
31279498	A02BA02	26/09/2007
31435940	A02BA02	20/01/2011
31821410	A02BA02	16/12/2009
31402789	A02BA02	08/10/2007
31416932	A02BA02	05/11/2004
31463327	A02BA02	10/03/2003
31796678	A02BA02	07/02/2006
32271701	A02BA02	18/09/2003
31680971	A02BA02	29/08/2002
31577829	A02BA02	03/07/2009
31236940	A02BA02	25/01/2005
31641342	A02BA02	03/11/2003
31072373	A02BA02	09/11/2009
31115451	A02BA02	25/05/2009
31502787	A02BA02	29/04/2009
31634470	A02BA02	05/11/2002
32080325	A02BA02	19/05/1999
31172551	A02BA02	15/01/2010
31904159	A02BA02	14/12/2009
31297297	A02BA02	18/07/2006
31109367	A02BA02	06/08/2004
31289640	A02BA02	21/02/2011
31324227	A02BA02	17/11/2003
31673092	A02BA02	19/11/2009
31518942	A02BA02	18/05/2004
32262447	A02BA02	26/10/2005
31993230	A02BA02	25/03/2004
31143570	A02BA02	09/06/2008
31530639	A02BA02	06/09/2010
32016641	A02BA02	03/09/2001
31195955	A02BA02	18/10/2000
31535818	A02BA02	04/01/2006
31644593	A02BA02	16/11/2007
31870585	A02BA02	09/11/2004
31345121	A02BA02	02/07/2008
32128887	A02BA02	21/12/2009
31942130	A02BA02	06/05/2002
31684611	A02BA02	02/03/2006
32174861	A02BA02	04/03/2004
31636298	A02BA02	17/10/2005
31581032	A02BA02	28/08/2007
32067496	A02BA02	04/08/2004
31275966	A02BA02	05/09/2005
31444512	A02BA02	09/12/2005
32102032	A02BA02	20/10/2004
31710609	A02BA02	10/08/2006
31736075	A02BA02	22/09/2008
31855923	A02BA02	23/11/2001
31905886	A02BA02	06/05/2004
32064089	A02BA02	07/12/2006
31099804	A02BA02	23/02/2006
32040874	A02BA02	26/09/2005
31846875	A02BA02	26/12/2008
32227236	A02BA02	03/08/2009
31937062	A02BA02	11/05/2001
31745915	A02BA02	29/10/2004
32059871	A02BA02	04/09/2009
31109594	A02BA02	15/09/2006
32056059	A02BA02	19/12/2001
31187591	A02BA02	05/09/2008
31828703	A02BA02	20/12/2007
31725328	A02BA02	14/03/2002
31216431	A02BA02	13/09/2004
32204506	A02BA02	20/04/2004
31781588	A02BA02	30/11/2009
31756033	A02BA02	25/10/2000
31255739	A02BA02	03/06/2008
32162258	A02BA02	23/03/2009
31583282	A02BA02	21/07/2008
31437285	A02BA02	08/02/2005
31224124	A02BA02	21/12/2010
31967570	A02BA02	04/12/2009
32238733	A02BA02	14/08/2006
31402467	A02BA02	17/07/2008
31559732	A02BA02	31/03/2006
31702162	A02BA02	03/07/2003
31959560	A02BA02	25/03/2002
31591048	A02BA02	29/11/2004
31294768	A02BA02	25/11/2004
32265725	A02BA02	04/12/2009
31580653	A02BA02	20/11/2003
32199911	A02BA02	01/10/2010
31071475	A02BA02	03/08/2006
31283894	A02BA02	03/03/2004
31957088	A02BA02	05/11/2002
31797785	A02BA02	19/04/2005
31985233	A02BA02	17/01/2011
31689803	A02BA02	21/01/2011
31830918	A02BA02	13/05/2004
32056262	A02BA02	22/12/2003
31090081	A02BA02	24/02/2004
31297746	A02BA02	11/11/2005
31696146	A02BA02	11/12/2008
31308549	A02BA02	11/03/2010
31735989	A02BA02	12/03/2009
31095274	A02BA02	21/10/2009
31840272	A02BA02	06/04/2006
31936120	A02BA02	25/11/2009
31107119	A02BA02	15/01/2003
31488907	A02BA02	02/12/2005
31956999	A02BA02	31/10/2007
31330883	A02BA02	20/09/2007
31311414	A02BA02	08/09/2005
32075594	A02BA02	04/12/2006
32084821	A02BA02	03/03/2011
32136199	A02BA02	08/10/2008
31533827	A02BA02	06/02/2007
32265925	A02BA02	07/03/2008
31923655	A02BA02	01/02/2007
31447465	A02BA02	10/11/2006
31241434	A02BA02	31/08/2004
31466688	A02BA02	29/10/2009
31137463	A02BA02	26/02/2008
32050669	A02BA02	24/07/2008
31877975	A02BA02	07/01/2005
32100813	A02BA02	27/08/2003
31989306	A02BA02	26/12/2007
32258424	A02BA02	14/03/2003
32241350	A02BA02	09/12/2008
32188596	A02BA02	14/02/2011
32211007	A02BA02	21/04/2011
31357765	A02BA02	21/12/2001
31795919	A02BA02	28/12/2001
31089828	A02BA02	11/01/2011
32080498	A02BA02	22/03/2004
32203088	A02BA02	14/11/2007
31651640	A02BA02	22/12/2006
31767289	A02BA02	03/11/2008
32229476	A02BA02	20/02/2006
31905944	A02BA02	12/07/2007
32059302	A02BA02	14/08/2001
32164645	A02BA02	30/03/2005
31436838	A02BA02	28/05/2009
31857606	A02BA02	09/08/2004
31167166	A02BA02	29/05/2008
32238575	A02BA02	09/03/2011
31557279	A02BA02	19/02/2004
31716792	A02BA02	13/08/2004
31634806	A02BA02	29/09/2009
32172203	A02BA02	14/02/2005
31480774	A02BA02	13/11/2009
31973718	A02BA02	03/11/2004
31319783	A02BA02	20/11/2009
31710286	A02BA02	04/10/2004
31099394	A02BA02	05/10/2006
31265054	A02BA02	23/10/2009
31622713	A02BA02	18/08/2010
31458732	A02BA02	22/08/2005
32213697	A02BA02	13/07/2009
31958363	A02BA02	10/04/2006
32156716	A02BA02	17/09/2004
31223261	A02BA02	15/10/2003
31441666	A02BA02	10/07/2008
31049817	A02BA02	06/11/2008
32101280	A02BA02	13/08/2007
31501413	A02BA02	16/04/2003
31849953	A02BA02	27/02/2009
31148284	A02BA02	20/03/2003
31875631	A02BA02	13/11/2007
31597569	A02BA02	13/04/2007
31165906	A02BA02	21/06/2002
31340688	A02BA02	06/11/2006
31660454	A02BA02	29/10/2003
31913259	A02BA02	22/05/2009
31940591	A02BA02	24/09/2009
32152863	A02BA02	20/10/2006
31615997	A02BA02	04/11/2002
31137425	A02BA02	05/02/2008
32075858	A02BA02	06/06/2006
31994914	A02BA02	09/12/2002
32004901	A02BA02	05/11/2004
31803702	A02BA02	07/08/2009
32084114	A02BA02	28/03/2007
32067477	A02BA02	09/01/2006
31156693	A02BA02	31/10/2002
32215543	A02BA02	14/12/2010
31960064	A02BA02	06/08/2007
31300372	A02BA02	29/05/2006
32178986	A02BA02	23/08/2010
31828013	A02BA02	21/02/2005
31741186	A02BA02	16/02/2009
31362439	A02BA02	23/02/2005
32065737	A02BA02	12/11/2010
31238587	A02BA02	23/06/2006
31999088	A02BA02	17/12/2010
31926643	A02BA02	15/02/2002
31503228	A02BA02	02/03/2005
31418205	A02BA02	09/02/2011
32230729	A02BA02	06/11/2002
32118411	A02BA02	03/05/2007
31904860	A02BA02	27/12/2000
32087044	A02BA02	29/12/2009
31486722	A02BA02	28/05/2007
31048661	A02BA02	29/05/2009
31669309	A02BA02	21/12/2009
31068766	A02BA02	12/06/2007
31844771	A02BA02	10/10/2003
31963723	A02BA02	12/07/2010
32086966	A02BA02	09/06/2008
31972123	A02BA02	25/10/2007
31864099	A02BA02	16/09/2004
31263929	A02BA02	21/03/2003
31062881	A02BA02	05/12/2005
31777344	A02BA02	13/12/2005
32004312	A02BA02	15/01/2011
31335672	A02BA02	30/04/2008
31673640	A02BA02	18/11/2009
32190370	A02BA02	18/07/2003
32227458	A02BA02	20/11/2001
31557066	A02BA02	23/09/2005
31066888	A02BA02	28/01/2004
31319729	A02BA02	01/06/2009
32017201	A02BA02	19/09/2002
31815136	A02BA02	19/03/2001
31052830	A02BA02	17/11/2009
31038595	A02BA02	26/02/2004
31676103	A02BA02	08/11/2004
32173642	A02BA02	06/04/2011
31626899	A02BA02	04/07/2005
31515382	A02BA02	11/02/2002
31872211	A02BA02	21/09/2004
31613374	A02BA02	23/09/2000
31542332	A02BA02	22/04/2008
31187014	A02BA02	29/01/2008
32088315	A02BA02	12/07/2010
31197676	A02BA02	03/02/2005
31938768	A02BA02	03/12/2002
31464764	A02BA02	07/04/2008
31783926	A02BA02	09/05/2006
31886526	A02BA02	16/11/2006
32141974	A02BA02	25/09/2002
32087785	A02BA02	12/07/2005
31097789	A02BA02	03/11/2004
31942200	A02BA02	09/03/2011
31671060	A02BA02	24/02/2004
31377619	A02BA02	30/07/2002
32212869	A02BA02	07/12/2005
31052778	A02BA02	29/04/2009
31621909	A02BA02	09/03/2001
31051066	A02BA02	01/03/2002
32201736	A02BA02	09/02/2009
31236567	A02BA02	18/01/2006
31396735	A02BA02	09/07/1999
32240004	A02BA02	12/08/2002
32075736	A02BA02	29/07/2009
31992921	A02BA02	26/01/2005
31973333	A02BA02	30/05/2006
31721310	A02BA02	21/09/2010
31053213	A02BA02	27/09/2007
31084118	A02BA02	23/06/2003
31333447	A02BA02	04/11/2003
31648346	A02BA02	22/11/2006
32128378	A02BA02	20/02/2006
31128087	A02BA02	02/03/2006
32182197	A02BA02	11/05/2005
31822050	A02BA02	16/12/2010
31637140	A02BA02	05/02/2009
31931195	A02BA02	30/10/2008
31990571	A02BA02	03/02/2006
31854942	A02BA02	30/06/2009
32102978	A02BA02	22/10/2009
32094579	A02BA02	14/07/2008
31182996	A02BA02	25/01/2010
32061586	A02BA02	25/10/2006
31676727	A02BA02	16/02/2005
31502915	A02BA02	18/09/2006
31869071	A02BA02	07/10/2003
32244935	A02BA02	20/02/2006
32011032	A02BA02	17/09/2002
31166024	A02BA02	02/10/2003
31061509	A02BA02	23/12/2010
31924531	A02BA02	30/10/2007
31474377	A02BA02	14/06/2005
31464154	A02BA02	26/01/2004
31974787	A02BA02	08/05/2006
31791853	A02BA02	16/03/2010
31359358	A02BA02	22/12/2006
31970873	A02BA02	03/06/2005
31366968	A02BA02	28/10/2008
31460033	A02BA02	03/01/2006
31835704	A02BA02	17/06/2008
31928477	A02BA02	24/08/2009
31765504	A02BA02	17/06/2002
31961565	A02BA02	07/12/2009
31461892	A02BA02	29/06/2004
31966120	A02BA02	02/12/2009
31048154	A02BA02	03/06/2003
31556823	A02BA02	22/01/2002
31537932	A02BA02	01/09/2006
31070039	A02BA02	19/12/2002
32273397	A02BA02	23/01/2008
31746215	A02BA02	13/06/2003
31654286	A02BA02	18/09/2002
31820931	A02BA02	14/12/2006
32046813	A02BA02	24/06/2009
32023181	A02BA02	25/09/2009
32129933	A02BA02	19/05/2008
31225570	A02BA02	08/06/2005
32080813	A02BA02	08/04/2011
31094327	A02BA02	03/12/2003
32115145	A02BA02	30/07/2007
32253318	A02BA02	30/03/2006
31892206	A02BA02	25/06/2007
31354855	A02BA02	10/10/2005
32149357	A02BA02	12/06/2009
31282676	A02BA02	21/02/2007
31041581	A02BA02	21/02/2011
31131652	A02BA02	25/01/2008
32179849	A02BA02	17/11/2005
32202991	A02BA02	04/04/2008
32008433	A02BA02	03/12/2010
31684498	A02BA02	25/05/2010
32010235	A02BA02	15/11/2007
31037991	A02BA02	28/06/2005
31243831	A02BA02	21/01/2002
32104033	A02BA02	11/01/2008
31806014	A02BA02	28/03/2005
31271546	A02BA02	07/12/2001
32209303	A02BA02	09/10/2003
31488547	A02BA02	08/09/2010
31818844	A02BA02	30/09/2008
31082208	A02BA02	13/12/2005
31948492	A02BA02	30/05/2008
31903968	A02BA02	30/10/2008
31458645	A02BA02	20/02/2004
31849525	A02BA02	18/07/2000
31352687	A02BA02	11/12/2006
32069556	A02BA02	28/07/2009
31204461	A02BA02	09/10/2007
32046883	A02BA02	28/04/2004
32080097	A02BA02	05/09/2008
31465949	A02BA02	07/06/2005
32049606	A02BA02	12/12/2007
31215534	A02BA02	22/02/2005
31726651	A02BA02	29/05/2007
31384268	A02BA02	13/11/2009
31569281	A02BA02	12/03/2007
32154701	A02BA02	14/06/2004
32072684	A02BA02	22/03/2010
31989785	A02BA02	20/02/2006
31872945	A02BA02	13/02/2006
31168702	A02BA02	12/12/2002
32152162	A02BA02	09/01/2004
31448449	A02BA02	21/10/2009
31340935	A02BA02	07/06/2007
31040057	A02BA02	26/10/2006
31279289	A02BA02	01/03/2011
31211614	A02BA02	06/08/2004
32093203	A02BA02	14/11/2003
31566478	A02BA02	27/06/2006
32236449	A02BA02	30/04/2007
31224613	A02BA02	27/01/2005
31868197	A02BA02	17/05/2006
31491918	A02BA02	16/10/2006
31487513	A02BA02	22/12/2009
31704070	A02BA02	02/06/2000
31812892	A02BA02	20/12/2010
31566058	A02BA02	25/05/2001
32090511	A02BA02	04/04/2005
32014902	A02BA02	10/10/2005
31634514	A02BA02	09/03/2011
32069282	A02BA02	04/02/2002
31885113	A02BA02	09/01/2004
31764206	A02BA02	31/12/2007
31396958	A02BA02	24/02/2005
31793155	A02BA02	07/07/2004
31153085	A02BA02	12/11/2009
31140552	A02BA02	21/01/2011
31598640	A02BA02	17/11/2006
31401177	A02BA02	15/11/2006
32250443	A02BA02	08/08/2002
31972136	A02BA02	13/12/2007
31255353	A02BA02	07/01/2004
31195300	A02BA02	15/03/2006
31577349	A02BA02	12/05/2005
31051511	A02BA02	30/10/2002
31230558	A02BA02	26/08/2004
31864509	A02BA02	02/01/2004
32234530	A02BA02	09/12/2010
31920467	A02BA02	29/07/2002
32005126	A02BA02	07/12/2004
31160551	A02BA02	13/10/2004
31250259	A02BA02	09/06/2003
31791245	A02BA02	29/10/2009
31788136	A02BA02	19/01/2010
31417773	A02BA02	17/02/2009
31032641	A02BA02	19/01/2006
31901788	A02BA02	18/10/2004
31670327	A02BA02	12/12/2005
31919019	A02BA02	24/10/2008
32235440	A02BA02	21/07/2005
31405567	A02BA02	29/12/2006
32235931	A02BA02	10/10/2007
31539806	A02BA02	28/12/2010
31247441	A02BA02	26/05/2003
31221513	A02BA02	26/05/2010
32000642	A02BA02	30/04/2009
31192975	A02BA02	30/08/2010
31107967	A02BA02	12/11/2007
31087836	A02BA02	04/01/2005
31039433	A02BA02	12/04/2006
31894664	A02BA02	04/01/2005
32015230	A02BA02	13/03/2009
31488172	A02BA02	21/09/2007
31370471	A02BA02	05/11/2002
31101778	A02BA02	31/08/2004
32212015	A02BA02	25/07/2001
32164470	A02BA02	03/02/2003
31254186	A02BA02	14/03/2008
31378115	A02BA02	11/03/2009
31596322	A02BA02	17/01/2003
31856647	A02BA02	13/06/2006
31826945	A02BA02	06/02/2003
31138152	A02BA02	14/06/2005
31982956	A02BA02	13/02/2008
31159201	A02BA02	20/02/2003
31384849	A02BA02	21/03/2006
31137034	A02BA02	16/08/2006
31675235	A02BA02	04/03/2004
32056818	A02BA02	12/11/2008
32178050	A02BA02	11/11/2009
32117961	A02BA02	21/09/2000
32210631	A02BA02	06/08/2007
31783730	A02BA02	05/05/2010
31948150	A02BA02	29/06/2006
31736178	A02BA02	09/04/2007
31492822	A02BA02	28/10/2010
31487291	A02BA02	28/11/2001
31058197	A02BA02	14/11/2008
31033021	A02BA02	07/05/2002
31929084	A02BA02	15/07/2009
31197692	A02BA02	28/09/2006
32141842	A02BA02	16/08/2006
32189793	A02BA02	06/11/2001
32260224	A02BA02	08/10/2007
31076207	A02BA02	08/04/2008
31324320	A02BA02	02/06/2005
32123462	A02BA02	15/02/2001
32104396	A02BA02	16/06/2010
31283871	A02BA02	19/07/2005
31741546	A02BA02	26/01/2001
32148579	A02BA02	28/06/2007
31932474	A02BA02	08/06/2010
32012871	A02BA02	16/06/2005
31246206	A02BA02	04/05/2005
31391949	A02BA02	18/04/2007
31919328	A02BA02	29/03/2005
31390875	A02BA02	22/03/2007
32016578	A02BA02	23/05/2007
31693651	A02BA02	18/04/2006
32007468	A02BA02	23/11/2009
31524096	A02BA02	03/11/2008
32206964	A02BA02	10/09/2007
31927125	A02BA02	02/11/2004
31962312	A02BA02	21/02/2006
31928407	A02BA02	25/11/2009
31228560	A02BA02	06/07/2005
31704514	A02BA02	06/10/2003
32013355	A02BA02	15/06/2009
31237702	A02BA02	15/03/2005
31919027	A02BA02	11/09/2002
31884364	A02BA02	13/05/2009
31571787	A02BA02	09/02/2007
31428838	A02BA02	28/12/2009
32025648	A02BA02	05/08/2002
31123095	A02BA02	04/07/2006
31141797	A02BA02	12/01/2004
32135671	A02BA02	28/09/2005
32140559	A02BA02	23/11/2009
31428910	A02BA02	13/06/2007
31401986	A02BA02	14/03/2008
31034732	A02BA02	02/04/2008
31684061	A02BA02	01/06/2006
31057431	A02BA02	10/03/2008
31084479	A02BA02	10/12/2008
31255794	A02BA02	15/09/2005
32039286	A02BA02	26/01/2009
31691952	A02BA02	29/06/2007
32169372	A02BA02	02/12/2005
31054095	A02BA02	29/05/2006
32057825	A02BA02	28/09/2005
32087021	A02BA02	12/12/2005
31216105	A02BA02	28/09/2010
31306237	A02BA02	27/01/2000
31073534	A02BA02	21/08/2009
31679146	A02BA02	09/07/2001
31247946	A02BA02	12/04/2007
31604235	A02BA02	01/07/2009
31122733	A02BA02	05/02/2009
31713126	A02BA02	22/03/2004
31456917	A02BA02	28/06/2007
31400190	A02BA02	21/12/2006
31172355	A02BA02	21/11/2003
31416750	A02BA02	26/04/2010
31769753	A02BA02	08/08/2007
31184345	A02BA02	15/01/2010
31563177	A02BA02	08/10/2002
31946065	A02BA02	05/04/2006
31386321	A02BA02	20/08/2004
31996435	A02BA02	16/04/2002
32015901	A02BA02	08/01/2003
31172615	A02BA02	04/10/2005
31434499	A02BA02	30/07/2008
31338208	A02BA02	09/06/2006
31275868	A02BA02	20/01/2011
31195641	A02BA02	22/03/2006
31839702	A02BA02	01/06/2007
32103688	A02BA02	02/07/2003
32266059	A02BA02	23/06/2004
31645480	A02BA02	23/11/2006
31071468	A02BA02	15/12/2008
31636670	A02BA02	05/03/2008
31462204	A02BA02	15/12/2003
31104294	A02BA02	16/01/2004
31820480	A02BA02	20/01/2011
31127796	A02BA02	18/07/2005
31647102	A02BA02	19/09/2001
31238998	A02BA02	04/04/2008
31606163	A02BA02	21/02/2003
31514533	A02BA02	25/02/2008
31301336	A02BA02	13/10/2009
31056361	A02BA02	24/03/2006
31104241	A02BA02	19/06/2006
31862538	A02BA02	02/07/2008
32221360	A02BA02	04/10/2006
31907451	A02BA02	18/01/2002
31065272	A02BA02	02/03/2011
31264025	A02BA02	04/12/2008
31871300	A02BA02	27/04/2007
31215005	A02BA02	14/08/2007
31860135	A02BA02	23/04/2007
31544838	A02BA02	19/10/2010
31905955	A02BA02	11/07/2006
32149838	A02BA02	21/07/2010
31584056	A02BA02	01/02/2005
31756582	A02BA02	24/06/2005
31905244	A02BA02	01/12/2004
31612837	A02BA02	26/09/2005
31929235	A02BA02	04/05/2001
32278300	A02BA02	09/05/2003
31246026	A02BA02	31/08/2009
31754369	A02BA02	03/01/2006
32058821	A02BA02	18/05/2006
31435158	A02BA02	06/07/2004
32200828	A02BA02	19/07/2006
31429588	A02BA02	05/11/2004
31399039	A02BA02	20/09/2004
32282759	A02BA02	21/03/2006
31759301	A02BA02	30/08/2004
31353393	A02BA02	13/12/2006
32019116	A02BA02	19/08/2003
32252857	A02BA02	16/01/2002
32173526	A02BA02	01/08/2005
31657268	A02BA02	12/05/2004
31449889	A02BA02	27/06/2003
31478038	A02BA02	02/10/2006
31487065	A02BA02	08/04/2010
31813066	A02BA02	18/12/2009
31261675	A02BA02	16/08/2005
31381073	A02BA02	14/02/2005
31884839	A02BA02	25/06/2004
31616921	A02BA02	17/03/2006
31956709	A02BA02	02/07/2002
31618175	A02BA02	03/02/2003
31128250	A02BA02	17/12/2009
32131019	A02BA02	13/09/2004
31867411	A02BA02	02/04/2007
32020359	A02BA02	04/05/2004
31391383	A02BA02	16/07/2010
32265630	A02BA02	12/11/2008
31578969	A02BA02	21/06/2005
32034866	A02BA02	18/02/2009
32197317	A02BA02	04/09/2001
31800960	A02BA02	08/09/2004
31755351	A02BA02	14/11/2006
32179438	A02BA02	08/07/2002
31882832	A02BA02	20/09/2006
31968700	A02BA02	03/01/2006
32090626	A02BA02	12/02/2011
31261756	A02BA02	27/04/2009
32061001	A02BA02	02/10/2007
31125472	A02BA02	20/02/2008
31942439	A02BA02	26/11/2009
31101996	A02BA02	19/04/2000
31777551	A02BA02	19/10/2010
32168784	A02BA02	08/01/2003
31261241	A02BA02	21/07/2003
31453269	A02BA02	05/01/2005
31806825	A02BA02	07/07/2003
32262652	A02BA02	25/02/2002
31512350	A02BA02	14/11/2002
31477255	A02BA02	10/03/2008
31653993	A02BA02	19/01/2006
31032144	A02BA02	02/10/2003
31067242	A02BA02	30/10/2003
32178097	A02BA02	10/12/2009
31045417	A02BA02	22/04/2002
31672025	A02BA02	06/05/2011
31632371	A02BA02	02/08/2007
31739715	A02BA02	26/02/2003
31927282	A02BA02	20/04/2007
31486840	A02BA02	25/03/2009
31716429	A02BA02	11/03/2008
31074728	A02BA02	12/12/2006
31864799	A02BA02	06/11/2009
31115224	A02BA02	25/11/2009
31465993	A02BA02	22/10/2003
32153981	A02BA02	04/03/2002
31608962	A02BA02	08/11/2004
31085927	A02BA02	10/05/2002
31417912	A02BA02	20/02/2006
32152276	A02BA02	31/05/2006
31816085	A02BA02	27/12/2005
32272640	A02BA02	09/06/2005
32193635	A02BA02	16/07/2007
32202511	A02BA02	22/01/2007
32168626	A02BA02	13/11/2002
31143409	A02BA02	10/07/2001
31089192	A02BA02	04/01/2007
31669907	A02BA02	02/06/2003
32273927	A02BA02	23/07/2003
31555055	A02BA02	01/09/2010
31237625	A02BA02	22/12/2004
31507407	A02BA02	13/12/2005
31980666	A02BA02	14/02/2007
31943993	A02BA02	20/05/2009
31882469	A02BA02	28/01/2009
31102748	A02BA02	18/01/2002
31634632	A02BA02	12/01/2006
31289745	A02BA02	18/01/2010
32242844	A02BA02	07/04/2011
31526498	A02BA02	17/02/2011
31854439	A02BA02	12/07/2005
32263832	A02BA02	01/12/2006
32259010	A02BA02	15/11/2007
31074922	A02BA02	04/03/2011
32247234	A02BA02	18/06/2002
32264301	A02BA02	18/01/2010
31209696	A02BA02	08/08/2001
31199447	A02BA02	20/02/2002
31981297	A02BA02	13/03/2002
31710032	A02BA02	17/07/2002
31292135	A02BA02	02/02/2005
31970673	A02BA02	16/03/2006
31925950	A02BA02	29/09/2009
31866747	A02BA02	08/11/2006
32011907	A02BA02	24/07/2006
31182961	A02BA02	23/05/2002
32207420	A02BA02	22/11/2002
31493196	A02BA02	31/05/2007
31495297	A02BA02	30/07/2002
31546423	A02BA02	22/08/2006
31973561	A02BA02	29/05/2006
31202980	A02BA02	15/09/2003
32005750	A02BA02	12/08/2008
32281524	A02BA02	05/03/2007
31707970	A02BA02	27/04/2005
32172947	A02BA02	12/03/2002
31976670	A02BA02	27/11/2006
31092882	A02BA02	08/04/2002
31788566	A02BA02	08/11/2004
31543308	A02BA02	31/05/2006
32143422	A02BA02	05/12/2008
32161282	A02BA02	28/05/2007
31284012	A02BA02	07/04/2011
31879102	A02BA02	27/03/2008
31076353	A02BA02	01/09/2010
32132810	A02BA02	27/11/2003
31244900	A02BA02	19/01/2005
31964287	A02BA02	03/01/2007
31342309	A02BA02	15/12/2009
32241011	A02BA02	25/09/2001
31314418	A02BA02	19/04/2000
31473263	A02BA02	16/10/2001
31813665	A02BA02	09/12/2008
31928343	A02BA02	13/07/2006
32011658	A02BA02	22/02/2000
31933388	A02BA02	19/05/2008
31900516	A02BA02	03/07/2000
32155937	A02BA02	08/06/2006
31736383	A02BA02	12/08/2009
31449353	A02BA02	08/04/2009
31872910	A02BA02	01/03/2006
31661008	A02BA02	06/10/2003
31347384	A02BA02	11/04/2005
31814249	A02BA02	30/12/2009
31897149	A02BA02	24/02/2011
32133275	A02BA02	03/06/2003
31937147	A02BA02	14/12/2004
31952034	A02BA02	15/12/2009
31158374	A02BA02	17/09/2009
31490500	A02BA02	25/01/2005
31227899	A02BA02	20/10/2006
31685580	A02BA02	29/06/2004
31465325	A02BA02	20/10/2010
32120117	A02BA02	21/12/2009
31299326	A02BA02	26/07/2005
32223111	A02BA02	20/08/2002
32018650	A02BA02	06/09/2005
31624485	A02BA02	09/12/2009
31171674	A02BA02	17/07/2007
32280905	A02BA02	19/08/2010
31788498	A02BA02	30/10/2003
31770237	A02BA02	28/01/2004
31919657	A02BA02	13/08/2004
31558532	A02BA02	11/12/2006
31689849	A02BA02	30/12/2008
31572849	A02BA02	11/03/2005
32189511	A02BA02	28/02/2011
31484986	A02BA02	02/04/2009
31842217	A02BA02	10/02/2006
31467275	A02BA02	13/01/2004
31948679	A02BA02	02/06/2005
31953915	A02BA02	16/10/2006
31790134	A02BA02	18/06/2007
31227385	A02BA02	12/12/2003
31354769	A02BA02	19/10/2007
32253149	A02BA02	15/09/2008
31494792	A02BA02	19/05/2010
31805286	A02BA02	21/09/2000
32036407	A02BA02	26/12/2007
31907428	A02BA02	07/02/2004
31931082	A02BA02	05/07/2007
32029170	A02BA02	20/12/2005
32155393	A02BA02	09/10/2007
32156577	A02BA02	28/12/2005
31356867	A02BA02	15/10/2007
31310503	A02BA02	13/10/2003
31914115	A02BA02	09/11/2010
31317319	A02BA02	11/04/2003
31768630	A02BA02	22/03/2007
31916785	A02BA02	24/06/2004
31711759	A02BA02	12/12/2005
31752102	A02BA02	15/12/2004
31206884	A02BA02	03/12/2001
31662377	A02BA02	06/11/2007
31469295	A02BA02	16/08/2007
31918461	A02BA02	18/01/2007
31065530	A02BA02	26/10/2010
31291105	A02BA02	11/02/2003
31771015	A02BA02	24/01/2007
31615865	A02BA02	13/02/2004
31532642	A02BA02	22/09/2003
31927385	A02BA02	18/12/2009
31429343	A02BA02	29/01/2002
31385236	A02BA02	21/02/2003
31282511	A02BA02	09/02/2006
32225055	A02BA02	05/03/2003
32218115	A02BA02	05/01/2011
31410826	A02BA02	19/05/2003
31312120	A02BA02	07/04/2001
31774140	A02BA02	07/03/2008
31733685	A02BA02	21/03/2003
31482522	A02BA02	24/01/2007
32061134	A02BA02	30/09/2002
32220436	A02BA02	26/10/2004
31856511	A02BA02	28/02/2011
32016051	A02BA02	22/09/2004
31561607	A02BA02	17/09/2002
31165154	A02BA02	24/07/2006
32087007	A02BA02	10/03/2005
31725531	A02BA02	23/01/2002
32127720	A02BA02	25/10/2002
32128208	A02BA02	15/02/2007
31165916	A02BA02	28/03/2008
31213090	A02BA02	20/06/2007
32267215	A02BA02	15/10/2008
32163483	A02BA02	07/05/2004
32176704	A02BA02	24/09/2003
31768146	A02BA02	01/08/2005
31696489	A02BA02	02/09/2003
31149717	A02BA02	04/03/2010
31948352	A02BA02	05/12/2006
32077238	A02BA02	16/11/2004
31133575	A02BA02	03/06/2003
31036635	A02BA02	22/05/2002
31202748	A02BA02	21/12/2005
32040613	A02BA02	19/11/2007
32278781	A02BA02	28/08/2003
