patient_id	covar_name	date
2767848	A10AC04	05/05/2004
731159	A10AC04	11/01/2010
1069126	A10AC04	14/04/2008
15667199	A10AC04	14/03/2011
189189	A10AC04	11/05/2006
2134010	A10AC04	16/10/2009
3055444	A10AC04	10/02/2011
2526072	A10AC04	05/04/2004
25743054	A10AC04	14/04/2011
26742475	A10AC04	21/08/2007
33023892	A10AC04	03/02/2010
33053742	A10AC04	30/09/2004
23316166	A10AC04	30/07/2010
18768076	A10AC04	18/04/2011
16615324	A10AC04	18/05/2011
31854978	A10AC04	11/12/2009
31126630	A10AC04	22/06/2004
31735454	A10AC04	17/08/2004
32186902	A10AC04	29/12/2009
32002259	A10AC04	14/09/2006
31895165	A10AC04	27/09/2010
32006368	A10AC04	26/05/2003
31898173	A10AC04	30/10/2008
31515814	A10AC04	06/04/2004
32136272	A10AC04	18/08/2006
