patient_id	covar_name	date
12790716	A03FA91	16/11/2009
12779140	A03FA91	13/02/2008
16927509	A03FA91	09/08/2004
729621	A03FA91	04/04/2011
12782183	A03FA91	18/01/2011
12774625	A03FA91	11/06/2007
730096	A03FA91	04/03/2008
8292476	A03FA91	04/03/2010
12194393	A03FA91	29/04/2011
6756330	A03FA91	09/01/2008
13223096	A03FA91	25/09/2008
14983098	A03FA91	17/05/2011
6417675	A03FA91	21/06/2007
9238570	A03FA91	04/11/2009
8556985	A03FA91	06/02/2008
1731330	A03FA91	30/01/2008
21806479	A03FA91	05/09/2008
21870482	A03FA91	25/06/2001
15036073	A03FA91	19/04/2010
9306838	A03FA91	06/11/2009
3335602	A03FA91	04/08/2004
16099901	A03FA91	31/01/2011
11995010	A03FA91	16/11/2010
1069458	A03FA91	02/11/2010
9298997	A03FA91	05/11/2010
15384882	A03FA91	23/12/2005
9215041	A03FA91	30/03/2011
9982943	A03FA91	03/11/2010
21153105	A03FA91	08/06/2007
5461472	A03FA91	05/11/2002
701693	A03FA91	21/01/2010
6079907	A03FA91	18/11/2009
12806895	A03FA91	06/04/2011
6757275	A03FA91	18/01/2002
9387016	A03FA91	19/11/2008
9371112	A03FA91	30/09/2008
9984797	A03FA91	13/05/2011
8293863	A03FA91	14/02/2007
9374623	A03FA91	14/07/2004
23994485	A03FA91	24/02/2005
8975154	A03FA91	29/12/2010
14224014	A03FA91	20/01/2009
9386515	A03FA91	03/09/2007
12772856	A03FA91	03/08/2009
612097	A03FA91	13/12/2010
9231972	A03FA91	21/02/2011
21152552	A03FA91	01/09/2008
7406208	A03FA91	27/12/2010
12696447	A03FA91	11/10/2005
5814094	A03FA91	12/06/2009
9311828	A03FA91	26/01/2011
9134539	A03FA91	03/06/2008
9386259	A03FA91	17/11/2005
20547221	A03FA91	17/10/2006
9383919	A03FA91	15/09/2008
8786640	A03FA91	11/05/2010
608929	A03FA91	14/04/2011
7248660	A03FA91	29/11/2004
9268428	A03FA91	28/03/2011
12830135	A03FA91	23/01/2007
6080444	A03FA91	04/06/2009
17172613	A03FA91	26/04/2011
8976554	A03FA91	30/05/2007
12694616	A03FA91	27/09/2005
12479742	A03FA91	09/08/2004
9385740	A03FA91	29/04/2004
8786041	A03FA91	20/10/2010
17216427	A03FA91	30/10/2009
23472073	A03FA91	18/07/2002
11993793	A03FA91	01/07/2005
6746616	A03FA91	31/03/2005
21152857	A03FA91	01/07/2009
601168	A03FA91	08/03/2011
3120195	A03FA91	03/08/2007
9373053	A03FA91	25/04/2007
8556270	A03FA91	05/05/2011
62859	A03FA91	19/04/2011
9339219	A03FA91	27/09/2004
1166214	A03FA91	02/04/2003
7152251	A03FA91	23/11/2010
23442833	A03FA91	25/06/2009
17462419	A03FA91	28/04/2010
8785213	A03FA91	01/12/2009
3123498	A03FA91	16/06/2003
14982084	A03FA91	19/11/2007
12695067	A03FA91	08/03/2005
7095604	A03FA91	03/05/2010
7095167	A03FA91	30/11/2010
9274459	A03FA91	30/09/2004
6746487	A03FA91	07/09/2005
10331265	A03FA91	14/11/2005
24930936	A03FA91	26/03/2010
173517	A03FA91	08/04/2011
20566164	A03FA91	14/03/2003
944325	A03FA91	16/06/2004
16559495	A03FA91	19/09/2007
16920398	A03FA91	21/04/2008
1516892	A03FA91	13/07/2009
6416965	A03FA91	21/05/2007
12782081	A03FA91	26/10/2010
7405877	A03FA91	30/05/2011
25047568	A03FA91	15/03/2011
1063691	A03FA91	14/12/2010
10457413	A03FA91	16/02/2010
6866296	A03FA91	17/05/2011
207716	A03FA91	01/10/2004
12690118	A03FA91	23/04/2009
9389414	A03FA91	13/12/2010
611502	A03FA91	24/09/2010
9320295	A03FA91	05/02/2008
1335044	A03FA91	06/11/2009
1936084	A03FA91	20/09/2010
12690514	A03FA91	26/05/2006
1162907	A03FA91	16/05/2011
12171465	A03FA91	05/04/2004
8292672	A03FA91	19/02/2008
6745473	A03FA91	14/04/2011
2768484	A03FA91	02/07/2007
10393675	A03FA91	24/03/2011
15237928	A03FA91	20/11/2009
12688847	A03FA91	27/01/2010
9383699	A03FA91	21/01/2009
3120831	A03FA91	15/05/2001
731479	A03FA91	07/11/2001
9348188	A03FA91	27/06/2008
7160936	A03FA91	06/02/2009
9346881	A03FA91	28/01/2009
3292708	A03FA91	28/05/2007
697976	A03FA91	23/03/2010
14983731	A03FA91	28/08/2007
1068416	A03FA91	17/04/2008
8974881	A03FA91	25/03/2009
610477	A03FA91	11/07/2005
1335724	A03FA91	12/05/2011
9214769	A03FA91	23/11/2010
731545	A03FA91	21/02/2008
8556671	A03FA91	11/05/2006
736944	A03FA91	20/10/2009
24764394	A03FA91	30/05/2011
12172995	A03FA91	08/10/2002
8786315	A03FA91	13/04/2010
12173020	A03FA91	04/03/2005
17752052	A03FA91	20/11/2009
16927871	A03FA91	25/01/2005
3501905	A03FA91	22/06/2006
10605420	A03FA91	14/09/2007
20565596	A03FA91	18/08/2006
3301222	A03FA91	10/06/2010
15669835	A03FA91	14/01/2009
16230858	A03FA91	25/09/2006
9386723	A03FA91	25/03/2009
11993515	A03FA91	23/06/2009
12790379	A03FA91	08/10/2008
8556206	A03FA91	22/06/2010
3290458	A03FA91	16/02/2007
733479	A03FA91	21/04/2003
5029261	A03FA91	27/10/2006
9220825	A03FA91	26/10/2004
702007	A03FA91	22/05/2009
5866498	A03FA91	19/10/2009
10331912	A03FA91	15/07/2010
6417039	A03FA91	24/10/2006
11661691	A03FA91	11/06/2004
12738517	A03FA91	01/07/2008
10268644	A03FA91	11/11/2008
12782079	A03FA91	18/08/2009
14810293	A03FA91	12/08/2009
17216825	A03FA91	13/08/2010
16557300	A03FA91	03/12/2007
10457259	A03FA91	06/11/2009
17216732	A03FA91	09/06/2010
21152754	A03FA91	27/03/2008
12691271	A03FA91	12/07/2006
8293752	A03FA91	22/09/2009
1069550	A03FA91	11/11/2008
9385061	A03FA91	28/03/2008
10004108	A03FA91	19/07/2010
24765014	A03FA91	16/04/2010
1418232	A03FA91	12/04/2011
7769748	A03FA91	03/11/2009
7781621	A03FA91	07/01/2010
7967901	A03FA91	20/08/2009
23996759	A03FA91	01/02/2006
6598413	A03FA91	10/12/2008
7967014	A03FA91	05/04/2005
12188310	A03FA91	16/02/2010
1546771	A03FA91	25/05/2011
1417651	A03FA91	28/11/2005
1852504	A03FA91	21/03/2011
26145000	A03FA91	17/05/2010
437691	A03FA91	01/06/2011
1853226	A03FA91	20/08/2010
1320118	A03FA91	23/12/2010
6603276	A03FA91	21/10/2008
639323	A03FA91	25/06/2007
8068502	A03FA91	28/09/2010
1210462	A03FA91	26/06/2006
1852424	A03FA91	28/09/2007
1420340	A03FA91	25/04/2001
6472598	A03FA91	05/05/2011
1264700	A03FA91	26/07/2006
7777584	A03FA91	05/12/2003
7770599	A03FA91	18/08/2009
1320533	A03FA91	07/11/2008
6597829	A03FA91	01/12/2006
7777348	A03FA91	17/02/2011
13984900	A03FA91	15/06/2001
1199932	A03FA91	27/12/2010
1210419	A03FA91	15/04/2011
13986469	A03FA91	21/10/2005
1546096	A03FA91	09/12/2007
1416316	A03FA91	18/06/2010
26144152	A03FA91	17/05/2006
1852767	A03FA91	23/03/2011
1353807	A03FA91	14/09/2004
648760	A03FA91	09/01/2007
2934862	A03FA91	17/11/2009
26144622	A03FA91	03/08/2010
1545758	A03FA91	27/06/2006
1203525	A03FA91	18/01/2006
539380	A03FA91	02/11/2005
1346900	A03FA91	30/09/2008
539234	A03FA91	06/05/2011
1352463	A03FA91	15/12/2006
10081530	A03FA91	05/08/2010
1206503	A03FA91	26/10/2005
1547134	A03FA91	07/09/2001
645626	A03FA91	26/06/2007
7771521	A03FA91	16/02/2005
638786	A03FA91	09/05/2011
1352039	A03FA91	31/05/2001
1418557	A03FA91	19/05/2009
5489882	A03FA91	09/05/2011
1446022	A03FA91	08/08/2007
526051	A03FA91	31/08/2001
1446039	A03FA91	31/08/2010
1545551	A03FA91	07/08/2007
1297372	A03FA91	10/08/2009
7848502	A03FA91	17/03/2009
22585985	A03FA91	08/01/2010
539256	A03FA91	04/04/2011
1321846	A03FA91	16/11/2010
1204770	A03FA91	17/11/2009
7771619	A03FA91	11/03/2003
525534	A03FA91	24/03/2010
1210330	A03FA91	11/04/2002
1420732	A03FA91	16/03/2001
7781275	A03FA91	07/04/2008
1545607	A03FA91	04/08/2008
6601131	A03FA91	25/09/2008
515028	A03FA91	26/03/2010
1198913	A03FA91	12/05/2011
1277173	A03FA91	28/04/1999
1665483	A03FA91	27/05/2008
1419053	A03FA91	24/07/2001
640251	A03FA91	26/09/2008
6598203	A03FA91	11/07/2001
6599963	A03FA91	27/09/2010
1849566	A03FA91	01/06/2010
648621	A03FA91	21/03/2007
6378838	A03FA91	08/04/2011
1208178	A03FA91	05/01/2004
4447846	A03FA91	22/04/2010
6597391	A03FA91	17/10/2008
7770332	A03FA91	01/04/2008
7969204	A03FA91	19/01/2009
12601900	A03FA91	27/08/2008
515769	A03FA91	27/05/2004
6212704	A03FA91	18/02/2010
515988	A03FA91	01/05/2011
515844	A03FA91	23/02/2005
22114632	A03FA91	06/06/2008
5992383	A03FA91	21/02/2006
1202019	A03FA91	27/04/2005
17606613	A03FA91	18/12/2003
1199703	A03FA91	09/11/2010
1211624	A03FA91	22/12/2008
1424080	A03FA91	19/08/2002
7777716	A03FA91	24/06/2010
6594333	A03FA91	30/04/2007
7623127	A03FA91	10/06/2009
1203166	A03FA91	06/02/2006
7776254	A03FA91	03/05/2011
1351713	A03FA91	05/06/2003
4700277	A03FA91	31/05/2011
12614346	A03FA91	09/06/2009
13986679	A03FA91	29/04/2011
6598234	A03FA91	16/11/2004
564726	A03FA91	04/08/2003
647332	A03FA91	03/12/2009
7697001	A03FA91	23/09/2010
6601117	A03FA91	22/10/2004
1295976	A03FA91	22/09/2010
639310	A03FA91	05/09/2005
7849206	A03FA91	13/02/2007
1641372	A03FA91	27/03/2008
1133221	A03FA91	10/12/2003
1133457	A03FA91	16/07/2008
6597378	A03FA91	26/06/2003
1132264	A03FA91	04/08/2009
25767803	A03FA91	30/04/2008
12657781	A03FA91	10/03/2010
6598193	A03FA91	20/11/2003
1647348	A03FA91	05/11/2009
1638022	A03FA91	22/03/2005
1638747	A03FA91	01/07/2002
718128	A03FA91	12/02/2007
1066253	A03FA91	28/09/2005
6495063	A03FA91	10/07/2008
1102247	A03FA91	20/07/2010
12162729	A03FA91	26/04/2005
715994	A03FA91	03/07/2009
1101747	A03FA91	29/07/2002
996518	A03FA91	04/10/2006
995675	A03FA91	22/04/2010
12162776	A03FA91	27/08/2009
1104695	A03FA91	10/03/2011
485949	A03FA91	09/11/2009
25891515	A03FA91	12/08/2010
1639147	A03FA91	09/02/2010
25750805	A03FA91	08/06/2005
25904870	A03FA91	15/12/2008
4861068	A03FA91	02/02/2009
25760442	A03FA91	13/06/2006
1855343	A03FA91	15/09/2004
135815	A03FA91	17/01/2002
1552120	A03FA91	17/06/2005
1111994	A03FA91	17/02/2011
1134693	A03FA91	20/06/2007
1065365	A03FA91	22/09/2006
1580234	A03FA91	09/09/2009
190945	A03FA91	11/02/2010
4693455	A03FA91	01/12/2004
1581260	A03FA91	10/01/2001
1135567	A03FA91	18/06/2001
1101985	A03FA91	02/04/2008
1103247	A03FA91	17/05/2011
2040077	A03FA91	22/04/2004
2044879	A03FA91	10/09/2010
2143165	A03FA91	17/09/2009
2137012	A03FA91	02/08/2005
2112990	A03FA91	17/01/2002
1754454	A03FA91	14/06/2010
902930	A03FA91	09/03/2001
1767190	A03FA91	25/09/2003
2053406	A03FA91	24/01/2005
1763227	A03FA91	25/09/2007
1682937	A03FA91	22/05/2002
757583	A03FA91	02/12/2003
2038784	A03FA91	07/08/2002
902142	A03FA91	20/05/2011
859374	A03FA91	28/02/2008
1763742	A03FA91	15/04/2005
3055265	A03FA91	04/12/2009
2779016	A03FA91	11/11/2009
3054885	A03FA91	22/05/2008
3054401	A03FA91	10/10/2005
3055184	A03FA91	16/11/2002
3052217	A03FA91	16/01/2002
3053603	A03FA91	10/01/2003
3052879	A03FA91	19/10/2005
3052049	A03FA91	12/03/2009
3053366	A03FA91	17/12/2002
2759631	A03FA91	09/06/2003
2778364	A03FA91	10/05/2011
3053834	A03FA91	29/01/2010
2778447	A03FA91	11/11/2008
2779188	A03FA91	16/12/2008
3052617	A03FA91	04/06/2010
3054595	A03FA91	29/10/2002
2779963	A03FA91	26/07/2004
2759074	A03FA91	18/12/2010
2521898	A03FA91	31/10/2003
2520230	A03FA91	28/01/2009
2573816	A03FA91	24/11/2008
2773004	A03FA91	25/01/2008
2756982	A03FA91	20/05/2011
2407446	A03FA91	14/08/2009
17741931	A03FA91	03/03/2011
14144071	A03FA91	11/02/2009
2408152	A03FA91	27/04/2004
2522658	A03FA91	21/04/2003
16835793	A03FA91	31/07/2005
2713954	A03FA91	05/01/2009
12215748	A03FA91	21/03/2007
26410716	A03FA91	20/10/2006
28065993	A03FA91	30/05/2011
26461792	A03FA91	16/12/2008
26425486	A03FA91	02/10/2002
26385141	A03FA91	18/07/2007
26425755	A03FA91	23/03/2006
26425762	A03FA91	10/06/2009
28044455	A03FA91	22/03/2002
28049312	A03FA91	19/06/2006
28063102	A03FA91	25/04/2011
26480772	A03FA91	03/11/2004
7229936	A03FA91	17/07/2009
7168589	A03FA91	15/04/2011
18471931	A03FA91	18/03/2011
7035689	A03FA91	05/05/2011
26244722	A03FA91	09/08/2005
22497799	A03FA91	09/11/2006
7229284	A03FA91	22/07/2010
7137260	A03FA91	22/04/2011
20146851	A03FA91	20/04/2005
26258595	A03FA91	19/03/2009
7229425	A03FA91	15/07/2009
18223290	A03FA91	24/11/2008
26425357	A03FA91	04/08/2010
20147230	A03FA91	21/12/2006
26425372	A03FA91	27/06/2006
26461292	A03FA91	06/05/2011
26460224	A03FA91	07/04/2003
20147574	A03FA91	14/10/2010
17742432	A03FA91	14/10/2009
26255901	A03FA91	11/02/2011
26424620	A03FA91	24/05/2007
26454330	A03FA91	13/03/2009
7492715	A03FA91	10/03/2008
8116592	A03FA91	18/02/2004
7140005	A03FA91	01/12/2005
16950099	A03FA91	28/01/2011
185772	A03FA91	07/09/2009
2965216	A03FA91	26/04/2011
300617	A03FA91	02/06/2009
422896	A03FA91	02/07/2003
1903409	A03FA91	31/12/2004
307239	A03FA91	02/03/2007
302849	A03FA91	11/12/2008
304505	A03FA91	25/02/2011
422587	A03FA91	30/11/2009
8045081	A03FA91	21/07/2010
428453	A03FA91	27/03/2009
28090208	A03FA91	17/05/2011
28081504	A03FA91	22/03/2010
877449	A03FA91	04/06/2010
26426004	A03FA91	14/04/2005
18222373	A03FA91	03/07/2006
26424730	A03FA91	21/08/2009
28077299	A03FA91	05/10/2005
20147240	A03FA91	25/06/2009
28083229	A03FA91	30/10/2006
28079828	A03FA91	11/01/2008
28080061	A03FA91	22/07/2004
2755660	A03FA91	21/12/2005
419562	A03FA91	24/06/2009
26425106	A03FA91	30/09/2008
17741586	A03FA91	16/02/2011
17742169	A03FA91	21/10/2010
186579	A03FA91	13/01/2011
271966	A03FA91	02/05/2011
187189	A03FA91	15/05/2008
302593	A03FA91	24/02/2006
184746	A03FA91	28/07/2006
437620	A03FA91	18/02/2009
428157	A03FA91	05/08/2008
425839	A03FA91	30/11/2005
303624	A03FA91	02/08/2010
300557	A03FA91	04/04/2005
859897	A03FA91	23/02/2006
28054748	A03FA91	07/08/2009
28086566	A03FA91	18/08/2008
28043953	A03FA91	07/07/2000
28072320	A03FA91	25/08/2004
28062278	A03FA91	05/02/2009
28072225	A03FA91	15/04/2009
28045535	A03FA91	13/08/2010
28070174	A03FA91	06/08/2009
28045890	A03FA91	08/02/2010
24665617	A03FA91	11/12/2008
24666863	A03FA91	11/02/2004
25641998	A03FA91	20/08/2003
24656659	A03FA91	02/01/2004
24658550	A03FA91	14/09/2009
25539451	A03FA91	10/12/2010
25588570	A03FA91	23/03/2010
24666170	A03FA91	04/12/2007
25641792	A03FA91	24/12/2010
25746656	A03FA91	07/10/2008
24663007	A03FA91	19/04/2011
18190165	A03FA91	19/05/2004
1904043	A03FA91	21/09/2005
178647	A03FA91	18/03/2011
1372823	A03FA91	02/02/2010
1014507	A03FA91	10/05/2011
1030772	A03FA91	14/12/2009
1367639	A03FA91	15/12/2004
1371652	A03FA91	05/07/2006
18195981	A03FA91	11/04/2005
1373981	A03FA91	01/06/2011
40178	A03FA91	28/09/2004
16841259	A03FA91	24/10/2007
1372631	A03FA91	14/04/2004
1371015	A03FA91	05/01/2000
16840863	A03FA91	16/05/2007
16841220	A03FA91	17/01/2005
18191908	A03FA91	28/04/2004
16841682	A03FA91	03/05/2007
18186972	A03FA91	01/02/2005
17596151	A03FA91	04/10/2010
18188104	A03FA91	10/01/2011
18956880	A03FA91	25/07/2007
16812742	A03FA91	29/06/2010
1904747	A03FA91	31/01/2008
2988749	A03FA91	22/04/2009
4312803	A03FA91	18/04/2011
4317303	A03FA91	19/05/2009
2957533	A03FA91	05/02/2003
1370391	A03FA91	06/10/2003
1904262	A03FA91	20/09/2001
1015918	A03FA91	29/04/2009
1366818	A03FA91	09/05/2011
8109355	A03FA91	12/05/2009
1015295	A03FA91	10/12/2008
1015995	A03FA91	06/02/2004
926529	A03FA91	10/11/2004
1909227	A03FA91	04/12/2009
1365497	A03FA91	28/12/2010
26770131	A03FA91	11/09/2008
26852141	A03FA91	18/02/2011
26770421	A03FA91	14/10/2005
26628446	A03FA91	18/03/2010
26618354	A03FA91	25/09/2007
26707630	A03FA91	04/05/2010
26700714	A03FA91	14/07/2006
26776996	A03FA91	01/09/2005
26700153	A03FA91	11/02/2005
26835058	A03FA91	05/02/2010
26777501	A03FA91	06/10/2005
26620101	A03FA91	13/10/2009
16844586	A03FA91	22/07/2009
2987979	A03FA91	27/07/2010
12881814	A03FA91	22/10/2009
24579514	A03FA91	08/08/2006
12976685	A03FA91	04/11/2003
14309684	A03FA91	10/12/2009
24581856	A03FA91	12/07/2007
2987010	A03FA91	27/05/2008
15891949	A03FA91	26/02/2010
17165183	A03FA91	09/09/2008
26718859	A03FA91	01/10/2010
26722551	A03FA91	24/09/2007
26618280	A03FA91	01/03/2010
26628248	A03FA91	29/10/2010
26719543	A03FA91	02/09/2008
17163138	A03FA91	09/11/2009
16843285	A03FA91	04/10/2010
26626604	A03FA91	20/09/2010
26616688	A03FA91	04/02/2010
26616698	A03FA91	15/01/2007
17165877	A03FA91	01/12/2009
2989932	A03FA91	25/02/2008
14310647	A03FA91	23/02/2010
15810961	A03FA91	05/08/2009
2990152	A03FA91	20/10/2010
26625814	A03FA91	20/11/2001
26618242	A03FA91	04/06/2008
24578320	A03FA91	02/03/2011
24577473	A03FA91	30/01/2006
24663203	A03FA91	17/08/2010
24654931	A03FA91	08/08/2008
24579610	A03FA91	25/08/2006
24577586	A03FA91	06/03/2006
22921553	A03FA91	17/03/2004
22883329	A03FA91	14/08/2007
24656409	A03FA91	20/05/2011
24579417	A03FA91	07/06/2005
23484160	A03FA91	01/06/2011
27028562	A03FA91	29/04/2008
26959942	A03FA91	28/05/2011
27023212	A03FA91	12/12/2008
26894948	A03FA91	22/11/2010
26935041	A03FA91	21/12/2001
26935514	A03FA91	09/06/2008
26917313	A03FA91	18/09/2004
26934370	A03FA91	22/01/2008
26916180	A03FA91	11/05/2011
26936433	A03FA91	17/08/2004
26959307	A03FA91	31/08/2010
26941906	A03FA91	06/04/2006
26897795	A03FA91	01/06/2011
26933236	A03FA91	24/09/2009
26933097	A03FA91	20/02/2003
26949733	A03FA91	06/05/2011
26962715	A03FA91	06/06/2007
26879225	A03FA91	29/10/2004
26878576	A03FA91	03/10/2003
26715077	A03FA91	20/09/2004
26782134	A03FA91	21/02/2011
26784601	A03FA91	20/01/2006
26742016	A03FA91	28/10/2009
26703793	A03FA91	09/11/2007
26771518	A03FA91	24/08/2010
26759249	A03FA91	07/11/2006
26730110	A03FA91	29/03/2010
26776105	A03FA91	12/09/2006
26867297	A03FA91	02/03/2011
26859048	A03FA91	19/10/2009
26863512	A03FA91	04/03/2011
26899205	A03FA91	26/03/2009
26848752	A03FA91	14/11/2006
26859120	A03FA91	30/09/2009
26876370	A03FA91	24/05/2011
26876200	A03FA91	10/05/2011
26878446	A03FA91	03/01/2002
26864172	A03FA91	17/04/2009
26854943	A03FA91	29/08/2008
26846476	A03FA91	27/03/2011
26845417	A03FA91	12/06/2009
26888309	A03FA91	22/12/2008
26845214	A03FA91	07/12/2007
26800376	A03FA91	05/04/2008
26793287	A03FA91	28/12/2005
26730688	A03FA91	17/05/2011
26802468	A03FA91	09/06/2010
26713672	A03FA91	10/02/2010
26776380	A03FA91	18/05/2006
26717403	A03FA91	01/04/2003
26712779	A03FA91	12/06/2009
26717001	A03FA91	06/09/2006
26772899	A03FA91	18/05/2010
26715346	A03FA91	27/05/2011
26815899	A03FA91	19/04/2008
26815919	A03FA91	18/11/2004
26711151	A03FA91	07/10/2009
26977158	A03FA91	14/09/2010
27034247	A03FA91	30/09/2003
27029751	A03FA91	28/07/2004
27071882	A03FA91	14/01/2009
26972976	A03FA91	30/11/2004
26970927	A03FA91	17/02/2011
26968087	A03FA91	12/11/2008
27105329	A03FA91	06/02/2006
27086485	A03FA91	27/03/2008
27151243	A03FA91	14/12/2007
27150958	A03FA91	07/03/2003
27109851	A03FA91	27/01/2005
27133462	A03FA91	04/06/2003
27150951	A03FA91	22/08/2009
27043656	A03FA91	23/04/2008
27043665	A03FA91	17/12/2010
27052734	A03FA91	12/04/2007
27073169	A03FA91	26/05/2006
27104742	A03FA91	11/12/2006
27075029	A03FA91	20/12/2010
27082854	A03FA91	13/10/2009
27056639	A03FA91	05/10/2004
27074909	A03FA91	13/02/2006
27074929	A03FA91	16/11/2006
27085882	A03FA91	02/07/2009
27106068	A03FA91	03/03/2006
27057227	A03FA91	18/12/2001
27054915	A03FA91	09/05/2011
27052774	A03FA91	05/10/2010
27072046	A03FA91	18/10/2005
27066800	A03FA91	17/05/2011
27062753	A03FA91	28/10/2009
27037293	A03FA91	04/02/2011
27027925	A03FA91	17/02/2006
27037502	A03FA91	25/05/2009
27042033	A03FA91	31/10/2008
26996376	A03FA91	17/01/2011
26981833	A03FA91	05/03/2010
27000732	A03FA91	17/06/2008
27022688	A03FA91	03/05/2011
27170364	A03FA91	04/02/2009
27379761	A03FA91	24/10/2005
27384019	A03FA91	05/08/2010
27169373	A03FA91	03/08/2004
27248578	A03FA91	20/10/2004
27389916	A03FA91	26/04/2011
27168136	A03FA91	14/07/2009
27130094	A03FA91	10/06/2009
27151618	A03FA91	16/03/2010
27284739	A03FA91	07/01/2011
27364127	A03FA91	14/09/2005
27252081	A03FA91	20/08/2002
27242095	A03FA91	04/09/2006
27169975	A03FA91	31/12/2004
27365421	A03FA91	27/05/2011
27219070	A03FA91	23/05/2005
27220475	A03FA91	06/03/2011
27200066	A03FA91	15/06/2004
27355027	A03FA91	25/05/2009
27371161	A03FA91	02/11/2005
27245119	A03FA91	01/10/2002
27316194	A03FA91	16/02/2009
27369903	A03FA91	15/03/2011
27389824	A03FA91	06/08/2010
27220297	A03FA91	21/05/2011
27306529	A03FA91	26/04/2011
27320454	A03FA91	10/09/2008
27353964	A03FA91	19/05/2009
27352654	A03FA91	10/06/2009
26967221	A03FA91	11/12/2009
27173410	A03FA91	24/05/2010
26971168	A03FA91	19/11/2001
27249965	A03FA91	26/10/2006
27389141	A03FA91	09/10/2008
27253841	A03FA91	16/04/2009
27170019	A03FA91	12/12/2008
27389179	A03FA91	26/10/2005
26957273	A03FA91	26/10/2004
26994284	A03FA91	27/04/2011
26952329	A03FA91	14/12/2000
27247425	A03FA91	09/11/2007
27200892	A03FA91	18/01/2011
27597168	A03FA91	31/05/2011
27592082	A03FA91	08/01/2008
27591421	A03FA91	03/11/2010
27568160	A03FA91	15/11/2006
27596955	A03FA91	20/12/2006
27606357	A03FA91	12/02/2007
27475677	A03FA91	20/04/2010
27480968	A03FA91	20/01/2011
27481454	A03FA91	18/03/2010
27470779	A03FA91	16/05/2011
27442017	A03FA91	10/03/2005
27420939	A03FA91	03/02/2006
27631341	A03FA91	27/02/2006
27564567	A03FA91	16/09/2002
27765553	A03FA91	19/02/2004
27764873	A03FA91	27/09/2010
27764019	A03FA91	19/05/2011
27614866	A03FA91	19/04/2011
27621566	A03FA91	18/03/2007
27633199	A03FA91	03/10/2005
27571164	A03FA91	02/03/2006
27153665	A03FA91	17/05/2011
27233968	A03FA91	12/03/2007
27165352	A03FA91	17/09/2007
27167394	A03FA91	25/01/2008
27283981	A03FA91	07/07/2004
27144212	A03FA91	10/05/2010
27138764	A03FA91	17/03/2002
27153690	A03FA91	10/06/2010
27284550	A03FA91	16/02/2011
27476329	A03FA91	11/08/2008
26900477	A03FA91	26/11/2008
27251651	A03FA91	08/05/2007
27444490	A03FA91	11/10/2006
27071836	A03FA91	05/02/2007
1905474	A03FA91	04/01/2008
27379914	A03FA91	23/11/2009
27708348	A03FA91	08/02/2007
27244772	A03FA91	25/02/2004
12983986	A03FA91	26/06/2007
27674960	A03FA91	27/08/2004
27781142	A03FA91	01/07/2005
27772101	A03FA91	14/12/2001
27684641	A03FA91	31/01/2003
27683287	A03FA91	17/11/2008
27530374	A03FA91	30/08/2004
27679924	A03FA91	03/03/2006
27535710	A03FA91	14/04/2010
27785654	A03FA91	30/06/2005
27685556	A03FA91	26/05/2011
27682729	A03FA91	08/11/2006
27771990	A03FA91	02/06/2005
26636698	A03FA91	31/12/2009
27664133	A03FA91	16/05/2003
27356200	A03FA91	17/08/2004
27680041	A03FA91	16/10/2007
27010455	A03FA91	30/11/2007
27543143	A03FA91	18/10/2007
19423467	A03FA91	28/12/2007
26992037	A03FA91	28/05/2011
27666515	A03FA91	07/02/2011
27810748	A03FA91	15/03/2010
27680750	A03FA91	07/08/2003
27241868	A03FA91	26/06/2008
27687348	A03FA91	15/06/2009
26833867	A03FA91	18/12/2007
27480179	A03FA91	08/03/2006
27597126	A03FA91	11/01/2005
27528686	A03FA91	09/02/2010
27459762	A03FA91	26/04/2011
27614281	A03FA91	07/04/2011
27799332	A03FA91	29/05/2008
24655178	A03FA91	26/12/2003
25542610	A03FA91	20/04/2006
1374096	A03FA91	28/08/2006
27810792	A03FA91	19/12/2007
27803448	A03FA91	04/03/2008
27804595	A03FA91	12/09/2008
27546390	A03FA91	23/12/2008
27797371	A03FA91	18/05/2009
27804103	A03FA91	24/05/2010
27756194	A03FA91	26/05/2011
27760886	A03FA91	14/11/2002
27666358	A03FA91	24/08/2001
27761994	A03FA91	17/01/2011
27715841	A03FA91	30/05/2007
27797699	A03FA91	07/07/2008
27666876	A03FA91	24/03/2010
27667214	A03FA91	03/02/2006
27362016	A03FA91	24/02/2011
26770940	A03FA91	30/04/2007
27573190	A03FA91	14/12/2009
27286254	A03FA91	12/12/2007
24581757	A03FA91	13/01/2005
27218796	A03FA91	02/03/2007
12993325	A03FA91	18/02/2005
304327	A03FA91	02/01/2006
27780895	A03FA91	13/12/2007
27668760	A03FA91	18/08/2009
27682338	A03FA91	30/10/2009
27669704	A03FA91	10/06/2003
27246927	A03FA91	03/10/2003
27245530	A03FA91	26/08/2008
27572773	A03FA91	18/01/2007
27758941	A03FA91	07/08/2008
27761679	A03FA91	31/05/2001
27783816	A03FA91	17/11/2008
26955317	A03FA91	01/06/2004
27358783	A03FA91	29/05/2011
27545639	A03FA91	21/05/2011
26867267	A03FA91	28/06/2006
27806522	A03FA91	02/05/2011
27663402	A03FA91	20/12/2007
21553613	A03FA91	03/02/2007
33106412	A03FA91	15/11/2007
33069261	A03FA91	01/09/2008
33015557	A03FA91	24/11/2008
33086922	A03FA91	15/12/2009
33019812	A03FA91	04/06/2007
33086839	A03FA91	29/06/2010
33041016	A03FA91	04/08/2009
33062908	A03FA91	15/05/2006
33076772	A03FA91	03/09/2010
33085788	A03FA91	29/06/2005
33007275	A03FA91	07/03/2008
33030987	A03FA91	24/11/2009
33043546	A03FA91	03/09/2010
33103882	A03FA91	14/03/2002
33116068	A03FA91	07/05/2008
33065445	A03FA91	04/12/2009
33068451	A03FA91	23/02/2011
33022736	A03FA91	14/02/2011
33091373	A03FA91	23/06/2000
33068637	A03FA91	19/06/2009
33099353	A03FA91	25/09/2008
33060437	A03FA91	03/02/2006
33023079	A03FA91	16/03/2009
33036483	A03FA91	17/02/2011
33081368	A03FA91	25/03/2009
33106608	A03FA91	04/02/2011
33113036	A03FA91	31/01/2005
33019235	A03FA91	22/09/2010
33099318	A03FA91	12/09/2007
33065720	A03FA91	09/12/2008
33071188	A03FA91	06/11/2009
33116087	A03FA91	01/06/2010
33080281	A03FA91	08/04/2010
33105763	A03FA91	10/05/2006
33027943	A03FA91	30/04/2009
33053364	A03FA91	29/06/2004
33057047	A03FA91	03/10/2003
33016621	A03FA91	16/11/2005
33052130	A03FA91	01/02/2007
33003004	A03FA91	11/10/2002
33093077	A03FA91	25/10/2005
33019290	A03FA91	17/03/2004
33072253	A03FA91	25/03/2009
33045539	A03FA91	03/11/2010
33079795	A03FA91	18/09/2008
33060457	A03FA91	24/03/2009
33108978	A03FA91	28/10/2010
33060297	A03FA91	15/11/2010
33018342	A03FA91	21/05/2011
33072464	A03FA91	18/12/2001
33029467	A03FA91	26/01/2010
33039975	A03FA91	11/02/2003
33020581	A03FA91	23/04/2008
33127896	A03FA91	24/06/2009
33005850	A03FA91	12/12/2002
33123693	A03FA91	13/04/2010
33093636	A03FA91	27/05/2002
33028260	A03FA91	03/06/2010
33058796	A03FA91	14/05/2009
33000142	A03FA91	13/03/2003
33071618	A03FA91	27/02/2001
33083974	A03FA91	17/07/2009
33072776	A03FA91	24/02/2009
33045248	A03FA91	09/01/2009
33074554	A03FA91	18/06/2003
19800777	A03FA91	26/01/2009
422251	A03FA91	18/03/2003
33110551	A03FA91	11/07/2007
27605240	A03FA91	22/12/2006
16843427	A03FA91	19/02/2009
183728	A03FA91	25/08/2010
27805358	A03FA91	23/09/2004
26638174	A03FA91	11/11/2005
24661802	A03FA91	03/06/2005
428238	A03FA91	19/11/2004
24666707	A03FA91	10/12/2003
33002823	A03FA91	06/05/2008
33072648	A03FA91	10/02/2010
265805	A03FA91	27/01/2011
16125528	A03FA91	05/12/2006
27846920	A03FA91	19/10/2004
16177914	A03FA91	08/08/2001
21114135	A03FA91	18/04/2011
33207980	A03FA91	13/04/2010
16774544	A03FA91	26/01/2010
21114796	A03FA91	07/10/2008
33034636	A03FA91	10/10/2003
23382045	A03FA91	12/11/2009
16609720	A03FA91	01/07/2004
16713414	A03FA91	21/04/2004
20981877	A03FA91	10/11/2006
24463719	A03FA91	21/08/2009
33048233	A03FA91	20/07/2006
33097958	A03FA91	08/11/2010
33033258	A03FA91	05/02/2010
33095076	A03FA91	25/06/2010
33106850	A03FA91	27/07/2010
33026712	A03FA91	29/11/2010
33015324	A03FA91	14/05/2009
33056325	A03FA91	16/07/2010
33117698	A03FA91	11/01/2008
33020105	A03FA91	06/02/2008
33099222	A03FA91	27/08/2008
33013638	A03FA91	16/03/2006
33060956	A03FA91	16/02/2006
33030174	A03FA91	22/11/2005
33025702	A03FA91	28/05/2009
33128286	A03FA91	01/03/2010
33044348	A03FA91	25/08/2009
33006816	A03FA91	16/09/2010
33020070	A03FA91	03/01/2011
33074065	A03FA91	18/03/2008
33012104	A03FA91	23/08/2005
33113117	A03FA91	28/10/2008
33104786	A03FA91	31/08/2010
33082186	A03FA91	10/11/2006
33032465	A03FA91	16/03/2006
33086443	A03FA91	26/05/2011
33004014	A03FA91	15/02/2008
33043124	A03FA91	31/05/2011
33086432	A03FA91	19/01/2010
33053146	A03FA91	19/02/2009
33037400	A03FA91	29/06/2005
33098972	A03FA91	21/09/2004
33060193	A03FA91	06/05/2004
33053621	A03FA91	05/04/2006
33041694	A03FA91	25/05/2009
33109468	A03FA91	07/12/2007
33081131	A03FA91	26/12/2006
33105580	A03FA91	31/10/2008
33087055	A03FA91	09/01/2009
33093006	A03FA91	03/11/2009
33080775	A03FA91	04/11/2008
33055038	A03FA91	01/03/2006
33004431	A03FA91	23/02/2004
33067910	A03FA91	08/04/2010
33057611	A03FA91	19/05/2011
33066033	A03FA91	14/01/2011
33093016	A03FA91	25/11/2008
33021513	A03FA91	07/02/2005
33093762	A03FA91	08/09/2009
33060706	A03FA91	28/04/2011
33024548	A03FA91	15/10/2008
33086197	A03FA91	20/05/2010
33040568	A03FA91	23/07/2003
33116126	A03FA91	07/03/2011
18755343	A03FA91	17/11/2010
16774206	A03FA91	04/04/2011
16166333	A03FA91	19/10/2007
33304646	A03FA91	27/08/2007
23315706	A03FA91	05/04/2005
16166019	A03FA91	07/03/2008
28000073	A03FA91	10/01/2011
16625238	A03FA91	09/10/2008
16615854	A03FA91	14/09/2009
23407899	A03FA91	06/10/2006
23364642	A03FA91	15/07/2004
33308973	A03FA91	29/04/2004
23315807	A03FA91	19/02/2008
33235684	A03FA91	22/03/2010
33233293	A03FA91	15/11/2010
18771664	A03FA91	19/03/2007
33207607	A03FA91	20/12/2010
23328374	A03FA91	25/11/2005
23316381	A03FA91	04/12/2010
16617207	A03FA91	11/11/2005
33226529	A03FA91	14/07/2008
16637147	A03FA91	26/06/2009
16640222	A03FA91	25/08/2008
16609624	A03FA91	10/01/2005
16652568	A03FA91	07/01/2010
33310131	A03FA91	08/11/2005
23408488	A03FA91	28/09/2004
23382344	A03FA91	09/01/2009
27910248	A03FA91	09/01/2006
33298953	A03FA91	01/06/2011
23363972	A03FA91	31/05/2011
27913765	A03FA91	19/03/2010
28024777	A03FA91	17/12/2010
33202123	A03FA91	15/04/2009
16167046	A03FA91	30/06/2010
27848097	A03FA91	02/02/2001
23361804	A03FA91	10/12/2009
16636746	A03FA91	13/09/2007
33229490	A03FA91	15/10/2008
33235172	A03FA91	08/01/2005
27934525	A03FA91	22/04/2010
20982073	A03FA91	08/10/2010
16625522	A03FA91	08/04/2011
33235687	A03FA91	23/06/2009
18769407	A03FA91	08/10/2009
21106897	A03FA91	10/05/2011
20986036	A03FA91	22/01/2009
16708594	A03FA91	27/04/2009
20985317	A03FA91	16/05/2008
23354036	A03FA91	22/06/2005
16124521	A03FA91	22/02/2001
18769331	A03FA91	04/06/2008
16609666	A03FA91	25/03/2008
16184071	A03FA91	26/04/2005
16623737	A03FA91	24/07/2008
23371267	A03FA91	24/11/2009
16684643	A03FA91	19/01/2011
18770770	A03FA91	21/11/2001
33206523	A03FA91	18/01/2010
16634039	A03FA91	28/04/2006
23315951	A03FA91	20/04/2004
23381998	A03FA91	16/05/2011
33308794	A03FA91	02/04/2004
18764607	A03FA91	08/01/2010
28023306	A03FA91	08/04/2010
16683516	A03FA91	18/10/2007
18770636	A03FA91	22/07/2004
16708154	A03FA91	17/12/2007
33238211	A03FA91	30/01/2007
23326417	A03FA91	13/02/2008
23346872	A03FA91	12/07/2004
16186327	A03FA91	31/10/2000
20986175	A03FA91	23/06/2009
23354092	A03FA91	20/04/2004
23355002	A03FA91	09/09/2008
16124869	A03FA91	01/10/2003
23354037	A03FA91	19/05/2008
16125107	A03FA91	11/12/2002
33235413	A03FA91	16/10/2010
23401821	A03FA91	01/04/2011
16607281	A03FA91	30/12/2008
23406445	A03FA91	03/05/2006
14189326	A03FA91	27/07/2010
16709056	A03FA91	01/07/2004
23382269	A03FA91	03/05/2010
16684088	A03FA91	27/02/2009
16683552	A03FA91	19/05/2009
21101295	A03FA91	04/10/2010
16135556	A03FA91	26/05/2011
16611332	A03FA91	08/03/2004
23318897	A03FA91	10/08/2005
16166372	A03FA91	10/08/2005
32181933	A03FA91	03/06/2009
31665307	A03FA91	14/05/2007
31429184	A03FA91	22/02/2007
32105305	A03FA91	22/05/2007
31119324	A03FA91	19/01/2006
23402490	A03FA91	25/02/2010
23366435	A03FA91	19/01/2007
16181768	A03FA91	05/01/2011
16613468	A03FA91	12/12/2003
23362721	A03FA91	04/06/2007
16648667	A03FA91	23/03/2011
23349644	A03FA91	27/04/2009
23350021	A03FA91	12/12/2008
23310316	A03FA91	04/10/2007
23337328	A03FA91	19/08/2008
16652685	A03FA91	21/05/2009
16625422	A03FA91	23/05/2011
21107879	A03FA91	13/01/2011
27946149	A03FA91	19/07/2005
21109687	A03FA91	24/05/2011
33293205	A03FA91	29/12/2005
23351379	A03FA91	17/03/2011
23354686	A03FA91	28/09/2010
23340750	A03FA91	21/01/2011
20987102	A03FA91	07/11/2005
18761883	A03FA91	25/03/2003
33312274	A03FA91	20/05/2011
33240321	A03FA91	10/02/2003
18764796	A03FA91	26/04/2005
16621754	A03FA91	28/11/2008
31376060	A03FA91	29/06/2006
31178102	A03FA91	11/02/2009
31689978	A03FA91	22/07/2009
31357015	A03FA91	05/09/2007
32168227	A03FA91	29/08/2006
31323143	A03FA91	03/12/2004
31773481	A03FA91	28/11/2005
31683932	A03FA91	25/10/2005
31535776	A03FA91	17/02/2004
31536904	A03FA91	10/09/2008
31393374	A03FA91	09/07/2007
31934885	A03FA91	11/03/2005
31534993	A03FA91	27/01/2010
31863922	A03FA91	29/12/2004
31639847	A03FA91	28/08/2007
31676739	A03FA91	05/09/2007
31164952	A03FA91	15/04/2005
31841131	A03FA91	02/04/2003
31236677	A03FA91	03/11/2008
31157640	A03FA91	11/01/2005
31510794	A03FA91	05/07/2004
31796372	A03FA91	22/09/2004
32036113	A03FA91	20/08/2007
31863599	A03FA91	15/01/2008
32182917	A03FA91	12/11/2004
31925365	A03FA91	11/05/2011
32153084	A03FA91	20/11/2006
31313565	A03FA91	05/01/2004
31466238	A03FA91	16/12/2008
31160878	A03FA91	29/10/2007
31338973	A03FA91	06/08/2009
31119347	A03FA91	10/05/2007
32136089	A03FA91	30/01/2004
31616781	A03FA91	31/10/2007
32142904	A03FA91	11/10/2005
31495301	A03FA91	11/02/2005
32224890	A03FA91	28/10/2010
31670295	A03FA91	19/12/2008
31097075	A03FA91	15/10/2008
32171260	A03FA91	26/12/2006
31931778	A03FA91	20/12/2007
32158065	A03FA91	15/11/2005
32232461	A03FA91	15/06/2004
32187488	A03FA91	18/05/2006
31793709	A03FA91	08/04/2009
31722801	A03FA91	26/04/2004
31527081	A03FA91	25/02/2005
32045415	A03FA91	05/07/2005
31987098	A03FA91	21/05/2007
31557995	A03FA91	05/10/2006
31209513	A03FA91	30/06/2006
32020201	A03FA91	28/12/2004
31077319	A03FA91	26/07/2006
32129366	A03FA91	31/08/2009
32189208	A03FA91	25/09/2007
31225363	A03FA91	29/09/2004
32176799	A03FA91	29/07/2004
31428879	A03FA91	10/05/2007
31658349	A03FA91	03/08/2009
32246359	A03FA91	14/11/2002
32166665	A03FA91	24/02/2010
31907332	A03FA91	02/04/2008
31529916	A03FA91	19/10/2005
31317017	A03FA91	23/08/2007
31675988	A03FA91	09/12/2003
31738398	A03FA91	18/02/2005
31658156	A03FA91	29/12/2010
31402775	A03FA91	01/09/2005
32277220	A03FA91	17/12/2004
31159827	A03FA91	06/04/2006
32262892	A03FA91	01/12/2009
32146428	A03FA91	28/12/2004
32192753	A03FA91	30/01/2009
32216487	A03FA91	24/09/2007
31066431	A03FA91	04/08/2003
32026658	A03FA91	20/07/2005
31358766	A03FA91	03/04/2007
31044730	A03FA91	26/08/2004
31136755	A03FA91	17/10/2003
32063312	A03FA91	02/03/2006
32114975	A03FA91	26/12/2008
31415795	A03FA91	14/10/2005
32275456	A03FA91	27/10/2008
31821410	A03FA91	17/02/2009
31416932	A03FA91	05/02/2008
31365988	A03FA91	27/12/2005
31562635	A03FA91	26/02/2008
31579814	A03FA91	26/02/2009
31634470	A03FA91	05/11/2002
32275690	A03FA91	28/11/2008
31297297	A03FA91	13/08/2004
31745829	A03FA91	02/12/2008
31235701	A03FA91	19/04/2002
31532807	A03FA91	06/04/2005
31038591	A03FA91	13/04/2005
31870585	A03FA91	19/05/2004
31963628	A03FA91	21/01/2011
32067496	A03FA91	21/07/2003
31553653	A03FA91	27/04/2004
32158525	A03FA91	06/04/2004
31937062	A03FA91	20/03/2009
31745915	A03FA91	29/12/2010
31722183	A03FA91	26/05/2006
31187591	A03FA91	15/12/2010
31339297	A03FA91	17/07/2007
32239528	A03FA91	03/10/2006
31704498	A03FA91	08/09/2005
31533378	A03FA91	23/10/2008
31583282	A03FA91	27/12/2006
31299339	A03FA91	28/04/2008
31991549	A03FA91	28/09/2007
31309692	A03FA91	23/04/2003
32218651	A03FA91	08/09/2004
31840622	A03FA91	11/01/2006
31299767	A03FA91	28/12/2006
32265725	A03FA91	15/04/2011
31426404	A03FA91	29/01/2010
31244703	A03FA91	22/12/2009
31071475	A03FA91	21/12/2005
31102291	A03FA91	23/01/2003
31696540	A03FA91	16/11/2006
32005669	A03FA91	06/09/2010
32246352	A03FA91	10/06/2005
32214279	A03FA91	28/04/2008
31359087	A03FA91	19/10/2010
31092206	A03FA91	05/10/2009
31297746	A03FA91	23/10/2006
31814987	A03FA91	10/06/2009
31426960	A03FA91	26/03/2009
31485067	A03FA91	25/02/2003
31169467	A03FA91	19/10/2005
31698320	A03FA91	15/06/2005
31046930	A03FA91	30/10/2009
32094474	A03FA91	02/04/2008
31478845	A03FA91	23/10/2002
31744141	A03FA91	03/11/2008
31989306	A03FA91	03/04/2007
31754896	A03FA91	25/10/2010
32188596	A03FA91	03/12/2008
31795919	A03FA91	22/05/2002
32148306	A03FA91	01/06/2007
31851612	A03FA91	09/12/2009
32244371	A03FA91	05/01/2004
31480290	A03FA91	04/02/2009
32087742	A03FA91	20/02/2003
31689766	A03FA91	24/02/2005
31053170	A03FA91	22/10/2007
31576384	A03FA91	06/04/2009
31557279	A03FA91	24/01/2011
32188715	A03FA91	07/07/2006
31470909	A03FA91	31/01/2005
32068499	A03FA91	13/01/2006
31863781	A03FA91	02/08/2007
32260330	A03FA91	13/10/2006
31422036	A03FA91	08/07/2009
32106380	A03FA91	18/12/2009
31390850	A03FA91	18/09/2003
31897930	A03FA91	02/04/2009
32029664	A03FA91	22/01/2008
31844739	A03FA91	29/10/2001
32269409	A03FA91	15/10/2003
32230729	A03FA91	05/09/2005
31269212	A03FA91	15/09/2008
31904860	A03FA91	11/04/2005
32278983	A03FA91	31/10/2008
31263929	A03FA91	21/03/2003
31521974	A03FA91	07/12/2004
31795951	A03FA91	06/08/2009
31241772	A03FA91	29/03/2006
31838091	A03FA91	01/10/2008
32112412	A03FA91	11/12/2006
32095959	A03FA91	31/05/2004
32282398	A03FA91	29/03/2004
32168690	A03FA91	25/01/2008
32182821	A03FA91	19/12/2002
31605323	A03FA91	25/09/2006
31316151	A03FA91	02/03/2010
31450469	A03FA91	27/06/2008
31670179	A03FA91	03/12/2009
31401453	A03FA91	10/02/2006
31785047	A03FA91	30/05/2005
31674712	A03FA91	02/05/2008
31973333	A03FA91	10/03/2009
32200367	A03FA91	18/03/2003
31598763	A03FA91	08/07/2004
31084179	A03FA91	10/11/2003
31979328	A03FA91	19/09/2006
32128378	A03FA91	25/05/2006
31128087	A03FA91	18/12/2008
31162307	A03FA91	29/07/2008
31388004	A03FA91	12/07/2007
31303279	A03FA91	25/10/2007
32102978	A03FA91	29/01/2007
32061586	A03FA91	22/01/2007
31743661	A03FA91	10/07/2007
32026942	A03FA91	12/08/2010
32179642	A03FA91	29/08/2007
31444748	A03FA91	03/11/2008
31366968	A03FA91	11/07/2002
31447684	A03FA91	18/09/2008
31961565	A03FA91	04/05/2009
31194277	A03FA91	09/05/2008
31519055	A03FA91	15/12/2008
31426233	A03FA91	05/08/2005
31654286	A03FA91	05/09/2007
31195889	A03FA91	28/11/2006
31588436	A03FA91	15/09/2008
32215294	A03FA91	14/09/2005
32159787	A03FA91	03/11/2006
32114832	A03FA91	12/05/2005
31121467	A03FA91	10/10/2006
32200321	A03FA91	31/08/2004
32179849	A03FA91	07/08/2006
31704197	A03FA91	25/10/2007
31328114	A03FA91	18/09/2007
31250279	A03FA91	14/03/2006
31137112	A03FA91	08/05/2006
31746041	A03FA91	01/09/2005
31560503	A03FA91	11/04/2003
32250544	A03FA91	02/03/2005
31649698	A03FA91	03/12/2004
31474342	A03FA91	22/12/2010
32112633	A03FA91	23/11/2010
31241823	A03FA91	07/06/2007
31483186	A03FA91	03/08/2005
31600809	A03FA91	07/11/2007
31502904	A03FA91	23/11/2007
31596789	A03FA91	04/12/2009
31759736	A03FA91	26/05/2009
31713979	A03FA91	30/05/2006
31732643	A03FA91	22/10/2004
32250443	A03FA91	08/11/2004
31195300	A03FA91	05/06/2008
31964079	A03FA91	17/09/2003
31230558	A03FA91	24/10/2003
32084947	A03FA91	25/03/2003
31584060	A03FA91	20/01/2011
31637090	A03FA91	30/11/2007
31669871	A03FA91	02/12/2004
31244492	A03FA91	09/04/2007
31101370	A03FA91	20/01/2004
31628867	A03FA91	10/09/2009
31539806	A03FA91	11/02/2009
31761481	A03FA91	05/12/2003
31451439	A03FA91	01/04/2003
31533448	A03FA91	24/04/2006
31245381	A03FA91	05/11/2004
31510398	A03FA91	10/10/2006
32277020	A03FA91	02/10/2006
31745661	A03FA91	30/06/2006
31785482	A03FA91	25/06/2010
32257488	A03FA91	20/11/2003
31138152	A03FA91	12/09/2005
32007716	A03FA91	24/10/2007
31791129	A03FA91	27/10/2010
32087289	A03FA91	29/03/2011
32201838	A03FA91	20/11/2002
31137076	A03FA91	10/11/2010
32141842	A03FA91	04/04/2006
31912103	A03FA91	16/02/2006
31653458	A03FA91	03/08/2006
32083953	A03FA91	02/12/2002
31807086	A03FA91	06/02/2006
31161794	A03FA91	03/12/2004
31819996	A03FA91	27/12/2005
31970294	A03FA91	24/04/2007
31671227	A03FA91	19/07/2005
31390875	A03FA91	04/07/2007
32007468	A03FA91	30/03/2005
31175621	A03FA91	18/09/2009
31928407	A03FA91	21/11/2008
32256725	A03FA91	24/07/2009
32003164	A03FA91	10/08/2005
31145803	A03FA91	07/01/2004
32011072	A03FA91	22/02/2002
31249805	A03FA91	06/04/2005
31893271	A03FA91	23/04/2009
32026788	A03FA91	04/01/2006
31367892	A03FA91	16/07/2009
31954330	A03FA91	01/10/2003
31427055	A03FA91	15/03/2007
32143143	A03FA91	03/09/2008
31992839	A03FA91	30/11/2007
32057825	A03FA91	10/07/2007
31055063	A03FA91	14/10/2003
31947419	A03FA91	12/04/2010
31811508	A03FA91	21/04/2004
31400190	A03FA91	19/01/2007
32280267	A03FA91	17/07/2009
31444085	A03FA91	04/08/2006
31552724	A03FA91	15/05/2006
31747520	A03FA91	29/06/2004
31559202	A03FA91	04/10/2005
32229799	A03FA91	21/09/2006
32144834	A03FA91	30/10/2006
32143146	A03FA91	21/11/2006
31647102	A03FA91	18/08/2006
31092295	A03FA91	11/10/2007
31632144	A03FA91	29/04/2009
31629478	A03FA91	02/07/2007
31065272	A03FA91	03/11/2009
32195050	A03FA91	28/09/2009
32149838	A03FA91	18/05/2010
31195567	A03FA91	16/10/2009
31364804	A03FA91	29/10/2007
32112160	A03FA91	04/10/2005
31177447	A03FA91	22/02/2008
31076403	A03FA91	14/04/2009
31478038	A03FA91	12/09/2008
32075764	A03FA91	11/09/2003
31128250	A03FA91	26/11/2002
31273240	A03FA91	25/09/2008
31180139	A03FA91	12/11/2007
32197317	A03FA91	14/10/2005
31445382	A03FA91	01/12/2009
32133944	A03FA91	16/12/2008
32079324	A03FA91	16/01/2007
31225420	A03FA91	26/10/2009
32190489	A03FA91	04/04/2006
31512689	A03FA91	05/11/2010
31705692	A03FA91	27/02/2007
31293711	A03FA91	14/06/2007
31032144	A03FA91	22/04/2004
31622230	A03FA91	27/02/2008
32175829	A03FA91	10/08/2007
31140632	A03FA91	29/01/2007
31031117	A03FA91	31/10/2006
32047678	A03FA91	17/11/2008
31883663	A03FA91	13/07/2006
31641763	A03FA91	01/04/2003
31720337	A03FA91	30/06/2009
32144323	A03FA91	29/09/2003
32190546	A03FA91	30/05/2003
31448770	A03FA91	06/08/2008
32167646	A03FA91	29/09/2008
31217427	A03FA91	14/02/2007
31858005	A03FA91	23/12/2004
32130841	A03FA91	22/09/2009
31981297	A03FA91	18/11/2005
31471339	A03FA91	03/07/2008
31143108	A03FA91	29/06/2007
32172719	A03FA91	18/10/2006
31294988	A03FA91	01/03/2011
32281524	A03FA91	30/05/2005
32194091	A03FA91	03/11/2003
32076594	A03FA91	21/10/2008
31523134	A03FA91	21/06/2007
31610642	A03FA91	21/01/2010
31788566	A03FA91	29/09/2008
31062455	A03FA91	22/01/2002
32026871	A03FA91	11/07/2008
31738650	A03FA91	25/09/2007
31549675	A03FA91	11/05/2007
32121090	A03FA91	06/11/2007
31696583	A03FA91	13/07/2006
31151033	A03FA91	08/09/2008
31228702	A03FA91	15/02/2005
31438511	A03FA91	04/12/2006
32028980	A03FA91	17/05/2007
31928343	A03FA91	13/09/2006
31872910	A03FA91	03/06/2009
32090185	A03FA91	16/12/2007
32205708	A03FA91	31/05/2001
31733512	A03FA91	11/03/2010
32133275	A03FA91	05/11/2002
31685580	A03FA91	28/10/2004
31052600	A03FA91	29/11/2004
31928040	A03FA91	27/06/2006
31259283	A03FA91	01/12/2009
31585215	A03FA91	07/12/2007
31558532	A03FA91	11/12/2006
31861365	A03FA91	25/07/2007
31335412	A03FA91	08/10/2001
31948679	A03FA91	24/01/2008
32053362	A03FA91	29/09/2005
31673165	A03FA91	31/08/2009
31951386	A03FA91	04/11/2002
31662377	A03FA91	09/10/2006
31918461	A03FA91	16/12/2008
31640617	A03FA91	02/12/2010
31640272	A03FA91	05/04/2005
31291105	A03FA91	09/02/2005
31501116	A03FA91	15/12/2008
31900396	A03FA91	07/02/2007
32087738	A03FA91	10/06/2004
31995985	A03FA91	30/11/2006
31282511	A03FA91	07/07/2010
31824460	A03FA91	25/03/2008
31889107	A03FA91	11/09/2001
31370295	A03FA91	26/10/2009
32220436	A03FA91	03/02/2004
31731125	A03FA91	09/02/2006
32127720	A03FA91	16/03/2005
32205678	A03FA91	13/04/2007
32158039	A03FA91	19/12/2006
31564838	A03FA91	21/05/2008
31208956	A03FA91	12/09/2008
31893874	A03FA91	11/02/2008
31149717	A03FA91	11/02/2010
31778043	A03FA91	29/10/2007
31649595	A03FA91	05/03/2002
31333245	A03FA91	11/08/2006
32087928	A03FA91	02/11/2005
31691272	A03FA91	26/01/2006
31811905	A03FA91	07/04/2006
31372876	A03FA91	16/10/2006
31850117	A03FA91	30/05/2006
31838445	A03FA91	03/06/2009
