patient_id	covar_name	date
5034754	B02AA02	02/02/2010
8559182	B02AA02	17/11/2009
9371683	B02AA02	22/03/2010
8784088	B02AA02	14/11/2008
948728	B02AA02	14/02/2011
10003991	B02AA02	09/05/2007
9177319	B02AA02	22/04/2010
8976554	B02AA02	10/02/2011
8555693	B02AA02	28/02/2006
5031417	B02AA02	06/11/2009
9385740	B02AA02	01/02/2011
7094087	B02AA02	05/02/2009
9372898	B02AA02	08/02/2011
946083	B02AA02	11/09/2008
7152251	B02AA02	27/09/2005
9250225	B02AA02	07/08/2009
944325	B02AA02	17/06/2005
8978074	B02AA02	07/09/2010
7219712	B02AA02	21/01/2010
19184017	B02AA02	19/05/2011
7219676	B02AA02	02/11/2010
8561334	B02AA02	25/02/2011
8557367	B02AA02	21/03/2005
1724305	B02AA02	12/12/2006
6177821	B02AA02	21/05/2009
19180813	B02AA02	17/01/2011
9383699	B02AA02	04/04/2006
9376083	B02AA02	17/08/2007
10605339	B02AA02	01/03/2010
8702733	B02AA02	03/09/2010
8559033	B02AA02	01/06/2011
19184721	B02AA02	15/07/2009
1634902	B02AA02	08/04/2010
1069550	B02AA02	09/05/2011
4833526	B02AA02	06/08/2007
1067775	B02AA02	19/11/2010
25170727	B02AA02	17/03/2011
7964357	B02AA02	17/03/2008
1417904	B02AA02	05/05/2011
1545551	B02AA02	19/11/2010
1446069	B02AA02	09/05/2007
673927	B02AA02	20/04/2011
1665187	B02AA02	22/07/2010
538978	B02AA02	20/01/2011
1090765	B02AA02	25/05/2011
6842492	B02AA02	11/05/2010
1349681	B02AA02	04/02/2011
1262130	B02AA02	16/02/2010
6603214	B02AA02	22/03/2011
12657677	B02AA02	04/04/2011
25883724	B02AA02	22/01/2008
994068	B02AA02	09/01/2006
1638708	B02AA02	29/10/2010
1132237	B02AA02	26/10/2007
1581159	B02AA02	27/06/2008
1102090	B02AA02	09/12/2009
1133112	B02AA02	14/07/2003
1638137	B02AA02	20/05/2011
4688914	B02AA02	10/11/2005
6914096	B02AA02	18/03/2005
1104695	B02AA02	27/02/2009
4672411	B02AA02	15/05/2008
4678755	B02AA02	16/02/2007
6513850	B02AA02	18/06/2009
1638528	B02AA02	04/06/2010
1130822	B02AA02	19/08/2009
999093	B02AA02	28/06/2005
1558166	B02AA02	23/02/2007
25860190	B02AA02	19/06/2009
1855343	B02AA02	05/08/2008
4678967	B02AA02	15/12/2005
25889450	B02AA02	15/09/2010
1111994	B02AA02	26/11/2009
995605	B02AA02	11/02/2011
1103928	B02AA02	16/11/2005
717026	B02AA02	18/10/2004
1132627	B02AA02	13/08/2007
1135567	B02AA02	11/03/2011
717746	B02AA02	03/09/2009
1557371	B02AA02	17/05/2005
1558068	B02AA02	05/03/2007
2113217	B02AA02	07/11/2008
2109593	B02AA02	16/04/2008
2133429	B02AA02	30/01/2006
2041106	B02AA02	10/05/2011
26478046	B02AA02	05/08/2009
26384059	B02AA02	26/01/2010
17747528	B02AA02	03/01/2007
7229195	B02AA02	02/01/2004
7229461	B02AA02	02/10/2007
1910433	B02AA02	09/04/2010
419256	B02AA02	25/08/2008
302260	B02AA02	02/07/2010
7128685	B02AA02	04/03/2008
28090931	B02AA02	05/07/2010
303035	B02AA02	08/09/2008
303884	B02AA02	27/01/2009
28064907	B02AA02	13/07/2010
28072902	B02AA02	10/11/2008
24655567	B02AA02	20/02/2007
25738696	B02AA02	18/05/2005
25535638	B02AA02	19/09/2003
25742512	B02AA02	12/06/2009
25704459	B02AA02	02/12/2010
24669225	B02AA02	26/06/2009
25741338	B02AA02	27/08/2009
19800216	B02AA02	02/07/2009
18188460	B02AA02	09/01/2009
18194731	B02AA02	01/03/2006
19801596	B02AA02	11/09/2006
1912438	B02AA02	04/03/2005
2251076	B02AA02	14/06/2010
2965259	B02AA02	08/03/2011
26629598	B02AA02	13/02/2008
26835603	B02AA02	15/07/2009
26638644	B02AA02	09/04/2008
26620101	B02AA02	20/08/2007
26619245	B02AA02	31/03/2006
26625646	B02AA02	23/01/2008
26640065	B02AA02	25/08/2006
12974415	B02AA02	08/09/2010
26640356	B02AA02	09/11/2006
24654918	B02AA02	22/02/2007
23484674	B02AA02	19/01/2009
22922696	B02AA02	26/05/2009
24656355	B02AA02	12/11/2010
26933127	B02AA02	06/04/2011
26882417	B02AA02	26/01/2010
26914412	B02AA02	01/06/2007
26709645	B02AA02	27/04/2007
26852710	B02AA02	04/07/2008
26846868	B02AA02	19/05/2011
26856371	B02AA02	20/01/2009
26888601	B02AA02	26/05/2006
26776452	B02AA02	21/08/2007
26768866	B02AA02	08/06/2007
26715346	B02AA02	23/02/2006
26977641	B02AA02	09/03/2010
26989053	B02AA02	10/04/2007
26997476	B02AA02	24/03/2010
27151169	B02AA02	12/04/2010
27100098	B02AA02	28/02/2007
27032533	B02AA02	27/09/2007
27040297	B02AA02	24/11/2003
27010404	B02AA02	28/09/2006
27026349	B02AA02	07/12/2009
27039270	B02AA02	01/07/2010
27326808	B02AA02	02/03/2004
27218364	B02AA02	15/12/2010
27325341	B02AA02	14/05/2011
27314992	B02AA02	04/12/2008
27244684	B02AA02	02/03/2004
27246882	B02AA02	07/03/2011
27309529	B02AA02	18/10/2010
27251223	B02AA02	09/08/2004
27369620	B02AA02	26/04/2011
27349855	B02AA02	30/08/2006
27361071	B02AA02	26/03/2009
27317716	B02AA02	03/03/2008
27389186	B02AA02	15/09/2009
26952890	B02AA02	10/03/2008
27170060	B02AA02	11/03/2011
27623983	B02AA02	13/08/2007
27606126	B02AA02	19/09/2006
27694171	B02AA02	04/04/2011
27571164	B02AA02	12/09/2007
27151908	B02AA02	23/03/2009
27147685	B02AA02	20/12/2005
25741964	B02AA02	12/02/2008
27573631	B02AA02	05/09/2005
27684839	B02AA02	21/06/2007
27686843	B02AA02	16/07/2003
27529159	B02AA02	21/06/2007
27633791	B02AA02	09/02/2011
26772557	B02AA02	11/02/2010
27674543	B02AA02	09/12/2009
27719296	B02AA02	16/11/2010
27765654	B02AA02	27/11/2006
27765162	B02AA02	27/07/2007
27286254	B02AA02	17/04/2009
27251362	B02AA02	07/12/2004
27765475	B02AA02	15/07/2010
27084129	B02AA02	12/09/2008
27772477	B02AA02	05/06/2003
33038855	B02AA02	14/01/2011
33037105	B02AA02	02/05/2008
33033119	B02AA02	23/01/2009
33007179	B02AA02	24/05/2011
33114036	B02AA02	19/10/2005
33021438	B02AA02	23/01/2007
33075788	B02AA02	29/11/2002
33016101	B02AA02	29/09/2008
33069210	B02AA02	07/06/2007
33011078	B02AA02	17/04/2006
33023977	B02AA02	13/05/2005
33057527	B02AA02	11/03/2008
33111605	B02AA02	06/09/2010
33028018	B02AA02	10/02/2009
33057047	B02AA02	15/07/2009
33039293	B02AA02	21/09/2006
33093077	B02AA02	17/06/2004
33046900	B02AA02	28/12/2004
33072253	B02AA02	23/08/2005
33065112	B02AA02	18/09/2007
33112822	B02AA02	17/07/2007
33073796	B02AA02	11/02/2008
33032013	B02AA02	26/11/2009
33072905	B02AA02	09/11/2007
33035653	B02AA02	10/02/2010
33084983	B02AA02	26/04/2011
33026052	B02AA02	26/12/2007
33058269	B02AA02	05/02/2004
25727103	B02AA02	11/01/2010
27551829	B02AA02	16/02/2009
33094218	B02AA02	18/11/2010
26626671	B02AA02	23/04/2007
33298618	B02AA02	17/05/2011
33080052	B02AA02	29/12/2009
16632057	B02AA02	15/11/2010
14187680	B02AA02	26/05/2006
33046012	B02AA02	24/03/2010
16626027	B02AA02	08/01/2010
23335211	B02AA02	31/03/2005
33020434	B02AA02	27/07/2010
33089746	B02AA02	11/05/2011
33070916	B02AA02	25/02/2010
33039979	B02AA02	03/07/2003
33051621	B02AA02	20/04/2010
33104216	B02AA02	19/05/2010
33105370	B02AA02	25/05/2007
33063495	B02AA02	05/06/2008
33025702	B02AA02	08/03/2007
33006775	B02AA02	12/03/2004
33020070	B02AA02	11/09/2006
33019718	B02AA02	02/07/2001
33113117	B02AA02	21/10/2005
33033729	B02AA02	27/11/2007
33032465	B02AA02	04/03/2008
33076011	B02AA02	29/01/2009
33000591	B02AA02	22/07/2008
33074478	B02AA02	31/01/2008
33008084	B02AA02	20/08/2008
33032983	B02AA02	02/07/2007
33034268	B02AA02	24/09/2008
33093016	B02AA02	22/02/2011
21101165	B02AA02	09/03/2011
16607139	B02AA02	15/02/2008
23343990	B02AA02	11/05/2011
18770852	B02AA02	14/06/2007
16636488	B02AA02	15/10/2009
16168701	B02AA02	20/12/2006
23411086	B02AA02	22/06/2010
18766148	B02AA02	13/07/2007
16124109	B02AA02	05/02/2008
33305856	B02AA02	22/03/2011
16626226	B02AA02	27/11/2009
23315730	B02AA02	13/07/2009
23315951	B02AA02	30/07/2004
28018286	B02AA02	19/08/2008
18770636	B02AA02	09/02/2007
23353462	B02AA02	05/04/2005
33202082	B02AA02	08/11/2006
27847657	B02AA02	09/11/2010
16606808	B02AA02	15/04/2004
27984060	B02AA02	24/05/2011
16632488	B02AA02	26/05/2008
23318897	B02AA02	12/04/2004
16625109	B02AA02	07/12/2005
21110134	B02AA02	28/09/2010
23354151	B02AA02	11/11/2005
21012026	B02AA02	11/05/2011
16603132	B02AA02	13/04/2011
32196435	B02AA02	08/10/2009
31811964	B02AA02	19/05/2008
31306117	B02AA02	05/05/2010
31120124	B02AA02	19/05/2008
31259515	B02AA02	11/03/2010
32166665	B02AA02	13/12/2010
32262841	B02AA02	14/09/2010
32192753	B02AA02	03/11/2008
32003001	B02AA02	28/04/2009
31566139	B02AA02	17/11/2010
32040874	B02AA02	26/09/2005
31531704	B02AA02	22/01/2009
31485067	B02AA02	23/07/2007
32201222	B02AA02	30/11/2007
31171281	B02AA02	06/04/2004
31804204	B02AA02	26/02/2009
31242587	B02AA02	10/09/2008
31646731	B02AA02	17/08/2005
32146726	B02AA02	09/08/2005
31492215	B02AA02	21/08/2009
31980687	B02AA02	05/03/2009
32240004	B02AA02	23/11/2000
32018111	B02AA02	04/06/2008
31293266	B02AA02	23/03/2007
31084179	B02AA02	16/11/2004
31750653	B02AA02	22/04/2010
31878078	B02AA02	29/12/2005
31753489	B02AA02	15/12/2009
31072145	B02AA02	22/10/2007
32125428	B02AA02	31/01/2008
31736677	B02AA02	18/01/2006
31483186	B02AA02	21/03/2007
31730012	B02AA02	29/04/2008
31600809	B02AA02	17/12/2003
31826783	B02AA02	20/09/2007
31303440	B02AA02	23/11/2005
31430347	B02AA02	04/11/2009
32260224	B02AA02	16/06/2008
31904695	B02AA02	21/08/2009
31756022	B02AA02	05/02/2004
31807086	B02AA02	20/01/2011
31249805	B02AA02	26/02/2007
31938713	B02AA02	08/03/2011
31311199	B02AA02	02/09/2005
31462204	B02AA02	01/09/2004
31901938	B02AA02	13/01/2005
32226138	B02AA02	22/12/2006
31432709	B02AA02	22/09/2010
32155126	B02AA02	03/10/2005
31067242	B02AA02	18/12/2006
31269908	B02AA02	29/08/2006
31693070	B02AA02	02/03/2006
31822263	B02AA02	12/08/2008
31080678	B02AA02	29/01/2009
32221527	B02AA02	13/11/2006
31121779	B02AA02	23/02/2007
31210075	B02AA02	30/10/2009
31337610	B02AA02	04/06/2007
31374121	B02AA02	19/01/2004
31171674	B02AA02	01/06/2005
31572849	B02AA02	19/10/2009
31994625	B02AA02	28/12/2009
31385236	B02AA02	23/08/2005
31282511	B02AA02	20/04/2005
31443097	B02AA02	08/02/2005
31768146	B02AA02	26/11/2007
