patient_id	covar_name	date
8700537	B03AA91	26/01/2010
8784390	B03AA91	11/05/2006
15427513	B03AA91	30/03/2005
8784206	B03AA91	20/01/2004
6500193	B03AA91	29/12/2004
8279178	B03AA91	13/11/2006
9319745	B03AA91	20/10/2010
9371920	B03AA91	02/06/2009
9376383	B03AA91	01/09/2005
3117675	B03AA91	20/10/2008
9294363	B03AA91	30/12/2003
1125167	B03AA91	30/06/2008
7156210	B03AA91	30/01/2009
24930936	B03AA91	15/06/2010
10332498	B03AA91	15/12/2010
9215265	B03AA91	18/05/2006
21837808	B03AA91	21/07/2009
10246462	B03AA91	17/05/2007
9386360	B03AA91	20/05/2011
6946248	B03AA91	04/12/2007
12183581	B03AA91	30/03/2004
5813348	B03AA91	22/10/2010
14810293	B03AA91	23/07/2009
1171088	B03AA91	12/07/2006
5991103	B03AA91	14/06/2010
24721601	B03AA91	23/09/2005
26145071	B03AA91	15/04/2003
1209248	B03AA91	28/12/2007
5991623	B03AA91	20/05/2010
1353504	B03AA91	29/08/2007
17813405	B03AA91	30/11/2006
6592741	B03AA91	12/01/2001
4700277	B03AA91	15/12/2009
25767713	B03AA91	11/01/2001
1101204	B03AA91	15/03/2011
12788076	B03AA91	26/10/2009
3655532	B03AA91	09/05/2002
876747	B03AA91	20/05/2008
1642138	B03AA91	29/05/2003
876284	B03AA91	27/06/2007
1764621	B03AA91	25/04/2008
876918	B03AA91	07/05/2003
2757442	B03AA91	17/06/2003
28047608	B03AA91	29/10/2010
17041554	B03AA91	01/03/2007
8116592	B03AA91	20/10/2010
16980452	B03AA91	31/05/2011
1028373	B03AA91	27/04/2010
425076	B03AA91	10/06/2005
428453	B03AA91	20/08/1998
28045863	B03AA91	20/02/2007
7128685	B03AA91	06/03/2009
16836815	B03AA91	21/05/2004
28090235	B03AA91	18/12/2007
6465704	B03AA91	27/05/2008
187714	B03AA91	27/01/2004
186409	B03AA91	01/06/2011
28045890	B03AA91	29/06/2006
24666302	B03AA91	01/03/2011
25535638	B03AA91	17/01/2011
24666997	B03AA91	19/02/2002
1020473	B03AA91	23/03/2009
19800216	B03AA91	18/09/2009
18196508	B03AA91	30/10/2001
20070622	B03AA91	05/08/2008
18191861	B03AA91	10/06/2009
18191264	B03AA91	25/11/2010
1015918	B03AA91	26/05/2009
26720817	B03AA91	03/01/2003
26637914	B03AA91	04/02/2004
26625814	B03AA91	03/06/2006
26699845	B03AA91	21/01/2010
22921551	B03AA91	24/05/2008
22922776	B03AA91	22/05/2006
26958743	B03AA91	17/10/2008
26716003	B03AA91	18/05/2011
26754251	B03AA91	12/01/2011
26728263	B03AA91	03/05/2010
26713687	B03AA91	17/03/2008
26770232	B03AA91	08/02/2008
27078993	B03AA91	17/10/2008
27080736	B03AA91	21/11/2006
26991169	B03AA91	19/04/2011
27172241	B03AA91	19/05/2009
27358985	B03AA91	23/05/2011
27358040	B03AA91	05/05/2011
27589319	B03AA91	23/03/2011
27577554	B03AA91	29/04/2009
27600652	B03AA91	24/06/2010
27600750	B03AA91	15/04/2008
27600175	B03AA91	08/10/2010
27616698	B03AA91	02/06/2009
27647339	B03AA91	13/02/2009
27601331	B03AA91	05/08/2010
27614461	B03AA91	13/07/2007
27105042	B03AA91	21/09/2010
26962557	B03AA91	27/01/2010
27679038	B03AA91	19/11/2001
18195688	B03AA91	31/12/2008
24661879	B03AA91	08/09/2010
27674082	B03AA91	16/05/2008
27442644	B03AA91	26/06/2008
18199611	B03AA91	20/12/2001
27251362	B03AA91	13/12/2004
26900545	B03AA91	18/04/2011
27087876	B03AA91	26/04/2010
33019292	B03AA91	03/01/2003
33071674	B03AA91	03/05/2002
33025368	B03AA91	13/11/2007
33099866	B03AA91	27/04/2004
33013322	B03AA91	17/03/2004
33000634	B03AA91	16/01/2008
33008179	B03AA91	19/04/2001
33028260	B03AA91	04/12/2002
33059213	B03AA91	03/12/2010
33044028	B03AA91	03/08/2010
33113135	B03AA91	09/10/2003
1361620	B03AA91	15/09/2006
23380888	B03AA91	28/11/2008
33253757	B03AA91	14/03/2007
33069429	B03AA91	03/08/2009
33040686	B03AA91	16/04/2009
33006816	B03AA91	21/06/2010
33086557	B03AA91	07/06/2007
33032983	B03AA91	21/05/2007
33089335	B03AA91	10/07/2003
33006476	B03AA91	28/11/2005
33085575	B03AA91	26/05/2004
33023069	B03AA91	12/01/2011
33025659	B03AA91	05/02/2007
33091492	B03AA91	26/03/2009
33008358	B03AA91	06/08/2007
33112092	B03AA91	02/05/2001
23407899	B03AA91	07/08/2007
27998334	B03AA91	28/06/2010
16167046	B03AA91	30/10/2010
16636746	B03AA91	23/05/2011
16636488	B03AA91	19/08/2009
33210334	B03AA91	18/04/2001
33249205	B03AA91	09/02/2009
16649380	B03AA91	28/11/2008
16596274	B03AA91	19/01/2006
27856112	B03AA91	07/06/2005
16640372	B03AA91	05/08/2005
27837120	B03AA91	09/05/2006
16621667	B03AA91	21/01/2004
20982124	B03AA91	04/12/2008
33243281	B03AA91	04/11/2009
16646273	B03AA91	14/07/2004
27998488	B03AA91	22/12/2008
20988305	B03AA91	24/08/2007
33265146	B03AA91	02/02/2010
31949660	B03AA91	26/10/2006
31614831	B03AA91	16/06/2004
31114447	B03AA91	20/04/2009
32060268	B03AA91	22/01/2003
31807812	B03AA91	08/08/2005
31675988	B03AA91	28/03/2005
31164009	B03AA91	04/06/2003
31865716	B03AA91	23/12/2009
31765330	B03AA91	15/07/2008
31809587	B03AA91	03/01/2006
31641342	B03AA91	04/09/2007
31505888	B03AA91	17/11/2004
31087924	B03AA91	21/04/2008
31749166	B03AA91	17/09/2003
31531704	B03AA91	01/10/2009
31369355	B03AA91	04/03/2002
32030252	B03AA91	13/03/2008
32084821	B03AA91	07/01/2011
31731312	B03AA91	21/03/2006
31401305	B03AA91	08/07/2004
31315407	B03AA91	03/12/2008
31986530	B03AA91	22/09/2003
31148284	B03AA91	12/01/2006
31562632	B03AA91	26/01/2011
32132555	B03AA91	18/05/2005
32022785	B03AA91	14/03/2005
31269212	B03AA91	09/10/2008
32153728	B03AA91	26/01/2004
32216839	B03AA91	02/06/2009
31835704	B03AA91	23/05/2007
31546151	B03AA91	07/04/2003
31282676	B03AA91	21/02/2007
31696946	B03AA91	21/11/2005
32192268	B03AA91	07/01/2003
31275321	B03AA91	16/05/2003
31584060	B03AA91	31/08/2004
31918158	B03AA91	09/11/2005
31856647	B03AA91	03/09/2008
31414392	B03AA91	02/07/2007
31058197	B03AA91	24/10/2005
31896648	B03AA91	28/10/2010
32052592	B03AA91	27/02/2003
32013355	B03AA91	19/02/2009
31389228	B03AA91	28/08/2009
31240468	B03AA91	28/04/2008
32091415	B03AA91	21/07/2006
31539771	B03AA91	19/10/2007
31513020	B03AA91	20/09/2007
32206134	B03AA91	14/05/2009
32129185	B03AA91	22/06/2009
31549675	B03AA91	26/08/2008
31321234	B03AA91	17/02/2006
32242873	B03AA91	23/08/2006
31326461	B03AA91	04/05/2006
31746286	B03AA91	15/11/2005
31385236	B03AA91	07/08/2003
32061134	B03AA91	30/09/2002
32030746	B03AA91	21/07/2006
