patient_id	covar_name	date
12790716	B01AC04	26/04/2011
23875772	B01AC04	10/07/2007
24730236	B01AC04	31/05/2011
16109980	B01AC04	23/05/2011
8276701	B01AC04	26/01/2009
12774533	B01AC04	10/05/2011
733774	B01AC04	05/04/2004
9302346	B01AC04	21/03/2007
6166130	B01AC04	23/05/2006
7349652	B01AC04	09/04/2008
24950727	B01AC04	23/12/2009
15899105	B01AC04	14/11/2008
12691489	B01AC04	10/08/2010
9214995	B01AC04	09/05/2011
11995010	B01AC04	05/05/2011
24722159	B01AC04	07/04/2011
3937820	B01AC04	13/02/2009
5024202	B01AC04	17/05/2011
9328550	B01AC04	30/03/2011
7094192	B01AC04	10/07/2009
294530	B01AC04	01/03/2011
15854322	B01AC04	09/12/2010
9231971	B01AC04	06/05/2009
10394066	B01AC04	27/05/2011
8293863	B01AC04	07/09/2004
60762	B01AC04	09/05/2011
20551807	B01AC04	21/02/2011
16109831	B01AC04	21/05/2011
9311828	B01AC04	16/05/2011
21152371	B01AC04	14/02/2008
6751368	B01AC04	15/04/2011
9376813	B01AC04	18/06/2010
5812596	B01AC04	06/05/2011
5812193	B01AC04	13/04/2011
9383919	B01AC04	15/12/2006
9230460	B01AC04	14/05/2007
10270319	B01AC04	28/04/2011
5814184	B01AC04	03/05/2010
25060140	B01AC04	10/07/2009
12694616	B01AC04	27/05/2011
15880887	B01AC04	29/10/2010
12857056	B01AC04	26/05/2011
20549743	B01AC04	26/05/2011
6112286	B01AC04	05/09/2007
12220480	B01AC04	18/06/2008
25041749	B01AC04	17/02/2011
9294363	B01AC04	17/05/2011
20557462	B01AC04	17/12/2008
1069172	B01AC04	20/06/2003
8639376	B01AC04	24/05/2011
16559168	B01AC04	18/03/2008
23454613	B01AC04	16/04/2007
9299339	B01AC04	25/05/2011
3304834	B01AC04	09/05/2011
6746487	B01AC04	16/01/2006
12688464	B01AC04	25/05/2011
9382870	B01AC04	19/05/2011
19184518	B01AC04	18/03/2010
17217183	B01AC04	01/06/2011
9214840	B01AC04	27/05/2011
6752499	B01AC04	21/03/2011
5812100	B01AC04	06/05/2011
8651387	B01AC04	20/05/2011
6177821	B01AC04	16/05/2011
3328652	B01AC04	13/07/2007
20528913	B01AC04	19/05/2011
5028278	B01AC04	14/01/2010
8655966	B01AC04	25/02/2008
10395603	B01AC04	29/11/2010
11814620	B01AC04	18/05/2011
17216322	B01AC04	28/05/2011
8293467	B01AC04	07/04/2009
19153840	B01AC04	12/05/2011
10246462	B01AC04	04/05/2011
6749295	B01AC04	30/09/2010
23442733	B01AC04	29/11/2006
5024989	B01AC04	27/07/2006
6759067	B01AC04	05/05/2011
8980948	B01AC04	19/05/2006
25051272	B01AC04	13/12/2006
3333134	B01AC04	18/02/2010
5024381	B01AC04	26/03/2007
9370823	B01AC04	18/03/2011
8976509	B01AC04	24/05/2011
3332462	B01AC04	15/07/2010
24764612	B01AC04	06/05/2011
3123797	B01AC04	18/11/2010
24952014	B01AC04	16/12/2005
20529755	B01AC04	22/04/2010
8294902	B01AC04	12/04/2011
10392609	B01AC04	23/12/2010
9371812	B01AC04	05/12/2007
7160942	B01AC04	05/04/2011
9383722	B01AC04	09/10/2008
16557300	B01AC04	12/05/2011
9203860	B01AC04	25/04/2011
24765841	B01AC04	04/03/2011
9309579	B01AC04	19/06/2006
17618962	B01AC04	10/05/2011
13916747	B01AC04	19/04/2011
6598367	B01AC04	19/05/2011
3332042	B01AC04	19/10/2010
1162239	B01AC04	09/05/2011
1637807	B01AC04	27/10/2010
3328538	B01AC04	13/05/2009
1433054	B01AC04	28/02/2005
1666099	B01AC04	05/05/2011
8955922	B01AC04	04/05/2011
7776172	B01AC04	20/04/2011
6597437	B01AC04	05/05/2011
1853226	B01AC04	31/05/2011
1851987	B01AC04	28/03/2011
7801719	B01AC04	17/05/2011
1349650	B01AC04	11/05/2011
6594579	B01AC04	17/05/2011
1200673	B01AC04	06/12/2004
7972566	B01AC04	10/05/2011
26143659	B01AC04	04/05/2011
24718852	B01AC04	25/05/2011
12189908	B01AC04	16/12/2009
12189529	B01AC04	26/01/2011
645794	B01AC04	01/06/2011
1321721	B01AC04	16/05/2011
13984759	B01AC04	01/06/2011
1545758	B01AC04	30/05/2011
8933284	B01AC04	01/06/2011
8956630	B01AC04	04/05/2011
1205994	B01AC04	28/04/2011
525534	B01AC04	20/05/2011
15738137	B01AC04	25/11/2009
7076246	B01AC04	25/04/2011
7972720	B01AC04	04/05/2011
6601131	B01AC04	05/05/2011
6842058	B01AC04	16/05/2011
1206818	B01AC04	01/06/2011
1211186	B01AC04	11/05/2011
1658853	B01AC04	30/05/2011
673927	B01AC04	13/11/2007
525263	B01AC04	17/04/2009
7966509	B01AC04	05/05/2011
6598838	B01AC04	14/12/2009
539779	B01AC04	21/10/2009
647355	B01AC04	29/04/2011
6603579	B01AC04	17/05/2011
1202324	B01AC04	30/05/2011
7849145	B01AC04	30/05/2011
6602253	B01AC04	23/05/2011
5992383	B01AC04	01/06/2011
1207468	B01AC04	26/05/2011
7800730	B01AC04	17/05/2010
4700540	B01AC04	12/05/2011
24939790	B01AC04	18/05/2011
8955143	B01AC04	21/07/2009
7776373	B01AC04	09/05/2011
1349840	B01AC04	18/05/2011
1856226	B01AC04	23/05/2011
1638216	B01AC04	09/05/2011
15798351	B01AC04	30/11/2009
25904628	B01AC04	23/06/2010
195582	B01AC04	18/05/2011
1640617	B01AC04	21/07/2005
1027312	B01AC04	17/05/2011
1638220	B01AC04	30/09/2009
189189	B01AC04	15/04/2011
1648154	B01AC04	11/05/2011
1006203	B01AC04	09/05/2011
25860190	B01AC04	23/05/2011
1855343	B01AC04	17/08/2010
25818249	B01AC04	01/06/2011
1134812	B01AC04	22/10/2007
1558068	B01AC04	24/05/2011
2068697	B01AC04	20/06/2006
2070070	B01AC04	25/01/2011
2218596	B01AC04	19/05/2011
2132856	B01AC04	21/10/2009
2067508	B01AC04	23/11/2010
2043213	B01AC04	13/05/2011
2137012	B01AC04	06/05/2011
2069915	B01AC04	24/05/2011
904606	B01AC04	23/05/2011
903543	B01AC04	24/09/2009
2038121	B01AC04	11/05/2011
1762768	B01AC04	12/05/2011
877367	B01AC04	08/10/2004
2759303	B01AC04	14/02/2005
7047183	B01AC04	06/05/2011
3051712	B01AC04	13/05/2011
3052996	B01AC04	12/05/2011
4088249	B01AC04	30/05/2011
2777436	B01AC04	19/05/2011
2813159	B01AC04	25/05/2011
2764043	B01AC04	13/05/2011
2519294	B01AC04	26/05/2011
11351339	B01AC04	18/05/2011
2764242	B01AC04	29/04/2011
28054168	B01AC04	25/04/2011
28050537	B01AC04	06/06/2003
26442238	B01AC04	10/05/2011
28080890	B01AC04	06/02/2010
28072967	B01AC04	27/03/2006
28044970	B01AC04	24/05/2011
7134474	B01AC04	03/01/2011
18222877	B01AC04	23/03/2010
17741284	B01AC04	14/10/2010
26336640	B01AC04	27/04/2011
26488449	B01AC04	15/02/2008
17324100	B01AC04	19/02/2004
26338190	B01AC04	12/11/2009
28042025	B01AC04	16/05/2011
14364649	B01AC04	31/05/2011
421437	B01AC04	27/10/2010
433263	B01AC04	19/05/2011
1910243	B01AC04	09/05/2003
433802	B01AC04	25/08/2008
28086673	B01AC04	26/05/2009
304345	B01AC04	07/07/2009
184640	B01AC04	22/02/2009
300557	B01AC04	16/05/2011
648824	B01AC04	24/04/2001
649031	B01AC04	11/11/2004
876220	B01AC04	15/03/2011
28055638	B01AC04	18/05/2011
28093204	B01AC04	05/03/2007
28085935	B01AC04	02/10/2009
28062278	B01AC04	26/05/2011
26488758	B01AC04	07/05/2011
28043285	B01AC04	03/05/2011
24655567	B01AC04	01/06/2011
24657685	B01AC04	22/05/2011
25742680	B01AC04	09/05/2011
24657011	B01AC04	01/06/2004
24659420	B01AC04	23/05/2011
1900288	B01AC04	05/05/2011
19424121	B01AC04	08/05/2011
1361706	B01AC04	23/04/2007
1365817	B01AC04	30/05/2011
1363788	B01AC04	20/05/2011
1372573	B01AC04	16/05/2005
422231	B01AC04	22/09/2004
18187430	B01AC04	30/01/2009
1904747	B01AC04	10/05/2011
2962765	B01AC04	26/05/2011
1030188	B01AC04	24/10/2007
1899552	B01AC04	05/11/2007
2988700	B01AC04	22/11/2010
23484253	B01AC04	30/05/2011
3254435	B01AC04	25/05/2011
16842692	B01AC04	16/10/2006
16567920	B01AC04	18/05/2011
26700941	B01AC04	15/04/2011
26642042	B01AC04	23/08/2002
24583039	B01AC04	18/05/2011
24666854	B01AC04	15/11/2010
24582582	B01AC04	13/05/2011
24581631	B01AC04	09/05/2011
22921551	B01AC04	28/01/2009
21651387	B01AC04	06/05/2011
24581156	B01AC04	30/12/2010
26897499	B01AC04	17/05/2011
26958880	B01AC04	31/12/2001
26992874	B01AC04	18/05/2011
26714333	B01AC04	27/05/2011
26857096	B01AC04	25/05/2011
26717570	B01AC04	17/05/2011
26882035	B01AC04	20/05/2011
26851800	B01AC04	19/05/2011
26780754	B01AC04	12/05/2011
26715346	B01AC04	19/08/2008
26834590	B01AC04	13/05/2011
26980937	B01AC04	17/11/2007
27114481	B01AC04	11/05/2011
27104567	B01AC04	17/12/2007
27111940	B01AC04	19/10/2010
27127065	B01AC04	31/05/2011
27060946	B01AC04	27/05/2011
26978733	B01AC04	12/12/2003
26981833	B01AC04	22/08/2006
27041680	B01AC04	30/05/2011
27170731	B01AC04	30/05/2011
27172399	B01AC04	01/06/2011
27216577	B01AC04	14/04/2005
27152048	B01AC04	28/05/2011
27362443	B01AC04	17/05/2011
27172241	B01AC04	05/05/2011
27218364	B01AC04	27/12/2008
27388816	B01AC04	17/12/2010
27284737	B01AC04	09/05/2011
27368382	B01AC04	08/06/2009
27254109	B01AC04	27/02/2010
27313906	B01AC04	24/10/2006
27173189	B01AC04	08/05/2006
27352971	B01AC04	01/06/2011
27355027	B01AC04	18/07/2008
27367102	B01AC04	01/06/2011
27211899	B01AC04	24/05/2011
27351539	B01AC04	08/07/2007
27313810	B01AC04	20/05/2011
27303739	B01AC04	19/05/2011
27314586	B01AC04	08/05/2011
27347687	B01AC04	29/05/2011
27253823	B01AC04	28/04/2011
27246754	B01AC04	16/05/2011
27389186	B01AC04	10/05/2011
27170212	B01AC04	16/05/2011
26995530	B01AC04	05/02/2009
26989612	B01AC04	27/05/2008
26989189	B01AC04	10/05/2011
27589323	B01AC04	29/05/2011
27577686	B01AC04	13/05/2011
27648485	B01AC04	23/05/2011
27596352	B01AC04	06/04/2009
27657894	B01AC04	14/05/2011
27595836	B01AC04	02/01/2010
27600919	B01AC04	12/12/2005
27493925	B01AC04	06/02/2007
27471719	B01AC04	01/06/2011
27475636	B01AC04	21/09/2010
27658485	B01AC04	06/03/2010
27757050	B01AC04	18/05/2011
27614612	B01AC04	27/11/2007
27694922	B01AC04	27/04/2011
27761424	B01AC04	11/05/2011
27658878	B01AC04	17/05/2011
27153923	B01AC04	14/05/2007
27147888	B01AC04	17/05/2011
27147685	B01AC04	31/01/2002
26637275	B01AC04	06/05/2011
27784776	B01AC04	21/11/2002
27781891	B01AC04	30/05/2011
17423124	B01AC04	04/05/2011
27772053	B01AC04	21/07/2004
27674951	B01AC04	17/03/2008
27454891	B01AC04	19/05/2008
27538875	B01AC04	25/05/2011
27530707	B01AC04	11/05/2011
27459230	B01AC04	23/05/2011
27531095	B01AC04	31/05/2011
27664085	B01AC04	10/02/2010
27783400	B01AC04	14/05/2011
27687190	B01AC04	23/06/2009
27782736	B01AC04	16/09/2003
27531259	B01AC04	31/03/2009
27533492	B01AC04	06/03/2007
26980682	B01AC04	05/05/2011
26916719	B01AC04	15/01/2007
26854951	B01AC04	18/10/2007
27160154	B01AC04	20/05/2011
27398357	B01AC04	26/05/2011
27805384	B01AC04	19/05/2010
27763744	B01AC04	07/10/2002
27718525	B01AC04	21/03/2011
27670649	B01AC04	19/05/2011
27804721	B01AC04	24/05/2011
27757222	B01AC04	25/05/2011
27665005	B01AC04	03/10/2007
27797094	B01AC04	31/05/2009
183848	B01AC04	19/05/2011
27758584	B01AC04	23/05/2011
27686096	B01AC04	06/05/2011
27025860	B01AC04	31/10/2006
27664782	B01AC04	02/11/2010
27572773	B01AC04	18/05/2011
27037506	B01AC04	25/01/2008
27765473	B01AC04	23/05/2011
27778320	B01AC04	18/05/2011
33040260	B01AC04	25/08/2006
33056882	B01AC04	05/06/2009
33104066	B01AC04	26/05/2011
33068739	B01AC04	10/05/2011
33106813	B01AC04	16/04/2010
33056893	B01AC04	20/05/2011
33144464	B01AC04	13/09/2007
33050607	B01AC04	07/04/2009
33001939	B01AC04	26/05/2011
33003086	B01AC04	19/12/2003
33008912	B01AC04	01/08/2007
33025640	B01AC04	24/05/2011
33095116	B01AC04	11/05/2011
33019022	B01AC04	26/04/2010
33045539	B01AC04	07/02/2008
33048279	B01AC04	13/05/2011
33087600	B01AC04	25/05/2011
33073315	B01AC04	29/04/2011
33004433	B01AC04	18/05/2011
33044627	B01AC04	25/05/2011
33104735	B01AC04	05/12/2005
33056259	B01AC04	22/06/2010
33016075	B01AC04	29/06/2010
27074781	B01AC04	17/05/2011
27806731	B01AC04	16/05/2011
6636104	B01AC04	14/02/2011
27112593	B01AC04	05/07/2006
26720873	B01AC04	05/05/2011
33008240	B01AC04	27/05/2011
23408153	B01AC04	06/05/2011
16774544	B01AC04	11/05/2011
16713414	B01AC04	06/05/2011
20981877	B01AC04	06/05/2011
16135369	B01AC04	27/12/2001
27948652	B01AC04	09/05/2011
33020265	B01AC04	18/05/2011
33053711	B01AC04	03/05/2010
33063405	B01AC04	26/05/2011
33060956	B01AC04	11/11/2010
33106625	B01AC04	23/05/2011
33101101	B01AC04	16/05/2011
33070531	B01AC04	25/12/2010
33000591	B01AC04	17/05/2011
33037440	B01AC04	15/03/2011
33053637	B01AC04	16/09/2009
33012899	B01AC04	01/06/2011
33033838	B01AC04	26/05/2011
33093137	B01AC04	24/12/2009
33057611	B01AC04	31/05/2011
33021513	B01AC04	11/01/2010
33093762	B01AC04	06/07/2010
27856629	B01AC04	28/04/2011
23408715	B01AC04	04/03/2009
28019450	B01AC04	06/05/2011
16616536	B01AC04	03/05/2006
33313140	B01AC04	28/03/2011
33239195	B01AC04	23/07/2007
33308973	B01AC04	01/06/2011
16625697	B01AC04	19/12/2003
18771349	B01AC04	02/03/2010
21114621	B01AC04	18/04/2011
18771664	B01AC04	06/03/2007
18743061	B01AC04	11/05/2010
16181636	B01AC04	13/02/2006
16618603	B01AC04	23/05/2011
16596474	B01AC04	20/05/2011
27914431	B01AC04	03/05/2010
16181529	B01AC04	16/07/2010
16640222	B01AC04	22/02/2006
33314513	B01AC04	09/05/2011
23408488	B01AC04	25/05/2011
16601443	B01AC04	18/02/2010
18765717	B01AC04	20/07/2010
33313715	B01AC04	29/06/2010
33288972	B01AC04	10/05/2011
23361804	B01AC04	24/05/2011
28017377	B01AC04	22/03/2010
23366881	B01AC04	18/04/2011
20985633	B01AC04	04/05/2011
23334037	B01AC04	04/05/2011
20985317	B01AC04	26/10/2006
23369406	B01AC04	06/08/2010
23313268	B01AC04	16/05/2011
23326117	B01AC04	21/04/2009
23470394	B01AC04	13/05/2011
16639783	B01AC04	04/01/2006
16684605	B01AC04	02/11/2007
16654742	B01AC04	16/10/2007
27913205	B01AC04	26/05/2011
33206254	B01AC04	19/05/2011
16636819	B01AC04	09/10/2007
23368347	B01AC04	05/05/2011
23353839	B01AC04	05/05/2011
18802898	B01AC04	17/05/2010
21116941	B01AC04	28/04/2011
23353502	B01AC04	17/05/2011
28029066	B01AC04	05/05/2011
33246637	B01AC04	28/05/2011
20982124	B01AC04	07/12/2010
33227687	B01AC04	27/05/2011
16607575	B01AC04	23/05/2011
33289106	B01AC04	19/05/2011
31487753	B01AC04	07/02/2011
31181468	B01AC04	23/10/2002
32155640	B01AC04	18/08/2008
31219404	B01AC04	08/12/2009
23367296	B01AC04	17/05/2011
16129910	B01AC04	15/12/2008
23336418	B01AC04	17/05/2010
16648667	B01AC04	10/09/2007
23410160	B01AC04	05/05/2011
23381093	B01AC04	02/05/2007
16623344	B01AC04	04/01/2010
23332688	B01AC04	02/02/2009
23401156	B01AC04	28/06/2010
23413421	B01AC04	06/02/2007
21102991	B01AC04	24/05/2011
27880957	B01AC04	31/05/2011
16712077	B01AC04	11/08/2009
16621754	B01AC04	17/05/2011
31651515	B01AC04	01/12/2010
31432360	B01AC04	24/05/2011
32282396	B01AC04	13/09/2006
31345711	B01AC04	26/01/2011
31969796	B01AC04	10/06/2002
31638063	B01AC04	11/06/2008
32013324	B01AC04	13/12/2005
32144827	B01AC04	01/12/2004
31043924	B01AC04	15/04/2011
32033462	B01AC04	01/03/2011
31281157	B01AC04	30/12/2005
31393143	B01AC04	14/01/2010
31669449	B01AC04	14/12/2009
31237591	B01AC04	28/04/2009
31802366	B01AC04	13/12/2010
31451455	B01AC04	09/03/2011
31219084	B01AC04	17/03/2010
31463497	B01AC04	05/10/2010
31246115	B01AC04	21/12/2009
31644416	B01AC04	04/05/2010
31344263	B01AC04	28/10/2009
31446823	B01AC04	19/03/2011
31589693	B01AC04	27/02/2006
31259169	B01AC04	04/03/2011
31753023	B01AC04	30/08/2002
31494769	B01AC04	04/11/2008
31627476	B01AC04	22/07/2008
31147157	B01AC04	26/06/2007
31799718	B01AC04	27/08/2010
31841569	B01AC04	18/12/2008
31343025	B01AC04	06/06/2001
31974241	B01AC04	10/10/2007
31236375	B01AC04	20/01/2004
32254883	B01AC04	10/05/2011
31564150	B01AC04	02/10/2008
31987098	B01AC04	01/06/2007
32013445	B01AC04	21/06/2006
31645014	B01AC04	16/01/2007
31753190	B01AC04	01/12/2010
31816975	B01AC04	26/11/2008
31424621	B01AC04	14/11/2007
31548392	B01AC04	20/04/2007
31394939	B01AC04	20/12/2002
31694445	B01AC04	04/11/2009
31850691	B01AC04	25/02/2011
31529916	B01AC04	18/11/2005
32214444	B01AC04	18/08/2008
32122906	B01AC04	21/11/2007
31738398	B01AC04	14/07/2010
32122580	B01AC04	07/10/2010
32252581	B01AC04	02/11/2009
32054028	B01AC04	15/12/2009
31129093	B01AC04	12/02/2008
31370288	B01AC04	22/05/2007
31915254	B01AC04	26/10/2007
31049207	B01AC04	17/12/2009
31269714	B01AC04	07/04/2005
31821410	B01AC04	16/12/2009
31255539	B01AC04	27/11/2009
31343858	B01AC04	27/11/2010
31904159	B01AC04	14/12/2009
31398449	B01AC04	06/04/2011
31289640	B01AC04	20/07/2010
32128887	B01AC04	24/06/2004
31328924	B01AC04	27/11/2009
31355795	B01AC04	21/01/2011
32185788	B01AC04	02/12/2004
31224124	B01AC04	21/12/2010
32083356	B01AC04	11/11/2009
31985233	B01AC04	20/11/2009
31522893	B01AC04	09/03/2011
31701050	B01AC04	23/09/2010
31964024	B01AC04	12/03/2007
31968363	B01AC04	24/11/2008
32100813	B01AC04	22/03/2006
31089828	B01AC04	08/11/2010
31851612	B01AC04	11/09/2007
32037940	B01AC04	12/07/2004
32159590	B01AC04	03/11/2006
31682435	B01AC04	25/04/2011
31440390	B01AC04	26/11/2010
32213697	B01AC04	29/09/2009
31984945	B01AC04	08/07/2005
31441666	B01AC04	11/07/2007
32182514	B01AC04	06/09/2006
31753548	B01AC04	03/10/2007
31340688	B01AC04	10/12/2008
31075591	B01AC04	15/11/2004
32264533	B01AC04	29/01/2011
31165913	B01AC04	06/04/2011
31162395	B01AC04	11/02/2011
32160280	B01AC04	08/01/2010
32002948	B01AC04	17/12/2008
31418205	B01AC04	21/10/2010
31669309	B01AC04	18/02/2010
31526446	B01AC04	20/12/2007
31282883	B01AC04	26/03/2008
32004312	B01AC04	15/01/2011
31401399	B01AC04	29/03/2006
31914323	B01AC04	19/02/2011
31392340	B01AC04	10/05/2011
32119810	B01AC04	09/11/2010
31081419	B01AC04	13/12/2007
32173642	B01AC04	29/12/2009
31898521	B01AC04	03/09/2007
31907081	B01AC04	07/12/2004
31377619	B01AC04	22/12/2009
31524254	B01AC04	02/11/2006
31356177	B01AC04	20/12/2007
31944102	B01AC04	24/02/2011
31237604	B01AC04	07/11/2008
32199151	B01AC04	20/03/2011
31523044	B01AC04	03/12/2008
31061509	B01AC04	23/12/2010
31924531	B01AC04	19/11/2009
31791853	B01AC04	15/12/2010
31826383	B01AC04	26/01/2009
31928477	B01AC04	27/12/2010
31471199	B01AC04	13/11/2009
31105058	B01AC04	25/04/2007
32273397	B01AC04	13/07/2005
32046813	B01AC04	02/11/2009
32281205	B01AC04	07/10/2009
31391170	B01AC04	26/07/2007
31995370	B01AC04	07/05/2011
31469438	B01AC04	02/07/2010
31554254	B01AC04	06/02/2011
31985435	B01AC04	10/05/2011
31041581	B01AC04	21/02/2011
31766221	B01AC04	09/12/2010
31761935	B01AC04	26/02/2009
32203333	B01AC04	19/05/2010
32110892	B01AC04	04/10/2004
31577402	B01AC04	04/04/2011
31465949	B01AC04	16/05/2007
31886795	B01AC04	11/12/2008
31346856	B01AC04	29/05/2009
31417692	B01AC04	08/03/2006
31419290	B01AC04	15/10/2007
31279289	B01AC04	01/03/2011
31096236	B01AC04	03/12/2009
31883127	B01AC04	07/02/2006
31258244	B01AC04	09/12/2010
32084009	B01AC04	05/03/2008
31415742	B01AC04	24/11/2009
31111108	B01AC04	30/05/2005
31634514	B01AC04	09/03/2011
32148445	B01AC04	18/05/2010
31926083	B01AC04	29/01/2010
31153085	B01AC04	22/09/2010
31140552	B01AC04	21/01/2011
31270547	B01AC04	25/08/2010
32084841	B01AC04	15/10/2010
32187886	B01AC04	09/07/2007
31336014	B01AC04	26/11/2009
31539806	B01AC04	28/12/2010
31221513	B01AC04	13/07/2010
31192975	B01AC04	28/10/2010
31254483	B01AC04	13/02/2011
32164470	B01AC04	13/05/2008
31138152	B01AC04	18/02/2004
31254441	B01AC04	02/12/2010
31611594	B01AC04	20/11/2008
32149282	B01AC04	09/03/2005
31054447	B01AC04	25/02/2009
31929084	B01AC04	02/07/2009
32191042	B01AC04	03/06/2008
31468640	B01AC04	26/10/2010
31850345	B01AC04	11/12/2007
31283871	B01AC04	09/06/2010
31639593	B01AC04	03/11/2008
31693651	B01AC04	29/11/2007
31927125	B01AC04	07/04/2011
31952723	B01AC04	31/10/2003
31805814	B01AC04	09/07/2010
32254966	B01AC04	27/11/2009
31852671	B01AC04	24/01/2011
31310306	B01AC04	26/11/2009
31084479	B01AC04	18/03/2011
31946499	B01AC04	25/11/2009
31216105	B01AC04	28/09/2010
31741523	B01AC04	16/05/2011
31587392	B01AC04	08/11/2004
31238998	B01AC04	29/12/2008
31561034	B01AC04	18/11/2008
31246026	B01AC04	19/12/2008
31099271	B01AC04	08/10/2004
32031559	B01AC04	19/04/2010
31487065	B01AC04	26/11/2009
31128250	B01AC04	21/01/2011
31315620	B01AC04	21/09/2006
32090626	B01AC04	28/01/2011
31806825	B01AC04	17/12/2010
31074963	B01AC04	26/12/2007
31054128	B01AC04	06/12/2009
31682966	B01AC04	10/12/2007
31115224	B01AC04	25/11/2009
31641763	B01AC04	29/02/2008
31110042	B01AC04	01/09/2005
32242844	B01AC04	07/04/2011
32263832	B01AC04	11/11/2008
31556912	B01AC04	30/01/2002
31506905	B01AC04	20/03/2007
31359498	B01AC04	08/12/2010
31532333	B01AC04	04/12/2010
31205630	B01AC04	25/04/2005
32130615	B01AC04	14/04/2011
32106904	B01AC04	18/03/2010
32129185	B01AC04	09/12/2009
31525212	B01AC04	17/09/2004
31329912	B01AC04	11/06/2008
31696583	B01AC04	27/04/2006
31342309	B01AC04	09/12/2009
31045796	B01AC04	10/01/2006
31192222	B01AC04	03/12/2009
31897149	B01AC04	24/02/2011
31952034	B01AC04	15/12/2009
32280905	B01AC04	05/07/2010
32154430	B01AC04	10/12/2007
31959501	B01AC04	25/01/2002
31689849	B01AC04	24/02/2011
31561962	B01AC04	08/10/2008
31677081	B01AC04	07/03/2011
31914115	B01AC04	05/11/2010
31418065	B01AC04	10/06/2009
31645396	B01AC04	29/09/2009
32047336	B01AC04	29/01/2010
31608836	B01AC04	16/12/2010
31905297	B01AC04	26/04/2006
32283093	B01AC04	27/11/2008
32072112	B01AC04	08/04/2011
32029903	B01AC04	10/02/2011
32248960	B01AC04	25/10/2006
31967668	B01AC04	24/01/2011
31133575	B01AC04	07/01/2011
31730577	B01AC04	06/10/2009
31703712	B01AC04	11/01/2011
