patient_id	covar_name	date
9340914	C10AC01	17/07/2007
608929	C10AC01	03/09/2010
7152290	C10AC01	11/11/2009
3124058	C10AC01	08/09/2000
1123996	C10AC01	04/09/2007
12800078	C10AC01	20/01/2006
12790379	C10AC01	19/04/2011
7771352	C10AC01	16/11/2010
14942149	C10AC01	10/12/2010
7770079	C10AC01	14/01/2003
1641058	C10AC01	13/05/2009
2038121	C10AC01	14/02/2006
2714643	C10AC01	16/11/2009
421328	C10AC01	18/12/2008
28070991	C10AC01	28/09/2010
24655248	C10AC01	08/05/2003
17596151	C10AC01	13/08/2010
2963681	C10AC01	31/05/2011
14311089	C10AC01	21/05/2011
26935990	C10AC01	06/08/2010
27041155	C10AC01	21/05/2007
26955005	C10AC01	10/09/2007
27073825	C10AC01	04/10/2007
27106068	C10AC01	22/09/2009
26994837	C10AC01	26/06/2009
27242158	C10AC01	21/06/2010
16178210	C10AC01	09/09/2009
23349579	C10AC01	30/06/2008
16615324	C10AC01	12/01/2011
32137222	C10AC01	16/07/2010
32056911	C10AC01	09/03/2007
31119347	C10AC01	12/03/2008
31420909	C10AC01	03/05/2006
31670593	C10AC01	05/09/2006
32118034	C10AC01	22/11/2009
31378249	C10AC01	28/05/2009
31731142	C10AC01	03/11/2009
32075736	C10AC01	15/04/2005
31226791	C10AC01	25/03/2010
32096106	C10AC01	30/09/2004
31937265	C10AC01	18/05/2005
31970294	C10AC01	21/05/2011
31087682	C10AC01	23/07/2007
31812494	C10AC01	28/12/2009
31473263	C10AC01	25/04/2005
