patient_id	covar_name	date
9230338	C10AX06	23/05/2011
9378394	C10AX06	18/05/2011
1731330	C10AX06	26/05/2011
5030705	C10AX06	23/03/2011
5025615	C10AX06	25/10/2010
1068704	C10AX06	11/12/2006
5031500	C10AX06	19/04/2011
7153968	C10AX06	28/12/2007
9376034	C10AX06	12/01/2007
8975474	C10AX06	25/05/2011
16559495	C10AX06	27/05/2011
16977246	C10AX06	29/06/2010
16100419	C10AX06	13/06/2008
24887993	C10AX06	23/09/2009
16479624	C10AX06	29/10/2010
9389876	C10AX06	06/10/2009
10604480	C10AX06	14/10/2010
12688847	C10AX06	22/05/2008
1068416	C10AX06	06/09/2006
9382397	C10AX06	11/02/2011
16088436	C10AX06	06/07/2010
9304423	C10AX06	11/12/2006
9283784	C10AX06	20/05/2011
1162456	C10AX06	24/05/2011
12774636	C10AX06	15/04/2009
1206620	C10AX06	03/10/2008
1206194	C10AX06	30/05/2011
1424903	C10AX06	29/04/2011
1417859	C10AX06	13/05/2009
1415854	C10AX06	11/06/2009
1855659	C10AX06	23/06/2008
25908152	C10AX06	27/04/2011
1855787	C10AX06	05/11/2010
25915017	C10AX06	02/03/2011
1640524	C10AX06	10/05/2011
2059211	C10AX06	18/01/2011
2140421	C10AX06	03/05/2011
902237	C10AX06	25/05/2010
2777495	C10AX06	27/05/2011
2776294	C10AX06	01/06/2011
2776308	C10AX06	26/05/2011
2776735	C10AX06	26/08/2009
26442238	C10AX06	10/05/2011
26409464	C10AX06	10/05/2011
20673831	C10AX06	10/12/2009
22497799	C10AX06	17/05/2011
26338693	C10AX06	08/11/2010
17323328	C10AX06	04/05/2011
7531415	C10AX06	28/10/2009
421437	C10AX06	27/10/2010
301267	C10AX06	27/05/2011
2962363	C10AX06	28/05/2011
26441817	C10AX06	26/05/2011
28059242	C10AX06	04/05/2011
28072320	C10AX06	12/01/2009
28060557	C10AX06	20/05/2011
24655998	C10AX06	12/05/2011
1013085	C10AX06	13/05/2011
1913183	C10AX06	16/05/2011
18195830	C10AX06	31/03/2011
18190987	C10AX06	04/04/2011
2988353	C10AX06	26/05/2011
26855912	C10AX06	25/11/2010
2988643	C10AX06	29/05/2011
12977869	C10AX06	06/04/2011
24580302	C10AX06	14/05/2011
26932786	C10AX06	02/09/2009
26950428	C10AX06	19/11/2010
26895133	C10AX06	05/02/2010
26717001	C10AX06	23/02/2007
26834343	C10AX06	13/01/2010
26791959	C10AX06	27/05/2011
26989053	C10AX06	03/05/2011
27080248	C10AX06	20/05/2011
27031301	C10AX06	12/04/2010
27041065	C10AX06	25/05/2011
27040402	C10AX06	03/11/2010
27348565	C10AX06	27/11/2009
27317083	C10AX06	04/06/2010
27361071	C10AX06	26/05/2011
27640410	C10AX06	21/10/2008
27427637	C10AX06	25/05/2011
27132827	C10AX06	24/11/2009
27105042	C10AX06	04/01/2011
26625836	C10AX06	20/06/2008
27573531	C10AX06	04/11/2010
27680594	C10AX06	16/07/2008
27623692	C10AX06	23/05/2011
27718674	C10AX06	01/06/2011
27665005	C10AX06	31/05/2011
27066908	C10AX06	16/07/2009
27782658	C10AX06	28/09/2009
27769702	C10AX06	24/02/2009
27778527	C10AX06	05/11/2010
33035460	C10AX06	20/05/2011
33072082	C10AX06	12/04/2011
33093896	C10AX06	23/08/2010
33087917	C10AX06	28/04/2011
33058269	C10AX06	09/04/2010
184941	C10AX06	31/05/2011
33008240	C10AX06	27/05/2011
26720883	C10AX06	21/03/2006
23407522	C10AX06	13/05/2011
33083395	C10AX06	21/12/2007
33108807	C10AX06	29/06/2007
33004361	C10AX06	12/03/2008
33086432	C10AX06	06/11/2009
33053621	C10AX06	12/03/2009
33069713	C10AX06	28/04/2011
33060722	C10AX06	11/11/2009
16655186	C10AX06	06/05/2011
16618603	C10AX06	23/05/2011
23362937	C10AX06	09/01/2009
21109099	C10AX06	09/12/2010
33208586	C10AX06	12/08/2010
16625522	C10AX06	20/12/2007
28038777	C10AX06	25/05/2011
23350624	C10AX06	21/02/2011
23353839	C10AX06	05/04/2011
27927780	C10AX06	14/11/2008
33201152	C10AX06	28/12/2009
32276689	C10AX06	25/09/2009
23402490	C10AX06	16/03/2010
23405723	C10AX06	10/01/2011
20987392	C10AX06	03/03/2010
16623063	C10AX06	05/01/2011
23381093	C10AX06	21/01/2011
23401717	C10AX06	01/12/2009
31969796	C10AX06	02/02/2011
32052757	C10AX06	10/10/2008
31565973	C10AX06	14/01/2009
31979808	C10AX06	28/08/2010
32215333	C10AX06	08/09/2010
31505016	C10AX06	02/12/2010
31259853	C10AX06	20/01/2011
31537958	C10AX06	07/04/2008
32155110	C10AX06	25/11/2008
31294768	C10AX06	31/05/2011
32121144	C10AX06	27/10/2010
32065893	C10AX06	30/06/2010
31357715	C10AX06	07/06/2010
32030891	C10AX06	13/03/2007
32087742	C10AX06	10/12/2007
31098655	C10AX06	04/11/2010
31683144	C10AX06	26/12/2008
32178986	C10AX06	19/10/2009
31329070	C10AX06	30/12/2009
32099327	C10AX06	08/09/2010
32281205	C10AX06	09/12/2009
31407464	C10AX06	05/08/2009
32226916	C10AX06	08/05/2006
32084841	C10AX06	03/12/2010
31901788	C10AX06	12/12/2006
32227760	C10AX06	06/10/2008
31346696	C10AX06	06/07/2010
31151654	C10AX06	22/10/2010
31370471	C10AX06	11/12/2008
31283871	C10AX06	23/05/2008
31686973	C10AX06	16/11/2007
31506437	C10AX06	23/11/2010
31073956	C10AX06	04/12/2006
31582228	C10AX06	18/10/2006
32050605	C10AX06	27/05/2011
31878709	C10AX06	22/12/2010
31473263	C10AX06	16/01/2006
31126735	C10AX06	28/12/2010
31330113	C10AX06	30/10/2007
32045046	C10AX06	30/06/2010
32154430	C10AX06	15/10/2007
31107785	C10AX06	26/03/2009
31864385	C10AX06	03/07/2009
31593910	C10AX06	24/09/2010
