patient_id	covar_name	date
12790716	C09CA06	25/04/2006
9311739	C09CA06	04/07/2003
12774533	C09CA06	10/05/2011
23471437	C09CA06	18/04/2011
12773936	C09CA06	26/05/2008
24950727	C09CA06	11/09/2008
8640108	C09CA06	28/04/2011
22918279	C09CA06	10/05/2011
8557344	C09CA06	30/01/2009
9304255	C09CA06	13/03/2007
9311429	C09CA06	03/08/2005
734248	C09CA06	11/04/2011
9231202	C09CA06	19/04/2011
12767263	C09CA06	24/02/2011
5031166	C09CA06	28/03/2011
6757687	C09CA06	11/05/2011
6757389	C09CA06	23/01/2009
9021401	C09CA06	15/03/2011
8639376	C09CA06	28/05/2010
9175605	C09CA06	19/03/2007
12761508	C09CA06	15/02/2010
21974194	C09CA06	19/05/2011
1941438	C09CA06	01/06/2011
10270152	C09CA06	01/04/2011
3328652	C09CA06	11/04/2011
20528913	C09CA06	19/05/2011
8975906	C09CA06	10/05/2011
1069551	C09CA06	28/04/2011
3123136	C09CA06	17/06/2009
21870782	C09CA06	06/06/2006
940917	C09CA06	17/06/2008
12857039	C09CA06	31/05/2011
10003982	C09CA06	19/05/2008
2768042	C09CA06	04/09/2008
734194	C09CA06	01/06/2004
5024381	C09CA06	12/05/2011
15900346	C09CA06	16/05/2011
16109527	C09CA06	01/09/2010
16979178	C09CA06	17/08/2010
6707615	C09CA06	24/04/2008
9302747	C09CA06	25/03/2010
8784100	C09CA06	13/05/2011
8786644	C09CA06	10/03/2011
6598367	C09CA06	04/09/2008
524925	C09CA06	03/02/2009
1320092	C09CA06	23/10/2008
674348	C09CA06	06/05/2011
7966632	C09CA06	12/08/2008
7972566	C09CA06	24/05/2011
6842062	C09CA06	05/05/2011
1262874	C09CA06	28/05/2009
13984759	C09CA06	19/03/2007
1547420	C09CA06	10/03/2010
6599454	C09CA06	14/12/2010
26139483	C09CA06	27/05/2011
540258	C09CA06	28/11/2008
526051	C09CA06	20/05/2009
674212	C09CA06	21/09/2010
6841352	C09CA06	26/05/2011
4700620	C09CA06	28/04/2011
1211186	C09CA06	11/05/2011
13604007	C09CA06	16/06/2010
1172012	C09CA06	17/08/2000
1209204	C09CA06	15/02/2011
7963824	C09CA06	27/04/2011
1443510	C09CA06	26/05/2011
1204124	C09CA06	17/05/2011
8956746	C09CA06	09/05/2011
1262130	C09CA06	21/06/2005
4700540	C09CA06	12/05/2011
1424080	C09CA06	09/05/2011
7966257	C09CA06	09/05/2011
11419789	C09CA06	17/03/2011
1354581	C09CA06	17/05/2011
639310	C09CA06	16/11/2005
1556828	C09CA06	08/04/2011
1129404	C09CA06	06/05/2011
1855492	C09CA06	13/05/2011
1638216	C09CA06	26/05/2011
1648751	C09CA06	25/01/2011
25889204	C09CA06	19/05/2011
25894698	C09CA06	08/09/2009
996038	C09CA06	17/09/2009
1099959	C09CA06	25/05/2011
1006203	C09CA06	17/01/2002
6392676	C09CA06	06/06/2007
1103040	C09CA06	30/05/2011
1638509	C09CA06	02/09/2008
1855622	C09CA06	06/08/2007
1031773	C09CA06	14/02/2011
1135681	C09CA06	26/05/2011
2139967	C09CA06	13/04/2011
2164170	C09CA06	12/03/2009
2140686	C09CA06	09/10/2007
2139418	C09CA06	23/04/2003
2059211	C09CA06	28/12/2010
2110204	C09CA06	10/11/2009
2140421	C09CA06	03/05/2007
902237	C09CA06	14/12/2005
2041726	C09CA06	04/09/2002
1764621	C09CA06	11/05/2011
5930292	C09CA06	14/03/2006
876211	C09CA06	16/05/2011
875569	C09CA06	01/06/2011
7127964	C09CA06	20/05/2011
7073348	C09CA06	30/05/2011
3588242	C09CA06	16/11/2007
4894255	C09CA06	03/08/2009
4088249	C09CA06	07/01/2008
2774142	C09CA06	27/05/2010
7135180	C09CA06	17/06/2009
2774327	C09CA06	23/05/2011
26350464	C09CA06	18/05/2011
7229195	C09CA06	05/05/2011
20797547	C09CA06	16/05/2011
7137854	C09CA06	27/05/2011
20147230	C09CA06	15/10/2010
26383963	C09CA06	28/04/2011
26258038	C09CA06	27/10/2009
26441458	C09CA06	29/10/2007
26565304	C09CA06	28/05/2011
7007687	C09CA06	05/05/2011
10926333	C09CA06	16/05/2011
7531415	C09CA06	18/09/2009
7144123	C09CA06	08/01/2004
26478302	C09CA06	26/11/2010
28091112	C09CA06	25/01/2006
2763164	C09CA06	28/05/2011
28090414	C09CA06	26/04/2011
428569	C09CA06	06/05/2011
184353	C09CA06	27/04/2011
7136014	C09CA06	19/05/2011
427372	C09CA06	31/05/2011
265635	C09CA06	11/05/2007
28052753	C09CA06	11/06/2009
24662048	C09CA06	31/05/2011
25743607	C09CA06	24/11/2009
24663987	C09CA06	18/01/2005
19423118	C09CA06	22/02/2010
19770701	C09CA06	11/05/2011
18190165	C09CA06	07/12/2001
1020237	C09CA06	06/05/2011
19970002	C09CA06	24/12/2010
1030137	C09CA06	20/10/2008
1373981	C09CA06	27/05/2011
40180	C09CA06	09/07/2008
21553830	C09CA06	05/05/2011
18196154	C09CA06	06/06/2008
2958337	C09CA06	17/10/2008
420454	C09CA06	27/05/2011
8109355	C09CA06	07/03/2008
26793792	C09CA06	16/03/2011
26707647	C09CA06	17/05/2011
26830552	C09CA06	18/04/2011
26829529	C09CA06	15/04/2010
26768806	C09CA06	19/05/2011
2987010	C09CA06	28/02/2008
2988643	C09CA06	24/01/2011
26707001	C09CA06	22/10/2008
26627915	C09CA06	30/05/2011
26623861	C09CA06	13/04/2011
24577204	C09CA06	19/05/2011
22922776	C09CA06	18/10/2001
26895615	C09CA06	10/03/2008
26932881	C09CA06	05/05/2011
26958799	C09CA06	21/07/2007
26897522	C09CA06	05/05/2011
26716003	C09CA06	17/02/2009
26899997	C09CA06	23/05/2011
26794725	C09CA06	17/05/2011
26715319	C09CA06	01/06/2010
26830866	C09CA06	29/07/2008
26716376	C09CA06	03/08/2006
26972816	C09CA06	27/05/2011
26995398	C09CA06	17/05/2011
26998098	C09CA06	16/05/2011
27151273	C09CA06	16/05/2011
27085859	C09CA06	19/05/2011
27099243	C09CA06	16/09/2010
27114640	C09CA06	19/10/2009
27104236	C09CA06	20/12/2005
27087727	C09CA06	24/05/2011
27062255	C09CA06	13/01/2011
27067240	C09CA06	25/10/2007
27033265	C09CA06	01/10/2004
27046655	C09CA06	15/05/2003
27084260	C09CA06	19/05/2011
27033115	C09CA06	28/03/2011
27063122	C09CA06	14/03/2005
27042092	C09CA06	28/09/2004
26998758	C09CA06	04/05/2009
27170731	C09CA06	28/06/2010
27368500	C09CA06	20/05/2011
27362443	C09CA06	09/12/2005
27358985	C09CA06	15/03/2010
27354142	C09CA06	21/03/2011
27127254	C09CA06	27/05/2011
27199886	C09CA06	24/05/2011
27199578	C09CA06	04/08/2009
27252743	C09CA06	13/01/2011
27197886	C09CA06	14/05/2011
27220409	C09CA06	27/04/2011
27200311	C09CA06	08/04/2011
27589231	C09CA06	14/04/2011
27661153	C09CA06	15/10/2008
27592171	C09CA06	21/02/2006
27642076	C09CA06	31/05/2011
27709153	C09CA06	23/02/2007
27479924	C09CA06	30/05/2011
27427357	C09CA06	10/05/2011
27475730	C09CA06	18/08/2006
27426997	C09CA06	05/05/2011
27571995	C09CA06	19/02/2010
27759030	C09CA06	22/06/2004
27568261	C09CA06	18/01/2007
27764873	C09CA06	14/04/2011
27762131	C09CA06	06/02/2004
27546307	C09CA06	20/10/2006
27571594	C09CA06	13/05/2011
27708618	C09CA06	17/02/2006
27160809	C09CA06	29/05/2011
27160272	C09CA06	01/06/2011
27284226	C09CA06	18/02/2010
27146606	C09CA06	12/04/2002
27250372	C09CA06	22/06/2001
26637275	C09CA06	29/07/2010
27000618	C09CA06	18/12/2008
26702902	C09CA06	28/05/2011
25741964	C09CA06	25/10/2007
266530	C09CA06	01/06/2011
27113955	C09CA06	27/04/2011
27772101	C09CA06	15/04/2011
27785654	C09CA06	20/05/2011
27480464	C09CA06	30/05/2011
27770717	C09CA06	07/01/2010
27784476	C09CA06	11/05/2011
27810748	C09CA06	05/05/2011
27771463	C09CA06	19/10/2005
27480179	C09CA06	09/05/2011
27597325	C09CA06	02/03/2005
27449803	C09CA06	08/03/2006
27535521	C09CA06	12/05/2011
183848	C09CA06	18/03/2006
18188132	C09CA06	28/03/2007
27614092	C09CA06	30/05/2006
27775707	C09CA06	31/10/2003
27786075	C09CA06	18/05/2011
27796173	C09CA06	14/04/2009
27769702	C09CA06	26/09/2006
27806522	C09CA06	30/05/2011
21553613	C09CA06	09/05/2011
26858332	C09CA06	17/12/2004
33023244	C09CA06	13/12/2010
33011602	C09CA06	25/03/2006
33113359	C09CA06	28/02/2008
33050061	C09CA06	21/02/2011
33125136	C09CA06	30/05/2011
33019657	C09CA06	27/05/2011
33045042	C09CA06	15/03/2002
33091047	C09CA06	24/05/2011
33096317	C09CA06	27/11/2007
33002793	C09CA06	03/10/2003
33072672	C09CA06	01/12/2010
33111017	C09CA06	16/05/2011
33024115	C09CA06	13/05/2008
33043001	C09CA06	15/12/2008
33006134	C09CA06	25/05/2011
33003806	C09CA06	06/05/2011
33030108	C09CA06	10/06/2010
33024979	C09CA06	24/05/2007
33124976	C09CA06	24/03/2008
33096415	C09CA06	04/03/2011
33012303	C09CA06	26/04/2011
33007739	C09CA06	10/05/2011
4740006	C09CA06	08/05/2011
27800265	C09CA06	19/05/2011
33008240	C09CA06	27/05/2011
33298715	C09CA06	13/04/2011
16773808	C09CA06	16/05/2011
33299239	C09CA06	23/05/2011
20981877	C09CA06	06/05/2011
33020434	C09CA06	31/05/2011
33083866	C09CA06	04/12/2006
33030547	C09CA06	04/10/2007
33057719	C09CA06	22/01/2010
33033729	C09CA06	01/03/2011
33007224	C09CA06	12/05/2011
33004361	C09CA06	18/04/2011
33037440	C09CA06	24/05/2011
33098972	C09CA06	02/09/2002
33088156	C09CA06	14/12/2010
33097532	C09CA06	28/10/2009
33033838	C09CA06	29/09/2003
33061115	C09CA06	25/05/2010
33011985	C09CA06	04/05/2011
33066033	C09CA06	17/08/2010
23315765	C09CA06	07/09/2010
21109139	C09CA06	18/05/2007
33233293	C09CA06	17/08/2007
21114663	C09CA06	24/11/2010
33311910	C09CA06	25/05/2011
18743061	C09CA06	13/01/2011
16626135	C09CA06	20/04/2010
33305599	C09CA06	27/05/2011
16612944	C09CA06	08/10/2004
33206545	C09CA06	27/05/2011
23293211	C09CA06	10/05/2011
16600704	C09CA06	03/05/2011
16774958	C09CA06	08/01/2008
20989102	C09CA06	01/02/2010
16128229	C09CA06	18/09/2003
23369071	C09CA06	21/03/2011
23354036	C09CA06	27/05/2011
28028633	C09CA06	10/05/2011
33289128	C09CA06	31/05/2011
33253812	C09CA06	14/04/2010
14188146	C09CA06	03/06/2008
33311593	C09CA06	30/05/2011
28018842	C09CA06	22/08/2005
23319611	C09CA06	22/04/2010
16609724	C09CA06	07/05/2009
16127501	C09CA06	26/04/2007
23346872	C09CA06	31/05/2011
23347890	C09CA06	16/05/2011
23470615	C09CA06	20/05/2011
16631801	C09CA06	12/12/2006
23354037	C09CA06	11/11/2003
27915568	C09CA06	08/08/2007
16613984	C09CA06	11/01/2011
23315883	C09CA06	05/05/2011
16683552	C09CA06	27/05/2004
33246637	C09CA06	22/05/2011
20982124	C09CA06	30/07/2008
23381566	C09CA06	07/10/2010
28026267	C09CA06	11/05/2011
32276689	C09CA06	17/09/2009
33245098	C09CA06	23/05/2011
23401248	C09CA06	15/12/2008
23334083	C09CA06	23/05/2011
16609745	C09CA06	25/03/2011
23406038	C09CA06	23/05/2011
33204004	C09CA06	03/10/2008
23410160	C09CA06	19/05/2011
16603341	C09CA06	30/10/2008
16631824	C09CA06	13/02/2004
23347331	C09CA06	17/05/2011
23354017	C09CA06	05/04/2005
23408437	C09CA06	16/05/2011
33315724	C09CA06	23/05/2011
31119558	C09CA06	27/09/2005
31123402	C09CA06	28/10/2010
31435208	C09CA06	13/02/2004
31545249	C09CA06	23/03/2007
31214666	C09CA06	24/03/2011
31053990	C09CA06	29/12/2010
31817892	C09CA06	23/05/2011
31446823	C09CA06	19/03/2011
31634372	C09CA06	21/12/2004
32246611	C09CA06	12/06/2009
31807374	C09CA06	20/12/2010
31511644	C09CA06	21/12/2009
31714298	C09CA06	09/01/2009
31164314	C09CA06	23/11/2009
31891503	C09CA06	08/03/2011
31091370	C09CA06	25/10/2006
31634919	C09CA06	03/12/2009
31517581	C09CA06	07/04/2005
31095501	C09CA06	07/04/2011
32125272	C09CA06	29/12/2009
31121620	C09CA06	31/03/2010
31694445	C09CA06	22/09/2010
31428879	C09CA06	27/01/2011
32214444	C09CA06	21/01/2008
31827685	C09CA06	19/12/2007
31669630	C09CA06	26/11/2009
31970088	C09CA06	02/11/2009
31370288	C09CA06	23/01/2009
31822514	C09CA06	18/12/2008
31459968	C09CA06	28/11/2008
31612836	C09CA06	04/03/2008
32044149	C09CA06	02/08/2009
31099705	C09CA06	10/11/2010
31352566	C09CA06	02/11/2010
31905886	C09CA06	01/03/2011
31355795	C09CA06	24/11/2008
31959560	C09CA06	16/05/2011
31071475	C09CA06	06/07/2004
31441332	C09CA06	04/10/2010
32035559	C09CA06	16/05/2011
31195762	C09CA06	29/06/2009
31927982	C09CA06	01/03/2005
31447465	C09CA06	10/08/2010
31499655	C09CA06	03/11/2010
31831915	C09CA06	19/09/2007
32223544	C09CA06	11/10/2010
32059302	C09CA06	17/06/2009
31660454	C09CA06	27/10/2010
32028950	C09CA06	26/04/2002
31660701	C09CA06	20/03/2007
31844771	C09CA06	09/07/2010
32089605	C09CA06	21/12/2006
32002925	C09CA06	18/01/2008
32119810	C09CA06	18/01/2008
31298511	C09CA06	21/12/2009
31743549	C09CA06	13/06/2005
31629096	C09CA06	16/10/2009
31678786	C09CA06	22/12/2010
31944102	C09CA06	24/02/2011
31502915	C09CA06	07/03/2007
31974787	C09CA06	01/07/2005
31736913	C09CA06	22/12/2009
32080813	C09CA06	08/04/2011
32110892	C09CA06	01/12/2010
32082014	C09CA06	18/01/2011
31790782	C09CA06	07/10/2010
31652283	C09CA06	12/07/2010
32236449	C09CA06	21/08/2007
31038355	C09CA06	20/07/2005
31153085	C09CA06	18/12/2006
31089758	C09CA06	10/06/2010
31853083	C09CA06	06/03/2010
31463038	C09CA06	09/12/2010
32156268	C09CA06	23/01/2004
32194696	C09CA06	05/05/2008
31500856	C09CA06	07/09/2010
32130634	C09CA06	09/09/2009
31485364	C09CA06	29/01/2010
31444267	C09CA06	30/01/2008
32213176	C09CA06	09/04/2010
31927125	C09CA06	19/12/2007
31265348	C09CA06	14/12/2009
31592928	C09CA06	14/12/2010
31400190	C09CA06	02/07/2007
31311199	C09CA06	18/05/2006
31822693	C09CA06	18/01/2005
31073316	C09CA06	18/05/2007
31228479	C09CA06	05/11/2008
32090445	C09CA06	28/07/2005
32115248	C09CA06	22/03/2007
31602075	C09CA06	02/09/2009
31579343	C09CA06	03/11/2008
31324107	C09CA06	16/11/2010
31032144	C09CA06	25/09/2002
31887827	C09CA06	26/11/2009
31847445	C09CA06	19/02/2010
31115224	C09CA06	25/11/2009
31960354	C09CA06	07/11/2002
31244108	C09CA06	16/11/2009
31081987	C09CA06	02/03/2011
31830506	C09CA06	18/11/2008
31637853	C09CA06	09/07/2010
31195123	C09CA06	16/12/2010
31556912	C09CA06	26/12/2006
32148343	C09CA06	25/03/2011
31420857	C09CA06	13/04/2007
31369020	C09CA06	24/05/2011
31427802	C09CA06	03/03/2011
31342309	C09CA06	16/12/2010
32008903	C09CA06	21/03/2006
31814249	C09CA06	14/05/2004
31897149	C09CA06	15/11/2007
31929829	C09CA06	01/10/2008
31374884	C09CA06	07/04/2011
31931082	C09CA06	23/04/2010
31668372	C09CA06	08/08/2007
32237490	C09CA06	30/06/2010
31733685	C09CA06	05/01/2010
31100905	C09CA06	04/11/2010
32069805	C09CA06	20/11/2006
