patient_id	covar_name	date
7162208	C09DA01	21/03/2011
24730236	C09DA01	31/05/2011
1068210	C09DA01	12/01/2011
12691690	C09DA01	17/05/2011
1732204	C09DA01	04/06/2010
5030705	C09DA01	09/05/2011
12691489	C09DA01	30/07/2009
24729230	C09DA01	02/01/2008
25071280	C09DA01	20/11/2008
9370774	C09DA01	15/12/2004
5035573	C09DA01	20/05/2011
11994028	C09DA01	21/03/2011
205360	C09DA01	10/04/2007
20578860	C09DA01	12/05/2011
21152856	C09DA01	01/12/2005
9268220	C09DA01	24/03/2010
5814184	C09DA01	11/05/2009
3330205	C09DA01	26/05/2011
7351316	C09DA01	25/04/2011
5031929	C09DA01	13/10/2010
608864	C09DA01	18/05/2011
7151632	C09DA01	20/02/2006
1162337	C09DA01	16/05/2011
9319589	C09DA01	12/04/2011
1069020	C09DA01	23/07/2008
5022361	C09DA01	06/04/2011
8639376	C09DA01	24/05/2011
9231974	C09DA01	23/02/2011
12831650	C09DA01	27/06/2007
1303002	C09DA01	04/02/2011
25059427	C09DA01	01/07/2009
23994781	C09DA01	01/03/2005
12690989	C09DA01	16/05/2011
9250324	C09DA01	06/05/2005
25041721	C09DA01	27/04/2011
1068416	C09DA01	27/04/2010
12857039	C09DA01	22/03/2005
17172387	C09DA01	26/05/2011
16114491	C09DA01	18/04/2011
3292946	C09DA01	04/09/2009
16927871	C09DA01	13/05/2011
7348647	C09DA01	23/05/2011
5024381	C09DA01	28/02/2007
10395240	C09DA01	21/06/2005
7094703	C09DA01	27/04/2011
9997453	C09DA01	18/04/2011
9392962	C09DA01	29/03/2010
6079237	C09DA01	25/05/2011
9178706	C09DA01	20/05/2011
3332798	C09DA01	23/05/2011
24765208	C09DA01	26/03/2009
7404089	C09DA01	18/06/2010
9302747	C09DA01	21/07/2006
10331347	C09DA01	21/11/2005
209206	C09DA01	28/04/2009
20530918	C09DA01	30/12/2009
17175863	C09DA01	26/04/2011
7781504	C09DA01	04/05/2011
7800389	C09DA01	20/08/2009
8175392	C09DA01	01/06/2011
641313	C09DA01	27/02/2006
8956432	C09DA01	31/03/2011
6213442	C09DA01	19/05/2003
1211090	C09DA01	30/05/2011
1210283	C09DA01	27/05/2011
6602253	C09DA01	01/03/2011
7801913	C09DA01	24/05/2011
641672	C09DA01	01/03/2011
8955143	C09DA01	09/06/2008
7969967	C09DA01	25/07/2007
1134288	C09DA01	30/12/2010
135815	C09DA01	16/05/2011
996417	C09DA01	12/04/2011
2059817	C09DA01	01/12/2009
2143165	C09DA01	06/08/2009
875727	C09DA01	23/05/2011
873905	C09DA01	23/05/2011
878296	C09DA01	05/05/2011
876130	C09DA01	08/03/2011
1753241	C09DA01	12/12/2006
904017	C09DA01	06/05/2011
2811902	C09DA01	27/01/2011
759135	C09DA01	24/05/2011
7048894	C09DA01	15/04/2011
2777495	C09DA01	28/04/2008
7047560	C09DA01	17/07/2002
2755836	C09DA01	05/05/2011
26462819	C09DA01	01/10/2009
26383930	C09DA01	11/04/2011
26478286	C09DA01	20/05/2011
20674110	C09DA01	24/05/2011
8116685	C09DA01	07/02/2006
26579927	C09DA01	30/05/2011
7229492	C09DA01	06/09/2005
7144123	C09DA01	03/03/2011
185747	C09DA01	11/05/2011
304932	C09DA01	20/05/2011
421145	C09DA01	19/05/2011
184887	C09DA01	29/04/2011
433439	C09DA01	08/05/2011
2958887	C09DA01	06/11/2001
184043	C09DA01	09/03/2005
759194	C09DA01	15/03/2011
2040821	C09DA01	23/05/2011
2755660	C09DA01	14/01/2003
2407083	C09DA01	10/05/2011
17741653	C09DA01	02/05/2006
24665617	C09DA01	06/04/2011
24655998	C09DA01	18/05/2011
25742680	C09DA01	16/03/2009
25743607	C09DA01	10/10/2008
25743054	C09DA01	15/01/2007
926264	C09DA01	30/05/2011
1030470	C09DA01	06/05/2011
24659456	C09DA01	23/02/2007
18195868	C09DA01	19/05/2011
2246976	C09DA01	14/10/2008
26805217	C09DA01	11/05/2011
22922486	C09DA01	20/05/2011
22922696	C09DA01	10/05/2011
20835034	C09DA01	08/08/2007
26948461	C09DA01	17/08/2009
26933127	C09DA01	23/05/2011
26887430	C09DA01	09/05/2011
26879235	C09DA01	26/05/2011
26848964	C09DA01	05/05/2011
26888927	C09DA01	30/06/2010
26865535	C09DA01	13/05/2011
26848429	C09DA01	26/04/2011
26851758	C09DA01	27/05/2011
26780754	C09DA01	05/10/2006
26792107	C09DA01	09/05/2011
26714211	C09DA01	22/09/2009
26715319	C09DA01	13/01/2011
27043376	C09DA01	04/10/2004
27149748	C09DA01	21/04/2011
27086485	C09DA01	30/05/2011
27115263	C09DA01	28/10/2003
27061753	C09DA01	18/04/2011
27044444	C09DA01	27/05/2011
27062802	C09DA01	24/01/2006
26991408	C09DA01	05/05/2011
26998494	C09DA01	30/05/2011
26993048	C09DA01	26/08/2009
27042092	C09DA01	25/03/2009
26993286	C09DA01	30/05/2011
27171122	C09DA01	19/05/2011
27384510	C09DA01	10/05/2011
27244696	C09DA01	06/03/2001
27200064	C09DA01	31/05/2011
27362717	C09DA01	27/05/2011
27326530	C09DA01	05/04/2009
27305367	C09DA01	18/05/2011
27347687	C09DA01	25/01/2010
27314340	C09DA01	01/04/2005
26954095	C09DA01	09/05/2011
27643610	C09DA01	07/06/2005
27646502	C09DA01	26/11/2009
27645514	C09DA01	10/05/2011
27420591	C09DA01	07/11/2008
27660069	C09DA01	08/05/2011
27458955	C09DA01	06/05/2011
27457040	C09DA01	20/05/2011
27572382	C09DA01	02/04/2004
27757050	C09DA01	18/05/2011
27765512	C09DA01	26/02/2003
27761440	C09DA01	02/04/2010
27132575	C09DA01	06/05/2011
27160272	C09DA01	09/12/2005
27000618	C09DA01	06/05/2011
26975914	C09DA01	31/05/2011
26833079	C09DA01	11/02/2010
26794508	C09DA01	18/05/2011
27684839	C09DA01	03/12/2010
27778908	C09DA01	20/03/2003
27477136	C09DA01	21/02/2011
27460403	C09DA01	16/08/2007
27772297	C09DA01	23/04/2007
184096	C09DA01	14/04/2011
27674082	C09DA01	06/05/2011
27444528	C09DA01	17/05/2011
27442007	C09DA01	16/12/2004
27457552	C09DA01	23/05/2011
27480346	C09DA01	12/05/2011
27597806	C09DA01	30/05/2011
27764992	C09DA01	26/05/2011
24582476	C09DA01	27/09/2005
27758876	C09DA01	16/12/2008
27793920	C09DA01	17/01/2005
27718674	C09DA01	27/03/2008
27757222	C09DA01	23/07/2010
27665005	C09DA01	12/03/2010
27765080	C09DA01	18/05/2011
27384357	C09DA01	18/05/2011
27591900	C09DA01	13/05/2011
18195479	C09DA01	13/05/2011
27309041	C09DA01	13/05/2011
27614816	C09DA01	31/05/2011
27419357	C09DA01	27/05/2011
26711256	C09DA01	21/03/2011
27084129	C09DA01	11/05/2011
33049981	C09DA01	31/05/2011
33048157	C09DA01	25/06/2009
33106813	C09DA01	26/11/2009
33015982	C09DA01	28/12/2010
33072905	C09DA01	08/05/2009
428067	C09DA01	27/05/2011
33086713	C09DA01	20/05/2011
33112492	C09DA01	09/03/2009
33081131	C09DA01	24/06/2010
33057611	C09DA01	14/12/2006
33093762	C09DA01	30/11/2007
23318945	C09DA01	31/05/2011
21116381	C09DA01	15/12/2010
33233293	C09DA01	05/12/2008
20983485	C09DA01	17/08/2010
33231347	C09DA01	16/03/2011
33231880	C09DA01	31/05/2011
33245853	C09DA01	20/05/2011
16597365	C09DA01	13/05/2011
33253139	C09DA01	26/05/2011
16639614	C09DA01	09/01/2009
18765826	C09DA01	14/03/2008
23329499	C09DA01	30/09/2010
16183158	C09DA01	17/05/2011
33240080	C09DA01	16/05/2011
23361804	C09DA01	05/02/2010
16139405	C09DA01	10/02/2010
21011848	C09DA01	17/03/2009
24463283	C09DA01	07/12/2010
16130043	C09DA01	03/05/2011
16639783	C09DA01	11/05/2011
33209870	C09DA01	09/11/2009
14187360	C09DA01	17/05/2011
24463048	C09DA01	31/03/2010
28018842	C09DA01	19/05/2011
23200353	C09DA01	14/10/2010
16613423	C09DA01	13/01/2004
23366898	C09DA01	20/05/2011
18757709	C09DA01	20/04/2010
23366435	C09DA01	13/04/2011
16168690	C09DA01	09/07/2008
23362487	C09DA01	19/07/2006
16602630	C09DA01	20/05/2011
14188121	C09DA01	01/06/2011
20981736	C09DA01	01/06/2011
21011417	C09DA01	19/05/2011
23353918	C09DA01	10/06/2010
32010493	C09DA01	02/12/2009
31694945	C09DA01	21/03/2011
31281157	C09DA01	28/11/2008
31083013	C09DA01	31/01/2006
31549444	C09DA01	30/12/2008
31298093	C09DA01	31/07/2008
31383807	C09DA01	22/12/2010
31889230	C09DA01	13/08/2008
31157640	C09DA01	13/04/2011
31767728	C09DA01	29/04/2009
31444517	C09DA01	25/01/2011
31956405	C09DA01	16/07/2010
31835091	C09DA01	14/03/2011
31576464	C09DA01	09/06/2004
31455126	C09DA01	24/03/2011
32228106	C09DA01	14/04/2011
31694445	C09DA01	31/03/2006
31999320	C09DA01	13/07/2009
31884872	C09DA01	05/01/2011
31910385	C09DA01	05/11/2010
31421685	C09DA01	04/03/2011
32140070	C09DA01	27/04/2010
31655813	C09DA01	07/09/2010
31129202	C09DA01	10/12/2010
31825550	C09DA01	10/03/2011
32118712	C09DA01	14/12/2009
31612836	C09DA01	03/10/2006
31422146	C09DA01	12/09/2007
31423636	C09DA01	02/08/2006
31537958	C09DA01	15/09/2006
31222949	C09DA01	29/12/2010
32251012	C09DA01	21/03/2011
31312763	C09DA01	22/06/2010
32065893	C09DA01	30/06/2010
31698052	C09DA01	01/03/2011
31054626	C09DA01	07/10/2009
31046930	C09DA01	01/10/2008
31977828	C09DA01	30/05/2011
32153978	C09DA01	11/12/2009
32244371	C09DA01	11/12/2008
31568634	C09DA01	11/04/2011
31577330	C09DA01	12/11/2009
32106380	C09DA01	30/11/2007
31075591	C09DA01	28/06/2004
31156693	C09DA01	12/03/2011
31308391	C09DA01	03/12/2009
31906165	C09DA01	07/12/2010
32168690	C09DA01	29/10/2010
31523575	C09DA01	22/06/2005
31750115	C09DA01	11/12/2009
31910912	C09DA01	28/12/2009
31294522	C09DA01	10/11/2006
32277528	C09DA01	25/12/2008
31190295	C09DA01	04/04/2011
31239463	C09DA01	16/10/2009
31742774	C09DA01	31/01/2011
31653793	C09DA01	25/08/2006
31961565	C09DA01	20/04/2007
32171789	C09DA01	10/12/2009
31143643	C09DA01	29/05/2008
31784866	C09DA01	30/01/2008
31479774	C09DA01	20/04/2010
31577402	C09DA01	04/04/2011
31652501	C09DA01	09/12/2008
31055196	C09DA01	16/12/2009
31747041	C09DA01	07/12/2010
31485027	C09DA01	26/10/2010
31230558	C09DA01	18/08/2005
32081758	C09DA01	23/12/2009
31687203	C09DA01	12/11/2008
31725638	C09DA01	05/10/2006
31283871	C09DA01	07/04/2011
32217546	C09DA01	08/10/2010
31884055	C09DA01	31/01/2011
31256796	C09DA01	06/05/2004
31745838	C09DA01	30/07/2009
31936735	C09DA01	21/01/2011
31777213	C09DA01	03/03/2011
31364093	C09DA01	21/01/2011
32019169	C09DA01	10/12/2009
31921033	C09DA01	04/08/2010
31608584	C09DA01	17/08/2009
32115248	C09DA01	01/02/2006
31213814	C09DA01	18/02/2011
32042810	C09DA01	10/12/2009
31944943	C09DA01	19/01/2007
31767577	C09DA01	18/09/2008
31074963	C09DA01	21/12/2010
31494795	C09DA01	23/09/2008
31882469	C09DA01	13/11/2008
32008833	C09DA01	16/03/2010
31866747	C09DA01	16/12/2009
31042576	C09DA01	07/11/2008
31523134	C09DA01	08/10/2010
32078125	C09DA01	16/03/2005
31281572	C09DA01	09/07/2010
31696583	C09DA01	18/05/2006
31374121	C09DA01	24/03/2011
31217730	C09DA01	26/11/2010
32197657	C09DA01	16/06/2008
31159520	C09DA01	15/10/2009
32053883	C09DA01	20/04/2005
31946086	C09DA01	22/12/2010
31486375	C09DA01	19/09/2003
31291105	C09DA01	07/11/2008
31564531	C09DA01	04/11/2009
31600212	C09DA01	23/12/2009
31947491	C09DA01	30/01/2009
