patient_id	covar_name	date
6181929	C03CA01	28/03/2005
7023743	C03CA01	10/03/2011
14865414	C03CA01	29/04/2011
10270713	C03CA01	21/09/2009
16109980	C03CA01	05/01/2011
20558540	C03CA01	25/08/2009
12774533	C03CA01	10/05/2011
6747933	C03CA01	04/05/2010
23471437	C03CA01	06/11/2008
16815009	C03CA01	18/05/2011
9302346	C03CA01	23/01/2004
15945356	C03CA01	31/05/2011
5031451	C03CA01	22/12/2010
7095550	C03CA01	16/06/2009
1732204	C03CA01	16/09/2002
5030705	C03CA01	03/11/2010
9372370	C03CA01	13/05/2011
9383747	C03CA01	18/01/2011
24722159	C03CA01	31/05/2011
7093908	C03CA01	16/03/2011
8652950	C03CA01	07/11/2006
3939492	C03CA01	21/07/2003
9328550	C03CA01	08/09/2006
7094806	C03CA01	14/01/2011
9339067	C03CA01	26/04/2011
9982943	C03CA01	01/06/2011
3328722	C03CA01	19/05/2011
24730115	C03CA01	25/06/2010
5461472	C03CA01	05/05/2011
6416555	C03CA01	11/12/2009
12760243	C03CA01	06/05/2009
7243333	C03CA01	03/05/2011
10394066	C03CA01	01/12/2005
9983468	C03CA01	10/07/2009
948728	C03CA01	10/05/2008
11994028	C03CA01	06/04/2010
21369976	C03CA01	16/05/2011
20528864	C03CA01	28/05/2008
20535914	C03CA01	14/05/2010
10605419	C03CA01	20/04/2011
20551807	C03CA01	21/02/2011
16977028	C03CA01	11/09/2008
5867449	C03CA01	11/04/2011
5812596	C03CA01	06/04/2004
20530770	C03CA01	20/05/2008
9268220	C03CA01	09/04/2011
19290727	C03CA01	31/05/2011
15667860	C03CA01	03/05/2011
6080444	C03CA01	08/08/2007
11660918	C03CA01	16/07/2008
9371920	C03CA01	14/04/2011
8555693	C03CA01	09/02/2011
9376231	C03CA01	07/12/2006
5031417	C03CA01	11/04/2011
8979574	C03CA01	15/03/2011
12739033	C03CA01	04/03/2005
15880887	C03CA01	03/05/2011
12857056	C03CA01	18/04/2011
61498	C03CA01	26/05/2011
9372898	C03CA01	03/05/2011
1123313	C03CA01	29/03/2005
3117787	C03CA01	11/04/2011
601168	C03CA01	19/03/2007
6757389	C03CA01	18/04/2011
9984700	C03CA01	16/03/2010
9209479	C03CA01	27/10/2010
9180128	C03CA01	02/02/2007
18628876	C03CA01	10/05/2011
1301453	C03CA01	31/05/2011
14807613	C03CA01	01/10/2009
13861443	C03CA01	29/10/2010
8977888	C03CA01	16/09/2009
1062835	C03CA01	18/12/2007
9299339	C03CA01	12/05/2008
12174179	C03CA01	26/09/2007
1162102	C03CA01	24/07/2006
12857013	C03CA01	26/05/2011
12688935	C03CA01	28/02/2011
9382870	C03CA01	19/05/2011
23472104	C03CA01	05/04/2011
1731389	C03CA01	17/05/2011
7023767	C03CA01	01/06/2011
3502435	C03CA01	16/01/2009
9249338	C03CA01	30/03/2011
16920398	C03CA01	19/05/2011
8654983	C03CA01	21/09/2010
7219712	C03CA01	07/05/2008
1516892	C03CA01	09/05/2011
9388668	C03CA01	18/01/2010
17382370	C03CA01	11/05/2010
15149286	C03CA01	15/12/2009
20528913	C03CA01	26/09/2002
12831650	C03CA01	26/04/2011
1303002	C03CA01	06/07/2010
8975906	C03CA01	15/01/2009
18146152	C03CA01	01/07/2010
11578588	C03CA01	10/05/2011
8786220	C03CA01	23/01/2009
5028278	C03CA01	05/05/2011
8655966	C03CA01	29/04/2011
3940502	C03CA01	10/05/2011
10395603	C03CA01	29/05/2011
25051083	C03CA01	09/07/2009
5865734	C03CA01	10/05/2007
9231512	C03CA01	10/11/2010
9293857	C03CA01	31/05/2011
8293467	C03CA01	20/04/2011
5031618	C03CA01	12/05/2011
9321282	C03CA01	01/03/2011
5029473	C03CA01	09/05/2011
9375496	C03CA01	01/06/2011
16530712	C03CA01	16/06/2009
12688652	C03CA01	24/05/2011
19153840	C03CA01	01/10/2009
173267	C03CA01	28/05/2011
16927097	C03CA01	26/01/2006
23442733	C03CA01	03/05/2011
9285180	C03CA01	28/10/2008
9214769	C03CA01	07/07/2009
10394089	C03CA01	19/05/2011
21871587	C03CA01	06/10/2004
8979107	C03CA01	30/01/2009
6040773	C03CA01	09/05/2011
2768422	C03CA01	17/03/2011
16927754	C03CA01	25/05/2011
6759067	C03CA01	01/03/2011
1941220	C03CA01	13/05/2011
25051272	C03CA01	13/05/2011
19228281	C03CA01	13/07/2006
10270807	C03CA01	27/06/2007
9179706	C03CA01	18/06/2004
25052219	C03CA01	26/05/2011
3328431	C03CA01	14/03/2007
8273132	C03CA01	14/12/2010
5813363	C03CA01	29/10/2009
23471965	C03CA01	24/11/2010
5024381	C03CA01	10/01/2008
12695481	C03CA01	20/06/2008
18163097	C03CA01	11/03/2009
15900346	C03CA01	01/09/2005
10266866	C03CA01	28/04/2011
949680	C03CA01	25/05/2011
16554513	C03CA01	04/12/2009
9377350	C03CA01	06/02/2006
10395240	C03CA01	20/05/2011
24765903	C03CA01	06/09/2007
5467749	C03CA01	12/05/2011
17170528	C03CA01	26/05/2011
6079237	C03CA01	21/10/2010
9349186	C03CA01	24/05/2011
19228687	C03CA01	22/04/2010
24765208	C03CA01	14/02/2005
16556701	C03CA01	27/05/2011
63243	C03CA01	31/03/2011
6417619	C03CA01	27/04/2011
9302747	C03CA01	13/05/2011
5033201	C03CA01	01/06/2011
6178653	C03CA01	02/12/2010
9203860	C03CA01	25/06/2010
6751810	C03CA01	14/10/2008
5024803	C03CA01	13/05/2011
8567858	C03CA01	13/05/2011
12791259	C03CA01	05/05/2011
17618962	C03CA01	10/05/2011
9385419	C03CA01	18/01/2011
6745401	C03CA01	08/05/2006
60897	C03CA01	24/09/2010
608353	C03CA01	08/02/2008
1171088	C03CA01	19/05/2011
24721032	C03CA01	30/05/2011
21644622	C03CA01	06/10/2010
10002746	C03CA01	12/05/2011
10331626	C03CA01	17/02/2006
641170	C03CA01	17/05/2010
1474251	C03CA01	22/05/2003
1090730	C03CA01	11/11/2008
6597437	C03CA01	05/05/2011
641127	C03CA01	15/10/2010
638871	C03CA01	22/04/2009
26139150	C03CA01	15/12/2010
7800178	C03CA01	30/05/2011
674348	C03CA01	09/03/2009
4700332	C03CA01	14/02/2011
7848911	C03CA01	15/04/2009
12615776	C03CA01	26/03/2009
1356229	C03CA01	12/05/2011
26139674	C03CA01	31/08/2005
7800389	C03CA01	12/01/2011
6842062	C03CA01	05/05/2011
4699898	C03CA01	06/05/2011
1201480	C03CA01	18/05/2011
1276765	C03CA01	27/07/2006
6842063	C03CA01	20/08/2010
13984759	C03CA01	06/05/2011
648760	C03CA01	13/05/2011
1206620	C03CA01	17/09/2007
524498	C03CA01	19/05/2011
8933284	C03CA01	01/06/2011
6602655	C03CA01	23/05/2011
1669715	C03CA01	11/12/2010
6841404	C03CA01	10/01/2011
1417619	C03CA01	18/08/2005
1445809	C03CA01	09/05/2011
526051	C03CA01	31/05/2007
26139493	C03CA01	26/05/2011
7848502	C03CA01	30/07/2007
648336	C03CA01	26/07/2010
641313	C03CA01	23/05/2011
1205994	C03CA01	28/04/2011
6841316	C03CA01	26/04/2011
5727446	C03CA01	25/05/2011
1350929	C03CA01	16/07/2009
6213484	C03CA01	19/04/2011
7076246	C03CA01	01/12/2010
7972720	C03CA01	01/06/2010
6592127	C03CA01	05/05/2011
12189158	C03CA01	27/05/2011
5992373	C03CA01	20/04/2011
6601131	C03CA01	14/09/2010
6592623	C03CA01	28/03/2011
1211186	C03CA01	02/09/2003
1446069	C03CA01	23/08/2010
1658853	C03CA01	21/05/2008
1420467	C03CA01	27/05/2011
1207086	C03CA01	14/05/2011
1426345	C03CA01	25/01/2002
12613417	C03CA01	17/01/2011
6599963	C03CA01	16/04/2010
673927	C03CA01	05/11/2008
7848344	C03CA01	22/05/2007
6596782	C03CA01	04/05/2011
6592750	C03CA01	03/12/2009
15623737	C03CA01	28/04/2011
6596858	C03CA01	03/05/2011
1206524	C03CA01	13/06/2006
24940303	C03CA01	18/05/2011
6594510	C03CA01	30/05/2011
1090765	C03CA01	25/05/2011
15696603	C03CA01	30/05/2011
6602253	C03CA01	23/05/2011
6425452	C03CA01	30/05/2011
1204719	C03CA01	30/05/2011
8063389	C03CA01	01/10/2008
1205584	C03CA01	22/12/2004
6842492	C03CA01	18/04/2011
6400754	C03CA01	02/04/2009
13264943	C03CA01	27/05/2011
1353317	C03CA01	01/08/2007
1262130	C03CA01	24/06/2010
525618	C03CA01	20/05/2011
1424080	C03CA01	16/05/2011
4700304	C03CA01	14/01/2011
26145718	C03CA01	08/04/2005
7777716	C03CA01	30/05/2011
7966096	C03CA01	07/09/2005
7966257	C03CA01	09/05/2011
8955143	C03CA01	04/08/2009
26138784	C03CA01	25/04/2011
6595383	C03CA01	24/11/2010
1445050	C03CA01	05/10/2005
7776254	C03CA01	04/01/2010
674219	C03CA01	21/03/2011
1354581	C03CA01	14/01/2005
538729	C03CA01	13/08/2007
5992669	C03CA01	09/04/2007
1320083	C03CA01	26/04/2011
639310	C03CA01	08/04/2011
15798351	C03CA01	15/05/2011
1851693	C03CA01	27/04/2009
1132264	C03CA01	01/06/2011
7801714	C03CA01	05/05/2011
25908152	C03CA01	10/02/2011
1638747	C03CA01	07/03/2007
25768791	C03CA01	05/01/2010
2202053	C03CA01	06/04/2011
195582	C03CA01	10/02/2009
25915017	C03CA01	29/04/2011
1640617	C03CA01	26/02/2007
1638850	C03CA01	22/08/2005
1638220	C03CA01	23/05/2011
1580789	C03CA01	31/05/2011
25750805	C03CA01	16/05/2011
189189	C03CA01	04/10/2007
1110477	C03CA01	04/12/2002
1135359	C03CA01	09/11/2006
486308	C03CA01	10/05/2011
25894478	C03CA01	12/08/2010
12788129	C03CA01	18/05/2011
890246	C03CA01	07/07/2008
25860190	C03CA01	30/05/2011
1855343	C03CA01	10/02/2011
135815	C03CA01	04/04/2007
1641017	C03CA01	02/09/2010
1580741	C03CA01	31/05/2011
25892496	C03CA01	15/12/2009
1131938	C03CA01	01/10/2002
1135406	C03CA01	23/05/2011
1558068	C03CA01	24/05/2011
2059817	C03CA01	26/04/2011
2070070	C03CA01	08/11/2010
2216952	C03CA01	27/04/2011
2043284	C03CA01	06/04/2009
2040077	C03CA01	24/05/2011
2113217	C03CA01	28/10/2009
2238908	C03CA01	30/05/2011
2239654	C03CA01	14/12/2010
2110088	C03CA01	06/11/2010
1647977	C03CA01	24/03/2008
2164170	C03CA01	06/07/2010
2110791	C03CA01	12/11/2004
2132832	C03CA01	23/08/2007
2132856	C03CA01	29/07/2010
2109593	C03CA01	22/02/2011
2042982	C03CA01	18/02/2008
2068934	C03CA01	29/03/2011
2067684	C03CA01	11/09/2003
2133822	C03CA01	29/04/2011
2217164	C03CA01	10/05/2011
2070277	C03CA01	08/04/2011
2137012	C03CA01	20/04/2011
2140686	C03CA01	15/05/2003
2139418	C03CA01	29/01/2007
2070415	C03CA01	18/05/2010
2059211	C03CA01	16/11/2010
904606	C03CA01	19/10/2004
877568	C03CA01	01/09/2006
859956	C03CA01	05/01/2010
873905	C03CA01	23/05/2011
2140421	C03CA01	27/05/2009
878003	C03CA01	16/05/2011
1755667	C03CA01	18/08/2004
1682828	C03CA01	21/09/2005
2068620	C03CA01	16/05/2011
2140245	C03CA01	21/06/2005
903543	C03CA01	11/05/2011
902237	C03CA01	02/05/2011
876130	C03CA01	19/04/2011
904650	C03CA01	18/12/2006
859454	C03CA01	05/12/2007
876284	C03CA01	10/07/2006
1752991	C03CA01	02/11/2010
903206	C03CA01	06/07/2009
904017	C03CA01	05/04/2010
877611	C03CA01	16/05/2011
1766799	C03CA01	13/12/2007
1763515	C03CA01	23/03/2011
3050342	C03CA01	28/04/2011
904406	C03CA01	06/04/2009
1767597	C03CA01	28/01/2011
875564	C03CA01	13/03/2002
2780172	C03CA01	07/11/2005
2777493	C03CA01	05/05/2011
2777495	C03CA01	27/05/2011
7047183	C03CA01	06/05/2011
7043389	C03CA01	01/06/2011
2811851	C03CA01	27/05/2011
2763799	C03CA01	10/03/2005
2525213	C03CA01	04/04/2011
2408020	C03CA01	18/12/2003
2520367	C03CA01	27/11/2009
2755318	C03CA01	15/04/2011
2408299	C03CA01	02/02/2009
15643872	C03CA01	31/08/2010
14559053	C03CA01	09/05/2011
2755397	C03CA01	27/04/2011
2407047	C03CA01	07/11/2005
16835317	C03CA01	29/04/2011
26460380	C03CA01	11/05/2011
26465782	C03CA01	03/05/2011
28050537	C03CA01	04/05/2011
26458657	C03CA01	05/04/2011
28066311	C03CA01	12/05/2011
26529186	C03CA01	24/05/2011
26478550	C03CA01	12/06/2009
28072967	C03CA01	15/06/2005
28045160	C03CA01	26/11/2004
26456684	C03CA01	03/12/2010
17747528	C03CA01	12/03/2010
20673495	C03CA01	07/12/2010
9635311	C03CA01	03/05/2011
26243685	C03CA01	13/05/2008
26263281	C03CA01	20/04/2011
20673832	C03CA01	25/05/2011
17741284	C03CA01	04/04/2003
26244722	C03CA01	26/05/2011
26336640	C03CA01	12/04/2011
7137854	C03CA01	27/05/2011
26175205	C03CA01	11/05/2011
10085916	C03CA01	31/03/2010
6990280	C03CA01	18/05/2011
6990388	C03CA01	10/12/2009
17747103	C03CA01	23/05/2011
20147230	C03CA01	15/10/2010
17325261	C03CA01	28/05/2009
26456732	C03CA01	13/05/2010
26190060	C03CA01	20/02/2006
28042210	C03CA01	22/02/2010
28042025	C03CA01	12/06/2009
26464787	C03CA01	30/07/2008
26384460	C03CA01	01/06/2011
17041554	C03CA01	31/05/2011
26235974	C03CA01	30/05/2011
26454330	C03CA01	09/11/2010
16835935	C03CA01	25/03/2004
16836654	C03CA01	28/04/2008
17041018	C03CA01	14/04/2011
14347072	C03CA01	29/07/2009
16950099	C03CA01	21/07/2010
1910209	C03CA01	29/09/2010
1910382	C03CA01	04/08/2005
650010	C03CA01	12/08/2010
2959597	C03CA01	22/11/2010
425420	C03CA01	18/05/2011
185359	C03CA01	11/06/2010
184887	C03CA01	17/06/2010
433748	C03CA01	12/04/2011
425076	C03CA01	08/07/2009
2959751	C03CA01	24/12/2002
187884	C03CA01	12/07/2004
874346	C03CA01	14/05/2011
12971265	C03CA01	15/10/2010
20515560	C03CA01	02/02/2010
26261042	C03CA01	24/05/2011
3053216	C03CA01	15/02/2007
26478497	C03CA01	30/04/2011
28083644	C03CA01	30/08/2010
28083670	C03CA01	23/05/2011
7128685	C03CA01	31/05/2010
3049347	C03CA01	27/03/2003
2040821	C03CA01	25/04/2011
424750	C03CA01	20/06/2006
26488354	C03CA01	04/03/2011
28055719	C03CA01	05/01/2004
265635	C03CA01	28/04/2011
304306	C03CA01	09/09/2003
265904	C03CA01	19/02/2008
419430	C03CA01	08/02/2011
300557	C03CA01	20/08/2010
648824	C03CA01	30/05/2011
7029377	C03CA01	19/05/2011
28070991	C03CA01	16/07/2010
28055135	C03CA01	15/04/2011
28088132	C03CA01	18/05/2011
28065837	C03CA01	04/06/2009
28044312	C03CA01	31/05/2010
28072510	C03CA01	26/05/2011
28060556	C03CA01	17/10/2008
28043643	C03CA01	09/02/2010
28056641	C03CA01	20/07/2004
26477734	C03CA01	08/06/2010
876593	C03CA01	25/09/2009
28045890	C03CA01	30/05/2011
28046187	C03CA01	24/02/2011
28067854	C03CA01	07/05/2011
24666302	C03CA01	31/08/2010
24655567	C03CA01	20/04/2006
25738686	C03CA01	31/01/2011
24657685	C03CA01	04/11/2003
25535638	C03CA01	30/05/2011
24662048	C03CA01	31/05/2011
25742680	C03CA01	17/03/2010
24658550	C03CA01	14/01/2011
25743607	C03CA01	28/10/2010
24655154	C03CA01	04/09/2006
25743054	C03CA01	09/03/2007
24669225	C03CA01	15/05/2011
24657011	C03CA01	26/08/2010
24664058	C03CA01	18/05/2006
421960	C03CA01	03/05/2011
19770701	C03CA01	19/05/2011
1373198	C03CA01	24/05/2011
927467	C03CA01	30/03/2011
1014507	C03CA01	16/07/2008
1371686	C03CA01	04/05/2007
1361706	C03CA01	23/08/2010
1906965	C03CA01	23/03/2010
1030137	C03CA01	26/05/2011
1368084	C03CA01	27/05/2008
926264	C03CA01	20/05/2011
422231	C03CA01	28/07/2009
16840841	C03CA01	24/05/2011
18197916	C03CA01	18/10/2002
18551274	C03CA01	28/07/2003
18196791	C03CA01	25/05/2011
19802014	C03CA01	09/05/2011
16567128	C03CA01	21/03/2007
18189831	C03CA01	19/10/2010
18197591	C03CA01	15/09/2009
18197681	C03CA01	05/04/2011
18191652	C03CA01	03/07/2008
18190987	C03CA01	04/04/2011
16841573	C03CA01	18/07/2010
2986710	C03CA01	02/10/2006
420454	C03CA01	27/05/2011
1030188	C03CA01	19/11/2010
1361578	C03CA01	25/06/2008
1899549	C03CA01	27/01/2009
1018757	C03CA01	24/09/2010
26703633	C03CA01	08/04/2009
26776551	C03CA01	08/03/2011
26637658	C03CA01	17/03/2011
26628519	C03CA01	22/02/2008
26776913	C03CA01	09/07/2010
26830552	C03CA01	27/04/2009
26629943	C03CA01	29/04/2011
26628935	C03CA01	14/04/2011
26628351	C03CA01	02/02/2006
14311205	C03CA01	19/04/2001
2994406	C03CA01	19/12/2007
16105363	C03CA01	14/05/2011
12976349	C03CA01	01/06/2011
17165387	C03CA01	26/04/2006
16842252	C03CA01	22/05/2011
2987010	C03CA01	09/05/2011
24654532	C03CA01	13/11/2006
16567909	C03CA01	20/05/2011
16842692	C03CA01	27/05/2011
26717898	C03CA01	05/06/2006
26707001	C03CA01	21/10/2008
26628248	C03CA01	10/05/2010
25740918	C03CA01	18/03/2005
26617547	C03CA01	03/05/2011
26721016	C03CA01	26/02/2009
26722119	C03CA01	30/04/2008
26719166	C03CA01	25/02/2004
2990152	C03CA01	27/04/2011
26635277	C03CA01	08/03/2011
24577944	C03CA01	25/04/2005
24578320	C03CA01	25/05/2011
24655486	C03CA01	30/11/2009
24667198	C03CA01	24/06/2009
21552734	C03CA01	30/09/2010
23484674	C03CA01	29/05/2011
23484979	C03CA01	07/11/2006
22921551	C03CA01	12/04/2011
20835034	C03CA01	03/09/2010
24487268	C03CA01	31/07/2006
21651484	C03CA01	03/03/2011
24582056	C03CA01	05/05/2011
26958740	C03CA01	20/05/2011
26946237	C03CA01	05/12/2007
26932881	C03CA01	22/03/2011
26958799	C03CA01	02/10/2003
26958880	C03CA01	24/05/2006
26895844	C03CA01	31/05/2011
26900257	C03CA01	06/04/2011
26857091	C03CA01	19/09/2007
26730088	C03CA01	27/05/2011
26768998	C03CA01	17/05/2011
26867156	C03CA01	01/06/2011
26897945	C03CA01	21/05/2011
26847529	C03CA01	23/05/2011
26895133	C03CA01	01/05/2011
26863888	C03CA01	27/05/2011
26877329	C03CA01	06/04/2011
26900308	C03CA01	05/04/2011
26877189	C03CA01	30/07/2010
26856371	C03CA01	30/04/2011
26847638	C03CA01	23/02/2009
26833703	C03CA01	15/03/2011
26789113	C03CA01	25/05/2011
26794725	C03CA01	03/05/2011
26742253	C03CA01	03/02/2011
26761941	C03CA01	28/02/2011
26715346	C03CA01	23/05/2011
26801817	C03CA01	22/12/2010
27044460	C03CA01	25/01/2005
26939724	C03CA01	26/05/2011
26969569	C03CA01	27/04/2011
26955339	C03CA01	24/08/2010
26989053	C03CA01	23/05/2011
26998473	C03CA01	19/05/2011
26998098	C03CA01	22/06/2008
26994023	C03CA01	01/12/2010
27086485	C03CA01	09/03/2010
27087864	C03CA01	20/05/2011
27101595	C03CA01	06/05/2011
27116894	C03CA01	30/05/2011
27116935	C03CA01	21/05/2011
27085859	C03CA01	21/02/2011
27132014	C03CA01	21/11/2004
27114640	C03CA01	06/03/2009
27111940	C03CA01	09/03/2004
27104236	C03CA01	05/05/2011
27078255	C03CA01	01/12/2010
27133601	C03CA01	18/05/2011
27061186	C03CA01	17/05/2011
27065167	C03CA01	14/04/2011
27043827	C03CA01	05/05/2011
27127065	C03CA01	20/09/2007
27073118	C03CA01	22/07/2010
27082854	C03CA01	11/02/2010
27060946	C03CA01	20/08/2010
27065487	C03CA01	30/05/2011
27066800	C03CA01	26/12/2007
27063122	C03CA01	31/05/2011
26991420	C03CA01	09/11/2005
26994757	C03CA01	29/08/2008
27014607	C03CA01	19/04/2011
27023735	C03CA01	10/09/2009
26996376	C03CA01	03/08/2010
27026108	C03CA01	19/06/2009
27013186	C03CA01	04/05/2011
26994692	C03CA01	20/05/2011
27041680	C03CA01	05/09/2003
27014990	C03CA01	16/01/2010
27211585	C03CA01	19/06/2007
27216549	C03CA01	15/12/2010
27214679	C03CA01	26/04/2011
27216577	C03CA01	31/03/2011
27379580	C03CA01	18/05/2011
27216624	C03CA01	02/05/2011
27171122	C03CA01	31/05/2011
27166936	C03CA01	16/05/2011
27248566	C03CA01	16/06/2008
27219870	C03CA01	04/04/2011
27218364	C03CA01	26/11/2009
27383432	C03CA01	23/03/2011
27148073	C03CA01	23/05/2011
27384468	C03CA01	13/05/2011
27385174	C03CA01	27/04/2011
27216974	C03CA01	26/09/2007
27173275	C03CA01	02/05/2011
27316566	C03CA01	13/04/2011
27244696	C03CA01	29/05/2011
27254109	C03CA01	01/11/2008
27314686	C03CA01	19/05/2011
27304467	C03CA01	31/05/2011
27233568	C03CA01	11/05/2006
27284918	C03CA01	27/04/2011
27319914	C03CA01	11/03/2011
27302964	C03CA01	01/01/2009
27213909	C03CA01	09/02/2011
27396771	C03CA01	23/05/2011
27251650	C03CA01	15/05/2011
27315277	C03CA01	30/05/2011
27362717	C03CA01	17/05/2011
27197886	C03CA01	29/03/2010
27305968	C03CA01	27/05/2011
27316412	C03CA01	05/05/2011
27317083	C03CA01	28/05/2011
27357965	C03CA01	11/05/2011
27316072	C03CA01	30/01/2007
27300731	C03CA01	20/05/2011
27396888	C03CA01	01/06/2011
27306529	C03CA01	06/07/2007
27220409	C03CA01	05/11/2008
27317311	C03CA01	01/06/2011
27362286	C03CA01	28/05/2011
27296189	C03CA01	06/11/2003
27361071	C03CA01	30/05/2011
26992485	C03CA01	10/06/2008
27253841	C03CA01	15/04/2011
27389186	C03CA01	08/05/2011
26995530	C03CA01	19/05/2011
27218860	C03CA01	08/05/2011
26989612	C03CA01	07/07/2010
26989189	C03CA01	10/05/2011
27657965	C03CA01	15/05/2011
27606689	C03CA01	07/03/2011
27597168	C03CA01	17/08/2009
27646258	C03CA01	12/05/2011
27643610	C03CA01	21/05/2011
27588942	C03CA01	17/05/2011
27646878	C03CA01	09/05/2011
27600750	C03CA01	30/05/2011
27642052	C03CA01	25/05/2011
27632256	C03CA01	27/05/2011
27709153	C03CA01	09/05/2011
27442320	C03CA01	20/06/2010
27493925	C03CA01	03/05/2011
27475827	C03CA01	12/05/2011
27427357	C03CA01	19/01/2007
27495476	C03CA01	08/05/2011
27453870	C03CA01	25/05/2011
27474528	C03CA01	04/04/2011
27458955	C03CA01	28/06/2010
27716882	C03CA01	28/05/2004
27757050	C03CA01	30/07/2010
27764749	C03CA01	29/04/2008
27707969	C03CA01	28/07/2009
27707973	C03CA01	01/04/2011
27765512	C03CA01	27/04/2011
27759030	C03CA01	11/08/2008
27631341	C03CA01	27/04/2010
27764873	C03CA01	16/05/2011
27544065	C03CA01	11/04/2011
27756732	C03CA01	29/05/2011
27570581	C03CA01	21/08/2010
27565580	C03CA01	28/02/2007
27614866	C03CA01	20/01/2010
27621566	C03CA01	10/05/2011
27761424	C03CA01	13/05/2011
27151908	C03CA01	20/05/2011
27148314	C03CA01	28/05/2011
27414193	C03CA01	30/10/2006
27147928	C03CA01	24/11/2010
27166743	C03CA01	11/12/2010
27132827	C03CA01	19/05/2004
27000618	C03CA01	14/04/2009
27785567	C03CA01	05/03/2007
26702902	C03CA01	05/07/2010
26720527	C03CA01	08/09/2005
24576547	C03CA01	09/02/2010
648889	C03CA01	05/08/2008
18187165	C03CA01	31/05/2011
20070922	C03CA01	03/05/2011
27164268	C03CA01	25/05/2010
27286174	C03CA01	26/04/2006
266530	C03CA01	08/05/2011
27538570	C03CA01	08/04/2011
27684839	C03CA01	01/06/2011
27539673	C03CA01	26/05/2011
27531352	C03CA01	16/06/2009
27460023	C03CA01	17/01/2011
27475077	C03CA01	21/01/2011
27546527	C03CA01	12/08/2010
27529772	C03CA01	09/05/2011
27684912	C03CA01	08/05/2011
27664085	C03CA01	22/05/2011
24581729	C03CA01	02/05/2011
27666079	C03CA01	20/09/2010
18195688	C03CA01	13/03/2009
184096	C03CA01	06/07/2010
27079385	C03CA01	06/05/2011
27785173	C03CA01	18/02/2008
421835	C03CA01	23/05/2011
26980682	C03CA01	07/05/2011
27674082	C03CA01	14/03/2008
1017321	C03CA01	14/05/2011
27685053	C03CA01	22/02/2006
27780914	C03CA01	11/05/2011
27648180	C03CA01	30/12/2004
27480179	C03CA01	11/04/2008
27456174	C03CA01	16/11/2010
27608043	C03CA01	04/05/2011
27614274	C03CA01	29/05/2011
27540250	C03CA01	20/05/2011
27574050	C03CA01	18/01/2011
27317448	C03CA01	09/04/2011
27538271	C03CA01	10/05/2011
27535521	C03CA01	31/05/2011
27631227	C03CA01	27/05/2011
26933407	C03CA01	18/04/2006
26620792	C03CA01	18/04/2011
26946481	C03CA01	27/05/2011
24655178	C03CA01	24/05/2011
27783717	C03CA01	28/05/2011
26619933	C03CA01	14/04/2011
13873906	C03CA01	20/08/2009
26777286	C03CA01	26/05/2011
27657600	C03CA01	17/05/2011
26945611	C03CA01	19/11/2010
27597806	C03CA01	31/05/2011
27764992	C03CA01	16/03/2005
27685511	C03CA01	25/05/2011
26992651	C03CA01	24/05/2011
27796469	C03CA01	20/11/2008
27805384	C03CA01	13/05/2011
27763744	C03CA01	01/06/2011
27783945	C03CA01	15/05/2011
27720128	C03CA01	27/04/2011
27670649	C03CA01	14/05/2010
27695068	C03CA01	12/04/2011
27657730	C03CA01	28/04/2011
27758954	C03CA01	28/04/2011
27756194	C03CA01	09/03/2011
27718674	C03CA01	01/06/2011
27667247	C03CA01	20/05/2011
27804349	C03CA01	29/05/2011
27709323	C03CA01	09/07/2007
27694886	C03CA01	20/08/2008
27693810	C03CA01	14/10/2010
27665005	C03CA01	06/04/2007
27662240	C03CA01	06/10/2009
27623151	C03CA01	16/04/2006
27667214	C03CA01	12/05/2011
26770940	C03CA01	03/05/2011
27459636	C03CA01	02/10/2010
27591900	C03CA01	27/05/2011
18188132	C03CA01	22/05/2011
26770406	C03CA01	01/06/2011
27658340	C03CA01	13/10/2008
27471521	C03CA01	18/05/2005
27614092	C03CA01	21/05/2011
1030390	C03CA01	08/11/2006
26941998	C03CA01	26/05/2011
27775707	C03CA01	25/01/2005
26872972	C03CA01	30/05/2011
27084129	C03CA01	11/08/2010
27663355	C03CA01	02/07/2010
26776955	C03CA01	11/05/2007
26887104	C03CA01	16/09/2010
27663382	C03CA01	18/03/2010
33023244	C03CA01	20/05/2011
33100103	C03CA01	31/05/2011
33104066	C03CA01	22/05/2011
33068739	C03CA01	10/05/2011
33048157	C03CA01	30/10/2009
33106813	C03CA01	25/04/2011
33072595	C03CA01	27/05/2011
33118427	C03CA01	16/07/2008
33074802	C03CA01	03/09/2010
33067601	C03CA01	18/03/2011
33026329	C03CA01	13/04/2009
33001039	C03CA01	30/12/2010
33125136	C03CA01	30/05/2011
33028516	C03CA01	24/08/2010
33019657	C03CA01	27/05/2011
33008912	C03CA01	11/05/2011
33091047	C03CA01	22/09/2009
33071109	C03CA01	29/05/2011
33081368	C03CA01	28/04/2011
33106608	C03CA01	04/03/2011
33099318	C03CA01	17/05/2011
33007817	C03CA01	29/06/2006
33109340	C03CA01	01/06/2011
33028018	C03CA01	04/02/2009
33018138	C03CA01	20/01/2011
33099866	C03CA01	06/05/2009
33007764	C03CA01	19/05/2011
33018999	C03CA01	31/03/2010
33025068	C03CA01	13/05/2011
33024920	C03CA01	10/06/2005
33079795	C03CA01	25/05/2011
33048279	C03CA01	12/04/2011
33073315	C03CA01	27/05/2011
33049435	C03CA01	23/05/2011
33104735	C03CA01	05/12/2005
33020581	C03CA01	26/01/2004
33043614	C03CA01	04/05/2011
33064809	C03CA01	06/05/2011
33054043	C03CA01	20/11/2009
33098659	C03CA01	10/05/2011
33072905	C03CA01	26/12/2002
33112374	C03CA01	20/04/2001
33118796	C03CA01	27/04/2011
33084983	C03CA01	04/10/2010
33012294	C03CA01	06/09/2006
33015203	C03CA01	20/05/2011
33056194	C03CA01	28/05/2011
33079596	C03CA01	21/05/2011
33032821	C03CA01	15/05/2011
18197978	C03CA01	12/05/2011
1029165	C03CA01	14/11/2006
27764867	C03CA01	01/12/2010
27799914	C03CA01	16/05/2011
2958097	C03CA01	25/05/2011
16773808	C03CA01	05/12/2007
16178210	C03CA01	22/02/2001
20983764	C03CA01	13/08/2010
16614031	C03CA01	20/08/2007
23335211	C03CA01	12/05/2011
33021214	C03CA01	29/04/2011
33104458	C03CA01	20/09/2007
33022459	C03CA01	10/06/2010
33016132	C03CA01	25/11/2010
33090531	C03CA01	05/04/2011
33006191	C03CA01	21/02/2011
33020265	C03CA01	20/04/2011
33008945	C03CA01	20/12/2010
33061656	C03CA01	11/01/2005
33112492	C03CA01	07/08/2006
33106625	C03CA01	23/05/2011
33104544	C03CA01	28/03/2008
33007224	C03CA01	19/01/2006
33063789	C03CA01	05/07/2004
33025051	C03CA01	23/05/2011
33052051	C03CA01	21/12/2009
33053146	C03CA01	26/05/2011
33070455	C03CA01	07/02/2011
33037440	C03CA01	27/05/2011
33112202	C03CA01	07/12/2005
33043411	C03CA01	25/05/2011
33101385	C03CA01	04/04/2011
33026483	C03CA01	02/10/2006
33034268	C03CA01	07/04/2010
33082095	C03CA01	31/05/2011
33023069	C03CA01	26/02/2009
33030998	C03CA01	26/06/2001
33072029	C03CA01	01/06/2011
33060722	C03CA01	11/11/2009
33057611	C03CA01	21/11/2008
33066033	C03CA01	10/05/2011
33053309	C03CA01	27/05/2011
33085337	C03CA01	23/07/2009
33027780	C03CA01	05/05/2011
16616764	C03CA01	03/05/2011
14186599	C03CA01	11/05/2011
23342582	C03CA01	14/05/2007
33290902	C03CA01	26/05/2011
16611190	C03CA01	07/04/2011
16636662	C03CA01	19/05/2011
16634466	C03CA01	27/08/2007
16135123	C03CA01	21/09/2010
16183222	C03CA01	16/03/2004
16616536	C03CA01	03/05/2006
16136273	C03CA01	27/04/2011
33313140	C03CA01	22/05/2011
16639844	C03CA01	20/04/2011
18762930	C03CA01	27/04/2011
33308973	C03CA01	17/03/2010
23396603	C03CA01	11/04/2011
33297139	C03CA01	26/05/2011
20983485	C03CA01	18/04/2008
33244694	C03CA01	29/04/2011
18758883	C03CA01	16/08/2007
18771664	C03CA01	19/03/2007
23381575	C03CA01	19/04/2011
33245853	C03CA01	20/05/2011
16640222	C03CA01	09/03/2010
28023165	C03CA01	18/02/2010
16639614	C03CA01	11/05/2011
16165652	C03CA01	25/05/2011
33307085	C03CA01	12/04/2011
23329499	C03CA01	30/05/2011
16654162	C03CA01	19/10/2009
16183158	C03CA01	26/05/2009
28000274	C03CA01	29/04/2011
33288972	C03CA01	12/05/2011
33240080	C03CA01	08/06/2010
21116651	C03CA01	16/05/2011
23361804	C03CA01	24/05/2011
16636488	C03CA01	06/07/2006
16610132	C03CA01	01/06/2010
23366881	C03CA01	18/04/2011
23370714	C03CA01	23/05/2011
21106897	C03CA01	26/05/2011
20989102	C03CA01	01/02/2010
16649380	C03CA01	26/02/2007
16124109	C03CA01	03/10/2003
23410318	C03CA01	29/04/2011
18811600	C03CA01	10/03/2010
23401564	C03CA01	15/06/2005
21011848	C03CA01	17/03/2009
20989739	C03CA01	31/05/2011
16124521	C03CA01	14/04/2011
23313268	C03CA01	24/05/2011
16626226	C03CA01	09/05/2011
16684605	C03CA01	25/05/2011
16596274	C03CA01	19/05/2011
23342956	C03CA01	04/02/2011
27954341	C03CA01	04/01/2010
33313637	C03CA01	27/10/2010
16633880	C03CA01	02/07/2008
23193794	C03CA01	14/05/2011
23326417	C03CA01	24/05/2011
33307467	C03CA01	28/05/2008
23353839	C03CA01	05/05/2011
18802898	C03CA01	06/05/2010
33290109	C03CA01	16/11/2009
16124869	C03CA01	23/05/2011
23354037	C03CA01	02/01/2008
16125107	C03CA01	23/06/2006
33238515	C03CA01	26/05/2011
16604459	C03CA01	08/10/2008
16125165	C03CA01	20/05/2011
23414018	C03CA01	15/12/2008
21102604	C03CA01	25/01/2011
23381263	C03CA01	12/01/2009
28026109	C03CA01	17/06/2010
21099787	C03CA01	30/05/2011
16709056	C03CA01	30/03/2011
16684088	C03CA01	25/05/2011
20982124	C03CA01	26/04/2011
18761680	C03CA01	10/05/2011
16607575	C03CA01	23/05/2011
23381566	C03CA01	28/04/2011
16706310	C03CA01	30/01/2008
18757709	C03CA01	20/03/2007
31487753	C03CA01	26/01/2011
16622928	C03CA01	24/05/2011
23346656	C03CA01	25/11/2010
23367296	C03CA01	17/05/2011
16649316	C03CA01	25/05/2011
16640430	C03CA01	08/05/2007
21117548	C03CA01	30/05/2011
16129910	C03CA01	15/12/2008
16648158	C03CA01	02/09/2010
16127130	C03CA01	02/01/2007
16639689	C03CA01	03/09/2010
23362487	C03CA01	13/12/2006
33224201	C03CA01	01/07/2010
33204004	C03CA01	10/05/2011
23410160	C03CA01	19/05/2011
33288276	C03CA01	07/10/2010
16603341	C03CA01	19/12/2008
23332688	C03CA01	29/10/2009
21109687	C03CA01	24/05/2011
27895998	C03CA01	04/05/2011
16186784	C03CA01	12/08/2002
20985501	C03CA01	07/10/2009
20989863	C03CA01	24/08/2010
33244556	C03CA01	30/09/2003
20985559	C03CA01	19/04/2011
21102991	C03CA01	24/05/2011
23315414	C03CA01	27/08/2010
23353743	C03CA01	05/05/2011
23353940	C03CA01	18/04/2011
23353918	C03CA01	06/05/2011
33224929	C03CA01	19/05/2011
16613501	C03CA01	27/05/2011
23401244	C03CA01	04/09/2008
31590499	C03CA01	07/03/2005
31132640	C03CA01	23/06/2010
31989592	C03CA01	21/08/2009
31590290	C03CA01	20/10/2009
31284771	C03CA01	28/04/2004
32035438	C03CA01	25/05/2011
32119285	C03CA01	20/04/2006
31043924	C03CA01	26/09/2008
31217091	C03CA01	20/05/2011
31313850	C03CA01	04/01/2011
31237591	C03CA01	07/07/2009
31202352	C03CA01	14/12/2010
31451455	C03CA01	09/03/2011
31298093	C03CA01	23/11/2010
31527063	C03CA01	17/03/2010
31683932	C03CA01	14/07/2010
31053990	C03CA01	29/12/2010
31445246	C03CA01	02/10/2008
32125350	C03CA01	25/08/2009
31904660	C03CA01	21/03/2011
31446823	C03CA01	19/03/2011
31378922	C03CA01	22/12/2010
32246611	C03CA01	20/01/2011
31082542	C03CA01	21/10/2009
31126630	C03CA01	05/05/2006
31758571	C03CA01	15/03/2005
31767728	C03CA01	06/06/2007
31605404	C03CA01	22/05/2003
31934644	C03CA01	20/10/2009
32124272	C03CA01	08/03/2005
32172226	C03CA01	23/12/2010
31271455	C03CA01	15/07/2010
31160878	C03CA01	29/01/2009
31461480	C03CA01	30/11/2010
31091370	C03CA01	27/11/2006
31412335	C03CA01	25/01/2008
31472076	C03CA01	18/11/2005
31404679	C03CA01	11/08/2008
31889462	C03CA01	04/04/2005
31207975	C03CA01	28/03/2007
31374849	C03CA01	26/10/2010
31596585	C03CA01	25/07/2006
31858594	C03CA01	19/11/2009
31345157	C03CA01	06/06/2009
31561242	C03CA01	26/07/2010
32221171	C03CA01	27/05/2010
32117832	C03CA01	14/03/2005
31197084	C03CA01	15/12/2010
31862515	C03CA01	16/03/2010
31987098	C03CA01	26/11/2009
31893770	C03CA01	14/12/2009
32083242	C03CA01	26/05/2008
31381296	C03CA01	06/11/2009
32200966	C03CA01	24/03/2009
32191616	C03CA01	28/06/2007
31547195	C03CA01	19/04/2010
31877612	C03CA01	28/10/2010
31592347	C03CA01	23/11/2010
32041685	C03CA01	21/07/2003
32280643	C03CA01	06/04/2006
32218783	C03CA01	14/04/2010
32214444	C03CA01	11/06/2008
31485859	C03CA01	08/04/2011
31425005	C03CA01	02/01/2009
31873426	C03CA01	17/12/2010
31385826	C03CA01	25/02/2011
32122580	C03CA01	17/10/2008
31974767	C03CA01	24/08/2010
31219050	C03CA01	04/05/2007
31085353	C03CA01	19/05/2011
31990260	C03CA01	24/11/2006
31150657	C03CA01	16/02/2011
31445619	C03CA01	12/07/2010
31850878	C03CA01	05/07/2006
31952663	C03CA01	31/01/2008
31370288	C03CA01	24/09/2009
31066431	C03CA01	12/08/2008
31915254	C03CA01	08/10/2007
31136755	C03CA01	24/01/2011
31655762	C03CA01	06/04/2006
31259853	C03CA01	20/01/2011
31273552	C03CA01	13/08/2008
31822514	C03CA01	21/07/2008
31365988	C03CA01	20/11/2009
31641342	C03CA01	11/04/2011
31307737	C03CA01	03/11/2008
32245047	C03CA01	25/11/2008
31473113	C03CA01	26/07/2005
31225273	C03CA01	18/10/2010
31612836	C03CA01	10/11/2010
32044149	C03CA01	07/02/2011
31585879	C03CA01	29/04/2011
31535500	C03CA01	12/09/2005
31099705	C03CA01	15/04/2009
31432354	C03CA01	21/12/2010
31059046	C03CA01	01/03/2011
31916522	C03CA01	17/11/2006
32231333	C03CA01	13/05/2003
32074407	C03CA01	04/09/2009
31905886	C03CA01	13/03/2011
31136366	C03CA01	07/04/2011
31745915	C03CA01	22/12/2009
31174566	C03CA01	17/08/2007
31119407	C03CA01	14/11/2007
31166710	C03CA01	04/02/2008
32185788	C03CA01	24/03/2010
31224124	C03CA01	15/12/2010
31664650	C03CA01	29/12/2010
31959560	C03CA01	01/05/2011
31231113	C03CA01	14/08/2008
31227877	C03CA01	24/07/2006
31516496	C03CA01	03/01/2011
31156229	C03CA01	23/10/2008
31184927	C03CA01	27/08/2010
32065893	C03CA01	07/12/2007
31270706	C03CA01	21/01/2005
31652847	C03CA01	15/04/2011
31665027	C03CA01	20/06/2006
31259746	C03CA01	28/07/2009
32076252	C03CA01	22/10/2008
31054626	C03CA01	02/03/2011
31296128	C03CA01	23/08/2006
31927982	C03CA01	19/09/2007
32084821	C03CA01	06/04/2011
31767484	C03CA01	16/04/2008
31076697	C03CA01	10/12/2009
32018491	C03CA01	20/12/2010
31968363	C03CA01	10/06/2010
32100813	C03CA01	14/07/2010
32115182	C03CA01	01/03/2006
31560828	C03CA01	14/07/2009
32037940	C03CA01	14/12/2009
31097231	C03CA01	19/10/2010
31517124	C03CA01	28/12/2010
32002259	C03CA01	16/01/2006
31319783	C03CA01	03/01/2002
31682435	C03CA01	06/10/2008
31568634	C03CA01	18/04/2005
32213697	C03CA01	27/01/2009
31591754	C03CA01	29/12/2010
32084233	C03CA01	25/11/2009
32215543	C03CA01	01/03/2007
32022785	C03CA01	24/06/2005
31741824	C03CA01	12/07/2010
31369580	C03CA01	22/02/2011
31048661	C03CA01	22/05/2009
31844771	C03CA01	20/11/2008
31354097	C03CA01	06/12/2009
31959694	C03CA01	06/11/2009
31282883	C03CA01	22/12/2008
31046464	C03CA01	04/11/2010
31664100	C03CA01	10/11/2003
31081419	C03CA01	18/01/2010
31687550	C03CA01	30/01/2011
32173642	C03CA01	14/12/2009
31318539	C03CA01	15/10/2010
31492215	C03CA01	13/06/2008
31964245	C03CA01	24/11/2004
31441426	C03CA01	06/09/2007
31938768	C03CA01	07/01/2003
31831196	C03CA01	13/07/2010
31806375	C03CA01	15/11/2010
32128395	C03CA01	07/10/2004
31226791	C03CA01	12/05/2009
31797390	C03CA01	13/12/2010
31916030	C03CA01	06/09/2010
32033587	C03CA01	21/12/2009
31377253	C03CA01	24/11/2007
31653793	C03CA01	08/10/2008
31974787	C03CA01	29/09/2009
31566153	C03CA01	11/01/2011
31823040	C03CA01	18/12/2007
31843748	C03CA01	09/11/2010
31765504	C03CA01	25/11/2009
31888462	C03CA01	02/01/2009
31966120	C03CA01	02/12/2009
31105058	C03CA01	13/03/2007
31048154	C03CA01	02/06/2009
31710392	C03CA01	20/07/2010
31951124	C03CA01	25/06/2010
32194499	C03CA01	30/05/2011
31391170	C03CA01	10/12/2009
31570301	C03CA01	19/11/2009
31041581	C03CA01	08/03/2011
31766221	C03CA01	13/07/2010
31744116	C03CA01	01/12/2009
32203333	C03CA01	19/05/2010
32110892	C03CA01	03/11/2010
32197469	C03CA01	29/12/2009
31984866	C03CA01	11/04/2007
31488547	C03CA01	08/09/2010
32125428	C03CA01	28/03/2011
31761844	C03CA01	03/05/2010
31352687	C03CA01	07/12/2010
31467050	C03CA01	28/05/2010
31577402	C03CA01	04/04/2011
31746041	C03CA01	05/10/2005
31124520	C03CA01	22/12/2009
31465949	C03CA01	26/10/2010
31474342	C03CA01	07/09/2010
31346856	C03CA01	07/06/2007
31417692	C03CA01	15/11/2010
32141776	C03CA01	10/03/2011
31174190	C03CA01	28/10/2010
31419290	C03CA01	07/02/2011
32236449	C03CA01	21/08/2007
32236750	C03CA01	03/01/2007
31883127	C03CA01	19/11/2009
31055196	C03CA01	13/03/2003
31765514	C03CA01	23/07/2009
31704070	C03CA01	19/09/2010
31672769	C03CA01	30/11/2010
31415742	C03CA01	06/04/2011
32014902	C03CA01	17/04/2007
31164925	C03CA01	15/12/2009
31153085	C03CA01	30/06/2006
32008235	C03CA01	16/03/2007
31569396	C03CA01	10/12/2008
32258288	C03CA01	14/11/2007
32168133	C03CA01	24/07/2008
31901788	C03CA01	08/02/2006
31405567	C03CA01	19/11/2007
31791803	C03CA01	04/06/2007
31537972	C03CA01	16/06/2004
31894664	C03CA01	26/06/2007
32232978	C03CA01	16/12/2009
31923732	C03CA01	03/11/2009
31711216	C03CA01	13/02/2010
31826783	C03CA01	26/03/2011
32231943	C03CA01	30/07/2004
31577491	C03CA01	28/10/2009
31430347	C03CA01	10/06/2009
32068625	C03CA01	10/03/2011
31942616	C03CA01	07/04/2011
32172413	C03CA01	02/07/2003
32103625	C03CA01	22/06/2009
31339822	C03CA01	17/12/2009
31219593	C03CA01	11/11/2010
32189793	C03CA01	09/08/2010
31693651	C03CA01	20/01/2011
31927125	C03CA01	19/12/2007
32013543	C03CA01	30/06/2008
31265348	C03CA01	19/10/2009
32135671	C03CA01	20/10/2005
31256796	C03CA01	28/10/2010
31084479	C03CA01	02/12/2008
31097872	C03CA01	13/10/2004
31632832	C03CA01	13/06/2007
32270655	C03CA01	02/02/2011
31096124	C03CA01	03/01/2011
31400190	C03CA01	20/07/2010
31311199	C03CA01	28/12/2005
31304181	C03CA01	10/10/2010
31563177	C03CA01	13/06/2003
31705386	C03CA01	12/11/2007
32015901	C03CA01	27/06/2005
31741523	C03CA01	17/05/2011
31429454	C03CA01	08/06/2006
32136461	C03CA01	06/03/2011
31075969	C03CA01	06/04/2006
31292816	C03CA01	13/12/2010
31333613	C03CA01	17/11/2005
31881754	C03CA01	11/12/2008
31282685	C03CA01	09/05/2011
31217806	C03CA01	10/06/2005
31331146	C03CA01	15/12/2005
32278300	C03CA01	11/07/2003
31925538	C03CA01	14/10/2008
31809617	C03CA01	27/04/2004
31487065	C03CA01	17/06/2009
31813066	C03CA01	18/12/2009
31213814	C03CA01	25/09/2008
31909032	C03CA01	10/03/2006
32226138	C03CA01	02/02/2011
31944943	C03CA01	02/12/2010
31625423	C03CA01	03/09/2007
32205231	C03CA01	09/03/2011
31140632	C03CA01	14/12/2009
31632371	C03CA01	09/05/2007
31068631	C03CA01	21/10/2008
31457699	C03CA01	06/02/2011
31848757	C03CA01	10/11/2010
31960354	C03CA01	14/10/2010
31787887	C03CA01	18/05/2006
31822263	C03CA01	10/07/2008
31725976	C03CA01	26/05/2006
31244108	C03CA01	31/08/2007
32211844	C03CA01	25/08/2005
31110042	C03CA01	05/06/2007
32150782	C03CA01	17/03/2011
31195123	C03CA01	28/10/2010
31436600	C03CA01	15/12/2008
31085609	C03CA01	06/07/2006
32142008	C03CA01	27/05/2011
32263832	C03CA01	07/10/2002
31344355	C03CA01	24/05/2007
31556912	C03CA01	13/07/2010
32206935	C03CA01	28/02/2011
32125738	C03CA01	17/12/2007
31933747	C03CA01	15/12/2010
31756059	C03CA01	01/06/2007
31735125	C03CA01	02/03/2011
31699160	C03CA01	30/12/2008
31538206	C03CA01	28/12/2009
32129489	C03CA01	24/10/2003
32271150	C03CA01	15/11/2010
31104559	C03CA01	13/12/2007
31688187	C03CA01	20/03/2011
31420857	C03CA01	02/08/2010
31092882	C03CA01	27/02/2008
31150444	C03CA01	15/07/2010
31997385	C03CA01	10/12/2008
31049205	C03CA01	12/06/2009
31696583	C03CA01	29/01/2009
31049917	C03CA01	12/11/2003
31426144	C03CA01	21/10/2010
31083826	C03CA01	16/06/2006
31081424	C03CA01	15/07/2008
32090185	C03CA01	08/02/2006
31733512	C03CA01	22/01/2007
31929829	C03CA01	30/04/2011
32154430	C03CA01	21/05/2007
31449578	C03CA01	05/10/2005
31853795	C03CA01	11/08/2010
32234308	C03CA01	13/12/2009
31452945	C03CA01	20/09/2006
31180408	C03CA01	05/04/2011
32120883	C03CA01	21/03/2011
31404878	C03CA01	16/06/2009
31486375	C03CA01	06/11/2007
31645396	C03CA01	16/02/2006
31419804	C03CA01	25/07/2003
32274498	C03CA01	13/12/2007
32122599	C03CA01	01/05/2011
31608836	C03CA01	27/12/2010
31905297	C03CA01	02/03/2011
32237490	C03CA01	17/10/2007
31057360	C03CA01	30/08/2002
31152637	C03CA01	16/11/2007
32072112	C03CA01	05/01/2001
31561607	C03CA01	26/02/2008
31940613	C03CA01	30/06/2010
31049512	C03CA01	13/04/2007
32026900	C03CA01	23/11/2009
31768146	C03CA01	24/02/2003
32011511	C03CA01	15/03/2011
31703712	C03CA01	29/12/2006
