patient_id	covar_name	date
21156478	C05CA05	07/04/2011
9984973	C05CA05	24/11/2003
9293874	C05CA05	08/07/2005
5022326	C05CA05	19/07/2010
8555445	C05CA05	06/06/2006
9339067	C05CA05	18/07/2007
10001720	C05CA05	08/07/2009
9319944	C05CA05	20/08/2009
16977223	C05CA05	30/01/2007
9212274	C05CA05	09/07/2007
3289024	C05CA05	13/05/2009
1936765	C05CA05	08/04/2005
9213437	C05CA05	22/07/2008
9213970	C05CA05	09/09/2010
10713520	C05CA05	31/05/2011
17174935	C05CA05	18/05/2007
9372898	C05CA05	22/12/2003
948258	C05CA05	24/06/2010
6153914	C05CA05	07/10/2008
16977801	C05CA05	20/04/2011
6887925	C05CA05	10/02/2009
1125167	C05CA05	14/03/2011
8561394	C05CA05	03/11/2010
23442823	C05CA05	29/09/2008
21806340	C05CA05	11/05/2011
8654983	C05CA05	06/05/2011
1063691	C05CA05	27/05/2010
8569306	C05CA05	16/02/2011
703443	C05CA05	17/08/2006
945347	C05CA05	10/09/2004
9212813	C05CA05	25/03/2008
6746814	C05CA05	03/03/2004
12790379	C05CA05	22/05/2008
942576	C05CA05	06/07/2005
6417619	C05CA05	15/06/2010
8307927	C05CA05	08/01/2008
10270612	C05CA05	06/02/2008
15427499	C05CA05	12/01/2004
17175863	C05CA05	16/08/2010
13986519	C05CA05	24/04/2002
16977110	C05CA05	30/07/2010
1424358	C05CA05	03/03/2004
4412916	C05CA05	26/05/2011
9889795	C05CA05	03/11/2009
8932068	C05CA05	23/02/2010
645707	C05CA05	11/05/2011
647834	C05CA05	30/09/2009
24941050	C05CA05	02/09/2008
7970930	C05CA05	14/12/2005
564634	C05CA05	06/07/2009
7770911	C05CA05	04/10/2005
7971640	C05CA05	12/11/2008
1546096	C05CA05	14/09/2004
7972411	C05CA05	09/06/2010
7966732	C05CA05	18/04/2007
7849372	C05CA05	07/05/2008
7964334	C05CA05	07/03/2008
674519	C05CA05	22/08/2005
6595079	C05CA05	21/07/2008
7838720	C05CA05	13/03/2011
4381496	C05CA05	05/05/2011
1203312	C05CA05	10/07/2007
1352463	C05CA05	08/07/2009
12613436	C05CA05	11/06/2003
1669715	C05CA05	25/02/2003
18142516	C05CA05	30/06/2010
6603802	C05CA05	16/06/2009
7970589	C05CA05	03/03/2009
7966834	C05CA05	22/11/2005
5991623	C05CA05	25/10/2006
13986535	C05CA05	22/11/2006
1349535	C05CA05	10/08/2007
641313	C05CA05	20/07/2004
7771619	C05CA05	05/12/2006
647222	C05CA05	04/11/2010
1265194	C05CA05	25/04/2011
1198913	C05CA05	01/10/2003
1349470	C05CA05	26/03/2009
1355892	C05CA05	20/02/2006
6599963	C05CA05	10/12/2007
1262006	C05CA05	28/05/2004
525263	C05CA05	23/08/2002
6592750	C05CA05	04/07/2006
6333747	C05CA05	10/09/2010
6378838	C05CA05	25/06/2008
7966714	C05CA05	19/05/2009
7769677	C05CA05	14/01/2003
7967744	C05CA05	30/08/2005
6425452	C05CA05	18/07/2003
18365866	C05CA05	22/08/2007
1212257	C05CA05	14/02/2011
1850819	C05CA05	16/06/2008
25248948	C05CA05	18/12/2007
26145283	C05CA05	17/02/2010
639029	C05CA05	03/05/2011
6375936	C05CA05	28/03/2011
7966257	C05CA05	19/03/2009
648547	C05CA05	27/06/2002
8357140	C05CA05	16/05/2008
2552474	C05CA05	09/06/2005
7783154	C05CA05	29/09/2010
4700277	C05CA05	15/02/2010
1425026	C05CA05	17/07/2009
25883724	C05CA05	22/07/2008
1132264	C05CA05	30/07/2004
7967487	C05CA05	16/10/2007
5989041	C05CA05	31/07/2009
1103491	C05CA05	09/08/2010
1638022	C05CA05	25/11/2004
25904628	C05CA05	24/03/2008
1134735	C05CA05	28/05/2009
25768791	C05CA05	04/09/2003
1102090	C05CA05	02/05/2006
995675	C05CA05	04/06/2007
1135310	C05CA05	11/08/2003
1638896	C05CA05	26/03/2003
890246	C05CA05	04/05/2011
1101989	C05CA05	12/05/2006
1640338	C05CA05	15/09/2006
890201	C05CA05	23/05/2011
1065365	C05CA05	14/03/2007
25751393	C05CA05	05/04/2011
715906	C05CA05	14/10/2005
25908066	C05CA05	16/08/2004
2136921	C05CA05	17/05/2010
2035752	C05CA05	09/08/2002
2040852	C05CA05	05/10/2004
859110	C05CA05	18/07/2006
874441	C05CA05	18/03/2003
3053306	C05CA05	08/04/2011
2759226	C05CA05	29/09/2004
3053847	C05CA05	20/07/2009
903911	C05CA05	03/06/2003
7037584	C05CA05	29/12/2003
859599	C05CA05	11/06/2008
1679643	C05CA05	07/02/2005
2773905	C05CA05	17/05/2010
3052879	C05CA05	29/12/2010
3577747	C05CA05	06/10/2010
3052617	C05CA05	15/07/2010
2780055	C05CA05	01/12/2004
2773960	C05CA05	26/09/2006
2520770	C05CA05	23/02/2006
18471721	C05CA05	24/05/2011
26260880	C05CA05	28/05/2008
18223470	C05CA05	16/12/2008
26237160	C05CA05	19/04/2011
22497799	C05CA05	21/12/2007
7137260	C05CA05	13/12/2005
26244401	C05CA05	03/07/2008
17742312	C05CA05	07/05/2010
26258038	C05CA05	01/12/2003
26243853	C05CA05	25/08/2010
16980576	C05CA05	02/06/2009
7130045	C05CA05	06/11/2003
650010	C05CA05	10/06/2010
1912146	C05CA05	09/01/2009
187572	C05CA05	16/06/2006
423754	C05CA05	19/05/2006
307239	C05CA05	27/01/2010
2244430	C05CA05	27/05/2011
306607	C05CA05	30/05/2011
187884	C05CA05	21/09/2004
3053216	C05CA05	13/05/2008
3054239	C05CA05	05/11/2004
28080690	C05CA05	15/04/2011
1753843	C05CA05	18/04/2011
2778926	C05CA05	13/12/2010
28079828	C05CA05	24/05/2007
462688	C05CA05	16/07/2003
424822	C05CA05	21/05/2003
306134	C05CA05	01/12/2008
186094	C05CA05	07/10/2009
187189	C05CA05	07/07/2003
427372	C05CA05	28/05/2001
28080808	C05CA05	15/06/2010
187861	C05CA05	14/07/2006
427053	C05CA05	11/09/2008
305231	C05CA05	05/04/2011
265148	C05CA05	30/03/2004
28072376	C05CA05	23/04/2001
28053779	C05CA05	16/07/2010
28080744	C05CA05	01/01/2011
28057599	C05CA05	13/01/2004
28043342	C05CA05	01/06/2011
24666302	C05CA05	19/12/2006
24669451	C05CA05	10/12/2004
25648817	C05CA05	07/11/2007
25649322	C05CA05	31/05/2010
24666863	C05CA05	02/03/2011
24666868	C05CA05	24/10/2002
25741980	C05CA05	23/08/2006
25742680	C05CA05	23/05/2011
25743607	C05CA05	23/08/2005
25742512	C05CA05	13/12/2004
24655154	C05CA05	21/07/2006
25746656	C05CA05	10/04/2008
25740545	C05CA05	23/07/2008
421960	C05CA05	03/05/2011
1021057	C05CA05	02/02/2010
421963	C05CA05	21/03/2011
1361706	C05CA05	08/12/2004
1371015	C05CA05	04/07/2003
422231	C05CA05	22/09/1999
21063153	C05CA05	23/10/2006
16840863	C05CA05	20/02/2009
20070622	C05CA05	07/08/2007
19803579	C05CA05	14/08/2006
18196118	C05CA05	26/07/2005
18196192	C05CA05	12/05/2005
18197591	C05CA05	21/12/2010
19801596	C05CA05	06/05/2003
18193951	C05CA05	21/09/2009
2249632	C05CA05	04/03/2010
8049938	C05CA05	24/04/2011
1368824	C05CA05	24/08/2001
1015435	C05CA05	13/11/2006
26629409	C05CA05	09/09/2009
26636839	C05CA05	10/01/2011
26778674	C05CA05	08/07/2008
26790332	C05CA05	17/05/2011
26625877	C05CA05	10/06/2009
26856605	C05CA05	25/10/2010
26858878	C05CA05	03/07/2008
26620101	C05CA05	22/10/2009
12974196	C05CA05	11/01/2008
10769974	C05CA05	21/11/2008
12976349	C05CA05	07/10/2008
13873963	C05CA05	09/01/2008
12975349	C05CA05	24/12/2007
26635661	C05CA05	08/04/2010
16843515	C05CA05	29/04/2011
26625814	C05CA05	21/02/2008
26616636	C05CA05	31/05/2008
22883516	C05CA05	07/01/2011
24655486	C05CA05	02/06/2003
24667198	C05CA05	08/01/2005
24581359	C05CA05	15/10/2004
22922776	C05CA05	09/09/2009
24495200	C05CA05	10/02/2004
22882688	C05CA05	05/09/2003
26917078	C05CA05	18/12/2002
26942273	C05CA05	17/08/2003
26959720	C05CA05	19/04/2007
26917635	C05CA05	24/06/2005
26946278	C05CA05	07/10/2008
26889893	C05CA05	29/07/2005
26949743	C05CA05	08/09/2005
26938632	C05CA05	07/04/2006
26963443	C05CA05	14/03/2007
26784601	C05CA05	06/05/2011
26715824	C05CA05	24/05/2006
26730108	C05CA05	24/05/2006
26730135	C05CA05	09/02/2011
26721927	C05CA05	26/01/2008
26780127	C05CA05	22/05/2006
26758983	C05CA05	11/12/2007
26888222	C05CA05	03/09/2007
26900308	C05CA05	10/12/2008
26846476	C05CA05	21/05/2011
26859472	C05CA05	01/09/2005
26872947	C05CA05	21/04/2005
26855158	C05CA05	23/03/2009
26801395	C05CA05	23/02/2011
26742253	C05CA05	23/02/2011
27044460	C05CA05	27/05/2011
26976383	C05CA05	23/05/2011
26955265	C05CA05	11/10/2006
27034247	C05CA05	14/08/2003
26972708	C05CA05	19/02/2010
26977407	C05CA05	29/04/2003
26973565	C05CA05	03/02/2006
26980893	C05CA05	30/07/2003
27080149	C05CA05	28/05/2011
27113773	C05CA05	03/07/2007
27110583	C05CA05	30/08/2005
27112272	C05CA05	29/12/2010
27128741	C05CA05	05/05/2003
27113644	C05CA05	27/02/2004
27116163	C05CA05	31/03/2006
27150951	C05CA05	15/06/2006
27061141	C05CA05	17/01/2006
27043480	C05CA05	08/08/2006
27031739	C05CA05	07/02/2003
27043827	C05CA05	16/03/2006
27074929	C05CA05	09/10/2008
27078801	C05CA05	11/08/2006
27042240	C05CA05	29/07/2003
27042092	C05CA05	18/05/2006
27026487	C05CA05	17/09/2003
27000566	C05CA05	19/09/2006
26993286	C05CA05	30/05/2011
27358740	C05CA05	04/08/2008
27348961	C05CA05	13/03/2009
27170364	C05CA05	29/06/2009
27170821	C05CA05	07/07/2009
27248578	C05CA05	14/12/2004
27167505	C05CA05	16/04/2009
27349231	C05CA05	04/11/2010
27243228	C05CA05	20/06/2003
27200406	C05CA05	20/05/2005
27233568	C05CA05	01/09/2003
27233681	C05CA05	11/06/2007
27305367	C05CA05	02/07/2007
27353939	C05CA05	24/03/2010
27317716	C05CA05	24/07/2008
27232875	C05CA05	24/07/2006
26999501	C05CA05	17/10/2007
26999943	C05CA05	16/03/2006
27242588	C05CA05	20/11/2003
26957237	C05CA05	20/05/2010
27579610	C05CA05	09/09/2005
27578349	C05CA05	31/05/2011
27579016	C05CA05	19/07/2005
27571038	C05CA05	26/07/2004
27576845	C05CA05	08/06/2010
27577722	C05CA05	20/07/2007
27648485	C05CA05	05/12/2001
27623983	C05CA05	14/04/2008
27633300	C05CA05	04/10/2007
27661768	C05CA05	13/08/2007
27481175	C05CA05	25/03/2011
27474179	C05CA05	14/10/2010
27473960	C05CA05	26/05/2011
27476748	C05CA05	12/04/2005
27639633	C05CA05	12/01/2005
27414845	C05CA05	22/07/2005
27481473	C05CA05	05/12/2007
27716882	C05CA05	13/02/2007
27717185	C05CA05	07/01/2011
27707973	C05CA05	20/05/2011
27764873	C05CA05	16/05/2011
27763475	C05CA05	04/08/2010
27631405	C05CA05	26/06/2006
27166783	C05CA05	08/04/2009
27292071	C05CA05	21/09/2007
27230589	C05CA05	28/06/2005
27164250	C05CA05	12/08/2010
27284226	C05CA05	15/06/2007
27154137	C05CA05	31/01/2011
27143273	C05CA05	04/09/2009
27785549	C05CA05	27/05/2008
16104517	C05CA05	22/05/2011
27244772	C05CA05	03/03/2008
27252613	C05CA05	01/08/2001
26962557	C05CA05	13/08/2007
26915531	C05CA05	30/03/2004
27781142	C05CA05	20/07/2006
27539673	C05CA05	30/11/2004
27667420	C05CA05	15/03/2010
27686849	C05CA05	22/06/2005
27530889	C05CA05	13/03/2006
27767877	C05CA05	24/05/2011
301444	C05CA05	05/12/2003
27361147	C05CA05	11/12/2009
26998273	C05CA05	23/06/2008
26972390	C05CA05	15/11/2006
27674082	C05CA05	14/03/2008
27024856	C05CA05	09/05/2011
27682341	C05CA05	03/11/2005
27198984	C05CA05	18/07/2008
27508678	C05CA05	14/11/2000
27633578	C05CA05	30/05/2011
27470250	C05CA05	20/05/2011
27496739	C05CA05	09/04/2008
27648180	C05CA05	17/05/2011
27459328	C05CA05	29/03/2011
27457853	C05CA05	28/03/2008
27623685	C05CA05	24/04/2006
27574050	C05CA05	03/02/2011
27529553	C05CA05	02/08/2010
26933407	C05CA05	22/08/2007
26628258	C05CA05	16/06/2010
27591242	C05CA05	20/04/2011
19799771	C05CA05	21/03/2006
22883469	C05CA05	10/03/2005
12993306	C05CA05	09/04/2001
27805384	C05CA05	17/10/2008
26760247	C05CA05	02/02/2010
27809277	C05CA05	05/05/2009
27716276	C05CA05	29/06/2010
27707606	C05CA05	11/01/2010
27668939	C05CA05	21/09/2001
27799100	C05CA05	10/04/2006
27662207	C05CA05	26/08/2003
27694886	C05CA05	23/12/2009
27811534	C05CA05	04/07/2007
27668986	C05CA05	22/05/2008
27719027	C05CA05	12/11/2004
26777332	C05CA05	21/08/2009
27072072	C05CA05	18/03/2009
26642896	C05CA05	16/10/2007
27565622	C05CA05	28/04/2006
26895907	C05CA05	16/10/2006
27309041	C05CA05	25/05/2011
27797057	C05CA05	30/07/2010
26933091	C05CA05	05/10/2007
27764778	C05CA05	31/05/2004
27794198	C05CA05	08/09/2004
27759993	C05CA05	22/05/2007
27664782	C05CA05	23/07/2010
27040858	C05CA05	23/07/2004
27608037	C05CA05	01/02/2005
27663355	C05CA05	26/05/2010
27799572	C05CA05	25/03/2008
27072544	C05CA05	29/05/2011
27168190	C05CA05	07/12/2010
27358783	C05CA05	26/11/2009
27811520	C05CA05	05/05/2004
27163507	C05CA05	21/07/2007
33085564	C05CA05	31/07/2008
33011602	C05CA05	04/05/2011
33089459	C05CA05	25/10/2010
33044195	C05CA05	22/07/2008
33001039	C05CA05	09/08/2010
33116686	C05CA05	27/03/2006
33080281	C05CA05	02/11/2010
33047339	C05CA05	10/04/2008
33050773	C05CA05	26/03/2007
33072464	C05CA05	26/10/2010
33006134	C05CA05	16/05/2006
33073771	C05CA05	05/03/2002
33071618	C05CA05	06/10/2010
33084983	C05CA05	04/02/2003
33096415	C05CA05	23/06/2009
33012294	C05CA05	04/09/2007
33005545	C05CA05	08/02/2010
27798304	C05CA05	14/09/2005
420958	C05CA05	21/12/1998
183728	C05CA05	25/03/2004
27812443	C05CA05	09/05/2006
27800569	C05CA05	21/09/2007
27798157	C05CA05	13/01/2011
27668753	C05CA05	08/06/2004
28036104	C05CA05	16/05/2011
27934485	C05CA05	03/05/2011
21114673	C05CA05	16/07/2007
16603312	C05CA05	28/11/2008
23382045	C05CA05	13/01/2011
16185833	C05CA05	18/01/2006
33046012	C05CA05	07/01/2005
33313101	C05CA05	10/05/2011
16612746	C05CA05	22/06/2010
33012908	C05CA05	18/11/2010
33053391	C05CA05	30/05/2002
33020580	C05CA05	27/09/2005
33029343	C05CA05	08/10/2010
33090933	C05CA05	04/11/2009
33049405	C05CA05	03/01/2006
33034590	C05CA05	14/06/2007
33050169	C05CA05	01/03/2005
33048842	C05CA05	05/04/2011
33100039	C05CA05	09/05/2011
33089335	C05CA05	27/04/2005
33061115	C05CA05	30/08/2005
33030474	C05CA05	23/06/2003
33055038	C05CA05	30/04/2008
33066033	C05CA05	10/12/2009
33073437	C05CA05	18/04/2006
33039051	C05CA05	29/04/2011
33201120	C05CA05	18/06/2003
16596794	C05CA05	25/10/2006
23407899	C05CA05	12/09/2008
21109661	C05CA05	18/11/2003
27985054	C05CA05	29/09/2009
21109139	C05CA05	06/10/2003
33207606	C05CA05	27/04/2010
16596009	C05CA05	20/05/2011
16615306	C05CA05	06/10/2010
16596474	C05CA05	12/08/2008
16636866	C05CA05	09/05/2011
16611242	C05CA05	01/10/2003
21115010	C05CA05	04/04/2011
16165687	C05CA05	21/12/2010
16611189	C05CA05	07/08/2007
33308527	C05CA05	11/09/2007
28013389	C05CA05	14/03/2011
23382344	C05CA05	20/02/2009
33313715	C05CA05	06/05/2011
28029025	C05CA05	13/08/2010
16654162	C05CA05	11/05/2011
16619951	C05CA05	18/06/2004
16615437	C05CA05	14/07/2008
33210334	C05CA05	03/05/2011
16139405	C05CA05	03/11/2003
16165721	C05CA05	25/07/2005
16598187	C05CA05	04/09/2003
16610043	C05CA05	08/06/2010
16684605	C05CA05	27/08/2004
16634039	C05CA05	18/02/2011
23409483	C05CA05	20/07/2006
14187360	C05CA05	27/06/2005
23396615	C05CA05	29/12/2003
16633880	C05CA05	14/04/2011
23193794	C05CA05	25/06/2001
16621667	C05CA05	10/01/2007
23402116	C05CA05	17/05/2006
28000688	C05CA05	27/01/2011
23350072	C05CA05	13/12/2005
16640187	C05CA05	02/07/2004
33264434	C05CA05	07/01/2011
23381566	C05CA05	12/05/2011
16684190	C05CA05	19/06/2006
16606808	C05CA05	18/01/2006
27984060	C05CA05	06/03/2008
21114699	C05CA05	13/10/2009
33266891	C05CA05	21/01/2009
31654280	C05CA05	03/12/2009
23336001	C05CA05	28/03/2011
16598677	C05CA05	04/01/2007
16181768	C05CA05	02/04/2004
21111787	C05CA05	04/10/2005
16187323	C05CA05	20/05/2011
16712464	C05CA05	15/09/2003
33297266	C05CA05	26/05/2011
16616453	C05CA05	07/11/2005
16138495	C05CA05	22/12/2007
21110370	C05CA05	30/03/2010
23402803	C05CA05	13/10/2005
20987135	C05CA05	15/11/2010
20989863	C05CA05	19/07/2010
27954891	C05CA05	04/08/2009
23315414	C05CA05	29/04/2008
20987322	C05CA05	19/06/2006
16166274	C05CA05	21/10/2010
23402322	C05CA05	22/08/2005
21110578	C05CA05	14/07/2009
31969136	C05CA05	14/03/2007
32035438	C05CA05	25/05/2011
31946667	C05CA05	28/05/2011
31297945	C05CA05	02/10/2009
32168227	C05CA05	20/06/2008
31210288	C05CA05	31/08/2009
32103440	C05CA05	08/09/2006
31634372	C05CA05	20/07/2010
31420742	C05CA05	08/08/2006
31044569	C05CA05	13/10/2006
31195972	C05CA05	22/06/2009
31309703	C05CA05	24/05/2011
31699444	C05CA05	24/01/2011
31766536	C05CA05	27/10/2004
31101780	C05CA05	07/03/2008
31835091	C05CA05	24/08/2005
32118467	C05CA05	29/06/2007
32091340	C05CA05	26/05/2008
32041685	C05CA05	29/09/2003
31266359	C05CA05	12/12/2003
31374114	C05CA05	14/06/2007
31757950	C05CA05	30/08/2006
31352577	C05CA05	25/08/2008
31673616	C05CA05	10/06/2010
32085028	C05CA05	22/03/2010
32169695	C05CA05	11/09/2006
31306892	C05CA05	09/07/2002
31704498	C05CA05	31/08/2005
31685282	C05CA05	14/09/2007
31774623	C05CA05	13/06/2006
31216186	C05CA05	29/05/2007
31259396	C05CA05	08/10/2007
31614153	C05CA05	11/06/2003
32009136	C05CA05	18/06/2002
32244371	C05CA05	17/06/2009
31501413	C05CA05	12/12/2008
31091242	C05CA05	13/10/2005
31515324	C05CA05	01/04/2005
31503228	C05CA05	27/07/2004
31804458	C05CA05	18/06/2008
31448523	C05CA05	13/12/2005
31767974	C05CA05	04/05/2006
31319812	C05CA05	02/02/2006
31697525	C05CA05	23/09/2008
32204377	C05CA05	20/12/2009
32182821	C05CA05	18/10/2005
32102604	C05CA05	16/07/2008
31190295	C05CA05	24/05/2006
31778667	C05CA05	18/06/2004
31166024	C05CA05	29/04/2003
32154308	C05CA05	31/08/2004
32083170	C05CA05	15/06/2004
31995370	C05CA05	07/09/2007
32198464	C05CA05	26/10/2005
31885037	C05CA05	16/06/2008
31516751	C05CA05	01/02/2007
31794135	C05CA05	09/09/2005
31502904	C05CA05	02/06/2009
31459814	C05CA05	03/01/2006
32090511	C05CA05	28/05/2003
31730497	C05CA05	11/12/2008
31227615	C05CA05	04/04/2005
32226916	C05CA05	02/08/2005
31405567	C05CA05	21/04/2004
31537972	C05CA05	09/10/2003
31171608	C05CA05	04/05/2005
31988729	C05CA05	05/02/2004
32172413	C05CA05	20/01/2005
31499812	C05CA05	23/12/2009
31797031	C05CA05	06/02/2006
31819996	C05CA05	06/04/2006
31951116	C05CA05	30/08/2006
32007468	C05CA05	05/06/2007
31927125	C05CA05	11/08/2006
31141797	C05CA05	05/10/2004
31470090	C05CA05	08/09/2004
32081369	C05CA05	11/02/2009
31181702	C05CA05	24/05/2005
31563177	C05CA05	15/07/2003
31559202	C05CA05	18/03/2005
31462204	C05CA05	14/08/2006
31330377	C05CA05	02/02/2007
32256945	C05CA05	02/02/2007
31612837	C05CA05	20/12/2005
31614550	C05CA05	06/04/2011
31811710	C05CA05	04/07/2007
32079324	C05CA05	21/03/2007
31512689	C05CA05	31/10/2007
32155126	C05CA05	04/07/2008
31847445	C05CA05	26/11/2004
32198903	C05CA05	24/06/2010
31465993	C05CA05	21/09/2001
31513128	C05CA05	27/10/2000
32163177	C05CA05	20/09/2006
31606385	C05CA05	02/12/2008
31759943	C05CA05	03/07/2001
31819179	C05CA05	04/12/2007
31400737	C05CA05	19/01/2005
32223564	C05CA05	19/09/2008
31360336	C05CA05	25/08/2010
32281526	C05CA05	29/10/2008
31559291	C05CA05	11/07/2005
32241011	C05CA05	06/04/2011
31601005	C05CA05	18/07/2006
32105280	C05CA05	31/07/2007
32090185	C05CA05	15/06/2006
31733512	C05CA05	07/04/2011
31797525	C05CA05	11/08/2008
31361941	C05CA05	05/10/2007
31452945	C05CA05	02/01/2004
31907204	C05CA05	20/09/2002
31217504	C05CA05	18/08/2010
32205678	C05CA05	10/11/2010
31675341	C05CA05	11/07/2003
