patient_id	covar_name	date
18220509	D01AC10	09/05/2008
15061286	D01AC10	13/10/2010
6178601	D01AC10	19/07/2007
21806479	D01AC10	15/03/2010
8976283	D01AC10	25/10/2000
3121934	D01AC10	08/03/2007
1069458	D01AC10	20/09/2004
14133505	D01AC10	09/09/2009
1162228	D01AC10	30/06/2008
6179140	D01AC10	18/02/2010
2944017	D01AC10	17/04/2008
9319944	D01AC10	16/07/2010
600971	D01AC10	07/05/2008
16559016	D01AC10	28/04/2010
9230590	D01AC10	08/02/2011
9230608	D01AC10	09/03/2006
9210152	D01AC10	03/05/2010
8653236	D01AC10	07/06/2010
12773101	D01AC10	03/07/2003
3117787	D01AC10	05/06/2001
740425	D01AC10	07/04/2006
3332633	D01AC10	05/06/2008
9250589	D01AC10	21/10/2008
16416856	D01AC10	02/07/2010
10245771	D01AC10	29/07/2005
3118751	D01AC10	24/04/2007
21871596	D01AC10	28/09/2005
63163	D01AC10	31/05/2000
22537806	D01AC10	08/09/2009
9382262	D01AC10	29/12/2010
9135448	D01AC10	03/11/2003
945122	D01AC10	26/04/2001
740820	D01AC10	10/12/2004
9294528	D01AC10	08/06/2006
3119036	D01AC10	20/09/2002
10394089	D01AC10	11/10/2010
10246659	D01AC10	27/06/2003
19228281	D01AC10	10/10/2008
9134282	D01AC10	31/01/2001
10292664	D01AC10	20/05/2011
9376584	D01AC10	16/09/2008
9347267	D01AC10	06/05/2005
9310256	D01AC10	19/09/2007
9323777	D01AC10	04/04/2008
23454398	D01AC10	15/04/2009
9284806	D01AC10	10/12/2007
6751810	D01AC10	24/03/2009
7406249	D01AC10	29/06/2007
9211278	D01AC10	10/12/2003
60897	D01AC10	23/01/2007
24721032	D01AC10	10/12/2009
1546365	D01AC10	19/12/2003
1445557	D01AC10	16/08/2006
1320092	D01AC10	05/10/2006
17932194	D01AC10	22/10/2007
7966670	D01AC10	07/07/2010
1546390	D01AC10	07/11/2002
647177	D01AC10	24/06/2010
1351403	D01AC10	11/04/2006
7966882	D01AC10	12/04/2005
1171764	D01AC10	08/04/2008
6597633	D01AC10	03/01/2007
1546702	D01AC10	14/09/2001
516372	D01AC10	22/09/2009
1545758	D01AC10	13/06/2005
1443647	D01AC10	30/07/2008
524498	D01AC10	22/08/2002
8933284	D01AC10	16/08/2006
6604047	D01AC10	05/08/2008
565116	D01AC10	19/05/2008
1276998	D01AC10	14/05/2011
639892	D01AC10	04/07/2001
638786	D01AC10	13/07/2009
7782943	D01AC10	17/09/2002
4700483	D01AC10	30/07/2008
6600842	D01AC10	11/01/2001
24718581	D01AC10	01/03/2007
1443076	D01AC10	30/03/2011
26139217	D01AC10	16/06/2010
6367124	D01AC10	10/10/2007
24942041	D01AC10	27/08/2002
5727446	D01AC10	21/08/2008
639360	D01AC10	21/08/2007
24719270	D01AC10	29/04/2009
1850140	D01AC10	23/05/2003
7781663	D01AC10	18/11/2010
1206818	D01AC10	01/09/2009
1262707	D01AC10	02/10/2001
1378713	D01AC10	10/11/2000
1417323	D01AC10	11/12/2009
8934613	D01AC10	04/06/2009
7966509	D01AC10	24/02/2005
6596858	D01AC10	31/03/2006
7849145	D01AC10	20/10/2010
1379495	D01AC10	26/05/2010
1091283	D01AC10	07/08/2007
26145283	D01AC10	08/01/2004
525618	D01AC10	14/06/2010
1278011	D01AC10	09/01/2009
7776373	D01AC10	22/04/2010
1204177	D01AC10	03/01/2007
1849472	D01AC10	15/09/2008
4700277	D01AC10	17/04/2006
1276680	D01AC10	29/12/2006
641129	D01AC10	29/07/2010
997043	D01AC10	26/10/2006
717570	D01AC10	25/06/2001
1204367	D01AC10	31/07/2007
996337	D01AC10	14/09/2009
1638191	D01AC10	19/12/2005
1102247	D01AC10	08/03/2010
6492632	D01AC10	04/03/2008
1102090	D01AC10	01/02/2010
994631	D01AC10	12/07/2005
1103355	D01AC10	28/10/2009
6914096	D01AC10	28/01/2003
5987342	D01AC10	29/08/2007
1101830	D01AC10	05/02/2007
25775652	D01AC10	06/10/2008
1102919	D01AC10	17/11/2008
1134187	D01AC10	10/05/2011
1578341	D01AC10	06/09/2005
996393	D01AC10	17/09/2009
996350	D01AC10	11/08/2010
1108899	D01AC10	23/03/2006
2218302	D01AC10	27/07/2010
2218925	D01AC10	20/11/2003
2053983	D01AC10	20/04/2011
878003	D01AC10	10/10/2008
904362	D01AC10	16/01/2008
757284	D01AC10	10/07/2003
757536	D01AC10	11/08/2003
905655	D01AC10	03/09/2009
2038784	D01AC10	16/10/2002
904619	D01AC10	24/04/2001
2758263	D01AC10	28/02/2008
860367	D01AC10	29/03/2011
1766657	D01AC10	13/07/2010
7045933	D01AC10	29/08/2007
3052049	D01AC10	13/05/2009
3052992	D01AC10	29/07/2010
3048795	D01AC10	11/12/2003
2778447	D01AC10	31/05/2007
2780055	D01AC10	01/07/2008
3052081	D01AC10	31/03/2008
2574919	D01AC10	03/09/2004
2522213	D01AC10	02/09/2009
2756961	D01AC10	12/01/2009
15660220	D01AC10	25/01/2010
2525520	D01AC10	16/03/2010
26442673	D01AC10	29/04/2009
26423791	D01AC10	06/10/2006
26411039	D01AC10	21/04/2008
28041472	D01AC10	19/07/2006
7229636	D01AC10	12/07/2004
18471263	D01AC10	10/05/2006
17219331	D01AC10	25/04/2007
7048780	D01AC10	15/04/2009
17744421	D01AC10	10/09/2008
26336631	D01AC10	23/04/2009
26462196	D01AC10	13/02/2007
26454075	D01AC10	23/08/2005
26454330	D01AC10	18/07/2005
16980703	D01AC10	27/11/2008
650010	D01AC10	24/05/2011
1903000	D01AC10	10/05/2007
650061	D01AC10	27/02/2007
650187	D01AC10	13/06/2007
180748	D01AC10	13/11/2008
6572603	D01AC10	23/03/2004
3053216	D01AC10	30/03/2005
28085809	D01AC10	19/12/2005
2525880	D01AC10	27/01/2006
28084179	D01AC10	14/09/2000
28078299	D01AC10	06/10/2010
2754223	D01AC10	28/06/2006
184353	D01AC10	02/10/2007
186102	D01AC10	17/03/2011
180341	D01AC10	29/07/2008
434399	D01AC10	22/06/2006
874613	D01AC10	06/05/2011
28071539	D01AC10	21/01/2011
28072902	D01AC10	17/05/2007
28066044	D01AC10	09/07/2001
28072766	D01AC10	16/05/2011
28045890	D01AC10	07/08/2006
24663852	D01AC10	17/02/2006
24670887	D01AC10	17/04/2011
25740369	D01AC10	20/10/2008
1362938	D01AC10	04/03/2010
1371178	D01AC10	07/05/2010
178537	D01AC10	14/11/2007
21063690	D01AC10	17/07/2008
1360800	D01AC10	02/10/2006
1370780	D01AC10	05/07/1999
1361853	D01AC10	04/09/2002
18189725	D01AC10	02/12/2008
21063127	D01AC10	16/08/2005
18189507	D01AC10	10/02/2009
18197179	D01AC10	14/05/2010
18197975	D01AC10	15/12/2010
19788236	D01AC10	30/10/2009
18196192	D01AC10	12/05/2005
18197591	D01AC10	09/01/2004
25726964	D01AC10	03/11/2010
1904935	D01AC10	30/03/2001
12994122	D01AC10	17/01/2008
1904472	D01AC10	19/02/2001
1361578	D01AC10	20/02/2007
1017307	D01AC10	23/05/2006
1015295	D01AC10	09/11/2010
26724039	D01AC10	12/07/2004
16105832	D01AC10	20/12/2006
12975499	D01AC10	21/04/2006
16104391	D01AC10	21/10/2005
16842013	D01AC10	09/03/2011
16105473	D01AC10	11/01/2007
9025807	D01AC10	27/05/2009
11608839	D01AC10	09/02/2010
26724456	D01AC10	01/09/2003
8419678	D01AC10	18/05/2009
14310870	D01AC10	13/05/2004
16843515	D01AC10	28/05/2008
26720520	D01AC10	26/10/2005
22621949	D01AC10	22/11/1999
21062984	D01AC10	18/05/2010
21651799	D01AC10	13/08/2001
22883329	D01AC10	23/07/2003
26935805	D01AC10	13/01/2007
26932901	D01AC10	03/05/2006
26936433	D01AC10	07/06/2006
26889844	D01AC10	25/05/2005
26932452	D01AC10	17/03/2009
26878576	D01AC10	17/12/2004
26716000	D01AC10	04/03/2011
26848964	D01AC10	14/04/2011
26776105	D01AC10	29/11/2006
26887048	D01AC10	10/03/2008
26948825	D01AC10	19/06/2009
26947752	D01AC10	27/04/2009
26963062	D01AC10	23/08/2005
26882035	D01AC10	10/01/2005
26883508	D01AC10	22/10/2007
26888601	D01AC10	08/10/2007
26784075	D01AC10	10/05/2005
26783758	D01AC10	24/04/2009
26976959	D01AC10	28/03/2006
26947328	D01AC10	18/07/2007
26977323	D01AC10	01/02/2006
27034247	D01AC10	18/01/2005
26939942	D01AC10	29/03/2006
26939961	D01AC10	13/06/2006
26976896	D01AC10	28/02/2008
27086481	D01AC10	09/09/2010
27132865	D01AC10	12/01/2010
27133317	D01AC10	22/03/2005
27078255	D01AC10	29/08/2007
27065167	D01AC10	09/09/2005
27072298	D01AC10	04/07/2007
27031269	D01AC10	29/11/2006
27072046	D01AC10	19/08/2009
27055530	D01AC10	01/04/2009
27040517	D01AC10	19/05/2003
27042033	D01AC10	16/07/2003
27041821	D01AC10	24/08/2009
27039592	D01AC10	08/10/2004
27004599	D01AC10	29/06/2007
27041488	D01AC10	25/03/2004
27024702	D01AC10	29/11/2002
27346535	D01AC10	11/02/2009
27216624	D01AC10	09/04/2010
27348600	D01AC10	04/10/2010
27389505	D01AC10	25/05/2007
27380334	D01AC10	24/05/2010
27314992	D01AC10	28/07/2010
27254109	D01AC10	03/01/2007
27197994	D01AC10	27/07/2004
27238138	D01AC10	19/06/2009
27246351	D01AC10	25/02/2005
27352971	D01AC10	17/01/2008
27210678	D01AC10	19/04/2011
27386232	D01AC10	11/09/2010
27300731	D01AC10	13/09/2006
27389275	D01AC10	15/12/2006
27366113	D01AC10	14/03/2006
27320945	D01AC10	20/11/2003
27528322	D01AC10	23/12/2010
27352130	D01AC10	05/11/2008
27390428	D01AC10	09/05/2011
27251102	D01AC10	11/04/2011
27253371	D01AC10	25/08/2005
27199256	D01AC10	12/11/2004
26976230	D01AC10	22/06/2004
27198035	D01AC10	27/07/2005
27389100	D01AC10	21/11/2006
27253481	D01AC10	29/03/2010
26970330	D01AC10	26/07/2005
27592082	D01AC10	03/03/2009
27657757	D01AC10	19/06/2006
27606288	D01AC10	07/10/2003
27589421	D01AC10	21/10/2005
27641028	D01AC10	07/02/2007
27481161	D01AC10	04/05/2010
27427591	D01AC10	26/03/2003
27472835	D01AC10	11/07/2006
27453600	D01AC10	12/08/2008
27477710	D01AC10	03/06/2008
27551559	D01AC10	16/12/2004
27763547	D01AC10	13/09/2010
27565857	D01AC10	10/12/2004
27563178	D01AC10	17/08/2004
27571153	D01AC10	28/10/2008
27571164	D01AC10	22/01/2010
27147564	D01AC10	27/02/2007
27153665	D01AC10	23/05/2011
27144212	D01AC10	24/09/2004
27148558	D01AC10	29/09/2008
27138764	D01AC10	29/01/2002
27144708	D01AC10	17/07/2007
27138370	D01AC10	11/12/2008
27151886	D01AC10	26/09/2008
27250372	D01AC10	22/06/2001
27167562	D01AC10	09/07/2010
26975914	D01AC10	17/06/2010
26835049	D01AC10	25/11/2010
24579212	D01AC10	17/03/2009
27106720	D01AC10	22/04/2009
27458870	D01AC10	06/11/2008
27772101	D01AC10	02/04/2008
27684664	D01AC10	28/06/2006
27673317	D01AC10	26/04/2011
27663566	D01AC10	23/12/2002
27515560	D01AC10	10/08/2010
27666501	D01AC10	29/07/2005
27369999	D01AC10	10/08/2010
27664493	D01AC10	29/07/2008
27685053	D01AC10	14/05/2011
27513536	D01AC10	27/04/2011
27449496	D01AC10	14/09/2004
27530452	D01AC10	16/02/2009
27480346	D01AC10	01/08/2007
26895421	D01AC10	19/05/2006
27074467	D01AC10	03/02/2009
27214891	D01AC10	01/10/2008
1361526	D01AC10	10/06/2008
27809251	D01AC10	25/02/2011
27762253	D01AC10	08/09/2006
27668986	D01AC10	22/12/2003
27682885	D01AC10	11/11/2008
26730671	D01AC10	26/06/2006
27667214	D01AC10	30/05/2011
27473418	D01AC10	27/02/2007
428276	D01AC10	22/08/2002
27115901	D01AC10	08/10/2009
27534054	D01AC10	27/10/2010
19800992	D01AC10	24/06/2003
23484255	D01AC10	03/01/2007
26874199	D01AC10	04/03/2009
27708406	D01AC10	16/06/2009
27716352	D01AC10	18/05/2010
13497915	D01AC10	07/12/2010
27663355	D01AC10	29/06/2005
27233694	D01AC10	14/04/2010
27799572	D01AC10	16/12/2004
27445518	D01AC10	16/05/2011
27358783	D01AC10	31/08/2009
27806850	D01AC10	02/09/2010
27783644	D01AC10	21/10/2010
33028364	D01AC10	14/08/2007
33106189	D01AC10	17/05/2010
33068127	D01AC10	20/05/2004
33092896	D01AC10	04/12/2007
33073987	D01AC10	01/06/2009
33083573	D01AC10	30/01/2006
33026002	D01AC10	06/07/2007
33062433	D01AC10	22/01/2010
33013922	D01AC10	18/11/2009
33068754	D01AC10	03/04/2008
33111724	D01AC10	15/04/2008
33095931	D01AC10	24/08/2007
33114892	D01AC10	23/05/2007
33098674	D01AC10	30/08/2005
33067037	D01AC10	06/09/2005
33020304	D01AC10	07/08/2008
33073796	D01AC10	07/10/2008
33060211	D01AC10	14/01/2011
33080535	D01AC10	09/05/2011
33067653	D01AC10	04/11/2005
33071989	D01AC10	05/05/2010
33113250	D01AC10	16/12/2008
27539988	D01AC10	02/03/2009
33002823	D01AC10	06/05/2008
16567941	D01AC10	25/11/2010
16177914	D01AC10	30/11/2007
23408879	D01AC10	18/06/2010
33251505	D01AC10	13/02/2002
33046870	D01AC10	27/03/2007
33066631	D01AC10	30/03/2011
33099222	D01AC10	13/06/2005
33063405	D01AC10	14/01/2005
33085572	D01AC10	17/07/2008
33103405	D01AC10	28/04/2011
33078108	D01AC10	21/10/2009
33104378	D01AC10	08/05/2008
33020543	D01AC10	22/01/2010
33107252	D01AC10	12/12/2000
33088156	D01AC10	25/08/2010
33113513	D01AC10	12/11/2008
33096009	D01AC10	18/11/2005
33030998	D01AC10	01/10/2009
33008928	D01AC10	14/11/2007
33006515	D01AC10	11/07/2007
16169331	D01AC10	11/01/2008
33288622	D01AC10	24/01/2008
18743061	D01AC10	09/12/2009
28034806	D01AC10	17/06/2008
33293731	D01AC10	03/07/2006
16705925	D01AC10	14/06/2001
28022563	D01AC10	29/11/2008
16774278	D01AC10	23/03/2010
33235478	D01AC10	10/06/2008
28000658	D01AC10	13/05/2011
33201165	D01AC10	16/04/2010
18768802	D01AC10	17/04/2008
16615437	D01AC10	03/06/2009
16636746	D01AC10	13/07/2007
16168742	D01AC10	06/07/2000
23354990	D01AC10	26/05/2011
21106382	D01AC10	08/01/2008
23337014	D01AC10	21/02/2006
23401470	D01AC10	25/01/2007
16124111	D01AC10	09/04/2002
23402651	D01AC10	19/02/2007
16634787	D01AC10	29/05/2007
27856112	D01AC10	01/03/2007
16135365	D01AC10	29/11/2007
16178928	D01AC10	16/07/2009
23402359	D01AC10	09/10/2006
23354092	D01AC10	30/01/2008
23402116	D01AC10	04/12/2009
23401641	D01AC10	12/11/2007
23410691	D01AC10	07/02/2011
28021159	D01AC10	25/02/2010
23366435	D01AC10	16/06/2009
23398442	D01AC10	08/04/2008
16773532	D01AC10	04/05/2009
18756020	D01AC10	03/06/2009
23410208	D01AC10	23/07/2010
33246892	D01AC10	03/01/2008
33310506	D01AC10	08/05/2009
21114237	D01AC10	18/09/2007
21108093	D01AC10	01/04/2011
23402322	D01AC10	18/10/2007
16124383	D01AC10	04/05/2004
31353235	D01AC10	19/04/2007
31522402	D01AC10	22/02/2006
32217710	D01AC10	13/09/2006
31857691	D01AC10	08/02/2011
31771316	D01AC10	11/08/2006
31547137	D01AC10	14/07/2008
31130879	D01AC10	29/08/2008
31364257	D01AC10	30/06/2009
31715055	D01AC10	09/09/2005
31085149	D01AC10	10/09/2008
31160878	D01AC10	29/01/2009
31043915	D01AC10	24/06/2008
32250774	D01AC10	22/05/2009
32245244	D01AC10	05/02/2008
31816975	D01AC10	11/10/2006
31051545	D01AC10	06/02/2007
31770667	D01AC10	13/02/2007
32206140	D01AC10	07/07/2006
31217153	D01AC10	21/01/2005
32214444	D01AC10	15/12/2004
31471872	D01AC10	02/11/2009
31217679	D01AC10	06/07/2007
32097844	D01AC10	08/06/2005
31239496	D01AC10	29/03/2004
31632896	D01AC10	29/07/2003
31591969	D01AC10	18/03/2008
32256122	D01AC10	18/07/2006
31365988	D01AC10	06/06/2008
31109367	D01AC10	19/07/2004
31345121	D01AC10	11/10/2010
31099804	D01AC10	25/11/2009
31299767	D01AC10	21/05/2010
31565451	D01AC10	27/02/2004
31311414	D01AC10	22/03/2005
32009136	D01AC10	15/07/2005
31079325	D01AC10	09/07/2008
32244371	D01AC10	20/05/2008
31450325	D01AC10	11/10/2010
31440390	D01AC10	15/06/2007
31218008	D01AC10	08/11/2002
31862157	D01AC10	01/02/2007
31232500	D01AC10	25/09/2003
31469565	D01AC10	04/06/2008
31294189	D01AC10	20/04/2005
31443115	D01AC10	28/05/2003
31841286	D01AC10	09/03/2007
32259841	D01AC10	20/10/2005
31678786	D01AC10	21/04/2005
31672323	D01AC10	02/04/2007
31735021	D01AC10	27/02/2007
32094579	D01AC10	15/10/2004
31421234	D01AC10	25/03/2002
31974787	D01AC10	24/08/2010
31908324	D01AC10	11/03/2009
32208244	D01AC10	12/09/2005
31235124	D01AC10	30/01/2006
31532514	D01AC10	23/01/2009
32077523	D01AC10	30/11/2005
31876637	D01AC10	20/10/2009
32044352	D01AC10	04/06/2009
32084009	D01AC10	31/03/2004
31036566	D01AC10	09/12/2002
31813777	D01AC10	27/11/2009
32008235	D01AC10	04/12/2009
31539806	D01AC10	28/09/2009
31445349	D01AC10	27/05/2009
32269608	D01AC10	22/09/2008
31503301	D01AC10	23/09/2009
32185819	D01AC10	11/01/2011
32004779	D01AC10	20/04/2009
32038162	D01AC10	17/12/2008
31357291	D01AC10	20/01/2009
31391258	D01AC10	21/09/2005
31439367	D01AC10	07/06/2006
32281133	D01AC10	02/02/2011
31054169	D01AC10	08/09/2008
31774644	D01AC10	28/04/2006
31333613	D01AC10	24/04/2007
32127700	D01AC10	13/11/2008
31587944	D01AC10	04/08/2008
31217806	D01AC10	19/12/2007
31949691	D01AC10	28/09/2007
32023838	D01AC10	05/07/2007
31578601	D01AC10	14/11/2002
31417912	D01AC10	20/02/2006
31649659	D01AC10	08/07/2008
31182961	D01AC10	05/08/2009
31055921	D01AC10	17/01/2007
31221154	D01AC10	20/09/2005
31088911	D01AC10	10/09/2009
32154430	D01AC10	16/01/2006
32190434	D01AC10	18/05/2006
31376996	D01AC10	19/09/2005
32283093	D01AC10	05/09/2008
31566637	D01AC10	02/02/2010
31352604	D01AC10	30/07/2007
31703712	D01AC10	20/07/2007
