patient_id	covar_name	date
8279988	DESRET	22/09/2009
25041739	DESRET	03/10/2003
5035573	DESRET	17/01/2006
5865400	DESRET	14/01/2008
6752622	DESRET	21/02/2001
3328189	DESRET	30/09/2002
9376383	DESRET	28/04/2005
1301536	DESRET	15/07/2003
1062835	DESRET	08/01/2010
3118580	DESRET	01/06/1999
12781655	DESRET	26/02/2008
16559866	DESRET	10/09/2004
5814208	DESRET	20/05/2010
3501336	DESRET	26/10/2007
25062059	DESRET	06/02/2004
8582719	DESRET	16/05/2002
6596593	DESRET	11/06/2001
514774	DESRET	01/06/2004
1669715	DESRET	26/10/2006
8956082	DESRET	09/11/2010
1665781	DESRET	08/11/2010
7848528	DESRET	18/09/2008
2164170	DESRET	02/10/2009
2216143	DESRET	16/06/2008
2070277	DESRET	28/10/2010
904017	DESRET	21/05/2010
7037977	DESRET	14/06/2010
902908	DESRET	03/11/2005
7079280	DESRET	03/12/2007
2756861	DESRET	11/09/2007
28054433	DESRET	09/06/1994
26425372	DESRET	17/11/2000
17323329	DESRET	24/04/2008
16836654	DESRET	18/03/2008
28090931	DESRET	31/01/2003
418315	DESRET	10/07/1985
28053640	DESRET	04/05/1985
28046661	DESRET	01/01/2002
25742330	DESRET	21/07/2010
1361706	DESRET	17/11/2008
18196862	DESRET	16/04/1977
1366577	DESRET	05/02/2008
12974190	DESRET	12/07/2010
24655486	DESRET	09/06/1997
26936258	DESRET	02/06/2004
26916046	DESRET	10/04/2003
26871932	DESRET	09/11/1990
26896693	DESRET	15/03/2010
26794775	DESRET	11/12/2006
26968149	DESRET	01/10/1998
27113813	DESRET	25/06/2007
27043665	DESRET	23/11/2004
27038352	DESRET	27/02/2002
27004288	DESRET	18/06/2002
27040193	DESRET	14/02/2005
27388795	DESRET	19/03/1952
27304473	DESRET	13/07/2009
27317311	DESRET	19/09/2008
27347663	DESRET	15/06/2006
27253729	DESRET	28/01/2004
27249580	DESRET	30/10/2001
26957779	DESRET	20/11/2007
26955105	DESRET	09/02/1996
27247445	DESRET	05/06/1935
27234368	DESRET	28/02/2007
27481473	DESRET	07/04/2010
27647658	DESRET	09/05/2007
27284502	DESRET	11/04/2005
27144944	DESRET	23/05/2007
27160272	DESRET	21/09/2004
27152530	DESRET	31/05/2011
26720527	DESRET	30/01/2006
27775658	DESRET	25/02/2002
27546527	DESRET	12/09/2003
27237186	DESRET	03/05/2010
28109573	DESRET	01/02/1987
27794774	DESRET	14/09/2009
27574464	DESRET	13/05/2010
27283919	DESRET	01/01/1992
33017862	DESRET	19/02/2010
33018895	DESRET	26/10/2000
33054043	DESRET	21/11/2003
27796872	DESRET	08/06/2004
180195	DESRET	21/05/2008
33027073	DESRET	13/02/2002
33286375	DESRET	01/01/1975
28005379	DESRET	17/04/2002
28018909	DESRET	23/05/2008
16639518	DESRET	04/12/2002
21114699	DESRET	01/01/1998
32105305	DESRET	11/09/1984
23349702	DESRET	18/01/2005
23316314	DESRET	01/04/2001
31284771	DESRET	15/06/2010
31179449	DESRET	25/04/2007
31338329	DESRET	03/02/2006
31202352	DESRET	24/09/2008
32056911	DESRET	01/01/1995
31061895	DESRET	04/09/2003
31756119	DESRET	06/05/2009
31507970	DESRET	04/06/2009
32194913	DESRET	22/04/2010
31336940	DESRET	02/02/2007
31492015	DESRET	11/04/2006
31582998	DESRET	22/02/2006
31822514	DESRET	01/01/1998
31136366	DESRET	14/07/2000
31397441	DESRET	18/04/2006
31234429	DESRET	26/09/2008
31754896	DESRET	23/08/2010
31203582	DESRET	08/09/2000
32260330	DESRET	20/04/2011
31298511	DESRET	01/01/1997
31081419	DESRET	19/04/2002
32182197	DESRET	10/05/2011
31221423	DESRET	09/06/2009
31303279	DESRET	09/03/2006
31944102	DESRET	07/07/2009
31553886	DESRET	01/02/2010
31274163	DESRET	16/07/2007
32199849	DESRET	06/09/2004
31538716	DESRET	30/09/2008
31459814	DESRET	01/12/2006
31936343	DESRET	11/03/2011
31555309	DESRET	01/04/2011
31254441	DESRET	13/09/1994
31333700	DESRET	30/03/2008
31244823	DESRET	10/03/2008
31995343	DESRET	02/12/2005
31562269	DESRET	17/01/1985
31427896	DESRET	07/03/2008
31608584	DESRET	15/03/2006
31309958	DESRET	02/12/2004
32042863	DESRET	12/11/2009
32220018	DESRET	21/10/2009
31727392	DESRET	07/01/1992
31206884	DESRET	16/12/1999
31927385	DESRET	18/12/2008
31721691	DESRET	19/02/2004
