patient_id	covar_name	date
24721664	D01AC01	06/05/2005
1939199	D01AC01	09/02/2006
12694596	D01AC01	09/08/2004
1163347	D01AC01	03/12/2004
21372644	D01AC01	25/05/2006
10270713	D01AC01	10/01/2011
10270337	D01AC01	26/04/2011
8700093	D01AC01	04/01/2008
8990080	D01AC01	11/03/2008
1122942	D01AC01	30/11/2005
12352244	D01AC01	29/01/2009
3332631	D01AC01	25/04/2003
3330849	D01AC01	17/05/2011
960050	D01AC01	16/06/2006
8570357	D01AC01	11/09/2008
21859577	D01AC01	31/03/2009
20557831	D01AC01	02/09/2010
15427808	D01AC01	24/11/2009
8975780	D01AC01	02/12/2009
1607811	D01AC01	18/05/2011
5812962	D01AC01	11/02/2004
10604795	D01AC01	16/05/2011
25054487	D01AC01	31/10/2007
12478383	D01AC01	17/07/2006
24950976	D01AC01	22/06/2006
9376033	D01AC01	31/01/2006
12760945	D01AC01	24/03/2008
12689003	D01AC01	08/02/2005
25050947	D01AC01	20/05/2008
23454734	D01AC01	27/04/2011
3304084	D01AC01	17/03/2005
10002116	D01AC01	22/12/2006
10268484	D01AC01	18/05/2011
10269371	D01AC01	16/11/2010
9996391	D01AC01	17/04/2008
208481	D01AC01	26/03/2007
9995013	D01AC01	24/09/2009
5813371	D01AC01	27/07/2004
701674	D01AC01	10/10/2007
132608	D01AC01	14/08/2008
736933	D01AC01	13/07/2009
24763673	D01AC01	01/10/2007
61487	D01AC01	03/01/2011
9383747	D01AC01	30/12/2010
3550782	D01AC01	23/12/2010
12694724	D01AC01	11/08/2010
9340428	D01AC01	08/10/2007
9339121	D01AC01	23/01/2006
11407938	D01AC01	04/12/2006
1069458	D01AC01	06/04/2005
14133505	D01AC01	26/04/2002
5566098	D01AC01	25/02/2008
9300271	D01AC01	08/03/2006
11661106	D01AC01	01/06/2007
9385544	D01AC01	10/07/2006
16977131	D01AC01	11/12/2007
21370773	D01AC01	02/08/2004
22918279	D01AC01	20/02/2009
8555445	D01AC01	25/10/2007
20565112	D01AC01	26/07/2002
9298951	D01AC01	15/01/2010
7094806	D01AC01	23/11/2007
9388796	D01AC01	28/06/2006
24938794	D01AC01	20/08/2007
13297333	D01AC01	25/09/2009
5029028	D01AC01	16/08/2006
9390097	D01AC01	13/01/2004
1547786	D01AC01	31/03/2010
10394401	D01AC01	06/07/2010
3332699	D01AC01	27/11/2007
10394066	D01AC01	17/12/2008
10603970	D01AC01	24/06/2009
9618221	D01AC01	03/07/2009
9356877	D01AC01	03/08/2010
9984797	D01AC01	01/03/2010
12479828	D01AC01	10/08/2006
948728	D01AC01	29/05/2008
949778	D01AC01	26/01/2011
9319944	D01AC01	02/08/2004
729812	D01AC01	16/08/2007
16436795	D01AC01	17/09/2008
6748364	D01AC01	03/12/2004
14224014	D01AC01	28/01/2010
10268577	D01AC01	13/11/2003
9323502	D01AC01	12/09/2007
9299562	D01AC01	13/04/2007
25083443	D01AC01	27/09/2005
9208920	D01AC01	11/08/2008
1122381	D01AC01	14/11/2008
12696447	D01AC01	02/09/2005
5814094	D01AC01	31/03/2010
12299958	D01AC01	05/05/2009
9129511	D01AC01	31/10/2003
600971	D01AC01	11/02/2011
10001715	D01AC01	09/01/2009
9311828	D01AC01	14/06/2004
7353549	D01AC01	28/02/2011
12695112	D01AC01	04/04/2006
20564553	D01AC01	11/11/2010
10245464	D01AC01	11/08/2008
21247608	D01AC01	17/12/2010
9319745	D01AC01	07/01/2010
6748141	D01AC01	13/02/2008
9376347	D01AC01	14/10/2010
605455	D01AC01	30/12/2010
12767057	D01AC01	29/08/2008
12689625	D01AC01	12/05/2010
20530770	D01AC01	17/03/2009
8784987	D01AC01	04/05/2005
21152856	D01AC01	15/07/2010
21370724	D01AC01	09/12/2005
6244710	D01AC01	11/02/2005
25042794	D01AC01	09/03/2011
8277865	D01AC01	18/08/2005
1940419	D01AC01	27/10/2004
12765872	D01AC01	24/02/2009
12765373	D01AC01	04/10/2006
21153344	D01AC01	27/04/2005
10271445	D01AC01	20/02/2009
731010	D01AC01	11/06/2003
1162950	D01AC01	08/07/2008
960978	D01AC01	24/05/2006
6888824	D01AC01	08/09/2009
18712955	D01AC01	03/02/2011
13860873	D01AC01	01/12/2008
8556820	D01AC01	18/04/2007
12763150	D01AC01	28/11/2005
3285416	D01AC01	20/01/2009
12766880	D01AC01	22/11/2010
9382357	D01AC01	27/03/2006
15425469	D01AC01	02/03/2007
12857056	D01AC01	02/02/2005
8653236	D01AC01	04/07/2007
7094087	D01AC01	07/01/2009
12858003	D01AC01	31/10/2005
3331087	D01AC01	09/05/2007
1937110	D01AC01	09/06/2010
608864	D01AC01	06/08/2010
9136395	D01AC01	23/03/2011
17172841	D01AC01	01/10/2010
13222335	D01AC01	03/01/2008
3120764	D01AC01	19/06/2007
25062478	D01AC01	25/10/2004
12187014	D01AC01	19/12/2008
19089604	D01AC01	27/01/2011
9371860	D01AC01	09/07/2003
12791017	D01AC01	15/03/2005
21880168	D01AC01	14/03/2011
10268936	D01AC01	03/11/2010
11661551	D01AC01	27/06/2008
9339219	D01AC01	22/07/2010
9996304	D01AC01	19/01/2009
12558256	D01AC01	14/07/2008
17369684	D01AC01	06/04/2010
1069020	D01AC01	21/06/2005
13222163	D01AC01	08/10/2003
15425387	D01AC01	14/05/2009
18628876	D01AC01	10/05/2011
8977983	D01AC01	30/04/2010
11994782	D01AC01	03/09/2009
17173163	D01AC01	25/05/2009
25053827	D01AC01	09/05/2011
9301728	D01AC01	26/05/2005
1162828	D01AC01	07/09/2009
9178923	D01AC01	15/07/2009
5029306	D01AC01	30/10/2007
23471462	D01AC01	09/08/2010
9328263	D01AC01	26/03/2009
10265749	D01AC01	25/07/2006
12185241	D01AC01	14/05/2009
7405626	D01AC01	02/09/2005
1940928	D01AC01	16/05/2007
1163865	D01AC01	01/09/2006
8278064	D01AC01	03/02/2004
9299339	D01AC01	06/09/2007
60678	D01AC01	08/05/2003
9250225	D01AC01	16/11/2004
9374294	D01AC01	17/10/2007
15668328	D01AC01	05/08/2005
9274459	D01AC01	25/04/2007
12857013	D01AC01	26/05/2011
18574282	D01AC01	06/04/2010
25041900	D01AC01	22/05/2009
12830610	D01AC01	15/10/2008
173517	D01AC01	12/01/2010
1731389	D01AC01	24/02/2011
12690467	D01AC01	21/09/2009
12857478	D01AC01	12/06/2003
8567599	D01AC01	11/05/2006
15273153	D01AC01	24/05/2011
3502435	D01AC01	22/04/2010
12731063	D01AC01	22/07/2008
25071721	D01AC01	22/06/2010
947879	D01AC01	26/09/2005
1941438	D01AC01	19/04/2005
731313	D01AC01	25/03/2008
732283	D01AC01	05/12/2007
1725994	D01AC01	19/01/2007
12737954	D01AC01	14/01/2008
7219676	D01AC01	08/02/2010
6745339	D01AC01	16/01/2006
12779686	D01AC01	02/01/2008
1938185	D01AC01	21/04/2009
1063691	D01AC01	12/04/2007
9299262	D01AC01	05/04/2011
12790442	D01AC01	24/02/2006
20910320	D01AC01	15/10/2010
22537806	D01AC01	07/09/2010
21152296	D01AC01	24/06/2009
13932477	D01AC01	09/12/2010
8981631	D01AC01	13/09/2010
1936084	D01AC01	09/02/2010
8277777	D01AC01	02/03/2007
12739599	D01AC01	19/06/2008
1939880	D01AC01	16/07/2009
12689596	D01AC01	29/11/2010
609301	D01AC01	13/12/2004
12831650	D01AC01	14/10/2010
1069551	D01AC01	02/02/2004
2622526	D01AC01	11/07/2007
9315447	D01AC01	30/11/2009
6745501	D01AC01	09/05/2011
15383965	D01AC01	23/02/2010
7353457	D01AC01	28/10/2009
8569306	D01AC01	24/08/2005
945122	D01AC01	07/11/2002
9284324	D01AC01	02/06/2008
7093427	D01AC01	06/05/2005
1069126	D01AC01	23/04/2008
25067015	D01AC01	10/03/2010
15900996	D01AC01	22/07/2008
7221375	D01AC01	03/05/2010
59836	D01AC01	05/07/2004
24950927	D01AC01	10/09/2010
732722	D01AC01	30/08/2005
63586	D01AC01	09/11/2009
11993361	D01AC01	23/01/2008
20546500	D01AC01	03/05/2011
9294528	D01AC01	18/05/2004
3303065	D01AC01	19/05/2008
12184885	D01AC01	18/05/2009
7160936	D01AC01	02/04/2009
8558830	D01AC01	08/07/2008
9210548	D01AC01	28/07/2008
7352379	D01AC01	18/08/2008
9375496	D01AC01	05/08/2003
8975417	D01AC01	31/07/2009
6756901	D01AC01	05/06/2008
697976	D01AC01	22/11/2004
8987413	D01AC01	22/02/2002
10830941	D01AC01	15/10/2007
12688652	D01AC01	02/12/2009
8573896	D01AC01	21/10/2008
7246149	D01AC01	31/05/2007
9225853	D01AC01	22/07/2008
10246462	D01AC01	14/07/2010
16671540	D01AC01	28/04/2010
9386360	D01AC01	08/04/2011
10246618	D01AC01	08/06/2009
8654015	D01AC01	14/03/2007
3328312	D01AC01	19/07/2004
10394089	D01AC01	29/05/2009
24729376	D01AC01	26/02/2003
736944	D01AC01	01/07/2009
10003982	D01AC01	03/11/2008
10604423	D01AC01	08/06/2009
12771458	D01AC01	03/10/2005
18707874	D01AC01	27/04/2007
8787103	D01AC01	19/03/2007
947196	D01AC01	27/07/2009
10270807	D01AC01	22/02/2007
9212325	D01AC01	12/05/2009
8702733	D01AC01	18/03/2008
12782238	D01AC01	29/06/2009
9213577	D01AC01	17/01/2007
6080455	D01AC01	30/12/2005
12173508	D01AC01	22/08/2007
3331547	D01AC01	01/03/2007
3126302	D01AC01	12/01/2007
10148015	D01AC01	20/07/2009
12765626	D01AC01	04/11/2010
19153820	D01AC01	07/07/2009
23471643	D01AC01	16/03/2011
9376584	D01AC01	02/02/2007
939363	D01AC01	29/08/2008
1069269	D01AC01	21/01/2008
20545893	D01AC01	19/01/2010
293300	D01AC01	10/09/2009
8655470	D01AC01	31/08/2005
207178	D01AC01	31/08/2010
8278414	D01AC01	23/08/2004
21153008	D01AC01	01/12/2010
20529755	D01AC01	15/03/2011
5814208	D01AC01	23/12/2003
25059790	D01AC01	29/12/2009
1467007	D01AC01	12/07/2003
12771544	D01AC01	03/11/2010
9231830	D01AC01	15/10/2003
10331912	D01AC01	14/05/2007
12738190	D01AC01	27/08/2010
12763456	D01AC01	30/11/2009
730718	D01AC01	25/03/2011
8979392	D01AC01	19/08/2005
294007	D01AC01	04/02/2005
9213036	D01AC01	26/02/2009
11661691	D01AC01	18/08/2004
8569720	D01AC01	13/06/2008
944486	D01AC01	28/06/2007
173217	D01AC01	23/06/2004
12738517	D01AC01	29/03/2011
9285381	D01AC01	27/09/2006
3122616	D01AC01	19/09/2007
6707615	D01AC01	02/06/2009
9302747	D01AC01	21/04/2009
6235148	D01AC01	19/03/2007
12765089	D01AC01	13/12/2005
19179544	D01AC01	07/08/2007
3301140	D01AC01	16/09/2005
8988574	D01AC01	30/09/2008
3332130	D01AC01	27/06/2007
12478643	D01AC01	24/01/2008
9283784	D01AC01	10/11/2008
6751810	D01AC01	22/05/2006
8570744	D01AC01	05/09/2008
8654951	D01AC01	12/01/2007
19179478	D01AC01	13/06/2007
9385419	D01AC01	12/06/2008
7406249	D01AC01	27/05/2011
24938954	D01AC01	19/05/2008
1516973	D01AC01	28/03/2007
13376234	D01AC01	02/12/2009
944821	D01AC01	14/02/2005
21644622	D01AC01	05/02/2003
10331626	D01AC01	11/03/2010
22013417	D01AC01	25/03/2011
7968770	D01AC01	05/07/2003
538826	D01AC01	22/11/2010
1417325	D01AC01	16/12/2010
673940	D01AC01	18/04/2007
515932	D01AC01	24/11/2009
1204392	D01AC01	05/06/2009
6602956	D01AC01	20/06/2005
6601579	D01AC01	08/02/2002
1446158	D01AC01	05/03/2010
1849585	D01AC01	24/08/2006
6601109	D01AC01	01/09/2006
7797621	D01AC01	18/10/2005
641127	D01AC01	10/01/2011
1321382	D01AC01	24/05/2007
1276114	D01AC01	08/06/2009
16272983	D01AC01	15/01/2010
404928	D01AC01	13/05/2009
1851987	D01AC01	13/03/2007
13986597	D01AC01	27/01/2004
1261356	D01AC01	21/04/2008
13380477	D01AC01	28/04/2010
1444433	D01AC01	30/04/2004
7800178	D01AC01	23/02/2006
645707	D01AC01	22/11/2010
6593022	D01AC01	12/06/2006
25448782	D01AC01	07/07/2006
1353177	D01AC01	09/02/2000
6603667	D01AC01	28/02/2007
1297038	D01AC01	09/12/2005
1200287	D01AC01	05/05/2005
1350325	D01AC01	24/08/2000
1351403	D01AC01	10/08/2007
1849374	D01AC01	03/02/2011
1545773	D01AC01	24/11/2005
7771238	D01AC01	09/09/2010
648114	D01AC01	29/05/2006
7963931	D01AC01	06/04/2008
6596593	D01AC01	03/05/2006
1276395	D01AC01	22/04/2009
1350474	D01AC01	19/09/2009
1203945	D01AC01	13/09/2010
6841374	D01AC01	09/05/2008
1853552	D01AC01	03/02/2011
1852312	D01AC01	04/06/2010
1853230	D01AC01	24/04/2007
6597633	D01AC01	21/11/2005
7231434	D01AC01	22/07/2008
640828	D01AC01	23/01/2007
1546096	D01AC01	06/05/2004
8955480	D01AC01	07/09/2006
1353338	D01AC01	30/07/2009
26144152	D01AC01	23/07/2009
1353807	D01AC01	17/08/2004
7848224	D01AC01	13/10/2005
6598214	D01AC01	20/03/2007
15868256	D01AC01	18/04/2007
1350610	D01AC01	12/01/2010
8954600	D01AC01	30/10/2009
1379379	D01AC01	11/10/2004
1209207	D01AC01	04/06/2007
1192135	D01AC01	04/02/2002
1545758	D01AC01	01/07/2008
3058719	D01AC01	28/11/2007
1417278	D01AC01	06/03/2007
674519	D01AC01	12/08/2003
6600644	D01AC01	28/10/2005
6597538	D01AC01	15/03/2011
8933284	D01AC01	05/05/2011
1547420	D01AC01	11/01/2002
7652674	D01AC01	26/06/2007
6604047	D01AC01	15/11/2007
1276998	D01AC01	30/12/2002
1669715	D01AC01	30/09/2008
1276178	D01AC01	22/06/2004
6841404	D01AC01	15/09/2005
1276922	D01AC01	01/07/2010
1419936	D01AC01	30/12/2008
639892	D01AC01	09/12/2009
6596868	D01AC01	15/12/2010
1356208	D01AC01	18/03/2008
1547134	D01AC01	07/08/2003
7965270	D01AC01	02/12/2010
1205544	D01AC01	11/08/2006
24940700	D01AC01	07/07/2008
21092043	D01AC01	21/10/2009
18142516	D01AC01	09/04/2010
5489882	D01AC01	04/04/2011
6600842	D01AC01	16/07/2002
1445809	D01AC01	30/01/2008
3931824	D01AC01	26/07/2007
1416039	D01AC01	14/08/2008
1356172	D01AC01	23/03/2011
526051	D01AC01	20/06/2006
1425001	D01AC01	11/11/2004
6603802	D01AC01	14/03/2005
6478740	D01AC01	31/03/2009
5991623	D01AC01	06/04/2005
438081	D01AC01	09/05/2011
26139217	D01AC01	06/07/2009
7964309	D01AC01	31/08/2010
405045	D01AC01	27/05/2004
25178227	D01AC01	09/01/2006
1199497	D01AC01	19/03/2008
1205994	D01AC01	02/11/2006
6841316	D01AC01	26/10/2006
525534	D01AC01	29/04/2002
13273125	D01AC01	16/06/2009
1851264	D01AC01	31/01/2006
1264156	D01AC01	15/03/2003
645474	D01AC01	02/10/2007
1200860	D01AC01	12/05/2004
1349082	D01AC01	19/04/2006
24719270	D01AC01	16/04/2009
8956059	D01AC01	21/05/2007
515728	D01AC01	26/01/2010
1206818	D01AC01	23/04/2003
1198913	D01AC01	18/08/2004
17783992	D01AC01	05/04/2011
7968475	D01AC01	15/03/2006
1295728	D01AC01	12/01/2009
26145711	D01AC01	19/03/2004
12187307	D01AC01	18/03/2004
3343328	D01AC01	21/12/2006
1545722	D01AC01	31/03/2011
1547572	D01AC01	15/10/2002
1210283	D01AC01	10/12/2010
6333747	D01AC01	09/05/2011
1666482	D01AC01	19/09/2002
1208178	D01AC01	22/08/2003
539576	D01AC01	26/01/2007
1666882	D01AC01	15/04/2011
1261952	D01AC01	22/02/2006
6596858	D01AC01	14/03/2006
7776144	D01AC01	06/06/2006
1320212	D01AC01	02/09/2008
6597391	D01AC01	13/11/2009
1276321	D01AC01	09/11/2006
5991761	D01AC01	14/12/2006
7769677	D01AC01	12/08/2008
1425954	D01AC01	25/09/2006
1090765	D01AC01	15/02/2010
15696603	D01AC01	18/09/2009
1426026	D01AC01	29/03/2005
1379025	D01AC01	30/01/2004
1276566	D01AC01	13/05/2011
13985366	D01AC01	03/05/2001
1204719	D01AC01	06/10/2009
8063389	D01AC01	24/03/2011
1276636	D01AC01	07/08/2003
24940953	D01AC01	24/09/2004
1546923	D01AC01	17/03/2011
1199856	D01AC01	03/09/2003
641672	D01AC01	19/05/2010
17606613	D01AC01	24/01/2007
1212257	D01AC01	01/07/2010
1091373	D01AC01	17/02/2006
25960205	D01AC01	24/04/2010
1209042	D01AC01	20/07/2007
516181	D01AC01	19/05/2004
1424080	D01AC01	22/09/2006
4700304	D01AC01	02/02/2007
22849279	D01AC01	09/04/2008
1320228	D01AC01	03/01/2006
4363403	D01AC01	11/07/2007
8062385	D01AC01	09/02/2007
24940353	D01AC01	05/09/2008
6599608	D01AC01	22/03/2011
1090623	D01AC01	31/03/2006
7779623	D01AC01	19/03/2008
23843778	D01AC01	07/10/2009
26138784	D01AC01	12/07/2010
6595383	D01AC01	06/09/2006
1200208	D01AC01	21/07/2005
6379225	D01AC01	28/02/2011
1851260	D01AC01	02/12/1999
645467	D01AC01	16/02/2004
1351090	D01AC01	10/03/2010
538729	D01AC01	12/06/2008
24941748	D01AC01	05/03/2007
6597674	D01AC01	28/11/2006
1262550	D01AC01	22/03/2005
1276627	D01AC01	14/01/2003
1276680	D01AC01	18/10/2005
1055033	D01AC01	22/11/2004
1205740	D01AC01	10/12/2009
24940596	D01AC01	25/05/2004
1295976	D01AC01	20/05/2005
639310	D01AC01	05/06/2009
1856226	D01AC01	26/07/2005
1135215	D01AC01	20/08/2009
1577616	D01AC01	08/01/2004
1129404	D01AC01	04/04/2008
6973828	D01AC01	11/01/2007
1566989	D01AC01	02/03/2004
997879	D01AC01	30/10/2009
1855492	D01AC01	15/02/2011
1567088	D01AC01	07/06/2005
25883713	D01AC01	14/10/2004
6597378	D01AC01	03/07/2009
1132264	D01AC01	19/07/2001
890842	D01AC01	12/08/2009
996288	D01AC01	12/08/2004
1099742	D01AC01	17/10/2003
1134894	D01AC01	25/11/2009
1353013	D01AC01	18/05/2010
1355662	D01AC01	20/10/2010
1103491	D01AC01	06/11/2001
1638022	D01AC01	07/03/2001
4676284	D01AC01	26/12/2005
4687471	D01AC01	26/04/2007
994068	D01AC01	11/05/2010
1638786	D01AC01	09/09/2005
1107235	D01AC01	02/12/2003
1101869	D01AC01	04/12/2007
1102247	D01AC01	04/04/2001
1640603	D01AC01	05/02/2010
1102090	D01AC01	02/05/2006
1103763	D01AC01	16/03/2010
6492704	D01AC01	15/07/2008
12161450	D01AC01	14/08/2007
1108840	D01AC01	04/03/2004
1027312	D01AC01	04/05/2007
1135310	D01AC01	16/02/2005
1856271	D01AC01	04/08/2005
12162776	D01AC01	10/05/2006
1638850	D01AC01	03/05/2011
25750805	D01AC01	01/04/2008
4675972	D01AC01	31/07/2006
134659	D01AC01	09/07/2003
25897169	D01AC01	29/11/2007
25766727	D01AC01	13/01/2011
1577791	D01AC01	08/11/2002
25818504	D01AC01	13/10/2004
1131941	D01AC01	21/05/2007
4675953	D01AC01	21/06/2006
25900572	D01AC01	08/08/2008
25897255	D01AC01	16/09/2009
3655963	D01AC01	05/02/2004
996280	D01AC01	28/03/2005
717762	D01AC01	03/01/2008
25894711	D01AC01	19/05/2011
995398	D01AC01	14/11/2001
1641035	D01AC01	07/03/2011
2817381	D01AC01	12/06/2006
12788076	D01AC01	11/08/2010
1641017	D01AC01	04/05/2001
25882952	D01AC01	15/05/2008
1567257	D01AC01	19/07/2004
1640877	D01AC01	19/01/2005
190945	D01AC01	14/06/2002
25900525	D01AC01	16/01/2008
1135038	D01AC01	10/03/2011
1134812	D01AC01	26/01/2005
5679864	D01AC01	13/02/2007
487173	D01AC01	04/08/2008
1110455	D01AC01	10/05/2007
16037893	D01AC01	03/11/2009
1101985	D01AC01	25/02/2008
1558068	D01AC01	01/02/2011
8002141	D01AC01	09/10/2007
25886823	D01AC01	14/08/2007
6492401	D01AC01	05/07/2006
1101196	D01AC01	01/04/2009
1567786	D01AC01	26/10/2006
2059817	D01AC01	02/07/2007
2133129	D01AC01	04/04/2011
2145132	D01AC01	16/11/2010
2217407	D01AC01	06/04/2004
2138308	D01AC01	03/07/2006
2143593	D01AC01	12/07/2006
2068362	D01AC01	19/12/2004
2068369	D01AC01	25/11/2003
2519852	D01AC01	31/05/2011
2059081	D01AC01	09/03/2011
2041879	D01AC01	21/05/2010
2067962	D01AC01	17/02/2003
2133498	D01AC01	15/10/2007
2133507	D01AC01	08/06/2008
2110088	D01AC01	11/04/2007
2218925	D01AC01	19/12/2005
2068046	D01AC01	29/07/2010
2058996	D01AC01	16/08/2005
2218607	D01AC01	06/03/2006
2366671	D01AC01	23/01/2004
2133429	D01AC01	22/05/2006
2041278	D01AC01	20/11/2001
2218050	D01AC01	27/03/2009
2219099	D01AC01	22/06/2004
2043316	D01AC01	19/07/2006
2045608	D01AC01	04/08/2004
2143165	D01AC01	26/01/2006
2143723	D01AC01	10/11/2009
2216845	D01AC01	29/05/2007
2059601	D01AC01	06/09/2005
2112529	D01AC01	13/07/2006
2067684	D01AC01	13/07/2009
2133822	D01AC01	08/03/2005
2214563	D01AC01	27/08/2003
2070327	D01AC01	23/11/2008
2069623	D01AC01	30/11/2010
2140686	D01AC01	09/09/2010
2133531	D01AC01	10/12/2008
2110167	D01AC01	17/06/2009
2162696	D01AC01	30/09/2004
904606	D01AC01	17/08/2010
902972	D01AC01	11/06/2002
249577	D01AC01	15/10/2002
2036391	D01AC01	25/06/2008
758598	D01AC01	05/09/2007
1763042	D01AC01	01/10/2010
859949	D01AC01	15/05/2008
2053456	D01AC01	24/03/2008
1752608	D01AC01	05/02/2010
2110579	D01AC01	27/11/2009
1681755	D01AC01	08/01/2008
1642998	D01AC01	10/12/2003
1753155	D01AC01	26/02/2008
2142967	D01AC01	15/04/2011
2143772	D01AC01	31/07/2009
2140245	D01AC01	29/03/2011
2143938	D01AC01	16/01/2010
859110	D01AC01	23/12/2003
901845	D01AC01	14/02/2006
2037497	D01AC01	03/05/2010
1683577	D01AC01	13/06/2008
2042411	D01AC01	29/06/2009
1682937	D01AC01	30/06/2010
1682692	D01AC01	27/11/2006
874558	D01AC01	02/01/2009
876284	D01AC01	09/08/2010
905655	D01AC01	22/09/2004
2038784	D01AC01	22/06/2004
901033	D01AC01	08/05/2001
859067	D01AC01	28/03/2007
875644	D01AC01	20/09/2007
1682671	D01AC01	15/12/2004
1683307	D01AC01	06/05/2005
2038100	D01AC01	21/07/2004
1683150	D01AC01	16/05/2003
878785	D01AC01	03/12/2005
858925	D01AC01	19/02/2002
1767503	D01AC01	17/11/2003
859374	D01AC01	13/05/2010
877057	D01AC01	01/02/2005
874441	D01AC01	26/03/2009
2863518	D01AC01	31/01/2006
2811902	D01AC01	10/04/2003
6335061	D01AC01	16/12/2009
3053306	D01AC01	15/03/2002
2758263	D01AC01	26/10/2009
5471303	D01AC01	24/03/2010
2773774	D01AC01	19/04/2011
3055474	D01AC01	14/10/2005
7134077	D01AC01	04/12/2003
2042889	D01AC01	02/09/2009
7047933	D01AC01	21/01/2005
7047416	D01AC01	07/12/2005
901252	D01AC01	02/02/2004
859608	D01AC01	05/07/2004
876918	D01AC01	04/01/2002
1765218	D01AC01	19/02/2009
877365	D01AC01	10/02/2001
1765584	D01AC01	12/12/2006
858961	D01AC01	21/04/2006
1753333	D01AC01	08/01/2008
1683213	D01AC01	09/04/2006
879101	D01AC01	26/03/2001
902525	D01AC01	14/08/2010
1762017	D01AC01	26/04/2007
1762246	D01AC01	03/03/2011
1679643	D01AC01	31/03/2011
1766657	D01AC01	20/10/2005
873998	D01AC01	20/12/2001
860139	D01AC01	09/02/2011
2777238	D01AC01	06/02/2011
3052465	D01AC01	02/05/2005
3054060	D01AC01	08/11/2005
3054873	D01AC01	23/07/2008
2812319	D01AC01	07/12/2006
2765835	D01AC01	27/05/2008
3055190	D01AC01	16/08/2007
3054684	D01AC01	04/02/2005
3054705	D01AC01	05/10/2005
2777495	D01AC01	18/03/2011
2776510	D01AC01	26/03/2009
3055375	D01AC01	28/03/2011
3055385	D01AC01	23/03/2011
4088261	D01AC01	04/04/2005
7045933	D01AC01	13/11/2009
2863143	D01AC01	10/05/2005
2779984	D01AC01	03/05/2011
3052049	D01AC01	13/09/2004
3052992	D01AC01	02/02/2006
3053021	D01AC01	21/11/2007
3051873	D01AC01	18/04/2011
2780455	D01AC01	12/05/2011
2521789	D01AC01	25/11/2005
3054737	D01AC01	10/06/2008
3054967	D01AC01	26/12/2008
2759530	D01AC01	31/07/2007
3576769	D01AC01	21/11/2007
2779188	D01AC01	14/09/2004
2774327	D01AC01	23/05/2011
3052614	D01AC01	01/09/2009
2779963	D01AC01	14/02/2007
3053490	D01AC01	31/01/2006
2863962	D01AC01	14/08/2009
2764043	D01AC01	06/10/2008
7128622	D01AC01	06/07/2010
7079224	D01AC01	09/06/2006
3052081	D01AC01	31/03/2008
3055444	D01AC01	15/10/2010
2523737	D01AC01	23/12/2003
2522213	D01AC01	15/02/2011
2520230	D01AC01	06/06/2005
2756025	D01AC01	08/07/2004
2520367	D01AC01	28/09/2010
2755318	D01AC01	13/04/2010
2756309	D01AC01	18/10/2005
2519294	D01AC01	28/08/2003
2522313	D01AC01	01/12/2009
2756961	D01AC01	30/06/2008
2756861	D01AC01	08/07/2005
2756684	D01AC01	27/08/2003
17818675	D01AC01	20/06/2007
2765504	D01AC01	24/05/2007
2525077	D01AC01	06/04/2011
2239894	D01AC01	16/06/2008
12969478	D01AC01	15/12/2010
12970363	D01AC01	01/06/2011
9848198	D01AC01	05/05/2011
16835317	D01AC01	15/11/2010
26565034	D01AC01	07/10/2010
28062649	D01AC01	08/06/2007
26465782	D01AC01	12/04/2011
26463572	D01AC01	11/04/2006
28072130	D01AC01	03/01/2007
26424856	D01AC01	22/06/2001
26461647	D01AC01	01/07/2003
26384054	D01AC01	24/02/2009
26337379	D01AC01	08/04/2011
28080890	D01AC01	29/11/2008
26391853	D01AC01	16/04/2009
26459310	D01AC01	19/05/2008
26555208	D01AC01	24/10/2007
26456181	D01AC01	27/01/2010
26455849	D01AC01	03/08/2004
26464156	D01AC01	25/04/2011
26462448	D01AC01	12/01/2009
26505108	D01AC01	17/08/2009
26564907	D01AC01	27/05/2010
26392078	D01AC01	23/04/2009
9535857	D01AC01	31/08/2009
7027238	D01AC01	25/06/2008
7137654	D01AC01	19/04/2006
7144347	D01AC01	17/01/2003
18471263	D01AC01	21/11/2006
26243685	D01AC01	22/12/2009
7035255	D01AC01	05/03/2007
6990258	D01AC01	25/08/2006
18472363	D01AC01	09/10/2008
17745139	D01AC01	28/10/2002
26230873	D01AC01	19/10/2010
7136827	D01AC01	28/11/2006
17218986	D01AC01	12/09/2006
26244722	D01AC01	04/12/2010
7136116	D01AC01	30/09/2009
20452613	D01AC01	04/12/2008
22497799	D01AC01	27/07/2009
17744421	D01AC01	18/10/2001
26336640	D01AC01	24/05/2005
17746638	D01AC01	05/02/2009
9624027	D01AC01	12/07/2008
17323884	D01AC01	19/05/2009
7136683	D01AC01	12/08/2009
20147230	D01AC01	03/02/2010
17218563	D01AC01	02/02/2010
26425372	D01AC01	20/01/2011
26425083	D01AC01	28/02/2008
26455732	D01AC01	09/07/2009
26258038	D01AC01	31/03/2011
21382494	D01AC01	04/11/2010
17219390	D01AC01	22/07/2009
28042210	D01AC01	23/11/2004
26410194	D01AC01	16/08/2010
26341767	D01AC01	21/09/2001
26426009	D01AC01	22/10/2004
26207800	D01AC01	06/07/2009
26336751	D01AC01	02/02/2010
18471446	D01AC01	05/08/2009
20147574	D01AC01	26/07/2010
26182810	D01AC01	05/09/2010
26459796	D01AC01	23/01/2004
26384436	D01AC01	18/08/2009
26454330	D01AC01	29/12/2010
14545747	D01AC01	01/04/2008
16826989	D01AC01	19/05/2003
14501801	D01AC01	08/06/2009
7693867	D01AC01	26/06/2009
10490976	D01AC01	26/10/2005
11116272	D01AC01	18/01/2010
17924100	D01AC01	11/01/2011
17040830	D01AC01	05/10/2005
8116823	D01AC01	02/08/2004
16961631	D01AC01	24/06/2009
17745874	D01AC01	13/10/2006
17040618	D01AC01	17/01/2007
16980576	D01AC01	20/07/2007
7136999	D01AC01	30/05/2008
7140005	D01AC01	09/05/2005
16836296	D01AC01	01/06/2005
16959538	D01AC01	10/04/2008
13003749	D01AC01	12/06/2007
17893533	D01AC01	09/12/2010
18025561	D01AC01	25/02/2009
17933102	D01AC01	31/03/2010
17741815	D01AC01	06/06/2003
16824080	D01AC01	22/12/2003
1910209	D01AC01	31/01/2001
302093	D01AC01	29/06/2005
436735	D01AC01	08/07/2004
418142	D01AC01	27/08/1999
2252437	D01AC01	11/11/2002
1910243	D01AC01	11/10/2001
2249345	D01AC01	13/02/2007
419475	D01AC01	26/04/2009
437093	D01AC01	28/01/2004
2959326	D01AC01	20/01/2006
302235	D01AC01	20/08/2001
1019947	D01AC01	13/10/2009
427807	D01AC01	28/07/2005
4889299	D01AC01	27/08/2001
6570339	D01AC01	24/10/2002
12985074	D01AC01	12/12/2005
2959751	D01AC01	18/09/2002
419797	D01AC01	20/12/2000
8427128	D01AC01	03/05/2006
26466017	D01AC01	01/09/2009
19127470	D01AC01	02/01/2006
2217125	D01AC01	02/08/2007
16823937	D01AC01	16/12/2004
28093746	D01AC01	03/07/2003
26426004	D01AC01	06/04/2005
12971265	D01AC01	29/07/2009
874875	D01AC01	01/12/2008
3053216	D01AC01	21/10/2009
3054239	D01AC01	10/03/2011
28065816	D01AC01	24/07/2006
2753836	D01AC01	23/05/2007
28083517	D01AC01	12/07/2006
16832916	D01AC01	23/09/2010
20146685	D01AC01	06/08/2002
28080811	D01AC01	23/02/2010
1754240	D01AC01	08/07/2004
28044469	D01AC01	05/08/2002
28044182	D01AC01	29/10/2008
28083946	D01AC01	04/08/2004
28083095	D01AC01	05/07/2008
16951061	D01AC01	30/03/2009
28085405	D01AC01	26/01/2009
2776172	D01AC01	04/04/2005
28083015	D01AC01	08/06/2010
28093758	D01AC01	08/04/2009
12971355	D01AC01	02/08/2010
28090849	D01AC01	29/09/2006
904007	D01AC01	23/08/2006
1754737	D01AC01	25/09/2003
28083747	D01AC01	28/09/2009
2755660	D01AC01	08/11/2010
2773937	D01AC01	02/08/2010
28090121	D01AC01	25/09/2009
301183	D01AC01	25/03/2003
7136014	D01AC01	16/04/2010
419219	D01AC01	12/01/2007
421328	D01AC01	27/07/2007
304345	D01AC01	06/10/2006
17324548	D01AC01	16/04/2009
428591	D01AC01	03/10/2006
184640	D01AC01	09/05/2011
422311	D01AC01	15/05/2006
437620	D01AC01	17/06/2005
17040128	D01AC01	09/08/2004
305474	D01AC01	16/07/2007
305499	D01AC01	27/03/2007
28055609	D01AC01	24/06/2003
28069809	D01AC01	29/12/2010
28055769	D01AC01	21/06/2010
874613	D01AC01	14/05/2010
28050023	D01AC01	24/07/2007
28063602	D01AC01	12/07/2002
28060981	D01AC01	25/08/2009
28060521	D01AC01	13/12/2010
26478936	D01AC01	29/10/2003
28041648	D01AC01	26/01/2005
28047186	D01AC01	30/04/2009
28049554	D01AC01	15/06/2004
28080549	D01AC01	04/02/2011
28069169	D01AC01	24/04/2010
28069830	D01AC01	21/05/2008
28071032	D01AC01	15/06/2005
28056690	D01AC01	23/12/2009
28043285	D01AC01	08/09/2008
28063181	D01AC01	29/12/2005
24663852	D01AC01	18/08/2005
24670887	D01AC01	22/11/2004
25715383	D01AC01	19/07/2010
24670517	D01AC01	22/02/2008
24661880	D01AC01	12/08/2002
25738531	D01AC01	13/04/2010
25743607	D01AC01	10/02/2009
24666170	D01AC01	13/06/2008
24666922	D01AC01	23/05/2006
25641792	D01AC01	30/08/2010
24664445	D01AC01	22/09/2004
24657004	D01AC01	30/04/2010
24666997	D01AC01	01/12/2010
24663007	D01AC01	22/04/2008
24670759	D01AC01	25/08/2005
1369798	D01AC01	27/09/2005
1017590	D01AC01	18/05/2006
1016457	D01AC01	07/07/2005
1370890	D01AC01	19/11/2003
619414	D01AC01	09/01/2004
1360800	D01AC01	02/10/2002
1371652	D01AC01	09/02/2008
1367046	D01AC01	18/04/2007
1908228	D01AC01	20/12/2002
1900235	D01AC01	12/12/2005
1013147	D01AC01	19/09/2003
1342869	D01AC01	25/05/1998
1372602	D01AC01	16/02/2009
1372631	D01AC01	28/03/2003
2964440	D01AC01	01/10/2004
19800216	D01AC01	19/05/2011
1360957	D01AC01	24/09/1999
422231	D01AC01	27/09/2001
422239	D01AC01	03/04/2003
18191327	D01AC01	01/10/2001
18189725	D01AC01	05/08/2002
19801748	D01AC01	14/08/2001
21650458	D01AC01	02/11/2008
18193032	D01AC01	01/08/2003
24670235	D01AC01	12/11/2007
18191987	D01AC01	20/12/2006
18191861	D01AC01	22/08/2002
17410688	D01AC01	02/06/2000
19790450	D01AC01	17/01/2008
19968525	D01AC01	25/01/2002
19424222	D01AC01	09/05/2005
18197591	D01AC01	20/12/2006
17540425	D01AC01	28/05/2003
17596151	D01AC01	15/06/2009
18198495	D01AC01	22/06/2005
24669397	D01AC01	11/10/2004
21063572	D01AC01	26/08/2005
19801621	D01AC01	01/12/2006
1904747	D01AC01	08/11/2004
1906291	D01AC01	31/05/2007
1906568	D01AC01	11/12/2006
1371776	D01AC01	04/07/2006
1899482	D01AC01	20/12/2004
2964955	D01AC01	25/05/2004
1910115	D01AC01	11/11/2003
1900679	D01AC01	02/08/2010
1015862	D01AC01	27/08/2003
2249815	D01AC01	26/09/2001
1909946	D01AC01	22/03/2008
418928	D01AC01	26/04/2011
2965700	D01AC01	20/07/2004
1015243	D01AC01	01/09/2009
1015295	D01AC01	09/11/2007
1906106	D01AC01	27/09/2006
1368382	D01AC01	21/01/2005
1909227	D01AC01	18/09/2003
26774025	D01AC01	28/02/2007
26800096	D01AC01	26/08/2005
26628519	D01AC01	06/05/2008
26701905	D01AC01	06/02/2009
26835533	D01AC01	13/08/2007
26803235	D01AC01	18/02/2008
26835974	D01AC01	29/07/2010
26855912	D01AC01	05/12/2008
22922184	D01AC01	13/04/2007
16104775	D01AC01	04/10/2007
14311205	D01AC01	05/12/2005
10754719	D01AC01	10/08/2010
16842784	D01AC01	22/03/2011
17165387	D01AC01	26/12/2007
9025807	D01AC01	22/03/2011
15821585	D01AC01	15/03/2011
14311089	D01AC01	05/07/2007
17165183	D01AC01	30/08/2001
26623053	D01AC01	18/07/2006
12975675	D01AC01	28/03/2008
14311227	D01AC01	24/09/2004
25740918	D01AC01	21/09/2007
26635661	D01AC01	08/04/2010
26616690	D01AC01	10/04/2008
26620326	D01AC01	06/09/2010
14310899	D01AC01	29/04/2011
16843515	D01AC01	19/02/2008
26627930	D01AC01	05/06/2006
8418062	D01AC01	08/03/2005
26642175	D01AC01	06/06/2003
9072498	D01AC01	22/03/2006
16844683	D01AC01	20/05/2008
26617554	D01AC01	19/04/2011
26622416	D01AC01	12/11/2009
26643138	D01AC01	05/03/2004
26620588	D01AC01	01/04/2009
26635277	D01AC01	23/05/2006
26616636	D01AC01	08/09/2005
24657567	D01AC01	25/03/2010
24666062	D01AC01	23/09/2010
24583039	D01AC01	01/04/2005
24667176	D01AC01	02/03/2008
24664289	D01AC01	13/11/2004
24651623	D01AC01	23/01/2008
24593668	D01AC01	27/03/2006
24666854	D01AC01	23/02/2011
20760970	D01AC01	22/11/2010
21651799	D01AC01	31/12/2003
22922696	D01AC01	11/04/2008
24651660	D01AC01	27/07/2009
20835034	D01AC01	17/11/2010
22922286	D01AC01	06/07/2010
26932610	D01AC01	08/05/2007
26895437	D01AC01	19/07/2007
26917635	D01AC01	25/04/2007
26917287	D01AC01	18/01/2003
26914516	D01AC01	29/03/2004
26900691	D01AC01	03/03/2006
26882417	D01AC01	16/11/2009
26936433	D01AC01	02/08/2010
26915015	D01AC01	03/04/2006
26950378	D01AC01	23/02/2009
26932224	D01AC01	28/01/2005
26949743	D01AC01	30/08/2005
26937963	D01AC01	22/05/2006
26937365	D01AC01	17/05/2006
26711269	D01AC01	13/12/2007
26879267	D01AC01	15/01/2007
26781731	D01AC01	01/09/2005
26849699	D01AC01	28/09/2004
26759540	D01AC01	23/07/2007
26726775	D01AC01	16/11/2010
26848964	D01AC01	31/03/2011
26759249	D01AC01	31/03/2005
26714083	D01AC01	15/09/2006
26714825	D01AC01	04/11/2008
26878229	D01AC01	23/04/1998
26867268	D01AC01	25/04/2006
26721990	D01AC01	15/01/2009
26859048	D01AC01	11/02/2009
26859056	D01AC01	16/09/2008
26898899	D01AC01	12/01/2006
26857654	D01AC01	19/01/2011
26857281	D01AC01	27/11/2006
26857716	D01AC01	28/02/2006
26849091	D01AC01	31/03/2006
26882202	D01AC01	24/04/2007
26858359	D01AC01	10/11/2009
26868419	D01AC01	05/09/2008
26899928	D01AC01	05/06/2006
26849622	D01AC01	19/11/2007
26859600	D01AC01	20/10/2005
26859612	D01AC01	27/01/2010
26847639	D01AC01	26/04/2011
26776735	D01AC01	25/05/2011
26716663	D01AC01	06/05/2008
26759511	D01AC01	12/03/2008
26726147	D01AC01	18/07/2006
26769553	D01AC01	20/12/2004
26773631	D01AC01	12/05/2008
26832939	D01AC01	10/01/2008
26858556	D01AC01	02/07/2010
26825177	D01AC01	22/08/2010
27001122	D01AC01	16/05/2006
27051381	D01AC01	30/03/2006
26988800	D01AC01	14/08/2007
26956977	D01AC01	23/11/2005
26974337	D01AC01	16/02/2005
26939961	D01AC01	10/02/2010
26972749	D01AC01	15/11/2007
26968087	D01AC01	01/04/2009
27087271	D01AC01	29/05/2008
27105324	D01AC01	29/04/2010
27136847	D01AC01	10/10/2005
27106148	D01AC01	08/08/2006
27151243	D01AC01	15/06/2005
27088738	D01AC01	15/07/2004
27082944	D01AC01	25/01/2010
27084686	D01AC01	20/11/2006
27137844	D01AC01	02/04/2003
27100393	D01AC01	30/12/2005
27133554	D01AC01	02/10/2007
27127410	D01AC01	13/05/2003
27108157	D01AC01	16/07/2007
27130191	D01AC01	09/08/2007
27115263	D01AC01	01/06/2005
27052734	D01AC01	22/06/2006
27078403	D01AC01	27/04/2005
27046890	D01AC01	07/08/2006
27029722	D01AC01	28/11/2006
27062156	D01AC01	14/08/2009
27061759	D01AC01	10/08/2007
27080965	D01AC01	21/11/2007
27046378	D01AC01	08/10/2010
27056639	D01AC01	10/03/2004
27084260	D01AC01	22/07/2009
27084277	D01AC01	04/12/2007
27085882	D01AC01	08/09/2009
27045491	D01AC01	26/08/2003
27052774	D01AC01	19/09/2007
27075974	D01AC01	31/07/2009
27065487	D01AC01	05/12/2008
27010404	D01AC01	25/05/2007
27026322	D01AC01	10/11/2006
27005260	D01AC01	28/04/2011
26979025	D01AC01	15/12/2007
27000418	D01AC01	15/06/2005
27042240	D01AC01	01/03/2011
27025901	D01AC01	21/01/2004
27026487	D01AC01	08/10/2003
27026108	D01AC01	08/05/2008
27027177	D01AC01	10/04/2008
27002578	D01AC01	13/08/2007
27025820	D01AC01	06/10/2010
27024702	D01AC01	14/03/2007
27039849	D01AC01	14/04/2005
27325120	D01AC01	01/03/2007
27170754	D01AC01	18/08/2006
27327435	D01AC01	05/03/2007
27169258	D01AC01	17/12/2010
27325553	D01AC01	01/08/2007
27213014	D01AC01	18/04/2006
27216624	D01AC01	25/02/2008
27150434	D01AC01	25/03/2011
27327895	D01AC01	11/04/2005
27286905	D01AC01	16/04/2003
27379194	D01AC01	06/06/2006
27327578	D01AC01	30/05/2007
27352371	D01AC01	05/06/2006
27221319	D01AC01	28/04/2006
27148077	D01AC01	25/01/2005
27151618	D01AC01	17/09/2001
27286033	D01AC01	31/10/2002
27389505	D01AC01	18/04/2007
27221674	D01AC01	14/08/2009
27316566	D01AC01	28/09/2007
27365421	D01AC01	26/01/2011
27253111	D01AC01	06/11/2002
27241615	D01AC01	19/10/2009
27314715	D01AC01	06/03/2007
27284918	D01AC01	05/06/2006
27352971	D01AC01	19/12/2007
27253999	D01AC01	05/09/2005
27361241	D01AC01	14/05/2007
27315277	D01AC01	19/05/2008
27364746	D01AC01	06/11/2007
27352425	D01AC01	26/03/2007
27349891	D01AC01	09/01/2008
27345781	D01AC01	10/01/2007
27352654	D01AC01	07/08/2006
27308560	D01AC01	26/02/2009
26968902	D01AC01	31/03/2006
26981468	D01AC01	21/07/2010
27199256	D01AC01	02/04/2008
27253729	D01AC01	08/11/2001
27217738	D01AC01	24/11/2006
27246754	D01AC01	12/01/2006
27249999	D01AC01	14/02/2002
27173291	D01AC01	12/07/2007
27217481	D01AC01	09/03/2006
27237373	D01AC01	20/08/2009
26979514	D01AC01	17/02/2004
27212879	D01AC01	07/10/2009
27232587	D01AC01	26/07/2007
27241512	D01AC01	27/10/2006
27200549	D01AC01	26/02/2008
27169634	D01AC01	29/11/2007
26952287	D01AC01	29/06/2010
27171402	D01AC01	13/06/2005
27592896	D01AC01	24/09/2007
27546225	D01AC01	31/10/2005
27593063	D01AC01	17/06/2005
27642131	D01AC01	12/12/2010
27641540	D01AC01	26/09/2006
27596955	D01AC01	25/02/2011
27625772	D01AC01	20/04/2010
27646512	D01AC01	18/04/2005
27660829	D01AC01	06/04/2006
27623999	D01AC01	11/03/2010
27578871	D01AC01	16/08/2007
27470640	D01AC01	05/12/2007
27427357	D01AC01	21/04/2006
27493258	D01AC01	09/12/2009
27478388	D01AC01	05/06/2007
27414270	D01AC01	10/01/2003
27493267	D01AC01	12/12/2007
27414845	D01AC01	17/10/2007
27639379	D01AC01	23/02/2010
27414867	D01AC01	07/06/2008
27474475	D01AC01	04/02/2005
27646011	D01AC01	06/05/2010
27460649	D01AC01	22/09/2010
27564766	D01AC01	22/11/2004
27616208	D01AC01	02/09/2004
27569066	D01AC01	27/07/2007
27567257	D01AC01	04/12/2009
27764749	D01AC01	06/03/2008
27765512	D01AC01	07/08/2009
27759720	D01AC01	16/06/2006
27621697	D01AC01	29/06/2007
27553794	D01AC01	02/11/2007
27552047	D01AC01	06/06/2005
27569358	D01AC01	30/06/2007
27621743	D01AC01	01/01/2007
27616396	D01AC01	04/07/2005
27614610	D01AC01	01/04/2008
27567758	D01AC01	07/03/2011
27545579	D01AC01	21/08/2006
27571164	D01AC01	22/01/2010
27552612	D01AC01	05/12/2003
27693974	D01AC01	04/10/2004
27658878	D01AC01	21/04/2008
27242158	D01AC01	10/07/2007
27242162	D01AC01	05/06/2009
27148150	D01AC01	22/06/2007
27138764	D01AC01	23/03/2010
27286567	D01AC01	06/11/2003
27133070	D01AC01	14/01/2008
27284131	D01AC01	01/06/2010
27144662	D01AC01	28/09/2005
27285401	D01AC01	04/03/2008
27147685	D01AC01	24/06/2010
27152030	D01AC01	23/01/2008
27161111	D01AC01	10/11/2006
27154144	D01AC01	28/01/2005
27232486	D01AC01	19/01/2007
27444490	D01AC01	27/04/2011
27321829	D01AC01	06/09/2002
27025269	D01AC01	16/06/2010
24659329	D01AC01	09/02/2009
27211092	D01AC01	22/12/2006
27244772	D01AC01	21/08/2002
1343933	D01AC01	28/06/2003
27320825	D01AC01	10/08/2007
27674951	D01AC01	25/06/2003
27716439	D01AC01	08/02/2008
27684664	D01AC01	13/07/2007
27533674	D01AC01	17/11/2003
27683287	D01AC01	03/05/2010
27673317	D01AC01	29/10/2010
27779059	D01AC01	31/07/2006
27686843	D01AC01	07/08/2003
27563283	D01AC01	20/08/2007
27480464	D01AC01	29/03/2011
27532981	D01AC01	13/05/2005
27767169	D01AC01	02/05/2005
27614649	D01AC01	30/07/2007
27666079	D01AC01	12/09/2006
27662860	D01AC01	15/07/2008
27294951	D01AC01	25/10/2008
27680041	D01AC01	16/09/2005
27649448	D01AC01	02/03/2005
24661879	D01AC01	24/04/2003
27680848	D01AC01	06/02/2007
27666515	D01AC01	25/06/2003
27379817	D01AC01	01/08/2006
27667494	D01AC01	26/02/2002
27687348	D01AC01	09/08/2007
27446505	D01AC01	03/05/2005
27648580	D01AC01	08/09/2003
27515481	D01AC01	11/02/2003
27456174	D01AC01	28/08/2002
27508716	D01AC01	03/01/2007
27591660	D01AC01	15/12/2005
27321099	D01AC01	13/05/2011
27449789	D01AC01	26/07/2004
27459762	D01AC01	16/10/2008
27531023	D01AC01	24/01/2005
27540219	D01AC01	17/10/2007
27459207	D01AC01	22/05/2006
27591724	D01AC01	15/03/2005
27633791	D01AC01	09/09/2005
27617503	D01AC01	19/02/2008
27529553	D01AC01	20/09/2005
26620681	D01AC01	24/09/2003
26895421	D01AC01	19/05/2006
27074467	D01AC01	09/02/2011
26619933	D01AC01	29/10/2007
26777286	D01AC01	09/02/2011
26780894	D01AC01	25/01/2006
19799771	D01AC01	28/11/2005
27046157	D01AC01	15/09/2006
27104774	D01AC01	07/06/2007
27105394	D01AC01	24/04/2007
9072497	D01AC01	05/10/2006
27132526	D01AC01	10/06/2005
24666462	D01AC01	08/04/2009
1912943	D01AC01	06/02/2007
26959747	D01AC01	09/08/2004
27759574	D01AC01	04/11/2005
27799688	D01AC01	09/01/2007
27809251	D01AC01	04/12/2003
27759244	D01AC01	25/03/2004
27716815	D01AC01	03/03/2008
27797328	D01AC01	21/04/2006
27797533	D01AC01	14/03/2008
27758605	D01AC01	11/09/2008
27662240	D01AC01	17/11/2006
27797699	D01AC01	07/12/2004
26793177	D01AC01	21/12/2007
26730671	D01AC01	04/05/2007
424828	D01AC01	13/05/2006
27072072	D01AC01	08/11/2006
27667214	D01AC01	14/12/2007
27170744	D01AC01	26/03/2007
27664220	D01AC01	05/11/2004
27037231	D01AC01	13/05/2004
27775516	D01AC01	26/08/2005
26864823	D01AC01	07/01/2006
27309041	D01AC01	21/12/2010
26848080	D01AC01	19/07/2004
27453651	D01AC01	20/04/2011
304327	D01AC01	14/09/2004
27782172	D01AC01	12/05/2011
19800473	D01AC01	03/05/2006
26963669	D01AC01	19/06/2004
27352679	D01AC01	04/06/2010
2957951	D01AC01	06/03/2002
26711256	D01AC01	14/07/2004
27246927	D01AC01	02/10/2006
27233694	D01AC01	26/05/2011
27366636	D01AC01	09/01/2007
27663382	D01AC01	10/01/2003
26873786	D01AC01	25/02/2004
33112774	D01AC01	16/05/2008
33107586	D01AC01	16/10/2003
33047037	D01AC01	16/05/2011
33131247	D01AC01	15/04/2011
33106412	D01AC01	22/06/2009
33061630	D01AC01	18/05/2006
33025269	D01AC01	17/04/2007
33037105	D01AC01	28/07/2010
33000047	D01AC01	26/02/2003
33086922	D01AC01	20/04/2007
33051475	D01AC01	22/08/2006
33007198	D01AC01	30/07/2002
33060624	D01AC01	10/07/2001
33073611	D01AC01	13/06/2008
33135327	D01AC01	08/04/2011
33007179	D01AC01	24/05/2011
33067601	D01AC01	24/11/2010
33026002	D01AC01	06/09/2004
33066649	D01AC01	04/07/2005
33044195	D01AC01	01/12/2010
33001039	D01AC01	22/04/2010
33030476	D01AC01	01/03/2005
33023977	D01AC01	08/04/2008
33091763	D01AC01	27/07/2006
33053407	D01AC01	06/11/2002
33081368	D01AC01	17/04/2006
33010518	D01AC01	20/01/2005
33106608	D01AC01	19/12/2006
33079691	D01AC01	21/09/2009
33072306	D01AC01	11/04/2000
33072290	D01AC01	09/02/2005
33084784	D01AC01	13/11/2002
33079997	D01AC01	14/11/2007
33016797	D01AC01	30/10/2008
33074340	D01AC01	05/04/2011
33111605	D01AC01	21/08/2007
33013922	D01AC01	13/06/2008
33018895	D01AC01	04/02/2002
33027943	D01AC01	13/10/2006
33066288	D01AC01	22/09/2006
33099866	D01AC01	28/03/2007
33098127	D01AC01	05/10/2007
33045972	D01AC01	05/12/2007
33103502	D01AC01	05/06/2009
33046900	D01AC01	31/08/2007
33072253	D01AC01	27/12/2006
33090387	D01AC01	17/08/2007
33073315	D01AC01	09/12/2009
33004433	D01AC01	22/02/2011
33104669	D01AC01	23/04/2002
33127896	D01AC01	10/03/2011
33020030	D01AC01	06/08/2008
33073796	D01AC01	13/11/2007
33051529	D01AC01	27/03/2007
33032013	D01AC01	10/01/2008
33094979	D01AC01	03/05/2010
33131069	D01AC01	18/09/2009
33085372	D01AC01	07/11/2006
33124982	D01AC01	15/01/2010
33044028	D01AC01	24/07/2000
27812316	D01AC01	01/03/2007
26943592	D01AC01	01/12/2006
26636182	D01AC01	18/05/2006
33074007	D01AC01	16/11/2005
33079470	D01AC01	08/07/2002
464881	D01AC01	16/11/2000
27796350	D01AC01	10/08/2007
27810250	D01AC01	01/07/2004
428238	D01AC01	16/02/2000
27199922	D01AC01	28/01/2008
27084187	D01AC01	29/03/2007
16567941	D01AC01	23/06/2003
33086713	D01AC01	01/07/2002
33137074	D01AC01	23/02/2011
33020523	D01AC01	22/10/2002
33301876	D01AC01	01/04/2008
27994744	D01AC01	13/09/2010
27911346	D01AC01	21/08/2009
28019253	D01AC01	14/11/2002
16133593	D01AC01	13/09/2005
27994570	D01AC01	04/11/2009
23320348	D01AC01	25/11/2004
33060507	D01AC01	01/10/2004
18771300	D01AC01	02/02/2004
16646449	D01AC01	16/02/2008
16135369	D01AC01	11/08/2004
16712669	D01AC01	05/02/2007
23320310	D01AC01	25/09/2007
16625816	D01AC01	15/03/2010
20982153	D01AC01	13/03/2008
33007194	D01AC01	25/06/2010
33048972	D01AC01	25/06/2002
33129676	D01AC01	10/08/2009
33085897	D01AC01	15/09/2009
33019674	D01AC01	28/10/2009
33036694	D01AC01	07/11/2006
33020265	D01AC01	30/08/2005
33076579	D01AC01	17/08/2006
33099079	D01AC01	15/10/2004
33050802	D01AC01	01/07/2010
33008945	D01AC01	13/02/2006
33026712	D01AC01	13/08/2003
33030460	D01AC01	14/01/2011
33040686	D01AC01	09/09/2005
33082496	D01AC01	07/07/2010
33104988	D01AC01	22/02/2006
33042572	D01AC01	06/11/2007
33116651	D01AC01	05/10/2005
33074992	D01AC01	11/05/2010
33112492	D01AC01	24/03/2004
33006005	D01AC01	14/03/2008
33117007	D01AC01	28/02/2011
33054822	D01AC01	15/02/2008
33046023	D01AC01	02/11/2007
33078447	D01AC01	18/09/2007
33066270	D01AC01	29/07/2005
33033729	D01AC01	28/06/2005
33007224	D01AC01	21/09/2001
33067381	D01AC01	09/04/2008
33086443	D01AC01	23/10/2009
33000591	D01AC01	30/03/2005
33020543	D01AC01	12/05/2004
33105452	D01AC01	23/07/2007
33111959	D01AC01	10/06/2010
33012899	D01AC01	05/06/2007
33097532	D01AC01	22/10/2007
33043674	D01AC01	28/07/2009
33032983	D01AC01	10/01/2007
33033838	D01AC01	09/10/2000
33061115	D01AC01	23/01/2006
33034268	D01AC01	10/05/2011
33016818	D01AC01	18/06/2004
33096009	D01AC01	22/05/2006
33046886	D01AC01	30/05/2001
33011985	D01AC01	04/04/2011
33093006	D01AC01	02/06/2004
33065702	D01AC01	21/04/2004
33060722	D01AC01	11/11/2009
33010439	D01AC01	16/05/2008
33028356	D01AC01	19/06/2006
33110291	D01AC01	29/08/2003
33066033	D01AC01	04/03/2011
33062785	D01AC01	05/11/2007
33089329	D01AC01	23/04/2004
33073437	D01AC01	16/12/2003
33084046	D01AC01	14/07/2005
33033745	D01AC01	17/01/2002
33073480	D01AC01	06/11/2003
33073595	D01AC01	17/09/2009
33027073	D01AC01	07/01/2011
33064084	D01AC01	17/12/2009
33116126	D01AC01	26/06/2000
33012988	D01AC01	10/03/2010
27999217	D01AC01	23/02/2011
27999175	D01AC01	28/11/2008
24464374	D01AC01	28/02/2011
33226133	D01AC01	30/09/2008
33288622	D01AC01	15/11/2007
16645912	D01AC01	05/10/2005
16712490	D01AC01	11/07/2003
23397390	D01AC01	02/05/2007
16616536	D01AC01	03/02/2006
16138756	D01AC01	21/10/2009
23291599	D01AC01	23/02/2007
23407899	D01AC01	11/05/2010
27996332	D01AC01	05/12/2006
16134895	D01AC01	29/03/2011
33204629	D01AC01	18/05/2011
33250756	D01AC01	18/11/2009
21100699	D01AC01	12/03/2009
23381522	D01AC01	02/08/2006
33276197	D01AC01	07/03/2009
28004880	D01AC01	02/12/2005
23397584	D01AC01	25/06/2008
33225825	D01AC01	22/07/2010
33292875	D01AC01	10/06/2008
23328953	D01AC01	09/07/2008
16181636	D01AC01	30/12/2003
16679741	D01AC01	13/12/2007
16680317	D01AC01	16/02/2009
16645452	D01AC01	15/11/2006
16596474	D01AC01	14/06/2007
33301693	D01AC01	04/09/2008
16684874	D01AC01	17/11/2003
33212532	D01AC01	26/03/2010
23407371	D01AC01	12/05/2011
16637147	D01AC01	24/11/2010
33250894	D01AC01	28/06/2002
27913617	D01AC01	16/02/2010
16652660	D01AC01	19/08/2006
16630680	D01AC01	19/03/2010
33228189	D01AC01	30/05/2011
16172511	D01AC01	25/06/2008
23333064	D01AC01	18/05/2004
28007253	D01AC01	27/04/2009
28004253	D01AC01	08/11/2010
23320103	D01AC01	01/02/2008
18770852	D01AC01	01/10/2003
27999146	D01AC01	14/06/2007
16619471	D01AC01	15/01/2005
33225918	D01AC01	19/06/2008
33231558	D01AC01	16/07/2009
16680316	D01AC01	22/03/2010
33309270	D01AC01	21/05/2008
16178935	D01AC01	24/06/2010
28000658	D01AC01	23/05/2011
23410102	D01AC01	16/05/2011
16625897	D01AC01	31/07/2007
23204645	D01AC01	06/05/2011
28016723	D01AC01	21/02/2011
16136024	D01AC01	03/05/2006
27915318	D01AC01	22/01/2010
33235172	D01AC01	14/05/2008
18770458	D01AC01	14/02/2001
33249205	D01AC01	31/10/2005
16172108	D01AC01	01/10/2002
24137614	D01AC01	20/04/2011
33200178	D01AC01	26/04/2005
23385430	D01AC01	18/11/2010
16183727	D01AC01	19/02/2008
23405747	D01AC01	25/07/2006
16709150	D01AC01	30/05/2009
16130070	D01AC01	16/03/2007
16125510	D01AC01	13/11/2006
21105223	D01AC01	28/03/2008
21010861	D01AC01	17/12/2008
23386742	D01AC01	25/03/2009
28032257	D01AC01	25/02/2011
18757155	D01AC01	21/09/2007
14188146	D01AC01	15/12/2005
16596274	D01AC01	11/05/2009
20984093	D01AC01	09/11/2005
16705311	D01AC01	16/02/2010
28038777	D01AC01	27/07/2007
14187360	D01AC01	22/03/2005
16135365	D01AC01	21/08/2002
16138060	D01AC01	15/12/2003
16133563	D01AC01	17/12/2003
16178928	D01AC01	15/04/2008
28023797	D01AC01	29/05/2008
23319566	D01AC01	06/11/2006
33309872	D01AC01	27/01/2011
16637010	D01AC01	31/05/2005
16621293	D01AC01	03/07/2009
33200743	D01AC01	08/08/2001
23404666	D01AC01	16/05/2005
16178121	D01AC01	01/12/2010
28015089	D01AC01	16/06/2010
23412762	D01AC01	22/05/2009
23367236	D01AC01	03/07/2007
16127850	D01AC01	10/06/2009
18762209	D01AC01	13/06/2006
27846161	D01AC01	16/01/2006
33246306	D01AC01	31/03/2011
33200338	D01AC01	23/08/2004
33225982	D01AC01	23/05/2011
27988396	D01AC01	23/02/2006
18761680	D01AC01	31/08/2010
33304409	D01AC01	08/07/2009
33291051	D01AC01	24/02/2011
16706310	D01AC01	23/06/2010
28014401	D01AC01	08/01/2008
16615324	D01AC01	13/12/2004
16611332	D01AC01	21/06/2005
28004723	D01AC01	02/02/2010
18757709	D01AC01	08/09/2010
16646273	D01AC01	02/02/2004
27847279	D01AC01	01/09/2009
30623112	D01AC01	30/03/2011
31242735	D01AC01	10/11/2008
28537947	D01AC01	27/10/2010
31171272	D01AC01	15/02/2007
31119324	D01AC01	17/03/2005
21110134	D01AC01	30/12/2004
16610126	D01AC01	15/03/2011
23386610	D01AC01	20/05/2008
21112228	D01AC01	18/05/2010
33220514	D01AC01	26/04/2007
16126950	D01AC01	14/01/2005
16639897	D01AC01	06/07/2010
16127052	D01AC01	31/10/2005
16130997	D01AC01	07/02/2006
27948668	D01AC01	23/07/2004
20987279	D01AC01	06/03/2007
33201673	D01AC01	12/08/2009
21112369	D01AC01	01/10/2009
16186433	D01AC01	27/06/2005
23336573	D01AC01	03/01/2007
18761634	D01AC01	03/03/2009
16652685	D01AC01	13/08/2008
33219480	D01AC01	07/01/2009
16712509	D01AC01	04/04/2005
27983007	D01AC01	13/03/2007
30057157	D01AC01	25/03/2011
16596871	D01AC01	13/01/2006
31019529	D01AC01	05/01/2011
23401156	D01AC01	21/08/2009
16138495	D01AC01	30/04/2010
16601039	D01AC01	12/07/2006
21105858	D01AC01	03/12/2009
23401605	D01AC01	16/09/2003
23401236	D01AC01	02/02/2009
18764796	D01AC01	03/05/2006
23340233	D01AC01	25/08/2010
27994631	D01AC01	08/11/2006
20988122	D01AC01	05/02/2010
23343500	D01AC01	26/03/2008
23371004	D01AC01	22/11/2006
23336136	D01AC01	30/10/2009
21113350	D01AC01	13/07/2007
23397797	D01AC01	26/01/2011
31731170	D01AC01	09/05/2007
31299595	D01AC01	16/11/2004
32082741	D01AC01	17/09/2010
32005939	D01AC01	22/08/2003
31228694	D01AC01	14/03/2007
31432360	D01AC01	15/11/2006
31971268	D01AC01	07/05/2007
32282396	D01AC01	04/07/2003
31767304	D01AC01	17/07/2007
32196435	D01AC01	17/03/2005
32244890	D01AC01	01/09/2009
32118212	D01AC01	25/05/2006
31431373	D01AC01	29/08/2006
32035173	D01AC01	20/09/2007
31891552	D01AC01	16/05/2007
31068741	D01AC01	30/07/2008
31345711	D01AC01	07/07/2008
31522402	D01AC01	10/06/2004
31541778	D01AC01	03/11/2009
31655296	D01AC01	09/12/2003
31558228	D01AC01	24/05/2007
32069188	D01AC01	27/05/2008
31170186	D01AC01	13/01/2011
31746593	D01AC01	13/05/2009
31159532	D01AC01	20/12/2004
32276089	D01AC01	22/11/2005
31045693	D01AC01	04/11/2009
31435208	D01AC01	09/03/2009
31313850	D01AC01	25/08/2010
31590841	D01AC01	05/01/2010
31880331	D01AC01	08/04/2011
31353977	D01AC01	20/12/2006
32063283	D01AC01	04/07/2005
32098573	D01AC01	21/01/2004
32107225	D01AC01	28/02/2006
31909577	D01AC01	06/07/2004
31586751	D01AC01	04/06/2003
31601335	D01AC01	01/04/2003
31870242	D01AC01	27/06/2007
31055959	D01AC01	04/08/2006
31547137	D01AC01	19/05/2008
31235313	D01AC01	13/11/2001
32277713	D01AC01	24/08/2009
32109811	D01AC01	04/05/2010
31720754	D01AC01	26/06/2006
31810403	D01AC01	31/10/2008
31966573	D01AC01	17/11/2006
31267839	D01AC01	30/11/2001
31512526	D01AC01	15/04/2008
31994638	D01AC01	16/06/2006
31976103	D01AC01	17/11/2006
32113600	D01AC01	24/05/2007
31818019	D01AC01	02/04/2008
31091121	D01AC01	29/05/2008
31396661	D01AC01	03/03/2008
31594342	D01AC01	15/04/2002
32246611	D01AC01	13/02/2006
31557290	D01AC01	31/03/2006
31750446	D01AC01	02/06/2006
31373102	D01AC01	16/11/2007
31438930	D01AC01	26/03/2008
31462667	D01AC01	17/01/2008
31082542	D01AC01	05/12/2002
32057338	D01AC01	12/11/2008
32033042	D01AC01	02/08/2005
31491072	D01AC01	18/02/2010
31126630	D01AC01	16/09/2005
32086668	D01AC01	18/08/2003
31705655	D01AC01	14/04/2009
31908375	D01AC01	04/06/2007
31786755	D01AC01	10/01/2008
31756119	D01AC01	24/04/2008
31267881	D01AC01	21/07/2006
31774615	D01AC01	26/11/2003
31553676	D01AC01	23/09/2004
32011425	D01AC01	24/01/2011
31755973	D01AC01	04/07/2007
32172226	D01AC01	13/10/2006
31370068	D01AC01	21/10/2005
31792571	D01AC01	25/04/2005
31160878	D01AC01	18/06/2004
31728526	D01AC01	01/02/2011
31529895	D01AC01	20/07/2006
32169204	D01AC01	13/03/2007
32194913	D01AC01	22/01/2007
31496042	D01AC01	30/08/2007
31847126	D01AC01	07/07/2008
32010881	D01AC01	05/12/2005
31833062	D01AC01	26/06/2008
31955515	D01AC01	14/04/2003
31479979	D01AC01	28/06/2004
31480886	D01AC01	12/05/2008
31765237	D01AC01	29/10/2007
32250774	D01AC01	17/03/2009
31879546	D01AC01	15/06/2007
31093440	D01AC01	28/12/2009
31706007	D01AC01	28/04/2004
31290929	D01AC01	16/09/2009
32170654	D01AC01	16/02/2007
31792698	D01AC01	24/06/2010
31421020	D01AC01	27/05/2010
31898729	D01AC01	14/07/2005
31967191	D01AC01	30/05/2007
31986807	D01AC01	03/12/2004
32261660	D01AC01	12/07/2006
31431450	D01AC01	15/09/2006
31846828	D01AC01	03/07/2001
31677756	D01AC01	21/09/2009
31735454	D01AC01	05/03/2009
31913299	D01AC01	22/08/2008
31759259	D01AC01	20/01/2005
32216795	D01AC01	31/03/2006
31324576	D01AC01	12/05/2008
31450205	D01AC01	13/06/2006
31862063	D01AC01	04/07/2008
31987098	D01AC01	17/09/2007
31088492	D01AC01	23/12/2002
31721122	D01AC01	08/06/2009
31394293	D01AC01	29/09/2004
31207841	D01AC01	22/09/2004
31901968	D01AC01	27/03/2006
31753190	D01AC01	26/05/2006
31355182	D01AC01	23/02/2009
32148667	D01AC01	27/07/2007
31679610	D01AC01	18/12/2006
31744065	D01AC01	29/08/2005
31440386	D01AC01	25/08/2008
31149959	D01AC01	14/07/2010
31679755	D01AC01	26/04/2007
31780608	D01AC01	19/07/2005
31520067	D01AC01	02/02/2005
31345651	D01AC01	20/09/2002
31670186	D01AC01	02/04/2009
31700773	D01AC01	18/04/2006
32023890	D01AC01	22/07/2003
32122906	D01AC01	03/12/2007
32217389	D01AC01	15/10/2004
31313735	D01AC01	20/07/2007
32044812	D01AC01	23/01/2004
31059184	D01AC01	24/02/2010
32212407	D01AC01	20/03/2009
31602422	D01AC01	13/01/2005
31143235	D01AC01	07/06/2004
31114979	D01AC01	05/11/2010
31505016	D01AC01	16/09/2009
31640826	D01AC01	25/04/2006
31918450	D01AC01	14/07/2009
31791869	D01AC01	14/09/2010
31458704	D01AC01	30/01/2006
32061702	D01AC01	30/04/2001
32271708	D01AC01	12/01/2007
32221033	D01AC01	06/04/2004
31110434	D01AC01	03/02/2006
32090008	D01AC01	19/06/2009
31858634	D01AC01	23/04/2008
32097844	D01AC01	27/12/2006
31259496	D01AC01	16/07/2007
31445232	D01AC01	14/12/2010
31141007	D01AC01	31/01/2007
32154292	D01AC01	14/08/2001
31892114	D01AC01	28/04/2008
32163498	D01AC01	13/07/2005
31939641	D01AC01	23/09/2003
31103413	D01AC01	08/01/2009
32222307	D01AC01	20/11/2003
31903099	D01AC01	21/09/2005
31744272	D01AC01	19/09/2002
31335812	D01AC01	07/05/2004
31073134	D01AC01	01/12/2004
31402789	D01AC01	19/04/2002
31416932	D01AC01	28/05/2008
31680971	D01AC01	22/07/2003
32086716	D01AC01	23/11/2004
32088708	D01AC01	22/03/2007
31365988	D01AC01	17/04/2008
31802205	D01AC01	01/04/2009
31879291	D01AC01	25/02/2009
31502787	D01AC01	21/07/2006
31331386	D01AC01	27/10/2009
31447807	D01AC01	06/11/2007
31038591	D01AC01	31/07/2008
32103218	D01AC01	09/07/2008
32005794	D01AC01	10/08/2005
32079642	D01AC01	19/02/2008
31245136	D01AC01	16/05/2007
31829326	D01AC01	10/10/2008
31143117	D01AC01	11/06/2007
32013323	D01AC01	09/01/2007
31059046	D01AC01	11/01/2007
32135040	D01AC01	11/08/2009
32127277	D01AC01	10/01/2005
31444512	D01AC01	18/05/2007
31781231	D01AC01	06/10/2008
31763012	D01AC01	20/05/2008
32074407	D01AC01	16/02/2010
31099804	D01AC01	10/12/2009
31849808	D01AC01	08/06/2005
31520729	D01AC01	09/05/2002
31895605	D01AC01	04/01/2008
32111233	D01AC01	02/09/2005
31355795	D01AC01	07/12/2005
31650470	D01AC01	19/10/2006
32035320	D01AC01	10/02/2009
31790846	D01AC01	21/11/2006
31224124	D01AC01	30/07/2010
31445214	D01AC01	10/06/2002
31773930	D01AC01	01/06/2011
32176389	D01AC01	16/01/2007
31777190	D01AC01	19/02/2008
31959560	D01AC01	03/05/2002
31315192	D01AC01	05/03/2007
31227877	D01AC01	06/09/2006
31597401	D01AC01	09/02/2009
31482204	D01AC01	08/11/2007
31350300	D01AC01	30/05/2007
31461611	D01AC01	07/02/2007
32243083	D01AC01	19/01/2004
31502441	D01AC01	11/09/2006
31103963	D01AC01	30/11/2006
31264054	D01AC01	25/02/2004
31821992	D01AC01	20/07/2010
31707939	D01AC01	18/09/2003
31260435	D01AC01	30/12/2005
31259396	D01AC01	21/04/2004
31985233	D01AC01	25/06/2008
32202990	D01AC01	04/11/2005
32005875	D01AC01	14/10/2005
31249371	D01AC01	10/03/2008
31605879	D01AC01	04/02/2005
31095732	D01AC01	07/04/2010
31855559	D01AC01	19/06/2009
32068502	D01AC01	05/01/2005
31213651	D01AC01	13/11/2008
31665027	D01AC01	29/11/2007
32081702	D01AC01	13/03/2006
32255643	D01AC01	17/03/2004
31311414	D01AC01	03/10/2003
32101941	D01AC01	17/01/2007
32084821	D01AC01	20/01/2010
31584781	D01AC01	11/02/2008
32136199	D01AC01	05/06/2007
31533827	D01AC01	10/06/2009
32033414	D01AC01	08/11/2007
31638942	D01AC01	18/01/2007
31905546	D01AC01	04/02/2005
31923655	D01AC01	15/12/2008
31575261	D01AC01	12/08/2005
31915589	D01AC01	12/01/2007
31241434	D01AC01	19/02/2004
31296696	D01AC01	11/06/2008
31137463	D01AC01	18/02/2008
31731312	D01AC01	08/08/2005
31076718	D01AC01	08/06/2005
31931296	D01AC01	22/09/2008
32238911	D01AC01	28/10/2009
31450548	D01AC01	22/07/2005
31627314	D01AC01	18/09/2009
31292596	D01AC01	12/12/2002
32256089	D01AC01	23/03/2009
32258145	D01AC01	11/04/2003
32083376	D01AC01	03/10/2008
32207261	D01AC01	28/03/2006
31651640	D01AC01	26/07/2005
32244371	D01AC01	09/11/2009
31905944	D01AC01	21/10/2009
31624184	D01AC01	07/09/2007
32037940	D01AC01	01/09/2005
31436838	D01AC01	17/06/2008
31686790	D01AC01	02/07/2008
31905656	D01AC01	13/12/2010
31508328	D01AC01	15/05/2006
31278238	D01AC01	20/12/2001
31114994	D01AC01	02/02/2006
32188715	D01AC01	28/05/2008
31634806	D01AC01	11/05/2009
31514428	D01AC01	22/01/2009
31682435	D01AC01	23/05/2007
32238465	D01AC01	01/03/2006
31998758	D01AC01	03/09/2007
31591559	D01AC01	11/06/2007
31422036	D01AC01	19/10/2006
31880697	D01AC01	21/05/2009
31324394	D01AC01	07/12/2000
31075591	D01AC01	31/07/2000
31047908	D01AC01	18/05/2007
31873755	D01AC01	06/02/2008
31294383	D01AC01	11/04/2006
31531290	D01AC01	10/02/2009
32177040	D01AC01	17/08/2010
32125824	D01AC01	29/04/2005
32100016	D01AC01	26/03/2009
31551781	D01AC01	18/02/2002
32101252	D01AC01	08/06/2006
31443949	D01AC01	29/01/2004
31537997	D01AC01	18/11/2009
32097709	D01AC01	17/06/2005
32083468	D01AC01	20/12/2004
31305603	D01AC01	27/03/2007
31947791	D01AC01	29/01/2007
31564173	D01AC01	21/03/2007
31677354	D01AC01	08/11/2004
31348625	D01AC01	15/05/2006
31741824	D01AC01	13/08/2009
31288965	D01AC01	26/10/2009
31660701	D01AC01	17/05/2006
31583115	D01AC01	04/06/2007
31709931	D01AC01	31/10/2008
32206075	D01AC01	07/02/2005
31259629	D01AC01	23/07/2008
32249658	D01AC01	16/04/2007
31263929	D01AC01	12/12/2007
32130155	D01AC01	09/10/2008
32207830	D01AC01	30/11/2010
32115409	D01AC01	12/03/2008
31335672	D01AC01	05/07/2002
31412392	D01AC01	31/03/2010
31437098	D01AC01	13/06/2003
31066888	D01AC01	11/12/2007
31266245	D01AC01	18/04/2007
31081419	D01AC01	29/12/2005
32149423	D01AC01	21/06/2005
31547925	D01AC01	12/06/2008
32229216	D01AC01	04/05/2007
32146440	D01AC01	13/02/2009
31329070	D01AC01	26/05/2009
31631947	D01AC01	23/06/2008
31673209	D01AC01	23/03/2009
32095959	D01AC01	12/08/2003
31750757	D01AC01	04/09/2003
31794924	D01AC01	29/09/2003
32199644	D01AC01	03/03/2011
31046471	D01AC01	30/06/2009
31901111	D01AC01	05/03/2004
31254762	D01AC01	02/11/2004
31582208	D01AC01	03/09/2003
31269346	D01AC01	06/11/2007
32141974	D01AC01	20/03/2002
32106251	D01AC01	02/07/2008
31377619	D01AC01	16/05/2006
31785047	D01AC01	25/02/2005
32011623	D01AC01	06/08/2007
31595636	D01AC01	08/06/2007
32039642	D01AC01	26/09/2008
31173586	D01AC01	25/11/2004
31648346	D01AC01	13/03/2008
31598763	D01AC01	05/11/2002
31128087	D01AC01	06/05/2004
31879064	D01AC01	22/08/2006
31070742	D01AC01	14/05/2009
31223866	D01AC01	15/12/2008
31754443	D01AC01	22/02/2011
31642511	D01AC01	05/01/2004
31419138	D01AC01	03/12/2008
32239733	D01AC01	20/07/2004
31672323	D01AC01	14/11/2007
31201150	D01AC01	17/01/2005
31246615	D01AC01	12/11/2007
31070067	D01AC01	27/04/2007
31736936	D01AC01	09/01/2009
31990571	D01AC01	14/11/2008
31584632	D01AC01	09/02/2007
31072279	D01AC01	09/01/2004
31166024	D01AC01	05/10/2005
31534531	D01AC01	16/09/2005
31801040	D01AC01	10/07/2006
31974242	D01AC01	07/03/2003
31125489	D01AC01	08/08/2005
31248576	D01AC01	04/02/2011
31260378	D01AC01	14/10/2010
31695492	D01AC01	06/09/2007
31837765	D01AC01	02/09/2003
31558539	D01AC01	16/03/2005
31426233	D01AC01	21/06/2007
31086081	D01AC01	03/04/2008
31429004	D01AC01	10/01/2008
31195889	D01AC01	06/02/2007
32179337	D01AC01	16/09/2005
32281205	D01AC01	17/04/2008
32159787	D01AC01	29/03/2005
31072055	D01AC01	01/09/2005
31716350	D01AC01	31/07/2007
31538537	D01AC01	23/07/2003
31354855	D01AC01	27/04/2005
32149357	D01AC01	05/07/2010
31426165	D01AC01	18/08/2004
31668345	D01AC01	26/04/2003
31109895	D01AC01	28/03/2001
31295038	D01AC01	29/09/2010
31851844	D01AC01	06/09/2005
31176608	D01AC01	20/03/2007
31761935	D01AC01	03/11/2006
32190244	D01AC01	24/03/2006
32233193	D01AC01	28/11/2007
32156533	D01AC01	13/07/2009
31068246	D01AC01	29/07/2005
31271546	D01AC01	13/07/2006
31156890	D01AC01	20/11/2009
32161288	D01AC01	23/05/2007
31822045	D01AC01	28/09/2005
31501864	D01AC01	11/02/2004
31838893	D01AC01	28/08/2003
32125428	D01AC01	19/07/2006
31463602	D01AC01	27/11/2003
32006368	D01AC01	24/04/2007
31999567	D01AC01	11/08/2008
31179884	D01AC01	17/07/2006
31326912	D01AC01	20/08/1999
31481139	D01AC01	08/03/2005
31278522	D01AC01	21/04/2009
32080097	D01AC01	16/01/2007
31467267	D01AC01	19/09/2007
31038907	D01AC01	24/01/2005
32268898	D01AC01	16/10/2006
31168702	D01AC01	27/02/2009
31638449	D01AC01	09/07/2009
31241823	D01AC01	27/10/2006
31040057	D01AC01	19/05/2009
31807726	D01AC01	30/11/2007
31313597	D01AC01	13/03/2007
31333815	D01AC01	15/03/2005
31178784	D01AC01	17/12/2009
31727410	D01AC01	07/11/2006
31785126	D01AC01	14/05/2008
31054768	D01AC01	03/03/2008
32121891	D01AC01	19/06/2006
31713979	D01AC01	30/01/2006
31138394	D01AC01	05/07/2005
31991384	D01AC01	05/12/2003
31695909	D01AC01	13/11/2006
32009303	D01AC01	18/01/2008
32055682	D01AC01	10/05/2005
31707502	D01AC01	03/05/2007
32011804	D01AC01	11/02/2010
32069282	D01AC01	19/02/2003
31036566	D01AC01	23/07/2009
31797949	D01AC01	01/07/2008
31175471	D01AC01	04/09/2006
31144718	D01AC01	19/06/2009
32224769	D01AC01	26/02/2001
31270547	D01AC01	11/03/2005
31747041	D01AC01	31/05/2004
31135814	D01AC01	05/07/2005
31349175	D01AC01	08/03/2005
31255353	D01AC01	21/04/2004
31195300	D01AC01	22/06/2005
31920467	D01AC01	10/12/2008
32045016	D01AC01	16/10/2002
31931558	D01AC01	26/11/2004
31049143	D01AC01	22/08/2007
31446397	D01AC01	07/06/2007
31889249	D01AC01	24/04/2008
31901788	D01AC01	31/08/2004
31264507	D01AC01	16/08/2006
31405567	D01AC01	13/03/2008
31918158	D01AC01	29/03/2004
32088000	D01AC01	03/04/2008
31247441	D01AC01	11/06/2003
31221513	D01AC01	13/07/2010
32000642	D01AC01	18/03/2005
31445349	D01AC01	05/08/2009
32278810	D01AC01	28/07/2003
31047758	D01AC01	17/02/2009
32041939	D01AC01	26/04/2006
31940293	D01AC01	19/02/2004
31708797	D01AC01	08/05/2002
31411562	D01AC01	11/09/2009
32269608	D01AC01	23/03/2006
31150855	D01AC01	25/11/2004
31328206	D01AC01	05/06/2007
31336062	D01AC01	10/02/2004
31570040	D01AC01	17/05/2007
31576491	D01AC01	20/11/2007
31494963	D01AC01	02/02/2004
31486064	D01AC01	05/06/2008
31684605	D01AC01	17/10/2005
31430347	D01AC01	28/04/2003
31312456	D01AC01	27/05/2010
31629176	D01AC01	04/07/2005
31942616	D01AC01	07/05/2008
31967869	D01AC01	25/04/2006
31765548	D01AC01	08/06/2006
31194670	D01AC01	12/03/2008
31058197	D01AC01	24/07/2006
32254900	D01AC01	06/11/2009
31992970	D01AC01	14/01/2010
31850345	D01AC01	26/11/2008
31544442	D01AC01	13/11/2006
32223263	D01AC01	12/01/2004
32152555	D01AC01	29/12/2005
31575578	D01AC01	10/02/2009
32257370	D01AC01	09/04/2001
31718029	D01AC01	25/01/2006
31970294	D01AC01	03/12/2003
31641614	D01AC01	14/08/2009
31788856	D01AC01	14/10/2008
31390875	D01AC01	19/01/2007
31325082	D01AC01	24/07/2006
31543732	D01AC01	10/02/2005
32003164	D01AC01	16/05/2005
31898173	D01AC01	21/06/2004
31919027	D01AC01	16/07/2009
31476368	D01AC01	13/07/2004
32252204	D01AC01	16/09/2009
31470090	D01AC01	20/01/2011
31569010	D01AC01	10/03/2009
31084479	D01AC01	07/09/2005
31427055	D01AC01	30/07/2007
31533289	D01AC01	24/11/2004
31653453	D01AC01	02/07/2008
31184463	D01AC01	25/09/2009
31632832	D01AC01	13/06/2007
32181106	D01AC01	10/08/2005
31497101	D01AC01	04/06/2009
32009359	D01AC01	08/07/2009
31420898	D01AC01	28/03/2008
32026735	D01AC01	07/07/2009
31522583	D01AC01	15/09/2005
31206924	D01AC01	03/05/2007
31679146	D01AC01	06/07/2010
31947419	D01AC01	31/08/2006
31604235	D01AC01	14/12/2009
31078684	D01AC01	11/07/2007
31417879	D01AC01	11/03/2011
31566072	D01AC01	13/01/2009
31054169	D01AC01	11/10/2007
31087698	D01AC01	31/07/2008
31949780	D01AC01	16/01/2003
31654291	D01AC01	23/08/2006
31622937	D01AC01	02/04/2004
31657251	D01AC01	08/01/2010
31131105	D01AC01	08/09/2005
31662360	D01AC01	14/10/2010
31177028	D01AC01	16/02/2007
31142653	D01AC01	25/09/2009
31962165	D01AC01	29/07/2008
31568218	D01AC01	09/11/2006
31378201	D01AC01	16/01/2006
31554072	D01AC01	02/07/2010
31104294	D01AC01	27/06/2005
31349160	D01AC01	02/06/2004
31138339	D01AC01	24/11/2005
31598113	D01AC01	03/11/2003
31158629	D01AC01	03/04/2006
31058348	D01AC01	18/01/2008
31445281	D01AC01	15/10/2009
32141661	D01AC01	27/10/2005
31884637	D01AC01	23/09/2003
31860135	D01AC01	13/09/2004
32173478	D01AC01	26/03/2004
31699191	D01AC01	01/10/2009
31901938	D01AC01	29/05/2002
31292902	D01AC01	21/10/2005
31604848	D01AC01	21/09/2009
31847191	D01AC01	10/10/2005
31246026	D01AC01	15/10/2008
31724163	D01AC01	27/06/2008
31473091	D01AC01	09/10/2007
31172111	D01AC01	23/09/2004
31142306	D01AC01	16/07/2007
32059744	D01AC01	15/09/2006
31925538	D01AC01	24/09/2008
31472012	D01AC01	23/09/2008
31746793	D01AC01	15/01/2009
31666392	D01AC01	10/01/2008
31076403	D01AC01	27/07/2006
32073892	D01AC01	03/07/2009
31657268	D01AC01	26/12/2005
31536647	D01AC01	27/07/2009
31410815	D01AC01	31/03/2004
31348815	D01AC01	18/07/2006
32098529	D01AC01	01/10/2007
31228032	D01AC01	17/08/2006
31703705	D01AC01	14/07/2003
31721704	D01AC01	27/12/2010
31307812	D01AC01	06/05/2009
31478530	D01AC01	31/03/2006
31492971	D01AC01	04/05/2009
31579343	D01AC01	18/09/2007
32251333	D01AC01	22/02/2007
32023838	D01AC01	21/05/2009
32006225	D01AC01	02/09/2009
32109768	D01AC01	19/04/2004
31579117	D01AC01	16/02/2010
31323296	D01AC01	21/03/2002
31916575	D01AC01	07/12/2005
31811807	D01AC01	20/07/2007
31732736	D01AC01	21/01/2005
31143978	D01AC01	15/12/2009
31477255	D01AC01	03/07/2007
31767577	D01AC01	02/07/2010
31281875	D01AC01	18/08/2009
32007326	D01AC01	09/05/2006
31928282	D01AC01	18/11/2008
31353724	D01AC01	13/10/2003
31067242	D01AC01	14/01/2005
31360029	D01AC01	27/11/2007
32024753	D01AC01	12/06/2008
31031117	D01AC01	26/10/2009
31883663	D01AC01	27/11/2002
31810681	D01AC01	12/12/2008
31163879	D01AC01	21/05/2010
31740975	D01AC01	13/10/2010
31852625	D01AC01	10/03/2011
31636464	D01AC01	05/07/2007
31074728	D01AC01	02/04/2008
31486343	D01AC01	21/02/2005
31864799	D01AC01	04/03/2009
31071531	D01AC01	24/06/2009
31526798	D01AC01	20/01/2006
31487862	D01AC01	04/06/2004
31804296	D01AC01	15/09/2004
32050276	D01AC01	29/07/2009
31450182	D01AC01	31/03/2004
31122698	D01AC01	27/10/2010
32152276	D01AC01	17/02/2004
32272640	D01AC01	16/04/2004
31840912	D01AC01	03/06/2009
31905243	D01AC01	19/01/2009
31574647	D01AC01	22/10/2007
31577314	D01AC01	10/07/2001
31830506	D01AC01	09/06/2005
31464063	D01AC01	26/03/2004
31085609	D01AC01	04/03/2003
31061564	D01AC01	14/01/2009
32050605	D01AC01	07/08/2008
31605696	D01AC01	28/04/2008
31176367	D01AC01	27/03/2006
31337456	D01AC01	24/09/2007
31048637	D01AC01	12/11/2007
31106394	D01AC01	27/03/2009
31049071	D01AC01	01/09/2006
32016456	D01AC01	09/03/2009
31981297	D01AC01	20/12/2006
32267141	D01AC01	20/12/2006
31205160	D01AC01	25/09/2008
31699160	D01AC01	30/03/2006
31053935	D01AC01	01/08/2007
31042576	D01AC01	09/06/2004
31119393	D01AC01	20/06/2005
32136272	D01AC01	23/12/2008
31933305	D01AC01	26/01/2011
31715052	D01AC01	13/01/2010
31707970	D01AC01	16/11/2007
31874542	D01AC01	26/01/2007
31610642	D01AC01	04/01/2007
31409972	D01AC01	20/10/2005
31812494	D01AC01	20/01/2011
32141546	D01AC01	09/06/2008
32253685	D01AC01	10/11/2008
31281596	D01AC01	01/12/2004
31788106	D01AC01	13/04/2010
31813665	D01AC01	08/07/2008
31741333	D01AC01	30/05/2002
32008903	D01AC01	20/10/2010
31034301	D01AC01	08/10/2010
31736383	D01AC01	08/05/2006
32279388	D01AC01	07/09/2009
32185334	D01AC01	25/05/2007
31272602	D01AC01	25/07/2003
31670926	D01AC01	12/06/2009
31221154	D01AC01	17/11/2005
32194941	D01AC01	09/06/2009
32093133	D01AC01	01/06/2009
31979862	D01AC01	05/04/2004
31685580	D01AC01	23/02/2007
31374121	D01AC01	06/03/2008
31944420	D01AC01	12/12/2006
31636008	D01AC01	27/10/2009
32128059	D01AC01	06/03/2008
32018650	D01AC01	17/03/2009
31912444	D01AC01	26/10/2005
31144302	D01AC01	13/04/2004
32154430	D01AC01	17/06/2008
31740407	D01AC01	28/03/2007
32132667	D01AC01	30/10/2007
31853795	D01AC01	05/03/2010
31861365	D01AC01	10/03/2004
31650488	D01AC01	18/10/2004
31594316	D01AC01	14/02/2003
31484986	D01AC01	19/04/2010
32053362	D01AC01	15/01/2004
32174472	D01AC01	04/02/2004
31137728	D01AC01	16/09/2005
31432953	D01AC01	07/06/2006
31533154	D01AC01	05/06/2007
31452945	D01AC01	21/08/2008
31362253	D01AC01	12/02/2004
32122873	D01AC01	07/02/2005
31408407	D01AC01	06/04/2011
31356731	D01AC01	16/11/2006
32086103	D01AC01	08/08/2007
32261108	D01AC01	23/09/2009
31951386	D01AC01	04/12/2003
31726497	D01AC01	28/04/2003
32120883	D01AC01	26/06/2008
31220264	D01AC01	26/07/2006
31041007	D01AC01	22/05/2008
31077181	D01AC01	28/08/2006
31746286	D01AC01	28/11/2006
32187641	D01AC01	06/04/2005
31364449	D01AC01	23/09/2005
31429343	D01AC01	01/04/2003
31419804	D01AC01	27/06/2003
32121072	D01AC01	27/07/2006
32237490	D01AC01	10/06/2008
31410826	D01AC01	29/01/2002
32200995	D01AC01	04/06/2007
31394041	D01AC01	14/05/2007
31585275	D01AC01	04/11/2008
31430986	D01AC01	29/09/2006
32070505	D01AC01	10/03/2008
31197126	D01AC01	02/01/2008
31786081	D01AC01	09/10/2001
31165916	D01AC01	30/06/2008
31096433	D01AC01	25/03/2004
31062948	D01AC01	31/07/2008
32267215	D01AC01	31/01/2006
31569630	D01AC01	21/08/2008
32011511	D01AC01	21/03/2005
31687405	D01AC01	06/02/2007
32283713	D01AC01	12/06/2006
31665669	D01AC01	11/05/2007
32087928	D01AC01	04/01/2005
31691272	D01AC01	04/04/2005
32094975	D01AC01	09/05/2008
31080214	D01AC01	22/12/2009
31703712	D01AC01	18/04/2006
31427687	D01AC01	29/10/2008
31032911	D01AC01	31/10/2007
32248123	D01AC01	17/11/2008
31640321	D01AC01	20/07/2010
31838445	D01AC01	29/04/2009
