patient_id	covar_name	date
5035135	ESCMUL	10/08/2006
6759472	ESCMUL	22/03/2001
20570295	ESCMUL	18/04/2008
10270515	ESCMUL	05/12/1998
8972807	ESCMUL	25/07/2001
24764394	ESCMUL	25/06/2004
8295052	ESCMUL	18/08/2010
15668700	ESCMUL	17/10/2007
25063184	ESCMUL	27/04/2004
9384804	ESCMUL	03/03/2005
6035529	ESCMUL	26/06/2007
25059072	ESCMUL	01/01/2001
26144430	ESCMUL	26/05/2010
6222428	ESCMUL	08/01/2002
1264564	ESCMUL	22/10/2007
4363403	ESCMUL	02/01/2008
716836	ESCMUL	21/11/2001
15290797	ESCMUL	10/08/2009
18223753	ESCMUL	27/12/2005
2132842	ESCMUL	31/10/2007
21063513	ESCMUL	14/01/2003
26932901	ESCMUL	16/02/2005
26942197	ESCMUL	05/11/2003
27168688	ESCMUL	25/02/2003
27300738	ESCMUL	23/06/2010
27251955	ESCMUL	11/08/2006
27481175	ESCMUL	02/06/2009
27477467	ESCMUL	25/10/2005
27442210	ESCMUL	01/01/1999
27544611	ESCMUL	19/08/1997
27287115	ESCMUL	27/02/2006
26952506	ESCMUL	04/02/2004
33083573	ESCMUL	10/11/2009
27661862	ESCMUL	04/06/2003
33028840	ESCMUL	23/10/2009
33209711	ESCMUL	19/11/2004
16604459	ESCMUL	01/01/1994
23412507	ESCMUL	16/07/2010
31409038	ESCMUL	04/01/2002
31547137	ESCMUL	17/05/2010
31210288	ESCMUL	01/01/2000
31869403	ESCMUL	15/01/2009
31966303	ESCMUL	04/10/2010
31703414	ESCMUL	19/05/2006
31839108	ESCMUL	01/01/1998
32162258	ESCMUL	21/12/2006
32227680	ESCMUL	30/08/2005
32149898	ESCMUL	23/01/2009
32035111	ESCMUL	11/01/2005
32071899	ESCMUL	09/04/2010
31715785	ESCMUL	10/08/2006
31424896	ESCMUL	10/07/2006
31742080	ESCMUL	28/10/2010
31374194	ESCMUL	13/06/2008
31087836	ESCMUL	01/01/2002
32191488	ESCMUL	04/02/2008
31272512	ESCMUL	11/03/2005
31915522	ESCMUL	11/09/1999
32109384	ESCMUL	22/09/2009
31483007	ESCMUL	30/03/2004
31359071	ESCMUL	02/10/2007
