patient_id	covar_name	date
16109980	ENFII	06/10/2009
9203265	ENFII	31/07/2006
607556	ENFII	22/11/2001
12479060	ENFII	15/09/2008
9312637	ENFII	28/05/2010
8293370	ENFII	14/03/2003
15899935	ENFII	07/12/2005
9177654	ENFII	26/09/2000
5814094	ENFII	04/08/2010
7852574	ENFII	16/04/2008
14641279	ENFII	24/07/2009
5024832	ENFII	14/02/2005
7242734	ENFII	20/02/2007
3334058	ENFII	12/02/2008
612234	ENFII	13/03/2008
1162828	ENFII	24/06/2002
3502435	ENFII	16/01/2009
24865463	ENFII	14/10/2003
16483871	ENFII	21/09/2010
7350747	ENFII	29/05/1993
15423756	ENFII	16/06/2009
6745595	ENFII	14/11/2001
16530229	ENFII	16/06/2006
9387076	ENFII	16/06/2008
1444332	ENFII	15/11/1932
1200808	ENFII	01/01/1988
18076371	ENFII	04/05/2010
6597726	ENFII	24/09/2002
1417023	ENFII	20/08/2004
7777625	ENFII	14/02/2005
1207737	ENFII	02/12/2004
716983	ENFII	28/11/2000
2041709	ENFII	06/02/2008
2041685	ENFII	31/10/2001
877365	ENFII	28/03/2001
26243685	ENFII	15/02/1984
26338790	ENFII	09/06/2006
26384450	ENFII	01/01/1992
183510	ENFII	01/12/2003
424750	ENFII	24/07/1998
26623679	ENFII	02/05/2005
1903907	ENFII	25/03/1999
1367833	ENFII	17/11/1999
1371686	ENFII	07/04/2009
1031036	ENFII	26/05/2005
19803915	ENFII	12/09/2000
19424258	ENFII	21/11/2007
2988862	ENFII	01/11/2006
14311089	ENFII	25/02/2001
2990019	ENFII	30/06/2005
26620827	ENFII	01/02/1999
24583039	ENFII	03/08/2006
24667198	ENFII	23/08/2004
27037437	ENFII	24/11/2004
26895615	ENFII	28/04/2011
26915129	ENFII	18/09/2003
26959827	ENFII	15/01/2004
26976525	ENFII	28/02/1998
26990531	ENFII	03/08/2006
27154320	ENFII	29/07/2008
27043159	ENFII	21/12/2009
27063122	ENFII	08/06/2005
26994837	ENFII	12/05/2006
27354142	ENFII	09/05/2007
27243228	ENFII	09/10/2007
27301379	ENFII	24/09/2006
27324136	ENFII	11/11/1999
27252105	ENFII	19/08/2002
27234386	ENFII	22/02/2005
27579610	ENFII	19/01/2007
27474892	ENFII	30/12/2009
27761731	ENFII	29/10/2007
27160905	ENFII	12/04/2005
27772053	ENFII	07/08/2006
27779761	ENFII	12/04/2002
27576086	ENFII	30/05/2008
27717578	ENFII	16/03/2009
27662240	ENFII	02/07/2003
27315085	ENFII	11/10/2006
33099353	ENFII	10/10/2008
33080218	ENFII	01/02/2011
33104560	ENFII	18/05/2010
33086351	ENFII	22/02/2006
19422878	ENFII	01/10/2003
33034636	ENFII	19/08/2010
33020543	ENFII	24/01/2001
16169338	ENFII	28/05/2001
33297139	ENFII	28/06/2010
33204352	ENFII	30/04/2010
33265155	ENFII	11/01/2011
33204424	ENFII	15/09/2006
16648559	ENFII	21/04/2004
28032635	ENFII	05/05/2011
16619883	ENFII	26/11/1999
16601485	ENFII	19/03/2009
23319611	ENFII	10/06/2010
28026109	ENFII	20/05/2009
28000578	ENFII	01/01/1999
24462602	ENFII	10/01/2008
31430057	ENFII	17/05/2001
16623961	ENFII	01/01/1995
23316318	ENFII	27/10/2004
21110084	ENFII	10/05/2004
23351379	ENFII	01/01/1999
23367589	ENFII	09/06/2006
32278286	ENFII	19/10/2006
31779027	ENFII	27/11/2007
32168842	ENFII	01/01/1995
31355319	ENFII	23/06/2008
32137222	ENFII	21/08/2008
31818244	ENFII	04/08/2010
31275676	ENFII	01/09/2003
31147797	ENFII	28/08/2006
31566931	ENFII	14/05/1932
31110768	ENFII	18/01/2006
32123084	ENFII	27/04/2001
31731299	ENFII	17/01/2001
31324227	ENFII	16/02/1995
31160405	ENFII	28/12/2007
31987045	ENFII	19/01/2000
31510201	ENFII	03/05/2010
32080851	ENFII	27/01/2005
31895006	ENFII	04/02/2011
32059871	ENFII	01/01/1998
31420909	ENFII	23/10/2002
32155110	ENFII	11/05/2011
31835258	ENFII	03/10/2008
31446409	ENFII	12/06/2008
31446321	ENFII	02/06/2008
32258927	ENFII	09/10/2008
32182882	ENFII	22/03/1997
31057391	ENFII	27/11/2006
31480774	ENFII	05/02/2010
31863781	ENFII	01/01/2000
32101252	ENFII	22/03/2005
31444214	ENFII	30/12/2003
32153728	ENFII	04/08/1987
31089931	ENFII	02/06/2000
31841508	ENFII	28/03/2006
32227680	ENFII	04/09/2006
31777932	ENFII	15/06/2009
31793297	ENFII	23/07/2003
31582489	ENFII	16/11/2007
31962147	ENFII	16/03/2011
31699051	ENFII	15/02/1995
31741195	ENFII	10/11/2009
31405567	ENFII	07/02/2007
31431782	ENFII	02/07/2009
31310294	ENFII	21/01/2008
32239622	ENFII	12/11/2004
31367206	ENFII	22/11/2005
31629176	ENFII	26/08/2002
31630566	ENFII	22/07/2009
31449811	ENFII	06/10/2003
31898174	ENFII	10/03/2009
31622935	ENFII	09/06/2003
31816328	ENFII	22/02/2011
32189192	ENFII	12/09/2008
31784135	ENFII	15/12/2004
31905487	ENFII	15/12/2010
31811578	ENFII	12/01/2005
31234721	ENFII	20/10/2004
31151033	ENFII	04/09/2000
31473693	ENFII	13/10/2004
32194941	ENFII	04/02/2002
31685580	ENFII	09/08/2004
32270707	ENFII	31/07/2003
31227221	ENFII	23/04/2003
31915873	ENFII	14/10/2005
31768014	ENFII	11/07/2003
