patient_id	covar_name	date
1939199	H02AB13	28/08/2009
12857166	H02AB13	17/11/2003
8784390	H02AB13	23/11/2004
9618081	H02AB13	04/09/2009
9231384	H02AB13	25/06/2009
3302830	H02AB13	15/06/2009
6040714	H02AB13	09/05/2011
8581315	H02AB13	05/05/2011
10393681	H02AB13	08/09/2009
5026737	H02AB13	01/03/2007
6244907	H02AB13	14/09/2005
947960	H02AB13	31/08/2004
24763901	H02AB13	20/11/2009
9302346	H02AB13	20/11/2006
6749631	H02AB13	22/07/2010
8654979	H02AB13	29/11/2005
1731330	H02AB13	24/03/2011
3303074	H02AB13	01/03/2011
24950727	H02AB13	10/04/2007
8655621	H02AB13	11/03/2010
1732204	H02AB13	26/10/2004
3550782	H02AB13	11/05/2005
9384077	H02AB13	14/05/2008
11407938	H02AB13	15/07/2005
4598441	H02AB13	16/09/2005
9385544	H02AB13	04/04/2006
9328550	H02AB13	02/03/2011
22918279	H02AB13	30/11/2010
8293370	H02AB13	07/11/2005
9982943	H02AB13	10/02/2005
1068704	H02AB13	09/03/2010
701693	H02AB13	12/05/2004
12806895	H02AB13	07/09/2010
6416555	H02AB13	11/03/2011
24730138	H02AB13	25/03/2011
9212611	H02AB13	18/06/2009
20529245	H02AB13	09/01/2008
210163	H02AB13	19/01/2004
9310935	H02AB13	01/04/2011
949778	H02AB13	01/12/2004
11994028	H02AB13	03/11/2003
613178	H02AB13	24/01/2011
8977061	H02AB13	11/06/1999
15368729	H02AB13	21/10/2010
20535914	H02AB13	27/04/2010
6744663	H02AB13	29/09/2008
8977128	H02AB13	01/02/2002
5814094	H02AB13	26/04/2004
8406281	H02AB13	05/12/2006
9134539	H02AB13	08/09/2010
9376813	H02AB13	17/12/2007
9376347	H02AB13	19/11/2004
3322587	H02AB13	19/01/2006
732094	H02AB13	27/06/2008
9383919	H02AB13	11/03/2009
7245493	H02AB13	07/06/2010
9209618	H02AB13	20/10/2005
2768779	H02AB13	05/06/2008
8294797	H02AB13	27/04/2010
1123277	H02AB13	18/02/2010
740565	H02AB13	26/04/2011
9997591	H02AB13	18/06/2003
15914106	H02AB13	27/05/2011
5028776	H02AB13	09/02/2009
9293811	H02AB13	01/04/2011
209647	H02AB13	03/06/2005
8652236	H02AB13	17/03/2010
6745081	H02AB13	12/12/2006
24764589	H02AB13	24/01/2008
20564026	H02AB13	15/10/1999
6757389	H02AB13	17/06/2009
20557462	H02AB13	25/02/2010
19185008	H02AB13	03/05/2011
12695840	H02AB13	03/03/2005
9371647	H02AB13	19/05/2011
7245600	H02AB13	22/11/2005
14944922	H02AB13	21/10/2009
6748095	H02AB13	08/01/2008
8700163	H02AB13	13/10/2010
12691956	H02AB13	19/01/2011
13861443	H02AB13	10/02/2009
6968647	H02AB13	20/11/2007
600191	H02AB13	15/04/2005
8978095	H02AB13	26/05/2011
12478506	H02AB13	24/01/2006
17217198	H02AB13	27/10/2010
3304800	H02AB13	13/07/2004
3304834	H02AB13	12/01/2007
12695067	H02AB13	28/12/2009
1938542	H02AB13	06/08/2007
25071403	H02AB13	04/11/2009
3318713	H02AB13	10/02/2011
6298594	H02AB13	09/06/2004
7023767	H02AB13	05/06/2007
1940935	H02AB13	26/09/2005
63163	H02AB13	17/11/2004
16559495	H02AB13	21/10/2009
1069069	H02AB13	24/03/2006
17217406	H02AB13	19/06/2008
25051945	H02AB13	25/04/2007
948613	H02AB13	15/10/2008
8642044	H02AB13	02/01/2006
6177821	H02AB13	21/05/2009
6748351	H02AB13	16/12/2003
8641065	H02AB13	08/02/2008
3328652	H02AB13	07/09/2005
16479624	H02AB13	09/02/2010
1303002	H02AB13	20/08/2004
6759252	H02AB13	29/09/2006
8787056	H02AB13	30/12/2003
941531	H02AB13	29/01/2010
9315447	H02AB13	18/01/2011
6745501	H02AB13	10/06/2010
5028278	H02AB13	14/12/2010
23994781	H02AB13	29/10/2003
1432627	H02AB13	03/07/2000
1069126	H02AB13	10/01/2008
16530402	H02AB13	21/12/2007
5865734	H02AB13	29/12/2008
8982102	H02AB13	09/05/2007
9387065	H02AB13	13/03/2007
8982768	H02AB13	27/08/2007
9135492	H02AB13	19/01/2007
7352379	H02AB13	14/10/2010
25041721	H02AB13	06/11/2007
12831015	H02AB13	20/01/2009
10604282	H02AB13	18/01/2010
23442777	H02AB13	23/09/2008
8557985	H02AB13	05/10/2009
12830700	H02AB13	11/04/2011
1068416	H02AB13	28/01/2009
6749295	H02AB13	08/04/2010
1515452	H02AB13	29/01/2002
1515149	H02AB13	17/04/2008
17171744	H02AB13	11/05/2011
6243560	H02AB13	30/12/2009
8654015	H02AB13	02/04/2007
9375948	H02AB13	22/05/2009
9378605	H02AB13	25/03/2010
8651304	H02AB13	17/12/2008
8582373	H02AB13	21/04/2006
3119951	H02AB13	27/05/2008
10003982	H02AB13	15/10/2009
3292946	H02AB13	17/09/2008
10604423	H02AB13	17/04/2009
9220165	H02AB13	22/01/2009
603859	H02AB13	06/03/2007
16101133	H02AB13	17/05/2004
16559356	H02AB13	21/07/2008
3328431	H02AB13	03/01/2011
12856801	H02AB13	08/09/2008
25048008	H02AB13	15/12/2009
12783491	H02AB13	23/12/2010
19153820	H02AB13	15/04/2008
24930008	H02AB13	30/05/2008
16230858	H02AB13	10/11/2004
14858420	H02AB13	14/10/2010
12692288	H02AB13	10/02/2006
949299	H02AB13	03/08/2006
16530229	H02AB13	11/12/2009
9997453	H02AB13	04/12/2009
9304423	H02AB13	01/06/2006
731004	H02AB13	30/01/2007
8655586	H02AB13	20/12/2010
3285563	H02AB13	15/10/2009
11661691	H02AB13	24/11/2005
16979253	H02AB13	28/09/2010
14857979	H02AB13	14/04/2011
17172555	H02AB13	12/02/2009
6417619	H02AB13	22/05/2007
5033201	H02AB13	07/03/2011
14982937	H02AB13	25/05/2009
12259021	H02AB13	27/04/2010
6177775	H02AB13	09/12/2010
8292120	H02AB13	14/09/2006
3334915	H02AB13	22/05/2009
9378345	H02AB13	13/02/2008
9311223	H02AB13	24/07/2007
17217433	H02AB13	25/02/2011
9983309	H02AB13	30/09/2005
10267886	H02AB13	16/10/2007
12689812	H02AB13	08/03/2010
8582719	H02AB13	17/04/2006
4988916	H02AB13	22/08/2000
16977479	H02AB13	14/06/2006
12764043	H02AB13	16/01/2006
7781621	H02AB13	24/10/2003
12774422	H02AB13	03/01/2005
9373480	H02AB13	10/04/2006
7968770	H02AB13	25/01/2007
645074	H02AB13	28/04/2010
1445557	H02AB13	06/04/2010
1546771	H02AB13	24/04/2007
26139680	H02AB13	05/05/2008
26139616	H02AB13	09/06/2008
1090730	H02AB13	26/12/2006
1444184	H02AB13	12/06/2007
26145000	H02AB13	08/05/2008
8066182	H02AB13	21/12/2006
641127	H02AB13	19/05/2005
1444339	H02AB13	21/05/2004
1352974	H02AB13	29/10/2004
7967098	H02AB13	11/02/2004
7800178	H02AB13	10/02/2004
1206466	H02AB13	17/08/2006
1671683	H02AB13	10/09/2009
24719453	H02AB13	12/01/2010
1850827	H02AB13	12/11/2004
24944378	H02AB13	02/11/2004
8933997	H02AB13	02/10/2003
1353899	H02AB13	15/06/2004
1852451	H02AB13	16/05/2011
7967084	H02AB13	03/04/2006
1852422	H02AB13	29/06/2007
1276830	H02AB13	13/03/2006
1853841	H02AB13	22/06/2007
6596593	H02AB13	16/05/2006
1203945	H02AB13	01/08/2005
640782	H02AB13	05/12/2006
1352737	H02AB13	04/05/2005
1170363	H02AB13	19/10/2007
640828	H02AB13	23/11/2009
1444199	H02AB13	09/12/2010
1416316	H02AB13	17/08/2000
26144152	H02AB13	30/12/2010
1853285	H02AB13	27/11/2006
24925938	H02AB13	06/02/2006
1849882	H02AB13	24/09/2007
15868256	H02AB13	15/06/2009
1850465	H02AB13	25/06/2007
641933	H02AB13	11/04/2003
1205262	H02AB13	26/01/2011
1545758	H02AB13	04/04/2005
1418023	H02AB13	23/11/2005
6342771	H02AB13	20/10/2010
1208200	H02AB13	11/01/2011
1206194	H02AB13	05/05/2009
1276923	H02AB13	09/04/2011
8933284	H02AB13	11/11/2010
7652674	H02AB13	20/11/2008
6594082	H02AB13	04/05/2001
1276998	H02AB13	08/04/2011
13228782	H02AB13	25/02/2010
1205544	H02AB13	29/12/2008
1670222	H02AB13	09/12/2008
1352039	H02AB13	18/12/2003
1295941	H02AB13	28/01/2005
1545551	H02AB13	23/01/2006
7848502	H02AB13	09/12/2008
7964309	H02AB13	17/08/2010
1349535	H02AB13	04/05/2009
641313	H02AB13	28/03/2005
4699921	H02AB13	02/09/2009
7966461	H02AB13	13/12/2010
1420732	H02AB13	24/09/2010
6592127	H02AB13	07/05/2010
639360	H02AB13	13/09/2005
12189158	H02AB13	29/04/2002
404498	H02AB13	10/06/2003
5992373	H02AB13	12/02/2007
8956059	H02AB13	21/06/2007
540075	H02AB13	31/12/2010
6591119	H02AB13	27/03/2003
1446069	H02AB13	01/04/2006
7801045	H02AB13	26/05/2009
565283	H02AB13	15/12/2008
1420467	H02AB13	29/03/2005
1426345	H02AB13	08/08/2001
12613417	H02AB13	14/10/2004
12187307	H02AB13	30/01/2007
1202351	H02AB13	14/05/2003
1353504	H02AB13	09/02/2010
1443798	H02AB13	29/04/2004
13987343	H02AB13	19/04/2007
14684062	H02AB13	04/09/2009
639203	H02AB13	06/05/2011
7850455	H02AB13	30/05/2008
539779	H02AB13	06/11/2009
7776144	H02AB13	24/03/2006
7964660	H02AB13	11/10/2010
7780404	H02AB13	10/02/2006
1201513	H02AB13	18/04/2007
1202324	H02AB13	12/05/2010
13578262	H02AB13	28/08/2009
7849145	H02AB13	29/07/2010
7801913	H02AB13	23/07/2010
1276566	H02AB13	23/01/2010
639819	H02AB13	31/07/2001
1204719	H02AB13	07/04/2008
17607037	H02AB13	05/04/2002
6842492	H02AB13	08/02/2005
641672	H02AB13	03/11/2010
17606613	H02AB13	31/05/2010
25248948	H02AB13	19/11/2007
12189179	H02AB13	20/02/2007
4700540	H02AB13	20/07/2007
1418661	H02AB13	25/06/2001
26145718	H02AB13	25/11/2010
7777716	H02AB13	01/08/2009
1278011	H02AB13	31/01/2002
12189609	H02AB13	20/10/2008
7846528	H02AB13	16/11/2009
7966257	H02AB13	01/02/2011
1443262	H02AB13	15/09/2004
12189511	H02AB13	06/09/2005
7776373	H02AB13	21/01/2004
1203166	H02AB13	30/07/2004
1851260	H02AB13	17/04/2002
13986679	H02AB13	07/07/2010
1055033	H02AB13	08/02/2011
1275578	H02AB13	19/04/2005
25884256	H02AB13	04/04/2008
1135215	H02AB13	26/08/2010
6951044	H02AB13	28/09/2010
1274586	H02AB13	13/03/2009
1099425	H02AB13	12/08/2009
1135117	H02AB13	18/03/2010
1578228	H02AB13	04/03/2008
12665128	H02AB13	30/01/2009
1129404	H02AB13	13/05/2011
1100666	H02AB13	16/05/2007
1133221	H02AB13	26/02/2009
1067145	H02AB13	02/10/2006
1566989	H02AB13	22/01/2007
1107468	H02AB13	12/11/2010
2643117	H02AB13	01/12/2005
3655705	H02AB13	25/10/2007
1132264	H02AB13	20/01/2011
1578102	H02AB13	07/04/2009
996288	H02AB13	21/12/2005
716428	H02AB13	23/02/2007
1110947	H02AB13	05/05/2009
716273	H02AB13	31/05/2011
25176961	H02AB13	08/12/2007
1129316	H02AB13	11/03/2011
25897788	H02AB13	13/05/2008
1639524	H02AB13	24/09/2010
717229	H02AB13	03/11/2009
1855368	H02AB13	07/02/2007
25904628	H02AB13	24/01/2011
890642	H02AB13	05/10/2010
4687471	H02AB13	25/11/2008
25873669	H02AB13	07/01/2011
718128	H02AB13	25/03/2010
1132387	H02AB13	13/01/2011
1640515	H02AB13	15/01/2004
25889376	H02AB13	29/04/2010
1567457	H02AB13	18/04/2008
6492632	H02AB13	22/11/2006
135798	H02AB13	23/05/2011
6392849	H02AB13	05/11/2010
1274952	H02AB13	02/01/2010
1130304	H02AB13	14/10/2010
1108840	H02AB13	09/08/2004
1110970	H02AB13	30/09/2010
1103757	H02AB13	13/10/2006
1109327	H02AB13	01/03/2007
1108536	H02AB13	05/11/2007
1638565	H02AB13	21/04/2005
134966	H02AB13	17/10/2005
1066140	H02AB13	24/02/2011
6914096	H02AB13	11/01/2011
25766989	H02AB13	14/12/2009
717738	H02AB13	31/01/2008
1108078	H02AB13	12/07/2002
1275138	H02AB13	29/06/2006
1641072	H02AB13	21/03/2011
1554487	H02AB13	30/06/2005
1274912	H02AB13	30/03/2010
1131198	H02AB13	03/03/2011
1099959	H02AB13	15/02/2005
1638896	H02AB13	21/12/2009
5987342	H02AB13	04/04/2011
1104695	H02AB13	24/05/2011
1577875	H02AB13	04/05/2006
1641868	H02AB13	25/05/2005
6494913	H02AB13	22/12/2010
25889094	H02AB13	05/10/2010
1134288	H02AB13	24/01/2011
25776939	H02AB13	13/05/2009
25897175	H02AB13	18/04/2011
134659	H02AB13	04/09/2008
25897169	H02AB13	09/02/2010
25904870	H02AB13	22/10/2010
5987409	H02AB13	09/01/2007
189189	H02AB13	24/01/2007
3656545	H02AB13	27/11/2009
21282892	H02AB13	31/08/2010
1134694	H02AB13	17/11/2009
1577791	H02AB13	26/12/2008
1579746	H02AB13	02/01/2009
997020	H02AB13	13/07/2006
1646970	H02AB13	19/04/2010
1552431	H02AB13	21/12/2009
486308	H02AB13	25/01/2010
12788129	H02AB13	21/12/2010
1102009	H02AB13	17/05/2011
12636485	H02AB13	09/07/2009
25892585	H02AB13	02/10/2008
1102859	H02AB13	25/07/2005
890246	H02AB13	16/03/2010
25900572	H02AB13	31/03/2009
1581133	H02AB13	13/03/2003
1274932	H02AB13	09/02/2006
716180	H02AB13	09/07/2010
1108431	H02AB13	08/10/2002
1101989	H02AB13	04/06/2010
1855343	H02AB13	07/05/2009
135815	H02AB13	21/07/2010
25873517	H02AB13	27/12/2010
25883547	H02AB13	03/06/2008
4675831	H02AB13	18/08/2008
6492625	H02AB13	29/06/2010
1102507	H02AB13	18/01/2010
1102000	H02AB13	14/03/2007
1109004	H02AB13	15/03/2005
996417	H02AB13	06/11/2007
1108799	H02AB13	28/01/2003
890201	H02AB13	09/02/2011
890168	H02AB13	24/03/2008
1065365	H02AB13	17/03/2010
1580234	H02AB13	09/09/2009
25757999	H02AB13	05/04/2010
1109593	H02AB13	12/12/2006
1132169	H02AB13	16/11/2010
1100350	H02AB13	28/12/2009
1103285	H02AB13	19/09/2005
25885961	H02AB13	18/03/2010
1640729	H02AB13	11/07/2007
1107007	H02AB13	16/11/2009
25883514	H02AB13	11/06/2007
25768735	H02AB13	31/03/2009
25884924	H02AB13	17/02/2011
1135038	H02AB13	10/01/2008
1131048	H02AB13	17/12/2004
1135681	H02AB13	09/09/2010
6492401	H02AB13	14/12/2009
1101196	H02AB13	06/06/2001
1103551	H02AB13	15/02/2011
2112759	H02AB13	19/10/2009
2059046	H02AB13	21/12/2010
2109579	H02AB13	07/01/2005
2238624	H02AB13	23/11/2004
2139967	H02AB13	28/06/2004
2110088	H02AB13	15/05/2005
2087693	H02AB13	24/10/2007
2164170	H02AB13	06/05/2011
2058963	H02AB13	01/06/2004
2218886	H02AB13	07/10/2009
2043315	H02AB13	07/05/2009
2215430	H02AB13	30/11/2007
874596	H02AB13	23/10/2007
875533	H02AB13	15/04/2009
1755826	H02AB13	12/09/2008
2041465	H02AB13	05/01/2009
875499	H02AB13	06/04/2005
905063	H02AB13	08/02/2008
2238458	H02AB13	09/01/2004
1764478	H02AB13	02/07/2004
859429	H02AB13	27/05/2010
873649	H02AB13	28/08/2009
876284	H02AB13	18/10/2006
1642496	H02AB13	02/04/2008
1682671	H02AB13	15/03/2006
1753997	H02AB13	25/02/2009
902142	H02AB13	07/10/2008
874441	H02AB13	19/11/2007
3053306	H02AB13	06/04/2008
2759595	H02AB13	01/05/2011
7134077	H02AB13	20/07/2006
3050342	H02AB13	26/07/2007
7037584	H02AB13	05/06/2007
1753116	H02AB13	20/01/2011
2057791	H02AB13	08/06/2004
873998	H02AB13	18/09/2009
2780172	H02AB13	26/12/2005
2774471	H02AB13	09/08/2010
2773699	H02AB13	10/04/2006
2778033	H02AB13	13/03/2006
3052719	H02AB13	26/01/2005
2773905	H02AB13	04/09/2007
3053379	H02AB13	18/01/2011
3053055	H02AB13	24/05/2005
3052992	H02AB13	30/12/2010
3052996	H02AB13	21/05/2010
3053021	H02AB13	26/12/2003
2759026	H02AB13	24/09/2005
3052687	H02AB13	07/03/2008
2777728	H02AB13	05/07/2007
3048800	H02AB13	12/06/2006
2773262	H02AB13	14/01/2009
2774313	H02AB13	01/10/2004
2774334	H02AB13	03/06/2005
3052614	H02AB13	05/04/2011
2773960	H02AB13	22/10/2007
2526231	H02AB13	02/03/2011
2772820	H02AB13	14/04/2009
2756861	H02AB13	11/09/2007
2519252	H02AB13	13/10/2005
2407465	H02AB13	01/02/2008
2525970	H02AB13	25/10/2010
15643872	H02AB13	24/11/2010
2574203	H02AB13	19/05/2005
2521933	H02AB13	13/03/2007
2407047	H02AB13	14/04/2004
16835317	H02AB13	15/05/2007
26441889	H02AB13	01/02/2011
26384037	H02AB13	08/10/2010
26425755	H02AB13	11/05/2010
28062623	H02AB13	07/09/2005
26529186	H02AB13	01/12/2010
26350149	H02AB13	10/06/2002
28063102	H02AB13	25/04/2005
26456684	H02AB13	24/08/2004
26565666	H02AB13	14/10/2010
18471742	H02AB13	20/04/2009
7229616	H02AB13	13/05/2008
17219509	H02AB13	30/08/2010
7228565	H02AB13	30/03/2005
7228407	H02AB13	26/04/2011
26160167	H02AB13	29/06/2006
7035689	H02AB13	28/09/2010
26244722	H02AB13	24/04/2006
7229328	H02AB13	19/10/2010
7229284	H02AB13	19/05/2011
26261422	H02AB13	27/04/2011
20147230	H02AB13	12/04/2011
26425372	H02AB13	28/09/2009
26217958	H02AB13	05/11/2007
26182006	H02AB13	22/06/2010
17324170	H02AB13	08/11/2005
28042025	H02AB13	17/12/2004
26425992	H02AB13	26/01/2006
23890725	H02AB13	30/05/2011
18472156	H02AB13	17/10/2008
7228900	H02AB13	17/01/2011
16831242	H02AB13	17/10/2007
16945854	H02AB13	04/01/2011
7228483	H02AB13	19/10/2010
16835971	H02AB13	03/04/2009
1908398	H02AB13	19/09/2006
421458	H02AB13	14/11/2008
2967663	H02AB13	29/09/2005
436101	H02AB13	23/09/2010
423010	H02AB13	23/06/2008
2959597	H02AB13	16/09/2010
2252437	H02AB13	16/03/2004
2958619	H02AB13	27/11/2003
185359	H02AB13	21/11/2006
4328546	H02AB13	22/10/2009
2966646	H02AB13	20/07/2006
2967837	H02AB13	19/11/2005
180032	H02AB13	02/12/2002
8090461	H02AB13	02/01/2008
435992	H02AB13	25/03/2004
2964028	H02AB13	03/09/2009
464564	H02AB13	19/12/2008
18222373	H02AB13	03/05/2007
3055456	H02AB13	24/03/2006
3054505	H02AB13	11/05/2005
20146685	H02AB13	18/01/2011
2215450	H02AB13	08/03/2007
2055267	H02AB13	09/03/2007
2525968	H02AB13	06/09/2004
619579	H02AB13	22/12/2004
184353	H02AB13	07/03/2008
2775992	H02AB13	04/03/2008
418404	H02AB13	23/09/2002
902948	H02AB13	22/12/2009
426562	H02AB13	29/01/2008
187998	H02AB13	14/02/2006
185260	H02AB13	26/05/2006
464887	H02AB13	18/03/2010
28090511	H02AB13	30/12/2008
179341	H02AB13	28/02/2005
874613	H02AB13	23/03/2009
433666	H02AB13	19/02/2009
185927	H02AB13	26/02/2003
28088132	H02AB13	02/02/2010
28053822	H02AB13	11/03/2005
26478903	H02AB13	09/09/2005
26478936	H02AB13	12/03/2004
28053779	H02AB13	24/06/2009
28064938	H02AB13	09/11/2009
28072320	H02AB13	12/01/2009
28087444	H02AB13	07/09/2009
16828336	H02AB13	14/02/2008
876334	H02AB13	21/09/2005
28063181	H02AB13	08/02/2005
25742680	H02AB13	04/10/2004
25727329	H02AB13	04/06/2004
25742512	H02AB13	03/02/2009
24668722	H02AB13	10/03/2009
25641681	H02AB13	21/05/2007
24660196	H02AB13	07/04/2008
25737862	H02AB13	25/04/2005
25741338	H02AB13	13/10/2008
25554209	H02AB13	14/09/2000
178647	H02AB13	05/10/2004
1905426	H02AB13	09/09/2008
1371652	H02AB13	28/12/2001
1369989	H02AB13	04/08/2007
18192414	H02AB13	13/03/2011
1908215	H02AB13	30/03/2006
1908228	H02AB13	11/04/2005
1908278	H02AB13	22/10/2003
1373976	H02AB13	02/01/2007
1363957	H02AB13	16/11/2005
619297	H02AB13	24/01/2005
41017	H02AB13	10/01/2007
17831080	H02AB13	28/08/2006
16840841	H02AB13	30/09/2009
18199277	H02AB13	03/05/2005
19800570	H02AB13	21/01/2011
18198663	H02AB13	12/05/2011
19280205	H02AB13	05/01/2009
20331146	H02AB13	07/06/2010
18197591	H02AB13	14/04/2004
19280057	H02AB13	24/12/2009
20077803	H02AB13	20/03/2006
2967888	H02AB13	08/01/2004
2986752	H02AB13	17/07/2009
1369301	H02AB13	14/12/2009
12984397	H02AB13	28/10/2010
2251076	H02AB13	28/07/2005
1043086	H02AB13	10/12/2003
12984429	H02AB13	21/09/2010
2988326	H02AB13	27/10/2010
2988353	H02AB13	27/10/2008
2986553	H02AB13	22/03/2010
2997814	H02AB13	17/03/2010
2252318	H02AB13	28/11/2002
2249904	H02AB13	29/12/2009
618339	H02AB13	30/12/2004
618369	H02AB13	19/03/2007
6563419	H02AB13	07/05/2007
1042407	H02AB13	28/10/2003
23484225	H02AB13	29/11/2007
26795792	H02AB13	23/03/2005
26795814	H02AB13	30/09/2010
26803804	H02AB13	19/11/2001
26778699	H02AB13	15/03/2011
26775659	H02AB13	02/11/2007
26628448	H02AB13	28/02/2010
26700714	H02AB13	21/06/2006
26830552	H02AB13	14/09/2006
26775824	H02AB13	02/11/2007
26638407	H02AB13	24/05/2007
15808607	H02AB13	24/11/2010
12952428	H02AB13	12/04/2006
13804287	H02AB13	05/06/2009
12952403	H02AB13	27/01/2007
2988172	H02AB13	17/03/2010
13497609	H02AB13	22/10/2007
13497654	H02AB13	17/09/2009
11949226	H02AB13	09/09/2009
13497668	H02AB13	01/03/2007
24485262	H02AB13	04/07/2001
12976348	H02AB13	18/07/2007
2986820	H02AB13	22/12/2008
11749296	H02AB13	09/06/2008
2987297	H02AB13	06/04/2011
16198913	H02AB13	12/11/2010
2988267	H02AB13	10/01/2005
11443663	H02AB13	23/11/2010
16085193	H02AB13	24/09/2010
16844351	H02AB13	01/01/2005
13497950	H02AB13	15/04/2010
12977939	H02AB13	02/10/2009
3056261	H02AB13	17/04/2007
13871943	H02AB13	24/08/2010
10824903	H02AB13	04/11/2004
26701991	H02AB13	28/12/2004
26641496	H02AB13	02/07/2006
13497586	H02AB13	23/11/2005
26622322	H02AB13	19/09/2010
25740918	H02AB13	02/11/2007
26622821	H02AB13	17/12/2010
16844069	H02AB13	12/10/2009
26703594	H02AB13	12/11/2009
26706415	H02AB13	09/08/2010
26699648	H02AB13	19/12/2007
14627538	H02AB13	08/11/2010
14736254	H02AB13	25/09/2010
14528786	H02AB13	05/05/2011
26723432	H02AB13	19/02/2010
26703240	H02AB13	19/06/2007
24577944	H02AB13	23/12/2009
21065118	H02AB13	08/03/2005
24485512	H02AB13	30/04/2007
21553632	H02AB13	21/09/2006
24659698	H02AB13	12/12/2001
23087055	H02AB13	09/09/2005
21554193	H02AB13	23/02/2007
23484979	H02AB13	17/05/2011
24594207	H02AB13	16/12/2010
22921551	H02AB13	15/05/2011
23086912	H02AB13	09/10/2006
21581476	H02AB13	28/10/2010
23453474	H02AB13	11/02/2011
24578829	H02AB13	08/06/2010
23087245	H02AB13	16/03/2007
27026991	H02AB13	02/06/2008
26901392	H02AB13	30/01/2007
26943871	H02AB13	09/12/2010
26900691	H02AB13	07/09/2009
26961183	H02AB13	11/09/2003
26961078	H02AB13	05/01/2004
26939278	H02AB13	25/09/2001
26901476	H02AB13	21/01/2009
26943767	H02AB13	03/01/2003
26943794	H02AB13	03/10/2003
26960818	H02AB13	05/12/2003
26784907	H02AB13	23/09/2009
26901736	H02AB13	29/04/2005
26879731	H02AB13	01/02/2008
26754178	H02AB13	16/04/2007
26753928	H02AB13	11/03/2008
26762339	H02AB13	05/04/2006
26714154	H02AB13	06/11/2006
26753632	H02AB13	19/02/2007
26784787	H02AB13	30/09/2009
26774802	H02AB13	27/02/2009
26728298	H02AB13	15/01/2004
26729313	H02AB13	18/08/2008
26785410	H02AB13	02/10/2009
26768998	H02AB13	14/03/2011
26754414	H02AB13	09/11/2006
26867285	H02AB13	29/05/2008
26880512	H02AB13	14/12/2007
26874305	H02AB13	11/03/2010
26887343	H02AB13	18/08/2006
26883210	H02AB13	24/12/2009
26881361	H02AB13	10/11/2006
26879837	H02AB13	10/10/2005
26880284	H02AB13	13/09/2005
26880238	H02AB13	18/06/2007
26886743	H02AB13	09/12/2008
26876915	H02AB13	25/06/2003
26850877	H02AB13	19/12/2007
26849622	H02AB13	11/03/2011
26944099	H02AB13	07/11/2008
26849264	H02AB13	08/09/2008
26759976	H02AB13	05/01/2007
26727258	H02AB13	28/06/2007
26784984	H02AB13	30/03/2009
26768700	H02AB13	21/07/2009
26753114	H02AB13	31/10/2007
26768866	H02AB13	04/11/2010
26773631	H02AB13	27/09/2006
26795604	H02AB13	05/12/2006
26753808	H02AB13	06/11/2007
26715350	H02AB13	14/03/2011
26853249	H02AB13	26/10/2009
26759810	H02AB13	06/04/2010
26725843	H02AB13	03/03/2008
26754017	H02AB13	20/11/2007
26856155	H02AB13	23/03/2011
27073825	H02AB13	19/09/2007
26960799	H02AB13	27/12/2010
27002739	H02AB13	02/02/2009
26999711	H02AB13	21/01/2010
27061807	H02AB13	08/03/2010
26944586	H02AB13	24/01/2003
27080882	H02AB13	18/03/2005
26972922	H02AB13	12/05/2005
26939494	H02AB13	26/02/2008
26970206	H02AB13	24/01/2005
27082488	H02AB13	01/04/2005
26969129	H02AB13	26/01/2007
26992609	H02AB13	21/05/2011
26954882	H02AB13	15/01/2005
26982514	H02AB13	09/12/2009
26979335	H02AB13	11/06/2008
27030954	H02AB13	13/11/2009
27030806	H02AB13	17/09/2003
27075569	H02AB13	21/11/2005
26944531	H02AB13	29/01/2007
26982771	H02AB13	27/10/2008
26988906	H02AB13	13/08/2010
26968669	H02AB13	18/01/2005
27103255	H02AB13	29/10/2003
27108451	H02AB13	23/12/2010
27103339	H02AB13	21/12/2009
27082224	H02AB13	07/10/2010
27134502	H02AB13	29/06/2010
27085859	H02AB13	01/09/2010
27099915	H02AB13	02/04/2004
27103473	H02AB13	16/11/2009
27130374	H02AB13	17/08/2010
27153004	H02AB13	07/05/2008
27108006	H02AB13	17/09/2009
27134245	H02AB13	29/02/2008
27084312	H02AB13	14/03/2011
27103236	H02AB13	28/11/2008
27063268	H02AB13	10/02/2005
27048716	H02AB13	15/07/2010
27031739	H02AB13	21/01/2008
27066373	H02AB13	15/09/2009
27061482	H02AB13	04/03/2008
27064178	H02AB13	14/09/2005
27103593	H02AB13	22/10/2010
27080965	H02AB13	02/09/2010
27085882	H02AB13	08/08/2006
27047483	H02AB13	07/02/2008
27065487	H02AB13	17/01/2007
27053590	H02AB13	24/03/2010
27000830	H02AB13	02/03/2010
27021301	H02AB13	27/01/2010
27030545	H02AB13	10/07/2008
27002175	H02AB13	13/03/2006
27026349	H02AB13	03/11/2006
26997004	H02AB13	15/02/2006
26978601	H02AB13	05/01/2009
26996376	H02AB13	09/10/2007
27015154	H02AB13	08/11/2006
27000993	H02AB13	20/02/2009
27002578	H02AB13	18/01/2010
26983273	H02AB13	05/12/2007
27000732	H02AB13	06/05/2009
27027465	H02AB13	19/02/2007
27327343	H02AB13	21/12/2009
27211585	H02AB13	24/05/2006
27168812	H02AB13	18/02/2008
27327435	H02AB13	26/07/2005
27169345	H02AB13	30/12/2010
27286383	H02AB13	22/01/2002
27159939	H02AB13	17/02/2011
27327876	H02AB13	10/05/2007
27285954	H02AB13	20/05/2008
27388344	H02AB13	03/03/2011
27327578	H02AB13	12/02/2008
27357376	H02AB13	22/02/2006
27168097	H02AB13	07/07/2010
27380155	H02AB13	06/08/2010
27219870	H02AB13	31/05/2007
27221307	H02AB13	07/03/2007
27131300	H02AB13	09/06/2007
27399991	H02AB13	18/08/2006
27367404	H02AB13	18/04/2007
27387977	H02AB13	27/11/2008
27307620	H02AB13	17/09/2010
27244696	H02AB13	05/05/2011
27231772	H02AB13	13/12/2007
27244261	H02AB13	29/12/2010
27222204	H02AB13	26/07/2010
27220677	H02AB13	02/05/2011
27252060	H02AB13	21/06/2003
27319635	H02AB13	10/03/2011
27301572	H02AB13	07/11/2005
27295940	H02AB13	08/01/2004
27387297	H02AB13	25/11/2010
27319537	H02AB13	09/04/2010
27387678	H02AB13	11/04/2005
27319763	H02AB13	23/11/2004
27356978	H02AB13	17/12/2010
27346014	H02AB13	25/02/2010
27346451	H02AB13	06/02/2011
27356759	H02AB13	02/11/2010
27320776	H02AB13	20/02/2006
27308015	H02AB13	09/02/2006
27370248	H02AB13	04/04/2008
27306952	H02AB13	21/02/2011
27306964	H02AB13	07/08/2007
27170153	H02AB13	04/02/2009
26968760	H02AB13	16/02/2009
26981482	H02AB13	06/03/2006
27253371	H02AB13	20/06/2007
27246715	H02AB13	21/07/2007
26988984	H02AB13	02/06/2006
27196632	H02AB13	04/10/2007
26954109	H02AB13	27/11/2002
26943081	H02AB13	24/06/2010
26943084	H02AB13	06/02/2010
27231345	H02AB13	28/06/2006
27002905	H02AB13	15/05/2011
26945772	H02AB13	22/11/2004
27232643	H02AB13	16/12/2008
26960683	H02AB13	09/02/2010
26960524	H02AB13	17/05/2009
27170060	H02AB13	29/09/2009
27001265	H02AB13	17/09/2010
27235782	H02AB13	09/09/2008
27641565	H02AB13	03/01/2011
27571525	H02AB13	11/12/2009
27546225	H02AB13	29/05/2011
27617677	H02AB13	26/07/2008
27617388	H02AB13	19/02/2009
27590159	H02AB13	20/12/2010
27576444	H02AB13	03/05/2011
27596891	H02AB13	15/04/2008
27604685	H02AB13	16/10/2007
27695185	H02AB13	31/05/2010
27633300	H02AB13	20/12/2006
27591057	H02AB13	26/12/2008
27451933	H02AB13	23/04/2007
27660599	H02AB13	10/08/2002
27484738	H02AB13	22/09/2010
27420519	H02AB13	10/03/2008
27484221	H02AB13	14/12/2007
27420275	H02AB13	04/05/2011
27469904	H02AB13	30/09/2009
27415090	H02AB13	03/11/2008
27569559	H02AB13	30/10/2009
27616208	H02AB13	28/09/2006
27569487	H02AB13	10/01/2008
27547797	H02AB13	10/09/2003
27764749	H02AB13	27/05/2011
27568678	H02AB13	17/03/2011
27553794	H02AB13	11/05/2010
27570041	H02AB13	29/11/2010
27616396	H02AB13	24/09/2006
27547936	H02AB13	19/10/2004
27547901	H02AB13	20/12/2006
27708618	H02AB13	14/08/2007
27294482	H02AB13	30/03/2011
27147571	H02AB13	15/02/2005
27285247	H02AB13	17/09/2003
27146227	H02AB13	01/02/2011
27161370	H02AB13	21/12/2009
27235616	H02AB13	16/09/2009
27295071	H02AB13	07/03/2011
27153595	H02AB13	14/07/2010
27145797	H02AB13	10/11/2009
27146841	H02AB13	11/12/2007
27232543	H02AB13	11/03/2011
27315398	H02AB13	29/05/2006
26872280	H02AB13	05/01/2011
27125723	H02AB13	13/04/2011
26759770	H02AB13	11/07/2007
26969021	H02AB13	08/03/2010
27689115	H02AB13	10/07/2010
26725920	H02AB13	25/10/2010
27808204	H02AB13	29/01/2011
27082335	H02AB13	05/02/2009
26754516	H02AB13	22/09/2009
1905637	H02AB13	10/09/2010
27011372	H02AB13	22/10/2007
26774604	H02AB13	21/02/2011
266530	H02AB13	13/10/2008
27476788	H02AB13	08/08/2007
27772101	H02AB13	27/08/2005
27766630	H02AB13	30/01/2009
27689081	H02AB13	28/09/2006
27679924	H02AB13	20/08/2004
27785654	H02AB13	01/07/2008
27532981	H02AB13	28/04/2009
27678951	H02AB13	05/10/2007
27679944	H02AB13	20/09/2006
27678367	H02AB13	02/09/2009
27678368	H02AB13	08/06/2005
27670792	H02AB13	23/02/2011
27678444	H02AB13	12/11/2003
27783400	H02AB13	14/11/2003
27666084	H02AB13	19/05/2005
27766470	H02AB13	31/05/2010
27689213	H02AB13	04/01/2003
27680041	H02AB13	23/08/2005
27531259	H02AB13	04/01/2010
19423467	H02AB13	10/09/2008
26996509	H02AB13	26/09/2008
27678211	H02AB13	21/04/2005
27002121	H02AB13	03/05/2006
27688363	H02AB13	14/05/2009
27688385	H02AB13	29/12/2004
2987154	H02AB13	11/01/2007
27671191	H02AB13	23/05/2011
27664493	H02AB13	30/04/2003
27082259	H02AB13	28/03/2006
27688247	H02AB13	01/02/2010
26943131	H02AB13	04/04/2011
27446505	H02AB13	23/04/2010
27446300	H02AB13	10/06/2010
27648225	H02AB13	06/08/2004
27540802	H02AB13	28/01/2008
27615908	H02AB13	22/08/2006
27648764	H02AB13	26/02/2010
27589537	H02AB13	07/03/2008
24655178	H02AB13	07/02/2009
27346632	H02AB13	30/08/2010
27214891	H02AB13	30/11/2007
24594150	H02AB13	15/12/2008
2809166	H02AB13	29/01/2007
27576785	H02AB13	17/02/2011
26935988	H02AB13	04/06/2003
27318723	H02AB13	25/10/2008
19280206	H02AB13	09/02/2009
2998206	H02AB13	28/09/2009
1900173	H02AB13	10/10/2005
27319324	H02AB13	05/03/2010
2986748	H02AB13	24/06/2010
27759577	H02AB13	13/12/2006
27783945	H02AB13	25/08/2005
27808069	H02AB13	16/12/2008
27689453	H02AB13	28/12/2009
27803013	H02AB13	06/05/2003
27808000	H02AB13	16/12/2010
27760886	H02AB13	30/12/2005
27672311	H02AB13	16/12/2010
27757222	H02AB13	16/01/2007
27665141	H02AB13	21/09/2004
27665005	H02AB13	23/06/2003
27718995	H02AB13	08/07/2008
27764267	H02AB13	28/12/2005
27808311	H02AB13	12/09/2009
27604432	H02AB13	05/12/2005
27686096	H02AB13	28/07/2005
1042371	H02AB13	15/03/2011
27643549	H02AB13	31/03/2006
27484343	H02AB13	18/01/2011
27484270	H02AB13	15/02/2011
17160983	H02AB13	14/11/2008
27597341	H02AB13	25/03/2011
27508461	H02AB13	25/06/2001
26974970	H02AB13	16/12/2009
12954084	H02AB13	10/05/2010
2997750	H02AB13	29/04/2010
2987569	H02AB13	12/04/2010
18199101	H02AB13	31/01/2011
27797993	H02AB13	03/11/2005
26963669	H02AB13	05/06/2006
26754466	H02AB13	30/06/2008
27648962	H02AB13	10/01/2005
27676304	H02AB13	28/04/2006
27678694	H02AB13	27/10/2010
13497550	H02AB13	12/09/2005
27390791	H02AB13	10/09/2004
27044136	H02AB13	07/11/2003
27047804	H02AB13	04/12/2010
27766849	H02AB13	07/12/2006
27687968	H02AB13	29/05/2009
27168190	H02AB13	16/11/2004
27663402	H02AB13	10/08/2005
27802966	H02AB13	18/09/2006
33112774	H02AB13	16/05/2008
33008470	H02AB13	04/08/2008
33089231	H02AB13	21/05/2001
33117897	H02AB13	10/06/2010
33061414	H02AB13	01/02/2008
33049981	H02AB13	12/05/2008
33076330	H02AB13	14/10/2009
33037939	H02AB13	25/11/2008
33023244	H02AB13	27/04/2010
33008475	H02AB13	31/10/2009
33111209	H02AB13	16/11/2009
33067338	H02AB13	24/07/2008
33036831	H02AB13	24/05/2011
33129627	H02AB13	27/05/2011
33078559	H02AB13	28/05/2010
33106412	H02AB13	23/02/2011
33099558	H02AB13	30/11/2010
33025269	H02AB13	01/03/2011
33037105	H02AB13	04/01/2008
33027621	H02AB13	15/03/2004
33086922	H02AB13	11/03/2009
33127148	H02AB13	28/06/2010
33051475	H02AB13	08/04/2011
33073994	H02AB13	02/11/2007
33007198	H02AB13	13/11/2003
33061832	H02AB13	16/07/2010
33043763	H02AB13	05/12/2003
33019812	H02AB13	16/02/2009
33086839	H02AB13	06/04/2006
33092896	H02AB13	03/05/2007
33099564	H02AB13	23/03/2009
33029275	H02AB13	30/09/2010
33113359	H02AB13	14/07/2004
33000627	H02AB13	01/04/2008
33003898	H02AB13	12/02/2010
33058109	H02AB13	04/05/2007
33133744	H02AB13	20/04/2010
33056893	H02AB13	26/11/2004
33018545	H02AB13	26/07/2005
33067601	H02AB13	06/04/2009
33055270	H02AB13	21/09/2005
33108593	H02AB13	17/03/2008
33098852	H02AB13	28/07/2010
33031382	H02AB13	08/10/2010
33086861	H02AB13	22/01/2010
33044195	H02AB13	18/06/2008
33043546	H02AB13	05/12/2009
33030476	H02AB13	09/03/2005
33075095	H02AB13	06/10/2009
33125136	H02AB13	27/03/2009
33058607	H02AB13	23/06/2010
33035121	H02AB13	30/10/2009
33030421	H02AB13	24/04/2008
33047468	H02AB13	21/05/2010
33037834	H02AB13	07/12/2006
33116658	H02AB13	07/03/2011
33022736	H02AB13	29/04/2011
33005974	H02AB13	22/03/2011
33025822	H02AB13	11/08/2010
33008535	H02AB13	27/11/2008
33126648	H02AB13	09/01/2009
33086083	H02AB13	27/07/2010
33106608	H02AB13	09/04/2010
33019235	H02AB13	07/06/2010
33099318	H02AB13	17/01/2011
33051958	H02AB13	20/02/2007
33115825	H02AB13	09/03/2006
33016797	H02AB13	29/03/2006
33056431	H02AB13	22/03/2008
33085408	H02AB13	24/06/2005
33113624	H02AB13	12/02/2002
33007749	H02AB13	09/08/2010
33019022	H02AB13	22/06/2009
33070878	H02AB13	01/02/2011
33080218	H02AB13	18/01/2011
33085830	H02AB13	19/11/2009
33013406	H02AB13	18/12/2003
33076026	H02AB13	09/07/2009
33028747	H02AB13	14/09/2010
33105550	H02AB13	02/04/2007
33103502	H02AB13	30/04/2003
33032038	H02AB13	16/03/2006
33019290	H02AB13	07/01/2010
33016397	H02AB13	12/11/2004
33052701	H02AB13	31/03/2011
33004867	H02AB13	04/05/2006
33058021	H02AB13	22/04/2010
33106497	H02AB13	16/09/2002
33088312	H02AB13	23/12/2009
33018727	H02AB13	07/12/2010
33016563	H02AB13	25/11/2009
33060297	H02AB13	30/03/2006
33045777	H02AB13	11/11/2005
33090887	H02AB13	19/04/2010
33002369	H02AB13	05/12/2005
33064809	H02AB13	09/04/2007
33084051	H02AB13	02/11/2007
33001814	H02AB13	19/09/2007
33076049	H02AB13	29/05/2006
33118326	H02AB13	21/01/2010
33056441	H02AB13	03/02/2009
33072905	H02AB13	11/12/2002
33058796	H02AB13	27/08/2004
33038806	H02AB13	30/07/2008
33090723	H02AB13	18/03/2010
33022790	H02AB13	12/03/2004
33012415	H02AB13	15/03/2002
33047656	H02AB13	07/09/2001
33046388	H02AB13	16/04/2009
33019197	H02AB13	17/03/2006
33026052	H02AB13	10/08/2007
33063677	H02AB13	03/12/2002
33034243	H02AB13	06/03/2003
33072776	H02AB13	17/10/2008
33126891	H02AB13	19/10/2009
33064728	H02AB13	25/04/2011
33124982	H02AB13	12/03/2010
33068552	H02AB13	13/04/2011
33066001	H02AB13	18/03/2005
33026288	H02AB13	04/03/2003
33012303	H02AB13	21/01/2011
33052309	H02AB13	27/11/2001
33034999	H02AB13	09/01/2009
33097390	H02AB13	24/05/2011
33066419	H02AB13	14/03/2008
26943592	H02AB13	17/09/2008
33018006	H02AB13	20/07/2006
27720541	H02AB13	19/01/2007
27680372	H02AB13	04/02/2005
184713	H02AB13	31/07/2009
27807932	H02AB13	02/12/2009
26727611	H02AB13	23/07/2009
20330777	H02AB13	04/12/2007
33043382	H02AB13	30/01/2007
27808378	H02AB13	23/11/2009
18105381	H02AB13	17/03/2005
13497566	H02AB13	20/04/2010
2966560	H02AB13	14/10/2004
2967985	H02AB13	11/01/2007
33072648	H02AB13	29/04/2009
24661191	H02AB13	27/01/2006
33020523	H02AB13	03/08/2004
33301876	H02AB13	22/01/2008
27847186	H02AB13	06/05/2008
28019239	H02AB13	27/10/2009
16177914	H02AB13	28/12/2000
16640292	H02AB13	15/11/2004
33034636	H02AB13	21/04/2003
33109924	H02AB13	05/03/2010
16653328	H02AB13	23/09/2008
23408868	H02AB13	28/10/2010
16135206	H02AB13	16/07/2002
33026564	H02AB13	21/10/2009
16655774	H02AB13	05/01/2011
33252437	H02AB13	15/04/2011
27832314	H02AB13	15/12/2005
33007194	H02AB13	04/06/2004
33021214	H02AB13	08/06/2010
33045812	H02AB13	21/11/2006
33086631	H02AB13	10/12/2008
33097958	H02AB13	27/10/2008
33058319	H02AB13	15/07/2010
33069675	H02AB13	06/11/2006
33089746	H02AB13	06/05/2005
33128935	H02AB13	22/11/2010
33132739	H02AB13	24/03/2010
33090531	H02AB13	27/07/2006
33116869	H02AB13	24/08/2006
33025614	H02AB13	03/07/2008
33079080	H02AB13	17/06/2009
33005283	H02AB13	10/06/2008
33020265	H02AB13	05/04/2011
33084361	H02AB13	16/12/2009
33025298	H02AB13	12/11/2010
33031905	H02AB13	26/10/2010
33026712	H02AB13	15/02/2011
33056325	H02AB13	27/03/2006
33035010	H02AB13	24/03/2009
33012824	H02AB13	15/10/2008
33040686	H02AB13	24/11/2010
33063405	H02AB13	12/05/2008
33065144	H02AB13	08/03/2011
33104988	H02AB13	18/12/2008
33108807	H02AB13	08/08/2006
33028867	H02AB13	23/06/2008
33053235	H02AB13	18/06/2003
33073451	H02AB13	23/11/2009
33060956	H02AB13	03/11/2008
33044433	H02AB13	06/02/2004
33105699	H02AB13	18/11/2009
33074992	H02AB13	05/12/2007
33065070	H02AB13	27/05/2011
33082019	H02AB13	24/08/2004
33079595	H02AB13	05/06/2003
33046061	H02AB13	10/07/2008
33101430	H02AB13	14/10/2010
33034545	H02AB13	04/11/2008
33019718	H02AB13	29/01/2010
33035356	H02AB13	15/02/2011
33033801	H02AB13	11/09/2003
33106615	H02AB13	22/03/2010
33120992	H02AB13	22/06/2009
33090788	H02AB13	23/08/2006
33049611	H02AB13	04/04/2008
33025768	H02AB13	21/05/2011
33113117	H02AB13	06/02/2003
33104786	H02AB13	05/04/2010
33004082	H02AB13	31/01/2006
33104544	H02AB13	07/04/2010
33033729	H02AB13	05/04/2005
33007224	H02AB13	23/01/2003
33000875	H02AB13	18/06/2009
33067381	H02AB13	21/01/2010
33052051	H02AB13	19/05/2010
33070531	H02AB13	30/03/2011
33055338	H02AB13	26/05/2006
33020543	H02AB13	15/05/2002
33086557	H02AB13	26/02/2008
33127566	H02AB13	30/04/2010
33081770	H02AB13	08/02/2007
33050169	H02AB13	11/01/2010
33053845	H02AB13	18/05/2005
33112009	H02AB13	07/02/2011
33107252	H02AB13	09/02/2011
33098204	H02AB13	14/02/2011
33045325	H02AB13	24/01/2011
33069633	H02AB13	29/06/2010
33039425	H02AB13	20/05/2009
33012899	H02AB13	05/06/2007
33011953	H02AB13	17/02/2011
33036849	H02AB13	07/04/2008
33029125	H02AB13	29/10/2010
33099116	H02AB13	27/04/2009
33019050	H02AB13	24/01/2011
33028943	H02AB13	05/05/2009
33033838	H02AB13	06/05/2011
33049967	H02AB13	05/05/2005
33016818	H02AB13	07/07/2003
33109468	H02AB13	12/03/2004
33005144	H02AB13	14/05/2007
33099087	H02AB13	13/03/2008
33021879	H02AB13	01/08/2008
33049697	H02AB13	30/07/2010
33105556	H02AB13	05/01/2005
33108877	H02AB13	12/02/2007
33102691	H02AB13	18/01/2007
33084091	H02AB13	01/04/2011
33011514	H02AB13	08/06/2009
33109220	H02AB13	15/02/2010
33051467	H02AB13	21/01/2011
33062785	H02AB13	01/04/2011
33013603	H02AB13	31/12/2001
33056105	H02AB13	21/08/2006
33097844	H02AB13	22/03/2007
33112092	H02AB13	28/01/2008
33077831	H02AB13	20/05/2011
33053309	H02AB13	05/06/2009
33057009	H02AB13	26/05/2008
33091039	H02AB13	02/10/2009
33085707	H02AB13	18/08/2008
33100466	H02AB13	11/09/2002
33114946	H02AB13	06/03/2008
33044074	H02AB13	20/02/2009
33072181	H02AB13	25/05/2011
33053587	H02AB13	16/03/2007
33118257	H02AB13	16/06/2008
33040010	H02AB13	10/08/2009
28035025	H02AB13	13/08/2010
33209315	H02AB13	14/07/2009
27998933	H02AB13	01/12/2006
18770764	H02AB13	20/01/2005
27983775	H02AB13	27/04/2011
28023388	H02AB13	28/10/2008
16640297	H02AB13	08/02/2008
16165958	H02AB13	03/10/2007
18768448	H02AB13	08/09/2008
16606508	H02AB13	03/09/2007
16639844	H02AB13	08/11/2004
33303012	H02AB13	15/03/2010
33258499	H02AB13	27/01/2010
33239135	H02AB13	15/09/2001
33307309	H02AB13	11/04/2011
33235704	H02AB13	23/03/2011
33233293	H02AB13	16/09/2009
16636482	H02AB13	16/05/2011
33242446	H02AB13	28/11/2008
18743061	H02AB13	09/09/2004
16135921	H02AB13	25/01/2011
28005728	H02AB13	31/05/2011
28002816	H02AB13	04/02/2011
18758676	H02AB13	11/10/2007
28029027	H02AB13	17/09/2009
27972396	H02AB13	29/08/2008
16615956	H02AB13	06/07/2009
33293731	H02AB13	08/03/2002
33308590	H02AB13	06/05/2009
16684117	H02AB13	11/05/2011
16652659	H02AB13	17/12/2010
33312615	H02AB13	31/01/2011
33293057	H02AB13	02/09/2010
16633771	H02AB13	27/07/2006
16636488	H02AB13	07/04/2010
18762510	H02AB13	30/03/2004
20982073	H02AB13	10/03/2004
33249205	H02AB13	19/02/2008
16173514	H02AB13	25/05/2005
16648298	H02AB13	18/04/2011
23412658	H02AB13	19/03/2008
16648559	H02AB13	25/05/2010
23334037	H02AB13	02/07/2008
23402474	H02AB13	03/03/2009
23354388	H02AB13	19/02/2009
16628841	H02AB13	26/01/2005
16705127	H02AB13	02/03/2010
33208986	H02AB13	13/04/2009
23371267	H02AB13	24/12/2003
21106425	H02AB13	26/12/2007
18769370	H02AB13	11/04/2006
16652686	H02AB13	02/12/2008
33311744	H02AB13	31/05/2010
16596274	H02AB13	30/07/2008
28038777	H02AB13	15/05/2009
16133563	H02AB13	28/01/2005
28023306	H02AB13	29/06/2010
16184623	H02AB13	11/05/2011
33201428	H02AB13	29/10/2005
33294335	H02AB13	03/04/2002
23319611	H02AB13	13/07/2010
23326417	H02AB13	02/03/2009
16621757	H02AB13	14/01/2008
23410738	H02AB13	05/04/2010
33235413	H02AB13	03/12/2002
21116766	H02AB13	22/08/2010
16658860	H02AB13	24/09/2008
23381263	H02AB13	09/01/2009
23354523	H02AB13	09/03/2004
23412017	H02AB13	24/04/2009
20981566	H02AB13	02/07/2008
16171981	H02AB13	31/01/2005
16637664	H02AB13	10/10/2007
20982124	H02AB13	18/02/2010
33225982	H02AB13	23/03/2009
18770540	H02AB13	31/07/2003
16139599	H02AB13	29/05/2001
16652192	H02AB13	23/11/2005
33224120	H02AB13	16/09/2010
33239705	H02AB13	09/06/2009
14187576	H02AB13	22/01/2003
33264852	H02AB13	11/05/2011
28034778	H02AB13	21/09/2005
18757709	H02AB13	19/07/2010
16639460	H02AB13	27/02/2006
31130941	H02AB13	20/04/2004
31754311	H02AB13	24/10/2007
31309738	H02AB13	08/01/2007
32260917	H02AB13	11/07/2007
31430057	H02AB13	11/04/2005
33245098	H02AB13	06/09/2010
16609745	H02AB13	05/08/2010
23406106	H02AB13	25/04/2011
16171700	H02AB13	26/08/2002
18770493	H02AB13	27/06/2005
16623063	H02AB13	10/08/2009
16636987	H02AB13	08/02/2011
16647011	H02AB13	06/04/2005
16597283	H02AB13	04/02/2010
33228321	H02AB13	19/01/2010
23351379	H02AB13	02/12/2004
16186784	H02AB13	30/05/2007
16127748	H02AB13	13/10/2005
33249443	H02AB13	22/06/2010
32192677	H02AB13	01/09/2005
31598977	H02AB13	11/10/2005
31178102	H02AB13	24/04/2009
31891552	H02AB13	22/06/2006
31969796	H02AB13	22/01/2001
31760268	H02AB13	20/02/2008
31641080	H02AB13	18/10/2007
31696470	H02AB13	13/01/2009
31359861	H02AB13	12/07/2004
31435208	H02AB13	14/01/2010
31889673	H02AB13	16/05/2006
31821895	H02AB13	15/09/2008
31103952	H02AB13	12/08/2003
31560518	H02AB13	25/09/2006
32252506	H02AB13	06/06/2008
31391321	H02AB13	22/06/2006
32175738	H02AB13	11/02/2008
32277713	H02AB13	07/12/2006
32242721	H02AB13	16/07/2009
31344263	H02AB13	27/07/2005
31438930	H02AB13	28/03/2008
32057338	H02AB13	30/03/2007
32172173	H02AB13	06/10/2009
31750507	H02AB13	06/11/2008
31147797	H02AB13	29/11/2005
32217810	H02AB13	03/10/2005
31218180	H02AB13	04/02/2009
32019089	H02AB13	24/10/2007
31260334	H02AB13	17/01/2005
32194913	H02AB13	26/12/2008
31517581	H02AB13	13/09/2004
32226618	H02AB13	10/02/2010
31480886	H02AB13	29/03/2006
31846979	H02AB13	01/12/2006
31093440	H02AB13	30/03/2009
31345157	H02AB13	26/12/2008
31066666	H02AB13	15/12/2010
31993693	H02AB13	14/01/2005
32150402	H02AB13	19/06/2009
31302598	H02AB13	05/04/2004
32117832	H02AB13	07/06/2005
31471291	H02AB13	15/06/2007
31835091	H02AB13	27/03/2008
31410312	H02AB13	10/03/2008
31566224	H02AB13	22/05/2006
31896290	H02AB13	31/07/2006
32216795	H02AB13	26/06/2009
31278219	H02AB13	15/12/2003
31987098	H02AB13	07/11/2006
31489624	H02AB13	26/11/2010
31982595	H02AB13	19/05/2004
31394293	H02AB13	24/08/2005
31558121	H02AB13	22/02/2007
31818654	H02AB13	24/11/2006
32118467	H02AB13	02/01/2008
32156001	H02AB13	16/08/2007
31444611	H02AB13	26/10/2006
32237280	H02AB13	30/04/2008
32191616	H02AB13	10/11/2004
31479727	H02AB13	23/06/2008
31847404	H02AB13	29/10/2009
32036937	H02AB13	03/08/2006
32029711	H02AB13	07/08/2007
31045629	H02AB13	10/04/2007
31589300	H02AB13	04/11/2002
31240534	H02AB13	21/01/2010
31534125	H02AB13	20/09/2006
32041685	H02AB13	27/10/2009
32280643	H02AB13	12/03/2008
31250125	H02AB13	04/07/2006
32218783	H02AB13	08/01/2007
31609489	H02AB13	21/04/2009
31381249	H02AB13	10/11/2010
31328921	H02AB13	05/02/2009
31970088	H02AB13	04/04/2007
31793133	H02AB13	19/10/2007
31821662	H02AB13	03/11/2003
31085239	H02AB13	23/04/2007
31979610	H02AB13	07/04/2006
32020581	H02AB13	23/09/2008
31109819	H02AB13	17/04/2006
31903099	H02AB13	26/09/2005
31739336	H02AB13	15/05/2009
32088708	H02AB13	28/04/2008
31109367	H02AB13	21/04/2005
31612836	H02AB13	08/03/2011
32194488	H02AB13	22/01/2007
31328924	H02AB13	14/03/2006
31217229	H02AB13	10/07/2007
32067496	H02AB13	04/08/2004
31815808	H02AB13	26/10/2010
31284291	H02AB13	12/09/2008
31174566	H02AB13	16/01/2008
31553549	H02AB13	20/05/2008
31570495	H02AB13	05/02/2004
31768805	H02AB13	03/10/2006
31355795	H02AB13	02/12/2005
31334936	H02AB13	27/02/2009
31882696	H02AB13	22/04/2010
31710318	H02AB13	14/10/2009
31977064	H02AB13	07/10/2003
32079692	H02AB13	23/02/2007
31076541	H02AB13	16/09/2003
31811731	H02AB13	07/10/2005
31627822	H02AB13	12/12/2006
31886657	H02AB13	28/11/2005
31814987	H02AB13	17/11/2005
31169467	H02AB13	03/02/2005
32075647	H02AB13	12/11/2010
31698320	H02AB13	04/09/2006
32036877	H02AB13	25/11/2010
31266142	H02AB13	02/12/2008
31554571	H02AB13	25/02/2011
31818561	H02AB13	07/06/2010
32050669	H02AB13	09/12/2009
31089388	H02AB13	03/01/2006
32100813	H02AB13	16/11/2004
31627314	H02AB13	11/10/2004
31286423	H02AB13	06/03/2008
32278996	H02AB13	27/04/2006
31638235	H02AB13	17/01/2002
31702684	H02AB13	09/10/2008
31058395	H02AB13	07/04/2005
31950984	H02AB13	16/12/2009
32258145	H02AB13	05/11/2009
31331060	H02AB13	26/03/2007
31248417	H02AB13	07/02/2008
32087742	H02AB13	28/01/2002
31440348	H02AB13	18/12/2003
32184078	H02AB13	05/02/2007
32199258	H02AB13	09/12/2009
32049831	H02AB13	11/11/2009
31440390	H02AB13	05/01/2010
31577330	H02AB13	31/07/2001
31332467	H02AB13	26/10/2005
31993122	H02AB13	23/02/2004
31270762	H02AB13	14/07/2008
31897930	H02AB13	13/03/2009
31581244	H02AB13	26/04/2006
31115576	H02AB13	24/02/2009
31670310	H02AB13	05/12/2006
31847089	H02AB13	28/04/2006
31327901	H02AB13	23/09/2005
31692771	H02AB13	22/05/2007
31258197	H02AB13	22/02/2010
32230729	H02AB13	15/07/2004
31989637	H02AB13	12/08/2009
32087044	H02AB13	06/06/2007
31354097	H02AB13	23/12/2009
31332767	H02AB13	23/06/2004
31768821	H02AB13	13/11/2007
31521974	H02AB13	03/03/2008
32002925	H02AB13	16/03/2005
32192998	H02AB13	23/06/2009
32261454	H02AB13	15/12/2009
32041096	H02AB13	26/10/2010
31307903	H02AB13	24/10/2007
31081419	H02AB13	03/02/2009
31687550	H02AB13	20/03/2007
31071290	H02AB13	29/12/2006
31610366	H02AB13	11/04/2008
31983969	H02AB13	28/02/2005
31992521	H02AB13	09/09/2010
31722562	H02AB13	16/06/2005
31820615	H02AB13	21/10/2009
31090124	H02AB13	13/01/2009
31451755	H02AB13	07/03/2008
31505133	H02AB13	09/07/2009
32109438	H02AB13	27/11/2007
32018111	H02AB13	09/03/2007
31620017	H02AB13	22/12/2009
31352150	H02AB13	27/02/2007
31578924	H02AB13	25/09/2009
31211511	H02AB13	19/11/2004
31973683	H02AB13	15/12/2004
31593707	H02AB13	07/11/2005
32016419	H02AB13	06/02/2008
31172974	H02AB13	19/05/2008
31437543	H02AB13	13/03/2003
31961565	H02AB13	07/03/2005
31878078	H02AB13	25/02/2003
31537932	H02AB13	01/09/2006
32208244	H02AB13	10/11/2005
31167229	H02AB13	21/01/2008
31951124	H02AB13	03/11/2010
31640606	H02AB13	29/03/2005
31725632	H02AB13	27/06/2006
31529005	H02AB13	16/03/2004
32253318	H02AB13	13/06/2006
31538537	H02AB13	10/12/2008
32173789	H02AB13	06/05/2005
31251686	H02AB13	07/12/2006
31256421	H02AB13	14/07/2010
31816065	H02AB13	24/01/2005
31743497	H02AB13	01/02/2008
31243831	H02AB13	09/07/2002
32198464	H02AB13	20/10/2004
31999567	H02AB13	15/06/2004
31204461	H02AB13	08/03/2005
32046883	H02AB13	09/06/2010
31278522	H02AB13	10/08/2007
31699051	H02AB13	08/08/2008
31474342	H02AB13	26/09/2005
31279289	H02AB13	15/02/2007
31096236	H02AB13	02/12/2008
31055196	H02AB13	26/05/2004
31596789	H02AB13	28/09/2007
32090511	H02AB13	31/01/2007
32020453	H02AB13	29/05/2007
31374650	H02AB13	18/05/2005
31991384	H02AB13	24/02/2003
31415742	H02AB13	16/01/2006
31895787	H02AB13	06/09/2005
31732643	H02AB13	18/03/2009
31972152	H02AB13	12/06/2008
32258288	H02AB13	04/04/2006
31370565	H02AB13	01/04/2005
31514901	H02AB13	05/06/2008
31768639	H02AB13	31/01/2006
31994929	H02AB13	07/02/2011
32239622	H02AB13	11/11/2008
32231943	H02AB13	03/11/2006
31584881	H02AB13	30/05/2003
31312456	H02AB13	20/06/2007
31191195	H02AB13	28/10/2005
32258540	H02AB13	12/05/2006
31051001	H02AB13	04/08/2008
31197692	H02AB13	01/04/2009
31981387	H02AB13	11/12/2003
32063339	H02AB13	18/07/2008
31219593	H02AB13	12/12/2007
31325838	H02AB13	02/06/2003
31167941	H02AB13	24/05/2006
31230588	H02AB13	17/07/2009
31807086	H02AB13	05/04/2010
31283871	H02AB13	03/03/2011
31477325	H02AB13	20/12/2005
31979796	H02AB13	06/10/2008
31970294	H02AB13	30/09/2002
31783569	H02AB13	09/07/2008
31198323	H02AB13	03/03/2005
31175621	H02AB13	05/09/2008
32256725	H02AB13	02/02/2005
32013543	H02AB13	27/12/2007
31476368	H02AB13	08/06/2005
31375081	H02AB13	06/11/2006
31571787	H02AB13	15/01/2011
32082986	H02AB13	30/05/2006
32271625	H02AB13	14/01/2009
31054095	H02AB13	29/06/2007
31125310	H02AB13	28/04/2005
32173948	H02AB13	22/12/2010
31955894	H02AB13	21/11/2006
31176011	H02AB13	01/10/2009
32063147	H02AB13	01/08/2006
32209127	H02AB13	22/06/2006
31644023	H02AB13	08/07/2010
31422772	H02AB13	17/12/2008
31142653	H02AB13	15/09/2008
31878234	H02AB13	23/12/2002
31831973	H02AB13	12/04/2010
31647102	H02AB13	12/12/2007
32244131	H02AB13	22/01/2007
31145470	H02AB13	09/06/2006
31586035	H02AB13	16/03/2006
32231244	H02AB13	20/10/2006
31159337	H02AB13	05/12/2005
32127700	H02AB13	30/07/2008
32141661	H02AB13	18/12/2007
31756582	H02AB13	15/01/2008
31921033	H02AB13	15/12/2009
31639125	H02AB13	04/03/2005
32280196	H02AB13	04/01/2007
32059744	H02AB13	24/01/2011
31279391	H02AB13	20/05/2010
31505216	H02AB13	10/08/2005
31305847	H02AB13	24/10/2007
31098999	H02AB13	28/06/2004
31456279	H02AB13	27/04/2006
31933820	H02AB13	15/12/2009
32129473	H02AB13	18/09/2006
31393998	H02AB13	22/06/2006
31616921	H02AB13	17/03/2006
31618175	H02AB13	16/03/2011
32034866	H02AB13	30/07/2010
31109355	H02AB13	18/07/2006
31824276	H02AB13	14/11/2003
31261756	H02AB13	18/06/2008
31514408	H02AB13	18/03/2008
31505976	H02AB13	05/11/2003
31764109	H02AB13	29/12/2008
32205231	H02AB13	05/01/2009
32024753	H02AB13	09/02/2011
31632371	H02AB13	02/01/2007
31068921	H02AB13	18/12/2006
31180076	H02AB13	28/03/2007
31847445	H02AB13	22/02/2008
31424872	H02AB13	14/09/2005
31622189	H02AB13	26/01/2007
32017943	H02AB13	21/10/2008
31848757	H02AB13	21/12/2007
31308321	H02AB13	12/04/2006
31549250	H02AB13	06/10/2008
31393751	H02AB13	10/11/2010
31822263	H02AB13	24/01/2011
32274362	H02AB13	26/11/2007
31600813	H02AB13	02/04/2001
31659751	H02AB13	15/09/2005
31396341	H02AB13	03/02/2004
31073361	H02AB13	25/03/2009
32279180	H02AB13	03/02/2005
32136272	H02AB13	03/06/2004
31395904	H02AB13	01/10/2007
31318653	H02AB13	20/12/2004
31549675	H02AB13	15/05/2006
31133891	H02AB13	08/01/2007
31197659	H02AB13	17/12/2008
31438511	H02AB13	30/04/2004
31900516	H02AB13	02/10/2003
31347384	H02AB13	02/01/2008
31727361	H02AB13	18/08/2008
31312898	H02AB13	29/05/2002
32194941	H02AB13	15/03/2010
32152072	H02AB13	30/11/2009
32093133	H02AB13	13/05/2011
32125835	H02AB13	05/07/2005
32197657	H02AB13	13/01/2009
31638137	H02AB13	08/07/2009
31480321	H02AB13	04/01/2005
31790134	H02AB13	30/05/2007
31394814	H02AB13	04/06/2009
31130419	H02AB13	29/06/2004
31688375	H02AB13	23/12/2004
31691392	H02AB13	27/09/2004
31107785	H02AB13	05/05/2010
31512776	H02AB13	26/01/2010
31916785	H02AB13	12/05/2004
31346194	H02AB13	02/01/2007
32120400	H02AB13	14/11/2008
31801243	H02AB13	08/03/2004
31501116	H02AB13	21/11/2005
32187641	H02AB13	11/11/2009
32215650	H02AB13	08/05/2009
31824460	H02AB13	29/03/2004
31915873	H02AB13	08/02/2008
31410826	H02AB13	05/04/2002
31997791	H02AB13	30/06/2006
32206468	H02AB13	27/11/2009
31541091	H02AB13	26/09/2008
32260381	H02AB13	24/01/2005
31165916	H02AB13	15/11/2005
32158039	H02AB13	24/01/2011
31532038	H02AB13	08/01/2007
32026900	H02AB13	29/12/2008
31768146	H02AB13	26/11/2007
31720031	H02AB13	10/06/2009
32142477	H02AB13	15/12/2004
31202748	H02AB13	04/05/2006
31850117	H02AB13	10/12/2003
31917595	H02AB13	11/09/2006
31763555	H02AB13	13/11/2007
