patient_id	covar_name	date
8521498	J01DC06	19/05/2010
24763901	J01DC06	20/11/2009
6417675	J01DC06	27/02/2002
740425	J01DC06	03/12/2001
14807613	J01DC06	23/07/2009
24950927	J01DC06	07/10/2008
19153840	J01DC06	14/01/2009
6749295	J01DC06	28/05/2007
8979107	J01DC06	18/03/2011
1468404	J01DC06	23/01/2001
3334915	J01DC06	02/01/2004
8988574	J01DC06	12/08/2004
6751810	J01DC06	07/01/2011
1850827	J01DC06	16/10/2001
5992373	J01DC06	10/11/2006
18365866	J01DC06	05/12/2007
25248948	J01DC06	04/03/2009
7848835	J01DC06	01/04/2009
1274586	J01DC06	03/11/2005
1135117	J01DC06	28/11/2007
6973828	J01DC06	12/05/2008
2643117	J01DC06	22/07/2005
1351177	J01DC06	24/03/2005
890642	J01DC06	24/11/2006
1132387	J01DC06	13/04/2009
1638786	J01DC06	09/04/2003
1101869	J01DC06	05/01/2006
1128976	J01DC06	03/11/2003
25766579	J01DC06	09/08/2006
891364	J01DC06	15/04/2008
1099959	J01DC06	19/01/2005
25750805	J01DC06	30/06/2010
6513850	J01DC06	09/11/2007
1577791	J01DC06	27/12/2002
890808	J01DC06	03/10/2006
1578839	J01DC06	09/12/2003
4861068	J01DC06	18/06/2010
25904072	J01DC06	14/10/2010
25886838	J01DC06	09/05/2011
1855343	J01DC06	22/06/2005
1552120	J01DC06	14/02/2008
4678967	J01DC06	19/10/2009
890168	J01DC06	11/10/2006
1065365	J01DC06	24/10/2005
25757999	J01DC06	20/11/2007
717026	J01DC06	15/05/2008
25768735	J01DC06	24/01/2002
1555573	J01DC06	28/05/2001
5679864	J01DC06	13/02/2007
1566887	J01DC06	22/01/2002
715866	J01DC06	20/11/2006
1108853	J01DC06	19/04/2007
2068118	J01DC06	10/11/2003
1638660	J01DC06	25/06/2001
2068080	J01DC06	22/05/2003
2522124	J01DC06	28/06/2007
16835317	J01DC06	01/02/2005
26425486	J01DC06	04/11/2005
2958823	J01DC06	13/11/2006
419475	J01DC06	26/12/2007
28049554	J01DC06	27/05/2005
26487643	J01DC06	22/03/2010
19800570	J01DC06	23/12/2002
12977023	J01DC06	08/04/2005
26636648	J01DC06	21/01/2005
12985711	J01DC06	07/08/2006
26637922	J01DC06	19/06/2006
26715038	J01DC06	04/09/2006
26714333	J01DC06	14/01/2004
26879844	J01DC06	08/10/2002
26789113	J01DC06	16/01/2006
26711151	J01DC06	12/01/2009
27066870	J01DC06	28/01/2011
27066932	J01DC06	09/12/2008
27071926	J01DC06	10/01/2006
26994023	J01DC06	12/01/2010
27055317	J01DC06	28/08/2009
27031426	J01DC06	07/02/2008
27066800	J01DC06	02/07/2010
27063122	J01DC06	08/10/2008
26994757	J01DC06	28/09/2007
26996261	J01DC06	24/10/2006
27159946	J01DC06	03/01/2005
27173275	J01DC06	25/08/2010
27295794	J01DC06	26/12/2006
27168973	J01DC06	14/03/2006
27296189	J01DC06	02/01/2004
27249837	J01DC06	31/08/2004
27596970	J01DC06	27/08/2007
27648016	J01DC06	15/06/2007
27716033	J01DC06	27/03/2008
27295603	J01DC06	10/12/2003
27295071	J01DC06	13/12/2006
27295361	J01DC06	18/12/2003
27286544	J01DC06	29/08/2008
26718179	J01DC06	18/05/2007
27217239	J01DC06	06/04/2006
27105042	J01DC06	31/05/2010
26794508	J01DC06	18/08/2006
27546527	J01DC06	31/01/2007
26835519	J01DC06	21/05/2008
27600860	J01DC06	08/12/2007
428085	J01DC06	18/11/2000
27665005	J01DC06	10/06/2003
27718995	J01DC06	17/11/2008
183848	J01DC06	03/11/2003
27667214	J01DC06	17/03/2006
27600262	J01DC06	31/12/2009
27716264	J01DC06	07/10/2009
33040260	J01DC06	04/05/2010
33047037	J01DC06	07/05/2001
33046231	J01DC06	25/05/2009
33046846	J01DC06	28/05/2004
33051475	J01DC06	07/02/2005
33101142	J01DC06	27/12/2004
33058109	J01DC06	14/11/2008
33026329	J01DC06	25/04/2011
33011078	J01DC06	17/04/2006
33037834	J01DC06	14/12/2006
33019657	J01DC06	21/05/2010
33045042	J01DC06	17/02/2004
33043461	J01DC06	12/05/2006
33080053	J01DC06	22/01/2001
33076696	J01DC06	05/11/2007
33099374	J01DC06	21/08/2000
33116010	J01DC06	04/03/2005
33085830	J01DC06	09/12/2004
33019290	J01DC06	02/01/2007
33108197	J01DC06	26/02/2001
33084051	J01DC06	22/06/2001
33056441	J01DC06	29/12/2003
33112374	J01DC06	20/04/2001
33112259	J01DC06	10/06/2003
33098168	J01DC06	17/02/2009
33125212	J01DC06	01/09/2010
33093456	J01DC06	03/10/2001
33045184	J01DC06	10/08/2009
33084650	J01DC06	19/05/2003
33012294	J01DC06	04/05/2009
33066001	J01DC06	21/03/2011
33032821	J01DC06	04/11/2009
26851696	J01DC06	18/02/2005
33109924	J01DC06	01/12/2009
33020265	J01DC06	07/10/2003
33000877	J01DC06	15/10/2002
33101101	J01DC06	02/02/2011
33083224	J01DC06	28/09/2009
33019575	J01DC06	22/03/2002
33025768	J01DC06	07/06/2004
33065536	J01DC06	12/09/2003
33092197	J01DC06	23/06/2005
33074478	J01DC06	23/08/2004
33050169	J01DC06	19/07/2002
33105337	J01DC06	01/02/2002
33105556	J01DC06	29/01/2003
33032181	J01DC06	20/03/2009
33053309	J01DC06	28/11/2006
33085337	J01DC06	02/04/2007
18770764	J01DC06	06/07/2010
16625249	J01DC06	21/01/2010
16138756	J01DC06	28/02/2006
23381149	J01DC06	15/11/2007
33233293	J01DC06	19/01/2005
16124521	J01DC06	26/11/2008
23411938	J01DC06	11/12/2006
16133563	J01DC06	28/02/2005
28000766	J01DC06	28/09/2009
20985532	J01DC06	30/03/2009
28026109	J01DC06	23/07/2010
20982124	J01DC06	29/04/2011
33314233	J01DC06	20/09/2010
33289106	J01DC06	16/03/2010
33264852	J01DC06	29/11/2007
31805083	J01DC06	17/06/2005
33315565	J01DC06	17/05/2011
23349644	J01DC06	24/05/2011
16186784	J01DC06	26/11/2004
20985559	J01DC06	22/06/2009
20985351	J01DC06	27/01/2009
27954891	J01DC06	12/05/2008
23349661	J01DC06	18/06/2007
31110434	J01DC06	30/10/2006
31090531	J01DC06	29/10/2010
31359320	J01DC06	25/04/2006
32084821	J01DC06	30/12/2009
32238575	J01DC06	26/02/2007
32087547	J01DC06	15/12/2009
31273175	J01DC06	02/12/2005
31640606	J01DC06	29/03/2005
31251984	J01DC06	04/05/2005
31894605	J01DC06	04/11/2005
32013355	J01DC06	16/10/2008
31754369	J01DC06	18/06/2003
32247234	J01DC06	10/07/2009
31359534	J01DC06	22/11/2006
31257145	J01DC06	26/12/2007
