patient_id	covar_name	date
12774533	J01FA11	28/01/2011
12774510	J01FA11	16/10/2009
10002116	J01FA11	24/04/2009
8655621	J01FA11	19/07/2010
12763326	J01FA11	10/01/2005
7394602	J01FA11	08/07/2008
8654629	J01FA11	29/08/2007
16530003	J01FA11	06/04/2006
12183551	J01FA11	24/04/2006
12731287	J01FA11	08/06/2009
16532048	J01FA11	29/01/2007
9304627	J01FA11	12/02/2003
10266402	J01FA11	09/05/2007
12186350	J01FA11	12/06/2008
753709	J01FA11	09/08/2006
3291696	J01FA11	24/04/2008
12788802	J01FA11	22/08/2003
10247511	J01FA11	11/01/2007
24730586	J01FA11	24/03/2006
731713	J01FA11	27/02/2008
9379205	J01FA11	20/11/2007
7967014	J01FA11	28/03/2005
7771801	J01FA11	19/11/2007
6601715	J01FA11	18/12/2009
26145674	J01FA11	14/12/2010
1198367	J01FA11	11/06/2005
1172020	J01FA11	29/12/2007
1848778	J01FA11	07/08/2003
26145307	J01FA11	21/11/2010
1545758	J01FA11	26/03/2002
7966545	J01FA11	05/10/2006
7848502	J01FA11	17/11/2009
645243	J01FA11	10/07/2008
8932937	J01FA11	28/04/2011
8932929	J01FA11	24/03/2008
640251	J01FA11	16/09/2002
3343328	J01FA11	22/06/2001
539531	J01FA11	14/01/2004
404542	J01FA11	28/11/2002
12189670	J01FA11	25/09/2001
539779	J01FA11	13/12/2002
8061893	J01FA11	10/08/2010
7847509	J01FA11	15/07/2009
647941	J01FA11	31/07/2009
1171735	J01FA11	24/10/2001
539674	J01FA11	05/12/2006
1850819	J01FA11	04/03/2004
12189511	J01FA11	05/06/2000
1211126	J01FA11	28/09/2006
1133473	J01FA11	01/04/2002
1129404	J01FA11	17/10/2002
7770840	J01FA11	15/10/2008
1203542	J01FA11	01/09/2005
1355662	J01FA11	28/02/2011
1638747	J01FA11	30/08/2010
1639616	J01FA11	27/04/2009
3656829	J01FA11	08/03/2002
1639340	J01FA11	10/10/2007
134966	J01FA11	24/10/2000
1101747	J01FA11	16/01/2001
1638896	J01FA11	25/08/2010
994798	J01FA11	24/11/2010
1639675	J01FA11	16/07/2009
1103285	J01FA11	24/11/2000
1101196	J01FA11	17/12/2008
2136921	J01FA11	11/11/2009
1765218	J01FA11	12/12/2007
3055002	J01FA11	21/04/2009
2520230	J01FA11	04/01/2008
26385062	J01FA11	29/09/2009
26384648	J01FA11	28/12/2007
180032	J01FA11	07/06/2004
757215	J01FA11	27/04/2010
28044182	J01FA11	26/04/2001
179027	J01FA11	04/02/2003
179111	J01FA11	09/01/2004
179468	J01FA11	27/12/2001
180024	J01FA11	23/11/2005
28049522	J01FA11	19/10/2010
24659245	J01FA11	22/09/2006
178619	J01FA11	14/02/2005
178647	J01FA11	12/03/2003
1374923	J01FA11	20/05/2011
620562	J01FA11	04/06/2004
18189318	J01FA11	17/03/2009
18192584	J01FA11	29/01/2004
21064722	J01FA11	05/06/2006
18956880	J01FA11	19/11/2004
2986752	J01FA11	22/06/2006
1015317	J01FA11	28/12/2006
10221219	J01FA11	03/03/2003
2251150	J01FA11	14/02/2006
2988326	J01FA11	05/10/2004
26724395	J01FA11	04/12/2003
16842212	J01FA11	18/09/2006
16842013	J01FA11	09/05/2006
26701991	J01FA11	17/01/2005
2990126	J01FA11	08/01/2004
24580970	J01FA11	19/10/2007
26889893	J01FA11	29/11/2010
26714804	J01FA11	07/02/2006
26715786	J01FA11	29/08/2006
26715824	J01FA11	10/01/2008
26864675	J01FA11	26/01/2010
26872136	J01FA11	01/10/2008
26891117	J01FA11	29/01/2009
26899761	J01FA11	28/01/2005
26872947	J01FA11	20/05/2011
26800774	J01FA11	17/02/2011
26776452	J01FA11	29/07/2009
27061807	J01FA11	01/03/2008
26969114	J01FA11	20/12/2010
26972708	J01FA11	03/02/2004
27061399	J01FA11	03/05/2011
26939549	J01FA11	22/06/2001
27151273	J01FA11	11/12/2006
27063268	J01FA11	23/10/2007
27061186	J01FA11	11/12/2009
27062251	J01FA11	07/03/2011
27066049	J01FA11	05/07/2007
27051392	J01FA11	19/04/2010
27046535	J01FA11	11/03/2005
27042326	J01FA11	13/12/2007
27026391	J01FA11	04/10/2006
26996261	J01FA11	15/02/2008
26981833	J01FA11	04/07/2007
27170731	J01FA11	19/12/2008
27150732	J01FA11	09/11/2006
27358905	J01FA11	16/10/2009
27200696	J01FA11	11/07/2007
27197007	J01FA11	08/08/2003
27349595	J01FA11	10/02/2010
27306374	J01FA11	10/12/2010
27317311	J01FA11	26/09/2005
26975095	J01FA11	31/01/2005
27169637	J01FA11	27/04/2005
27595822	J01FA11	04/03/2005
27595400	J01FA11	28/01/2005
27641540	J01FA11	07/03/2006
27640371	J01FA11	13/01/2005
27443986	J01FA11	28/06/2006
27756324	J01FA11	13/03/2009
27760073	J01FA11	02/06/2003
27614612	J01FA11	07/01/2006
27716087	J01FA11	11/10/2007
27151908	J01FA11	27/03/2007
27160607	J01FA11	05/02/2009
27153800	J01FA11	23/08/2010
27147685	J01FA11	18/12/2001
27535611	J01FA11	08/09/2006
27771588	J01FA11	27/09/2007
26833036	J01FA11	03/11/2006
27666515	J01FA11	10/11/2003
26916719	J01FA11	27/09/2005
26715264	J01FA11	14/11/2005
27799688	J01FA11	21/03/2011
27169816	J01FA11	25/04/2005
27063601	J01FA11	20/05/2007
27797674	J01FA11	11/09/2000
27794365	J01FA11	19/11/2007
178525	J01FA11	16/05/2000
187456	J01FA11	26/10/2004
27567762	J01FA11	20/03/2003
2997750	J01FA11	24/05/2005
180734	J01FA11	02/01/2003
27663355	J01FA11	17/03/2006
33000047	J01FA11	06/09/2000
33069210	J01FA11	18/03/2011
33085408	J01FA11	13/06/2005
33084645	J01FA11	19/11/2001
33087600	J01FA11	13/05/2009
33012415	J01FA11	16/11/2001
33046388	J01FA11	03/03/2008
183728	J01FA11	12/01/2007
33006558	J01FA11	04/05/2006
33034636	J01FA11	06/07/2010
33224916	J01FA11	10/04/2011
16633713	J01FA11	06/10/2009
20983764	J01FA11	02/05/2007
33060038	J01FA11	17/01/2011
33085861	J01FA11	17/10/2001
33004522	J01FA11	20/06/2006
33032471	J01FA11	02/03/2005
33033679	J01FA11	23/12/2010
33091831	J01FA11	08/04/2010
33044433	J01FA11	06/02/2004
33072377	J01FA11	27/03/2002
33063000	J01FA11	30/10/2003
33046881	J01FA11	06/09/2000
33105556	J01FA11	05/04/2004
33058545	J01FA11	08/02/2006
33100390	J01FA11	04/04/2002
33091308	J01FA11	12/03/2001
33317150	J01FA11	26/08/2010
16706065	J01FA11	18/04/2008
16135222	J01FA11	04/06/2003
33315413	J01FA11	27/04/2011
33293678	J01FA11	22/05/2011
23320103	J01FA11	05/09/2003
33221866	J01FA11	08/08/2003
33293247	J01FA11	15/01/2009
33232471	J01FA11	18/08/2003
16634952	J01FA11	18/12/2008
23400888	J01FA11	15/02/2011
23340103	J01FA11	06/10/2003
18771334	J01FA11	31/01/2008
33250509	J01FA11	22/11/2000
27954341	J01FA11	09/01/2008
16634522	J01FA11	15/02/2010
16133563	J01FA11	26/09/2005
33300881	J01FA11	08/05/2009
28000766	J01FA11	12/07/2010
16125129	J01FA11	19/01/2001
16705274	J01FA11	22/03/2007
33309143	J01FA11	28/05/2010
16139599	J01FA11	02/01/2003
31752872	J01FA11	29/09/2008
23369475	J01FA11	21/10/2010
16124871	J01FA11	18/01/2001
23350017	J01FA11	07/05/2010
16124487	J01FA11	11/01/2001
23402702	J01FA11	14/07/2004
27880957	J01FA11	06/11/2006
23354017	J01FA11	27/04/2011
31638063	J01FA11	03/10/2008
31641080	J01FA11	18/04/2006
31874401	J01FA11	14/11/2008
32257084	J01FA11	16/11/2005
31103952	J01FA11	22/09/2009
31547137	J01FA11	20/09/2006
32086668	J01FA11	27/05/2004
31765083	J01FA11	09/12/2004
31853332	J01FA11	29/11/2002
31236375	J01FA11	16/03/2006
31712086	J01FA11	17/02/2010
31678708	J01FA11	03/05/2002
31290473	J01FA11	03/07/2001
31282769	J01FA11	04/09/2007
31874278	J01FA11	08/02/2007
31217229	J01FA11	02/01/2003
31745772	J01FA11	24/02/2009
31722398	J01FA11	06/03/2007
31216838	J01FA11	27/12/2004
31651640	J01FA11	10/03/2006
31452643	J01FA11	25/03/2009
31651246	J01FA11	03/12/2003
31581244	J01FA11	24/01/2006
31694669	J01FA11	06/04/2011
31401399	J01FA11	24/10/2007
31693536	J01FA11	14/01/2005
32229216	J01FA11	09/11/2006
31898521	J01FA11	19/07/2007
31805397	J01FA11	13/09/2007
31673694	J01FA11	18/02/2008
31275643	J01FA11	28/02/2005
31142929	J01FA11	28/12/2007
31447714	J01FA11	01/06/2009
31633490	J01FA11	23/07/2008
31370565	J01FA11	27/06/2005
31537972	J01FA11	16/12/2009
32257488	J01FA11	02/11/2005
31168935	J01FA11	30/05/2005
31967869	J01FA11	28/11/2001
31355037	J01FA11	18/06/2008
31704514	J01FA11	29/05/2006
31428838	J01FA11	10/06/2004
32101952	J01FA11	01/08/2002
32035032	J01FA11	05/05/2009
32064276	J01FA11	23/09/2004
31091802	J01FA11	28/03/2006
31358567	J01FA11	15/02/2008
31981297	J01FA11	09/03/2001
32193669	J01FA11	28/12/2004
32207420	J01FA11	09/01/2009
31734880	J01FA11	15/05/2008
31318794	J01FA11	05/03/2008
31303109	J01FA11	05/05/2005
31045114	J01FA11	26/12/2005
31220264	J01FA11	18/01/2007
31405024	J01FA11	23/04/2009
31721691	J01FA11	06/06/2000
