patient_id	covar_name	date
3323175	J04AC51	02/02/2005
6245065	J04AC51	31/01/2006
23455261	J04AC51	28/08/2007
13538926	J04AC51	12/06/2009
20545914	J04AC51	28/04/2011
9319630	J04AC51	01/06/2011
1937944	J04AC51	28/04/2003
3120195	J04AC51	22/02/2008
23443230	J04AC51	30/05/2007
12789494	J04AC51	06/06/2005
1067416	J04AC51	22/03/2002
24722227	J04AC51	14/06/2001
6177821	J04AC51	19/01/2010
945122	J04AC51	14/02/2006
9231512	J04AC51	13/02/2001
177760	J04AC51	02/10/2001
21153008	J04AC51	12/11/2008
9285511	J04AC51	07/09/2007
12782306	J04AC51	20/06/2007
11325278	J04AC51	14/04/2010
6590350	J04AC51	02/06/2006
7776277	J04AC51	11/08/2010
1199932	J04AC51	09/03/2007
24925938	J04AC51	12/05/2006
1212348	J04AC51	14/11/2003
6211809	J04AC51	20/09/2006
516414	J04AC51	25/08/2006
1423973	J04AC51	30/09/2010
1264156	J04AC51	24/09/2009
6593465	J04AC51	20/07/2001
1202919	J04AC51	11/02/2010
1546595	J04AC51	12/07/2007
1566989	J04AC51	10/03/2003
1132264	J04AC51	24/07/2001
135806	J04AC51	13/01/2011
195582	J04AC51	26/07/2007
1552431	J04AC51	13/04/2011
1640729	J04AC51	02/01/2004
2043920	J04AC51	24/06/2004
2144824	J04AC51	05/08/2003
2067962	J04AC51	20/08/2003
2044896	J04AC51	22/04/2008
2216323	J04AC51	01/03/2011
7134077	J04AC51	02/03/2007
860142	J04AC51	05/11/2001
2521779	J04AC51	06/05/2004
2811840	J04AC51	07/08/2006
2512738	J04AC51	13/12/2006
2409456	J04AC51	08/06/2006
28075875	J04AC51	09/02/2011
17741284	J04AC51	03/05/2002
26243093	J04AC51	16/06/2009
26244110	J04AC51	14/03/2003
22092867	J04AC51	06/09/2007
11035768	J04AC51	21/10/2008
304879	J04AC51	25/02/2004
422516	J04AC51	31/03/2006
2524827	J04AC51	21/09/2010
2779304	J04AC51	23/07/2003
419430	J04AC51	10/12/2008
28041648	J04AC51	12/07/2005
28050652	J04AC51	24/03/2004
25643453	J04AC51	20/03/2009
24666053	J04AC51	23/12/2009
25551968	J04AC51	01/03/2011
1369798	J04AC51	05/04/2004
17410706	J04AC51	28/05/2003
21063572	J04AC51	08/01/2003
12977360	J04AC51	06/02/2007
2251076	J04AC51	09/02/2007
1361055	J04AC51	16/08/2005
1371864	J04AC51	28/05/1999
26768339	J04AC51	19/04/2006
26775605	J04AC51	15/01/2008
26775777	J04AC51	22/09/2006
17163387	J04AC51	21/04/2005
24593889	J04AC51	18/10/2004
21066126	J04AC51	16/02/2006
26754518	J04AC51	27/11/2006
26782268	J04AC51	14/05/2007
26726986	J04AC51	05/09/2006
26849091	J04AC51	01/06/2011
26775207	J04AC51	09/01/2007
27052318	J04AC51	07/05/2008
26992206	J04AC51	13/12/2006
27084973	J04AC51	23/12/2005
27046901	J04AC51	31/10/2008
26993888	J04AC51	27/11/2008
27036090	J04AC51	03/05/2006
26994861	J04AC51	22/12/2005
26978937	J04AC51	04/10/2007
27168688	J04AC51	16/07/2009
27213814	J04AC51	12/01/2006
27573153	J04AC51	17/09/2009
27607371	J04AC51	07/08/2002
27592232	J04AC51	22/05/2008
27574941	J04AC51	31/03/2010
27427357	J04AC51	02/10/2007
26707572	J04AC51	27/08/2008
27533227	J04AC51	23/06/2005
27663724	J04AC51	21/07/2009
27674446	J04AC51	16/06/2010
27633578	J04AC51	17/07/2005
26727973	J04AC51	25/06/2007
26771621	J04AC51	21/12/2009
27709323	J04AC51	26/10/2010
27795958	J04AC51	06/06/2003
33033944	J04AC51	19/05/2011
33068451	J04AC51	08/07/2005
33088312	J04AC51	19/05/2008
33059213	J04AC51	20/08/2010
180195	J04AC51	15/10/2009
28035810	J04AC51	23/03/2006
16601297	J04AC51	25/04/2011
33124927	J04AC51	15/07/2008
33112464	J04AC51	05/12/2007
16176366	J04AC51	12/06/2007
16639844	J04AC51	27/11/2007
23316166	J04AC51	12/03/2004
24465820	J04AC51	25/11/2010
23407914	J04AC51	07/10/2003
23341131	J04AC51	09/05/2007
23369560	J04AC51	05/11/2008
27958849	J04AC51	17/04/2008
16640430	J04AC51	22/08/2006
16597963	J04AC51	04/06/2004
16630904	J04AC51	17/03/2008
16598711	J04AC51	23/06/2006
16128054	J04AC51	12/08/2010
33295673	J04AC51	28/06/2010
31224183	J04AC51	27/09/2006
32137222	J04AC51	19/10/2009
31899042	J04AC51	12/05/2005
31147797	J04AC51	25/09/2007
31634919	J04AC51	15/09/2005
31326487	J04AC51	15/09/2004
31097360	J04AC51	07/04/2005
32117832	J04AC51	12/11/2007
31687289	J04AC51	27/06/2003
31903832	J04AC51	21/12/2000
31443583	J04AC51	13/03/2006
31667854	J04AC51	09/07/2004
31184648	J04AC51	04/05/2005
31066431	J04AC51	26/06/2007
32188546	J04AC51	13/09/2007
31723265	J04AC51	26/12/2008
32182882	J04AC51	10/03/2010
32100813	J04AC51	14/12/2004
32119254	J04AC51	24/04/2006
31127513	J04AC51	20/09/2005
31458732	J04AC51	07/10/2009
32189899	J04AC51	15/04/2005
31189898	J04AC51	22/09/2008
32190370	J04AC51	21/12/2005
31280844	J04AC51	15/11/2010
31639583	J04AC51	31/08/2007
31261204	J04AC51	14/08/2000
31538537	J04AC51	28/06/2006
31451439	J04AC51	24/07/2006
32215161	J04AC51	09/10/2001
31891996	J04AC51	19/11/2004
31826766	J04AC51	05/02/2007
31805814	J04AC51	27/02/2008
32049524	J04AC51	13/06/2002
32186265	J04AC51	15/05/2001
32267703	J04AC51	15/11/2007
32207420	J04AC51	21/09/2005
31694665	J04AC51	09/06/2009
31842217	J04AC51	05/04/2005
31864385	J04AC51	20/10/2004
