patient_id	covar_name	date
9230338	J01MA14	19/04/2010
9319410	J01MA14	24/04/2009
10245764	J01MA14	11/03/2011
16927882	J01MA14	02/01/2003
3123115	J01MA14	03/11/2005
6040714	J01MA14	29/04/2008
9311487	J01MA14	13/11/2006
5812962	J01MA14	30/12/2003
7244070	J01MA14	04/05/2006
12186099	J01MA14	23/12/2009
9311736	J01MA14	29/01/2009
23471437	J01MA14	16/01/2007
12760945	J01MA14	03/02/2010
9371686	J01MA14	26/09/2006
9238570	J01MA14	30/01/2007
10002116	J01MA14	11/03/2008
944651	J01MA14	06/03/2007
9176899	J01MA14	03/01/2007
1608275	J01MA14	08/01/2009
1940839	J01MA14	06/02/2007
6749631	J01MA14	02/02/2010
12761176	J01MA14	20/08/2007
8654979	J01MA14	09/05/2006
1732204	J01MA14	23/04/2008
3300695	J01MA14	02/03/2006
9372370	J01MA14	18/05/2010
9293874	J01MA14	21/05/2004
7093908	J01MA14	05/04/2006
10245851	J01MA14	28/04/2004
5022326	J01MA14	11/02/2011
22918279	J01MA14	26/03/2010
7094192	J01MA14	09/12/2009
9295838	J01MA14	27/12/2007
9339067	J01MA14	07/03/2011
9982943	J01MA14	19/02/2010
1069599	J01MA14	09/10/2008
9213151	J01MA14	09/01/2009
6416555	J01MA14	15/05/2009
6757275	J01MA14	26/08/2010
13538926	J01MA14	19/04/2011
24730138	J01MA14	12/05/2011
16559047	J01MA14	27/01/2009
1547786	J01MA14	23/05/2008
9212611	J01MA14	21/01/2008
10004067	J01MA14	29/06/2006
20529245	J01MA14	13/03/2008
10001720	J01MA14	30/01/2006
9356877	J01MA14	05/04/2006
9303849	J01MA14	23/02/2009
11994028	J01MA14	10/11/2010
16556934	J01MA14	05/12/2008
8975154	J01MA14	04/05/2006
16977223	J01MA14	15/01/2008
17173040	J01MA14	18/06/2007
15427261	J01MA14	14/03/2006
12760385	J01MA14	29/11/2010
12477883	J01MA14	31/01/2005
948323	J01MA14	12/03/2010
16559674	J01MA14	04/02/2008
10332940	J01MA14	09/04/2010
16978282	J01MA14	17/06/2009
9311429	J01MA14	19/01/2009
730169	J01MA14	23/01/2008
704332	J01MA14	30/04/2004
9386259	J01MA14	14/01/2011
6748141	J01MA14	06/11/2006
3322587	J01MA14	22/03/2010
21152856	J01MA14	17/11/2009
12200003	J01MA14	03/12/2007
608929	J01MA14	23/11/2006
8643667	J01MA14	08/01/2009
9268220	J01MA14	05/03/2010
8974175	J01MA14	13/03/2006
9230460	J01MA14	10/09/2004
19184383	J01MA14	23/11/2009
15380445	J01MA14	27/07/2004
8655391	J01MA14	07/02/2007
6746216	J01MA14	01/10/2008
9319097	J01MA14	07/12/2007
6749026	J01MA14	27/04/2005
6749753	J01MA14	15/02/2008
24951641	J01MA14	24/10/2007
16558782	J01MA14	17/11/2010
9385396	J01MA14	07/01/2005
8558909	J01MA14	14/10/2009
20819800	J01MA14	14/12/2006
8975251	J01MA14	14/03/2007
8653002	J01MA14	18/05/2009
3937964	J01MA14	08/02/2011
9372898	J01MA14	11/01/2007
1123313	J01MA14	25/03/2010
7153968	J01MA14	20/12/2004
23472450	J01MA14	12/11/2009
9310772	J01MA14	16/02/2009
8654391	J01MA14	20/04/2009
9310290	J01MA14	12/12/2006
9231987	J01MA14	14/03/2006
16531906	J01MA14	05/12/2006
9294013	J01MA14	27/10/2006
9996518	J01MA14	02/09/2005
612357	J01MA14	08/11/2005
6757389	J01MA14	09/08/2010
16101181	J01MA14	12/03/2003
7151632	J01MA14	20/06/2006
17969122	J01MA14	30/04/2010
9211842	J01MA14	14/02/2011
701963	J01MA14	02/01/2007
10003048	J01MA14	18/04/2011
10004388	J01MA14	05/03/2009
7244033	J01MA14	05/05/2006
12690487	J01MA14	12/09/2008
12696466	J01MA14	27/11/2009
12691956	J01MA14	19/01/2011
8978095	J01MA14	09/08/2007
11247995	J01MA14	13/03/2007
16915547	J01MA14	18/10/2010
1062835	J01MA14	21/09/2010
17217198	J01MA14	25/10/2010
731159	J01MA14	04/02/2003
3302927	J01MA14	14/12/2005
12695067	J01MA14	19/03/2008
7095167	J01MA14	29/03/2010
1938542	J01MA14	03/03/2008
3247747	J01MA14	20/04/2004
21974194	J01MA14	24/01/2011
23455083	J01MA14	07/12/2009
25042468	J01MA14	20/09/2010
17217183	J01MA14	15/04/2011
1516892	J01MA14	18/12/2006
25047568	J01MA14	12/01/2011
3330955	J01MA14	03/09/2007
24722227	J01MA14	28/04/2008
10332859	J01MA14	15/01/2007
12690514	J01MA14	06/03/2007
6748205	J01MA14	06/02/2008
6748638	J01MA14	25/03/2008
8642170	J01MA14	23/11/2006
8975906	J01MA14	10/06/2010
18146152	J01MA14	28/01/2009
6745727	J01MA14	31/03/2010
9315447	J01MA14	24/02/2004
3292667	J01MA14	27/11/2008
23994781	J01MA14	23/11/2004
12688905	J01MA14	04/05/2011
16530402	J01MA14	11/01/2011
8982102	J01MA14	09/01/2004
9250324	J01MA14	11/10/2010
11993361	J01MA14	17/12/2008
731479	J01MA14	31/05/2007
9231512	J01MA14	27/02/2008
8699018	J01MA14	25/04/2011
25041721	J01MA14	16/11/2009
7337735	J01MA14	19/04/2007
16530712	J01MA14	17/10/2007
12185064	J01MA14	18/10/2004
1068416	J01MA14	17/05/2006
6749295	J01MA14	27/04/2010
24930964	J01MA14	26/02/2007
10270830	J01MA14	14/05/2007
10394089	J01MA14	16/11/2010
9382397	J01MA14	22/11/2007
10247185	J01MA14	09/10/2003
8651304	J01MA14	26/05/2008
2768422	J01MA14	07/02/2007
6745181	J01MA14	26/03/2010
10003982	J01MA14	24/09/2008
6759067	J01MA14	09/01/2009
3331547	J01MA14	13/02/2007
25048008	J01MA14	28/01/2011
23471643	J01MA14	14/02/2008
16559078	J01MA14	04/02/2011
9370823	J01MA14	02/01/2007
21152643	J01MA14	23/06/2008
10265993	J01MA14	08/02/2008
1069269	J01MA14	29/04/2010
21372254	J01MA14	27/04/2009
8783486	J01MA14	23/01/2004
16530229	J01MA14	30/07/2009
12858122	J01MA14	04/01/2008
10331912	J01MA14	22/04/2009
6415215	J01MA14	01/02/2006
8654379	J01MA14	28/05/2007
9349186	J01MA14	28/03/2011
6750309	J01MA14	22/02/2011
16530087	J01MA14	26/12/2005
1399515	J01MA14	03/01/2008
9231009	J01MA14	05/02/2008
15135313	J01MA14	30/12/2009
12782079	J01MA14	03/04/2008
25063184	J01MA14	15/02/2007
7160942	J01MA14	11/01/2008
5866143	J01MA14	30/12/2009
16529843	J01MA14	06/02/2008
9302747	J01MA14	12/12/2006
6235148	J01MA14	26/12/2007
14982937	J01MA14	10/06/2009
9320282	J01MA14	26/10/2004
24864967	J01MA14	08/06/2009
8784100	J01MA14	11/02/2005
9309579	J01MA14	13/10/2008
9385419	J01MA14	30/09/2008
6745401	J01MA14	06/04/2006
17175863	J01MA14	30/10/2009
7770511	J01MA14	22/12/2007
23441979	J01MA14	15/01/2008
9346868	J01MA14	13/11/2007
1206919	J01MA14	20/03/2011
7966594	J01MA14	02/03/2005
5991726	J01MA14	12/01/2007
1210575	J01MA14	20/10/2008
1445557	J01MA14	04/02/2011
564746	J01MA14	07/02/2010
26139680	J01MA14	05/05/2008
4700861	J01MA14	11/08/2010
1666099	J01MA14	15/02/2008
1320092	J01MA14	02/07/2010
26139318	J01MA14	07/02/2011
7776172	J01MA14	12/06/2007
26145000	J01MA14	16/09/2005
8066781	J01MA14	15/07/2009
7771801	J01MA14	14/04/2009
1853226	J01MA14	25/02/2002
1851987	J01MA14	16/05/2006
1445893	J01MA14	23/04/2010
7848817	J01MA14	20/01/2010
7800178	J01MA14	06/11/2009
1443335	J01MA14	28/09/2010
7848911	J01MA14	13/04/2010
1353177	J01MA14	10/01/2011
645590	J01MA14	23/05/2006
1852451	J01MA14	30/07/2003
18366191	J01MA14	21/03/2011
7967084	J01MA14	09/05/2008
1210615	J01MA14	25/12/2007
1351045	J01MA14	15/02/2008
1349650	J01MA14	09/09/2008
6211812	J01MA14	23/01/2007
1203945	J01MA14	23/01/2007
647695	J01MA14	20/12/2010
7969130	J01MA14	15/09/2006
12188431	J01MA14	26/03/2010
7968902	J01MA14	20/03/2007
1853552	J01MA14	20/02/2008
1199932	J01MA14	17/01/2005
1170363	J01MA14	20/09/2010
6842062	J01MA14	05/01/2006
7965989	J01MA14	29/12/2006
7802074	J01MA14	29/10/2010
1415985	J01MA14	14/02/2008
8175392	J01MA14	26/04/2010
1201480	J01MA14	04/04/2011
674055	J01MA14	03/10/2007
1200721	J01MA14	14/04/2008
6842063	J01MA14	22/02/2011
13984759	J01MA14	13/02/2008
1353807	J01MA14	04/02/2010
6593866	J01MA14	10/02/2011
5992233	J01MA14	28/04/2007
648760	J01MA14	20/01/2010
15868256	J01MA14	05/06/2009
1350610	J01MA14	15/01/2008
7964334	J01MA14	13/01/2011
2934862	J01MA14	25/12/2003
1850465	J01MA14	14/02/2003
3058719	J01MA14	22/10/2010
7967255	J01MA14	13/04/2010
1276923	J01MA14	03/04/2003
8933284	J01MA14	01/12/2010
6594082	J01MA14	18/03/2011
1091342	J01MA14	15/03/2006
6591197	J01MA14	16/03/2011
1354968	J01MA14	09/12/2008
6602978	J01MA14	28/02/2005
1261881	J01MA14	23/01/2008
6604047	J01MA14	26/11/2001
1275858	J01MA14	30/03/2008
7771937	J01MA14	23/02/2004
4699708	J01MA14	10/07/2006
516414	J01MA14	11/01/2011
7966545	J01MA14	11/01/2011
6593905	J01MA14	06/02/2006
1547134	J01MA14	10/06/2009
7965270	J01MA14	27/02/2009
6594944	J01MA14	30/03/2006
7971482	J01MA14	12/02/2009
515787	J01MA14	25/04/2011
1446022	J01MA14	03/03/2010
6603802	J01MA14	16/06/2009
26139493	J01MA14	14/01/2010
1545551	J01MA14	23/01/2006
4363537	J01MA14	07/12/2005
7848502	J01MA14	30/01/2008
7964309	J01MA14	17/08/2010
13986535	J01MA14	16/06/2010
648336	J01MA14	26/04/2011
1349535	J01MA14	29/04/2009
7771619	J01MA14	30/04/2009
4699921	J01MA14	17/11/2005
7966461	J01MA14	24/02/2011
1210330	J01MA14	13/02/2009
13273125	J01MA14	07/11/2010
1420732	J01MA14	24/03/2011
7076246	J01MA14	12/01/2007
12189158	J01MA14	14/09/2007
5992373	J01MA14	11/09/2009
1424903	J01MA14	08/01/2009
7781663	J01MA14	09/03/2011
6842461	J01MA14	17/02/2005
24940627	J01MA14	31/12/2001
6592623	J01MA14	04/12/2008
7771744	J01MA14	23/05/2003
1351415	J01MA14	19/05/2008
1424032	J01MA14	18/01/2007
1349470	J01MA14	06/11/2008
1211186	J01MA14	24/07/2006
8954744	J01MA14	24/03/2008
1658853	J01MA14	25/05/2010
1665483	J01MA14	04/08/2004
2934516	J01MA14	01/02/2008
12613417	J01MA14	22/05/2009
525429	J01MA14	03/11/2006
1172012	J01MA14	23/05/2009
1545722	J01MA14	10/12/2009
1353504	J01MA14	01/01/2010
539531	J01MA14	29/03/2007
1665187	J01MA14	24/03/2010
7966714	J01MA14	07/01/2011
7776144	J01MA14	22/03/2006
6211340	J01MA14	24/02/2011
5991761	J01MA14	28/10/2009
7769677	J01MA14	14/08/2003
6594523	J01MA14	23/05/2011
1850960	J01MA14	06/08/2010
6602253	J01MA14	30/12/2003
6597060	J01MA14	31/03/2011
1415968	J01MA14	23/03/2006
1276566	J01MA14	23/01/2010
6841266	J01MA14	30/08/2010
7965464	J01MA14	01/07/2010
18365866	J01MA14	18/12/2006
1204719	J01MA14	12/04/2007
1415854	J01MA14	06/06/2006
14695835	J01MA14	08/01/2011
6592990	J01MA14	29/04/2011
6842492	J01MA14	08/06/2007
539674	J01MA14	20/01/2009
7769413	J01MA14	14/04/2011
7800730	J01MA14	07/06/2006
1424080	J01MA14	24/04/2006
7777716	J01MA14	23/02/2011
12189609	J01MA14	01/06/2010
7846528	J01MA14	28/04/2007
8955143	J01MA14	07/07/2003
7776373	J01MA14	26/11/2004
23843778	J01MA14	11/02/2008
6632683	J01MA14	04/02/2011
1851260	J01MA14	23/12/2009
7967921	J01MA14	05/04/2010
674219	J01MA14	28/12/2010
6423378	J01MA14	31/07/2006
7970578	J01MA14	11/05/2010
7770064	J01MA14	10/03/2011
5992669	J01MA14	29/04/2007
7847933	J01MA14	18/11/2003
1853153	J01MA14	09/02/2010
13986679	J01MA14	13/12/2010
647332	J01MA14	24/05/2007
8068500	J01MA14	29/07/2008
639310	J01MA14	02/12/2005
1647457	J01MA14	24/05/2010
1135117	J01MA14	17/12/2008
25892818	J01MA14	12/05/2011
1567790	J01MA14	08/02/2011
3672726	J01MA14	07/06/2007
3656130	J01MA14	07/03/2011
25768738	J01MA14	21/02/2003
1132260	J01MA14	07/10/2010
1100157	J01MA14	14/04/2010
1132264	J01MA14	20/01/2011
13733143	J01MA14	09/12/2003
7967487	J01MA14	07/05/2010
1639039	J01MA14	04/04/2005
1638022	J01MA14	30/03/2009
1855443	J01MA14	07/12/2001
1066253	J01MA14	09/02/2005
1638786	J01MA14	15/10/2003
1101869	J01MA14	06/04/2010
25768020	J01MA14	06/05/2009
1128976	J01MA14	20/12/2004
1558536	J01MA14	02/12/2008
1640603	J01MA14	07/08/2007
1109481	J01MA14	16/02/2011
996038	J01MA14	13/08/2008
1130304	J01MA14	13/12/2005
1110970	J01MA14	05/07/2005
1638137	J01MA14	27/12/2007
1638565	J01MA14	05/01/2009
4688914	J01MA14	18/08/2009
6899947	J01MA14	11/11/2009
1027312	J01MA14	06/02/2008
1641058	J01MA14	13/10/2005
1641072	J01MA14	03/08/2010
192085	J01MA14	16/09/2010
1099959	J01MA14	31/07/2006
889715	J01MA14	21/12/2006
1638850	J01MA14	13/12/2010
25914977	J01MA14	22/12/2009
1104695	J01MA14	20/09/2010
1641868	J01MA14	28/02/2007
2200948	J01MA14	13/12/2010
1134288	J01MA14	27/10/2006
25776569	J01MA14	22/01/2010
6513850	J01MA14	09/11/2007
189189	J01MA14	07/04/2009
21282892	J01MA14	11/01/2011
1579746	J01MA14	19/12/2001
997020	J01MA14	03/01/2006
1131941	J01MA14	05/03/2007
1646970	J01MA14	19/04/2010
1552431	J01MA14	27/06/2005
1130822	J01MA14	13/10/2010
25913321	J01MA14	02/05/2000
12788129	J01MA14	05/10/2010
890246	J01MA14	16/03/2010
25861847	J01MA14	11/01/2010
1640469	J01MA14	13/11/2009
25886838	J01MA14	06/05/2011
1101989	J01MA14	27/01/2009
1855343	J01MA14	22/11/2010
135815	J01MA14	16/11/2006
4678967	J01MA14	15/01/2007
1641017	J01MA14	01/09/2010
12161214	J01MA14	18/04/2011
1103040	J01MA14	16/06/2010
890201	J01MA14	23/02/2011
890168	J01MA14	28/09/2004
1065365	J01MA14	05/01/2010
1580234	J01MA14	09/09/2009
192735	J01MA14	02/02/2010
190945	J01MA14	26/02/2010
25894546	J01MA14	22/11/2010
1640729	J01MA14	12/01/2005
717026	J01MA14	25/01/2010
1065329	J01MA14	21/10/2008
1134812	J01MA14	23/01/2009
1855622	J01MA14	11/05/2006
1135406	J01MA14	02/02/2010
1557371	J01MA14	21/12/2009
1641240	J01MA14	02/02/2011
1101207	J01MA14	12/02/2008
487002	J01MA14	14/04/2003
891330	J01MA14	30/03/2011
1558068	J01MA14	21/12/2010
2068703	J01MA14	19/12/2007
2059817	J01MA14	26/05/2008
2216802	J01MA14	22/10/2007
2216952	J01MA14	09/03/2006
2136921	J01MA14	24/11/2009
2238908	J01MA14	18/02/2010
2070964	J01MA14	11/03/2010
2068106	J01MA14	11/05/2004
2068118	J01MA14	25/08/2008
2068045	J01MA14	24/11/2009
2068046	J01MA14	16/04/2009
2068080	J01MA14	20/12/2007
2164170	J01MA14	27/04/2004
2058996	J01MA14	05/04/2006
2239321	J01MA14	28/11/2007
2109210	J01MA14	16/12/2010
2043843	J01MA14	20/08/2007
2139902	J01MA14	03/11/2010
2144499	J01MA14	04/01/2011
2043315	J01MA14	16/04/2009
2043213	J01MA14	07/12/2002
2216845	J01MA14	18/02/2010
2068266	J01MA14	19/05/2010
902930	J01MA14	01/02/2005
859996	J01MA14	04/05/2011
873905	J01MA14	26/02/2009
2140421	J01MA14	05/03/2010
2036799	J01MA14	07/03/2005
2041465	J01MA14	29/06/2004
1682828	J01MA14	31/05/2006
905063	J01MA14	08/02/2008
2068620	J01MA14	25/10/2005
2043588	J01MA14	04/05/2009
874724	J01MA14	20/02/2007
1763227	J01MA14	06/03/2007
859454	J01MA14	27/04/2007
873649	J01MA14	24/04/2009
904532	J01MA14	04/01/2010
1764620	J01MA14	26/12/2007
903206	J01MA14	21/03/2011
902142	J01MA14	22/04/2003
877611	J01MA14	03/10/2003
874253	J01MA14	21/01/2010
877047	J01MA14	11/02/2010
4088519	J01MA14	13/11/2007
2760233	J01MA14	23/12/2009
2773726	J01MA14	28/11/2005
1755227	J01MA14	14/03/2008
7047649	J01MA14	30/04/2008
7134077	J01MA14	20/02/2006
2777770	J01MA14	15/05/2009
1765218	J01MA14	25/06/2010
858961	J01MA14	20/03/2007
1755991	J01MA14	21/07/2004
859012	J01MA14	15/01/2010
858702	J01MA14	23/02/2005
1767597	J01MA14	07/02/2006
875564	J01MA14	13/11/2007
7037468	J01MA14	12/03/2008
3048775	J01MA14	22/11/2006
2766244	J01MA14	19/09/2008
2774471	J01MA14	20/05/2011
3054684	J01MA14	28/05/2010
2774680	J01MA14	30/03/2006
7047183	J01MA14	15/01/2008
2774879	J01MA14	06/10/2006
7073226	J01MA14	25/03/2011
2778364	J01MA14	16/03/2006
2777436	J01MA14	11/04/2007
7128035	J01MA14	05/10/2004
2776308	J01MA14	18/11/2009
7043389	J01MA14	12/03/2007
7135338	J01MA14	11/04/2005
7048927	J01MA14	28/02/2011
7036827	J01MA14	03/12/2008
2763799	J01MA14	18/04/2005
3048588	J01MA14	29/10/2009
2573352	J01MA14	22/11/2007
2524518	J01MA14	03/11/2009
2574466	J01MA14	17/12/2008
2714643	J01MA14	18/03/2008
2407110	J01MA14	11/01/2008
2522313	J01MA14	16/01/2006
2238871	J01MA14	14/04/2011
2407695	J01MA14	07/01/2009
2525970	J01MA14	16/04/2011
7448043	J01MA14	21/07/2004
15643872	J01MA14	24/11/2010
2753218	J01MA14	20/04/2009
17323216	J01MA14	21/09/2004
15660220	J01MA14	24/04/2009
2525520	J01MA14	05/12/2005
16979996	J01MA14	09/11/2007
2755397	J01MA14	14/01/2010
16835317	J01MA14	01/12/2008
26384162	J01MA14	24/09/2007
26460364	J01MA14	02/05/2006
26463572	J01MA14	12/01/2011
26461804	J01MA14	08/09/2010
26425709	J01MA14	11/05/2007
26425486	J01MA14	10/08/2007
26350464	J01MA14	19/05/2010
26488037	J01MA14	26/11/2009
26565592	J01MA14	27/06/2009
26463495	J01MA14	18/03/2011
26462819	J01MA14	19/04/2011
26337379	J01MA14	21/09/2009
26481067	J01MA14	09/12/2004
26423223	J01MA14	05/06/2006
28054464	J01MA14	26/09/2007
26350433	J01MA14	06/03/2008
26426041	J01MA14	26/05/2005
28044409	J01MA14	09/01/2009
26461925	J01MA14	05/04/2011
26456684	J01MA14	05/05/2008
26460462	J01MA14	29/08/2005
26516379	J01MA14	21/02/2011
17746470	J01MA14	23/09/2010
17746473	J01MA14	02/02/2011
7229616	J01MA14	08/09/2004
7144216	J01MA14	09/09/2009
26170763	J01MA14	07/12/2006
20673463	J01MA14	03/11/2006
9635311	J01MA14	28/01/2011
18471931	J01MA14	18/01/2011
26263281	J01MA14	23/03/2011
24991086	J01MA14	01/04/2011
20673832	J01MA14	19/10/2005
7035689	J01MA14	21/05/2010
26244722	J01MA14	26/05/2011
10455373	J01MA14	18/12/2007
20147401	J01MA14	05/05/2009
17041146	J01MA14	18/03/2008
24847569	J01MA14	17/05/2007
26261422	J01MA14	04/02/2008
6990280	J01MA14	09/04/2007
17747103	J01MA14	16/02/2005
26565834	J01MA14	03/01/2009
26351251	J01MA14	09/06/2010
20147230	J01MA14	16/12/2005
26425372	J01MA14	17/04/2007
26425083	J01MA14	15/03/2010
26217958	J01MA14	14/05/2007
26464502	J01MA14	25/04/2010
26182006	J01MA14	04/01/2010
28042198	J01MA14	02/05/2003
28042210	J01MA14	10/08/2004
26424588	J01MA14	19/02/2008
24908384	J01MA14	25/03/2011
26566119	J01MA14	12/05/2009
26207800	J01MA14	29/06/2009
20147034	J01MA14	22/12/2004
20147574	J01MA14	15/11/2004
26423547	J01MA14	25/06/2010
23890725	J01MA14	29/07/2010
18472156	J01MA14	30/12/2010
26459796	J01MA14	04/12/2003
26235974	J01MA14	08/03/2010
26236453	J01MA14	27/12/2010
20673960	J01MA14	16/04/2010
17741869	J01MA14	02/02/2008
7134510	J01MA14	15/06/2007
11583878	J01MA14	04/06/2010
17745874	J01MA14	13/09/2010
16946402	J01MA14	24/08/2010
7229770	J01MA14	04/12/2006
7228900	J01MA14	03/01/2011
7136999	J01MA14	22/10/2004
7143548	J01MA14	28/12/2005
16836479	J01MA14	10/05/2005
425558	J01MA14	30/11/2009
185772	J01MA14	26/10/2005
186158	J01MA14	09/03/2009
1912146	J01MA14	27/12/2004
1903018	J01MA14	11/03/2004
464363	J01MA14	06/10/2009
2959597	J01MA14	24/11/2010
434740	J01MA14	23/02/2011
265545	J01MA14	06/10/2008
418178	J01MA14	16/08/2004
1903000	J01MA14	11/01/2007
1912881	J01MA14	05/01/2009
6577193	J01MA14	02/10/2007
427903	J01MA14	26/12/2007
419256	J01MA14	28/08/2009
4110200	J01MA14	16/06/2008
2958619	J01MA14	23/04/2011
2244430	J01MA14	21/03/2007
302849	J01MA14	19/02/2010
184887	J01MA14	17/12/2010
418435	J01MA14	03/11/2009
185473	J01MA14	04/06/2009
433748	J01MA14	26/02/2008
2962363	J01MA14	07/06/2004
464133	J01MA14	03/01/2005
6002144	J01MA14	27/10/2010
464149	J01MA14	08/06/2007
1900723	J01MA14	05/03/2008
302264	J01MA14	21/04/2008
303161	J01MA14	29/08/2005
2959751	J01MA14	21/10/2005
12979856	J01MA14	28/11/2006
187884	J01MA14	17/03/2009
464558	J01MA14	18/03/2009
2069213	J01MA14	23/09/2009
874346	J01MA14	29/06/2006
12971265	J01MA14	28/01/2010
28089859	J01MA14	02/11/2009
2035462	J01MA14	21/04/2006
28080521	J01MA14	18/01/2010
28052808	J01MA14	08/04/2010
28083946	J01MA14	22/02/2011
28080662	J01MA14	07/03/2006
2215450	J01MA14	03/12/2010
2777704	J01MA14	28/04/2011
2776172	J01MA14	01/02/2008
873868	J01MA14	26/08/2002
28078871	J01MA14	30/09/2010
28086148	J01MA14	31/08/2009
28090218	J01MA14	14/06/2006
903103	J01MA14	29/01/2003
7134485	J01MA14	16/11/2006
303035	J01MA14	29/01/2010
181538	J01MA14	09/10/2009
187189	J01MA14	18/11/2009
302593	J01MA14	16/07/2007
434399	J01MA14	10/09/2003
425921	J01MA14	02/12/2010
265635	J01MA14	18/07/2007
301668	J01MA14	15/11/2005
184746	J01MA14	24/01/2011
437584	J01MA14	16/04/2010
649639	J01MA14	22/03/2011
187861	J01MA14	08/05/2007
426562	J01MA14	02/04/2009
26441817	J01MA14	13/11/2007
423166	J01MA14	06/03/2006
28053711	J01MA14	18/04/2006
424657	J01MA14	10/06/2008
424667	J01MA14	14/02/2011
301938	J01MA14	06/05/2004
185257	J01MA14	10/06/2008
28064907	J01MA14	20/12/2010
28090511	J01MA14	23/12/2008
184252	J01MA14	10/10/2005
649902	J01MA14	31/08/2004
423586	J01MA14	04/09/2007
28059431	J01MA14	10/12/2010
186064	J01MA14	25/11/2009
305231	J01MA14	06/06/2006
185854	J01MA14	01/02/2010
28080981	J01MA14	24/03/2010
265148	J01MA14	06/04/2011
300557	J01MA14	18/04/2007
17741653	J01MA14	21/03/2007
7029377	J01MA14	18/10/2010
185927	J01MA14	14/03/2011
28040649	J01MA14	22/05/2010
28055135	J01MA14	03/10/2006
28063046	J01MA14	31/01/2008
28043427	J01MA14	03/01/2011
26588342	J01MA14	24/05/2011
28080784	J01MA14	08/04/2009
28065837	J01MA14	26/07/2005
28072507	J01MA14	29/03/2010
28064938	J01MA14	26/11/2009
28090048	J01MA14	07/07/2010
28066074	J01MA14	29/09/2008
28069830	J01MA14	09/06/2009
28054208	J01MA14	22/07/2010
28056474	J01MA14	29/09/2008
28043643	J01MA14	01/02/2010
28056641	J01MA14	26/05/2004
28045890	J01MA14	18/02/2010
25739069	J01MA14	20/03/2006
24655567	J01MA14	31/01/2009
24669451	J01MA14	16/04/2004
25648817	J01MA14	06/10/2006
24665241	J01MA14	06/02/2008
24655753	J01MA14	14/05/2010
25738686	J01MA14	28/10/2002
25738696	J01MA14	04/10/2008
24670887	J01MA14	26/01/2005
24670871	J01MA14	30/08/2008
25535638	J01MA14	07/04/2010
24663127	J01MA14	23/05/2011
24655998	J01MA14	15/10/2007
25742680	J01MA14	13/01/2011
24655287	J01MA14	20/12/2004
24658550	J01MA14	12/01/2009
24665519	J01MA14	31/08/2006
25743607	J01MA14	27/07/2010
24666170	J01MA14	14/04/2010
25542106	J01MA14	11/08/2005
24666922	J01MA14	08/01/2010
24665838	J01MA14	08/09/2010
25743018	J01MA14	17/11/2009
24656988	J01MA14	28/09/2004
25704459	J01MA14	12/01/2007
24664366	J01MA14	21/01/2008
25743054	J01MA14	28/12/2010
24666997	J01MA14	11/11/2005
24669225	J01MA14	15/09/2008
24667663	J01MA14	13/12/2010
24667282	J01MA14	11/02/2008
25740462	J01MA14	26/10/2010
25739656	J01MA14	27/07/2010
24664058	J01MA14	28/08/2008
26629170	J01MA14	20/08/2007
1019432	J01MA14	11/01/2011
1019290	J01MA14	08/10/2010
1903907	J01MA14	22/06/2006
1904043	J01MA14	09/06/2006
1020237	J01MA14	26/02/2009
1018076	J01MA14	30/03/2005
1015611	J01MA14	14/01/2008
18191643	J01MA14	12/08/2010
1909740	J01MA14	06/06/2003
1020473	J01MA14	20/12/2010
18193361	J01MA14	03/05/2004
1363712	J01MA14	11/05/2011
1372352	J01MA14	30/12/2009
1371652	J01MA14	17/02/2006
1371686	J01MA14	21/12/2006
1013085	J01MA14	13/12/2004
1019857	J01MA14	04/04/2005
1906965	J01MA14	18/09/2007
1030137	J01MA14	13/01/2011
1900235	J01MA14	12/12/2005
1342869	J01MA14	24/12/2008
21553972	J01MA14	11/12/2006
1371015	J01MA14	22/11/2006
1359388	J01MA14	28/05/2010
41017	J01MA14	12/01/2010
21063633	J01MA14	15/02/2007
24666120	J01MA14	09/06/2008
17831080	J01MA14	15/03/2011
21650477	J01MA14	07/05/2007
18194829	J01MA14	21/06/2005
16840841	J01MA14	30/09/2009
18196870	J01MA14	24/01/2006
18193809	J01MA14	22/05/2009
18195868	J01MA14	26/03/2007
21386520	J01MA14	12/04/2011
18196883	J01MA14	18/09/2009
18186766	J01MA14	31/05/2001
18200534	J01MA14	28/04/2011
18551274	J01MA14	29/07/2010
18192796	J01MA14	23/07/2010
18196791	J01MA14	01/12/2005
18186949	J01MA14	16/12/2008
21065750	J01MA14	22/11/2008
16567068	J01MA14	13/01/2004
25739625	J01MA14	12/01/2011
18197591	J01MA14	20/07/2009
18188014	J01MA14	14/10/2005
19801472	J01MA14	20/02/2007
22757992	J01MA14	17/03/2003
19765489	J01MA14	20/08/2007
18197681	J01MA14	13/04/2011
18198495	J01MA14	09/12/2008
22766292	J01MA14	05/11/2008
18188104	J01MA14	21/05/2007
16812743	J01MA14	03/11/2007
16841573	J01MA14	23/09/2008
4628196	J01MA14	26/10/2010
2987559	J01MA14	02/09/2008
2987616	J01MA14	25/02/2008
1906291	J01MA14	08/08/2005
1906568	J01MA14	28/08/2006
2988749	J01MA14	09/02/2009
4312803	J01MA14	05/03/2009
1906254	J01MA14	11/04/2003
1899523	J01MA14	02/12/2010
420427	J01MA14	23/11/2006
1030188	J01MA14	03/02/2011
2988326	J01MA14	15/10/2010
2964758	J01MA14	07/05/2010
2961784	J01MA14	09/06/2005
1015859	J01MA14	17/09/2008
2250579	J01MA14	08/10/2009
2961851	J01MA14	25/10/2008
12977023	J01MA14	29/01/2002
1015918	J01MA14	16/09/2009
5703647	J01MA14	28/02/2007
1368382	J01MA14	09/10/2006
1363174	J01MA14	09/09/2009
1909157	J01MA14	24/01/2006
1019222	J01MA14	01/07/2005
26642443	J01MA14	10/03/2011
26833991	J01MA14	19/01/2009
23484225	J01MA14	25/10/2007
26778674	J01MA14	04/05/2010
26701873	J01MA14	28/10/2005
26825417	J01MA14	31/10/2007
26767920	J01MA14	11/05/2007
26629598	J01MA14	16/03/2007
26707359	J01MA14	18/10/2005
26719797	J01MA14	06/06/2005
26722694	J01MA14	28/05/2008
26776918	J01MA14	11/08/2010
26628594	J01MA14	03/02/2011
26707647	J01MA14	22/02/2008
26707649	J01MA14	13/01/2009
26700714	J01MA14	26/02/2009
26643122	J01MA14	19/08/2010
26805159	J01MA14	30/03/2011
26629943	J01MA14	03/04/2006
26722085	J01MA14	15/04/2005
26638407	J01MA14	15/10/2010
26626019	J01MA14	21/03/2006
26803235	J01MA14	21/08/2008
26635349	J01MA14	09/06/2010
26626574	J01MA14	26/05/2008
17125574	J01MA14	10/05/2006
16842212	J01MA14	25/09/2006
16843934	J01MA14	24/08/2005
12974196	J01MA14	20/02/2007
2989757	J01MA14	13/01/2009
16842013	J01MA14	23/12/2010
24577045	J01MA14	30/06/2008
12976646	J01MA14	27/07/2005
2988267	J01MA14	29/12/2004
16842252	J01MA14	30/01/2007
16842259	J01MA14	04/03/2005
2987010	J01MA14	17/03/2011
24663291	J01MA14	01/10/2008
12975801	J01MA14	11/10/2005
24654532	J01MA14	09/05/2005
16105286	J01MA14	12/05/2009
3056261	J01MA14	29/12/2008
13871943	J01MA14	21/10/2010
13871955	J01MA14	18/01/2005
16841897	J01MA14	26/02/2008
11674892	J01MA14	14/02/2011
26707001	J01MA14	21/12/2010
26707119	J01MA14	20/12/2007
26628248	J01MA14	22/12/2010
26701991	J01MA14	19/10/2005
26724456	J01MA14	30/01/2009
26620827	J01MA14	03/11/2010
26638546	J01MA14	01/08/2005
16843285	J01MA14	07/09/2007
26619662	J01MA14	14/05/2010
26700450	J01MA14	21/01/2005
26626604	J01MA14	22/08/2007
26616690	J01MA14	24/11/2006
26706415	J01MA14	09/08/2010
26706433	J01MA14	29/09/2010
26701330	J01MA14	18/09/2006
12975172	J01MA14	19/12/2005
26722119	J01MA14	30/01/2009
26642547	J01MA14	09/01/2005
26630452	J01MA14	17/09/2008
26629276	J01MA14	22/04/2009
26719166	J01MA14	30/11/2010
26618516	J01MA14	02/02/2011
26703240	J01MA14	23/09/2010
26616636	J01MA14	14/02/2008
26616643	J01MA14	30/03/2007
26618242	J01MA14	24/09/2010
24577944	J01MA14	29/01/2008
22922486	J01MA14	21/08/2006
21651514	J01MA14	04/10/2008
24576414	J01MA14	03/04/2006
24655486	J01MA14	09/12/2008
24580485	J01MA14	30/10/2007
21553632	J01MA14	30/12/2005
24667198	J01MA14	24/11/2006
24654931	J01MA14	27/11/2010
24579610	J01MA14	16/05/2006
24666854	J01MA14	29/06/2005
21552734	J01MA14	02/01/2007
19968378	J01MA14	17/02/2011
24581359	J01MA14	05/10/2010
22621949	J01MA14	11/04/2005
22909924	J01MA14	18/09/2006
21554193	J01MA14	01/03/2007
22922696	J01MA14	11/11/2009
22922409	J01MA14	29/01/2011
23463234	J01MA14	12/10/2009
24583657	J01MA14	11/11/2008
24579555	J01MA14	22/04/2005
24577346	J01MA14	15/10/2004
26935278	J01MA14	02/11/2007
26917360	J01MA14	02/02/2009
26937769	J01MA14	19/05/2010
26932610	J01MA14	12/02/2008
26932654	J01MA14	19/05/2011
26948499	J01MA14	04/02/2008
27023212	J01MA14	16/09/2009
26894950	J01MA14	13/10/2010
26938768	J01MA14	28/12/2006
26934241	J01MA14	30/12/2010
26936321	J01MA14	05/11/2007
26959534	J01MA14	16/12/2010
26935514	J01MA14	13/03/2006
26934370	J01MA14	22/09/2009
26933127	J01MA14	21/02/2005
26950866	J01MA14	02/10/2006
26944866	J01MA14	09/11/2006
26916169	J01MA14	22/05/2009
26916982	J01MA14	23/04/2009
26936433	J01MA14	19/12/2009
26934598	J01MA14	20/01/2009
26946963	J01MA14	01/06/2011
26940146	J01MA14	13/10/2006
26945515	J01MA14	31/03/2005
26930368	J01MA14	28/09/2007
26950378	J01MA14	03/05/2008
26916199	J01MA14	23/12/2008
26938134	J01MA14	25/01/2005
26938136	J01MA14	25/04/2008
26915129	J01MA14	27/02/2002
26949733	J01MA14	09/03/2007
26915478	J01MA14	15/01/2009
26729083	J01MA14	29/12/2008
26768379	J01MA14	07/06/2004
26730017	J01MA14	25/05/2009
26879225	J01MA14	17/01/2005
26878213	J01MA14	16/08/2007
26779381	J01MA14	15/02/2011
26714333	J01MA14	01/12/2004
26715577	J01MA14	15/03/2010
26716003	J01MA14	30/03/2011
26742016	J01MA14	21/12/2010
26854601	J01MA14	13/11/2008
26877945	J01MA14	03/04/2008
26718656	J01MA14	09/11/2009
26703766	J01MA14	07/10/2010
26848964	J01MA14	14/04/2011
26847784	J01MA14	26/11/2008
26871932	J01MA14	02/01/2011
26780527	J01MA14	27/02/2008
26720081	J01MA14	27/01/2004
26887048	J01MA14	18/01/2011
26768998	J01MA14	09/10/2010
26874305	J01MA14	21/03/2005
26848752	J01MA14	05/01/2011
26872119	J01MA14	26/11/2009
26872309	J01MA14	15/11/2006
26874543	J01MA14	27/05/2004
26878871	J01MA14	04/11/2009
26851612	J01MA14	18/12/2007
26888222	J01MA14	31/03/2010
26900035	J01MA14	31/08/2007
26891117	J01MA14	31/12/2008
26863888	J01MA14	13/01/2010
26877295	J01MA14	26/11/2008
26873859	J01MA14	18/01/2011
26879122	J01MA14	20/06/2007
26936559	J01MA14	09/11/2010
26848429	J01MA14	07/03/2007
26856303	J01MA14	12/02/2007
26845956	J01MA14	13/12/2010
26877189	J01MA14	10/02/2010
26850877	J01MA14	13/01/2011
26846652	J01MA14	27/07/2010
26848628	J01MA14	18/10/2007
26873940	J01MA14	31/03/2009
26872570	J01MA14	19/01/2011
26874201	J01MA14	29/07/2008
26872935	J01MA14	03/03/2011
26859600	J01MA14	25/03/2011
26847639	J01MA14	03/04/2011
26942306	J01MA14	17/11/2006
26857202	J01MA14	19/04/2011
26877066	J01MA14	27/06/2007
26851758	J01MA14	29/11/2010
26784084	J01MA14	16/03/2011
26800376	J01MA14	18/05/2007
26761523	J01MA14	10/06/2009
26789113	J01MA14	20/01/2009
26804060	J01MA14	12/02/2009
26729508	J01MA14	09/09/2009
26781490	J01MA14	22/02/2008
26776452	J01MA14	05/08/2008
26728879	J01MA14	27/08/2009
26713793	J01MA14	04/08/2005
26805018	J01MA14	14/02/2011
26834377	J01MA14	25/03/2010
26812447	J01MA14	02/02/2005
26853762	J01MA14	02/02/2006
26717001	J01MA14	31/10/2008
26717132	J01MA14	29/12/2010
26711151	J01MA14	03/11/2004
26768307	J01MA14	14/05/2011
26833689	J01MA14	02/06/2010
27072138	J01MA14	11/01/2008
27044460	J01MA14	29/01/2008
26962098	J01MA14	09/09/2006
26939724	J01MA14	14/05/2010
26969569	J01MA14	30/01/2007
26966681	J01MA14	28/12/2006
26977641	J01MA14	21/01/2010
26955265	J01MA14	06/09/2005
26999711	J01MA14	07/10/2009
26990088	J01MA14	07/11/2007
27061838	J01MA14	01/03/2010
26972922	J01MA14	13/11/2009
26947651	J01MA14	17/02/2010
27034247	J01MA14	22/06/2005
27034844	J01MA14	22/12/2010
26972708	J01MA14	10/02/2009
26969723	J01MA14	05/01/2007
26956977	J01MA14	28/10/2010
26989123	J01MA14	10/01/2008
27061399	J01MA14	04/11/2009
27031524	J01MA14	05/09/2008
27029751	J01MA14	13/10/2008
26980893	J01MA14	20/06/2005
27057332	J01MA14	17/09/2008
26972749	J01MA14	11/01/2011
26973183	J01MA14	05/01/2009
26976896	J01MA14	21/06/2005
26957389	J01MA14	03/02/2005
26946040	J01MA14	08/01/2008
27133104	J01MA14	08/02/2008
27061932	J01MA14	31/08/2007
27149610	J01MA14	10/04/2006
27116884	J01MA14	22/02/2010
27113773	J01MA14	26/03/2011
27149654	J01MA14	29/03/2007
27085859	J01MA14	18/01/2006
27086129	J01MA14	09/01/2009
27086147	J01MA14	20/04/2007
27128238	J01MA14	04/01/2008
27113813	J01MA14	24/05/2006
27100175	J01MA14	09/01/2009
27037601	J01MA14	28/09/2006
27105146	J01MA14	09/01/2007
27085563	J01MA14	13/06/2005
27153004	J01MA14	16/07/2008
27108967	J01MA14	09/10/2007
27085041	J01MA14	21/01/2010
27055690	J01MA14	06/04/2009
27031209	J01MA14	13/01/2006
27064483	J01MA14	13/05/2011
27061186	J01MA14	21/08/2007
27062255	J01MA14	16/02/2006
27127029	J01MA14	02/06/2004
27043981	J01MA14	03/01/2010
27034569	J01MA14	20/11/2007
27031739	J01MA14	25/04/2006
27065338	J01MA14	12/05/2011
27062156	J01MA14	13/08/2007
27045550	J01MA14	30/04/2010
27067240	J01MA14	31/03/2010
27061759	J01MA14	13/07/2006
27033265	J01MA14	10/03/2010
27046655	J01MA14	24/11/2006
27082854	J01MA14	26/10/2007
27046397	J01MA14	03/11/2006
27065702	J01MA14	15/11/2008
27044444	J01MA14	11/01/2007
27056679	J01MA14	20/02/2004
27057799	J01MA14	05/01/2011
27074537	J01MA14	15/03/2010
27049237	J01MA14	24/11/2010
27065487	J01MA14	24/02/2005
27035099	J01MA14	05/09/2006
27033292	J01MA14	13/11/2006
27054066	J01MA14	04/11/2010
27063095	J01MA14	24/11/2004
27037293	J01MA14	23/01/2009
26991169	J01MA14	15/10/2010
27037502	J01MA14	08/04/2011
27026322	J01MA14	23/03/2010
27038965	J01MA14	11/05/2010
27039739	J01MA14	09/01/2007
26998318	J01MA14	27/04/2011
27023851	J01MA14	14/11/2003
27036084	J01MA14	08/06/2006
27000123	J01MA14	27/05/2011
27025011	J01MA14	31/10/2007
26991219	J01MA14	21/03/2007
27026108	J01MA14	15/02/2006
26996261	J01MA14	17/09/2009
27004152	J01MA14	08/01/2011
27000566	J01MA14	07/12/2009
27036260	J01MA14	28/07/2006
27022026	J01MA14	05/05/2004
27039199	J01MA14	14/11/2005
26999375	J01MA14	31/12/2009
27000732	J01MA14	18/02/2009
27024702	J01MA14	16/11/2010
27014990	J01MA14	12/12/2009
27005644	J01MA14	04/02/2009
27000807	J01MA14	05/02/2007
27000812	J01MA14	09/03/2009
27032118	J01MA14	23/01/2011
27039805	J01MA14	22/10/2010
27383273	J01MA14	22/01/2007
27363911	J01MA14	25/08/2010
27150732	J01MA14	27/10/2010
27247177	J01MA14	06/02/2011
27233913	J01MA14	13/10/2009
27216549	J01MA14	31/12/2007
27326823	J01MA14	15/04/2011
27326850	J01MA14	31/07/2009
27348961	J01MA14	02/05/2011
27360746	J01MA14	16/12/2009
27213348	J01MA14	17/01/2011
27169258	J01MA14	03/01/2008
27169345	J01MA14	05/04/2011
27215085	J01MA14	20/01/2009
27324892	J01MA14	23/04/2011
27248566	J01MA14	03/10/2006
27248578	J01MA14	11/03/2004
27168097	J01MA14	01/05/2010
27399852	J01MA14	22/07/2010
27219870	J01MA14	03/02/2011
27143681	J01MA14	25/05/2006
27326749	J01MA14	19/05/2008
27383412	J01MA14	25/02/2010
27383415	J01MA14	04/02/2011
27146985	J01MA14	16/01/2008
27153422	J01MA14	09/08/2007
27284739	J01MA14	15/04/2011
27219884	J01MA14	22/12/2009
27385184	J01MA14	14/09/2010
27166818	J01MA14	27/08/2010
27173275	J01MA14	08/03/2011
27368382	J01MA14	09/10/2008
27244684	J01MA14	05/01/2011
27169975	J01MA14	12/11/2009
27238052	J01MA14	24/01/2011
27197994	J01MA14	04/08/2004
27198906	J01MA14	03/03/2011
27254123	J01MA14	26/02/2010
27317155	J01MA14	26/02/2007
27313906	J01MA14	28/09/2010
27314686	J01MA14	09/01/2008
27318438	J01MA14	24/02/2011
27305570	J01MA14	10/02/2009
27304467	J01MA14	05/02/2007
27236706	J01MA14	26/03/2007
27233568	J01MA14	21/04/2011
27233681	J01MA14	10/09/2008
27356518	J01MA14	03/07/2007
27247846	J01MA14	18/07/2007
27302456	J01MA14	05/01/2010
27234209	J01MA14	20/12/2010
27371161	J01MA14	07/02/2007
27215513	J01MA14	21/02/2006
27317083	J01MA14	12/05/2008
27320895	J01MA14	25/08/2010
27350662	J01MA14	10/02/2010
27314200	J01MA14	15/02/2010
27308260	J01MA14	15/01/2010
27359659	J01MA14	18/04/2007
27348191	J01MA14	20/09/2006
27300856	J01MA14	22/09/2009
27360881	J01MA14	23/10/2007
27213459	J01MA14	21/11/2007
27303739	J01MA14	04/09/2006
27314586	J01MA14	30/11/2009
27168989	J01MA14	23/02/2009
27296189	J01MA14	16/06/2006
27370248	J01MA14	22/05/2007
27320470	J01MA14	04/10/2006
27308399	J01MA14	23/04/2008
27379926	J01MA14	28/08/2007
27220097	J01MA14	23/09/2010
27364693	J01MA14	04/08/2010
27326487	J01MA14	23/05/2008
27308559	J01MA14	23/06/2010
27355276	J01MA14	23/03/2011
26970494	J01MA14	07/05/2007
27246715	J01MA14	29/06/2007
27246754	J01MA14	15/03/2005
26988984	J01MA14	21/01/2009
27249965	J01MA14	11/10/2008
26976299	J01MA14	23/04/2007
27229767	J01MA14	17/03/2007
27253841	J01MA14	22/05/2007
27239950	J01MA14	09/10/2009
26955621	J01MA14	04/07/2008
26975985	J01MA14	20/12/2007
27247391	J01MA14	16/03/2004
26952890	J01MA14	18/02/2004
26977919	J01MA14	18/12/2007
27242949	J01MA14	12/07/2007
27246020	J01MA14	02/07/2009
27241512	J01MA14	03/01/2005
26988505	J01MA14	25/05/2006
26976761	J01MA14	10/12/2009
27169743	J01MA14	25/09/2007
27250690	J01MA14	06/04/2011
27249837	J01MA14	25/09/2008
27171327	J01MA14	16/01/2006
27170060	J01MA14	29/09/2009
27579610	J01MA14	11/04/2011
27571525	J01MA14	06/05/2011
27595460	J01MA14	16/04/2004
27632310	J01MA14	04/03/2005
27640466	J01MA14	21/09/2004
27606382	J01MA14	22/11/2010
27606078	J01MA14	26/10/2010
27641540	J01MA14	06/03/2011
27643227	J01MA14	02/05/2011
27573377	J01MA14	24/12/2007
27600699	J01MA14	21/12/2008
27570888	J01MA14	14/04/2009
27596947	J01MA14	18/04/2008
27596955	J01MA14	07/03/2005
27577033	J01MA14	27/10/2005
27646878	J01MA14	02/01/2009
27646502	J01MA14	24/04/2006
27600750	J01MA14	13/12/2005
27661153	J01MA14	13/12/2009
27592680	J01MA14	12/02/2008
27600175	J01MA14	04/08/2010
27600454	J01MA14	13/12/2007
27595843	J01MA14	18/02/2005
27614105	J01MA14	09/02/2007
27695185	J01MA14	07/12/2006
27578159	J01MA14	11/09/2007
27648016	J01MA14	01/10/2007
27633300	J01MA14	29/10/2010
27481247	J01MA14	01/04/2006
27481258	J01MA14	04/01/2008
27475803	J01MA14	27/01/2009
27471234	J01MA14	13/02/2009
27573919	J01MA14	28/02/2011
27452274	J01MA14	02/05/2006
27641299	J01MA14	08/01/2008
27476748	J01MA14	16/11/2010
27493387	J01MA14	10/12/2008
27453943	J01MA14	03/05/2005
27445426	J01MA14	17/11/2010
27647339	J01MA14	16/04/2007
27440980	J01MA14	06/04/2010
27456887	J01MA14	26/01/2010
27472835	J01MA14	03/06/2005
27660092	J01MA14	18/02/2011
27470779	J01MA14	11/12/2007
27472715	J01MA14	01/02/2008
27420252	J01MA14	30/10/2008
27420339	J01MA14	14/12/2010
27659873	J01MA14	13/04/2011
27577243	J01MA14	30/11/2010
27469908	J01MA14	10/01/2011
27414009	J01MA14	06/09/2007
27415090	J01MA14	21/11/2005
27657086	J01MA14	30/09/2010
27647710	J01MA14	24/09/2007
27572382	J01MA14	07/03/2008
27571463	J01MA14	31/12/2010
27564660	J01MA14	05/10/2007
27741644	J01MA14	06/03/2006
27720513	J01MA14	28/01/2011
27567257	J01MA14	30/09/2009
27764749	J01MA14	29/04/2008
27765512	J01MA14	06/11/2007
27759030	J01MA14	01/10/2010
27572511	J01MA14	25/01/2006
27567870	J01MA14	13/05/2011
27765553	J01MA14	04/11/2010
27544065	J01MA14	02/01/2009
27756700	J01MA14	11/05/2011
27565319	J01MA14	07/12/2009
27764323	J01MA14	05/11/2007
27607181	J01MA14	07/01/2008
27563858	J01MA14	18/01/2011
27543445	J01MA14	25/11/2010
27570581	J01MA14	01/03/2011
27621512	J01MA14	31/01/2008
27614661	J01MA14	25/09/2009
27564868	J01MA14	02/09/2009
27631405	J01MA14	28/04/2011
27565580	J01MA14	04/01/2008
27614610	J01MA14	25/10/2008
27614612	J01MA14	19/01/2007
27623271	J01MA14	03/01/2011
27623279	J01MA14	15/02/2007
27694922	J01MA14	09/05/2011
27563178	J01MA14	30/04/2011
27621566	J01MA14	16/03/2011
27633086	J01MA14	14/05/2009
27542965	J01MA14	01/09/2010
27566125	J01MA14	30/04/2010
27716033	J01MA14	23/11/2005
27571153	J01MA14	01/10/2010
27708618	J01MA14	06/12/2010
27153326	J01MA14	28/03/2011
27151908	J01MA14	07/03/2011
27292071	J01MA14	16/06/2006
27234266	J01MA14	04/05/2010
27167394	J01MA14	15/07/2010
27283981	J01MA14	24/08/2010
27144212	J01MA14	19/06/2010
27143220	J01MA14	29/01/2002
27129231	J01MA14	19/01/2009
27159650	J01MA14	10/11/2003
27163037	J01MA14	12/03/2009
27414193	J01MA14	04/08/2009
27284429	J01MA14	10/03/2008
27166399	J01MA14	04/04/2011
27284226	J01MA14	27/08/2010
27286282	J01MA14	18/05/2011
27163873	J01MA14	01/12/2006
27250342	J01MA14	21/04/2005
27230800	J01MA14	15/11/2010
27469950	J01MA14	03/01/2011
27167918	J01MA14	15/12/2010
27132827	J01MA14	08/04/2010
27476329	J01MA14	05/02/2009
26637275	J01MA14	01/09/2010
27144953	J01MA14	23/06/2009
26954350	J01MA14	29/12/2009
27675236	J01MA14	01/04/2008
27623933	J01MA14	09/02/2008
27131848	J01MA14	30/04/2009
24576547	J01MA14	02/05/2006
27246258	J01MA14	23/06/2003
27782560	J01MA14	29/03/2010
26976144	J01MA14	05/01/2011
26975914	J01MA14	26/05/2010
27025269	J01MA14	20/04/2011
24659329	J01MA14	05/11/2008
18187165	J01MA14	10/06/2008
20070922	J01MA14	13/04/2011
27641770	J01MA14	09/05/2011
27456974	J01MA14	05/04/2006
2252713	J01MA14	22/08/2007
1905637	J01MA14	02/09/2010
26857035	J01MA14	03/02/2011
27106877	J01MA14	25/09/2006
27246442	J01MA14	31/01/2011
27546503	J01MA14	24/04/2004
26981785	J01MA14	20/03/2010
27320825	J01MA14	29/04/2009
26803917	J01MA14	08/11/2010
27780235	J01MA14	24/09/2010
462371	J01MA14	12/09/2008
27516344	J01MA14	03/09/2008
17423124	J01MA14	29/12/2006
27113955	J01MA14	27/04/2010
26794508	J01MA14	26/11/2007
27782628	J01MA14	29/12/2008
27540070	J01MA14	30/12/2010
27476788	J01MA14	18/11/2010
27772101	J01MA14	27/08/2005
27781212	J01MA14	16/12/2004
27684664	J01MA14	28/07/2005
27773698	J01MA14	11/12/2003
27673317	J01MA14	08/11/2007
27682072	J01MA14	25/11/2009
27684854	J01MA14	08/01/2009
27530374	J01MA14	16/09/2009
27679924	J01MA14	21/03/2006
27531352	J01MA14	23/03/2009
27538114	J01MA14	13/02/2008
27535611	J01MA14	19/02/2008
27667420	J01MA14	15/01/2008
27785654	J01MA14	13/04/2005
27473685	J01MA14	02/01/2007
27719839	J01MA14	05/11/2007
27540483	J01MA14	28/02/2006
27669094	J01MA14	12/01/2007
27563283	J01MA14	05/12/2007
27680128	J01MA14	23/09/2008
27480464	J01MA14	14/03/2009
27782453	J01MA14	22/01/2004
27782454	J01MA14	18/11/2008
27782467	J01MA14	07/05/2003
27532981	J01MA14	17/01/2007
27686318	J01MA14	14/03/2011
27663578	J01MA14	23/12/2010
27533971	J01MA14	02/01/2006
27477114	J01MA14	27/01/2011
27679944	J01MA14	05/10/2009
27779766	J01MA14	17/01/2008
27779259	J01MA14	31/01/2011
27770505	J01MA14	15/11/2007
27530889	J01MA14	18/10/2005
27470095	J01MA14	18/04/2006
27768769	J01MA14	01/07/2003
27784207	J01MA14	21/06/2008
27687281	J01MA14	17/11/2004
27664085	J01MA14	01/12/2009
27784476	J01MA14	15/10/2010
27664133	J01MA14	29/11/2010
27614649	J01MA14	18/04/2011
27680594	J01MA14	28/02/2011
26833036	J01MA14	22/04/2010
27531259	J01MA14	05/11/2010
27780388	J01MA14	26/07/2010
27352244	J01MA14	10/08/2010
27644870	J01MA14	26/10/2009
27667116	J01MA14	27/01/2009
301444	J01MA14	13/04/2011
1359353	J01MA14	18/02/2008
26619332	J01MA14	28/07/2010
26998273	J01MA14	03/05/2005
24582605	J01MA14	05/02/2010
27666515	J01MA14	17/12/2003
27771906	J01MA14	26/10/2006
421835	J01MA14	12/05/2011
27079586	J01MA14	21/01/2008
25739681	J01MA14	15/12/2009
27674082	J01MA14	05/10/2010
27671191	J01MA14	30/05/2011
26825289	J01MA14	05/01/2009
27718021	J01MA14	21/01/2010
27685053	J01MA14	21/07/2006
27682306	J01MA14	16/03/2009
27508441	J01MA14	21/06/2007
27646430	J01MA14	18/02/2011
27471936	J01MA14	17/10/2007
27648180	J01MA14	10/01/2007
27513049	J01MA14	13/12/2007
27602350	J01MA14	20/01/2010
27600832	J01MA14	14/11/2007
27659490	J01MA14	01/05/2011
27480242	J01MA14	26/02/2010
27529159	J01MA14	20/11/2006
27659119	J01MA14	07/01/2011
27512714	J01MA14	13/10/2008
27529287	J01MA14	10/01/2011
27574467	J01MA14	03/01/2004
27527681	J01MA14	26/03/2009
27591724	J01MA14	06/09/2004
27449750	J01MA14	30/08/2010
27574050	J01MA14	11/07/2006
27477049	J01MA14	04/09/2009
27317448	J01MA14	26/04/2010
27450011	J01MA14	25/05/2007
27589537	J01MA14	07/03/2008
27477146	J01MA14	04/03/2011
27631227	J01MA14	06/08/2008
26933407	J01MA14	25/11/2010
26620792	J01MA14	05/03/2009
26946481	J01MA14	09/02/2010
27623973	J01MA14	15/01/2007
41170	J01MA14	01/02/2008
27116483	J01MA14	16/12/2010
27796602	J01MA14	24/10/2008
27214891	J01MA14	17/01/2006
27640778	J01MA14	29/12/2006
26791181	J01MA14	21/12/2010
27251679	J01MA14	19/07/2007
27576785	J01MA14	18/05/2011
26805773	J01MA14	17/02/2011
21651315	J01MA14	10/11/2006
27456825	J01MA14	23/02/2004
27764992	J01MA14	13/08/2008
21705761	J01MA14	01/12/2008
25742764	J01MA14	12/07/2005
27647973	J01MA14	31/01/2011
26874870	J01MA14	17/11/2010
22883469	J01MA14	13/05/2010
27104774	J01MA14	24/06/2008
2959222	J01MA14	20/01/2004
27796469	J01MA14	28/12/2010
27808521	J01MA14	26/02/2008
27803448	J01MA14	20/01/2009
27024100	J01MA14	24/07/2008
27572453	J01MA14	14/03/2008
27805384	J01MA14	06/11/2009
27086174	J01MA14	14/03/2007
27579596	J01MA14	16/01/2010
27708099	J01MA14	11/10/2004
428085	J01MA14	30/12/2010
27719296	J01MA14	21/01/2005
27668512	J01MA14	01/08/2009
27809229	J01MA14	23/01/2009
27169816	J01MA14	06/03/2009
27695073	J01MA14	08/05/2007
27707583	J01MA14	17/01/2005
27670305	J01MA14	19/01/2011
27809338	J01MA14	20/05/2010
27804721	J01MA14	07/05/2010
27799100	J01MA14	18/11/2005
27809780	J01MA14	30/12/2008
27728042	J01MA14	18/01/2010
27663931	J01MA14	05/11/2001
27675433	J01MA14	01/12/2008
27760886	J01MA14	30/12/2005
27666358	J01MA14	26/03/2008
27794453	J01MA14	15/09/2008
27718674	J01MA14	28/12/2005
27716744	J01MA14	28/04/2004
27757222	J01MA14	20/05/2006
27667247	J01MA14	22/10/2009
27667259	J01MA14	05/05/2009
27797674	J01MA14	05/09/2005
27707178	J01MA14	09/04/2008
27665141	J01MA14	02/12/2009
27676342	J01MA14	13/05/2010
27665005	J01MA14	11/01/2010
27717578	J01MA14	25/05/2009
26999638	J01MA14	01/12/2009
27718995	J01MA14	08/03/2011
27764267	J01MA14	13/09/2010
27806547	J01MA14	16/06/2003
27797094	J01MA14	15/12/2009
183848	J01MA14	11/01/2005
27794365	J01MA14	28/01/2010
27765080	J01MA14	29/03/2010
1903664	J01MA14	29/09/2003
27667214	J01MA14	26/12/2008
26642896	J01MA14	26/02/2007
27474579	J01MA14	03/01/2011
27170744	J01MA14	19/02/2008
27352070	J01MA14	28/07/2005
27658340	J01MA14	23/03/2009
27670314	J01MA14	18/01/2011
26800573	J01MA14	09/01/2008
1910949	J01MA14	09/10/2009
27564429	J01MA14	10/05/2010
27309041	J01MA14	21/01/2010
27471521	J01MA14	05/10/2006
27043641	J01MA14	30/06/2007
27614092	J01MA14	11/04/2005
26973008	J01MA14	29/03/2011
26848389	J01MA14	26/02/2007
26974970	J01MA14	28/05/2009
27532824	J01MA14	28/08/2009
26834550	J01MA14	07/01/2009
26933091	J01MA14	26/11/2007
26874199	J01MA14	01/12/2006
2987569	J01MA14	06/11/2007
27780895	J01MA14	09/12/2009
27326047	J01MA14	31/12/2009
27326126	J01MA14	30/01/2008
27397875	J01MA14	17/12/2010
27775707	J01MA14	30/01/2004
27780080	J01MA14	17/01/2011
27800630	J01MA14	14/10/2009
19800473	J01MA14	02/11/2010
26963669	J01MA14	28/04/2007
27773268	J01MA14	07/09/2010
27716323	J01MA14	09/01/2009
27811610	J01MA14	22/05/2006
27676304	J01MA14	28/04/2006
27051909	J01MA14	07/08/2006
27572089	J01MA14	18/12/2007
26973087	J01MA14	17/11/2007
27718898	J01MA14	08/02/2005
27005510	J01MA14	26/03/2009
27715979	J01MA14	13/05/2009
27383602	J01MA14	24/05/2006
27084129	J01MA14	09/07/2007
27600262	J01MA14	26/12/2009
27783769	J01MA14	21/12/2004
27663355	J01MA14	20/03/2006
27233694	J01MA14	20/06/2006
27799572	J01MA14	21/03/2011
27796212	J01MA14	02/01/2009
26776955	J01MA14	13/01/2010
26887104	J01MA14	04/12/2009
27799204	J01MA14	18/12/2007
27806522	J01MA14	20/07/2007
27663382	J01MA14	20/12/2010
27663402	J01MA14	03/03/2011
27811766	J01MA14	01/09/2009
27716264	J01MA14	11/03/2009
33078180	J01MA14	05/07/2010
33078056	J01MA14	30/03/2010
33018984	J01MA14	23/10/2009
33023244	J01MA14	27/04/2010
33106475	J01MA14	07/01/2010
33085564	J01MA14	25/01/2008
33106412	J01MA14	28/02/2011
33099558	J01MA14	30/11/2010
33048157	J01MA14	05/09/2007
33072664	J01MA14	01/03/2004
33043763	J01MA14	12/03/2003
33086839	J01MA14	20/07/2009
33092896	J01MA14	21/09/2009
33094244	J01MA14	23/03/2009
33099564	J01MA14	24/11/2006
33000627	J01MA14	15/04/2011
33073611	J01MA14	30/12/2010
33053828	J01MA14	16/03/2010
33067601	J01MA14	28/01/2009
33026329	J01MA14	15/10/2008
33066649	J01MA14	09/04/2010
33001039	J01MA14	23/03/2009
33032891	J01MA14	04/06/2010
33065445	J01MA14	18/09/2009
33043194	J01MA14	26/05/2005
33022736	J01MA14	21/05/2007
33019657	J01MA14	19/01/2009
33068637	J01MA14	15/01/2008
33105346	J01MA14	22/11/2005
33089216	J01MA14	29/06/2010
33045042	J01MA14	24/11/2009
33008912	J01MA14	14/02/2007
33025640	J01MA14	21/11/2007
33112020	J01MA14	09/02/2009
33008535	J01MA14	11/02/2009
33093894	J01MA14	17/06/2009
33023079	J01MA14	11/02/2010
33001506	J01MA14	23/02/2011
33086083	J01MA14	25/01/2010
33106608	J01MA14	02/01/2008
33058461	J01MA14	10/09/2008
33083077	J01MA14	04/03/2004
33099318	J01MA14	06/05/2010
33050069	J01MA14	02/03/2009
33016797	J01MA14	27/10/2004
33085408	J01MA14	15/02/2006
33007817	J01MA14	25/08/2009
33070878	J01MA14	06/11/2009
33013922	J01MA14	02/06/2005
33018895	J01MA14	06/03/2007
33028018	J01MA14	20/10/2008
33018138	J01MA14	09/08/2006
33116452	J01MA14	10/12/2010
33068276	J01MA14	27/04/2010
33028747	J01MA14	25/04/2011
33021631	J01MA14	28/03/2011
33004158	J01MA14	06/02/2010
33005022	J01MA14	18/05/2007
33099866	J01MA14	15/11/2010
33024115	J01MA14	15/03/2002
33033450	J01MA14	18/05/2010
33072303	J01MA14	22/02/2011
33019290	J01MA14	02/02/2007
33101324	J01MA14	07/01/2011
33100272	J01MA14	25/08/2009
33106497	J01MA14	24/11/2010
33087600	J01MA14	04/11/2010
33005386	J01MA14	07/02/2005
33064888	J01MA14	28/01/2008
33098674	J01MA14	11/06/2002
33006134	J01MA14	19/10/2006
33107937	J01MA14	10/04/2003
33107313	J01MA14	23/06/2005
33056441	J01MA14	25/05/2007
33072905	J01MA14	27/01/2009
33013033	J01MA14	27/09/2010
33020291	J01MA14	03/06/2010
33106201	J01MA14	01/10/2004
33084983	J01MA14	02/04/2007
33124976	J01MA14	31/07/2008
33072776	J01MA14	29/01/2008
33005008	J01MA14	13/12/2010
33066001	J01MA14	24/01/2011
33026288	J01MA14	07/05/2008
33037130	J01MA14	23/03/2005
33113250	J01MA14	04/03/2008
33066419	J01MA14	14/03/2008
33008270	J01MA14	16/02/2011
27811936	J01MA14	11/11/2010
10826850	J01MA14	02/11/2010
27661862	J01MA14	20/11/2007
27807079	J01MA14	03/05/2008
27803662	J01MA14	01/08/2007
1912842	J01MA14	31/12/2010
27074781	J01MA14	29/07/2009
27764867	J01MA14	06/04/2010
27572212	J01MA14	22/12/2010
27680372	J01MA14	07/03/2011
26635596	J01MA14	22/05/2011
27806731	J01MA14	24/07/2007
428067	J01MA14	30/11/2010
21650459	J01MA14	21/01/2008
33043382	J01MA14	22/01/2007
26625913	J01MA14	21/02/2011
26881208	J01MA14	05/06/2009
33042521	J01MA14	26/07/2010
184941	J01MA14	09/03/2010
27812443	J01MA14	15/02/2011
27800569	J01MA14	10/02/2009
1372143	J01MA14	30/01/2008
33054276	J01MA14	12/01/2011
24658196	J01MA14	03/11/2010
27798157	J01MA14	02/11/2009
27805358	J01MA14	18/03/2008
18191511	J01MA14	02/01/2007
26638174	J01MA14	18/05/2009
27233670	J01MA14	05/09/2010
33008240	J01MA14	16/09/2009
13873928	J01MA14	14/09/2006
27084170	J01MA14	15/11/2007
27084187	J01MA14	01/03/2010
33071962	J01MA14	14/11/2005
28013502	J01MA14	17/07/2008
16166466	J01MA14	23/02/2010
21099776	J01MA14	17/11/2009
16712757	J01MA14	15/04/2010
21114796	J01MA14	01/04/2008
33034636	J01MA14	23/02/2009
33109924	J01MA14	23/10/2008
23408868	J01MA14	24/02/2010
28017369	J01MA14	19/06/2009
16135277	J01MA14	25/02/2011
23320348	J01MA14	22/02/2005
16713414	J01MA14	03/03/2005
16654622	J01MA14	04/11/2009
20983764	J01MA14	05/06/2007
33306049	J01MA14	16/12/2008
33000835	J01MA14	14/03/2006
16626027	J01MA14	18/04/2006
33309857	J01MA14	14/01/2009
16135369	J01MA14	28/05/2001
24463719	J01MA14	04/05/2010
27948652	J01MA14	06/04/2006
27948789	J01MA14	28/07/2010
23362464	J01MA14	18/05/2009
33007194	J01MA14	23/02/2009
33021214	J01MA14	21/05/2009
33019674	J01MA14	20/11/2008
33091181	J01MA14	20/10/2005
33020265	J01MA14	13/03/2006
33084361	J01MA14	16/12/2009
33070916	J01MA14	02/06/2003
33031905	J01MA14	26/10/2010
33039979	J01MA14	12/03/2008
33008945	J01MA14	11/12/2006
33026712	J01MA14	16/12/2003
33056325	J01MA14	21/03/2007
33117698	J01MA14	11/12/2008
33052133	J01MA14	24/03/2008
33035010	J01MA14	09/10/2009
33063405	J01MA14	13/12/2006
33013638	J01MA14	02/12/2002
33073451	J01MA14	31/08/2009
33060956	J01MA14	05/10/2009
33044945	J01MA14	20/04/2011
33074992	J01MA14	14/03/2007
33079595	J01MA14	06/05/2010
33112492	J01MA14	24/02/2009
33106625	J01MA14	15/07/2010
33006775	J01MA14	18/12/2009
33019718	J01MA14	25/01/2010
33083224	J01MA14	20/08/2007
33088360	J01MA14	18/06/2010
33078447	J01MA14	02/05/2007
33033482	J01MA14	07/01/2011
33074065	J01MA14	18/01/2005
33025768	J01MA14	21/05/2011
33046872	J01MA14	05/06/2003
33104786	J01MA14	11/01/2005
33104544	J01MA14	17/04/2009
33007224	J01MA14	07/11/2008
33070531	J01MA14	12/11/2003
33098782	J01MA14	07/04/2010
33102499	J01MA14	15/09/2010
33000591	J01MA14	07/10/2010
33034590	J01MA14	05/02/2003
33050169	J01MA14	18/10/2007
33053845	J01MA14	29/05/2006
33086432	J01MA14	17/11/2009
33107252	J01MA14	09/02/2011
33008084	J01MA14	20/08/2008
33012899	J01MA14	21/06/2004
33080540	J01MA14	22/07/2010
33065950	J01MA14	13/02/2006
33011953	J01MA14	17/02/2011
33056714	J01MA14	15/01/2008
33099116	J01MA14	22/04/2009
33101385	J01MA14	23/04/2010
33026483	J01MA14	17/12/2007
33073688	J01MA14	23/03/2007
33050859	J01MA14	30/11/2010
33033838	J01MA14	06/05/2011
33061115	J01MA14	21/07/2009
33049967	J01MA14	25/05/2007
33034268	J01MA14	17/06/2010
33096256	J01MA14	19/02/2008
33081131	J01MA14	24/03/2008
33014328	J01MA14	13/02/2009
33046881	J01MA14	19/04/2005
33105580	J01MA14	28/12/2010
33051657	J01MA14	03/05/2007
33073628	J01MA14	27/10/2010
33084091	J01MA14	09/01/2007
33030403	J01MA14	03/11/2010
33057611	J01MA14	30/11/2009
33030275	J01MA14	25/10/2006
33097272	J01MA14	05/09/2008
33008358	J01MA14	24/01/2006
33077457	J01MA14	17/03/2005
33053309	J01MA14	25/09/2007
33026290	J01MA14	11/01/2010
33073480	J01MA14	08/06/2010
33029780	J01MA14	26/05/2009
33044074	J01MA14	04/02/2011
33050260	J01MA14	19/02/2008
33096688	J01MA14	27/06/2008
21109260	J01MA14	29/06/2009
16774206	J01MA14	03/03/2011
18770764	J01MA14	21/12/2007
16135123	J01MA14	26/01/2011
28023388	J01MA14	01/09/2009
28000073	J01MA14	07/06/2010
16596794	J01MA14	19/05/2006
18768448	J01MA14	11/04/2011
16138404	J01MA14	20/04/2011
23291599	J01MA14	04/04/2007
23407899	J01MA14	18/04/2011
33239076	J01MA14	16/10/2009
18768076	J01MA14	31/03/2007
20981529	J01MA14	26/08/2009
27828645	J01MA14	18/03/2005
33233293	J01MA14	23/07/2007
33200115	J01MA14	20/10/2010
16607145	J01MA14	26/03/2010
23381575	J01MA14	17/03/2009
23279589	J01MA14	24/02/2009
16708333	J01MA14	04/04/2010
16597365	J01MA14	04/04/2011
16708869	J01MA14	24/12/2008
27895246	J01MA14	11/05/2007
33315413	J01MA14	28/12/2010
23382344	J01MA14	19/04/2004
16639614	J01MA14	01/12/2006
16613519	J01MA14	22/10/2007
23328512	J01MA14	03/01/2011
18755801	J01MA14	27/10/2006
28022811	J01MA14	29/06/2010
16652659	J01MA14	03/02/2011
16654162	J01MA14	30/03/2010
33306067	J01MA14	07/03/2008
16626180	J01MA14	29/12/2010
33232471	J01MA14	06/05/2011
16634154	J01MA14	06/11/2006
16184630	J01MA14	26/10/2009
28025840	J01MA14	24/09/2010
28016723	J01MA14	16/01/2008
16636488	J01MA14	09/07/2010
16602865	J01MA14	20/05/2011
20982073	J01MA14	01/12/2006
16625522	J01MA14	28/10/2004
33235725	J01MA14	25/02/2010
28022840	J01MA14	25/01/2011
23411987	J01MA14	28/12/2006
23412008	J01MA14	14/10/2010
20987966	J01MA14	30/11/2005
23401443	J01MA14	13/12/2005
16604779	J01MA14	13/10/2004
23410318	J01MA14	27/12/2010
23350435	J01MA14	21/08/2010
21110120	J01MA14	18/05/2010
16186342	J01MA14	31/03/2009
23367450	J01MA14	28/09/2006
20989739	J01MA14	30/12/2010
16124521	J01MA14	08/03/2011
16623737	J01MA14	05/01/2011
33305856	J01MA14	18/10/2007
33201584	J01MA14	18/01/2010
16130043	J01MA14	22/11/2010
18771334	J01MA14	21/04/2006
23381987	J01MA14	01/03/2004
16626226	J01MA14	25/05/2005
33245266	J01MA14	09/02/2011
16603682	J01MA14	26/02/2008
16596274	J01MA14	22/07/2004
18771064	J01MA14	15/03/2006
28019568	J01MA14	28/12/2009
23381998	J01MA14	26/08/2008
16775134	J01MA14	03/12/2009
28000766	J01MA14	26/01/2010
16633880	J01MA14	24/03/2009
33309872	J01MA14	08/05/2009
16631291	J01MA14	11/01/2010
16124869	J01MA14	06/05/2004
23404666	J01MA14	04/12/2008
23410738	J01MA14	21/04/2009
16607104	J01MA14	05/11/2009
33235413	J01MA14	21/12/2009
20987632	J01MA14	21/10/2010
16178359	J01MA14	24/06/2006
23326017	J01MA14	15/09/2010
23414018	J01MA14	08/11/2005
20985576	J01MA14	19/10/2009
23405805	J01MA14	09/09/2008
16648785	J01MA14	28/12/2006
20986270	J01MA14	21/09/2009
23366586	J01MA14	27/09/2010
20985436	J01MA14	06/05/2010
23381263	J01MA14	31/12/2008
27927780	J01MA14	17/11/2008
23406445	J01MA14	07/07/2010
23412017	J01MA14	01/02/2008
16611002	J01MA14	13/06/2008
16181468	J01MA14	09/12/2009
33246285	J01MA14	09/11/2004
16637664	J01MA14	09/11/2004
33208211	J01MA14	02/10/2009
23408701	J01MA14	27/01/2011
16684088	J01MA14	23/08/2010
33225982	J01MA14	02/10/2009
33235211	J01MA14	22/11/2010
16183345	J01MA14	13/10/2010
18761680	J01MA14	05/01/2010
23382501	J01MA14	25/01/2008
16607575	J01MA14	14/04/2009
16706310	J01MA14	12/02/2008
33239342	J01MA14	14/06/2010
16712610	J01MA14	24/11/2009
16611332	J01MA14	16/11/2010
27900607	J01MA14	09/12/2010
23381223	J01MA14	28/08/2010
21114699	J01MA14	23/03/2010
18757709	J01MA14	25/05/2010
28021159	J01MA14	17/05/2010
16603648	J01MA14	04/05/2011
14187542	J01MA14	07/03/2009
31234056	J01MA14	05/01/2004
23401612	J01MA14	15/02/2011
16622928	J01MA14	07/04/2011
33256501	J01MA14	16/03/2010
16648689	J01MA14	18/09/2009
23405723	J01MA14	18/04/2006
21117548	J01MA14	24/01/2011
16129910	J01MA14	05/02/2008
23413229	J01MA14	10/02/2011
23354151	J01MA14	23/12/2010
16621680	J01MA14	18/08/2003
23336418	J01MA14	15/05/2003
23338189	J01MA14	10/01/2006
28015141	J01MA14	17/06/2010
23176421	J01MA14	22/01/2010
23470370	J01MA14	15/10/2010
23413392	J01MA14	20/10/2008
27914427	J01MA14	08/04/2009
28005613	J01MA14	24/03/2011
33312738	J01MA14	08/02/2011
23344022	J01MA14	07/01/2011
33288276	J01MA14	02/09/2008
23368818	J01MA14	02/12/2008
20987775	J01MA14	26/11/2008
16603341	J01MA14	21/01/2011
23406293	J01MA14	08/10/2004
23354686	J01MA14	09/01/2008
16186784	J01MA14	26/01/2009
23381192	J01MA14	15/02/2006
23406273	J01MA14	25/02/2008
20987102	J01MA14	07/09/2009
23354453	J01MA14	27/10/2010
33245222	J01MA14	09/10/2009
16596215	J01MA14	26/02/2003
23353940	J01MA14	01/07/2009
23350638	J01MA14	11/05/2011
23349661	J01MA14	15/04/2004
33224968	J01MA14	18/11/2010
23408437	J01MA14	17/03/2011
16613501	J01MA14	03/03/2011
16181240	J01MA14	03/02/2010
21102422	J01MA14	13/02/2009
23350311	J01MA14	13/01/2011
32192677	J01MA14	22/01/2009
31800989	J01MA14	24/09/2004
31407717	J01MA14	07/03/2006
31366887	J01MA14	16/06/2009
31806961	J01MA14	04/09/2008
31598977	J01MA14	18/02/2005
31721682	J01MA14	22/05/2009
31943152	J01MA14	19/09/2007
32128014	J01MA14	06/11/2006
31427737	J01MA14	04/11/2005
32176436	J01MA14	13/04/2007
32033462	J01MA14	10/05/2004
31641080	J01MA14	01/02/2006
31178740	J01MA14	30/05/2005
31386591	J01MA14	31/10/2007
31451455	J01MA14	10/12/2010
31821895	J01MA14	16/07/2007
31683932	J01MA14	16/02/2004
31693160	J01MA14	28/10/2005
31573567	J01MA14	27/03/2007
32175738	J01MA14	23/11/2009
31664461	J01MA14	11/01/2008
31728092	J01MA14	02/10/2007
31588614	J01MA14	12/07/2004
32246611	J01MA14	12/05/2010
32175452	J01MA14	15/04/2009
31494769	J01MA14	10/07/2007
31676739	J01MA14	20/02/2004
31164952	J01MA14	18/02/2011
32231696	J01MA14	20/02/2006
31510794	J01MA14	12/06/2003
31494703	J01MA14	18/04/2005
31605404	J01MA14	01/03/2004
32038840	J01MA14	01/03/2005
31240005	J01MA14	23/10/2007
31461480	J01MA14	28/12/2004
31260334	J01MA14	17/01/2005
32194913	J01MA14	22/03/2005
31480886	J01MA14	24/03/2006
31841569	J01MA14	03/11/2005
32224890	J01MA14	05/03/2009
31642952	J01MA14	20/01/2005
31037147	J01MA14	27/05/2002
31595903	J01MA14	05/05/2003
31236375	J01MA14	09/01/2009
32221171	J01MA14	12/02/2007
32117832	J01MA14	04/03/2009
32158065	J01MA14	23/01/2006
32076096	J01MA14	13/11/2007
31471291	J01MA14	10/09/2008
31873134	J01MA14	23/10/2003
31319121	J01MA14	26/09/2006
32078134	J01MA14	09/08/2005
31180184	J01MA14	13/12/2004
31623714	J01MA14	28/12/2006
31722801	J01MA14	13/02/2006
31492015	J01MA14	18/03/2008
31558121	J01MA14	22/02/2007
31839721	J01MA14	28/12/2010
32276946	J01MA14	10/03/2009
31672279	J01MA14	14/02/2007
32083242	J01MA14	02/02/2011
31566149	J01MA14	01/02/2005
31204769	J01MA14	15/01/2009
32059128	J01MA14	15/10/2009
31444611	J01MA14	18/12/2007
32200966	J01MA14	16/06/2006
32191616	J01MA14	15/06/2007
31479727	J01MA14	21/10/2005
31292908	J01MA14	26/08/2005
31753285	J01MA14	11/12/2008
31568150	J01MA14	03/05/2006
31847404	J01MA14	29/10/2009
31679755	J01MA14	30/12/2009
31101485	J01MA14	09/07/2007
31619135	J01MA14	27/07/2006
31096696	J01MA14	05/04/2005
31278758	J01MA14	28/07/2008
31704433	J01MA14	23/03/2005
32056435	J01MA14	09/01/2009
31828339	J01MA14	01/12/2009
31990260	J01MA14	15/02/2006
31381249	J01MA14	10/11/2010
31343010	J01MA14	07/09/2009
32090008	J01MA14	17/05/2005
31952663	J01MA14	05/02/2008
31217679	J01MA14	14/11/2005
31370288	J01MA14	30/01/2009
31358766	J01MA14	03/11/2003
31135234	J01MA14	23/04/2008
32154292	J01MA14	14/12/2007
31374114	J01MA14	08/01/2007
31136755	J01MA14	22/11/2007
31311243	J01MA14	24/01/2005
31163272	J01MA14	14/12/2006
31217200	J01MA14	18/11/2010
31435940	J01MA14	11/03/2004
31796678	J01MA14	03/07/2009
31822514	J01MA14	01/02/2007
31236940	J01MA14	29/12/2004
31640309	J01MA14	19/07/2007
31380125	J01MA14	28/10/2005
31328924	J01MA14	22/03/2011
31815808	J01MA14	26/10/2010
32123269	J01MA14	02/11/2006
31791710	J01MA14	16/10/2008
31388249	J01MA14	06/08/2009
31284291	J01MA14	10/09/2008
31099804	J01MA14	12/11/2008
31856110	J01MA14	06/02/2006
31174566	J01MA14	22/05/2008
31204427	J01MA14	26/04/2010
32185788	J01MA14	17/12/2004
31559732	J01MA14	20/05/2009
31581886	J01MA14	11/12/2008
31235867	J01MA14	09/11/2004
32243083	J01MA14	21/02/2006
31178636	J01MA14	28/07/2008
31830918	J01MA14	14/10/2005
31814987	J01MA14	07/11/2006
31095274	J01MA14	05/03/2003
31698052	J01MA14	19/12/2005
31936120	J01MA14	29/04/2009
31927982	J01MA14	23/11/2007
31924953	J01MA14	11/01/2007
32166018	J01MA14	08/05/2006
31745772	J01MA14	26/01/2007
31175513	J01MA14	24/01/2005
31767484	J01MA14	27/10/2006
31835145	J01MA14	24/05/2007
31310284	J01MA14	28/11/2005
31480749	J01MA14	30/11/2006
32278996	J01MA14	11/12/2009
31248417	J01MA14	29/09/2010
32035850	J01MA14	24/07/2007
32059302	J01MA14	30/03/2007
32037940	J01MA14	14/12/2009
31315407	J01MA14	06/11/2007
31440348	J01MA14	28/12/2006
31517124	J01MA14	02/12/2010
31174835	J01MA14	23/03/2007
31213457	J01MA14	03/01/2007
32106380	J01MA14	01/07/2009
32012208	J01MA14	15/12/2006
32018660	J01MA14	14/04/2005
32075858	J01MA14	20/01/2006
31824870	J01MA14	20/12/2004
31223719	J01MA14	19/03/2007
31357989	J01MA14	22/03/2006
31467808	J01MA14	07/07/2008
31694669	J01MA14	22/07/2003
32132555	J01MA14	21/01/2005
31297860	J01MA14	13/11/2008
31696885	J01MA14	27/12/2004
32007217	J01MA14	14/10/2009
31326832	J01MA14	16/06/2009
31282883	J01MA14	21/04/2008
31950369	J01MA14	06/11/2008
32115409	J01MA14	04/04/2007
31081419	J01MA14	10/05/2005
31492215	J01MA14	22/01/2002
31964245	J01MA14	14/11/2007
31761466	J01MA14	18/09/2006
32062032	J01MA14	05/01/2007
32171097	J01MA14	07/03/2007
31316151	J01MA14	14/05/2007
31706644	J01MA14	09/04/2007
32128395	J01MA14	07/12/2006
31401453	J01MA14	11/02/2004
31785047	J01MA14	15/11/2004
31505133	J01MA14	08/06/2009
32075736	J01MA14	04/12/2006
32018111	J01MA14	09/03/2007
31352150	J01MA14	25/01/2007
31578924	J01MA14	28/09/2009
32227466	J01MA14	15/01/2007
32072356	J01MA14	30/01/2007
31543125	J01MA14	03/09/2007
31246615	J01MA14	04/04/2006
32116733	J01MA14	02/06/2008
31893456	J01MA14	30/10/2007
31167775	J01MA14	08/06/2005
31273175	J01MA14	17/01/2007
31956345	J01MA14	14/12/2007
31916030	J01MA14	24/03/2008
31324405	J01MA14	10/05/2006
31601396	J01MA14	03/02/2005
31464154	J01MA14	16/04/2008
32107963	J01MA14	18/12/2009
31863698	J01MA14	20/10/2009
31981150	J01MA14	19/09/2007
31366968	J01MA14	26/03/2008
31205582	J01MA14	09/01/2007
31235731	J01MA14	16/07/2004
31837765	J01MA14	16/11/2009
31048154	J01MA14	23/03/2009
31522740	J01MA14	20/12/2007
31958704	J01MA14	23/02/2009
31235002	J01MA14	19/02/2007
31148543	J01MA14	21/11/2007
31243831	J01MA14	21/04/2006
31984866	J01MA14	28/09/2006
31222985	J01MA14	15/04/2009
31564399	J01MA14	24/10/2006
31980843	J01MA14	02/04/2008
31204461	J01MA14	03/01/2005
31885037	J01MA14	16/07/2007
31070465	J01MA14	27/05/2002
31502497	J01MA14	19/05/2008
31419290	J01MA14	25/11/2004
31730012	J01MA14	29/05/2008
31880992	J01MA14	26/01/2011
31055196	J01MA14	30/11/2006
31596789	J01MA14	18/09/2007
32084009	J01MA14	08/02/2010
31134548	J01MA14	23/02/2007
32171369	J01MA14	24/08/2005
31908239	J01MA14	12/12/2007
31720062	J01MA14	30/12/2010
32051952	J01MA14	18/02/2009
31485027	J01MA14	09/06/2009
31422757	J01MA14	02/01/2008
31195300	J01MA14	29/11/2004
31555309	J01MA14	21/04/2009
32258288	J01MA14	12/11/2007
31244492	J01MA14	05/01/2004
31889249	J01MA14	15/11/2006
31370471	J01MA14	02/03/2009
31254186	J01MA14	01/02/2006
31445953	J01MA14	05/11/2007
32018263	J01MA14	22/02/2005
31583532	J01MA14	23/04/2003
31994929	J01MA14	02/01/2009
32239622	J01MA14	27/12/2004
31096804	J01MA14	15/09/2010
31506933	J01MA14	13/04/2004
32178050	J01MA14	18/04/2006
31788025	J01MA14	17/01/2008
32068625	J01MA14	30/09/2008
32130634	J01MA14	31/03/2005
31219593	J01MA14	03/07/2007
31076207	J01MA14	05/12/2006
31076790	J01MA14	30/09/2009
31609748	J01MA14	22/02/2011
31752653	J01MA14	23/11/2007
32118462	J01MA14	18/10/2006
31477325	J01MA14	12/02/2007
31970294	J01MA14	06/04/2004
31355037	J01MA14	07/10/2002
31755456	J01MA14	25/01/2006
31147617	J01MA14	09/02/2004
31375081	J01MA14	07/12/2006
32135671	J01MA14	27/12/2006
31069508	J01MA14	29/10/2009
31084479	J01MA14	16/01/2004
31097872	J01MA14	23/12/2009
31533731	J01MA14	24/10/2007
31096124	J01MA14	26/10/2007
31933341	J01MA14	25/10/2007
31400190	J01MA14	03/01/2005
31416750	J01MA14	09/06/2010
31563177	J01MA14	20/02/2008
31705386	J01MA14	27/06/2007
31054169	J01MA14	05/02/2010
31087698	J01MA14	29/11/2005
31959483	J01MA14	06/10/2006
31559202	J01MA14	19/01/2007
31275868	J01MA14	28/11/2007
32158166	J01MA14	12/12/2006
31961729	J01MA14	03/07/2006
31392725	J01MA14	18/11/2010
31777213	J01MA14	30/06/2009
31514533	J01MA14	01/04/2005
32019169	J01MA14	11/06/2004
32130416	J01MA14	25/05/2009
32195050	J01MA14	14/10/2009
31702764	J01MA14	22/10/2008
31217806	J01MA14	24/05/2004
31583665	J01MA14	17/01/2007
31493704	J01MA14	09/10/2006
31604848	J01MA14	18/04/2005
31586196	J01MA14	23/03/2004
31639125	J01MA14	31/01/2005
31419032	J01MA14	20/01/2006
31657268	J01MA14	12/02/2008
31608584	J01MA14	24/11/2006
31391383	J01MA14	20/11/2002
31899278	J01MA14	14/01/2008
31448344	J01MA14	24/03/2004
31523713	J01MA14	15/12/2004
31180139	J01MA14	30/11/2005
32226138	J01MA14	01/09/2005
31380809	J01MA14	17/01/2007
31445382	J01MA14	02/08/2007
31036561	J01MA14	17/01/2008
31512689	J01MA14	09/07/2007
31767577	J01MA14	16/04/2007
32195611	J01MA14	02/01/2007
31419355	J01MA14	02/06/2008
31494795	J01MA14	02/02/2004
32017943	J01MA14	02/06/2009
31848757	J01MA14	22/03/2010
31339613	J01MA14	13/12/2007
31084473	J01MA14	09/10/2007
31901024	J01MA14	14/12/2009
31393751	J01MA14	09/02/2005
31725976	J01MA14	21/04/2006
31840912	J01MA14	03/06/2009
32150782	J01MA14	15/04/2011
32142008	J01MA14	05/01/2011
31634632	J01MA14	16/02/2007
31659751	J01MA14	04/03/2010
31395602	J01MA14	22/02/2005
32125738	J01MA14	01/10/2007
32254414	J01MA14	14/12/2009
31074922	J01MA14	15/06/2007
32122555	J01MA14	25/02/2008
31471339	J01MA14	10/12/2007
32117491	J01MA14	17/03/2006
32194091	J01MA14	28/04/2008
31131365	J01MA14	08/07/2005
31522715	J01MA14	16/12/2002
31160946	J01MA14	02/11/2005
31067211	J01MA14	11/10/2006
32242783	J01MA14	25/10/2006
31126735	J01MA14	03/10/2006
31167665	J01MA14	24/10/2006
31872910	J01MA14	24/08/2009
32090185	J01MA14	04/12/2007
31854529	J01MA14	04/01/2007
32093133	J01MA14	06/11/2007
31829829	J01MA14	30/03/2007
32197657	J01MA14	21/03/2007
31259283	J01MA14	15/03/2006
32154430	J01MA14	11/11/2009
31102716	J01MA14	11/09/2006
31267955	J01MA14	27/02/2007
31863861	J01MA14	23/10/2009
31359534	J01MA14	07/11/2007
31148510	J01MA14	24/10/2007
31442581	J01MA14	11/04/2007
31317319	J01MA14	17/03/2009
31946733	J01MA14	28/02/2006
31916785	J01MA14	11/06/2003
31818828	J01MA14	01/02/2007
31566932	J01MA14	10/02/2006
31546897	J01MA14	20/04/2009
31995985	J01MA14	27/12/2007
31282511	J01MA14	16/05/2005
31410955	J01MA14	30/10/2006
32206468	J01MA14	27/11/2009
31470405	J01MA14	02/09/2009
31585275	J01MA14	04/04/2005
32220436	J01MA14	20/11/2006
32132967	J01MA14	21/09/2006
31788120	J01MA14	29/03/2004
32026900	J01MA14	07/05/2008
32011511	J01MA14	24/11/2009
31421066	J01MA14	13/10/2008
31703712	J01MA14	03/01/2005
32011648	J01MA14	14/06/2007
