patient_id	covar_name	date
12790716	M02AA10	16/12/2010
9319410	M02AA10	30/11/2010
10271032	M02AA10	02/02/2010
1123839	M02AA10	16/11/2009
10267600	M02AA10	18/01/2007
1186180	M02AA10	29/12/2006
14651596	M02AA10	07/12/2009
17171311	M02AA10	27/04/2005
6040714	M02AA10	05/05/2009
15425403	M02AA10	15/04/2010
9211548	M02AA10	18/11/2004
8292476	M02AA10	25/02/1999
8654401	M02AA10	08/06/2009
8559182	M02AA10	21/12/2009
9371686	M02AA10	31/01/2011
25052542	M02AA10	06/10/2006
10395800	M02AA10	14/10/2010
5812917	M02AA10	27/11/2009
1732204	M02AA10	15/07/2004
9306838	M02AA10	13/03/2007
5030705	M02AA10	09/10/2009
12691489	M02AA10	18/09/2009
24722159	M02AA10	16/01/2006
9298997	M02AA10	15/11/2007
12789284	M02AA10	21/03/2005
8976351	M02AA10	09/12/2008
9982943	M02AA10	31/03/2009
12186613	M02AA10	27/01/2009
730741	M02AA10	12/09/2008
6747268	M02AA10	19/01/2006
12477884	M02AA10	08/07/2008
8557344	M02AA10	17/05/2010
6079907	M02AA10	08/10/2008
9304940	M02AA10	09/04/2007
9231971	M02AA10	17/06/2009
8561734	M02AA10	27/04/2010
6080512	M02AA10	28/10/2008
9212611	M02AA10	27/07/2010
3117152	M02AA10	06/04/2011
3126328	M02AA10	23/02/2005
1462175	M02AA10	25/05/2005
12479828	M02AA10	04/03/2010
3119947	M02AA10	20/08/2010
23505942	M02AA10	04/02/2010
9215166	M02AA10	13/06/2008
1937852	M02AA10	24/01/2007
12182293	M02AA10	20/01/2010
731869	M02AA10	28/12/2010
10605419	M02AA10	11/02/2011
9212274	M02AA10	01/04/2011
7335727	M02AA10	03/10/2007
16927064	M02AA10	04/11/2008
17710122	M02AA10	11/05/2010
12688723	M02AA10	25/05/2011
1461949	M02AA10	13/02/2008
7351352	M02AA10	26/09/2006
7351380	M02AA10	08/02/2005
731536	M02AA10	15/04/2011
9213437	M02AA10	22/03/2011
9213970	M02AA10	14/06/2006
9996173	M02AA10	01/09/2009
9212035	M02AA10	31/08/2006
16767757	M02AA10	18/03/2011
2768779	M02AA10	16/11/2010
6080444	M02AA10	23/11/2009
1434172	M02AA10	04/09/2007
16558782	M02AA10	02/09/2004
17174935	M02AA10	22/04/2010
17657075	M02AA10	06/09/2010
3330205	M02AA10	25/04/2005
11993405	M02AA10	29/04/2009
5031417	M02AA10	18/09/2007
9300058	M02AA10	17/08/2005
8786041	M02AA10	28/06/2010
16554421	M02AA10	18/06/2008
9372898	M02AA10	29/12/2004
12767263	M02AA10	03/01/2006
23472450	M02AA10	05/03/2010
3334954	M02AA10	02/08/2005
9294363	M02AA10	29/04/2011
10002466	M02AA10	14/10/2009
16556638	M02AA10	21/10/2008
21534394	M02AA10	27/02/2007
16559022	M02AA10	09/10/2006
3123476	M02AA10	07/11/2005
612357	M02AA10	20/06/2006
9386927	M02AA10	18/09/2006
3333819	M02AA10	27/04/2004
6751487	M02AA10	02/04/2008
9214066	M02AA10	08/09/2009
14982674	M02AA10	11/11/2010
5029698	M02AA10	06/11/2009
8561394	M02AA10	18/02/2008
9309990	M02AA10	20/11/2003
8639376	M02AA10	11/11/2010
3125005	M02AA10	29/01/2009
12185767	M02AA10	15/09/2008
9301728	M02AA10	30/01/2004
16559168	M02AA10	10/03/2009
9177749	M02AA10	29/11/2004
10267158	M02AA10	16/01/2009
12691956	M02AA10	19/05/2011
18163121	M02AA10	12/06/2006
16531942	M02AA10	15/11/2007
9328342	M02AA10	30/06/2006
1163234	M02AA10	20/07/2009
9285417	M02AA10	01/03/2005
7160853	M02AA10	01/12/2006
12174179	M02AA10	27/02/2008
14804518	M02AA10	02/04/2009
8983439	M02AA10	16/03/2009
10270515	M02AA10	02/09/2010
24930936	M02AA10	16/02/2007
23472293	M02AA10	18/02/2010
1335662	M02AA10	24/04/2009
3334345	M02AA10	18/01/2008
12857478	M02AA10	28/03/2006
1947256	M02AA10	22/11/2007
3333511	M02AA10	29/10/2001
8567599	M02AA10	02/06/2006
16920398	M02AA10	14/04/2011
9298966	M02AA10	15/11/2005
24721072	M02AA10	13/10/2006
12764341	M02AA10	28/04/2005
16529815	M02AA10	05/11/2008
16529515	M02AA10	03/02/2009
6416965	M02AA10	03/07/2009
6756107	M02AA10	11/11/2008
3285040	M02AA10	20/12/2010
25052298	M02AA10	22/07/2008
25051945	M02AA10	02/10/2007
8557367	M02AA10	13/05/2008
24722227	M02AA10	25/10/2010
3125600	M02AA10	08/02/2006
6177821	M02AA10	17/09/2007
12790408	M02AA10	01/06/2011
12183551	M02AA10	31/07/2008
8981271	M02AA10	11/08/2009
8975906	M02AA10	11/01/2008
16922595	M02AA10	30/03/2009
5028278	M02AA10	21/12/2010
21870782	M02AA10	24/02/2011
24930637	M02AA10	01/02/2005
945609	M02AA10	27/09/2010
25051083	M02AA10	14/03/2008
9299690	M02AA10	28/10/2010
12774766	M02AA10	18/11/2008
22591639	M02AA10	29/07/2005
10002637	M02AA10	19/02/2010
9995220	M02AA10	16/02/2010
745546	M02AA10	14/04/2005
8785338	M02AA10	15/04/2009
703443	M02AA10	20/11/2007
14983378	M02AA10	26/01/2011
14983661	M02AA10	01/10/2010
1939431	M02AA10	09/01/2007
10246462	M02AA10	16/09/2003
1330793	M02AA10	24/11/2006
9249720	M02AA10	13/03/2008
3328312	M02AA10	20/04/2010
9214769	M02AA10	16/09/2004
11661262	M02AA10	28/04/2006
731545	M02AA10	04/09/2009
9378605	M02AA10	17/01/2006
10331410	M02AA10	26/02/2008
8556671	M02AA10	13/07/2010
736944	M02AA10	11/01/2006
25051272	M02AA10	20/04/2007
12790508	M02AA10	20/05/2005
9212325	M02AA10	26/12/2005
9213577	M02AA10	25/08/2010
25052219	M02AA10	07/09/2007
6080455	M02AA10	11/11/2008
1535079	M02AA10	18/12/2003
6746814	M02AA10	07/05/2004
17169097	M02AA10	06/04/2011
8582021	M02AA10	23/02/2011
10331126	M02AA10	22/04/2008
23471643	M02AA10	11/10/2010
16559078	M02AA10	04/10/2006
10266866	M02AA10	20/07/2004
16554513	M02AA10	27/05/2011
12186350	M02AA10	16/12/2003
9386723	M02AA10	11/01/2010
3125131	M02AA10	02/09/2009
8783486	M02AA10	25/11/2010
12790379	M02AA10	23/11/2010
8556206	M02AA10	15/02/2011
12764196	M02AA10	08/02/2008
9220825	M02AA10	21/07/2009
9210517	M02AA10	23/11/2010
10246305	M02AA10	13/08/2008
1467007	M02AA10	25/08/2009
10331912	M02AA10	15/07/2010
6415215	M02AA10	01/02/2006
9212659	M02AA10	10/10/2006
14982320	M02AA10	25/02/2011
16261247	M02AA10	04/01/2011
5023566	M02AA10	14/04/2009
9213036	M02AA10	14/05/2004
944486	M02AA10	26/01/2007
9387076	M02AA10	22/03/2010
9210665	M02AA10	23/06/2006
13223792	M02AA10	28/11/2006
6757580	M02AA10	13/09/2010
16557300	M02AA10	08/07/2009
24721456	M02AA10	05/01/2011
8784100	M02AA10	11/06/2008
1418232	M02AA10	20/01/2004
6598367	M02AA10	13/08/2002
7781621	M02AA10	12/01/2001
6841194	M02AA10	14/08/2009
15899941	M02AA10	26/05/2010
8655880	M02AA10	26/05/2005
9378237	M02AA10	16/07/2007
9375873	M02AA10	06/02/2008
24721032	M02AA10	16/02/2006
23996759	M02AA10	30/11/2005
21644622	M02AA10	23/03/2006
6598413	M02AA10	15/05/2003
24941969	M02AA10	16/11/2006
1446082	M02AA10	09/02/2010
673940	M02AA10	14/07/2010
7967014	M02AA10	24/05/2011
7849301	M02AA10	30/06/2009
641170	M02AA10	10/08/2010
564746	M02AA10	08/05/2006
26139680	M02AA10	21/06/2007
6592110	M02AA10	01/09/2008
1203819	M02AA10	21/11/2008
7635178	M02AA10	07/07/2009
646195	M02AA10	11/04/2007
6592552	M02AA10	13/09/2010
6594886	M02AA10	25/04/2001
1261742	M02AA10	09/06/2008
1296728	M02AA10	31/08/2009
10178790	M02AA10	11/03/2009
6601109	M02AA10	05/11/2004
18056114	M02AA10	27/02/2008
8067146	M02AA10	22/09/2009
641127	M02AA10	07/07/2010
8923087	M02AA10	11/02/2008
7849381	M02AA10	11/12/2007
1419222	M02AA10	28/01/2010
7780208	M02AA10	28/07/2003
1853226	M02AA10	19/08/2009
1320118	M02AA10	03/01/2008
1296787	M02AA10	26/11/2007
639323	M02AA10	27/06/2000
1321262	M02AA10	04/09/2008
2231878	M02AA10	17/06/2005
1206466	M02AA10	06/05/2010
647104	M02AA10	23/07/2009
24940389	M02AA10	17/05/2010
645590	M02AA10	23/05/2005
8933997	M02AA10	31/05/2006
6603667	M02AA10	29/07/2008
1264701	M02AA10	12/02/2010
1852451	M02AA10	30/12/1999
1665322	M02AA10	19/01/2005
1852422	M02AA10	27/02/2009
12613838	M02AA10	08/01/2010
1349650	M02AA10	19/07/2004
1848778	M02AA10	03/09/2009
7905833	M02AA10	07/04/2009
8934911	M02AA10	16/02/2006
1350474	M02AA10	07/07/2009
1203945	M02AA10	19/08/2005
515444	M02AA10	22/11/2002
638967	M02AA10	28/02/2000
6591734	M02AA10	25/01/2002
1547289	M02AA10	10/10/2001
645794	M02AA10	25/10/2010
1262655	M02AA10	03/10/2003
12188431	M02AA10	08/02/2011
1852312	M02AA10	21/08/2007
6597633	M02AA10	12/08/2003
646589	M02AA10	14/08/2007
6604048	M02AA10	09/12/2010
7777409	M02AA10	08/02/2011
1851243	M02AA10	12/09/2006
1443071	M02AA10	24/06/2009
1853499	M02AA10	07/02/2011
7972411	M02AA10	12/05/2009
6222899	M02AA10	22/02/2007
13984759	M02AA10	24/04/2008
1353807	M02AA10	24/06/2008
6593866	M02AA10	27/04/2005
648760	M02AA10	20/04/2009
1418406	M02AA10	09/01/2004
4700733	M02AA10	30/09/2004
1850465	M02AA10	12/03/2003
1207309	M02AA10	05/11/2004
645941	M02AA10	18/02/2003
7970934	M02AA10	28/06/2004
524498	M02AA10	08/08/2007
1208200	M02AA10	22/04/2004
7964869	M02AA10	13/03/2005
6211809	M02AA10	27/04/2007
6599648	M02AA10	03/08/2005
6425049	M02AA10	03/08/2005
1352463	M02AA10	09/07/2008
641614	M02AA10	01/06/2011
24940153	M02AA10	30/03/2007
6601129	M02AA10	29/01/2002
1295645	M02AA10	19/04/2005
1265201	M02AA10	30/10/2001
1419936	M02AA10	05/10/2001
1444352	M02AA10	11/09/2008
7966172	M02AA10	30/11/2005
645626	M02AA10	11/07/2002
7776735	M02AA10	04/09/2007
638786	M02AA10	18/03/2005
1670222	M02AA10	21/04/2005
1352039	M02AA10	14/01/2005
21092043	M02AA10	26/04/2010
515787	M02AA10	10/10/2003
13985993	M02AA10	06/10/2008
1445809	M02AA10	19/05/2010
648183	M02AA10	28/04/2011
6591833	M02AA10	09/11/2006
24718581	M02AA10	22/02/2011
7848502	M02AA10	17/01/2011
8067951	M02AA10	01/02/2010
8956630	M02AA10	30/09/2009
13986535	M02AA10	14/12/2004
7771619	M02AA10	26/08/2010
7966461	M02AA10	31/05/2011
6213484	M02AA10	21/06/2005
1420732	M02AA10	30/10/2003
8956432	M02AA10	31/03/2011
6600716	M02AA10	12/05/2011
6592127	M02AA10	05/05/2011
645474	M02AA10	27/08/2010
1200860	M02AA10	30/09/2008
7850480	M02AA10	01/12/2010
1545607	M02AA10	13/07/2004
8932937	M02AA10	28/04/2011
1850140	M02AA10	04/10/2002
13984558	M02AA10	22/05/2006
1349470	M02AA10	31/10/2008
1207086	M02AA10	09/05/2011
639251	M02AA10	14/03/2011
12188674	M02AA10	26/06/2000
6597726	M02AA10	24/05/2011
6599963	M02AA10	17/12/2010
1172012	M02AA10	05/10/2006
1378713	M02AA10	31/05/2010
648621	M02AA10	05/12/2007
8955962	M02AA10	01/02/2005
7801741	M02AA10	24/05/2011
6590532	M02AA10	27/01/2004
8934613	M02AA10	11/12/2006
1852461	M02AA10	04/06/1999
6592750	M02AA10	30/11/2007
7967001	M02AA10	27/02/2008
6603323	M02AA10	01/02/2006
1208178	M02AA10	01/04/2009
1200913	M02AA10	26/02/2010
7776144	M02AA10	29/07/2010
6593465	M02AA10	07/09/2004
7971476	M02AA10	14/08/2009
1276321	M02AA10	12/08/2009
15738201	M02AA10	02/10/2009
7770079	M02AA10	17/05/2011
538978	M02AA10	24/11/2009
7780404	M02AA10	04/01/2006
7971021	M02AA10	15/05/2008
1201513	M02AA10	28/07/2004
6596135	M02AA10	12/07/2007
13985332	M02AA10	29/06/2006
647941	M02AA10	09/02/2011
1665110	M02AA10	29/11/2006
6212704	M02AA10	31/01/2006
1295868	M02AA10	10/05/2007
7849145	M02AA10	09/08/2007
6593460	M02AA10	07/11/2006
7850197	M02AA10	09/10/2009
1415968	M02AA10	30/09/2005
6593908	M02AA10	28/11/2000
7965464	M02AA10	13/02/2009
8063389	M02AA10	28/07/2010
1202019	M02AA10	23/08/2005
1349681	M02AA10	27/08/2001
641672	M02AA10	22/04/2009
639355	M02AA10	25/02/2000
1850819	M02AA10	18/10/2000
6592121	M02AA10	16/06/2010
1444116	M02AA10	13/02/2006
1211946	M02AA10	30/08/2004
1849702	M02AA10	09/06/2009
6424945	M02AA10	23/12/2002
641443	M02AA10	21/04/2008
525618	M02AA10	23/08/2002
4700304	M02AA10	13/03/2008
1090924	M02AA10	10/02/2006
7777716	M02AA10	27/12/2005
639428	M02AA10	09/07/2002
6600999	M02AA10	29/08/2005
1202919	M02AA10	28/03/2005
7846528	M02AA10	30/12/2008
8955143	M02AA10	10/02/2011
1350670	M02AA10	06/06/2001
648547	M02AA10	09/03/2010
7776373	M02AA10	19/07/2010
1261139	M02AA10	27/09/2010
1425106	M02AA10	03/11/2004
4376919	M02AA10	21/06/2010
1851260	M02AA10	06/08/2001
405420	M02AA10	02/12/2008
8357140	M02AA10	22/03/2006
7972630	M02AA10	30/01/2007
6592741	M02AA10	21/09/2005
24941748	M02AA10	29/08/2008
8956639	M02AA10	07/03/2011
640253	M02AA10	12/06/2006
13986679	M02AA10	17/12/2010
647332	M02AA10	03/08/2007
1205740	M02AA10	19/12/2002
6603214	M02AA10	13/07/2009
7697001	M02AA10	03/08/2009
1852962	M02AA10	30/10/2009
1295976	M02AA10	04/03/2011
7849206	M02AA10	07/02/2006
1855716	M02AA10	06/10/2008
1856226	M02AA10	13/12/2005
1641372	M02AA10	18/05/2007
1129404	M02AA10	30/07/2001
1855843	M02AA10	03/01/2006
1855492	M02AA10	19/07/2004
1066049	M02AA10	09/09/2010
1647737	M02AA10	23/09/2009
1851693	M02AA10	19/04/2004
1132264	M02AA10	06/10/2008
13733770	M02AA10	27/10/2009
10556455	M02AA10	30/05/2008
1134366	M02AA10	20/10/2006
1640425	M02AA10	03/07/2007
1638022	M02AA10	24/06/2002
1855443	M02AA10	27/09/2004
718128	M02AA10	24/04/2007
1135144	M02AA10	22/10/2008
1638708	M02AA10	29/04/2010
1640515	M02AA10	13/11/2009
1642048	M02AA10	08/04/2010
4678867	M02AA10	28/11/2008
1558536	M02AA10	24/01/2002
25891334	M02AA10	17/07/2007
195582	M02AA10	18/02/2009
1638137	M02AA10	23/01/2009
1640617	M02AA10	22/01/2008
1640838	M02AA10	14/08/2008
486570	M02AA10	21/10/2008
1027312	M02AA10	22/10/2010
1641058	M02AA10	03/11/2008
890075	M02AA10	26/04/2011
25886766	M02AA10	10/05/2010
995675	M02AA10	30/05/2008
1640534	M02AA10	11/09/2007
1641762	M02AA10	13/01/2010
1135310	M02AA10	27/05/2011
6925973	M02AA10	22/10/2007
16036321	M02AA10	24/03/2011
12162776	M02AA10	05/10/2009
25914977	M02AA10	12/11/2010
1641868	M02AA10	04/01/2007
1134702	M02AA10	05/10/2004
25891515	M02AA10	12/08/2010
1111259	M02AA10	09/05/2011
25750805	M02AA10	03/05/2005
16037274	M02AA10	26/01/2009
1638528	M02AA10	23/03/2001
1640524	M02AA10	04/08/2008
12788129	M02AA10	18/05/2011
1274503	M02AA10	09/01/2010
1129196	M02AA10	27/02/2008
1648159	M02AA10	18/05/2007
4678967	M02AA10	25/09/2008
1102000	M02AA10	17/04/2006
1134421	M02AA10	10/07/2007
1065365	M02AA10	21/07/2009
1103285	M02AA10	08/03/2006
25894546	M02AA10	23/07/2007
1581260	M02AA10	31/03/2005
1640729	M02AA10	28/08/2009
194090	M02AA10	09/11/2010
1550040	M02AA10	29/04/2003
1641240	M02AA10	11/08/2009
1103247	M02AA10	27/03/2006
2043920	M02AA10	17/10/2003
2112751	M02AA10	11/09/2002
2112759	M02AA10	26/02/2002
2136921	M02AA10	07/03/2007
2136554	M02AA10	03/08/2007
2044896	M02AA10	11/08/2003
2088925	M02AA10	10/10/2006
2219403	M02AA10	26/07/2002
2043310	M02AA10	04/05/2009
2139511	M02AA10	13/01/2010
2140686	M02AA10	06/12/2008
2068425	M02AA10	27/10/2007
2045327	M02AA10	03/12/2009
902957	M02AA10	17/08/2007
2038460	M02AA10	22/11/2001
2136703	M02AA10	17/05/2004
2035752	M02AA10	31/08/2005
1762716	M02AA10	14/12/2006
1755667	M02AA10	22/10/2009
2055176	M02AA10	15/10/2007
2138285	M02AA10	31/01/2007
2044581	M02AA10	03/05/2006
2034932	M02AA10	08/08/2008
874560	M02AA10	13/12/2005
1762768	M02AA10	18/01/2011
3055265	M02AA10	30/07/2010
2773726	M02AA10	06/05/2008
3050342	M02AA10	03/10/2008
2042889	M02AA10	14/12/2002
7037584	M02AA10	30/05/2011
2034398	M02AA10	17/04/2009
2034995	M02AA10	01/03/2011
1766657	M02AA10	18/12/2009
875091	M02AA10	22/07/2010
2774471	M02AA10	17/06/2005
3055184	M02AA10	29/12/2008
3053603	M02AA10	01/03/2001
3054684	M02AA10	16/10/2008
2777495	M02AA10	12/03/2007
2863524	M02AA10	31/10/2002
3049646	M02AA10	11/04/2003
3053735	M02AA10	14/08/2008
2780455	M02AA10	21/01/2010
2779249	M02AA10	05/07/2010
3054506	M02AA10	07/09/2010
2778754	M02AA10	19/01/2011
3054595	M02AA10	16/04/2008
7037683	M02AA10	06/10/2009
3053490	M02AA10	21/11/2006
3048613	M02AA10	05/05/2011
2525213	M02AA10	12/03/2010
2520741	M02AA10	05/11/2008
2519204	M02AA10	07/02/2005
16980193	M02AA10	03/09/2010
7448030	M02AA10	13/08/2007
2525920	M02AA10	21/04/2006
17323216	M02AA10	03/08/2009
26460380	M02AA10	15/03/2011
26461136	M02AA10	13/10/2004
26410080	M02AA10	04/04/2007
26425709	M02AA10	08/10/2002
26411039	M02AA10	20/02/2004
26384037	M02AA10	18/07/2005
28062623	M02AA10	27/06/2008
26351849	M02AA10	14/04/2011
26477539	M02AA10	06/06/2010
28063519	M02AA10	18/06/2009
28044970	M02AA10	03/05/2001
26460462	M02AA10	10/09/2010
7027238	M02AA10	16/05/2011
7137654	M02AA10	23/06/2010
7137270	M02AA10	01/04/2011
7035689	M02AA10	21/12/2001
20147401	M02AA10	22/09/2009
7137229	M02AA10	06/02/2009
7229284	M02AA10	05/02/2010
7137238	M02AA10	02/03/2007
7137260	M02AA10	22/10/2010
7229374	M02AA10	28/04/2009
7136698	M02AA10	09/12/2009
17323541	M02AA10	03/08/2005
26425372	M02AA10	17/08/2008
17325261	M02AA10	10/07/2009
26425992	M02AA10	09/05/2001
17041239	M02AA10	01/06/2006
18471446	M02AA10	13/08/2008
26384450	M02AA10	29/07/2008
8116823	M02AA10	27/01/2003
7137411	M02AA10	12/01/2007
10490915	M02AA10	16/04/2001
11091916	M02AA10	04/01/2010
7136999	M02AA10	22/12/2006
7567270	M02AA10	04/05/2010
14227064	M02AA10	30/11/2005
421458	M02AA10	04/01/2006
434967	M02AA10	31/07/2001
433263	M02AA10	19/11/2009
2957452	M02AA10	10/05/2011
419256	M02AA10	24/09/2001
650187	M02AA10	27/08/2002
419475	M02AA10	28/09/2004
8045081	M02AA10	12/04/2011
419797	M02AA10	06/06/2006
12994706	M02AA10	21/06/2000
2215741	M02AA10	22/07/2010
874346	M02AA10	26/01/2007
12971265	M02AA10	04/09/2009
3054239	M02AA10	03/08/2010
28085809	M02AA10	09/12/2008
28044182	M02AA10	19/07/2007
2777779	M02AA10	22/09/2003
28083702	M02AA10	31/08/2007
26458205	M02AA10	02/01/2006
28086148	M02AA10	18/08/2009
7137629	M02AA10	10/05/2010
424823	M02AA10	12/01/2001
184353	M02AA10	27/12/2005
2113791	M02AA10	16/05/2011
186102	M02AA10	26/06/2009
7136413	M02AA10	14/10/2009
418421	M02AA10	02/09/1998
419430	M02AA10	27/01/2005
424657	M02AA10	14/09/2004
186865	M02AA10	04/12/2002
28069809	M02AA10	04/07/2007
423586	M02AA10	05/12/2000
7029377	M02AA10	13/08/2007
28086732	M02AA10	03/05/2006
28063724	M02AA10	19/10/2010
28062418	M02AA10	15/04/2004
28053822	M02AA10	18/02/2008
28069835	M02AA10	25/08/2010
28072225	M02AA10	24/09/2003
875829	M02AA10	12/05/2011
28057599	M02AA10	15/10/2004
24661814	M02AA10	23/03/2011
25556018	M02AA10	20/08/2010
24662325	M02AA10	18/02/2005
24668234	M02AA10	12/01/2004
24663007	M02AA10	12/01/2005
25551968	M02AA10	03/08/2007
19423118	M02AA10	05/11/2008
1343864	M02AA10	21/10/2004
1374270	M02AA10	13/01/2003
421990	M02AA10	08/10/2002
1366216	M02AA10	21/10/2002
180311	M02AA10	17/01/2002
1371652	M02AA10	27/09/2010
1361706	M02AA10	04/08/2010
1029992	M02AA10	04/12/2008
1367046	M02AA10	18/05/2000
1366687	M02AA10	11/02/1999
1363788	M02AA10	04/07/2008
1360903	M02AA10	09/03/2001
1030137	M02AA10	18/01/2006
1371981	M02AA10	20/10/1999
1359321	M02AA10	25/09/2002
1371015	M02AA10	01/12/2008
1359388	M02AA10	26/12/2000
422231	M02AA10	26/04/2000
18186912	M02AA10	25/02/2003
21553830	M02AA10	03/04/2010
18195830	M02AA10	26/05/2003
18194003	M02AA10	11/01/2005
18186766	M02AA10	23/07/2007
21064688	M02AA10	14/12/2006
19788236	M02AA10	01/06/2005
19968791	M02AA10	25/11/2003
2964564	M02AA10	16/04/2007
1371776	M02AA10	06/08/2007
1361578	M02AA10	03/05/2004
1361055	M02AA10	12/08/2004
1366818	M02AA10	20/05/2010
1989439	M02AA10	04/04/2011
5703647	M02AA10	27/09/2010
1363174	M02AA10	22/08/2005
26642443	M02AA10	05/03/2010
26856517	M02AA10	27/04/2009
26852141	M02AA10	13/09/2006
26637658	M02AA10	05/07/2007
26722085	M02AA10	09/02/2009
26628935	M02AA10	24/01/2011
26617926	M02AA10	20/05/2008
26704023	M02AA10	29/09/2010
26858878	M02AA10	04/03/2010
10770286	M02AA10	13/07/2005
12975498	M02AA10	05/12/2002
22729770	M02AA10	16/08/2010
22729856	M02AA10	08/02/2008
12975544	M02AA10	16/07/2009
13788822	M02AA10	26/09/2006
12950808	M02AA10	03/11/2006
16567909	M02AA10	11/08/2008
26719525	M02AA10	11/05/2010
12975349	M02AA10	09/11/2010
12994970	M02AA10	18/07/2007
26616690	M02AA10	23/05/2008
26659981	M02AA10	11/05/2009
26642677	M02AA10	07/04/2011
12876797	M02AA10	12/06/2009
26718324	M02AA10	19/03/2003
26699845	M02AA10	02/05/2005
22922486	M02AA10	13/10/2003
24578320	M02AA10	05/03/2011
22909166	M02AA10	01/12/2009
22922409	M02AA10	05/09/2005
24656409	M02AA10	03/06/2009
22922309	M02AA10	09/03/2011
21651440	M02AA10	05/06/2007
26963372	M02AA10	20/05/2004
26894977	M02AA10	15/09/2008
26945353	M02AA10	12/03/2004
26897522	M02AA10	01/08/2005
26951652	M02AA10	22/02/2010
26879235	M02AA10	13/04/2007
26720306	M02AA10	27/06/2008
26880919	M02AA10	05/05/2004
26877917	M02AA10	15/06/2005
26718656	M02AA10	10/05/2005
26857103	M02AA10	26/10/2009
26776408	M02AA10	10/03/2011
26730108	M02AA10	26/11/2008
26780127	M02AA10	30/05/2011
26845358	M02AA10	30/01/2006
26863512	M02AA10	25/04/2006
26872307	M02AA10	24/09/2010
26878871	M02AA10	15/03/2007
26881014	M02AA10	05/11/2010
26873859	M02AA10	08/03/2007
26882263	M02AA10	31/01/2005
26878753	M02AA10	04/06/2007
26881782	M02AA10	02/09/2005
26882035	M02AA10	23/11/2007
26872462	M02AA10	17/09/2004
26768711	M02AA10	06/10/2008
26742253	M02AA10	20/01/2005
26855405	M02AA10	25/02/2008
26760283	M02AA10	06/05/2011
26804650	M02AA10	04/06/2007
26989053	M02AA10	29/11/2010
26988800	M02AA10	05/06/2009
26966567	M02AA10	18/09/2008
26956291	M02AA10	09/12/2002
26968087	M02AA10	12/11/2007
27105324	M02AA10	07/08/2006
27102365	M02AA10	26/08/2008
27105487	M02AA10	23/09/2003
27137945	M02AA10	05/02/2005
27106469	M02AA10	15/05/2011
27153004	M02AA10	07/05/2008
27106339	M02AA10	08/11/2006
27033167	M02AA10	05/02/2009
27057529	M02AA10	23/04/2007
27031641	M02AA10	17/09/2007
27029722	M02AA10	20/12/2010
27042753	M02AA10	30/10/2008
27063122	M02AA10	18/04/2011
26991420	M02AA10	10/09/2009
26992138	M02AA10	14/01/2010
27040324	M02AA10	22/10/2007
27040517	M02AA10	21/01/2005
27041065	M02AA10	15/02/2011
27026349	M02AA10	11/12/2007
27042033	M02AA10	25/03/2010
27041316	M02AA10	09/05/2011
27041821	M02AA10	29/09/2010
27014753	M02AA10	15/05/2008
26981833	M02AA10	10/06/2008
27041450	M02AA10	27/08/2009
27041668	M02AA10	06/06/2006
27041680	M02AA10	04/09/2006
27041476	M02AA10	27/10/2006
27041488	M02AA10	25/11/2009
27041490	M02AA10	01/09/2010
27022688	M02AA10	16/03/2009
27041910	M02AA10	24/02/2004
27039849	M02AA10	07/11/2007
27216549	M02AA10	25/11/2010
27362443	M02AA10	04/05/2006
27383534	M02AA10	27/06/2008
27250072	M02AA10	27/11/2007
27368382	M02AA10	11/01/2010
27352971	M02AA10	22/10/2010
27215330	M02AA10	15/03/2011
27215513	M02AA10	26/12/2009
27308192	M02AA10	30/06/2008
27211899	M02AA10	05/06/2006
27316072	M02AA10	29/06/2005
27396888	M02AA10	30/06/2010
27168989	M02AA10	19/09/2006
27296189	M02AA10	11/06/2010
27347687	M02AA10	09/06/2009
27348103	M02AA10	12/05/2009
27247391	M02AA10	11/08/2003
26952301	M02AA10	29/12/2004
26975874	M02AA10	27/10/2003
26976774	M02AA10	31/08/2006
27250690	M02AA10	30/05/2006
26962184	M02AA10	12/04/2006
27249837	M02AA10	13/11/2008
27613638	M02AA10	05/07/2007
27632256	M02AA10	12/02/2008
27481247	M02AA10	14/06/2010
27481175	M02AA10	27/10/2009
27659686	M02AA10	29/09/2008
27475707	M02AA10	07/07/2009
27481454	M02AA10	15/01/2010
27481473	M02AA10	04/03/2011
27470779	M02AA10	09/02/2005
27460649	M02AA10	30/05/2011
27765512	M02AA10	28/02/2011
27765553	M02AA10	29/04/2011
27228930	M02AA10	26/04/2006
27230589	M02AA10	28/06/2005
27160905	M02AA10	09/12/2003
27159542	M02AA10	02/10/2007
27247057	M02AA10	10/01/2002
27414193	M02AA10	25/10/2001
27285445	M02AA10	05/04/2011
27129091	M02AA10	02/02/2009
27132827	M02AA10	17/07/2007
27159913	M02AA10	21/11/2008
27232543	M02AA10	15/05/2010
27229030	M02AA10	27/07/2001
26872280	M02AA10	14/12/2007
26970591	M02AA10	23/08/2006
27783605	M02AA10	11/10/2007
27315655	M02AA10	11/08/2004
27022748	M02AA10	04/10/2004
26719017	M02AA10	28/02/2005
26944101	M02AA10	10/06/2010
27659130	M02AA10	16/06/2010
26784303	M02AA10	06/10/2004
18199767	M02AA10	23/11/2001
27540070	M02AA10	08/04/2003
27781142	M02AA10	18/07/2007
27538788	M02AA10	03/04/2009
27684839	M02AA10	24/11/2009
27684854	M02AA10	19/06/2009
27682540	M02AA10	14/04/2007
27785654	M02AA10	18/07/2003
27674475	M02AA10	03/03/2004
27531095	M02AA10	16/07/2009
27673504	M02AA10	01/08/2006
27531259	M02AA10	17/04/2009
418255	M02AA10	09/11/2010
27684000	M02AA10	19/02/2002
27056369	M02AA10	10/12/2003
27778170	M02AA10	05/05/2011
27480179	M02AA10	30/09/2008
27315817	M02AA10	14/06/2004
27574050	M02AA10	16/11/2007
27306147	M02AA10	15/12/2007
26933407	M02AA10	25/04/2007
26895421	M02AA10	03/09/2007
27668046	M02AA10	15/05/2008
27783717	M02AA10	21/12/2010
18196060	M02AA10	02/04/2004
21065282	M02AA10	11/03/2009
21651315	M02AA10	17/09/2010
21705761	M02AA10	26/04/2011
1361526	M02AA10	29/03/2001
27154246	M02AA10	04/05/2009
27796469	M02AA10	23/02/2011
27719296	M02AA10	28/12/2009
27673821	M02AA10	15/10/2004
27797371	M02AA10	23/04/2004
27670508	M02AA10	16/03/2005
27805960	M02AA10	19/10/2005
27757222	M02AA10	07/05/2007
27720814	M02AA10	05/01/2010
27686175	M02AA10	18/11/2004
27797533	M02AA10	18/01/2011
26793177	M02AA10	15/12/2008
27384357	M02AA10	17/02/2011
27767366	M02AA10	25/09/2008
27352070	M02AA10	21/02/2011
27693935	M02AA10	03/11/2008
27687008	M02AA10	10/04/2003
27797057	M02AA10	08/03/2004
27780213	M02AA10	28/03/2007
26974970	M02AA10	22/12/2005
27764778	M02AA10	19/02/2001
27775707	M02AA10	05/01/2004
27797993	M02AA10	26/09/2008
26954759	M02AA10	18/11/2008
26944919	M02AA10	13/03/2006
27783755	M02AA10	11/04/2007
27794211	M02AA10	03/11/2010
27246927	M02AA10	12/09/2001
27553064	M02AA10	13/01/2011
27783769	M02AA10	20/04/2009
27783816	M02AA10	21/10/2009
27028528	M02AA10	18/03/2009
33102755	M02AA10	09/02/2009
33040260	M02AA10	21/03/2007
33112774	M02AA10	01/12/2010
33022477	M02AA10	26/06/2000
33056882	M02AA10	12/12/2008
33104066	M02AA10	19/11/2009
33022764	M02AA10	22/09/2008
33106412	M02AA10	09/04/2003
33099558	M02AA10	08/06/2001
33042452	M02AA10	10/05/2005
33037105	M02AA10	08/03/2007
33101389	M02AA10	23/02/2005
33015043	M02AA10	20/12/2000
33061832	M02AA10	05/04/2010
33094244	M02AA10	08/03/2004
33062908	M02AA10	09/03/2005
33084200	M02AA10	19/11/2003
33000627	M02AA10	12/08/2004
33007179	M02AA10	26/08/2009
33050061	M02AA10	04/12/2008
33067601	M02AA10	27/09/2006
33069035	M02AA10	18/02/2008
33065951	M02AA10	10/09/2004
33027806	M02AA10	14/06/2001
33015149	M02AA10	22/05/2000
33043546	M02AA10	27/01/2011
33103882	M02AA10	03/06/2002
33062433	M02AA10	17/03/2008
33017935	M02AA10	28/11/2008
33085299	M02AA10	26/01/2005
33083676	M02AA10	16/09/2008
33079717	M02AA10	14/02/2007
33043194	M02AA10	31/01/2001
33068637	M02AA10	03/10/2000
33105346	M02AA10	30/11/2006
33022204	M02AA10	02/03/2009
33008987	M02AA10	21/01/2010
33091473	M02AA10	11/05/2009
33008535	M02AA10	22/10/2009
33123728	M02AA10	27/10/2009
33105811	M02AA10	02/10/2001
33086083	M02AA10	27/10/2005
33035723	M02AA10	16/03/2011
33010518	M02AA10	07/04/2011
33083077	M02AA10	28/11/2007
33131703	M02AA10	04/03/2009
33050069	M02AA10	17/11/2006
33110326	M02AA10	11/11/2008
33056431	M02AA10	10/08/2004
33081884	M02AA10	06/05/2010
33007817	M02AA10	02/11/2006
33109340	M02AA10	10/02/2009
33070878	M02AA10	27/11/2008
33080281	M02AA10	29/01/2007
33072179	M02AA10	16/03/2000
33002052	M02AA10	13/10/2009
33018138	M02AA10	13/05/2010
33112449	M02AA10	11/06/2010
33084411	M02AA10	08/05/2006
33113908	M02AA10	15/04/2009
33003004	M02AA10	07/11/2008
33024115	M02AA10	28/09/2009
33103502	M02AA10	15/06/2006
33034793	M02AA10	27/08/2009
33099829	M02AA10	29/05/2002
33060457	M02AA10	11/09/2009
33106497	M02AA10	10/10/2007
33057183	M02AA10	23/03/2010
33031927	M02AA10	06/05/2011
33108978	M02AA10	30/06/2009
33036436	M02AA10	26/05/2010
33004433	M02AA10	31/08/2005
33128557	M02AA10	23/09/2010
33104669	M02AA10	31/03/2010
33029467	M02AA10	30/05/2008
33047551	M02AA10	02/12/2002
33107937	M02AA10	14/08/2004
33003806	M02AA10	18/09/2009
33071523	M02AA10	24/06/2010
33020581	M02AA10	02/02/2005
33092389	M02AA10	11/02/2004
33097006	M02AA10	17/05/2011
33052953	M02AA10	23/11/2000
33051529	M02AA10	21/04/2005
33056441	M02AA10	02/06/2006
33038806	M02AA10	27/05/2010
33060211	M02AA10	14/01/2011
33106201	M02AA10	16/12/2005
33047592	M02AA10	26/07/2010
33047656	M02AA10	01/06/2010
33111158	M02AA10	31/01/2007
33096415	M02AA10	13/01/2009
33028180	M02AA10	08/09/2009
33066001	M02AA10	03/12/2008
33081991	M02AA10	08/02/2011
33025804	M02AA10	05/05/2005
33099092	M02AA10	11/03/2008
33014069	M02AA10	18/07/2006
26871922	M02AA10	31/08/2005
27811936	M02AA10	29/06/2010
27800055	M02AA10	01/06/2010
27812443	M02AA10	12/12/2005
24661802	M02AA10	01/02/2011
26851696	M02AA10	02/02/2010
19423345	M02AA10	14/07/2010
27801880	M02AA10	30/08/2007
33020523	M02AA10	26/04/2010
27912198	M02AA10	28/04/2005
33298715	M02AA10	23/07/2010
21114135	M02AA10	18/04/2008
33219101	M02AA10	18/02/2010
16640292	M02AA10	02/07/2004
21114796	M02AA10	08/02/2011
16630949	M02AA10	04/03/2005
16640657	M02AA10	01/08/2006
33034636	M02AA10	04/03/2011
14187440	M02AA10	11/03/2011
16135206	M02AA10	02/12/2008
33314256	M02AA10	31/08/2010
16634931	M02AA10	22/08/2006
16639585	M02AA10	30/10/2009
33127387	M02AA10	26/05/2011
16601297	M02AA10	29/11/2008
33105641	M02AA10	11/08/2010
33085897	M02AA10	31/07/2002
33006191	M02AA10	18/01/2001
33041177	M02AA10	09/03/2011
33024104	M02AA10	26/08/2005
33101479	M02AA10	07/01/2011
33037401	M02AA10	24/01/2007
33072391	M02AA10	02/03/2004
33030460	M02AA10	27/08/2008
33033679	M02AA10	06/08/2009
33063405	M02AA10	20/04/2011
33065144	M02AA10	26/03/2009
33060956	M02AA10	09/02/2009
33074992	M02AA10	04/11/2005
33025702	M02AA10	24/04/2006
33074096	M02AA10	24/03/2003
33000877	M02AA10	29/01/2008
33104781	M02AA10	09/11/2006
33115064	M02AA10	16/03/2006
33002545	M02AA10	15/06/2006
33032465	M02AA10	17/11/2009
33007224	M02AA10	04/11/2003
33111035	M02AA10	09/05/2011
33004361	M02AA10	14/10/2010
33000875	M02AA10	17/09/2008
33074768	M02AA10	28/09/2005
33063789	M02AA10	05/03/2009
33003698	M02AA10	06/04/2005
33000591	M02AA10	16/11/2006
33039897	M02AA10	27/01/2011
33004014	M02AA10	25/01/2007
33043124	M02AA10	11/08/2010
33104966	M02AA10	23/09/2009
33004559	M02AA10	12/01/2006
33107252	M02AA10	21/10/2003
33089333	M02AA10	15/01/2004
33018657	M02AA10	19/05/2000
33030873	M02AA10	13/02/2009
33002563	M02AA10	24/01/2007
33056714	M02AA10	22/03/2011
33099116	M02AA10	02/01/2001
33089335	M02AA10	09/11/2007
33019050	M02AA10	24/09/2009
33101385	M02AA10	07/09/2000
33073688	M02AA10	04/11/2009
33096256	M02AA10	14/06/2010
33109468	M02AA10	09/03/2004
33005144	M02AA10	07/08/2007
33102097	M02AA10	29/04/2005
33049697	M02AA10	20/06/2003
33091322	M02AA10	10/01/2005
33101960	M02AA10	25/02/2011
33011985	M02AA10	26/05/2011
33052345	M02AA10	07/12/2001
33066983	M02AA10	21/09/2004
33079144	M02AA10	29/01/2009
33104079	M02AA10	14/11/2009
33110291	M02AA10	06/05/2004
33066033	M02AA10	22/07/2008
33056105	M02AA10	17/04/2008
33073480	M02AA10	13/12/2002
33073595	M02AA10	02/11/2009
33044074	M02AA10	08/01/2004
33012988	M02AA10	11/07/2008
33112644	M02AA10	24/10/2005
16166636	M02AA10	27/05/2008
16179088	M02AA10	08/04/2009
16705121	M02AA10	30/12/2008
16135123	M02AA10	06/04/2006
18765887	M02AA10	15/03/2005
33298875	M02AA10	29/11/2010
16640297	M02AA10	26/05/2008
16165958	M02AA10	06/10/2000
23408715	M02AA10	15/11/2005
27849571	M02AA10	27/10/2006
21115127	M02AA10	27/11/2007
23396737	M02AA10	17/12/2003
20976603	M02AA10	15/07/2009
14187882	M02AA10	19/03/2008
16639844	M02AA10	11/08/2009
27846867	M02AA10	16/08/2005
27847065	M02AA10	26/06/2007
33239141	M02AA10	07/04/2011
33316061	M02AA10	09/10/2009
16607333	M02AA10	19/04/2007
16639327	M02AA10	05/05/2009
16606613	M02AA10	25/02/2009
16182233	M02AA10	20/10/2007
16708223	M02AA10	21/11/2008
33276197	M02AA10	03/04/2006
16174125	M02AA10	15/04/2011
16636482	M02AA10	20/02/2008
33311910	M02AA10	08/07/2009
23397922	M02AA10	02/03/2011
27857857	M02AA10	02/06/2009
27972396	M02AA10	13/03/2009
16138978	M02AA10	20/07/2009
16181058	M02AA10	01/02/2010
16640222	M02AA10	02/04/2008
27912578	M02AA10	31/03/2005
27985124	M02AA10	20/09/2010
33298665	M02AA10	15/11/2010
23380969	M02AA10	13/12/2008
16606979	M02AA10	19/07/2010
27848350	M02AA10	19/05/2003
16596222	M02AA10	02/08/2004
16177768	M02AA10	04/05/2011
16626180	M02AA10	21/05/2004
16630616	M02AA10	14/09/2010
33208695	M02AA10	08/02/2010
16178935	M02AA10	10/05/2011
21110022	M02AA10	20/07/2004
27848097	M02AA10	02/11/2010
27849109	M02AA10	21/01/2005
16640685	M02AA10	01/06/2010
16653497	M02AA10	04/09/2006
27915318	M02AA10	16/11/2010
33235172	M02AA10	07/07/2009
27847497	M02AA10	23/12/2005
16138984	M02AA10	27/12/2002
16606962	M02AA10	26/12/2007
16139583	M02AA10	19/10/2007
16619163	M02AA10	21/10/2008
16184377	M02AA10	03/09/2001
16165721	M02AA10	02/05/2000
16131240	M02AA10	15/06/2004
16130914	M02AA10	02/06/2009
23401531	M02AA10	13/05/2010
23364720	M02AA10	15/02/2011
16599304	M02AA10	19/01/2010
23412890	M02AA10	10/07/2008
16177824	M02AA10	15/11/2007
16124521	M02AA10	23/05/2007
23368415	M02AA10	26/04/2010
16598289	M02AA10	15/01/2004
23411938	M02AA10	28/07/2008
33231077	M02AA10	20/01/2010
24463084	M02AA10	17/07/2006
18769370	M02AA10	30/10/2008
33243966	M02AA10	13/12/2006
33313464	M02AA10	03/03/2009
16165612	M02AA10	18/04/2005
16684605	M02AA10	14/10/2009
14188146	M02AA10	22/10/2008
16631934	M02AA10	03/01/2007
28002227	M02AA10	26/03/2010
28018909	M02AA10	06/11/2009
14187360	M02AA10	25/04/2003
27954341	M02AA10	25/10/2005
23396411	M02AA10	20/12/2005
28016404	M02AA10	05/01/2009
16178928	M02AA10	01/07/2008
16708154	M02AA10	12/05/2011
16599143	M02AA10	23/03/2005
23346872	M02AA10	02/08/2005
23328066	M02AA10	10/03/2008
21011388	M02AA10	24/02/2011
23401641	M02AA10	23/06/2006
23414018	M02AA10	10/07/2009
23412981	M02AA10	11/11/2008
16684088	M02AA10	28/01/2009
33244635	M02AA10	21/09/2004
33213081	M02AA10	18/09/2009
16138964	M02AA10	29/03/2011
27849790	M02AA10	01/10/2001
14187326	M02AA10	20/06/2003
16178450	M02AA10	09/08/2010
16178544	M02AA10	29/04/2010
21099885	M02AA10	09/03/2011
16602618	M02AA10	20/12/2006
27847279	M02AA10	22/10/2008
33266891	M02AA10	11/06/2010
20983637	M02AA10	29/06/2009
33201152	M02AA10	09/01/2009
32178620	M02AA10	20/04/2009
31575692	M02AA10	20/01/2011
32174673	M02AA10	09/01/2009
31758927	M02AA10	10/11/2008
31540727	M02AA10	25/07/2001
23349702	M02AA10	24/06/2005
16124564	M02AA10	23/06/2003
16640430	M02AA10	12/08/2008
16639897	M02AA10	24/05/2004
16705297	M02AA10	01/12/2010
16131066	M02AA10	20/02/2006
23349604	M02AA10	05/12/2006
16597963	M02AA10	25/06/2008
33306337	M02AA10	07/06/2010
23354151	M02AA10	23/01/2007
16168690	M02AA10	14/12/2009
23402611	M02AA10	26/11/2004
16598795	M02AA10	12/07/2004
33288276	M02AA10	30/09/2010
23401789	M02AA10	30/09/2008
23406223	M02AA10	16/04/2009
23327900	M02AA10	22/01/2009
16129916	M02AA10	12/06/2007
23401156	M02AA10	03/11/2008
16138495	M02AA10	21/07/2008
27848565	M02AA10	27/11/2002
23351379	M02AA10	11/09/2006
16130884	M02AA10	27/11/2007
16127452	M02AA10	10/02/2009
16598501	M02AA10	18/03/2009
16603132	M02AA10	13/05/2010
23350638	M02AA10	18/09/2008
16166274	M02AA10	20/12/2000
23367214	M02AA10	23/12/2009
16599419	M02AA10	27/09/2007
16598445	M02AA10	29/03/2006
16598025	M02AA10	29/08/2008
16598379	M02AA10	27/04/2005
16598055	M02AA10	11/06/2010
33200239	M02AA10	06/02/2001
31118201	M02AA10	24/07/2008
31157971	M02AA10	13/08/1999
31353235	M02AA10	29/11/2010
32282396	M02AA10	14/06/2004
32249641	M02AA10	02/06/2009
31638063	M02AA10	17/10/2008
32196437	M02AA10	21/11/2008
32092961	M02AA10	17/10/2007
31043924	M02AA10	26/09/2008
31954565	M02AA10	17/01/2007
31641080	M02AA10	12/02/2004
31771316	M02AA10	14/05/2009
31488155	M02AA10	19/09/2005
32253846	M02AA10	14/07/2003
32041896	M02AA10	11/03/2008
31412669	M02AA10	20/04/2006
31644416	M02AA10	14/08/2002
31089833	M02AA10	04/10/2006
31595601	M02AA10	27/02/2007
31512526	M02AA10	17/02/2006
31515657	M02AA10	14/03/2007
31446823	M02AA10	24/02/2009
31818019	M02AA10	31/08/2009
31400996	M02AA10	13/07/2006
31557290	M02AA10	26/07/2007
31604165	M02AA10	25/05/2009
31880944	M02AA10	22/04/2008
32095993	M02AA10	20/02/2007
31037188	M02AA10	27/12/2007
32100706	M02AA10	15/09/2006
31979808	M02AA10	20/08/2008
31038162	M02AA10	24/08/2004
31796372	M02AA10	03/12/2010
31461047	M02AA10	01/09/2010
32182917	M02AA10	23/03/2009
32011425	M02AA10	09/06/2009
31318979	M02AA10	14/01/2010
32091966	M02AA10	10/05/2004
31246728	M02AA10	09/02/2005
31482559	M02AA10	06/05/2009
31792571	M02AA10	27/01/2005
31953094	M02AA10	09/06/2006
31043915	M02AA10	15/11/2006
32194913	M02AA10	16/05/2007
31224811	M02AA10	24/07/2009
32211373	M02AA10	02/10/2008
32208919	M02AA10	24/05/2007
31956405	M02AA10	01/06/2007
32114112	M02AA10	08/11/2005
31514222	M02AA10	06/08/2007
31957216	M02AA10	27/02/2009
32176492	M02AA10	18/11/2008
31093440	M02AA10	05/02/2009
32224844	M02AA10	12/09/2007
31459109	M02AA10	16/10/2007
31632656	M02AA10	21/04/2008
31662126	M02AA10	08/06/2006
31268154	M02AA10	09/01/2006
31390699	M02AA10	20/10/2005
31801114	M02AA10	15/04/2003
32239096	M02AA10	14/05/2010
31474523	M02AA10	10/06/2008
31246912	M02AA10	13/05/2005
31119305	M02AA10	18/09/2003
32268623	M02AA10	06/08/2009
31722801	M02AA10	10/01/2008
31668398	M02AA10	09/11/2007
31862515	M02AA10	04/10/2010
31444593	M02AA10	18/11/2008
31534678	M02AA10	01/12/2006
31702493	M02AA10	28/02/2008
31500490	M02AA10	02/01/2008
32137823	M02AA10	24/02/2011
31242291	M02AA10	20/02/2008
31479727	M02AA10	24/03/2006
31428525	M02AA10	25/08/2006
31679755	M02AA10	23/06/2009
31299460	M02AA10	21/02/2008
31559866	M02AA10	10/05/2007
31167694	M02AA10	26/01/2005
31543007	M02AA10	28/04/2008
31492052	M02AA10	30/01/2006
32218783	M02AA10	16/06/2010
32248059	M02AA10	17/03/2008
31110768	M02AA10	04/04/2006
31176432	M02AA10	01/12/2006
31143129	M02AA10	22/06/2006
32277220	M02AA10	10/10/2007
31085353	M02AA10	25/11/2009
31491434	M02AA10	06/03/2008
31739256	M02AA10	06/02/2007
31565972	M02AA10	02/10/2009
31970088	M02AA10	22/08/2002
31421685	M02AA10	21/11/2007
32221033	M02AA10	27/09/2006
31549503	M02AA10	01/04/2009
31330070	M02AA10	30/12/2002
31217679	M02AA10	07/03/2008
31162089	M02AA10	28/01/2003
31085239	M02AA10	15/12/2006
31341768	M02AA10	03/05/2007
31866867	M02AA10	12/05/2006
31311243	M02AA10	20/12/2010
32275096	M02AA10	17/11/2005
31163272	M02AA10	29/07/2009
31708769	M02AA10	27/01/2010
31893494	M02AA10	17/11/2005
31269714	M02AA10	05/12/2008
31825046	M02AA10	21/12/2009
32135703	M02AA10	27/10/2008
32118712	M02AA10	10/01/2006
31416932	M02AA10	12/03/2007
31641342	M02AA10	24/06/2009
31454718	M02AA10	04/12/2008
32079219	M02AA10	05/07/2010
31869790	M02AA10	06/04/2009
31904159	M02AA10	19/07/2006
31324227	M02AA10	16/11/2004
31235701	M02AA10	26/10/2005
31530639	M02AA10	28/10/2005
32005529	M02AA10	30/06/2009
31936808	M02AA10	18/06/2008
31328924	M02AA10	07/09/2005
32082561	M02AA10	24/05/2010
31203374	M02AA10	23/06/2006
32128998	M02AA10	14/10/2005
31099804	M02AA10	11/05/2009
32013329	M02AA10	23/03/2009
31174566	M02AA10	08/09/2006
31119407	M02AA10	29/12/2009
32111233	M02AA10	30/05/2008
32003853	M02AA10	05/07/2005
31216431	M02AA10	30/03/2005
31222949	M02AA10	12/08/2002
31523213	M02AA10	11/02/2008
31214763	M02AA10	02/08/2010
31528243	M02AA10	10/03/2006
31679805	M02AA10	23/09/2008
31423684	M02AA10	16/05/2006
31290665	M02AA10	05/01/2006
31597401	M02AA10	05/11/2004
31461611	M02AA10	25/02/2010
31350240	M02AA10	09/10/2007
31502441	M02AA10	23/03/2007
31260435	M02AA10	11/11/2008
31554738	M02AA10	26/05/2009
31458988	M02AA10	08/11/2007
32035559	M02AA10	05/08/2008
31701050	M02AA10	06/11/2009
31488907	M02AA10	05/08/2009
32113531	M02AA10	25/08/2006
31296128	M02AA10	17/01/2011
31296692	M02AA10	10/07/2006
32136199	M02AA10	03/09/2009
32125126	M02AA10	14/02/2005
31089388	M02AA10	26/03/2009
32009136	M02AA10	01/03/2005
32005336	M02AA10	22/01/2008
31956953	M02AA10	07/04/2005
31212601	M02AA10	16/11/2006
32080498	M02AA10	14/08/2009
31331060	M02AA10	03/02/2009
31851612	M02AA10	04/05/2006
32153978	M02AA10	30/12/2008
32059302	M02AA10	18/11/2009
31676218	M02AA10	25/03/2003
31486750	M02AA10	25/05/2010
31708256	M02AA10	19/09/2007
31468835	M02AA10	17/07/2006
31165787	M02AA10	10/05/2007
31517124	M02AA10	28/07/2008
32006163	M02AA10	10/11/2005
31764328	M02AA10	06/06/2006
31615418	M02AA10	07/05/2009
31392273	M02AA10	12/08/2008
31470909	M02AA10	04/10/2004
31510842	M02AA10	06/05/2009
31998758	M02AA10	26/02/2003
31849656	M02AA10	11/12/2009
31501413	M02AA10	28/06/2006
31148626	M02AA10	24/07/2009
31534286	M02AA10	08/02/2010
31075591	M02AA10	10/09/2002
31218008	M02AA10	12/06/2007
31893634	M02AA10	30/10/2008
31670262	M02AA10	12/08/2009
31156693	M02AA10	03/12/2009
31683144	M02AA10	04/07/2003
31223044	M02AA10	28/02/2002
31467808	M02AA10	18/08/2008
32190523	M02AA10	31/10/2007
31186394	M02AA10	27/10/2008
31288965	M02AA10	11/07/2005
32048394	M02AA10	03/02/2009
31345405	M02AA10	12/01/2005
31354097	M02AA10	13/11/2001
31482800	M02AA10	06/04/2011
31567343	M02AA10	21/05/2007
31118559	M02AA10	01/04/2009
31336193	M02AA10	08/08/2005
31941694	M02AA10	16/08/2005
32089605	M02AA10	21/08/2006
31267614	M02AA10	21/07/2010
31319729	M02AA10	01/06/2009
31676103	M02AA10	23/04/2008
31607286	M02AA10	06/03/2008
31602375	M02AA10	07/04/2010
32229216	M02AA10	11/12/2007
32088315	M02AA10	07/08/2008
31898521	M02AA10	30/09/2009
31691318	M02AA10	16/03/2009
32168690	M02AA10	23/11/2007
31169311	M02AA10	15/11/2005
31901111	M02AA10	01/12/2008
31450469	M02AA10	29/03/2006
31229457	M02AA10	05/11/2009
31253954	M02AA10	20/12/2007
32090695	M02AA10	25/06/2009
32136529	M02AA10	12/07/2010
31589311	M02AA10	18/10/2007
32240004	M02AA10	01/07/2005
31118815	M02AA10	15/04/2009
31292890	M02AA10	25/07/2007
31678786	M02AA10	12/07/2005
31195235	M02AA10	04/04/2005
31162307	M02AA10	03/09/2008
31617915	M02AA10	12/02/2007
32111753	M02AA10	20/05/2008
31352712	M02AA10	05/01/2006
31777809	M02AA10	03/12/2002
31246615	M02AA10	20/10/2006
32116733	M02AA10	18/09/2003
31593327	M02AA10	28/06/2006
31916030	M02AA10	10/02/2009
31181842	M02AA10	11/11/2010
31958844	M02AA10	27/10/2010
31219142	M02AA10	16/06/2004
31166024	M02AA10	09/12/2008
31507430	M02AA10	24/06/2005
32054329	M02AA10	16/01/2007
31474377	M02AA10	19/06/2009
31992539	M02AA10	21/08/2006
31863698	M02AA10	19/12/2008
31517685	M02AA10	23/10/2003
31301911	M02AA10	11/03/2011
31843748	M02AA10	08/10/2007
31838556	M02AA10	22/05/2008
31554561	M02AA10	15/07/2010
31389366	M02AA10	08/03/2007
31630310	M02AA10	13/10/2008
31147832	M02AA10	11/11/2009
31556823	M02AA10	22/07/2005
31272830	M02AA10	07/05/2010
32099327	M02AA10	10/09/2008
31820931	M02AA10	14/04/2003
31392677	M02AA10	03/09/2007
31325386	M02AA10	24/03/2010
31995370	M02AA10	19/11/2004
32245026	M02AA10	02/01/2006
31953204	M02AA10	24/06/2003
31766221	M02AA10	26/02/2003
31761935	M02AA10	01/07/2009
31867997	M02AA10	24/02/2009
31552136	M02AA10	26/12/2007
32161288	M02AA10	08/05/2009
31778752	M02AA10	02/11/2007
31245311	M02AA10	05/02/2003
32198464	M02AA10	01/06/2006
31818844	M02AA10	21/12/2005
31243497	M02AA10	09/04/2007
32006368	M02AA10	09/02/2005
31820497	M02AA10	18/10/2005
31660557	M02AA10	30/06/2005
31520248	M02AA10	30/06/2006
32120801	M02AA10	21/10/2009
31241823	M02AA10	17/02/2006
31696946	M02AA10	15/12/2005
32189893	M02AA10	30/05/2008
32093203	M02AA10	29/11/2005
31730012	M02AA10	21/12/2007
32108495	M02AA10	03/06/2009
31447714	M02AA10	20/11/2006
31224613	M02AA10	28/04/2009
31880992	M02AA10	31/01/2008
31189613	M02AA10	15/07/2008
31704070	M02AA10	14/02/2002
32084009	M02AA10	05/02/2010
32090511	M02AA10	10/12/2002
31134548	M02AA10	02/07/2001
31513965	M02AA10	12/12/2008
31396958	M02AA10	24/04/2006
31639610	M02AA10	31/03/2005
32227283	M02AA10	07/11/2003
31290625	M02AA10	08/02/2008
31375145	M02AA10	30/10/2009
32235440	M02AA10	22/04/2005
31405567	M02AA10	28/09/2010
31336014	M02AA10	25/10/2004
31915153	M02AA10	13/09/2005
31247441	M02AA10	08/06/2004
31679003	M02AA10	06/07/2009
31675474	M02AA10	05/09/2005
31514901	M02AA10	29/07/2003
31445349	M02AA10	27/02/2006
31676698	M02AA10	05/12/2008
31991627	M02AA10	09/05/2011
31988729	M02AA10	21/04/2009
31826945	M02AA10	13/10/2005
32089419	M02AA10	19/07/2007
32257488	M02AA10	04/12/2009
32156268	M02AA10	01/09/2006
32058972	M02AA10	17/11/2005
31626969	M02AA10	12/12/2003
32215263	M02AA10	02/04/2008
31942616	M02AA10	25/02/2011
31050391	M02AA10	16/04/2009
32236277	M02AA10	04/05/2006
31737920	M02AA10	27/11/2009
31139119	M02AA10	03/02/2006
31817649	M02AA10	21/09/2004
31611337	M02AA10	30/12/2009
32201838	M02AA10	01/08/2007
32182647	M02AA10	14/01/2008
31357291	M02AA10	20/02/2009
32165239	M02AA10	18/11/2008
32083953	M02AA10	02/09/2008
31252856	M02AA10	08/07/2008
31575578	M02AA10	22/03/2007
32257370	M02AA10	17/08/2007
31182579	M02AA10	27/02/2007
31268299	M02AA10	30/04/2008
31485076	M02AA10	09/07/2010
31429891	M02AA10	12/07/2004
32282903	M02AA10	27/05/2009
31075024	M02AA10	30/12/2002
31080219	M02AA10	29/11/2007
31476368	M02AA10	06/02/2004
31490573	M02AA10	30/03/2007
31211581	M02AA10	16/04/2010
31034732	M02AA10	16/01/2008
31939727	M02AA10	04/12/2009
31084479	M02AA10	07/04/2005
31691952	M02AA10	30/12/2008
31349105	M02AA10	19/02/2004
31663638	M02AA10	08/01/2007
31181702	M02AA10	05/12/2007
31125310	M02AA10	14/09/2009
31456917	M02AA10	16/02/2005
31172355	M02AA10	06/04/2004
31054169	M02AA10	20/04/2007
31547301	M02AA10	15/02/2007
32062987	M02AA10	17/11/2006
32280267	M02AA10	30/07/2009
31942339	M02AA10	27/06/2008
31177028	M02AA10	17/10/2007
32274565	M02AA10	03/10/2006
31378201	M02AA10	14/09/2004
32144834	M02AA10	10/03/2006
31936735	M02AA10	13/05/2008
31458967	M02AA10	26/06/2009
32173478	M02AA10	13/07/2005
31756582	M02AA10	28/08/2006
31570017	M02AA10	12/05/2006
31261695	M02AA10	26/07/2005
31827456	M02AA10	04/03/2009
31184461	M02AA10	28/10/2008
31754369	M02AA10	10/09/2003
31429588	M02AA10	20/03/2002
31569773	M02AA10	27/05/2008
32164020	M02AA10	19/01/2010
32112160	M02AA10	23/05/2006
32217099	M02AA10	29/03/2004
31665155	M02AA10	12/01/2007
31705615	M02AA10	05/06/2007
32274765	M02AA10	01/12/2009
32172582	M02AA10	16/04/2010
31245180	M02AA10	18/06/2007
31197319	M02AA10	08/03/2007
31348815	M02AA10	01/07/2008
31261675	M02AA10	18/08/2006
31618175	M02AA10	13/01/2011
32020359	M02AA10	16/12/2004
31999794	M02AA10	24/05/2006
32179438	M02AA10	27/01/2006
31421375	M02AA10	09/09/2005
31824276	M02AA10	21/10/2004
31948589	M02AA10	24/09/2008
31514408	M02AA10	09/03/2010
31329423	M02AA10	10/11/2009
31951572	M02AA10	23/02/2010
31758759	M02AA10	25/01/2008
31691130	M02AA10	15/02/2006
32155126	M02AA10	21/05/2004
31394242	M02AA10	03/11/2005
31064693	M02AA10	26/06/2009
31222768	M02AA10	25/04/2008
31887827	M02AA10	03/01/2006
31068921	M02AA10	23/02/2009
31927282	M02AA10	19/09/2005
31457699	M02AA10	14/05/2007
31918157	M02AA10	19/09/2005
32180831	M02AA10	19/08/2005
31960354	M02AA10	28/12/2009
31085927	M02AA10	09/01/2004
31593317	M02AA10	23/10/2007
32127265	M02AA10	02/08/2007
32264460	M02AA10	18/07/2008
31480655	M02AA10	27/06/2007
31822263	M02AA10	21/03/2011
31937215	M02AA10	26/05/2009
31110042	M02AA10	03/12/2004
31783128	M02AA10	14/08/2003
31818087	M02AA10	11/05/2011
31061564	M02AA10	23/11/2009
31600813	M02AA10	04/08/2008
31627198	M02AA10	22/10/2007
31714178	M02AA10	22/05/2008
31512420	M02AA10	05/09/2002
31176367	M02AA10	02/04/2009
31048637	M02AA10	20/01/2009
31400450	M02AA10	22/04/2010
31751005	M02AA10	25/11/2009
32028704	M02AA10	10/02/2009
31866747	M02AA10	02/12/2004
31699160	M02AA10	27/02/2007
31878709	M02AA10	29/07/2010
31893484	M02AA10	08/10/2008
31760431	M02AA10	23/10/2008
31030230	M02AA10	25/11/2010
32271150	M02AA10	15/03/2006
31610930	M02AA10	22/07/2009
31804586	M02AA10	29/04/2008
31815406	M02AA10	05/02/2003
31545282	M02AA10	13/11/2008
31206444	M02AA10	05/09/2008
31673937	M02AA10	28/05/2009
31426144	M02AA10	09/07/2003
31346582	M02AA10	01/09/2004
31357054	M02AA10	01/09/2006
31126735	M02AA10	01/06/2010
31601005	M02AA10	28/05/2009
31083826	M02AA10	02/06/2006
31814249	M02AA10	16/03/2009
31823756	M02AA10	07/02/2011
31909312	M02AA10	18/11/2009
32226335	M02AA10	07/11/2008
31374121	M02AA10	30/03/2007
32280905	M02AA10	29/03/2010
31653156	M02AA10	28/01/2005
32132667	M02AA10	18/01/2008
31449578	M02AA10	05/11/2007
31853795	M02AA10	10/12/2010
31697109	M02AA10	23/03/2005
31790134	M02AA10	27/08/2009
31528765	M02AA10	29/09/2003
31098225	M02AA10	29/10/2008
31494792	M02AA10	22/02/2006
31805286	M02AA10	27/11/2009
31789025	M02AA10	21/09/2006
31804114	M02AA10	24/08/2006
31907428	M02AA10	07/03/2005
31452945	M02AA10	11/01/2006
31362191	M02AA10	06/06/2007
31638728	M02AA10	05/10/2009
31636015	M02AA10	25/11/2009
31732633	M02AA10	22/11/2006
31065530	M02AA10	29/11/2006
31888473	M02AA10	13/09/2005
31703009	M02AA10	30/05/2002
31995985	M02AA10	06/05/2010
31282511	M02AA10	02/07/2007
32274498	M02AA10	30/07/2009
31421108	M02AA10	20/01/2011
32100837	M02AA10	05/10/2007
31454501	M02AA10	27/04/2007
32143088	M02AA10	12/04/2007
31733685	M02AA10	17/04/2008
31585275	M02AA10	11/12/2008
32069805	M02AA10	13/10/2006
31155640	M02AA10	24/11/2009
31760263	M02AA10	27/03/2006
31682920	M02AA10	20/10/2009
32020466	M02AA10	17/10/2005
31443097	M02AA10	27/04/2005
32272952	M02AA10	24/04/2006
31566843	M02AA10	08/11/2004
32238551	M02AA10	03/12/2009
31730157	M02AA10	18/12/2006
32011511	M02AA10	20/02/2009
32278552	M02AA10	17/06/2004
32094975	M02AA10	27/04/2009
31080214	M02AA10	07/11/2008
31216478	M02AA10	28/12/2006
31917595	M02AA10	10/07/2007
32248123	M02AA10	29/10/2009
