patient_id	covar_name	date
208423	M01AE03	28/04/2009
6757586	M01AE03	17/10/2007
12691489	M01AE03	18/04/2008
949778	M01AE03	17/04/2001
8983512	M01AE03	22/02/2006
17174935	M01AE03	20/09/2006
21371393	M01AE03	05/04/2011
3120764	M01AE03	30/08/2000
6751487	M01AE03	18/04/2007
1515333	M01AE03	22/02/2002
3334201	M01AE03	10/03/2011
6745205	M01AE03	01/06/2010
8978095	M01AE03	14/03/2007
9250225	M01AE03	22/12/2006
9382262	M01AE03	17/10/2005
12831650	M01AE03	25/04/2005
21370179	M01AE03	24/05/2007
697976	M01AE03	17/02/2010
14983661	M01AE03	04/05/2007
6756205	M01AE03	27/11/2001
9304627	M01AE03	18/11/2004
1330793	M01AE03	18/11/2002
19230673	M01AE03	19/12/2007
8702733	M01AE03	16/01/2008
7160662	M01AE03	16/04/2010
12478455	M01AE03	13/04/2007
5428629	M01AE03	29/03/2010
1941817	M01AE03	31/03/2004
10268928	M01AE03	12/02/2008
9372568	M01AE03	19/05/2009
6594762	M01AE03	25/09/2000
26139680	M01AE03	11/10/2004
1850673	M01AE03	02/07/1999
6600753	M01AE03	31/03/2004
524498	M01AE03	08/08/2007
1265201	M01AE03	19/03/2002
24718581	M01AE03	05/04/2010
8067951	M01AE03	19/12/2005
1321846	M01AE03	17/05/2010
1424903	M01AE03	05/02/2010
6841591	M01AE03	16/01/2007
525368	M01AE03	24/06/2010
1212257	M01AE03	11/10/2002
1855843	M01AE03	08/10/2003
890928	M01AE03	05/03/2010
1135359	M01AE03	16/04/2001
1101989	M01AE03	26/01/2005
135815	M01AE03	09/03/1999
1006885	M01AE03	07/08/2003
717109	M01AE03	01/12/2003
25892496	M01AE03	25/05/2011
1134812	M01AE03	10/11/2005
2059046	M01AE03	13/09/2006
2139511	M01AE03	27/10/2010
1755871	M01AE03	06/03/2007
878296	M01AE03	11/12/2003
26461136	M01AE03	03/07/2003
26351975	M01AE03	25/05/2006
18471742	M01AE03	15/12/2009
7229425	M01AE03	07/07/2009
17040205	M01AE03	24/05/2010
421262	M01AE03	01/08/2005
185604	M01AE03	28/10/2004
26236359	M01AE03	05/05/2010
427511	M01AE03	17/09/1999
418421	M01AE03	11/09/2009
28056581	M01AE03	12/01/2011
186865	M01AE03	12/09/2006
24663041	M01AE03	12/11/2003
180311	M01AE03	05/09/2008
22830720	M01AE03	29/01/2010
26852141	M01AE03	11/05/2011
22729856	M01AE03	08/02/2008
26642021	M01AE03	22/05/2009
26917419	M01AE03	03/10/2007
26896291	M01AE03	08/01/2008
26917699	M01AE03	27/04/2007
27052004	M01AE03	07/06/2010
27362443	M01AE03	20/10/2006
27173410	M01AE03	01/03/2011
27647922	M01AE03	21/07/2004
27707997	M01AE03	07/06/2005
27707840	M01AE03	02/09/2008
26772557	M01AE03	09/09/2010
27676239	M01AE03	04/11/2004
27682864	M01AE03	04/03/2004
27159773	M01AE03	31/12/2010
33007677	M01AE03	22/01/2003
33098852	M01AE03	02/10/2000
33032891	M01AE03	18/07/2008
33065445	M01AE03	08/05/2008
33023977	M01AE03	17/01/2005
33050069	M01AE03	05/01/2007
33013922	M01AE03	06/11/2003
33039975	M01AE03	28/04/2005
33056441	M01AE03	12/11/2007
33058269	M01AE03	18/07/2006
33106358	M01AE03	24/01/2002
2989892	M01AE03	25/03/2011
33098847	M01AE03	03/11/2003
33019718	M01AE03	17/08/2000
33005144	M01AE03	27/07/2007
33060722	M01AE03	22/12/2000
33112092	M01AE03	29/10/2007
33058347	M01AE03	11/10/2004
33027073	M01AE03	17/09/2002
18769506	M01AE03	10/04/2007
16183490	M01AE03	22/07/2004
18769407	M01AE03	17/01/2006
27983174	M01AE03	04/05/2011
23327879	M01AE03	04/09/2003
32118521	M01AE03	20/09/2007
27984029	M01AE03	19/01/2008
16124499	M01AE03	18/04/2002
21011666	M01AE03	08/04/2011
23350638	M01AE03	18/09/2008
31202352	M01AE03	13/10/2005
31370990	M01AE03	08/07/1999
31590399	M01AE03	13/09/2005
31998448	M01AE03	06/08/2004
31816975	M01AE03	28/03/2007
31702493	M01AE03	01/10/2001
31764799	M01AE03	02/03/2010
32023890	M01AE03	16/08/2005
31235701	M01AE03	03/10/2006
31942130	M01AE03	07/01/2004
31791710	M01AE03	30/08/2002
31598954	M01AE03	17/04/2007
31053656	M01AE03	23/02/2006
31597401	M01AE03	21/08/2006
31670593	M01AE03	01/08/2008
31539765	M01AE03	29/01/2004
31915105	M01AE03	18/04/2007
32009136	M01AE03	24/02/2004
31989459	M01AE03	13/09/2004
31282414	M01AE03	18/01/2005
31624184	M01AE03	20/01/2009
32013154	M01AE03	23/12/2009
31458732	M01AE03	18/12/2006
31568634	M01AE03	08/09/2006
31156693	M01AE03	17/10/2006
32090546	M01AE03	08/09/2005
31940782	M01AE03	15/10/2007
31590262	M01AE03	31/08/2005
31345405	M01AE03	27/04/2005
31587202	M01AE03	06/09/2005
31923205	M01AE03	22/01/2004
31750115	M01AE03	09/09/2005
31084179	M01AE03	14/10/2002
31128087	M01AE03	25/01/2008
31166024	M01AE03	09/07/2007
31701980	M01AE03	15/06/2007
31974787	M01AE03	29/11/2007
32099327	M01AE03	07/12/2004
31938829	M01AE03	06/11/2007
31281949	M01AE03	25/05/2009
31455404	M01AE03	21/05/2003
31725242	M01AE03	28/12/1999
31197508	M01AE03	09/04/2002
31405567	M01AE03	02/03/2007
31918158	M01AE03	19/01/2004
31254441	M01AE03	23/09/2010
32204421	M01AE03	20/09/2001
31652044	M01AE03	15/12/2009
31197692	M01AE03	19/07/2002
31220049	M01AE03	26/04/2005
31974995	M01AE03	24/04/2007
31175621	M01AE03	01/03/2006
31995451	M01AE03	19/12/2008
31067036	M01AE03	02/11/2007
32036919	M01AE03	07/05/2003
31821069	M01AE03	12/06/2008
31386321	M01AE03	29/08/2003
32032305	M01AE03	23/12/2003
32144834	M01AE03	03/03/2006
32250083	M01AE03	06/04/2010
32185395	M01AE03	21/07/2006
32063144	M01AE03	06/10/2009
31126133	M01AE03	25/06/2004
31825044	M01AE03	24/03/2011
31453269	M01AE03	19/07/2004
31624416	M01AE03	13/12/2010
31740975	M01AE03	24/03/2006
31518348	M01AE03	28/05/2003
31516645	M01AE03	18/05/2007
31209591	M01AE03	12/11/2009
31515814	M01AE03	12/01/2007
31362753	M01AE03	17/03/2009
31048637	M01AE03	22/06/2007
32221527	M01AE03	16/12/2003
31973561	M01AE03	24/04/2007
31517413	M01AE03	07/05/2008
31137209	M01AE03	18/07/2008
31847212	M01AE03	20/08/2003
31814249	M01AE03	27/03/2003
32154430	M01AE03	24/04/2007
31790134	M01AE03	28/02/2006
31148510	M01AE03	28/12/2006
31916785	M01AE03	27/05/2005
32127720	M01AE03	28/05/2007
31555376	M01AE03	12/12/2008
