patient_id	covar_name	date
6213299	MIOCAR	03/07/2006
28066044	MIOCAR	06/07/1999
26643040	MIOCAR	01/02/2001
27780213	MIOCAR	30/12/2010
31086608	MIOCAR	11/01/1958
32215543	MIOCAR	15/06/2007
31643795	MIOCAR	04/08/1925
31428910	MIOCAR	24/03/2010
31202980	MIOCAR	25/08/1971
