patient_id	covar_name	date
206830	M01AE14	19/04/2004
12694596	M01AE14	30/04/2010
8990080	M01AE14	14/01/2009
17169829	M01AE14	17/01/2007
1726934	M01AE14	24/11/2009
12773401	M01AE14	16/10/2007
12186099	M01AE14	15/07/2010
3291617	M01AE14	05/11/2003
12774510	M01AE14	03/08/2009
1068210	M01AE14	12/01/2011
62714	M01AE14	06/06/2003
61487	M01AE14	19/08/2004
8568002	M01AE14	29/07/2008
6749491	M01AE14	04/02/2004
3300695	M01AE14	04/02/2004
18628739	M01AE14	12/03/2003
15899686	M01AE14	29/09/2006
9220894	M01AE14	02/03/2009
9221189	M01AE14	17/08/2005
9340914	M01AE14	29/04/2008
702188	M01AE14	11/08/2003
17170113	M01AE14	26/12/2006
7162379	M01AE14	19/05/2008
12185515	M01AE14	09/03/2011
25071280	M01AE14	26/10/2009
9300494	M01AE14	07/12/2004
12779443	M01AE14	04/09/2003
9339067	M01AE14	28/05/2009
6298556	M01AE14	17/05/2005
8972925	M01AE14	25/06/2003
9319944	M01AE14	25/04/2011
3122629	M01AE14	09/10/2003
9384775	M01AE14	02/07/2007
731869	M01AE14	02/07/2008
7335727	M01AE14	30/10/2006
1515940	M01AE14	18/07/2005
9311828	M01AE14	09/11/2010
25072222	M01AE14	16/06/2009
7340423	M01AE14	28/07/2008
10270319	M01AE14	09/05/2005
21871311	M01AE14	14/08/2006
10266736	M01AE14	11/05/2010
12772602	M01AE14	10/10/2007
21860436	M01AE14	16/12/2010
12694616	M01AE14	12/08/2005
9376383	M01AE14	01/09/2006
9340736	M01AE14	08/08/2005
9311044	M01AE14	27/01/2004
9310772	M01AE14	11/03/2005
9390046	M01AE14	26/01/2010
1069020	M01AE14	02/09/2008
1125167	M01AE14	19/11/2010
20549085	M01AE14	28/11/2003
12731532	M01AE14	25/08/2003
3288866	M01AE14	23/12/2002
8980123	M01AE14	22/11/2002
9328263	M01AE14	30/12/2003
11247995	M01AE14	18/12/2006
1827465	M01AE14	30/10/2009
21870755	M01AE14	23/07/2003
63163	M01AE14	16/11/2005
8978074	M01AE14	10/01/2004
25071721	M01AE14	16/09/2009
1725994	M01AE14	21/10/2009
1069069	M01AE14	05/11/2008
12730840	M01AE14	26/10/2009
23454243	M01AE14	29/09/2003
12761323	M01AE14	30/01/2008
8975444	M01AE14	09/09/2008
9302055	M01AE14	13/05/2008
6039984	M01AE14	07/10/2008
1069126	M01AE14	08/11/2006
611347	M01AE14	12/12/2005
9369997	M01AE14	17/11/2008
9995220	M01AE14	09/10/2007
9230569	M01AE14	06/06/2002
9324479	M01AE14	26/08/2002
697976	M01AE14	10/12/2008
1828347	M01AE14	23/11/2009
9378495	M01AE14	07/10/2004
1731987	M01AE14	03/07/2006
8989341	M01AE14	21/07/2006
9378605	M01AE14	01/07/2005
9220165	M01AE14	31/05/2006
9220334	M01AE14	26/02/2009
9388407	M01AE14	09/10/2003
23471965	M01AE14	28/02/2005
8582021	M01AE14	21/06/2005
9221139	M01AE14	16/11/2006
24721216	M01AE14	09/07/2009
9370812	M01AE14	04/11/2005
24930008	M01AE14	30/12/2009
1069269	M01AE14	25/08/2005
6622144	M01AE14	03/11/2009
12790379	M01AE14	10/02/2004
3329070	M01AE14	23/04/2003
9304423	M01AE14	01/06/2010
1068170	M01AE14	28/12/2007
9285503	M01AE14	07/04/2006
730718	M01AE14	08/04/2008
9382428	M01AE14	19/10/2004
6624155	M01AE14	23/02/2009
3289082	M01AE14	26/06/2003
21854118	M01AE14	18/04/2006
6707615	M01AE14	02/04/2009
1634902	M01AE14	19/10/2009
1069550	M01AE14	04/06/2009
24730202	M01AE14	25/04/2011
9221617	M01AE14	28/01/2008
9373480	M01AE14	04/07/2007
7968770	M01AE14	17/12/2010
564988	M01AE14	21/12/2006
1417651	M01AE14	06/04/2011
1446158	M01AE14	08/10/2007
25458787	M01AE14	29/12/2004
18056114	M01AE14	06/08/2004
1665784	M01AE14	23/09/2004
5728372	M01AE14	08/03/2008
437691	M01AE14	20/04/2011
1445071	M01AE14	28/06/2004
1352974	M01AE14	24/02/2011
1276114	M01AE14	24/04/2010
1201565	M01AE14	14/02/2008
7971655	M01AE14	09/05/2006
1321262	M01AE14	01/02/2006
645707	M01AE14	22/11/2010
1850904	M01AE14	28/06/2005
6595401	M01AE14	08/03/2010
1277195	M01AE14	18/04/2009
565093	M01AE14	08/01/2004
648114	M01AE14	11/03/2009
12613205	M01AE14	26/11/2003
1853304	M01AE14	06/03/2002
8062984	M01AE14	08/10/2003
6842062	M01AE14	14/06/2006
1210419	M01AE14	17/11/2006
7777409	M01AE14	01/03/2011
1670590	M01AE14	05/01/2011
6472082	M01AE14	26/11/2007
1353807	M01AE14	08/07/2010
5992233	M01AE14	25/09/2007
1277439	M01AE14	16/06/2007
641933	M01AE14	22/01/2011
6595079	M01AE14	09/11/2005
6842476	M01AE14	01/08/2005
4381496	M01AE14	29/12/2005
1276923	M01AE14	09/05/2009
6602978	M01AE14	16/11/2007
6841766	M01AE14	09/06/2006
1276998	M01AE14	28/06/2009
1276922	M01AE14	16/12/2007
7771937	M01AE14	10/01/2002
4699708	M01AE14	03/05/2011
645626	M01AE14	16/10/2009
1211123	M01AE14	07/10/2004
638786	M01AE14	14/08/2009
5075433	M01AE14	21/01/2006
1208986	M01AE14	08/11/2008
648183	M01AE14	14/04/2010
1200443	M01AE14	01/04/2007
7848502	M01AE14	01/12/2008
1353307	M01AE14	06/05/2002
7817572	M01AE14	02/02/2009
639360	M01AE14	02/08/2010
8240201	M01AE14	31/01/2011
640857	M01AE14	08/03/2008
640738	M01AE14	03/06/2004
1277173	M01AE14	22/06/2008
6597726	M01AE14	03/09/2007
26145711	M01AE14	05/02/2004
525429	M01AE14	14/06/2007
1202345	M01AE14	05/08/2009
24719249	M01AE14	11/06/2007
25830377	M01AE14	23/10/2009
8067070	M01AE14	08/04/2011
1210283	M01AE14	11/01/2005
540330	M01AE14	31/05/2009
7776505	M01AE14	20/08/2008
1209204	M01AE14	06/09/2006
1276805	M01AE14	26/05/2007
10506339	M01AE14	04/02/2011
6593465	M01AE14	17/09/2004
5991774	M01AE14	02/06/2006
5991761	M01AE14	20/09/2004
1206524	M01AE14	26/07/2004
7770079	M01AE14	12/02/2002
7776922	M01AE14	10/10/2009
1443505	M01AE14	23/05/2011
647941	M01AE14	03/05/2010
1276566	M01AE14	19/04/2009
1171735	M01AE14	14/12/2007
22114632	M01AE14	02/12/2010
7966633	M01AE14	03/06/2010
5992429	M01AE14	02/08/2005
1202451	M01AE14	21/01/2005
1849702	M01AE14	02/07/2002
6211670	M01AE14	21/08/2007
25960205	M01AE14	24/04/2010
1850346	M01AE14	12/05/2006
1278011	M01AE14	22/06/2008
1546595	M01AE14	22/09/2004
6595383	M01AE14	23/05/2011
6599146	M01AE14	06/04/2009
1200208	M01AE14	18/07/2003
645467	M01AE14	08/10/2010
4700277	M01AE14	20/07/2009
1443624	M01AE14	28/07/2006
1276627	M01AE14	15/11/2008
1852962	M01AE14	05/02/2010
1295976	M01AE14	10/08/2005
1212240	M01AE14	10/02/2008
25861674	M01AE14	16/10/2009
6951044	M01AE14	29/04/2011
1647457	M01AE14	02/01/2008
1640758	M01AE14	19/10/2007
25768738	M01AE14	19/12/2006
1855492	M01AE14	06/07/2006
1133457	M01AE14	12/02/2004
12605627	M01AE14	20/11/2009
1132264	M01AE14	18/12/2007
1110947	M01AE14	17/10/2005
6598193	M01AE14	02/02/2006
1639524	M01AE14	05/03/2002
1638747	M01AE14	24/01/2002
1855443	M01AE14	01/02/2007
890642	M01AE14	27/09/2007
1135144	M01AE14	04/11/2002
192423	M01AE14	30/07/2007
994068	M01AE14	24/04/2003
1130755	M01AE14	10/12/2009
1132218	M01AE14	02/12/2004
2704199	M01AE14	27/01/2005
25888400	M01AE14	07/03/2011
1102247	M01AE14	08/04/2005
1640603	M01AE14	15/11/2004
4688264	M01AE14	30/03/2010
1130304	M01AE14	10/02/2004
1110970	M01AE14	10/05/2011
195582	M01AE14	18/02/2009
1103757	M01AE14	16/03/2007
1640838	M01AE14	29/04/2003
486570	M01AE14	13/12/2004
25894610	M01AE14	29/11/2006
4688914	M01AE14	12/09/2003
1027312	M01AE14	05/04/2011
6914096	M01AE14	18/03/2005
1101747	M01AE14	02/08/2004
717738	M01AE14	14/11/2002
25883168	M01AE14	08/03/2005
1101830	M01AE14	17/09/2007
485949	M01AE14	30/09/2008
1134288	M01AE14	28/04/2004
134659	M01AE14	14/01/2003
1102044	M01AE14	29/12/2004
25751456	M01AE14	15/10/2010
1102919	M01AE14	04/08/2008
716545	M01AE14	21/10/2008
1100552	M01AE14	05/11/2008
717762	M01AE14	27/10/2006
1101989	M01AE14	12/05/2006
1552120	M01AE14	16/07/2003
1641017	M01AE14	25/06/2003
890201	M01AE14	17/08/2005
1580741	M01AE14	12/08/2003
1854904	M01AE14	14/02/2006
1065365	M01AE14	04/04/2007
995605	M01AE14	26/11/2009
192735	M01AE14	14/08/2010
1103285	M01AE14	11/05/2007
1103928	M01AE14	02/01/2004
25894546	M01AE14	09/10/2006
1065570	M01AE14	02/07/2007
486077	M01AE14	23/01/2009
1135038	M01AE14	24/06/2004
5679864	M01AE14	10/03/2008
1110455	M01AE14	15/03/2007
135306	M01AE14	27/10/2010
2216802	M01AE14	22/10/2007
2043284	M01AE14	12/03/2007
2045167	M01AE14	23/05/2002
2217778	M01AE14	02/02/2006
2109340	M01AE14	25/11/2005
2214933	M01AE14	03/10/2002
2215335	M01AE14	28/06/2002
1647977	M01AE14	14/03/2005
2219403	M01AE14	31/01/2007
2217164	M01AE14	27/09/2007
2139007	M01AE14	27/04/2005
2059211	M01AE14	22/12/2010
2215430	M01AE14	29/05/2002
2133615	M01AE14	12/08/2004
1682828	M01AE14	26/04/2011
2143483	M01AE14	06/10/2008
1642138	M01AE14	15/06/2006
904619	M01AE14	08/06/2009
2773726	M01AE14	22/04/2004
2042889	M01AE14	04/07/2006
859599	M01AE14	11/06/2008
1762246	M01AE14	04/05/2010
2777238	M01AE14	11/05/2007
7043275	M01AE14	10/07/2007
7038290	M01AE14	21/04/2009
3053055	M01AE14	24/09/2002
3049761	M01AE14	08/02/2009
2813159	M01AE14	25/05/2006
7043389	M01AE14	14/12/2007
7048927	M01AE14	04/09/2006
2574919	M01AE14	17/05/2004
2522213	M01AE14	05/04/2010
2407328	M01AE14	17/08/2010
2407872	M01AE14	10/07/2006
2754760	M01AE14	11/05/2010
2573239	M01AE14	30/01/2008
2756309	M01AE14	28/01/2009
2525973	M01AE14	25/03/2010
16979853	M01AE14	02/12/2009
16836903	M01AE14	27/08/2003
2755397	M01AE14	06/06/2008
2408212	M01AE14	09/01/2009
26350877	M01AE14	18/02/2011
26462699	M01AE14	18/01/2008
26582425	M01AE14	07/10/2004
26351975	M01AE14	27/02/2004
26570717	M01AE14	27/08/2010
26461925	M01AE14	13/10/2006
26337370	M01AE14	14/12/2009
17041460	M01AE14	02/05/2006
10455373	M01AE14	05/09/2010
20146495	M01AE14	24/02/2009
20033277	M01AE14	03/07/2007
26336640	M01AE14	27/04/2011
17323541	M01AE14	25/03/2009
26462074	M01AE14	10/04/2008
26455732	M01AE14	27/01/2003
28042210	M01AE14	07/02/2006
26338190	M01AE14	06/08/2008
26566119	M01AE14	03/08/2010
26255901	M01AE14	07/01/2007
26351889	M01AE14	15/10/2004
26244453	M01AE14	06/03/2009
17041018	M01AE14	21/11/2006
16836109	M01AE14	23/03/2011
17040205	M01AE14	25/09/2003
16835377	M01AE14	25/02/2009
7140005	M01AE14	03/03/2009
16979278	M01AE14	30/05/2006
14090002	M01AE14	03/03/2009
434967	M01AE14	10/01/2002
300241	M01AE14	11/01/2005
464325	M01AE14	30/05/2003
418178	M01AE14	08/03/2003
184942	M01AE14	06/07/2009
185452	M01AE14	19/05/2007
464504	M01AE14	23/01/2003
464133	M01AE14	08/04/2003
1900723	M01AE14	13/02/2006
8045081	M01AE14	24/09/2008
19127470	M01AE14	01/11/2008
2215741	M01AE14	19/05/2004
28083670	M01AE14	04/07/2005
6993888	M01AE14	05/04/2011
1753843	M01AE14	23/03/2005
28091078	M01AE14	11/03/2010
16836815	M01AE14	03/03/2006
28090931	M01AE14	12/09/2007
426906	M01AE14	12/07/2002
266395	M01AE14	14/02/2011
463352	M01AE14	21/02/2003
26477943	M01AE14	10/11/2003
462621	M01AE14	12/01/2004
649804	M01AE14	04/11/2003
187998	M01AE14	15/04/2004
264967	M01AE14	28/05/2011
418315	M01AE14	05/11/2002
434457	M01AE14	08/05/2004
423586	M01AE14	04/11/2002
186064	M01AE14	19/09/2006
648824	M01AE14	22/02/2011
28086732	M01AE14	18/01/2006
28045934	M01AE14	10/01/2011
28065837	M01AE14	18/12/2008
28072510	M01AE14	04/09/2007
28072361	M01AE14	21/12/2004
28072331	M01AE14	12/08/2008
28051808	M01AE14	18/04/2011
28085935	M01AE14	10/08/2009
28071032	M01AE14	28/02/2003
28071783	M01AE14	14/02/2007
24658648	M01AE14	03/09/2005
24669031	M01AE14	10/05/2006
25742955	M01AE14	03/01/2007
24661692	M01AE14	26/02/2004
24655248	M01AE14	12/09/2005
24671462	M01AE14	07/12/2005
25743054	M01AE14	27/11/2006
1019432	M01AE14	04/02/2008
1359193	M01AE14	18/01/2007
1373198	M01AE14	12/02/2002
1372174	M01AE14	22/01/2005
1031036	M01AE14	08/04/2005
1910984	M01AE14	30/12/2002
40178	M01AE14	09/01/2006
1900381	M01AE14	22/08/2006
1372602	M01AE14	07/09/2007
18195830	M01AE14	11/03/2003
18200264	M01AE14	19/10/2006
18193999	M01AE14	08/03/2011
18190082	M01AE14	26/09/2006
24670235	M01AE14	23/10/2008
18187303	M01AE14	04/10/2005
18186989	M01AE14	17/04/2007
22757992	M01AE14	23/11/2007
18191652	M01AE14	08/02/2011
18190979	M01AE14	29/01/2002
8432308	M01AE14	23/02/2009
1022535	M01AE14	14/02/2010
3230740	M01AE14	20/02/2007
2987616	M01AE14	17/11/2009
4312803	M01AE14	30/10/2009
2986529	M01AE14	03/04/2009
2988326	M01AE14	15/02/2005
435091	M01AE14	21/05/2005
1904262	M01AE14	15/10/2001
2986553	M01AE14	22/09/2005
418928	M01AE14	22/05/2004
1021166	M01AE14	13/11/2008
12980321	M01AE14	17/11/2005
1910693	M01AE14	25/02/2003
1909227	M01AE14	18/05/2004
26719457	M01AE14	26/05/2011
26718272	M01AE14	10/03/2010
26635911	M01AE14	01/08/2002
26853499	M01AE14	23/03/2006
26805217	M01AE14	14/07/2006
13446708	M01AE14	02/10/2009
16105363	M01AE14	29/04/2003
10770156	M01AE14	10/09/2009
16105473	M01AE14	12/07/2006
13788822	M01AE14	12/02/2004
13871949	M01AE14	12/07/2005
2989980	M01AE14	30/08/2005
26719543	M01AE14	20/05/2010
16842359	M01AE14	22/06/2006
26635661	M01AE14	19/06/2003
2990159	M01AE14	01/06/2004
26618242	M01AE14	26/02/2004
24577473	M01AE14	16/11/2006
21554193	M01AE14	27/05/2011
24581986	M01AE14	06/06/2009
24656356	M01AE14	11/02/2002
22922309	M01AE14	06/07/2007
22723516	M01AE14	15/02/2005
26899465	M01AE14	03/02/2008
26931533	M01AE14	24/09/2004
26935835	M01AE14	29/05/2007
26941116	M01AE14	19/02/2007
26935999	M01AE14	27/03/2007
26958880	M01AE14	24/11/2003
26933470	M01AE14	10/01/2006
26717135	M01AE14	24/10/2005
26772741	M01AE14	22/08/2006
26720081	M01AE14	27/01/2004
26716146	M01AE14	11/03/2008
26874221	M01AE14	17/08/2006
26891117	M01AE14	24/02/2006
26873673	M01AE14	22/08/2006
26888468	M01AE14	17/12/2004
26888343	M01AE14	12/05/2006
26868179	M01AE14	18/06/2010
26716663	M01AE14	19/12/2003
27072527	M01AE14	26/01/2009
26955339	M01AE14	17/03/2003
26967298	M01AE14	25/08/2007
26963778	M01AE14	18/10/2002
26955462	M01AE14	14/04/2003
27065111	M01AE14	24/03/2010
26989063	M01AE14	02/03/2007
26994023	M01AE14	22/07/2009
27102099	M01AE14	17/09/2003
27078625	M01AE14	10/05/2010
27128161	M01AE14	04/05/2011
27115926	M01AE14	14/07/2004
27086224	M01AE14	12/07/2005
27112337	M01AE14	17/02/2009
27137945	M01AE14	12/06/2003
27130191	M01AE14	22/10/2010
27061141	M01AE14	30/10/2009
27153104	M01AE14	06/05/2002
27153123	M01AE14	30/12/2008
27065654	M01AE14	12/01/2011
27056829	M01AE14	17/05/2006
27061753	M01AE14	02/02/2010
27061759	M01AE14	18/09/2009
27075029	M01AE14	20/06/2006
27056679	M01AE14	11/07/2006
27033531	M01AE14	19/05/2005
27066800	M01AE14	24/11/2007
27062753	M01AE14	23/03/2010
26991420	M01AE14	07/12/2004
26996521	M01AE14	04/03/2011
26996574	M01AE14	24/03/2011
26978590	M01AE14	24/08/2002
26996597	M01AE14	22/04/2010
27026487	M01AE14	24/10/2006
26996376	M01AE14	26/10/2010
27039817	M01AE14	30/03/2005
27326808	M01AE14	23/01/2003
27358740	M01AE14	08/06/2005
27168688	M01AE14	23/11/2006
27248566	M01AE14	05/06/2006
27168136	M01AE14	31/01/2007
27367154	M01AE14	27/02/2009
27367207	M01AE14	27/09/2010
27369270	M01AE14	13/08/2003
27367293	M01AE14	27/11/2009
27364127	M01AE14	30/12/2009
27169975	M01AE14	23/12/2008
27248343	M01AE14	28/10/2003
27251602	M01AE14	24/02/2010
27247991	M01AE14	25/01/2006
27244071	M01AE14	25/05/2006
27366710	M01AE14	14/03/2011
27369903	M01AE14	27/03/2009
27305099	M01AE14	28/11/2007
27317311	M01AE14	13/04/2004
27529972	M01AE14	10/06/2004
27368240	M01AE14	04/03/2009
27348103	M01AE14	23/04/2008
27363057	M01AE14	17/06/2004
27326487	M01AE14	12/11/2002
27170570	M01AE14	25/09/2008
27249549	M01AE14	26/01/2011
27249580	M01AE14	31/05/2008
27286648	M01AE14	24/10/2001
26995455	M01AE14	28/12/2004
26975874	M01AE14	30/07/2008
27250690	M01AE14	16/04/2010
26990376	M01AE14	21/12/2007
27170060	M01AE14	06/11/2006
27597168	M01AE14	22/04/2005
27646973	M01AE14	29/05/2008
27661768	M01AE14	24/05/2005
27645831	M01AE14	15/03/2006
27481385	M01AE14	13/09/2006
27474475	M01AE14	03/10/2005
27716882	M01AE14	01/10/2004
27717389	M01AE14	09/10/2006
27760073	M01AE14	28/10/2002
27765512	M01AE14	11/07/2008
27546344	M01AE14	04/06/2009
27752383	M01AE14	04/08/2005
27566543	M01AE14	30/11/2006
27551702	M01AE14	16/03/2010
27147794	M01AE14	12/03/2002
27292071	M01AE14	09/06/2006
27150779	M01AE14	06/06/2005
27133059	M01AE14	27/01/2004
27153760	M01AE14	15/04/2003
27163037	M01AE14	19/11/2006
27153527	M01AE14	24/12/2003
27127605	M01AE14	20/07/2007
27164478	M01AE14	05/02/2010
27167812	M01AE14	01/12/2008
27159863	M01AE14	19/10/2008
27154144	M01AE14	01/10/2004
27469950	M01AE14	16/04/2007
27413810	M01AE14	07/11/2006
27128107	M01AE14	28/05/2010
27167057	M01AE14	10/12/2008
27477658	M01AE14	07/05/2008
27620849	M01AE14	18/04/2006
27106877	M01AE14	13/11/2009
27252613	M01AE14	27/11/2004
27477666	M01AE14	12/05/2011
266530	M01AE14	19/04/2004
463450	M01AE14	28/10/2003
12983986	M01AE14	06/03/2006
27784826	M01AE14	08/11/2004
27716439	M01AE14	12/06/2006
27718156	M01AE14	20/09/2006
27533977	M01AE14	06/02/2009
27477114	M01AE14	15/06/2010
27521437	M01AE14	22/11/2010
27509297	M01AE14	11/12/2006
27062706	M01AE14	01/03/2011
27537759	M01AE14	03/11/2005
27472174	M01AE14	18/12/2009
27473750	M01AE14	26/04/2008
27592553	M01AE14	21/02/2005
27472063	M01AE14	11/01/2007
27591823	M01AE14	20/06/2006
27512714	M01AE14	27/10/2008
27529026	M01AE14	19/02/2003
27796602	M01AE14	01/09/2010
21065282	M01AE14	17/12/2003
1900173	M01AE14	11/12/2008
1361526	M01AE14	10/06/2008
27799859	M01AE14	16/09/2005
27796469	M01AE14	12/01/2011
26971047	M01AE14	10/08/2009
27797221	M01AE14	15/12/2008
27797324	M01AE14	13/01/2010
27679383	M01AE14	17/11/2006
27797371	M01AE14	31/03/2010
27805960	M01AE14	31/12/2009
27794444	M01AE14	28/11/2007
27720814	M01AE14	07/08/2009
27797102	M01AE14	24/10/2007
27795914	M01AE14	18/05/2007
26793177	M01AE14	04/05/2009
27716869	M01AE14	12/12/2006
27384357	M01AE14	14/04/2004
424043	M01AE14	03/09/2009
27773938	M01AE14	21/08/2007
464047	M01AE14	15/10/2004
27086392	M01AE14	23/11/2006
464168	M01AE14	07/06/2006
27369005	M01AE14	26/01/2009
26977353	M01AE14	19/09/2006
304327	M01AE14	15/01/2010
27797993	M01AE14	14/03/2011
27759993	M01AE14	31/08/2004
27773328	M01AE14	30/08/2004
27037506	M01AE14	09/11/2007
27796173	M01AE14	15/09/2010
27799572	M01AE14	05/08/2009
27796212	M01AE14	20/09/2007
27366636	M01AE14	15/05/2009
27163507	M01AE14	10/11/2009
33086104	M01AE14	31/10/2008
33112774	M01AE14	24/06/2004
33080420	M01AE14	27/03/2003
33014972	M01AE14	29/06/2010
33073806	M01AE14	25/07/2005
33018984	M01AE14	15/09/2009
33106475	M01AE14	30/07/2002
33111336	M01AE14	02/07/2002
33071439	M01AE14	20/09/2006
33035460	M01AE14	02/02/2004
33022764	M01AE14	05/01/2010
33037105	M01AE14	11/05/2007
33027621	M01AE14	18/08/2004
33005769	M01AE14	07/03/2006
33031759	M01AE14	08/07/2008
33015043	M01AE14	06/10/2010
33069790	M01AE14	18/11/2003
33062908	M01AE14	23/06/2005
33083573	M01AE14	22/04/2004
33055329	M01AE14	07/01/2010
33067601	M01AE14	08/05/2006
33070489	M01AE14	06/04/2006
33098852	M01AE14	19/01/2009
33069210	M01AE14	15/06/2006
33030476	M01AE14	12/12/2006
33068451	M01AE14	21/12/2005
33019657	M01AE14	15/12/2003
33060437	M01AE14	28/06/2010
33071076	M01AE14	25/11/2009
33030986	M01AE14	08/09/2005
33008987	M01AE14	14/12/2005
33108903	M01AE14	31/05/2010
33083077	M01AE14	20/11/2002
33099318	M01AE14	26/07/2004
33065720	M01AE14	14/10/2004
33050069	M01AE14	04/06/2009
33085408	M01AE14	30/12/2005
33015423	M01AE14	06/07/2009
33059857	M01AE14	17/03/2004
33002793	M01AE14	28/10/2005
33116686	M01AE14	16/09/2010
33125460	M01AE14	18/11/2009
33006461	M01AE14	10/07/2002
33080281	M01AE14	14/01/2008
33072179	M01AE14	07/01/2005
33054045	M01AE14	16/06/2010
33111017	M01AE14	22/04/2010
33112449	M01AE14	25/05/2009
33013406	M01AE14	11/10/2002
33093712	M01AE14	06/03/2009
33052130	M01AE14	07/12/2006
33038820	M01AE14	05/04/2011
33083327	M01AE14	10/08/2009
33055310	M01AE14	04/01/2007
33019290	M01AE14	27/05/2003
33079795	M01AE14	15/06/2010
33114231	M01AE14	23/05/2008
33047551	M01AE14	06/02/2002
33006134	M01AE14	23/07/2003
33098337	M01AE14	30/07/2002
33123534	M01AE14	05/03/2007
33054043	M01AE14	17/12/2002
33052953	M01AE14	17/05/2011
33086351	M01AE14	23/04/2004
33051529	M01AE14	23/03/2010
33056441	M01AE14	14/04/2003
33003107	M01AE14	04/09/2006
33058796	M01AE14	02/01/2008
33000142	M01AE14	24/05/2004
33064152	M01AE14	19/12/2007
33084983	M01AE14	20/01/2005
33083974	M01AE14	17/07/2003
33026052	M01AE14	20/10/2009
33072776	M01AE14	11/02/2009
33102563	M01AE14	09/03/2005
33068552	M01AE14	20/05/2011
33066001	M01AE14	11/03/2009
33026145	M01AE14	05/11/2004
33037551	M01AE14	02/02/2010
26704007	M01AE14	24/01/2011
27798304	M01AE14	28/02/2006
27720541	M01AE14	06/08/2009
33053742	M01AE14	28/04/2008
33110551	M01AE14	06/03/2009
21650459	M01AE14	16/08/2005
33043382	M01AE14	28/09/2007
33042521	M01AE14	09/04/2002
27800055	M01AE14	31/10/2006
2989892	M01AE14	02/09/2005
27794998	M01AE14	20/07/2004
26718844	M01AE14	22/03/2006
1905033	M01AE14	07/02/2011
11221352	M01AE14	04/12/2008
27800558	M01AE14	18/08/2004
27800265	M01AE14	06/07/2009
27798156	M01AE14	19/10/2005
27805343	M01AE14	17/11/2009
33072648	M01AE14	11/09/2006
33011062	M01AE14	24/02/2011
33020523	M01AE14	22/08/2003
16177914	M01AE14	28/02/2002
16774501	M01AE14	15/06/2006
16773808	M01AE14	05/03/2009
16713414	M01AE14	14/09/2004
33000835	M01AE14	07/04/2006
16626027	M01AE14	13/02/2009
33072639	M01AE14	07/09/2006
33077626	M01AE14	05/05/2008
33007194	M01AE14	01/06/2004
33113958	M01AE14	10/12/2003
33105641	M01AE14	02/09/2009
33051688	M01AE14	02/03/2004
33019674	M01AE14	08/09/2006
33083790	M01AE14	18/11/2010
33033258	M01AE14	17/12/2007
33020265	M01AE14	27/11/2008
33054845	M01AE14	25/05/2005
33099079	M01AE14	18/02/2003
33106850	M01AE14	14/11/2008
33105746	M01AE14	27/10/2003
33050802	M01AE14	09/12/2005
33054553	M01AE14	25/04/2007
33089297	M01AE14	27/03/2007
33083395	M01AE14	23/08/2007
33033679	M01AE14	22/04/2004
33013638	M01AE14	10/02/2006
33053569	M01AE14	22/02/2005
33044433	M01AE14	07/04/2008
33079595	M01AE14	07/01/2008
33060011	M01AE14	29/03/2011
33101101	M01AE14	14/04/2005
33034158	M01AE14	16/04/2002
33049405	M01AE14	06/09/2005
33104786	M01AE14	12/07/2005
33111035	M01AE14	18/05/2011
33000875	M01AE14	17/09/2008
33074478	M01AE14	23/08/2004
33087238	M01AE14	05/01/2009
33053146	M01AE14	31/10/2008
33107252	M01AE14	17/03/2004
33012899	M01AE14	01/04/2004
33065950	M01AE14	19/07/2007
33002563	M01AE14	18/08/2004
33026483	M01AE14	21/01/2004
33073688	M01AE14	01/02/2005
33033838	M01AE14	18/05/2010
33034268	M01AE14	14/01/2003
33005144	M01AE14	16/12/2008
33030998	M01AE14	25/02/2002
33046881	M01AE14	13/05/2003
33105580	M01AE14	16/12/2004
33093006	M01AE14	22/08/2008
33026619	M01AE14	21/08/2008
33028356	M01AE14	05/08/2004
33044430	M01AE14	16/07/2008
33073437	M01AE14	02/09/2003
33021513	M01AE14	21/02/2006
33112092	M01AE14	25/05/2009
33001520	M01AE14	20/07/2006
33047751	M01AE14	15/04/2008
33033745	M01AE14	24/05/2005
33073480	M01AE14	05/05/2005
33091039	M01AE14	08/04/2008
33073595	M01AE14	26/02/2009
33063376	M01AE14	14/11/2003
33027073	M01AE14	01/09/2004
33050260	M01AE14	26/05/2004
16774206	M01AE14	25/01/2008
16625249	M01AE14	17/11/2005
23407899	M01AE14	11/01/2011
20983685	M01AE14	17/12/2008
18757441	M01AE14	14/11/2005
20983733	M01AE14	11/01/2010
33311910	M01AE14	14/07/2010
33233059	M01AE14	24/06/2003
33231880	M01AE14	20/05/2009
23328953	M01AE14	28/08/2007
27865401	M01AE14	09/01/2009
33315483	M01AE14	06/05/2009
16626135	M01AE14	07/04/2004
16639019	M01AE14	15/11/2010
16713081	M01AE14	18/08/2008
16712016	M01AE14	08/01/2009
23354763	M01AE14	04/02/2008
16599304	M01AE14	07/10/2003
23351320	M01AE14	27/05/2010
23371267	M01AE14	10/08/2005
33227221	M01AE14	28/01/2011
16684643	M01AE14	25/07/2008
24463048	M01AE14	23/10/2009
23397279	M01AE14	14/04/2011
20983964	M01AE14	10/07/2009
23346872	M01AE14	03/03/2008
16124869	M01AE14	15/11/2002
21011388	M01AE14	24/02/2011
20987632	M01AE14	15/04/2011
20985576	M01AE14	16/10/2007
23333330	M01AE14	27/10/2004
20987995	M01AE14	11/08/2004
20981566	M01AE14	19/10/2004
16634720	M01AE14	24/03/2010
16707846	M01AE14	18/08/2005
16603648	M01AE14	24/01/2005
16602618	M01AE14	04/06/2007
31032403	M01AE14	06/02/2007
33245098	M01AE14	29/08/2008
24139993	M01AE14	16/07/2002
23401637	M01AE14	05/02/2010
23402638	M01AE14	21/01/2010
33309131	M01AE14	27/04/2010
20987775	M01AE14	14/09/2009
16603341	M01AE14	11/09/2003
33244898	M01AE14	25/07/2005
23351379	M01AE14	09/01/2004
16186784	M01AE14	10/09/2004
23381192	M01AE14	07/03/2005
20987135	M01AE14	19/08/2005
16633737	M01AE14	11/06/2004
16127748	M01AE14	21/08/2004
23401605	M01AE14	19/10/2010
20987322	M01AE14	15/03/2010
21114820	M01AE14	24/02/2008
16187426	M01AE14	24/01/2005
20988122	M01AE14	29/01/2009
32077830	M01AE14	13/07/2006
31856871	M01AE14	21/03/2006
31969796	M01AE14	30/03/2005
31297945	M01AE14	26/01/2006
31237591	M01AE14	16/05/2005
31081770	M01AE14	16/07/2007
31224867	M01AE14	08/01/2008
31073820	M01AE14	19/11/2004
31191853	M01AE14	12/02/2003
31364257	M01AE14	07/04/2003
31941393	M01AE14	01/12/2009
31567335	M01AE14	31/07/2003
31479374	M01AE14	17/02/2004
31979808	M01AE14	26/01/2005
31749706	M01AE14	13/10/2008
31071465	M01AE14	07/07/2004
32053121	M01AE14	03/08/2006
31509040	M01AE14	25/09/2009
31213209	M01AE14	01/12/2003
31043915	M01AE14	30/03/2007
32179446	M01AE14	04/02/2009
31224811	M01AE14	02/02/2011
31263182	M01AE14	24/09/2008
31765237	M01AE14	11/12/2006
31451599	M01AE14	25/05/2005
31924386	M01AE14	13/06/2007
32117832	M01AE14	18/05/2005
31576464	M01AE14	01/10/2009
31559608	M01AE14	03/09/2003
31111511	M01AE14	27/07/2006
31554764	M01AE14	28/08/2008
31672262	M01AE14	07/06/2002
31816975	M01AE14	02/03/2009
31999224	M01AE14	26/01/2006
32059128	M01AE14	20/09/2007
31479727	M01AE14	27/01/2005
31679755	M01AE14	22/05/2009
31675988	M01AE14	11/09/2007
32008853	M01AE14	02/10/2006
31362262	M01AE14	10/06/2009
31930395	M01AE14	17/10/2006
31844189	M01AE14	16/12/2003
31841184	M01AE14	18/02/2008
32054028	M01AE14	14/05/2008
31290105	M01AE14	21/07/2005
31112167	M01AE14	22/09/2006
32079219	M01AE14	05/07/2010
31134812	M01AE14	10/09/2004
31225273	M01AE14	26/08/2004
32250577	M01AE14	09/08/2004
31530639	M01AE14	22/10/2009
31538568	M01AE14	11/03/2002
31457261	M01AE14	21/09/2010
31094159	M01AE14	02/02/2005
31121989	M01AE14	29/01/2009
31977169	M01AE14	03/11/2008
32064089	M01AE14	21/04/2004
31255889	M01AE14	13/12/2006
31099804	M01AE14	26/10/2006
31704498	M01AE14	29/09/2005
32024263	M01AE14	14/10/2004
31150559	M01AE14	14/01/2008
31224124	M01AE14	07/12/2004
31774623	M01AE14	22/03/2005
31373776	M01AE14	10/12/2009
31811051	M01AE14	14/10/2008
32202990	M01AE14	29/09/2006
32068502	M01AE14	29/11/2004
31665027	M01AE14	12/05/2005
31176048	M01AE14	08/01/2008
31407204	M01AE14	04/02/2005
31298030	M01AE14	30/10/2008
31359281	M01AE14	18/03/2008
32009136	M01AE14	30/01/2006
31956953	M01AE14	14/02/2006
31548186	M01AE14	16/05/2008
31099394	M01AE14	28/09/2004
31622713	M01AE14	12/05/2005
31086702	M01AE14	22/06/2005
31660454	M01AE14	17/11/2003
31390850	M01AE14	25/08/2008
32075858	M01AE14	02/07/2008
32067477	M01AE14	01/09/2009
31512852	M01AE14	25/07/2003
31428822	M01AE14	30/08/2007
32178986	M01AE14	04/03/2009
31186394	M01AE14	16/01/2002
31741824	M01AE14	03/09/2008
31583115	M01AE14	25/11/2008
31844771	M01AE14	01/06/2007
31341608	M01AE14	29/09/2003
31448523	M01AE14	25/01/2010
32156100	M01AE14	16/03/2007
31412392	M01AE14	12/06/2007
31319729	M01AE14	12/08/2005
32017201	M01AE14	22/08/2006
31815136	M01AE14	17/12/2008
31667251	M01AE14	29/10/2003
32051470	M01AE14	20/12/2002
31266863	M01AE14	25/01/2010
31234634	M01AE14	24/09/2007
31313726	M01AE14	13/03/2009
31119403	M01AE14	09/04/2007
31138935	M01AE14	07/05/2003
31523575	M01AE14	20/05/2005
32146190	M01AE14	10/11/2004
31782561	M01AE14	02/03/2007
31128087	M01AE14	25/06/2004
31879064	M01AE14	04/04/2007
31439920	M01AE14	28/09/2007
31507430	M01AE14	14/06/2004
31843748	M01AE14	04/04/2006
32221449	M01AE14	05/10/2005
31558539	M01AE14	13/05/2003
31442504	M01AE14	03/03/2011
31766471	M01AE14	08/03/2007
31120652	M01AE14	27/04/2007
31588731	M01AE14	24/03/2004
31406905	M01AE14	13/12/2010
32179849	M01AE14	12/12/2005
31271546	M01AE14	03/07/2002
31501864	M01AE14	25/02/2004
31082208	M01AE14	18/10/2005
32176725	M01AE14	23/04/2004
31384268	M01AE14	19/03/2007
32111703	M01AE14	08/02/2005
31163346	M01AE14	05/10/2006
32093674	M01AE14	18/09/2009
32042320	M01AE14	15/10/2008
32030718	M01AE14	22/09/2009
31847116	M01AE14	11/02/2009
31198415	M01AE14	26/05/2004
31336014	M01AE14	13/01/2004
31303440	M01AE14	22/01/2002
32068625	M01AE14	30/09/2008
32121529	M01AE14	13/02/2002
32087798	M01AE14	31/10/2005
31031831	M01AE14	27/02/2007
31519560	M01AE14	02/04/2002
32141842	M01AE14	12/09/2006
31575028	M01AE14	14/03/2003
31325838	M01AE14	17/11/2003
31948243	M01AE14	19/10/2007
31283871	M01AE14	16/07/2009
31974995	M01AE14	13/03/2008
31846347	M01AE14	22/12/2006
31919027	M01AE14	30/04/2007
31702748	M01AE14	07/04/2003
31375081	M01AE14	12/03/2007
31084479	M01AE14	02/12/2008
31186532	M01AE14	10/06/2010
31795710	M01AE14	09/04/2007
31729171	M01AE14	31/03/2009
32111220	M01AE14	21/01/2003
31400190	M01AE14	02/07/2007
31127796	M01AE14	31/08/2005
31647102	M01AE14	10/12/2008
31257024	M01AE14	21/10/2003
32217404	M01AE14	25/08/2004
31159337	M01AE14	13/04/2007
31782048	M01AE14	10/03/2006
32278300	M01AE14	09/05/2003
32277182	M01AE14	24/03/2009
31283613	M01AE14	21/01/2003
32020359	M01AE14	19/10/2005
32197317	M01AE14	07/11/2002
32141437	M01AE14	08/10/2002
31283245	M01AE14	20/05/2009
31767577	M01AE14	07/05/2004
31229693	M01AE14	03/09/2007
31399659	M01AE14	15/07/2004
31882211	M01AE14	08/11/2004
32250952	M01AE14	17/11/2003
31333013	M01AE14	19/01/2006
31335773	M01AE14	23/05/2007
31385542	M01AE14	09/02/2007
31744317	M01AE14	06/02/2006
31639285	M01AE14	02/02/2004
31427676	M01AE14	15/04/2008
32152276	M01AE14	23/05/2005
31448770	M01AE14	12/03/2008
32105523	M01AE14	09/10/2008
31244108	M01AE14	24/06/2004
31088663	M01AE14	25/06/2003
31703754	M01AE14	28/09/2010
31102748	M01AE14	19/08/2008
31526498	M01AE14	10/12/2008
31568832	M01AE14	04/03/2008
31826728	M01AE14	05/09/2005
31073361	M01AE14	20/08/2009
31241258	M01AE14	21/07/2010
31378626	M01AE14	03/06/2009
32281524	M01AE14	06/10/2006
31475204	M01AE14	25/06/2003
31522715	M01AE14	11/06/2002
31067211	M01AE14	18/03/2005
31182204	M01AE14	17/01/2008
31559291	M01AE14	01/04/2004
31738650	M01AE14	30/03/2009
31964287	M01AE14	12/04/2005
31314418	M01AE14	20/02/2007
31166106	M01AE14	14/09/2004
31814249	M01AE14	04/09/2007
32152072	M01AE14	23/03/2006
31899674	M01AE14	25/06/2009
31685580	M01AE14	04/01/2006
32045046	M01AE14	05/05/2004
32132667	M01AE14	22/01/2007
31790134	M01AE14	21/09/2004
32019277	M01AE14	06/09/2006
31290437	M01AE14	12/05/2008
32120883	M01AE14	14/06/2002
31861821	M01AE14	19/06/2006
31918461	M01AE14	24/05/2007
31566932	M01AE14	16/04/2004
31923548	M01AE14	27/11/2008
31793463	M01AE14	12/06/2002
31464524	M01AE14	23/04/2004
31705997	M01AE14	07/02/2005
31895616	M01AE14	25/02/2004
31216478	M01AE14	27/08/2010
