patient_id	covar_name	date
9230338	M05BX03	17/04/2006
9135592	M05BX03	27/01/2009
8570357	M05BX03	11/06/2008
21871733	M05BX03	07/05/2008
5812917	M05BX03	20/04/2011
702188	M05BX03	10/05/2011
9310935	M05BX03	16/06/2010
8278287	M05BX03	27/05/2011
731962	M05BX03	05/03/2008
1331185	M05BX03	03/07/2007
8786041	M05BX03	17/11/2008
17216427	M05BX03	25/05/2011
209647	M05BX03	19/04/2011
1069182	M05BX03	29/05/2006
3123476	M05BX03	17/11/2009
14988136	M05BX03	04/04/2011
9274459	M05BX03	31/05/2011
23472293	M05BX03	13/05/2011
9388668	M05BX03	12/11/2007
20529711	M05BX03	27/05/2011
9250324	M05BX03	14/05/2007
1330095	M05BX03	08/07/2009
9386360	M05BX03	19/11/2007
20565596	M05BX03	06/05/2011
9377350	M05BX03	24/05/2011
16530907	M05BX03	11/08/2008
12790379	M05BX03	17/01/2008
12764196	M05BX03	05/05/2011
17215818	M05BX03	19/11/2008
9372568	M05BX03	22/01/2008
24730202	M05BX03	17/02/2006
12774422	M05BX03	23/11/2010
7967014	M05BX03	10/03/2011
1444948	M05BX03	22/06/2009
645707	M05BX03	23/02/2009
1203945	M05BX03	04/05/2011
4700733	M05BX03	31/05/2011
540258	M05BX03	08/10/2008
6212365	M05BX03	26/01/2006
1198913	M05BX03	16/03/2011
5992267	M05BX03	19/03/2007
7966714	M05BX03	11/05/2011
7967744	M05BX03	23/03/2010
6212704	M05BX03	12/11/2010
1090623	M05BX03	21/06/2006
24941748	M05BX03	15/01/2008
1295976	M05BX03	27/05/2011
716428	M05BX03	24/05/2011
7967487	M05BX03	20/05/2011
25904628	M05BX03	25/02/2010
891364	M05BX03	27/04/2006
1135359	M05BX03	04/04/2011
716180	M05BX03	06/05/2011
1101989	M05BX03	26/05/2009
1855343	M05BX03	22/10/2010
487173	M05BX03	23/08/2005
1110455	M05BX03	02/11/2009
2043156	M05BX03	21/05/2011
2059046	M05BX03	18/11/2010
2070964	M05BX03	23/08/2010
1638660	M05BX03	26/04/2011
2041465	M05BX03	14/02/2011
2140245	M05BX03	17/10/2006
1755901	M05BX03	09/12/2010
1765422	M05BX03	28/04/2011
904619	M05BX03	27/04/2009
1763515	M05BX03	26/05/2008
902525	M05BX03	07/05/2008
1762017	M05BX03	01/10/2007
1766657	M05BX03	28/02/2006
6434327	M05BX03	21/04/2008
3054506	M05BX03	26/04/2011
2219670	M05BX03	11/05/2011
2574919	M05BX03	09/06/2010
2756223	M05BX03	24/03/2009
2407465	M05BX03	01/06/2007
2525973	M05BX03	01/06/2011
26441845	M05BX03	13/07/2007
20673582	M05BX03	17/06/2008
11116272	M05BX03	15/04/2010
17041018	M05BX03	14/04/2011
2958823	M05BX03	23/05/2011
28077299	M05BX03	05/04/2011
2755660	M05BX03	09/05/2011
650372	M05BX03	17/05/2011
419430	M05BX03	04/03/2010
305231	M05BX03	04/09/2007
28087444	M05BX03	03/06/2008
28043342	M05BX03	16/10/2007
25742680	M05BX03	19/06/2006
24658550	M05BX03	25/02/2008
25742981	M05BX03	20/11/2007
25743009	M05BX03	11/12/2007
40180	M05BX03	02/02/2011
1368854	M05BX03	04/03/2011
8049938	M05BX03	22/05/2011
2965411	M05BX03	21/11/2006
26621036	M05BX03	14/03/2007
26620804	M05BX03	09/05/2011
25740714	M05BX03	09/02/2007
26936348	M05BX03	29/05/2011
26934241	M05BX03	09/05/2011
26899997	M05BX03	22/07/2008
26845956	M05BX03	23/08/2007
26801817	M05BX03	06/03/2009
26825165	M05BX03	13/11/2009
27086147	M05BX03	25/08/2006
27082854	M05BX03	20/10/2008
27037293	M05BX03	05/10/2007
27042092	M05BX03	24/05/2011
27369270	M05BX03	29/02/2008
27365421	M05BX03	22/12/2009
27396771	M05BX03	17/12/2010
27308692	M05BX03	25/10/2008
27528333	M05BX03	07/12/2007
26998337	M05BX03	19/08/2010
27577033	M05BX03	25/05/2011
27443971	M05BX03	03/07/2007
27474475	M05BX03	12/01/2011
27720067	M05BX03	25/09/2007
27144885	M05BX03	26/07/2006
12974157	M05BX03	24/05/2011
266530	M05BX03	22/05/2008
27780243	M05BX03	20/05/2011
27679924	M05BX03	18/08/2005
27778908	M05BX03	03/05/2011
27530889	M05BX03	01/06/2011
27687190	M05BX03	28/12/2006
301444	M05BX03	08/05/2011
27674197	M05BX03	23/10/2008
27574050	M05BX03	24/11/2008
27244108	M05BX03	12/12/2006
27783945	M05BX03	11/05/2011
27715841	M05BX03	30/03/2006
27797699	M05BX03	25/05/2011
26642896	M05BX03	06/05/2011
27591732	M05BX03	27/05/2011
33061832	M05BX03	13/05/2011
33061791	M05BX03	11/10/2007
33086083	M05BX03	11/03/2010
33046386	M05BX03	13/02/2009
33099866	M05BX03	31/05/2011
33108978	M05BX03	31/05/2011
33008734	M05BX03	08/05/2011
22882894	M05BX03	14/04/2011
26637123	M05BX03	31/05/2011
2959756	M05BX03	28/08/2008
33086713	M05BX03	29/05/2011
21115965	M05BX03	23/02/2009
33298715	M05BX03	29/05/2009
33041177	M05BX03	10/11/2006
33106625	M05BX03	14/04/2010
33034590	M05BX03	24/05/2011
33097532	M05BX03	28/10/2009
33050859	M05BX03	08/01/2010
33049967	M05BX03	06/08/2007
33030474	M05BX03	22/04/2009
33025659	M05BX03	01/06/2011
16625249	M05BX03	18/01/2007
23407899	M05BX03	28/03/2008
33308590	M05BX03	23/05/2011
23363972	M05BX03	12/05/2011
28029025	M05BX03	14/04/2010
16177768	M05BX03	31/05/2011
16773932	M05BX03	03/03/2009
16184630	M05BX03	25/03/2009
16636874	M05BX03	01/04/2011
21110120	M05BX03	15/04/2011
23401564	M05BX03	24/01/2007
16623061	M05BX03	02/07/2010
27914060	M05BX03	26/05/2011
16708154	M05BX03	28/01/2009
23326417	M05BX03	26/05/2009
23325465	M05BX03	20/05/2011
20987632	M05BX03	22/05/2011
23315883	M05BX03	17/11/2008
28013056	M05BX03	12/05/2011
23349644	M05BX03	10/12/2009
23369475	M05BX03	27/05/2011
16602997	M05BX03	19/01/2010
16623344	M05BX03	10/03/2011
33244556	M05BX03	05/12/2006
20985996	M05BX03	11/05/2011
33309439	M05BX03	28/10/2008
31472385	M05BX03	30/11/2010
31935432	M05BX03	20/12/2010
31445246	M05BX03	23/03/2009
32133889	M05BX03	19/12/2008
31117278	M05BX03	04/06/2008
32246675	M05BX03	16/10/2007
32194913	M05BX03	18/12/2007
32185300	M05BX03	09/03/2009
31462347	M05BX03	11/01/2008
31428879	M05BX03	05/09/2008
31666781	M05BX03	20/12/2006
32063312	M05BX03	25/11/2005
31268632	M05BX03	15/01/2009
32141818	M05BX03	20/12/2006
32084253	M05BX03	12/11/2009
31334936	M05BX03	08/07/2010
31418145	M05BX03	30/12/2010
32105750	M05BX03	21/09/2009
31224124	M05BX03	30/07/2010
32251012	M05BX03	05/03/2007
31941625	M05BX03	07/11/2005
31426404	M05BX03	30/12/2008
31108337	M05BX03	05/09/2007
31646804	M05BX03	16/08/2007
31301711	M05BX03	02/12/2008
31919868	M05BX03	01/03/2011
31767484	M05BX03	11/04/2011
32018038	M05BX03	26/09/2007
31288965	M05BX03	14/06/2006
31383318	M05BX03	30/03/2007
31844771	M05BX03	20/05/2008
32017201	M05BX03	07/07/2008
31138935	M05BX03	16/08/2007
32010101	M05BX03	10/06/2009
31236567	M05BX03	30/06/2010
31561927	M05BX03	17/11/2009
32061586	M05BX03	26/09/2007
32159787	M05BX03	28/04/2006
31552136	M05BX03	19/04/2011
31132462	M05BX03	04/12/2007
31849525	M05BX03	10/07/2008
31720996	M05BX03	21/09/2010
32093203	M05BX03	16/11/2007
31901788	M05BX03	20/10/2010
31804843	M05BX03	26/01/2011
31890800	M05BX03	04/12/2009
32228144	M05BX03	13/12/2009
31653458	M05BX03	03/08/2006
31303492	M05BX03	21/01/2011
31325838	M05BX03	05/11/2007
31434858	M05BX03	10/03/2011
31962165	M05BX03	14/10/2005
31777213	M05BX03	17/11/2008
31337640	M05BX03	21/10/2009
31800281	M05BX03	18/01/2007
31443039	M05BX03	14/06/2007
31755351	M05BX03	11/05/2009
31679948	M05BX03	21/03/2011
31759943	M05BX03	10/07/2008
31937215	M05BX03	21/11/2008
32020713	M05BX03	15/12/2008
31830506	M05BX03	13/09/2007
32210034	M05BX03	05/05/2011
31770506	M05BX03	10/12/2009
31700564	M05BX03	17/11/2009
32105280	M05BX03	14/07/2010
31045114	M05BX03	24/10/2007
31102716	M05BX03	18/05/2006
31851205	M05BX03	26/08/2010
31148510	M05BX03	18/02/2010
31888473	M05BX03	20/05/2011
