patient_id	covar_name	date
6417535	N05BA91	16/05/2011
8555575	N05BA91	25/08/2006
3123476	N05BA91	03/08/2001
25071236	N05BA91	05/01/2007
3328431	N05BA91	28/08/2009
6415215	N05BA91	29/06/2010
640926	N05BA91	07/04/2005
524498	N05BA91	09/05/2011
4447846	N05BA91	09/06/2007
6425452	N05BA91	14/04/2011
717026	N05BA91	15/09/2005
717746	N05BA91	19/12/2005
2136554	N05BA91	10/08/2010
2143165	N05BA91	11/12/2007
2142935	N05BA91	01/02/2010
2139488	N05BA91	05/01/2010
2143938	N05BA91	20/04/2005
2525759	N05BA91	14/03/2003
7136599	N05BA91	22/09/2008
28042811	N05BA91	01/12/2005
18223828	N05BA91	18/07/2008
2525880	N05BA91	20/09/2004
28052808	N05BA91	25/05/2011
28087444	N05BA91	16/05/2011
28054205	N05BA91	01/07/2009
28046187	N05BA91	25/05/2010
25741980	N05BA91	25/02/2011
1015918	N05BA91	24/05/2011
26877189	N05BA91	17/10/2010
26991297	N05BA91	16/10/2008
27384510	N05BA91	11/06/2009
27168989	N05BA91	18/08/2004
26953757	N05BA91	15/04/2011
27546225	N05BA91	08/04/2003
33086922	N05BA91	13/01/2011
33112449	N05BA91	18/10/2010
33003806	N05BA91	28/06/2002
33026052	N05BA91	22/06/2007
16177914	N05BA91	15/03/2001
21109127	N05BA91	26/03/2009
33103405	N05BA91	06/05/2011
33089335	N05BA91	03/02/2006
33079612	N05BA91	12/04/2005
16181675	N05BA91	16/09/2004
16648802	N05BA91	18/05/2004
33228285	N05BA91	01/06/2011
21102557	N05BA91	18/09/2009
21109126	N05BA91	31/05/2010
28028670	N05BA91	25/05/2011
33224242	N05BA91	23/05/2011
16623063	N05BA91	23/09/2009
21110370	N05BA91	18/09/2007
33244556	N05BA91	25/06/2008
21110578	N05BA91	20/05/2008
31285328	N05BA91	11/09/2006
31118692	N05BA91	04/01/2011
31507513	N05BA91	17/11/2008
31979808	N05BA91	09/10/2006
31260334	N05BA91	15/10/2010
32251733	N05BA91	09/05/2006
31722801	N05BA91	29/12/2009
31393112	N05BA91	28/04/2010
31049500	N05BA91	29/12/2009
31618587	N05BA91	07/10/2004
31452596	N05BA91	21/12/2009
32270489	N05BA91	29/11/2010
31795919	N05BA91	14/03/2002
32089318	N05BA91	26/11/2009
31370484	N05BA91	04/02/2009
31223044	N05BA91	18/11/2008
31527057	N05BA91	20/04/2006
31992521	N05BA91	23/12/2010
32204377	N05BA91	13/08/2004
31356177	N05BA91	02/06/2004
31792078	N05BA91	08/04/2003
31366968	N05BA91	05/12/2006
31205582	N05BA91	12/02/2007
31696878	N05BA91	17/03/2010
31415742	N05BA91	07/05/2003
31834979	N05BA91	02/09/2002
31592928	N05BA91	22/09/2010
31090012	N05BA91	15/10/2003
32168370	N05BA91	21/04/2010
31569773	N05BA91	19/06/2003
31228032	N05BA91	26/10/2006
31462224	N05BA91	22/12/2009
31169643	N05BA91	01/06/2005
