patient_id	covar_name	date
208481	N03AA02	03/01/2011
23471645	N03AA02	18/05/2011
16559483	N03AA02	20/04/2011
6182078	N03AA02	15/03/2011
8987413	N03AA02	08/10/2002
9304423	N03AA02	17/05/2011
12242307	N03AA02	20/01/2005
1546390	N03AA02	18/05/2005
12431570	N03AA02	30/01/2009
24940609	N03AA02	11/05/2011
1426026	N03AA02	06/05/2011
640203	N03AA02	12/03/2002
2766317	N03AA02	08/04/2011
2407446	N03AA02	24/05/2011
18471502	N03AA02	16/05/2011
26217958	N03AA02	22/03/2011
21386520	N03AA02	24/03/2011
20070622	N03AA02	23/08/2010
420291	N03AA02	18/05/2011
1018757	N03AA02	25/05/2011
1363174	N03AA02	24/05/2011
26629409	N03AA02	31/05/2011
26621036	N03AA02	16/05/2011
26628935	N03AA02	16/05/2011
22923362	N03AA02	14/02/2010
12976348	N03AA02	14/12/2010
21064366	N03AA02	25/04/2011
13871955	N03AA02	17/03/2008
26621367	N03AA02	31/05/2011
24579453	N03AA02	26/05/2011
26938432	N03AA02	17/08/2005
26801817	N03AA02	08/03/2011
26939961	N03AA02	28/06/2005
26945995	N03AA02	11/05/2011
26982772	N03AA02	29/01/2007
26994987	N03AA02	06/05/2011
27000676	N03AA02	12/03/2009
27011221	N03AA02	17/05/2011
27138466	N03AA02	29/05/2011
27303624	N03AA02	30/05/2011
27168989	N03AA02	10/05/2011
27303501	N03AA02	27/05/2011
27218860	N03AA02	04/04/2011
27577033	N03AA02	19/05/2011
27647983	N03AA02	20/05/2011
27756700	N03AA02	06/05/2011
27607212	N03AA02	12/05/2004
27284523	N03AA02	27/01/2010
27144708	N03AA02	05/10/2010
22882517	N03AA02	28/03/2011
4323138	N03AA02	18/02/2006
27707188	N03AA02	17/05/2011
27765159	N03AA02	26/05/2011
26848080	N03AA02	20/04/2011
27680464	N03AA02	06/04/2011
33028018	N03AA02	04/02/2009
23408318	N03AA02	30/09/2004
16708134	N03AA02	20/05/2011
16610132	N03AA02	15/02/2011
23313268	N03AA02	16/05/2011
33235211	N03AA02	19/05/2011
16649316	N03AA02	19/12/2005
31515657	N03AA02	29/12/2010
31627476	N03AA02	22/07/2008
31032015	N03AA02	30/12/2009
31033667	N03AA02	21/11/2003
31662126	N03AA02	27/01/2009
31198523	N03AA02	22/01/2009
31090531	N03AA02	18/04/2011
31174566	N03AA02	04/12/2008
31597401	N03AA02	19/03/2001
31115951	N03AA02	03/11/2010
32261215	N03AA02	30/03/2011
31289840	N03AA02	28/07/2010
31417773	N03AA02	05/01/2011
32132565	N03AA02	06/08/2010
32276889	N03AA02	02/02/2011
31376100	N03AA02	28/09/2007
31818089	N03AA02	14/05/2011
31166412	N03AA02	20/05/2004
