patient_id	covar_name	date
15035491	N02CC01	08/04/2011
9135592	N02CC01	23/05/2011
3300695	N02CC01	03/04/2003
24764457	N02CC01	29/09/2010
16977385	N02CC01	20/07/2009
17169198	N02CC01	25/04/2011
9995113	N02CC01	27/09/2007
702533	N02CC01	30/11/2009
10392001	N02CC01	13/02/2008
16088112	N02CC01	19/05/2009
1936284	N02CC01	17/06/2008
1331516	N02CC01	23/04/2010
8786640	N02CC01	29/01/2004
10271445	N02CC01	10/07/2008
3320517	N02CC01	15/03/2006
610570	N02CC01	04/03/2011
23472450	N02CC01	17/12/2010
601168	N02CC01	29/04/2004
612357	N02CC01	17/11/2003
3333819	N02CC01	21/06/2004
10269135	N02CC01	09/02/2010
3938143	N02CC01	17/11/2005
1607459	N02CC01	14/12/2009
12688862	N02CC01	14/01/2011
9210173	N02CC01	19/07/2004
12730840	N02CC01	07/07/2004
9376220	N02CC01	08/08/2006
9388668	N02CC01	14/01/2009
11992671	N02CC01	13/12/2001
6748205	N02CC01	06/09/2010
8642170	N02CC01	26/03/2010
8976217	N02CC01	31/07/2006
8983444	N02CC01	08/06/2006
9328973	N02CC01	10/05/2011
10392791	N02CC01	25/11/2010
9210774	N02CC01	03/03/2010
697976	N02CC01	25/10/2005
10247185	N02CC01	06/09/2007
8786315	N02CC01	12/03/2002
3333134	N02CC01	03/05/2011
939363	N02CC01	17/10/2008
12185915	N02CC01	07/10/2009
24724353	N02CC01	06/08/2004
3318580	N02CC01	16/09/2010
9310256	N02CC01	17/05/2010
6143377	N02CC01	19/12/2007
20548457	N02CC01	29/03/2001
1634902	N02CC01	21/09/2010
3292477	N02CC01	24/10/2008
751585	N02CC01	29/12/2006
437691	N02CC01	05/06/2003
6595352	N02CC01	13/02/2004
7849372	N02CC01	21/12/2006
7801964	N02CC01	12/12/2006
18142516	N02CC01	01/06/2011
539256	N02CC01	17/01/2007
6592990	N02CC01	17/06/2002
8357140	N02CC01	27/11/2009
7849206	N02CC01	16/06/2005
13987314	N02CC01	17/07/2003
9873112	N02CC01	04/11/2010
1066253	N02CC01	19/11/2004
1134735	N02CC01	01/08/2007
25922895	N02CC01	19/04/2011
717738	N02CC01	08/11/2005
6514597	N02CC01	23/01/2007
12636453	N02CC01	03/01/2011
1135406	N02CC01	11/04/2006
2044424	N02CC01	22/07/2010
876747	N02CC01	06/02/2007
1683577	N02CC01	14/10/2009
1682937	N02CC01	21/09/2005
2774863	N02CC01	22/07/2005
7128969	N02CC01	14/03/2011
2522350	N02CC01	23/03/2005
11163757	N02CC01	03/05/2011
26583203	N02CC01	15/05/2009
20033277	N02CC01	13/08/2007
26579927	N02CC01	15/05/2007
26384436	N02CC01	18/08/2009
1911118	N02CC01	26/03/2003
419475	N02CC01	21/12/2009
180748	N02CC01	26/01/2006
2962660	N02CC01	21/04/2004
28065857	N02CC01	01/12/2009
875817	N02CC01	05/09/2001
28091118	N02CC01	10/11/2006
181538	N02CC01	17/08/2005
876334	N02CC01	22/12/2004
24664876	N02CC01	12/05/2005
927483	N02CC01	10/12/2009
421963	N02CC01	25/10/2006
1370928	N02CC01	21/02/2007
1371126	N02CC01	27/02/2008
18191207	N02CC01	09/04/2001
16568733	N02CC01	20/05/2011
1371776	N02CC01	30/07/2010
2958103	N02CC01	22/08/2003
12975498	N02CC01	08/08/2003
16810184	N02CC01	04/02/2008
14309906	N02CC01	25/06/2009
26935041	N02CC01	05/09/2007
26917769	N02CC01	13/06/2006
26877945	N02CC01	18/05/2011
26877090	N02CC01	19/04/2011
26868499	N02CC01	23/02/2007
26872935	N02CC01	29/04/2011
26730688	N02CC01	16/07/2007
27149654	N02CC01	11/11/2005
27109851	N02CC01	04/02/2008
27379398	N02CC01	16/08/2006
27396581	N02CC01	08/07/2009
27399841	N02CC01	04/05/2007
27369620	N02CC01	11/12/2009
26954109	N02CC01	19/02/2010
27476292	N02CC01	16/11/2009
27614461	N02CC01	20/08/2007
27633199	N02CC01	03/10/2005
27663478	N02CC01	29/02/2008
24661879	N02CC01	08/09/2008
27591823	N02CC01	17/05/2011
27668939	N02CC01	03/04/2003
27676223	N02CC01	29/04/2011
26794931	N02CC01	28/04/2010
27574464	N02CC01	26/02/2008
27600262	N02CC01	24/08/2006
33062908	N02CC01	08/06/2007
33077836	N02CC01	27/09/2007
33012705	N02CC01	10/02/2011
33059229	N02CC01	11/11/2009
33033208	N02CC01	04/04/2007
16600442	N02CC01	20/05/2011
33013638	N02CC01	13/12/2005
33073628	N02CC01	15/11/2005
23381129	N02CC01	15/05/2008
16611189	N02CC01	26/11/2003
33293731	N02CC01	28/05/2003
23382344	N02CC01	02/06/2008
16601120	N02CC01	07/01/2011
16124111	N02CC01	17/01/2002
21108023	N02CC01	28/05/2010
23401982	N02CC01	05/11/2003
16125584	N02CC01	01/12/2008
23402322	N02CC01	22/08/2007
31510513	N02CC01	02/09/2009
31946667	N02CC01	27/03/2009
31424539	N02CC01	13/11/2009
31590841	N02CC01	30/12/2008
31534993	N02CC01	27/01/2003
31391599	N02CC01	10/05/2006
31586559	N02CC01	15/12/2009
31175667	N02CC01	18/05/2009
31548910	N02CC01	16/02/2010
31388103	N02CC01	19/12/2007
31384308	N02CC01	05/12/2006
31352468	N02CC01	28/10/2008
31521473	N02CC01	05/08/2004
31266359	N02CC01	03/05/2007
31381448	N02CC01	21/07/2009
31469090	N02CC01	21/05/2009
31856987	N02CC01	10/03/2005
31290105	N02CC01	18/07/2007
31207253	N02CC01	05/04/2004
31141007	N02CC01	17/11/2009
31872807	N02CC01	21/06/2007
31852758	N02CC01	17/10/2002
31728108	N02CC01	12/08/2008
31065752	N02CC01	01/02/2007
31423757	N02CC01	22/09/2008
31907879	N02CC01	10/04/2011
31710838	N02CC01	10/12/2007
32164649	N02CC01	02/09/2010
32068499	N02CC01	13/09/2006
31350214	N02CC01	29/05/2008
31157137	N02CC01	17/12/2009
31127882	N02CC01	14/04/2009
31923754	N02CC01	11/04/2002
32115409	N02CC01	25/09/2007
31541366	N02CC01	25/08/2006
31711818	N02CC01	30/10/2009
31820615	N02CC01	09/01/2008
31697726	N02CC01	17/01/2006
32051143	N02CC01	11/11/2005
32282398	N02CC01	11/02/2009
31124331	N02CC01	16/11/2006
31811676	N02CC01	04/01/2006
32039642	N02CC01	30/07/2009
31128087	N02CC01	21/12/2001
31123518	N02CC01	05/10/2010
31565705	N02CC01	24/04/2006
31253964	N02CC01	17/12/2007
31032480	N02CC01	25/09/2003
31424056	N02CC01	17/02/2009
32057825	N02CC01	30/04/2003
32139036	N02CC01	24/08/2010
31948589	N02CC01	17/04/2009
31512689	N02CC01	27/08/2010
31520527	N02CC01	04/11/2010
31918858	N02CC01	25/09/2006
31085609	N02CC01	06/06/2008
31171145	N02CC01	04/11/2003
32207420	N02CC01	26/02/2009
31981251	N02CC01	02/12/2008
32166426	N02CC01	25/04/2007
31789154	N02CC01	27/03/2009
31913803	N02CC01	03/12/2004
31242021	N02CC01	17/09/2009
31361941	N02CC01	11/11/2010
31532642	N02CC01	14/07/2006
31726075	N02CC01	10/07/2009
31307579	N02CC01	22/10/2010
31062948	N02CC01	07/09/2005
31649595	N02CC01	05/02/2008
