patient_id	covar_name	date
9230404	N05BA12	26/06/2001
10270713	N05BA12	09/02/2009
6758571	N05BA12	15/11/2007
13223061	N05BA12	08/08/2007
9295830	N05BA12	03/02/2009
9221602	N05BA12	04/03/2011
8977102	N05BA12	03/09/2003
1937760	N05BA12	10/06/2009
8292476	N05BA12	23/02/2011
8582118	N05BA12	08/11/2002
8559182	N05BA12	27/08/2008
8652217	N05BA12	02/06/2008
6081230	N05BA12	23/11/2007
9302346	N05BA12	28/04/2010
9176899	N05BA12	04/02/2008
5031451	N05BA12	27/05/2011
132608	N05BA12	20/10/2010
9378394	N05BA12	20/01/2004
1731330	N05BA12	26/03/2003
21156478	N05BA12	03/12/2010
61487	N05BA12	03/01/2002
6756598	N05BA12	06/10/2009
18628739	N05BA12	09/05/2011
1063242	N05BA12	29/11/2010
15899686	N05BA12	14/09/2006
732079	N05BA12	25/10/2005
16919468	N05BA12	20/01/2010
21153398	N05BA12	19/05/2011
10245976	N05BA12	14/05/2004
16977385	N05BA12	20/05/2011
949238	N05BA12	17/05/2011
7489740	N05BA12	16/02/2010
8784206	N05BA12	20/10/2010
8294007	N05BA12	27/11/2006
15900439	N05BA12	28/04/2011
15384882	N05BA12	12/06/2007
8977394	N05BA12	01/03/2011
8293370	N05BA12	04/06/2008
8488643	N05BA12	21/09/2007
21153105	N05BA12	28/01/2011
6887463	N05BA12	10/10/2007
6079907	N05BA12	24/11/2010
9995414	N05BA12	19/07/2010
9283435	N05BA12	19/06/2006
9374894	N05BA12	06/05/2008
8293863	N05BA12	28/07/2008
3119947	N05BA12	25/02/2004
612920	N05BA12	21/05/2003
3500978	N05BA12	10/09/2010
9295478	N05BA12	11/03/2005
19184498	N05BA12	09/07/2010
21152552	N05BA12	31/01/2007
7246007	N05BA12	16/07/2007
1434506	N05BA12	23/12/2008
16927463	N05BA12	22/01/2004
16919759	N05BA12	08/03/2011
20564049	N05BA12	22/09/2010
9302851	N05BA12	14/07/2010
730169	N05BA12	14/04/2011
731962	N05BA12	27/04/2005
704332	N05BA12	04/02/2004
3322587	N05BA12	26/05/2011
608929	N05BA12	02/09/2009
1069504	N05BA12	11/08/2005
9389011	N05BA12	17/04/2009
9268428	N05BA12	28/12/2007
8960965	N05BA12	30/01/2007
25048483	N05BA12	30/05/2011
6080444	N05BA12	29/04/2010
25048296	N05BA12	20/01/2006
6888824	N05BA12	17/02/2011
12764766	N05BA12	22/10/2010
12765942	N05BA12	09/07/2010
1941590	N05BA12	11/12/2007
6746940	N05BA12	17/10/2008
8567614	N05BA12	27/02/2009
5329296	N05BA12	11/12/2007
8655802	N05BA12	24/08/2010
8652236	N05BA12	13/06/2008
23472450	N05BA12	23/01/2008
6759472	N05BA12	20/05/2010
5026215	N05BA12	11/04/2011
9231987	N05BA12	15/04/2009
6757687	N05BA12	11/05/2011
6757710	N05BA12	25/05/2006
8555575	N05BA12	13/03/2002
16529657	N05BA12	17/05/2011
8279117	N05BA12	22/08/2007
20557462	N05BA12	09/05/2011
612341	N05BA12	07/05/2003
3333819	N05BA12	17/09/1999
24938766	N05BA12	22/06/2007
8989666	N05BA12	13/10/2008
8655739	N05BA12	30/08/2005
6080687	N05BA12	20/10/2005
8972958	N05BA12	16/02/2010
7244033	N05BA12	29/07/2002
1607463	N05BA12	10/07/2007
1515199	N05BA12	06/05/2011
21806664	N05BA12	08/01/2010
8279242	N05BA12	28/06/2004
3501594	N05BA12	19/01/2010
9385642	N05BA12	21/07/2004
16532021	N05BA12	16/01/2009
23454613	N05BA12	16/06/2005
5812460	N05BA12	25/10/2005
946808	N05BA12	06/05/2009
3302927	N05BA12	14/12/2007
3304834	N05BA12	17/12/2002
12695067	N05BA12	26/04/2011
21875563	N05BA12	09/04/2010
21871596	N05BA12	03/09/2002
3502847	N05BA12	13/06/2008
3323225	N05BA12	25/05/2011
10270515	N05BA12	26/07/2010
704017	N05BA12	27/07/2007
20566164	N05BA12	21/02/2006
10332498	N05BA12	17/03/2010
944325	N05BA12	30/08/2001
3502435	N05BA12	25/11/2008
9214840	N05BA12	02/04/2007
12688862	N05BA12	18/03/2009
6415918	N05BA12	15/01/2003
1941438	N05BA12	21/11/2008
16529815	N05BA12	16/12/2010
207055	N05BA12	12/06/2007
10394146	N05BA12	15/10/2007
1069069	N05BA12	05/12/2007
3502098	N05BA12	14/04/2010
16487315	N05BA12	27/11/2008
17618770	N05BA12	30/12/2010
12764937	N05BA12	26/04/2010
704267	N05BA12	30/11/2002
23471645	N05BA12	03/02/2005
731887	N05BA12	04/02/2009
15668150	N05BA12	14/04/2008
10246026	N05BA12	21/07/2010
610200	N05BA12	03/11/2003
6748205	N05BA12	14/12/2006
20528913	N05BA12	20/04/2010
15554053	N05BA12	08/03/2011
3329757	N05BA12	15/02/2011
12690450	N05BA12	18/10/2010
8639773	N05BA12	31/05/2011
10394248	N05BA12	26/10/2009
6039984	N05BA12	21/09/2007
24950927	N05BA12	11/06/2008
611175	N05BA12	07/07/2004
15669896	N05BA12	24/05/2010
10245628	N05BA12	04/05/2011
8651651	N05BA12	01/06/2011
15008483	N05BA12	23/12/2010
9134534	N05BA12	27/04/2000
9230569	N05BA12	28/05/2007
25059661	N05BA12	29/09/2005
8293467	N05BA12	20/04/2011
25041721	N05BA12	21/07/2004
12173022	N05BA12	27/01/2004
25071236	N05BA12	11/11/2002
1938323	N05BA12	25/04/2011
3119036	N05BA12	28/02/2005
11188036	N05BA12	26/04/2010
1731987	N05BA12	17/07/2006
15424312	N05BA12	31/03/2011
610477	N05BA12	16/04/2004
9376385	N05BA12	03/02/2009
8651304	N05BA12	11/05/2011
732442	N05BA12	16/09/2010
6746106	N05BA12	05/04/2010
12764774	N05BA12	29/07/2008
19228281	N05BA12	17/03/2008
947196	N05BA12	10/09/2010
8557616	N05BA12	18/09/2007
8702733	N05BA12	12/09/2006
6080455	N05BA12	07/02/2011
6079922	N05BA12	17/04/2008
601415	N05BA12	05/11/2008
3128306	N05BA12	01/02/2006
10604210	N05BA12	21/12/2009
10605420	N05BA12	21/04/2009
19153820	N05BA12	22/07/2005
9295669	N05BA12	31/08/2007
949299	N05BA12	28/11/2003
1433271	N05BA12	21/01/2005
9319138	N05BA12	02/09/2008
1467007	N05BA12	10/04/2008
9285503	N05BA12	12/12/2006
1163127	N05BA12	29/07/2008
21871357	N05BA12	14/02/2007
1162980	N05BA12	17/09/2003
2156546	N05BA12	16/05/2011
11660574	N05BA12	13/09/2006
8558145	N05BA12	22/05/2007
6417039	N05BA12	09/06/2009
9178706	N05BA12	03/12/2009
12738650	N05BA12	04/09/2003
12763994	N05BA12	31/05/2005
12738517	N05BA12	23/04/2008
12782079	N05BA12	31/05/2011
8959106	N05BA12	14/01/2010
5033201	N05BA12	10/06/2009
21871671	N05BA12	06/07/2005
9296109	N05BA12	14/01/2011
16557300	N05BA12	18/03/2010
8777089	N05BA12	05/04/2011
8573478	N05BA12	26/01/2010
21152754	N05BA12	03/05/2011
1517273	N05BA12	06/05/2011
8307927	N05BA12	18/04/2007
8654889	N05BA12	25/07/2007
15427499	N05BA12	16/05/2011
9231136	N05BA12	18/05/2011
7769748	N05BA12	25/04/2011
13986519	N05BA12	01/12/2005
7776800	N05BA12	10/12/2008
8989051	N05BA12	05/06/2002
16927503	N05BA12	24/05/2011
6411345	N05BA12	03/09/2009
7407053	N05BA12	27/08/2008
7405282	N05BA12	23/10/2006
7158865	N05BA12	08/10/2007
3328538	N05BA12	03/05/2011
8278371	N05BA12	31/01/2008
659587	N05BA12	06/05/2011
1206919	N05BA12	29/07/2003
5991726	N05BA12	25/02/2004
6594762	N05BA12	06/08/2008
1445557	N05BA12	20/09/2010
26139158	N05BA12	04/09/2010
1546771	N05BA12	10/03/2004
7777782	N05BA12	11/09/2006
1666099	N05BA12	23/12/2010
23511042	N05BA12	20/06/2003
1351154	N05BA12	16/12/2003
1261185	N05BA12	25/05/2011
7797621	N05BA12	06/02/2011
6423594	N05BA12	30/07/2009
1444436	N05BA12	17/05/2010
13734382	N05BA12	22/06/2009
25335939	N05BA12	30/07/2009
1419222	N05BA12	29/12/2004
514728	N05BA12	20/06/2007
1853226	N05BA12	31/05/2011
6603276	N05BA12	14/07/2006
1851987	N05BA12	28/03/2011
13986597	N05BA12	10/11/2010
1445893	N05BA12	23/05/2011
7929164	N05BA12	27/05/2011
1206466	N05BA12	14/08/2003
7770599	N05BA12	13/05/2011
1850827	N05BA12	01/06/2011
1200636	N05BA12	18/02/2010
8934911	N05BA12	03/05/2004
26145071	N05BA12	26/01/2011
7800898	N05BA12	18/08/2010
564634	N05BA12	27/05/2011
5991673	N05BA12	25/04/2011
1853230	N05BA12	07/08/2007
1666507	N05BA12	21/05/2011
7770971	N05BA12	03/12/2003
1850285	N05BA12	18/01/2005
6842229	N05BA12	02/02/2011
1321721	N05BA12	28/05/2011
8955553	N05BA12	11/01/2011
7848224	N05BA12	20/07/2009
24719823	N05BA12	26/08/2002
1849882	N05BA12	14/01/2004
641933	N05BA12	08/10/2009
1203525	N05BA12	13/05/2011
674519	N05BA12	20/09/2010
1346900	N05BA12	16/05/2011
7770755	N05BA12	18/05/2004
7838720	N05BA12	24/03/2011
4381496	N05BA12	15/01/2009
1276923	N05BA12	28/08/2009
564567	N05BA12	23/06/2003
6602655	N05BA12	23/05/2011
6591197	N05BA12	09/02/2010
6602978	N05BA12	04/09/2003
7970963	N05BA12	04/02/2011
1295645	N05BA12	28/05/2009
1275858	N05BA12	19/12/2006
18366106	N05BA12	10/12/2010
26139483	N05BA12	25/05/2009
6596868	N05BA12	22/04/2008
1547134	N05BA12	08/03/2004
645626	N05BA12	03/04/2002
8061402	N05BA12	09/04/2010
1420414	N05BA12	27/10/2004
7779975	N05BA12	25/08/2003
6600842	N05BA12	02/07/2002
1214146	N05BA12	04/10/2006
19690962	N05BA12	11/01/2011
526051	N05BA12	29/05/2002
24718581	N05BA12	24/09/2002
1443076	N05BA12	30/05/2011
18998938	N05BA12	30/05/2011
7848502	N05BA12	20/05/2008
13986535	N05BA12	20/05/2010
1212499	N05BA12	07/09/2004
1199949	N05BA12	30/11/2005
7076246	N05BA12	06/06/2008
1667186	N05BA12	27/05/2011
4417045	N05BA12	19/01/2011
1204023	N05BA12	03/02/2011
8932937	N05BA12	24/05/2011
540075	N05BA12	01/09/2008
7781663	N05BA12	08/10/2010
1665602	N05BA12	10/11/2005
6842058	N05BA12	27/08/2009
25249757	N05BA12	19/05/2011
6841591	N05BA12	24/05/2011
1445240	N05BA12	18/12/2006
1207086	N05BA12	11/04/2002
5992267	N05BA12	26/04/2011
515933	N05BA12	30/10/2007
1356070	N05BA12	19/12/2007
540330	N05BA12	20/04/2006
639203	N05BA12	06/05/2011
1666482	N05BA12	23/11/2010
1208178	N05BA12	03/11/2009
25335456	N05BA12	24/05/2011
1320212	N05BA12	20/05/2009
1276321	N05BA12	09/01/2007
5991761	N05BA12	01/09/2009
7928968	N05BA12	15/05/2009
7776922	N05BA12	25/10/2005
7971479	N05BA12	31/08/2007
1201513	N05BA12	28/11/2007
515769	N05BA12	19/07/2010
4700452	N05BA12	15/12/2005
564951	N05BA12	16/02/2011
525368	N05BA12	05/05/2006
647941	N05BA12	05/09/2009
1295868	N05BA12	28/01/2011
7850197	N05BA12	20/08/2009
1276257	N05BA12	06/09/2006
648003	N05BA12	09/11/2010
16272607	N05BA12	30/11/2010
18365866	N05BA12	10/03/2008
8063389	N05BA12	24/01/2011
5992383	N05BA12	09/05/2011
6592990	N05BA12	27/02/2009
1091704	N05BA12	28/04/2004
1849702	N05BA12	26/07/2010
1199703	N05BA12	03/03/2006
525618	N05BA12	12/02/2007
674587	N05BA12	08/07/2003
1850880	N05BA12	28/07/2005
4700304	N05BA12	12/02/2008
7777716	N05BA12	28/09/2010
1356232	N05BA12	20/09/2005
4412964	N05BA12	15/11/2007
6594333	N05BA12	10/11/2010
6602094	N05BA12	28/01/2008
1200208	N05BA12	22/05/2008
1203166	N05BA12	18/05/2011
515412	N05BA12	29/04/2011
7969967	N05BA12	11/05/2011
7967921	N05BA12	15/12/2010
13985374	N05BA12	25/01/2007
1666966	N05BA12	28/05/2011
7783154	N05BA12	17/12/2001
1350391	N05BA12	21/10/2009
1419307	N05BA12	17/09/2007
1205740	N05BA12	28/06/2006
1852196	N05BA12	16/07/2009
1852962	N05BA12	11/05/2011
639310	N05BA12	25/12/2006
1135117	N05BA12	09/01/2008
1133221	N05BA12	16/06/2010
1133457	N05BA12	23/09/2004
1851693	N05BA12	09/02/2011
1133409	N05BA12	26/10/2001
1134894	N05BA12	19/11/2010
1110947	N05BA12	29/01/2010
13733143	N05BA12	24/05/2011
1425322	N05BA12	11/03/2010
638847	N05BA12	12/05/2011
4688315	N05BA12	06/07/2006
25776586	N05BA12	24/05/2011
1578997	N05BA12	29/12/2008
1134735	N05BA12	28/03/2007
5975487	N05BA12	20/04/2010
1102090	N05BA12	25/10/2005
1103763	N05BA12	01/06/2011
25915017	N05BA12	30/05/2011
1100188	N05BA12	08/05/2003
4688914	N05BA12	19/01/2006
6899947	N05BA12	24/05/2011
715994	N05BA12	06/02/2007
6914096	N05BA12	14/05/2011
487297	N05BA12	16/12/2005
25892709	N05BA12	08/04/2011
996228	N05BA12	20/10/2009
4687275	N05BA12	27/09/2006
25903963	N05BA12	18/07/2008
1135310	N05BA12	06/05/2011
12162776	N05BA12	16/01/2008
1638896	N05BA12	11/07/2001
1134288	N05BA12	09/09/2004
1639147	N05BA12	01/02/2008
134659	N05BA12	11/04/2002
21282892	N05BA12	25/05/2004
1135359	N05BA12	04/04/2011
1551753	N05BA12	16/02/2011
25751456	N05BA12	16/05/2006
25913321	N05BA12	18/05/2011
1102919	N05BA12	13/03/2009
12788129	N05BA12	17/08/2009
1100552	N05BA12	03/05/2005
1639056	N05BA12	30/01/2003
133899	N05BA12	10/05/2011
6513876	N05BA12	04/01/2011
1101989	N05BA12	18/09/2003
1552120	N05BA12	12/07/2004
1641017	N05BA12	30/03/2009
12161214	N05BA12	03/05/2011
1111994	N05BA12	05/05/2003
995605	N05BA12	28/04/2000
1103928	N05BA12	26/12/2005
1581260	N05BA12	13/01/2009
1640729	N05BA12	13/05/2011
1132627	N05BA12	23/04/2009
1110455	N05BA12	16/05/2001
1135406	N05BA12	08/11/2004
25776775	N05BA12	26/11/2009
25908066	N05BA12	28/11/2005
1135681	N05BA12	09/01/2006
2041539	N05BA12	24/09/2002
2043156	N05BA12	14/05/2002
2068369	N05BA12	01/12/2008
2109549	N05BA12	10/12/2007
2110088	N05BA12	10/06/2004
2218925	N05BA12	03/12/2002
2068045	N05BA12	02/01/2006
2068046	N05BA12	17/11/2010
2068080	N05BA12	18/03/2011
2218607	N05BA12	20/05/2004
2239321	N05BA12	02/09/2003
2109210	N05BA12	19/07/2010
2218729	N05BA12	08/01/2004
2140399	N05BA12	14/04/2011
2112529	N05BA12	27/08/2010
2041105	N05BA12	28/10/2004
902930	N05BA12	12/05/2011
859215	N05BA12	26/07/2010
2041709	N05BA12	10/11/2004
2110888	N05BA12	25/05/2011
2041465	N05BA12	17/07/2001
1642998	N05BA12	11/12/2001
1762716	N05BA12	07/10/2009
2044424	N05BA12	02/01/2002
2142967	N05BA12	12/03/2003
2058510	N05BA12	04/03/2011
1791892	N05BA12	13/12/2007
1764848	N05BA12	08/03/2004
905655	N05BA12	22/03/2010
1766049	N05BA12	04/03/2011
1763742	N05BA12	15/04/2004
1755284	N05BA12	27/08/2010
2765113	N05BA12	05/09/2008
7048665	N05BA12	21/02/2005
2777014	N05BA12	01/07/2010
3053306	N05BA12	24/10/2001
3053335	N05BA12	08/04/2009
2759226	N05BA12	25/04/2006
4088519	N05BA12	08/01/2008
7036914	N05BA12	27/08/2008
2041614	N05BA12	29/11/2010
1764942	N05BA12	27/05/2009
2037159	N05BA12	16/09/2004
859599	N05BA12	11/01/2001
1755991	N05BA12	07/01/2008
1768450	N05BA12	10/12/2003
858702	N05BA12	31/05/2010
902391	N05BA12	20/05/2011
1679643	N05BA12	04/03/2003
860142	N05BA12	25/02/2004
875091	N05BA12	12/05/2011
2776510	N05BA12	05/05/2005
3053901	N05BA12	08/10/2009
2776143	N05BA12	24/05/2011
2774863	N05BA12	17/04/2009
2776352	N05BA12	10/05/2006
6434327	N05BA12	09/05/2007
3049646	N05BA12	15/11/2001
3052992	N05BA12	27/12/2010
2573378	N05BA12	30/03/2004
2776308	N05BA12	26/06/2008
2521779	N05BA12	04/02/2011
3054737	N05BA12	27/01/2010
7037891	N05BA12	22/10/2010
2779188	N05BA12	25/03/2004
3052617	N05BA12	30/05/2011
3054595	N05BA12	02/09/2002
2779963	N05BA12	02/03/2006
2759074	N05BA12	07/12/2009
3053490	N05BA12	10/10/2006
2765080	N05BA12	06/04/2011
3055444	N05BA12	21/05/2007
2219670	N05BA12	06/04/2006
2755178	N05BA12	12/08/2003
2756706	N05BA12	21/01/2005
2525213	N05BA12	07/02/2003
2754283	N05BA12	21/10/2009
2714643	N05BA12	17/09/2008
2519204	N05BA12	12/05/2011
2522313	N05BA12	02/04/2011
2522350	N05BA12	11/05/2010
2521830	N05BA12	30/05/2011
2238871	N05BA12	18/08/2010
17741931	N05BA12	13/05/2011
17741954	N05BA12	04/05/2009
12970779	N05BA12	07/09/2010
16835771	N05BA12	23/12/2009
17323661	N05BA12	30/03/2010
16979732	N05BA12	25/04/2011
2520793	N05BA12	11/08/2008
2522258	N05BA12	30/04/2011
2525077	N05BA12	25/11/2008
2239894	N05BA12	30/05/2011
2408212	N05BA12	19/09/2007
16835317	N05BA12	04/04/2005
7136599	N05BA12	06/06/2005
26566168	N05BA12	03/03/2006
28050537	N05BA12	14/07/2008
28069576	N05BA12	13/11/2009
28080890	N05BA12	06/07/2005
28056400	N05BA12	06/05/2009
28042694	N05BA12	16/03/2011
26375528	N05BA12	31/05/2011
26461925	N05BA12	05/05/2011
26481599	N05BA12	29/03/2011
7075282	N05BA12	08/02/2011
7137654	N05BA12	28/05/2011
7144208	N05BA12	27/11/2008
7137547	N05BA12	16/01/2008
26243769	N05BA12	29/10/2003
20673495	N05BA12	03/04/2007
18471931	N05BA12	13/05/2011
20147606	N05BA12	13/03/2007
7228785	N05BA12	11/04/2011
7144313	N05BA12	29/03/2006
7136116	N05BA12	14/08/2007
18472490	N05BA12	12/05/2010
17742639	N05BA12	19/02/2007
7142486	N05BA12	23/07/2004
7143108	N05BA12	12/07/2006
20033277	N05BA12	30/07/2009
26336640	N05BA12	23/02/2006
7137812	N05BA12	25/11/2009
26340652	N05BA12	26/08/2008
26261422	N05BA12	01/12/2008
7029283	N05BA12	14/12/2010
26441491	N05BA12	29/01/2010
26244401	N05BA12	03/05/2011
17325261	N05BA12	30/05/2011
26462364	N05BA12	24/01/2005
26236184	N05BA12	13/05/2011
26236210	N05BA12	30/05/2011
26457520	N05BA12	21/10/2008
17324170	N05BA12	04/04/2006
28042210	N05BA12	28/05/2004
26410194	N05BA12	06/05/2011
26385357	N05BA12	21/12/2007
22092867	N05BA12	15/11/2007
26566119	N05BA12	22/12/2009
26425992	N05BA12	26/05/2011
20147034	N05BA12	23/03/2007
18472279	N05BA12	27/10/2009
17742392	N05BA12	05/05/2011
26458743	N05BA12	30/03/2011
26384460	N05BA12	01/06/2011
18222562	N05BA12	05/04/2011
26255901	N05BA12	10/05/2011
7137453	N05BA12	25/09/2008
15496278	N05BA12	11/01/2011
8116823	N05BA12	18/10/2006
17041013	N05BA12	11/05/2011
7492715	N05BA12	27/05/2011
17745874	N05BA12	18/07/2005
16836094	N05BA12	24/03/2003
7135727	N05BA12	18/01/2010
8117960	N05BA12	20/07/2007
7136999	N05BA12	21/06/2010
14347072	N05BA12	13/01/2009
13003749	N05BA12	17/04/2009
17040534	N05BA12	26/02/2003
17871510	N05BA12	28/05/2009
16836479	N05BA12	25/10/2010
421437	N05BA12	05/12/2005
305687	N05BA12	22/12/2001
300617	N05BA12	04/05/2011
304932	N05BA12	26/05/2011
184185	N05BA12	17/11/2009
422896	N05BA12	02/07/2003
300241	N05BA12	09/05/2011
464363	N05BA12	09/05/2011
1912188	N05BA12	03/10/2003
2965493	N05BA12	12/03/2010
423010	N05BA12	26/05/2011
1900897	N05BA12	28/04/2009
1913318	N05BA12	29/05/2008
2960150	N05BA12	21/02/2002
1911118	N05BA12	01/04/2011
649048	N05BA12	14/05/2009
2958601	N05BA12	16/02/2010
6577193	N05BA12	21/05/2007
427903	N05BA12	22/01/1999
4110200	N05BA12	10/01/2006
2244430	N05BA12	03/03/2011
305270	N05BA12	06/05/2004
184887	N05BA12	25/08/2005
433439	N05BA12	10/11/2004
1903162	N05BA12	21/12/2005
2960514	N05BA12	13/07/2010
419475	N05BA12	20/04/2011
433748	N05BA12	19/05/2011
429077	N05BA12	12/09/2003
2960892	N05BA12	21/12/2010
1912576	N05BA12	18/07/2008
302260	N05BA12	20/02/2008
1904412	N05BA12	20/08/2008
427807	N05BA12	14/07/2008
302264	N05BA12	05/07/2006
6570339	N05BA12	10/05/2010
428209	N05BA12	26/12/2008
303161	N05BA12	04/11/2009
1021651	N05BA12	29/03/2011
2957938	N05BA12	19/09/2003
6577042	N05BA12	13/03/2008
419797	N05BA12	03/11/2008
464564	N05BA12	21/01/2005
2960079	N05BA12	24/10/2008
12994706	N05BA12	09/10/2008
28081504	N05BA12	18/03/2009
26426004	N05BA12	13/11/2001
874500	N05BA12	31/01/2011
2525880	N05BA12	06/11/2008
28093277	N05BA12	18/05/2011
875817	N05BA12	21/05/2008
28044182	N05BA12	09/05/2011
1753843	N05BA12	23/03/2011
28081569	N05BA12	11/11/2008
28082108	N05BA12	05/03/2009
18223753	N05BA12	01/07/2004
2219508	N05BA12	29/03/2010
28091118	N05BA12	07/11/2006
2763164	N05BA12	28/02/2005
2132842	N05BA12	06/11/2009
26458205	N05BA12	17/01/2005
873868	N05BA12	10/05/2007
28083015	N05BA12	03/02/2009
12971355	N05BA12	01/06/2011
28090931	N05BA12	07/11/2006
26462845	N05BA12	17/12/2008
20673531	N05BA12	23/05/2011
28072491	N05BA12	17/09/2009
28092173	N05BA12	15/12/2010
650372	N05BA12	23/03/2011
421052	N05BA12	16/05/2007
28090121	N05BA12	30/09/2010
424750	N05BA12	31/12/2008
424784	N05BA12	10/03/2000
418520	N05BA12	17/12/2001
7448161	N05BA12	27/08/2009
434471	N05BA12	05/12/2003
424822	N05BA12	23/04/2003
303035	N05BA12	10/03/2011
303041	N05BA12	21/08/2004
426906	N05BA12	06/07/2007
7136014	N05BA12	19/05/2011
7136413	N05BA12	18/05/2011
419216	N05BA12	14/06/2004
420981	N05BA12	29/04/2010
271966	N05BA12	30/05/2011
421846	N05BA12	20/01/2009
303249	N05BA12	24/11/2009
437584	N05BA12	06/05/2011
2037693	N05BA12	23/06/2008
421631	N05BA12	01/10/2009
305499	N05BA12	06/04/2010
265904	N05BA12	19/02/2008
418421	N05BA12	31/05/2011
419426	N05BA12	05/09/2002
419430	N05BA12	08/08/2008
302601	N05BA12	01/06/2011
426562	N05BA12	30/10/2001
26410164	N05BA12	23/08/2010
182089	N05BA12	28/04/2011
186409	N05BA12	01/06/2011
185260	N05BA12	01/12/2010
302502	N05BA12	26/01/2010
265148	N05BA12	05/12/2007
875765	N05BA12	30/10/2002
874613	N05BA12	06/05/2011
420934	N05BA12	02/10/2008
185927	N05BA12	08/11/2010
28070991	N05BA12	26/06/2001
28088086	N05BA12	21/02/2007
28041657	N05BA12	05/01/2009
28066682	N05BA12	20/01/2009
28087446	N05BA12	09/10/2008
28051653	N05BA12	16/06/2006
28066204	N05BA12	16/02/2006
28045829	N05BA12	12/06/2007
28054205	N05BA12	15/12/2010
28060556	N05BA12	20/04/2011
28070127	N05BA12	23/07/2009
28065315	N05BA12	21/04/2005
28071181	N05BA12	22/04/2003
28043643	N05BA12	30/12/2010
26474538	N05BA12	21/10/2009
28071032	N05BA12	04/11/2009
28071033	N05BA12	11/12/2003
28056661	N05BA12	06/09/2004
28063039	N05BA12	29/04/2011
25726584	N05BA12	19/04/2007
24666302	N05BA12	17/05/2010
24658915	N05BA12	02/06/2005
24669451	N05BA12	09/08/2007
25648817	N05BA12	14/09/2010
24657144	N05BA12	08/08/2008
25723788	N05BA12	29/03/2005
24657294	N05BA12	09/04/2008
24666879	N05BA12	30/09/2008
24655998	N05BA12	18/05/2011
24668183	N05BA12	24/03/2010
24661681	N05BA12	01/04/2009
25742981	N05BA12	01/06/2011
25575323	N05BA12	08/01/2008
24667893	N05BA12	13/04/2011
26627333	N05BA12	22/12/2010
25738797	N05BA12	15/09/2010
24668665	N05BA12	22/05/2011
25738811	N05BA12	14/02/2005
25704459	N05BA12	27/03/2011
24666053	N05BA12	13/12/2007
25745431	N05BA12	26/01/2009
25746656	N05BA12	23/09/2009
24657004	N05BA12	25/09/2006
24666997	N05BA12	22/08/2007
24669225	N05BA12	24/05/2011
24668649	N05BA12	18/10/2010
25739933	N05BA12	17/02/2005
25741338	N05BA12	31/05/2011
24663987	N05BA12	26/02/2002
25717471	N05BA12	24/10/2006
24667949	N05BA12	28/05/2010
925785	N05BA12	27/11/2006
1903907	N05BA12	13/01/2004
1371178	N05BA12	30/03/2009
1904043	N05BA12	13/11/2000
18190205	N05BA12	18/11/2005
1905426	N05BA12	28/01/2011
19424121	N05BA12	14/01/2005
1372823	N05BA12	27/04/2006
21553390	N05BA12	18/04/2008
19965265	N05BA12	14/06/2005
927467	N05BA12	22/03/2011
421963	N05BA12	28/03/2007
1366229	N05BA12	10/01/2011
1905306	N05BA12	03/04/2001
18196270	N05BA12	23/03/2011
18193864	N05BA12	11/05/2011
1371652	N05BA12	22/12/2007
1361706	N05BA12	19/05/2011
1374923	N05BA12	04/06/2007
1366697	N05BA12	10/05/2004
1361853	N05BA12	24/05/2011
1360903	N05BA12	24/05/2011
1366853	N05BA12	18/10/2010
16568255	N05BA12	18/12/2006
1359321	N05BA12	17/05/2011
1363957	N05BA12	22/12/2005
18201425	N05BA12	22/10/2003
16566958	N05BA12	04/05/2011
16566979	N05BA12	30/10/2008
1372631	N05BA12	12/05/2011
1368537	N05BA12	21/12/1999
1371015	N05BA12	09/08/2002
2964440	N05BA12	03/05/2007
1368854	N05BA12	16/08/2007
1366141	N05BA12	09/09/2009
422231	N05BA12	31/03/1999
18189136	N05BA12	20/08/2009
1360573	N05BA12	17/02/2006
18191327	N05BA12	23/01/2004
18188133	N05BA12	21/06/2005
16812198	N05BA12	04/01/2011
16841294	N05BA12	04/09/2006
19423772	N05BA12	26/01/2009
19423453	N05BA12	27/05/2011
18193032	N05BA12	24/01/2008
18194731	N05BA12	07/06/2003
21386520	N05BA12	10/12/2007
21386521	N05BA12	06/05/2011
18193980	N05BA12	27/06/2005
18193999	N05BA12	10/10/2005
18194003	N05BA12	25/02/2005
20070622	N05BA12	17/05/2011
18194455	N05BA12	07/08/2007
18196791	N05BA12	03/06/2010
21063541	N05BA12	14/11/2007
18190820	N05BA12	08/11/2005
16840957	N05BA12	28/05/2010
21064688	N05BA12	04/01/2008
18187355	N05BA12	04/05/2011
18191207	N05BA12	13/05/2011
16567128	N05BA12	02/05/2011
21063513	N05BA12	13/11/2006
18187174	N05BA12	05/05/2009
16841682	N05BA12	30/03/2009
19801472	N05BA12	30/04/2011
22757992	N05BA12	19/03/2006
18191100	N05BA12	26/05/2003
19804674	N05BA12	02/12/2005
18197681	N05BA12	20/04/2006
22766292	N05BA12	14/05/2011
18187430	N05BA12	14/04/2011
19786096	N05BA12	16/07/2009
19786115	N05BA12	13/06/2006
18188104	N05BA12	24/05/2011
18186844	N05BA12	16/05/2011
19424318	N05BA12	02/09/2006
4628196	N05BA12	23/02/2002
1904935	N05BA12	19/09/2008
1904747	N05BA12	27/09/2005
1363969	N05BA12	12/08/2008
1911817	N05BA12	17/05/2011
1906291	N05BA12	29/07/2009
2957748	N05BA12	18/07/2003
2960430	N05BA12	15/07/2010
1899482	N05BA12	07/09/2010
8426968	N05BA12	09/09/2008
1912671	N05BA12	23/12/2005
12994266	N05BA12	09/12/2010
2961784	N05BA12	15/12/2005
2964016	N05BA12	29/01/2003
1361055	N05BA12	03/10/2005
1899549	N05BA12	20/07/2007
418928	N05BA12	18/05/2010
2959039	N05BA12	13/02/2004
2965700	N05BA12	05/10/2010
2957039	N05BA12	22/01/2002
12994440	N05BA12	09/05/2007
926167	N05BA12	10/04/2008
926529	N05BA12	06/05/2011
1366720	N05BA12	27/05/2011
1368352	N05BA12	23/12/2010
1017682	N05BA12	18/12/2009
2962153	N05BA12	26/08/2010
3055612	N05BA12	06/10/2010
26642443	N05BA12	05/05/2009
26639746	N05BA12	04/09/2006
26642496	N05BA12	17/02/2011
26833959	N05BA12	25/06/2009
26794179	N05BA12	03/03/2007
26776551	N05BA12	17/10/2005
26621205	N05BA12	14/03/2006
26824685	N05BA12	23/06/2003
26852141	N05BA12	04/01/2011
26640206	N05BA12	18/07/2005
26833892	N05BA12	26/02/2009
26628537	N05BA12	25/08/2005
26776913	N05BA12	14/03/2011
26776918	N05BA12	25/07/2007
26776969	N05BA12	24/05/2011
26618354	N05BA12	25/02/2010
26700714	N05BA12	13/10/2010
26700153	N05BA12	20/05/2011
26835058	N05BA12	09/12/2008
26630996	N05BA12	07/05/2010
26830106	N05BA12	01/09/2009
26830352	N05BA12	06/05/2011
26720817	N05BA12	09/01/2009
26856605	N05BA12	30/08/2010
26642192	N05BA12	03/11/2010
26637149	N05BA12	21/11/2008
26630262	N05BA12	29/05/2011
26636648	N05BA12	17/05/2005
26803235	N05BA12	02/03/2005
26829529	N05BA12	28/04/2011
26834531	N05BA12	31/05/2011
25740859	N05BA12	09/03/2010
12993861	N05BA12	15/07/2010
17125574	N05BA12	30/05/2011
17128641	N05BA12	04/05/2010
2994406	N05BA12	30/12/2010
14063337	N05BA12	24/09/2010
12975498	N05BA12	21/10/2010
12878243	N05BA12	10/01/2005
16105363	N05BA12	31/07/2008
2987979	N05BA12	18/10/2004
22923362	N05BA12	03/07/2009
12976349	N05BA12	19/07/2000
12976103	N05BA12	25/05/2011
16104693	N05BA12	01/02/2010
24579514	N05BA12	02/05/2011
16567775	N05BA12	15/02/2002
12976693	N05BA12	23/04/2009
14309684	N05BA12	24/09/2004
16840571	N05BA12	09/05/2007
16105473	N05BA12	26/01/2007
16567620	N05BA12	12/09/2008
13788822	N05BA12	13/04/2011
12975801	N05BA12	28/05/2009
9025779	N05BA12	06/02/2008
12994807	N05BA12	28/03/2011
21553551	N05BA12	29/04/2011
16104502	N05BA12	20/02/2007
2989966	N05BA12	21/08/2008
17165183	N05BA12	11/04/2008
26620846	N05BA12	30/08/2010
16843285	N05BA12	22/06/2007
25740918	N05BA12	01/06/2011
26701106	N05BA12	11/03/2011
26616688	N05BA12	22/03/2010
26639138	N05BA12	21/05/2011
17163387	N05BA12	20/11/2003
26635524	N05BA12	13/12/2010
26703594	N05BA12	10/08/2010
26701326	N05BA12	26/01/2006
26701387	N05BA12	13/07/2010
12995300	N05BA12	24/06/2008
25722972	N05BA12	11/05/2011
26642904	N05BA12	09/10/2007
26640331	N05BA12	11/05/2011
26618242	N05BA12	01/06/2011
24657567	N05BA12	21/05/2011
22882013	N05BA12	15/01/2004
24576415	N05BA12	23/03/2005
22882065	N05BA12	30/03/2009
24576680	N05BA12	11/01/2006
24654931	N05BA12	13/07/2001
24666854	N05BA12	03/08/2005
24659705	N05BA12	24/04/2007
22621949	N05BA12	30/09/2009
21065021	N05BA12	13/11/2006
24582582	N05BA12	11/03/2010
24577990	N05BA12	14/10/2009
21554193	N05BA12	01/06/2011
21651799	N05BA12	12/03/2007
23484674	N05BA12	12/02/2005
24581986	N05BA12	01/06/2011
22883289	N05BA12	21/01/2004
22882165	N05BA12	07/06/2004
20101872	N05BA12	04/04/2011
20835034	N05BA12	18/09/2010
24579654	N05BA12	22/09/2005
22922825	N05BA12	22/06/2009
21651847	N05BA12	25/05/2011
23451824	N05BA12	15/01/2008
21064114	N05BA12	23/07/2010
22922309	N05BA12	03/02/2005
24582435	N05BA12	30/12/2008
24577346	N05BA12	07/08/2009
24528370	N05BA12	30/06/2009
24585345	N05BA12	12/11/2010
24505555	N05BA12	30/05/2008
24520378	N05BA12	21/12/2005
23484160	N05BA12	01/06/2011
26917078	N05BA12	27/03/2009
26935038	N05BA12	23/01/2006
26938768	N05BA12	19/05/2011
26922873	N05BA12	07/01/2011
26941992	N05BA12	23/06/2006
26936348	N05BA12	20/08/2007
26946237	N05BA12	27/05/2011
26945123	N05BA12	19/09/2008
26890259	N05BA12	23/03/2011
26935041	N05BA12	11/11/2002
26935501	N05BA12	24/05/2011
26917313	N05BA12	29/12/2010
26950826	N05BA12	06/05/2011
26948731	N05BA12	07/10/2005
26940497	N05BA12	17/05/2010
26916065	N05BA12	30/09/2005
26915565	N05BA12	25/05/2009
26916169	N05BA12	07/09/2006
26894834	N05BA12	24/03/2006
26882417	N05BA12	09/08/2010
26946408	N05BA12	10/02/2005
26897230	N05BA12	26/05/2010
26936433	N05BA12	22/11/2010
26959307	N05BA12	09/03/2007
26940146	N05BA12	18/07/2007
26889844	N05BA12	24/03/2011
26930368	N05BA12	16/06/2010
26950378	N05BA12	21/01/2004
26889893	N05BA12	19/10/2010
26932224	N05BA12	07/04/2009
26936020	N05BA12	09/04/2008
26959391	N05BA12	14/05/2011
26932449	N05BA12	26/09/2008
26879225	N05BA12	30/05/2011
26717135	N05BA12	26/05/2011
26879299	N05BA12	23/09/2003
26858061	N05BA12	30/10/2009
26715786	N05BA12	02/02/2011
26758937	N05BA12	15/05/2011
26877917	N05BA12	16/12/2010
26715824	N05BA12	02/11/2009
26715837	N05BA12	28/10/2005
26761679	N05BA12	26/01/2009
26771518	N05BA12	13/05/2011
26759249	N05BA12	02/05/2011
26776408	N05BA12	26/05/2011
26730108	N05BA12	10/05/2010
26847784	N05BA12	16/04/2010
26846064	N05BA12	23/02/2009
26714948	N05BA12	25/06/2009
26871932	N05BA12	12/12/2005
26867268	N05BA12	27/04/2011
26847106	N05BA12	13/05/2009
26898899	N05BA12	28/12/2008
26859120	N05BA12	02/03/2005
26881378	N05BA12	09/01/2008
26874543	N05BA12	28/11/2005
26888411	N05BA12	20/01/2010
26876200	N05BA12	17/02/2009
26950331	N05BA12	13/09/2010
26874283	N05BA12	03/03/2010
26877295	N05BA12	07/09/2005
26865382	N05BA12	14/04/2011
26873733	N05BA12	09/06/2005
26864172	N05BA12	28/10/2008
26936559	N05BA12	15/06/2007
26854943	N05BA12	29/05/2011
26864190	N05BA12	24/11/2008
26849091	N05BA12	31/05/2011
26888469	N05BA12	15/12/2010
26888250	N05BA12	19/06/2009
26877189	N05BA12	22/08/2003
26939094	N05BA12	02/03/2007
26939100	N05BA12	25/05/2009
26859472	N05BA12	17/11/2008
26933046	N05BA12	13/01/2005
26864441	N05BA12	08/09/2009
26856371	N05BA12	13/05/2008
26859612	N05BA12	11/01/2007
26847638	N05BA12	24/06/2004
26847639	N05BA12	01/06/2011
26942306	N05BA12	14/01/2011
26864810	N05BA12	01/06/2011
26858452	N05BA12	15/02/2007
26810566	N05BA12	28/01/2010
26779962	N05BA12	29/05/2011
26793083	N05BA12	04/04/2011
26789735	N05BA12	15/03/2010
26728888	N05BA12	09/02/2010
26783590	N05BA12	16/08/2006
26830622	N05BA12	08/09/2007
26713793	N05BA12	09/02/2010
26857019	N05BA12	31/05/2006
26760950	N05BA12	24/04/2006
26715319	N05BA12	15/05/2003
26830866	N05BA12	24/12/2007
26800322	N05BA12	16/06/2008
26790021	N05BA12	30/11/2010
26835837	N05BA12	13/08/2007
26791924	N05BA12	17/01/2005
26776668	N05BA12	27/05/2011
26815899	N05BA12	03/10/2008
26791959	N05BA12	08/09/2009
26717132	N05BA12	16/05/2011
26825165	N05BA12	03/04/2011
26760283	N05BA12	06/05/2011
26717334	N05BA12	19/05/2011
26855075	N05BA12	27/11/2006
26833689	N05BA12	26/06/2009
26770232	N05BA12	22/05/2011
26969569	N05BA12	21/11/2003
26966681	N05BA12	22/04/2010
26953449	N05BA12	09/05/2008
26970788	N05BA12	14/03/2011
26966714	N05BA12	26/04/2011
27051381	N05BA12	02/08/2005
26947651	N05BA12	16/02/2011
27056050	N05BA12	02/03/2010
27055138	N05BA12	10/02/2011
26953587	N05BA12	05/05/2010
26974496	N05BA12	10/03/2010
27067241	N05BA12	18/09/2008
27067247	N05BA12	15/11/2006
27034871	N05BA12	11/01/2011
27057332	N05BA12	12/08/2008
27043376	N05BA12	23/08/2005
26972749	N05BA12	11/06/2007
26975257	N05BA12	10/05/2006
26990531	N05BA12	18/08/2006
27105329	N05BA12	29/04/2010
27112721	N05BA12	17/08/2006
27113524	N05BA12	20/05/2011
27106289	N05BA12	17/01/2009
27126956	N05BA12	27/01/2004
27102365	N05BA12	12/05/2011
27114160	N05BA12	21/01/2005
27106148	N05BA12	29/08/2006
27151224	N05BA12	05/09/2007
27099790	N05BA12	24/03/2011
27109787	N05BA12	03/08/2009
27085746	N05BA12	08/08/2005
27132865	N05BA12	22/02/2008
27149654	N05BA12	03/02/2011
27113158	N05BA12	28/08/2006
27085859	N05BA12	27/09/2006
27115857	N05BA12	07/09/2006
27115927	N05BA12	16/02/2006
27109851	N05BA12	29/04/2008
27115659	N05BA12	05/05/2011
27061984	N05BA12	14/07/2008
27149827	N05BA12	14/01/2009
27037601	N05BA12	31/05/2011
27100393	N05BA12	12/11/2009
27086286	N05BA12	17/08/2006
27116099	N05BA12	05/01/2007
27133554	N05BA12	11/11/2010
27104236	N05BA12	05/05/2011
27078255	N05BA12	28/05/2011
27130162	N05BA12	13/03/2009
27151506	N05BA12	23/06/2009
27063264	N05BA12	31/05/2011
27043665	N05BA12	01/09/2010
27153123	N05BA12	01/10/2010
27136921	N05BA12	22/10/2010
27045169	N05BA12	23/02/2009
27061447	N05BA12	01/10/2009
27034569	N05BA12	17/10/2008
27078993	N05BA12	16/09/2010
27062396	N05BA12	18/12/2007
27054696	N05BA12	07/09/2009
27056829	N05BA12	17/09/2004
27046614	N05BA12	23/05/2008
27127109	N05BA12	26/12/2006
27067103	N05BA12	23/05/2011
27075029	N05BA12	23/05/2011
27033644	N05BA12	15/03/2007
27044444	N05BA12	18/04/2011
27085882	N05BA12	02/05/2011
27051385	N05BA12	25/08/2008
27042973	N05BA12	09/05/2003
27033115	N05BA12	20/05/2011
27112808	N05BA12	28/05/2010
27113090	N05BA12	14/01/2005
27055101	N05BA12	22/01/2011
27066800	N05BA12	27/04/2011
27054066	N05BA12	03/04/2009
27063122	N05BA12	26/02/2010
27037293	N05BA12	26/05/2011
27038308	N05BA12	18/05/2011
27037502	N05BA12	22/10/2004
27025150	N05BA12	04/04/2007
26996521	N05BA12	02/12/2010
27042189	N05BA12	28/08/2007
27039739	N05BA12	12/05/2011
26978032	N05BA12	22/04/2005
27041316	N05BA12	26/05/2011
26978263	N05BA12	01/06/2011
26978733	N05BA12	11/01/2011
27038141	N05BA12	14/12/2006
27039179	N05BA12	04/11/2005
26991921	N05BA12	24/04/2009
27000123	N05BA12	12/03/2009
27026228	N05BA12	14/05/2011
27028236	N05BA12	27/05/2011
27014753	N05BA12	09/09/2008
27014776	N05BA12	05/05/2011
27015154	N05BA12	20/09/2009
26993184	N05BA12	03/07/2008
27041450	N05BA12	13/09/2010
27039199	N05BA12	24/08/2005
26991297	N05BA12	30/05/2011
27022873	N05BA12	29/06/2010
27039849	N05BA12	22/02/2005
27359134	N05BA12	04/04/2007
27363911	N05BA12	02/08/2008
27400146	N05BA12	15/02/2011
27326850	N05BA12	13/02/2008
27348961	N05BA12	31/05/2011
27368500	N05BA12	17/12/2007
27286383	N05BA12	26/05/2010
27152044	N05BA12	25/06/2009
27169373	N05BA12	12/10/2008
27285954	N05BA12	27/08/2003
27285986	N05BA12	29/07/2005
27213388	N05BA12	08/10/2009
27389457	N05BA12	15/11/2010
27168097	N05BA12	15/05/2011
27138466	N05BA12	25/05/2011
27217926	N05BA12	21/12/2010
27127194	N05BA12	24/05/2010
27365779	N05BA12	02/05/2008
27389505	N05BA12	18/02/2005
27153422	N05BA12	20/05/2011
27284739	N05BA12	18/01/2011
27219884	N05BA12	01/06/2011
27286965	N05BA12	08/04/2010
27286968	N05BA12	07/08/2009
27166818	N05BA12	25/05/2010
27250072	N05BA12	13/09/2002
27220565	N05BA12	08/02/2011
27365421	N05BA12	11/03/2005
27238052	N05BA12	02/11/2007
27254109	N05BA12	18/12/2008
27356310	N05BA12	24/01/2006
27211077	N05BA12	28/11/2007
27200679	N05BA12	02/12/2003
27314686	N05BA12	17/08/2006
27216925	N05BA12	23/05/2011
27219070	N05BA12	10/05/2011
27246351	N05BA12	15/04/2008
27352971	N05BA12	23/05/2011
27200066	N05BA12	05/09/2006
27356518	N05BA12	18/08/2010
27253999	N05BA12	19/07/2001
27199708	N05BA12	14/10/2008
27303034	N05BA12	01/04/2008
27368673	N05BA12	01/07/2008
27220677	N05BA12	26/09/2007
27369449	N05BA12	27/02/2006
27362717	N05BA12	17/05/2011
27371161	N05BA12	30/05/2011
27363193	N05BA12	17/02/2011
27358246	N05BA12	12/05/2011
27308704	N05BA12	20/12/2007
27305968	N05BA12	23/11/2010
27304667	N05BA12	26/05/2011
27316455	N05BA12	01/06/2011
27366089	N05BA12	22/05/2011
27304848	N05BA12	10/10/2009
27321815	N05BA12	30/04/2010
27363578	N05BA12	12/04/2011
27347786	N05BA12	15/02/2008
27383808	N05BA12	14/07/2004
27308104	N05BA12	13/01/2010
27352037	N05BA12	27/01/2011
27349855	N05BA12	08/01/2010
27350067	N05BA12	28/12/2004
27301922	N05BA12	16/07/2010
27367264	N05BA12	09/05/2011
27364443	N05BA12	26/11/2010
27306374	N05BA12	27/07/2010
27359283	N05BA12	07/08/2009
27360858	N05BA12	22/03/2010
27360881	N05BA12	28/03/2011
27216757	N05BA12	17/05/2011
27220409	N05BA12	27/04/2011
27348533	N05BA12	18/01/2008
27317311	N05BA12	18/02/2005
27366113	N05BA12	31/05/2011
27320945	N05BA12	18/01/2008
27314586	N05BA12	10/09/2009
27305367	N05BA12	11/01/2011
27320454	N05BA12	08/02/2007
27296182	N05BA12	27/05/2011
27320470	N05BA12	11/03/2011
27390453	N05BA12	29/11/2005
27353964	N05BA12	02/04/2007
27318341	N05BA12	02/04/2008
27302542	N05BA12	07/02/2011
27319826	N05BA12	06/03/2009
27326516	N05BA12	04/09/2009
27308559	N05BA12	03/06/2009
27319905	N05BA12	04/02/2008
26989957	N05BA12	23/05/2011
27199245	N05BA12	28/01/2011
26998337	N05BA12	11/10/2010
26967221	N05BA12	26/10/2006
27201730	N05BA12	26/06/2006
27251820	N05BA12	18/06/2007
27253729	N05BA12	24/05/2011
27254030	N05BA12	11/12/2008
27217738	N05BA12	26/08/2009
26967253	N05BA12	15/03/2010
27238217	N05BA12	24/05/2011
27253460	N05BA12	02/08/2006
27286648	N05BA12	02/06/2009
26954101	N05BA12	30/11/2001
26993940	N05BA12	07/02/2008
27250923	N05BA12	05/07/2010
27253172	N05BA12	20/08/2004
27217481	N05BA12	09/04/2005
27169844	N05BA12	15/04/2009
26977080	N05BA12	18/03/2010
26957165	N05BA12	18/10/2010
26959013	N05BA12	24/12/2008
26957726	N05BA12	03/03/2009
26957779	N05BA12	27/05/2009
27389179	N05BA12	10/07/2008
26952890	N05BA12	28/11/2006
27242588	N05BA12	22/07/2010
26981308	N05BA12	05/04/2006
26952329	N05BA12	13/03/2007
26975874	N05BA12	01/09/2009
27252810	N05BA12	20/12/2006
27220900	N05BA12	30/08/2007
27241512	N05BA12	06/03/2007
27197496	N05BA12	03/07/2009
27250690	N05BA12	01/03/2005
26967647	N05BA12	04/09/2008
26954926	N05BA12	23/08/2007
27200892	N05BA12	19/05/2008
26967724	N05BA12	10/09/2010
26989196	N05BA12	03/07/2009
27657965	N05BA12	15/05/2011
27641565	N05BA12	18/09/2007
27589314	N05BA12	16/10/2008
27597152	N05BA12	05/10/2009
27597168	N05BA12	17/02/2010
27639945	N05BA12	07/04/2011
27646258	N05BA12	30/04/2009
27563442	N05BA12	16/07/2010
27602839	N05BA12	27/05/2011
27557859	N05BA12	21/01/2011
27647922	N05BA12	07/07/2004
27578349	N05BA12	21/11/2008
27632394	N05BA12	23/05/2008
27587763	N05BA12	29/06/2007
27632310	N05BA12	09/05/2011
27607371	N05BA12	07/05/2009
27640410	N05BA12	24/05/2011
27640466	N05BA12	19/01/2010
27579016	N05BA12	19/07/2005
27576845	N05BA12	29/07/2008
27614352	N05BA12	19/08/2010
27542463	N05BA12	21/09/2010
27592604	N05BA12	21/05/2008
27622219	N05BA12	25/03/2011
27596955	N05BA12	18/09/2009
27589583	N05BA12	13/08/2008
27646863	N05BA12	02/01/2011
27591859	N05BA12	19/05/2011
27596368	N05BA12	29/01/2009
27576476	N05BA12	24/05/2010
27470568	N05BA12	15/02/2010
27661768	N05BA12	29/10/2002
27481247	N05BA12	06/04/2011
27414554	N05BA12	05/01/2007
27481161	N05BA12	15/04/2011
27476407	N05BA12	18/05/2011
27661675	N05BA12	24/02/2011
27645514	N05BA12	24/05/2011
27481175	N05BA12	01/06/2006
27419361	N05BA12	03/09/2010
27453703	N05BA12	19/12/2006
27443986	N05BA12	04/11/2008
27427591	N05BA12	21/12/2009
27414681	N05BA12	03/03/2009
27456887	N05BA12	11/10/2010
27647443	N05BA12	19/07/2006
27453809	N05BA12	19/12/2006
27414845	N05BA12	21/12/2005
27415193	N05BA12	24/11/2007
27414394	N05BA12	28/06/2001
27427456	N05BA12	27/12/2004
27442017	N05BA12	06/05/2011
27420939	N05BA12	25/02/2002
27426871	N05BA12	26/09/2003
27448710	N05BA12	09/10/2007
27420339	N05BA12	24/04/2007
27660199	N05BA12	27/10/2009
27470979	N05BA12	28/05/2011
27453600	N05BA12	05/10/2010
27656842	N05BA12	15/11/2010
27577364	N05BA12	21/06/2007
27694171	N05BA12	26/10/2009
27572382	N05BA12	20/05/2008
27716882	N05BA12	20/05/2011
27572767	N05BA12	08/01/2007
27708161	N05BA12	19/04/2006
27564660	N05BA12	20/09/2007
27756324	N05BA12	24/11/2003
27572024	N05BA12	14/04/2005
27564069	N05BA12	12/11/2010
27707997	N05BA12	05/05/2011
27542102	N05BA12	13/10/2010
27631341	N05BA12	01/10/2007
27564567	N05BA12	13/12/2004
27544530	N05BA12	17/06/2010
27546344	N05BA12	04/09/2009
27758847	N05BA12	13/05/2011
27607181	N05BA12	28/05/2009
27563858	N05BA12	13/02/2006
27543445	N05BA12	04/06/2003
27551398	N05BA12	14/12/2009
27756656	N05BA12	07/09/2004
27631405	N05BA12	09/06/2004
27614610	N05BA12	08/05/2011
27614612	N05BA12	22/05/2006
27762131	N05BA12	25/05/2011
27572901	N05BA12	06/07/2009
27614866	N05BA12	04/07/2008
27614461	N05BA12	09/09/2008
27566493	N05BA12	16/04/2003
27563976	N05BA12	02/05/2006
27621566	N05BA12	25/03/2009
27565501	N05BA12	12/09/2007
27568014	N05BA12	28/09/2009
27568028	N05BA12	15/07/2009
27147794	N05BA12	30/08/2008
27151908	N05BA12	23/05/2011
27292071	N05BA12	18/10/2006
27233968	N05BA12	12/05/2009
27126578	N05BA12	13/08/2007
27150515	N05BA12	06/09/2010
27160809	N05BA12	27/05/2011
27144885	N05BA12	07/09/2005
27129360	N05BA12	30/05/2011
27138764	N05BA12	29/01/2009
27247076	N05BA12	27/04/2009
27163037	N05BA12	11/05/2011
27147888	N05BA12	22/05/2011
27153526	N05BA12	13/03/2009
27144944	N05BA12	24/03/2010
27285445	N05BA12	07/08/2009
27133070	N05BA12	07/04/2006
27285401	N05BA12	09/07/2007
27284808	N05BA12	15/09/2003
27165699	N05BA12	13/05/2011
27150593	N05BA12	03/05/2006
27127731	N05BA12	05/06/2009
27284148	N05BA12	14/11/2006
27132827	N05BA12	10/12/2001
27128107	N05BA12	30/10/2007
27479586	N05BA12	25/10/2004
27287115	N05BA12	08/01/2009
27477658	N05BA12	27/05/2006
27623618	N05BA12	04/01/2009
27775019	N05BA12	07/10/2010
27066420	N05BA12	13/01/2011
26975914	N05BA12	16/08/2010
26970953	N05BA12	03/03/2005
27663478	N05BA12	12/12/2002
27025269	N05BA12	05/05/2011
27249520	N05BA12	17/02/2010
26829603	N05BA12	27/09/2010
1016318	N05BA12	26/05/2011
619935	N05BA12	31/01/2007
27126839	N05BA12	06/05/2011
12974157	N05BA12	17/01/2011
27248683	N05BA12	13/05/2009
27220237	N05BA12	24/05/2011
27252613	N05BA12	11/05/2007
27105042	N05BA12	25/05/2011
27477666	N05BA12	18/03/2005
26846863	N05BA12	22/07/2010
26825077	N05BA12	09/06/2003
27104386	N05BA12	01/04/2008
18199767	N05BA12	04/02/2009
27516344	N05BA12	27/09/2006
27782628	N05BA12	19/11/2010
27662048	N05BA12	26/12/2001
27674960	N05BA12	02/12/2004
27784826	N05BA12	15/01/2007
27516033	N05BA12	04/02/2010
27772101	N05BA12	26/08/2010
27454877	N05BA12	12/05/2004
27533855	N05BA12	01/03/2007
27773698	N05BA12	31/05/2011
27682049	N05BA12	04/09/2009
27540377	N05BA12	25/03/2010
27540379	N05BA12	03/03/2010
27533892	N05BA12	30/04/2008
27784042	N05BA12	11/11/2004
27530374	N05BA12	11/02/2004
27531352	N05BA12	24/06/2008
27538114	N05BA12	26/05/2011
27785654	N05BA12	24/08/2004
27669827	N05BA12	13/05/2004
27662017	N05BA12	05/11/2008
27460023	N05BA12	05/07/2009
27673948	N05BA12	25/01/2002
27563265	N05BA12	27/06/2007
27563283	N05BA12	05/11/2007
27534917	N05BA12	25/02/2009
27534918	N05BA12	03/10/2008
27685556	N05BA12	18/11/2010
27309473	N05BA12	15/11/2004
27676122	N05BA12	27/12/2010
27475077	N05BA12	07/04/2011
27708419	N05BA12	10/08/2007
27475520	N05BA12	16/05/2011
27477114	N05BA12	07/07/2005
27679944	N05BA12	25/10/2002
27778129	N05BA12	20/06/2006
27679038	N05BA12	14/01/2005
27674365	N05BA12	11/07/2001
27773439	N05BA12	29/05/2007
12977585	N05BA12	28/08/2008
27531259	N05BA12	08/02/2007
27533492	N05BA12	23/05/2006
24661879	N05BA12	02/03/2011
27668113	N05BA12	20/03/2007
27543143	N05BA12	07/11/2005
19423467	N05BA12	28/12/2007
27662604	N05BA12	14/02/2006
27663724	N05BA12	12/09/2008
25717446	N05BA12	04/09/2009
27684001	N05BA12	02/08/2004
27355732	N05BA12	24/09/2008
26825187	N05BA12	23/12/2004
27680750	N05BA12	07/07/2009
27444018	N05BA12	25/02/2009
27029757	N05BA12	29/03/2011
27687348	N05BA12	02/02/2010
27198984	N05BA12	03/11/2009
26835519	N05BA12	13/08/2007
26881455	N05BA12	21/05/2007
27648562	N05BA12	12/05/2009
27508678	N05BA12	18/05/2011
27509248	N05BA12	05/06/2007
27495807	N05BA12	22/02/2010
27537759	N05BA12	23/02/2007
27527372	N05BA12	04/11/2010
27537448	N05BA12	07/03/2011
27496739	N05BA12	12/03/2007
27454435	N05BA12	29/05/2011
27449948	N05BA12	27/08/2004
27455159	N05BA12	26/01/2006
27539236	N05BA12	21/07/2003
27529083	N05BA12	14/05/2009
27602543	N05BA12	09/12/2005
27321099	N05BA12	16/07/2008
27591823	N05BA12	22/02/2011
27449105	N05BA12	05/01/2010
27449496	N05BA12	25/11/2004
27528685	N05BA12	28/09/2010
27597325	N05BA12	13/09/2007
27614281	N05BA12	03/07/2009
27591699	N05BA12	29/05/2011
27527681	N05BA12	21/12/2004
27539523	N05BA12	18/11/2008
27540250	N05BA12	28/06/2010
27515695	N05BA12	23/10/2006
27444508	N05BA12	05/10/2010
27620995	N05BA12	05/08/2010
27527929	N05BA12	22/03/2010
27516538	N05BA12	12/12/2005
27621963	N05BA12	11/05/2010
27456285	N05BA12	21/09/2006
27453474	N05BA12	18/05/2011
26933407	N05BA12	11/05/2011
27033377	N05BA12	05/03/2009
16568199	N05BA12	21/12/2006
26619933	N05BA12	19/05/2011
27667744	N05BA12	24/12/2009
26854951	N05BA12	19/05/2011
26830544	N05BA12	31/03/2009
427287	N05BA12	04/02/2009
27794597	N05BA12	25/03/2004
26780894	N05BA12	19/04/2005
27043127	N05BA12	25/05/2011
27764992	N05BA12	30/04/2011
27540391	N05BA12	20/08/2008
27444984	N05BA12	30/08/2010
27810792	N05BA12	25/10/2005
2958933	N05BA12	26/08/2009
2959222	N05BA12	25/05/2001
27455596	N05BA12	18/12/2008
27796469	N05BA12	14/10/2009
27803448	N05BA12	16/09/2010
27579596	N05BA12	17/05/2011
27539225	N05BA12	17/05/2010
26962759	N05BA12	08/11/2010
26959747	N05BA12	30/05/2011
27811161	N05BA12	27/05/2011
27764988	N05BA12	20/03/2007
27804595	N05BA12	23/03/2009
27663273	N05BA12	27/05/2011
27546390	N05BA12	25/06/2009
27799688	N05BA12	21/11/2006
27212642	N05BA12	25/11/2005
27806448	N05BA12	10/01/2008
27707583	N05BA12	26/10/2010
27686953	N05BA12	10/02/2010
27797371	N05BA12	16/05/2011
27676312	N05BA12	06/05/2010
27799100	N05BA12	16/07/2008
27804245	N05BA12	14/10/2003
27765654	N05BA12	30/05/2011
27804103	N05BA12	24/03/2011
27662207	N05BA12	17/02/2004
27756194	N05BA12	26/05/2011
27760886	N05BA12	27/07/2010
27676239	N05BA12	20/05/2009
27676260	N05BA12	20/04/2009
27716744	N05BA12	14/09/2009
27667263	N05BA12	27/09/2006
27797674	N05BA12	29/01/2002
26865262	N05BA12	13/05/2010
27707178	N05BA12	13/02/2006
27716806	N05BA12	03/11/2005
27682864	N05BA12	11/04/2011
27686175	N05BA12	12/12/2003
27693810	N05BA12	30/05/2011
27811586	N05BA12	28/10/2009
27665005	N05BA12	26/11/2010
27666478	N05BA12	28/05/2011
27715841	N05BA12	04/06/2010
27684475	N05BA12	20/10/2004
27067043	N05BA12	11/01/2010
27576566	N05BA12	09/05/2006
27716869	N05BA12	15/12/2010
25641634	N05BA12	04/11/2009
27072072	N05BA12	11/08/2008
27667214	N05BA12	11/08/2006
2958452	N05BA12	16/10/2008
25739016	N05BA12	07/06/2005
27794774	N05BA12	02/02/2006
26770940	N05BA12	07/09/2010
1911207	N05BA12	21/09/2006
27325643	N05BA12	11/08/2010
620759	N05BA12	16/06/2010
16844242	N05BA12	15/04/2005
27201330	N05BA12	26/09/2003
27574464	N05BA12	30/03/2007
27720525	N05BA12	12/04/2006
27148088	N05BA12	08/03/2010
27520212	N05BA12	08/02/2008
24581757	N05BA12	04/12/2007
27693935	N05BA12	13/07/2009
27047014	N05BA12	05/03/2003
27614092	N05BA12	21/05/2011
26975695	N05BA12	11/06/2004
12993325	N05BA12	29/10/2008
26834550	N05BA12	27/10/2006
26933091	N05BA12	26/05/2011
27809879	N05BA12	22/01/2007
27780895	N05BA12	29/05/2011
27326047	N05BA12	21/07/2008
27326126	N05BA12	27/06/2008
27775707	N05BA12	21/09/2004
27782172	N05BA12	26/11/2009
21554527	N05BA12	25/08/2010
26944919	N05BA12	29/07/2009
27552757	N05BA12	27/05/2011
27794198	N05BA12	08/06/2006
27794205	N05BA12	28/09/2009
27794211	N05BA12	20/03/2006
26760853	N05BA12	07/10/2010
27246927	N05BA12	26/05/2011
27037506	N05BA12	02/10/2007
26877058	N05BA12	01/09/2005
11937600	N05BA12	02/02/2010
18194111	N05BA12	30/05/2011
27160813	N05BA12	06/03/2007
27782658	N05BA12	27/05/2003
27775084	N05BA12	11/04/2006
27220725	N05BA12	06/03/2006
27811495	N05BA12	22/06/2009
27367475	N05BA12	22/02/2008
27785385	N05BA12	02/10/2007
27769702	N05BA12	18/01/2010
27804379	N05BA12	27/09/2005
33008470	N05BA12	23/09/2010
33103102	N05BA12	19/08/2009
33008475	N05BA12	14/12/2010
33100103	N05BA12	15/04/2005
33015557	N05BA12	24/11/2008
33072082	N05BA12	15/01/2008
33033701	N05BA12	26/03/2004
33031759	N05BA12	03/05/2009
33127148	N05BA12	10/05/2011
33065576	N05BA12	09/08/2010
33019812	N05BA12	04/12/2006
33099219	N05BA12	11/03/2008
33007757	N05BA12	27/02/2009
33073611	N05BA12	14/11/2006
33101266	N05BA12	13/11/2006
33144464	N05BA12	05/06/2008
33067601	N05BA12	28/01/2011
33015149	N05BA12	14/12/2000
33066649	N05BA12	27/03/2001
33114019	N05BA12	23/02/2011
33005877	N05BA12	06/03/2006
33108903	N05BA12	18/03/2011
33010518	N05BA12	21/05/2008
33072290	N05BA12	18/05/2011
33025193	N05BA12	17/12/2007
33081884	N05BA12	24/08/2010
33007817	N05BA12	30/09/2002
33070878	N05BA12	30/05/2007
33072179	N05BA12	25/05/2011
33018138	N05BA12	20/05/2011
33112449	N05BA12	13/05/2011
33013406	N05BA12	07/01/2004
33117165	N05BA12	29/09/2009
33068276	N05BA12	20/12/2007
33111429	N05BA12	22/06/2006
33087436	N05BA12	07/11/2007
33034767	N05BA12	20/05/2005
33083327	N05BA12	22/01/2008
33072253	N05BA12	13/10/2005
33026638	N05BA12	18/09/2003
33025068	N05BA12	13/05/2011
33004867	N05BA12	21/07/2008
33090387	N05BA12	25/11/2010
33106497	N05BA12	25/05/2011
33106840	N05BA12	04/05/2011
33051995	N05BA12	03/12/2007
33098674	N05BA12	13/02/2009
33039975	N05BA12	27/03/2007
33071523	N05BA12	20/07/2007
33020581	N05BA12	06/03/2008
33098337	N05BA12	28/03/2001
33073796	N05BA12	29/07/2009
33072905	N05BA12	04/12/2006
33013033	N05BA12	23/06/2008
33112374	N05BA12	26/03/2001
33103479	N05BA12	22/10/2009
33006169	N05BA12	19/05/2011
33046246	N05BA12	23/04/2002
33071618	N05BA12	25/10/2004
33085372	N05BA12	29/03/2007
33065816	N05BA12	04/05/2011
33019197	N05BA12	07/07/2004
33026052	N05BA12	11/05/2011
33072776	N05BA12	27/11/2009
33007739	N05BA12	23/03/2009
33014069	N05BA12	26/04/2004
26636182	N05BA12	16/12/2008
27661862	N05BA12	05/11/2004
19967442	N05BA12	22/12/2008
33079470	N05BA12	31/05/2001
27551829	N05BA12	05/09/2002
27796507	N05BA12	21/07/2010
6636104	N05BA12	07/05/2011
420958	N05BA12	19/04/2010
2962167	N05BA12	10/06/2003
27796540	N05BA12	02/03/2009
26972182	N05BA12	06/05/2011
27507107	N05BA12	10/05/2011
12995018	N05BA12	04/01/2005
27112593	N05BA12	17/03/2005
187834	N05BA12	26/11/2010
27811908	N05BA12	21/06/2005
33043382	N05BA12	23/05/2011
2251569	N05BA12	24/03/2010
27321282	N05BA12	22/05/2008
33022598	N05BA12	09/07/2010
33042521	N05BA12	04/05/2011
27800055	N05BA12	08/01/2011
184941	N05BA12	14/05/2003
185054	N05BA12	23/11/2009
27805178	N05BA12	23/08/2005
1905033	N05BA12	09/09/2010
27798253	N05BA12	12/04/2005
27800569	N05BA12	03/05/2011
27798157	N05BA12	04/05/2011
27800241	N05BA12	20/01/2011
18189547	N05BA12	16/05/2011
27668753	N05BA12	03/03/2011
1373130	N05BA12	30/03/2006
2958097	N05BA12	12/02/2008
33008240	N05BA12	03/05/2011
33002823	N05BA12	12/01/2004
26626671	N05BA12	11/03/2011
16567941	N05BA12	25/08/2005
24666775	N05BA12	09/08/2010
33086713	N05BA12	23/12/2003
265805	N05BA12	12/05/2011
16840498	N05BA12	18/04/2011
33011062	N05BA12	05/04/2011
28018387	N05BA12	05/09/2006
23396691	N05BA12	04/01/2008
23362899	N05BA12	11/05/2011
33298715	N05BA12	28/04/2011
24463080	N05BA12	29/01/2009
23343121	N05BA12	22/11/2007
16632057	N05BA12	16/07/2009
16640292	N05BA12	22/10/2010
33299239	N05BA12	26/05/2011
23407522	N05BA12	05/05/2011
33064650	N05BA12	09/04/2008
23320348	N05BA12	18/10/2006
21109127	N05BA12	31/05/2011
16619763	N05BA12	19/01/2011
27984037	N05BA12	09/09/2009
16619587	N05BA12	20/07/2004
33234595	N05BA12	12/01/2009
27914330	N05BA12	28/06/2006
23335211	N05BA12	24/02/2005
33113958	N05BA12	29/09/2009
33104458	N05BA12	26/04/2010
33004366	N05BA12	11/03/2010
33058319	N05BA12	29/04/2011
33012908	N05BA12	22/02/2001
33006191	N05BA12	06/02/2008
33024104	N05BA12	08/03/2002
33070916	N05BA12	29/08/2007
33039979	N05BA12	15/11/2001
33056325	N05BA12	08/02/2011
33117698	N05BA12	17/05/2011
33073370	N05BA12	14/10/2003
33104216	N05BA12	11/10/2006
33013638	N05BA12	09/08/2006
33019851	N05BA12	13/07/2001
33074992	N05BA12	04/02/2011
33028840	N05BA12	20/05/2011
33000877	N05BA12	30/10/2000
33034545	N05BA12	05/05/2005
33025320	N05BA12	25/02/2010
33019718	N05BA12	20/12/2001
33083224	N05BA12	05/01/2007
33033482	N05BA12	18/09/2007
33011109	N05BA12	29/06/2008
33045618	N05BA12	12/07/2010
33093000	N05BA12	28/04/2011
33101757	N05BA12	25/08/2009
33025768	N05BA12	26/12/2000
33033729	N05BA12	20/02/2007
33063789	N05BA12	06/02/2008
33052051	N05BA12	29/03/2011
33003698	N05BA12	06/03/2007
33034590	N05BA12	12/03/2003
33104966	N05BA12	22/07/2008
33018547	N05BA12	22/01/2001
33089997	N05BA12	23/03/2007
33098972	N05BA12	17/11/2004
33075595	N05BA12	10/02/2006
33112464	N05BA12	25/01/2007
33088645	N05BA12	09/01/2009
33033727	N05BA12	29/10/2003
33043674	N05BA12	02/04/2009
33032983	N05BA12	28/04/2003
33094907	N05BA12	19/12/2007
33046881	N05BA12	18/12/2006
33041735	N05BA12	11/11/2010
33019650	N05BA12	16/03/2009
33004431	N05BA12	30/03/2011
33110291	N05BA12	12/08/2010
33030275	N05BA12	22/10/2010
33091289	N05BA12	27/11/2002
33011946	N05BA12	16/05/2011
33066033	N05BA12	01/10/2010
33089329	N05BA12	31/03/2007
33068017	N05BA12	27/02/2009
33093762	N05BA12	31/05/2011
33058332	N05BA12	18/03/2011
33064084	N05BA12	07/02/2002
33112644	N05BA12	23/08/2004
33080840	N05BA12	12/02/2009
23227463	N05BA12	13/05/2005
33234694	N05BA12	03/10/2009
16625249	N05BA12	11/11/2010
27983775	N05BA12	18/01/2010
16626011	N05BA12	30/05/2011
23329515	N05BA12	29/04/2010
33236253	N05BA12	28/12/2010
33239141	N05BA12	31/05/2005
23396603	N05BA12	23/05/2011
23329332	N05BA12	11/08/2006
21100330	N05BA12	14/10/2009
18768957	N05BA12	05/06/2009
21101165	N05BA12	21/01/2011
33231347	N05BA12	03/06/2004
33264985	N05BA12	09/05/2011
33315653	N05BA12	15/09/2009
14188303	N05BA12	26/02/2008
28029027	N05BA12	28/10/2010
33314396	N05BA12	20/08/2010
33245491	N05BA12	26/02/2008
33298283	N05BA12	17/05/2011
16708333	N05BA12	27/01/2010
23407371	N05BA12	20/09/2004
16609624	N05BA12	11/05/2011
33298665	N05BA12	23/08/2010
33228189	N05BA12	30/05/2011
24463738	N05BA12	17/12/2010
23328512	N05BA12	01/07/2003
33204424	N05BA12	28/08/2009
28028893	N05BA12	13/05/2010
33306067	N05BA12	27/06/2008
28005534	N05BA12	08/03/2011
33206545	N05BA12	29/09/2010
16773855	N05BA12	14/02/2008
16712061	N05BA12	29/04/2005
16616087	N05BA12	18/05/2004
21107457	N05BA12	03/03/2010
23402038	N05BA12	06/05/2011
23401443	N05BA12	12/05/2011
18766148	N05BA12	21/01/2004
23405747	N05BA12	30/03/2010
21110120	N05BA12	25/04/2007
23404958	N05BA12	23/09/2010
23346518	N05BA12	21/01/2005
23396561	N05BA12	23/11/2004
23371267	N05BA12	11/10/2004
23362700	N05BA12	03/11/2009
33228458	N05BA12	20/05/2011
33206523	N05BA12	18/05/2011
18757155	N05BA12	03/01/2008
23342956	N05BA12	04/02/2011
18755562	N05BA12	30/01/2009
16705311	N05BA12	19/05/2010
24463048	N05BA12	30/08/2010
27857946	N05BA12	08/10/2009
28016404	N05BA12	11/05/2009
16630857	N05BA12	17/02/2004
33237229	N05BA12	29/07/2009
16631616	N05BA12	08/10/2007
33206254	N05BA12	13/10/2009
28022506	N05BA12	09/05/2011
21102362	N05BA12	09/03/2011
16181604	N05BA12	16/02/2009
33200579	N05BA12	06/10/2009
23332844	N05BA12	10/08/2010
23353462	N05BA12	05/04/2005
23353839	N05BA12	13/05/2009
20986175	N05BA12	30/05/2011
23402345	N05BA12	02/02/2011
23404666	N05BA12	08/09/2006
21116941	N05BA12	27/01/2011
21100889	N05BA12	24/02/2011
16124919	N05BA12	21/05/2010
21011333	N05BA12	09/09/2008
21102557	N05BA12	14/10/2009
20986311	N05BA12	17/04/2009
20986270	N05BA12	13/11/2006
23381263	N05BA12	12/05/2006
27847304	N05BA12	13/05/2004
23364191	N05BA12	28/12/2010
28013320	N05BA12	14/08/2006
33304409	N05BA12	05/05/2011
16135931	N05BA12	18/08/2006
33246372	N05BA12	11/05/2011
16136094	N05BA12	26/10/2010
18757709	N05BA12	20/10/2008
24463058	N05BA12	08/01/2009
31996547	N05BA12	01/08/2006
32181933	N05BA12	21/11/2003
31364482	N05BA12	17/05/2006
31465264	N05BA12	20/02/2006
31967836	N05BA12	15/12/2008
23317066	N05BA12	21/09/2004
33313325	N05BA12	15/08/2010
16124564	N05BA12	02/07/2009
33220514	N05BA12	22/10/2004
21111787	N05BA12	29/09/2003
16630904	N05BA12	12/04/2007
16621680	N05BA12	27/05/2011
21108146	N05BA12	29/04/2008
23401637	N05BA12	17/11/2009
21102426	N05BA12	14/04/2011
16623063	N05BA12	21/10/2009
23349644	N05BA12	28/12/2010
23402611	N05BA12	27/02/2007
23413392	N05BA12	07/05/2007
27984029	N05BA12	29/04/2011
27847870	N05BA12	21/01/2011
33314215	N05BA12	01/07/2009
16598795	N05BA12	19/10/2007
27983561	N05BA12	11/03/2010
23332688	N05BA12	30/09/2003
23401166	N05BA12	17/04/2008
21116848	N05BA12	27/12/2010
23402803	N05BA12	23/10/2007
23340750	N05BA12	29/04/2005
23326983	N05BA12	26/09/2007
16604885	N05BA12	29/04/2011
16615226	N05BA12	18/05/2011
23408437	N05BA12	07/04/2011
21110578	N05BA12	18/10/2005
23412639	N05BA12	11/04/2011
23328626	N05BA12	07/08/2006
33297074	N05BA12	29/10/2010
32278286	N05BA12	17/03/2008
32228944	N05BA12	16/01/2007
31077992	N05BA12	25/04/2005
31133735	N05BA12	06/07/2010
31115859	N05BA12	11/04/2008
31162165	N05BA12	18/06/2007
31243783	N05BA12	24/11/2009
32217710	N05BA12	16/01/2008
32196437	N05BA12	22/06/2010
31898892	N05BA12	28/09/2006
31355319	N05BA12	07/02/2007
32176436	N05BA12	03/04/2006
31675939	N05BA12	04/05/2009
31946667	N05BA12	28/05/2011
32168227	N05BA12	08/10/2010
31339338	N05BA12	26/09/2008
31791854	N05BA12	28/11/2008
31551857	N05BA12	14/06/2007
31880331	N05BA12	13/01/2005
31549444	N05BA12	22/04/2008
31550961	N05BA12	28/03/2008
31547137	N05BA12	15/12/2008
31445246	N05BA12	16/11/2010
31894550	N05BA12	19/11/2002
31138154	N05BA12	30/07/2007
31573567	N05BA12	30/12/2010
31473062	N05BA12	01/03/2007
31370018	N05BA12	03/10/2010
31941393	N05BA12	07/02/2007
31849598	N05BA12	07/11/2008
31704051	N05BA12	27/06/2007
31994638	N05BA12	28/07/2004
31282373	N05BA12	11/03/2011
31298801	N05BA12	16/11/2007
32228131	N05BA12	09/03/2006
31538378	N05BA12	12/07/2006
31340376	N05BA12	26/07/2010
31753023	N05BA12	24/09/2002
31164952	N05BA12	23/10/2003
31979808	N05BA12	11/08/2005
31428096	N05BA12	04/01/2010
31178234	N05BA12	25/08/2009
31768948	N05BA12	13/11/2009
31074296	N05BA12	21/02/2002
32030521	N05BA12	04/11/2010
32272392	N05BA12	24/08/2009
32121191	N05BA12	08/10/2004
32153084	N05BA12	25/10/2006
32169186	N05BA12	27/12/2007
31469680	N05BA12	07/06/2001
31517581	N05BA12	09/11/2004
31119347	N05BA12	14/01/2005
31110492	N05BA12	26/11/2010
31207975	N05BA12	07/02/2005
31833062	N05BA12	15/01/2007
32251733	N05BA12	04/06/2007
31337120	N05BA12	22/09/2010
31400525	N05BA12	09/06/2008
31115938	N05BA12	25/10/2002
32040808	N05BA12	02/01/2004
31198881	N05BA12	16/10/2007
31636579	N05BA12	17/12/2007
31406972	N05BA12	24/11/2005
31179758	N05BA12	20/02/2006
31315923	N05BA12	08/04/2011
32269816	N05BA12	30/06/2010
32261660	N05BA12	30/01/2006
32022779	N05BA12	22/09/2004
32117832	N05BA12	06/05/2005
31246912	N05BA12	26/01/2009
32153585	N05BA12	02/11/2010
31384308	N05BA12	01/12/2005
31816975	N05BA12	26/11/2008
31039639	N05BA12	05/02/2009
32176799	N05BA12	19/05/2005
31267473	N05BA12	14/07/2004
32038212	N05BA12	13/08/2009
31930108	N05BA12	18/09/2008
31428879	N05BA12	19/11/2004
32036937	N05BA12	21/12/2009
31346081	N05BA12	20/11/2008
31199652	N05BA12	24/03/2009
31294029	N05BA12	23/03/2005
31038837	N05BA12	10/05/2006
31114130	N05BA12	11/12/2009
31963757	N05BA12	02/06/2006
32117089	N05BA12	01/07/2005
31876272	N05BA12	28/01/2004
31184648	N05BA12	10/05/2005
31829882	N05BA12	24/06/2005
31338379	N05BA12	12/07/2010
31595159	N05BA12	29/12/2009
32242174	N05BA12	02/10/2008
31814756	N05BA12	23/08/2010
31491434	N05BA12	15/12/2010
31990260	N05BA12	19/09/2007
31545829	N05BA12	26/01/2006
31427598	N05BA12	24/10/2005
32216487	N05BA12	12/06/2006
32029860	N05BA12	11/12/2007
32054028	N05BA12	28/02/2005
31105428	N05BA12	15/10/2009
31316016	N05BA12	09/12/2010
31290105	N05BA12	06/11/2006
31171842	N05BA12	10/06/2003
31809403	N05BA12	02/08/2010
32053946	N05BA12	24/10/2007
31866867	N05BA12	03/10/2007
32020581	N05BA12	18/06/2007
31713716	N05BA12	04/05/2007
32093110	N05BA12	04/12/2008
31509951	N05BA12	22/09/2006
31544310	N05BA12	31/07/2008
31547356	N05BA12	12/11/2008
31336882	N05BA12	09/11/2010
31486989	N05BA12	29/09/2006
31294985	N05BA12	13/06/2007
31542276	N05BA12	24/03/2008
32086236	N05BA12	06/01/2010
31273552	N05BA12	19/10/2007
32160191	N05BA12	28/02/2003
31792074	N05BA12	15/12/2009
31417367	N05BA12	07/05/2004
31331386	N05BA12	04/06/2007
31225273	N05BA12	17/12/2010
32250577	N05BA12	30/05/2008
31842887	N05BA12	15/02/2005
32103218	N05BA12	20/12/2007
31591322	N05BA12	21/09/2007
31519483	N05BA12	26/05/2011
31179796	N05BA12	18/01/2007
31121989	N05BA12	29/12/2009
31977169	N05BA12	09/09/2004
31598954	N05BA12	03/12/2007
32058271	N05BA12	18/08/2005
31064542	N05BA12	03/12/2003
31187591	N05BA12	05/09/2008
32153313	N05BA12	10/01/2006
31808778	N05BA12	23/04/2009
31835258	N05BA12	17/12/2008
31790214	N05BA12	20/04/2009
32100197	N05BA12	29/06/2007
31941625	N05BA12	10/11/2010
31925813	N05BA12	12/05/2006
31227877	N05BA12	31/12/2009
32128492	N05BA12	05/02/2009
31102291	N05BA12	23/01/2003
31797785	N05BA12	07/11/2002
31759816	N05BA12	07/11/2006
31830918	N05BA12	26/05/2003
31580317	N05BA12	04/11/2003
31566542	N05BA12	12/06/2007
31839333	N05BA12	18/07/2005
31097143	N05BA12	15/03/2005
31701050	N05BA12	02/04/2011
31107119	N05BA12	06/03/2002
31488907	N05BA12	19/12/2006
31050791	N05BA12	04/04/2007
31311414	N05BA12	05/07/2006
31723265	N05BA12	22/03/2011
31112466	N05BA12	12/02/2010
31235668	N05BA12	21/07/2005
31225686	N05BA12	26/04/2006
31824660	N05BA12	13/04/2010
32211007	N05BA12	21/04/2011
31357765	N05BA12	31/01/2006
31897252	N05BA12	01/10/2010
31553569	N05BA12	11/04/2007
32132229	N05BA12	24/11/2005
31350321	N05BA12	14/07/2009
32244371	N05BA12	19/05/2006
31440348	N05BA12	20/12/2010
32160779	N05BA12	31/01/2005
31755855	N05BA12	08/04/2011
32049831	N05BA12	06/10/2010
31925603	N05BA12	06/06/2002
31548186	N05BA12	15/07/2010
31391874	N05BA12	22/05/2008
31480774	N05BA12	25/02/2009
31319783	N05BA12	18/12/2000
32173766	N05BA12	22/12/2004
31223261	N05BA12	29/06/2006
31217729	N05BA12	11/08/2008
32182514	N05BA12	28/10/2010
31617814	N05BA12	28/11/2006
32101280	N05BA12	26/11/2002
31148284	N05BA12	20/08/2008
31875631	N05BA12	19/08/2009
31661434	N05BA12	03/06/2008
32120488	N05BA12	08/04/2010
31390850	N05BA12	14/08/2008
31370484	N05BA12	18/05/2007
31697821	N05BA12	18/07/2005
32112901	N05BA12	27/06/2003
31300372	N05BA12	05/10/2007
31058744	N05BA12	01/08/2006
31223044	N05BA12	07/06/2005
32029664	N05BA12	15/05/2006
32236711	N05BA12	12/05/2009
31848002	N05BA12	03/07/2006
31696885	N05BA12	20/06/2003
31269212	N05BA12	27/03/2008
31660701	N05BA12	09/03/2000
31709931	N05BA12	12/05/2008
31662858	N05BA12	15/01/2009
31048661	N05BA12	18/11/2008
32261215	N05BA12	30/12/2009
31263929	N05BA12	27/10/2010
32130155	N05BA12	11/12/2008
32115409	N05BA12	26/01/2007
31062881	N05BA12	14/03/2008
31361206	N05BA12	10/08/2005
31795086	N05BA12	16/09/2004
31038595	N05BA12	05/02/2002
31207768	N05BA12	05/08/2010
31781991	N05BA12	11/04/2008
31584372	N05BA12	28/12/2006
31626899	N05BA12	13/11/2008
31358603	N05BA12	07/09/2004
32229216	N05BA12	23/07/2010
31486061	N05BA12	24/07/2006
32233713	N05BA12	12/09/2003
31615359	N05BA12	05/02/2009
31830714	N05BA12	05/11/2009
32228817	N05BA12	26/10/2006
31501859	N05BA12	16/11/2006
32146964	N05BA12	28/09/2010
31253638	N05BA12	18/01/2008
31345749	N05BA12	02/06/2006
31175582	N05BA12	18/04/2006
31864025	N05BA12	03/04/2008
31279651	N05BA12	28/06/2006
31917486	N05BA12	13/03/2003
31195218	N05BA12	10/08/2006
31179251	N05BA12	26/04/2006
31930714	N05BA12	29/12/2009
32117154	N05BA12	03/12/2009
31521420	N05BA12	14/04/2011
31792078	N05BA12	21/01/2008
31164565	N05BA12	04/09/2007
31665218	N05BA12	26/03/2004
31466534	N05BA12	01/12/2010
31294522	N05BA12	30/12/2010
31126185	N05BA12	01/06/2005
31954016	N05BA12	16/06/2010
31593707	N05BA12	18/12/2009
31790760	N05BA12	21/02/2006
31964376	N05BA12	08/08/2005
31416974	N05BA12	09/06/2009
32020101	N05BA12	23/11/2009
31277948	N05BA12	16/07/2010
31471030	N05BA12	05/11/2007
31048154	N05BA12	17/12/2007
32027600	N05BA12	28/04/2008
31343392	N05BA12	26/07/2007
31890406	N05BA12	18/03/2010
31289840	N05BA12	05/11/2003
31710128	N05BA12	22/04/2005
31325386	N05BA12	03/10/2007
31659535	N05BA12	04/01/2008
32024922	N05BA12	22/08/2005
31131188	N05BA12	29/12/2010
31345815	N05BA12	20/09/2007
32006568	N05BA12	27/05/2008
31296461	N05BA12	25/10/2006
32010235	N05BA12	12/03/2007
31786114	N05BA12	18/11/1999
31761935	N05BA12	01/09/2006
31634138	N05BA12	12/06/2007
32215164	N05BA12	29/03/2006
31784180	N05BA12	27/01/2009
31450772	N05BA12	28/08/2009
31284217	N05BA12	20/07/2007
31326912	N05BA12	22/12/2010
32176725	N05BA12	21/12/2006
32250490	N05BA12	13/11/2007
31474342	N05BA12	26/01/2005
31070465	N05BA12	09/10/2007
31384268	N05BA12	16/02/2006
31860480	N05BA12	22/12/2009
31236847	N05BA12	03/01/2008
31794135	N05BA12	11/03/2003
31880992	N05BA12	07/02/2008
31785126	N05BA12	24/03/2006
32072694	N05BA12	05/12/2007
31503486	N05BA12	04/12/2008
31995728	N05BA12	27/10/2010
31566058	N05BA12	11/05/2001
31672769	N05BA12	27/10/2010
32090511	N05BA12	08/02/2007
31374650	N05BA12	30/07/2003
31624444	N05BA12	02/11/2010
31053200	N05BA12	05/08/2008
31195300	N05BA12	24/12/2010
31811871	N05BA12	30/06/2006
32067365	N05BA12	04/04/2007
32081758	N05BA12	24/02/2010
31849175	N05BA12	30/01/2009
32278236	N05BA12	16/10/2007
32235440	N05BA12	22/01/2009
31087836	N05BA12	23/02/2006
32204910	N05BA12	17/10/2003
31734613	N05BA12	11/11/2009
31988729	N05BA12	16/07/2004
31994929	N05BA12	07/02/2011
32065963	N05BA12	20/09/2005
32269608	N05BA12	05/11/2008
31924748	N05BA12	22/03/2007
31837545	N05BA12	07/09/2009
31598866	N05BA12	09/01/2008
31896705	N05BA12	05/03/2007
31221320	N05BA12	03/02/2011
31989638	N05BA12	24/01/2011
31788025	N05BA12	07/05/2007
31050391	N05BA12	14/07/2010
31967869	N05BA12	15/01/2002
31534749	N05BA12	17/09/2002
31817649	N05BA12	11/09/2006
31611337	N05BA12	30/12/2009
31031831	N05BA12	31/03/2005
31197692	N05BA12	09/05/2007
31243635	N05BA12	22/12/2005
31628105	N05BA12	02/02/2005
31850345	N05BA12	06/10/2010
31249100	N05BA12	22/01/2009
31766682	N05BA12	27/01/2005
31230588	N05BA12	17/07/2009
32257370	N05BA12	29/05/2007
32185239	N05BA12	22/04/2004
31829600	N05BA12	11/07/2006
31513743	N05BA12	19/01/2011
32007468	N05BA12	21/02/2007
31695434	N05BA12	17/08/2005
31175621	N05BA12	20/04/2005
32256725	N05BA12	12/02/2008
31067036	N05BA12	23/03/2010
31850619	N05BA12	16/07/2007
31571787	N05BA12	26/09/2001
31428838	N05BA12	01/06/2004
32209727	N05BA12	14/06/2010
31914641	N05BA12	13/08/2001
31496747	N05BA12	26/07/2007
31592928	N05BA12	14/12/2010
31906218	N05BA12	06/02/2006
31595286	N05BA12	31/07/2007
32099788	N05BA12	22/08/2006
31427055	N05BA12	03/09/2009
32181106	N05BA12	06/10/2006
31180574	N05BA12	21/08/2008
31096124	N05BA12	14/01/2011
31679146	N05BA12	14/12/2001
32090750	N05BA12	27/02/2004
31673216	N05BA12	30/12/2008
32228473	N05BA12	07/04/2011
31444085	N05BA12	12/12/2006
31317920	N05BA12	11/02/2005
31552724	N05BA12	02/03/2005
32209127	N05BA12	14/12/2010
31833612	N05BA12	03/12/2010
31559202	N05BA12	26/01/2005
31729399	N05BA12	13/10/2008
32266059	N05BA12	30/11/2010
31269534	N05BA12	14/06/2007
31580940	N05BA12	25/09/2007
31071468	N05BA12	07/02/2011
31961729	N05BA12	10/07/2009
31378201	N05BA12	11/09/2002
31774644	N05BA12	06/10/2008
31820480	N05BA12	23/01/2009
31782180	N05BA12	17/02/2005
31158629	N05BA12	19/12/2002
32127700	N05BA12	24/09/2008
31205054	N05BA12	07/12/2009
32056724	N05BA12	17/05/2005
32042838	N05BA12	13/11/2007
31932019	N05BA12	03/02/2005
31331146	N05BA12	29/09/2009
32048927	N05BA12	21/12/2010
31493704	N05BA12	22/09/2010
31570017	N05BA12	30/11/2009
32192035	N05BA12	14/02/2005
31195567	N05BA12	25/12/2010
32149750	N05BA12	13/12/2006
31935285	N05BA12	16/08/2005
31142306	N05BA12	27/02/2009
32280196	N05BA12	12/07/2005
31467209	N05BA12	17/04/2007
31667004	N05BA12	14/10/2008
31505216	N05BA12	10/10/2006
31622158	N05BA12	11/03/2005
31722771	N05BA12	27/05/2004
31673952	N05BA12	24/01/2006
31447337	N05BA12	30/01/2008
31143232	N05BA12	02/02/2011
31305570	N05BA12	15/06/2007
31816328	N05BA12	03/07/2007
31245180	N05BA12	14/04/2009
31261675	N05BA12	05/03/2008
31062515	N05BA12	01/07/2009
31360089	N05BA12	30/10/2009
31216309	N05BA12	15/11/2006
31228032	N05BA12	11/10/2007
31867411	N05BA12	25/04/2007
31846862	N05BA12	14/05/2008
32241554	N05BA12	27/08/2007
31755351	N05BA12	16/05/2005
31683931	N05BA12	14/04/2010
31445382	N05BA12	05/11/2010
31942439	N05BA12	02/10/2003
31266701	N05BA12	22/04/2003
32262652	N05BA12	10/12/2008
31336713	N05BA12	09/02/2006
31353724	N05BA12	03/04/2009
31494795	N05BA12	08/06/2000
31632371	N05BA12	17/02/2011
31910942	N05BA12	26/01/2007
31655334	N05BA12	16/01/2007
31927282	N05BA12	08/02/2008
31163879	N05BA12	21/05/2010
31136816	N05BA12	11/02/2004
31917511	N05BA12	10/01/2002
31080402	N05BA12	25/06/2008
32064266	N05BA12	03/09/2002
31122698	N05BA12	01/09/2006
31508244	N05BA12	16/11/2004
31593317	N05BA12	11/08/2009
32079666	N05BA12	21/03/2006
31476789	N05BA12	15/12/2010
31155311	N05BA12	06/08/2008
31242923	N05BA12	16/12/2009
31244108	N05BA12	28/11/2005
31304092	N05BA12	06/10/2010
31647923	N05BA12	15/03/2011
31641752	N05BA12	16/02/2007
32266580	N05BA12	25/06/2008
31819179	N05BA12	29/08/2003
31074922	N05BA12	07/03/2006
31980952	N05BA12	27/12/2009
32264301	N05BA12	18/01/2010
32267141	N05BA12	03/03/2004
31328449	N05BA12	16/06/2006
31506905	N05BA12	14/04/2011
32028704	N05BA12	20/04/2006
31878709	N05BA12	22/12/2010
31750049	N05BA12	01/12/2010
31495297	N05BA12	23/05/2008
31493420	N05BA12	21/07/2008
31973561	N05BA12	22/10/2009
31051840	N05BA12	10/12/2009
31131365	N05BA12	22/08/2006
31320642	N05BA12	13/03/2002
31782240	N05BA12	16/10/2009
31419416	N05BA12	13/02/2009
32162343	N05BA12	04/08/2008
31318653	N05BA12	24/03/2004
31260854	N05BA12	18/12/2009
31357735	N05BA12	07/12/2009
31137209	N05BA12	18/01/2005
31321234	N05BA12	03/12/2009
31694662	N05BA12	17/09/2008
31413126	N05BA12	09/06/2003
31627955	N05BA12	27/07/2007
32262857	N05BA12	02/02/2006
31872910	N05BA12	20/01/2005
32185334	N05BA12	20/11/2002
31814249	N05BA12	27/01/2009
32133275	N05BA12	23/12/2004
31670926	N05BA12	08/10/2009
31259283	N05BA12	26/06/2006
31171674	N05BA12	29/11/2007
32154430	N05BA12	06/02/2009
31102716	N05BA12	26/10/2006
31159520	N05BA12	14/03/2006
31449578	N05BA12	04/07/2006
31861365	N05BA12	27/12/2007
31467275	N05BA12	02/12/2008
31548210	N05BA12	06/06/2002
31790134	N05BA12	16/09/2009
31753410	N05BA12	23/02/2009
31386421	N05BA12	04/10/2004
31479508	N05BA12	26/11/2008
31747915	N05BA12	13/04/2007
31290437	N05BA12	20/03/2007
31346194	N05BA12	09/12/2010
31501116	N05BA12	21/12/2006
31615865	N05BA12	02/03/2007
31564531	N05BA12	16/07/2009
32215650	N05BA12	19/07/2006
31111424	N05BA12	21/08/2001
32173779	N05BA12	10/12/2003
31923548	N05BA12	12/12/2003
31515034	N05BA12	06/02/2006
32100879	N05BA12	07/04/2011
31721691	N05BA12	11/01/2005
31566843	N05BA12	12/11/2009
31446226	N05BA12	03/03/2004
31149717	N05BA12	23/02/2011
32087928	N05BA12	16/04/2007
31157330	N05BA12	15/12/2009
31703712	N05BA12	07/04/2011
31731744	N05BA12	10/03/2006
31850117	N05BA12	24/02/2004
