patient_id	covar_name	date
14865414	N06AX05	29/04/2011
7349356	N06AX05	19/01/2011
12760945	N06AX05	05/01/2011
24722159	N06AX05	05/05/2011
9982943	N06AX05	14/01/2008
6887463	N06AX05	01/10/2008
12781913	N06AX05	27/05/2011
10004067	N06AX05	03/06/2009
21872266	N06AX05	06/06/2003
13940459	N06AX05	13/01/2011
12688723	N06AX05	25/05/2011
3322587	N06AX05	20/04/2011
6080444	N06AX05	12/12/2008
8786041	N06AX05	23/06/2010
6759472	N06AX05	20/10/2005
10953751	N06AX05	22/02/2011
9294363	N06AX05	17/05/2011
610374	N06AX05	24/05/2011
7243139	N06AX05	30/03/2011
12696466	N06AX05	29/09/2009
17172780	N06AX05	05/11/2010
16915547	N06AX05	19/05/2011
3318713	N06AX05	26/01/2011
12737954	N06AX05	15/03/2010
12171465	N06AX05	01/06/2011
25051083	N06AX05	11/01/2008
6752008	N06AX05	20/05/2009
25059661	N06AX05	29/09/2005
19228281	N06AX05	21/02/2011
10270807	N06AX05	07/05/2011
17170528	N06AX05	27/02/2011
294247	N06AX05	18/12/2002
16100399	N06AX05	30/11/2010
1517273	N06AX05	15/12/2009
5864959	N06AX05	10/05/2011
1666268	N06AX05	03/05/2011
1446082	N06AX05	29/11/2010
6594762	N06AX05	15/03/2011
24718616	N06AX05	11/03/2011
1444184	N06AX05	12/03/2008
7797621	N06AX05	12/05/2003
8923087	N06AX05	20/02/2008
1208462	N06AX05	26/04/2011
7654868	N06AX05	15/04/2011
1263401	N06AX05	30/05/2011
8934911	N06AX05	15/06/2004
7972566	N06AX05	18/02/2011
1199932	N06AX05	10/06/2009
1666507	N06AX05	01/05/2011
1666026	N06AX05	17/12/2008
1850285	N06AX05	19/04/2011
1321721	N06AX05	06/03/2009
648760	N06AX05	31/05/2011
1545758	N06AX05	12/04/2011
8933362	N06AX05	28/01/2008
645626	N06AX05	28/03/2011
1205547	N06AX05	27/05/2011
4700483	N06AX05	01/06/2011
24718581	N06AX05	18/08/2009
7848502	N06AX05	28/04/2009
7964309	N06AX05	26/04/2011
641313	N06AX05	23/05/2011
6593822	N06AX05	16/09/2008
24945399	N06AX05	15/10/2010
540075	N06AX05	26/07/2007
1417941	N06AX05	26/04/2011
6598274	N06AX05	26/05/2011
6594016	N06AX05	16/11/2005
1264564	N06AX05	03/11/2009
1276321	N06AX05	01/05/2011
8956475	N06AX05	06/09/2010
1850960	N06AX05	30/09/2009
6597292	N06AX05	30/10/2007
1353316	N06AX05	12/12/2005
7849021	N06AX05	29/01/2010
5992383	N06AX05	23/03/2010
6423585	N06AX05	29/04/2011
1199856	N06AX05	13/07/2007
1090924	N06AX05	10/07/2002
1670263	N06AX05	22/04/2008
7777716	N06AX05	14/08/2010
7776373	N06AX05	02/10/2003
1296085	N06AX05	13/07/2004
7966778	N06AX05	27/04/2011
24718506	N06AX05	11/11/2008
6603214	N06AX05	10/05/2011
1132264	N06AX05	03/12/2001
13733143	N06AX05	06/07/2009
1425322	N06AX05	09/05/2011
24719753	N06AX05	12/06/2003
1102247	N06AX05	20/03/2003
1102090	N06AX05	16/10/2009
715994	N06AX05	31/01/2005
21282892	N06AX05	07/04/2011
1135359	N06AX05	05/12/2002
999093	N06AX05	27/08/2008
1100552	N06AX05	22/06/2006
1640729	N06AX05	08/04/2011
194827	N06AX05	20/05/2011
2068080	N06AX05	20/03/2009
2132832	N06AX05	11/08/2008
2142935	N06AX05	13/07/2010
2143723	N06AX05	20/05/2011
758835	N06AX05	25/05/2011
859956	N06AX05	17/05/2010
859215	N06AX05	18/03/2010
903895	N06AX05	10/05/2011
859041	N06AX05	20/01/2010
2777014	N06AX05	25/04/2011
6434327	N06AX05	08/03/2007
2755855	N06AX05	25/03/2003
2239289	N06AX05	26/02/2003
2525077	N06AX05	30/12/2003
28041048	N06AX05	11/04/2011
7228785	N06AX05	22/11/2010
17741284	N06AX05	26/04/2011
28042025	N06AX05	23/05/2011
11583878	N06AX05	20/05/2011
423010	N06AX05	17/05/2011
1903000	N06AX05	18/05/2009
419475	N06AX05	10/11/2009
433748	N06AX05	24/04/2011
2249543	N06AX05	29/03/2011
1904412	N06AX05	31/08/2005
4262552	N06AX05	29/12/2008
425076	N06AX05	05/05/2011
266327	N06AX05	29/09/2005
2960079	N06AX05	10/09/2008
28092534	N06AX05	01/09/2010
306134	N06AX05	21/05/2011
26588342	N06AX05	26/01/2011
28072352	N06AX05	10/06/2010
28086771	N06AX05	10/12/2009
28043285	N06AX05	25/05/2011
25742932	N06AX05	20/05/2011
25535638	N06AX05	09/10/2002
24655998	N06AX05	01/09/2008
24658550	N06AX05	03/05/2011
25742981	N06AX05	01/06/2011
25743607	N06AX05	13/10/2009
25539451	N06AX05	07/05/2010
24658487	N06AX05	06/03/2009
24668665	N06AX05	09/04/2011
26629170	N06AX05	30/05/2011
25717471	N06AX05	08/02/2006
1905426	N06AX05	30/05/2011
19964901	N06AX05	18/02/2011
1903682	N06AX05	17/07/2009
1020473	N06AX05	27/05/2011
18194939	N06AX05	12/08/2008
1372207	N06AX05	26/03/2010
18187789	N06AX05	14/01/2011
1361853	N06AX05	13/03/2009
1372631	N06AX05	27/04/2011
40436	N06AX05	22/12/2006
18199909	N06AX05	11/05/2009
16840863	N06AX05	12/02/2008
21386521	N06AX05	04/02/2009
20070622	N06AX05	17/05/2011
18194455	N06AX05	07/09/2007
18196791	N06AX05	15/03/2007
19788236	N06AX05	18/01/2011
18197591	N06AX05	17/01/2008
22757992	N06AX05	10/05/2011
2986710	N06AX05	30/05/2011
1368304	N06AX05	27/05/2011
1899482	N06AX05	07/08/2009
2957533	N06AX05	04/05/2011
1912671	N06AX05	18/10/2005
1366818	N06AX05	28/01/2009
1910693	N06AX05	18/11/2009
926529	N06AX05	25/10/2004
26642443	N06AX05	28/08/2009
26823255	N06AX05	25/08/2010
26626070	N06AX05	29/04/2011
26638407	N06AX05	07/09/2009
14311205	N06AX05	19/04/2011
14310667	N06AX05	01/01/2011
10754719	N06AX05	19/08/2010
22923362	N06AX05	30/12/2008
24579155	N06AX05	08/04/2011
16567909	N06AX05	30/05/2011
26618323	N06AX05	07/05/2011
26625482	N06AX05	09/05/2011
26701387	N06AX05	01/10/2010
26723222	N06AX05	10/08/2009
11674234	N06AX05	28/02/2008
24659698	N06AX05	27/05/2011
22922995	N06AX05	30/03/2011
22922825	N06AX05	27/06/2008
21651847	N06AX05	15/01/2010
26946205	N06AX05	28/11/2003
26932610	N06AX05	18/01/2011
26931533	N06AX05	23/10/2009
26946237	N06AX05	22/05/2009
26946278	N06AX05	20/05/2011
26948731	N06AX05	03/04/2011
26936433	N06AX05	15/11/2010
26895311	N06AX05	14/11/2007
26879225	N06AX05	19/05/2009
26720306	N06AX05	05/04/2011
26900257	N06AX05	11/04/2011
26716003	N06AX05	18/05/2011
26742445	N06AX05	03/01/2008
26846064	N06AX05	11/02/2011
26714948	N06AX05	27/06/2007
26871932	N06AX05	03/04/2011
26887343	N06AX05	18/09/2008
26859334	N06AX05	10/03/2008
26939100	N06AX05	22/02/2010
26882035	N06AX05	27/11/2007
26933044	N06AX05	29/10/2010
26780754	N06AX05	25/02/2011
26717001	N06AX05	06/05/2011
26972749	N06AX05	18/06/2009
27106289	N06AX05	10/05/2011
27085746	N06AX05	26/07/2007
27115829	N06AX05	26/05/2008
27115659	N06AX05	05/04/2011
27106791	N06AX05	17/12/2010
27116163	N06AX05	09/05/2011
27104284	N06AX05	14/10/2009
27064483	N06AX05	10/03/2009
27052734	N06AX05	12/12/2007
27029722	N06AX05	13/05/2011
27127065	N06AX05	31/05/2011
27046655	N06AX05	21/02/2011
27065487	N06AX05	25/01/2008
26991420	N06AX05	11/04/2011
27038965	N06AX05	02/05/2011
27039739	N06AX05	12/05/2011
27041316	N06AX05	15/04/2011
26996216	N06AX05	13/06/2007
27039482	N06AX05	17/09/2009
26994966	N06AX05	23/11/2010
26996597	N06AX05	22/03/2011
27000699	N06AX05	12/07/2010
27039199	N06AX05	22/12/2010
27038386	N06AX05	30/11/2009
27400146	N06AX05	01/04/2011
27171122	N06AX05	20/06/2009
27369270	N06AX05	19/05/2011
27130080	N06AX05	20/06/2008
27358985	N06AX05	23/05/2011
27284737	N06AX05	05/05/2011
27254109	N06AX05	14/02/2009
27198906	N06AX05	24/05/2011
27303621	N06AX05	13/05/2011
27253334	N06AX05	01/07/2005
27296129	N06AX05	10/04/2011
27219070	N06AX05	08/03/2010
27352971	N06AX05	24/03/2011
27362717	N06AX05	17/04/2011
27363193	N06AX05	28/04/2009
27357965	N06AX05	12/04/2011
27304848	N06AX05	31/05/2011
27369903	N06AX05	27/03/2009
27352037	N06AX05	21/06/2010
27349855	N06AX05	08/01/2010
27362271	N06AX05	17/04/2011
27348533	N06AX05	26/07/2007
27296189	N06AX05	14/07/2010
27353964	N06AX05	03/05/2011
26989957	N06AX05	11/05/2011
26967221	N06AX05	08/06/2009
27253729	N06AX05	06/10/2008
26994284	N06AX05	22/10/2010
27171327	N06AX05	28/09/2009
27571525	N06AX05	25/02/2011
27640410	N06AX05	24/04/2011
27642131	N06AX05	05/05/2009
27589583	N06AX05	13/08/2008
27414554	N06AX05	21/04/2011
27427591	N06AX05	15/09/2009
27414681	N06AX05	18/12/2009
27639481	N06AX05	08/06/2010
27658377	N06AX05	03/07/2010
27752383	N06AX05	04/03/2010
27614610	N06AX05	08/08/2008
27292071	N06AX05	23/08/2005
27658878	N06AX05	10/01/2008
27242162	N06AX05	30/04/2009
27129360	N06AX05	10/05/2011
27147888	N06AX05	25/04/2011
27151886	N06AX05	05/01/2009
27162937	N06AX05	30/05/2011
27785567	N06AX05	05/05/2011
27783605	N06AX05	12/05/2011
26976144	N06AX05	25/01/2011
648889	N06AX05	16/06/2010
27220237	N06AX05	30/03/2006
27780235	N06AX05	07/04/2011
27516033	N06AX05	19/04/2010
27533855	N06AX05	20/09/2010
27475520	N06AX05	26/01/2011
27778908	N06AX05	05/11/2010
22922095	N06AX05	11/05/2009
27352244	N06AX05	11/05/2011
184096	N06AX05	16/05/2011
927134	N06AX05	27/01/2011
27029757	N06AX05	09/05/2007
27597126	N06AX05	28/04/2011
27591724	N06AX05	06/07/2009
27540250	N06AX05	19/05/2010
27317448	N06AX05	09/04/2011
27538271	N06AX05	11/05/2011
26619933	N06AX05	14/04/2011
18196060	N06AX05	16/03/2005
21705761	N06AX05	30/03/2011
27133136	N06AX05	20/11/2009
27154246	N06AX05	12/06/2010
26992651	N06AX05	11/03/2011
26971047	N06AX05	10/05/2011
27086174	N06AX05	28/03/2011
26742398	N06AX05	19/01/2007
419700	N06AX05	16/05/2000
27783945	N06AX05	07/05/2011
27806448	N06AX05	01/07/2003
27657730	N06AX05	16/05/2011
27667247	N06AX05	12/09/2006
27667263	N06AX05	13/11/2009
27797674	N06AX05	29/01/2002
27707178	N06AX05	28/04/2011
27758227	N06AX05	11/02/2004
27693810	N06AX05	30/05/2011
27796300	N06AX05	04/12/2009
183848	N06AX05	27/04/2011
27520212	N06AX05	29/05/2011
1018488	N06AX05	08/12/2010
27471521	N06AX05	04/04/2011
27794211	N06AX05	23/05/2011
26872972	N06AX05	30/01/2004
27358783	N06AX05	05/04/2011
27367475	N06AX05	30/05/2011
33105346	N06AX05	26/01/2011
33023079	N06AX05	16/03/2009
33007694	N06AX05	10/11/2003
33081884	N06AX05	14/06/2006
33018138	N06AX05	05/05/2011
33048279	N06AX05	30/09/2010
33118222	N06AX05	08/09/2006
33033051	N06AX05	24/10/2000
27661862	N06AX05	19/08/2009
27812161	N06AX05	03/05/2004
27796540	N06AX05	28/04/2009
27507107	N06AX05	14/03/2011
27800055	N06AX05	08/04/2011
183728	N06AX05	24/04/2009
27798157	N06AX05	23/11/2007
1373130	N06AX05	10/08/2010
28018387	N06AX05	21/02/2011
33219101	N06AX05	07/02/2011
16185833	N06AX05	24/02/2011
27984037	N06AX05	17/05/2011
33234706	N06AX05	30/05/2011
23335211	N06AX05	22/05/2006
33104458	N06AX05	30/07/2010
33044203	N06AX05	26/04/2011
33045618	N06AX05	21/06/2010
33003698	N06AX05	27/12/2000
33109860	N06AX05	28/07/2005
33091289	N06AX05	22/02/2008
33053309	N06AX05	06/06/2001
33053638	N06AX05	06/04/2011
33024570	N06AX05	25/05/2011
33012988	N06AX05	02/07/2010
33307879	N06AX05	31/05/2011
16640297	N06AX05	28/06/2010
33311914	N06AX05	15/06/2009
16601456	N06AX05	08/11/2007
23315590	N06AX05	13/05/2010
14188303	N06AX05	01/12/2010
16165687	N06AX05	16/05/2011
23381959	N06AX05	30/10/2008
23320103	N06AX05	15/12/2004
16654162	N06AX05	15/04/2011
16619951	N06AX05	23/11/2010
27947649	N06AX05	08/04/2011
24137614	N06AX05	20/04/2011
16139405	N06AX05	06/08/2008
23402038	N06AX05	06/05/2011
21106897	N06AX05	10/05/2011
16124521	N06AX05	28/04/2008
27984380	N06AX05	04/05/2011
16610043	N06AX05	05/05/2011
23362700	N06AX05	26/01/2011
16169664	N06AX05	09/05/2006
18771064	N06AX05	26/04/2011
16774792	N06AX05	28/04/2011
16626274	N06AX05	14/12/2007
16630857	N06AX05	24/05/2011
16181188	N06AX05	18/01/2011
16708154	N06AX05	02/09/2009
16186327	N06AX05	12/05/2011
16631801	N06AX05	22/03/2011
23361932	N06AX05	03/12/2010
18758361	N06AX05	03/05/2011
23349702	N06AX05	17/08/2006
16124564	N06AX05	19/06/2002
33220514	N06AX05	23/02/2010
16639897	N06AX05	28/02/2006
16621680	N06AX05	19/04/2007
16636987	N06AX05	27/02/2007
23402611	N06AX05	19/10/2004
23315594	N06AX05	28/03/2011
27848565	N06AX05	08/02/2010
16615226	N06AX05	18/05/2011
16181240	N06AX05	07/05/2007
23343500	N06AX05	29/04/2011
16708802	N06AX05	31/05/2011
32246611	N06AX05	05/02/2010
31178234	N06AX05	11/11/2009
31100891	N06AX05	25/10/2010
32134154	N06AX05	25/11/2009
32148032	N06AX05	17/11/2009
31184648	N06AX05	30/06/2008
31990260	N06AX05	26/01/2009
32166456	N06AX05	02/10/2009
31398449	N06AX05	06/04/2011
31566139	N06AX05	05/08/2009
31765323	N06AX05	21/08/2009
31950974	N06AX05	20/01/2011
31418145	N06AX05	27/05/2010
31633993	N06AX05	02/09/2009
31835258	N06AX05	16/01/2003
31229262	N06AX05	30/06/2010
31299650	N06AX05	21/12/2009
31283139	N06AX05	12/05/2009
31553569	N06AX05	21/02/2007
31925603	N06AX05	08/09/2006
31897930	N06AX05	31/03/2005
32230729	N06AX05	25/08/2009
31693536	N06AX05	07/04/2009
32117454	N06AX05	07/06/2007
31137946	N06AX05	27/01/2009
31119403	N06AX05	02/12/2010
31879977	N06AX05	17/09/2007
32064758	N06AX05	22/11/2007
31683193	N06AX05	22/12/2003
31460033	N06AX05	22/09/2009
31447684	N06AX05	03/07/2007
31048154	N06AX05	03/12/2010
31958704	N06AX05	11/04/2011
31544273	N06AX05	24/08/2010
31634138	N06AX05	28/05/2010
31597078	N06AX05	20/11/2007
31200673	N06AX05	05/05/2008
31417692	N06AX05	10/06/2008
32044352	N06AX05	14/05/2011
31149817	N06AX05	11/04/2011
32008235	N06AX05	15/01/2007
31304320	N06AX05	21/05/2010
31254441	N06AX05	15/09/2010
31309946	N06AX05	10/03/2011
31628105	N06AX05	15/04/2005
31065305	N06AX05	11/03/2009
31850345	N06AX05	06/10/2010
31609748	N06AX05	09/09/2002
32223263	N06AX05	17/12/2009
31714524	N06AX05	10/06/2010
32133761	N06AX05	18/04/2006
31571646	N06AX05	06/04/2010
32228473	N06AX05	03/12/2009
31321749	N06AX05	15/12/2008
31559202	N06AX05	31/01/2006
32032305	N06AX05	11/02/2011
31462204	N06AX05	08/11/2006
31647102	N06AX05	12/12/2007
31632144	N06AX05	27/10/2010
32195050	N06AX05	09/12/2010
31812581	N06AX05	08/11/2010
31705615	N06AX05	09/02/2011
31228032	N06AX05	07/01/2011
31336713	N06AX05	19/10/2007
31939056	N06AX05	01/09/2010
31787887	N06AX05	16/07/2008
31822263	N06AX05	26/10/2009
32210034	N06AX05	21/10/2005
32263832	N06AX05	20/05/2008
31328449	N06AX05	18/11/2008
31202980	N06AX05	03/02/2009
31239879	N06AX05	23/04/2007
31788566	N06AX05	29/06/2010
32234308	N06AX05	11/11/2010
31893641	N06AX05	30/09/2010
32122599	N06AX05	11/04/2011
31165916	N06AX05	28/12/2004
32158039	N06AX05	29/10/2004
31149717	N06AX05	24/01/2011
31558358	N06AX05	22/10/2009
