patient_id	covar_name	date
8643970	N06DX01	08/09/2010
18628739	N06DX01	18/04/2011
7153968	N06DX01	11/04/2011
24887993	N06DX01	17/05/2011
8292672	N06DX01	27/04/2011
8559033	N06DX01	10/05/2007
9385419	N06DX01	03/05/2011
7654868	N06DX01	11/02/2011
6598274	N06DX01	21/07/2010
8061893	N06DX01	27/05/2009
6594510	N06DX01	14/04/2011
1850960	N06DX01	25/04/2011
6599608	N06DX01	29/04/2011
25913606	N06DX01	13/05/2011
1099824	N06DX01	23/05/2011
1102000	N06DX01	26/04/2011
890201	N06DX01	17/08/2005
25818249	N06DX01	07/04/2009
2070225	N06DX01	30/05/2011
2773774	N06DX01	26/05/2011
266327	N06DX01	17/04/2008
28079729	N06DX01	10/05/2011
423574	N06DX01	29/04/2011
7029377	N06DX01	21/03/2011
24657011	N06DX01	07/05/2011
26856096	N06DX01	04/02/2010
26628447	N06DX01	03/03/2007
24656409	N06DX01	10/01/2011
26946237	N06DX01	27/05/2011
26716003	N06DX01	18/05/2011
26863190	N06DX01	25/05/2011
26780754	N06DX01	27/04/2011
27033025	N06DX01	10/05/2011
27167505	N06DX01	19/04/2011
27296129	N06DX01	06/05/2011
27686318	N06DX01	03/03/2011
26992651	N06DX01	11/03/2011
27758876	N06DX01	27/10/2009
27806448	N06DX01	26/04/2011
27667247	N06DX01	12/09/2006
27471521	N06DX01	18/05/2011
27572773	N06DX01	02/05/2011
27358783	N06DX01	07/11/2009
33040260	N06DX01	07/04/2011
33054165	N06DX01	11/04/2011
33018999	N06DX01	27/05/2011
33098659	N06DX01	10/05/2011
16602253	N06DX01	27/05/2011
33017406	N06DX01	06/05/2011
16182953	N06DX01	27/04/2011
16705669	N06DX01	03/05/2011
16183731	N06DX01	17/05/2011
33235413	N06DX01	08/04/2011
28000578	N06DX01	26/08/2009
16622928	N06DX01	20/08/2010
32025408	N06DX01	19/07/2010
31288795	N06DX01	23/08/2010
31428096	N06DX01	30/12/2010
31041033	N06DX01	11/11/2010
31090531	N06DX01	18/04/2011
32045169	N06DX01	07/11/2010
31661434	N06DX01	26/12/2008
31192975	N06DX01	01/10/2010
31452657	N06DX01	23/12/2010
31812581	N06DX01	08/11/2010
31209591	N06DX01	24/01/2011
