patient_id	covar_name	date
5031451	N02AA01	19/02/2008
9323502	N02AA01	22/10/2001
5022361	N02AA01	03/05/2011
16920398	N02AA01	19/05/2011
731887	N02AA01	29/10/2003
1432627	N02AA01	25/05/2011
10394089	N02AA01	29/07/2010
10331126	N02AA01	27/05/2009
9375873	N02AA01	09/05/2011
1850827	N02AA01	12/11/2004
6842492	N02AA01	20/05/2011
7777716	N02AA01	01/06/2011
903860	N02AA01	12/03/2009
28072967	N02AA01	22/06/2009
20673832	N02AA01	14/03/2011
20147230	N02AA01	25/11/2010
26338190	N02AA01	08/09/2009
28056581	N02AA01	05/03/2010
1903682	N02AA01	29/10/2007
21386521	N02AA01	05/09/2008
26700714	N02AA01	03/01/2008
12975544	N02AA01	05/06/2006
27075029	N02AA01	31/05/2011
27370248	N02AA01	28/08/2009
27614866	N02AA01	19/05/2011
266530	N02AA01	25/05/2009
27667214	N02AA01	28/12/2009
16840498	N02AA01	24/05/2011
16640292	N02AA01	15/06/2007
33090531	N02AA01	16/05/2011
33025768	N02AA01	21/07/2008
23338189	N02AA01	30/01/2008
21108790	N02AA01	15/02/2010
23402803	N02AA01	23/10/2007
33312325	N02AA01	13/04/2011
31226034	N02AA01	06/07/2007
31787535	N02AA01	01/10/2007
31597401	N02AA01	12/07/2010
31255782	N02AA01	29/06/2004
32139036	N02AA01	05/08/2008
32211928	N02AA01	06/10/2009
