patient_id	covar_name	date
9385544	N02AA03	07/04/2011
731887	N02AA03	27/07/2009
10331126	N02AA03	06/05/2011
19228689	N02AA03	16/11/2010
1424358	N02AA03	22/03/2011
1666026	N02AA03	11/05/2011
2218563	N02AA03	14/04/2011
903902	N02AA03	13/08/2009
28072967	N02AA03	11/05/2011
7129253	N02AA03	12/04/2011
2964155	N02AA03	05/05/2009
28070991	N02AA03	20/04/2009
26706415	N02AA03	09/05/2011
27087271	N02AA03	18/09/2009
27005694	N02AA03	08/01/2010
27317311	N02AA03	02/03/2010
27643451	N02AA03	01/04/2009
266530	N02AA03	30/04/2010
33098852	N02AA03	31/03/2010
33245098	N02AA03	02/11/2010
31226034	N02AA03	25/06/2010
