patient_id	covar_name	date
8582729	N05CD01	22/11/2004
23471739	N05CD01	19/04/2011
132608	N05CD01	13/05/2009
1162228	N05CD01	02/02/2009
59209	N05CD01	30/10/2002
20547221	N05CD01	22/11/2005
731536	N05CD01	17/03/2011
11660918	N05CD01	13/05/2011
8653002	N05CD01	16/05/2006
601168	N05CD01	04/11/2008
1162337	N05CD01	29/01/2009
5021563	N05CD01	18/04/2011
1163865	N05CD01	04/01/2005
946808	N05CD01	20/04/2009
12186603	N05CD01	23/10/2007
7158560	N05CD01	04/05/2011
23455083	N05CD01	23/05/2005
8655966	N05CD01	25/06/2007
9339322	N05CD01	03/05/2011
1124806	N05CD01	19/05/2005
25059661	N05CD01	28/06/2004
9212708	N05CD01	12/01/2004
1936960	N05CD01	03/05/2004
730440	N05CD01	23/11/2006
8786315	N05CD01	10/07/2007
1064683	N05CD01	13/10/2004
1163127	N05CD01	27/06/2008
731670	N05CD01	26/05/2011
15427499	N05CD01	13/11/2001
1170363	N05CD01	19/05/2011
4700733	N05CD01	25/04/2011
1354463	N05CD01	14/09/2010
1200860	N05CD01	10/02/2006
13985332	N05CD01	02/07/2006
12161450	N05CD01	13/01/2010
12640327	N05CD01	01/02/2010
715994	N05CD01	04/04/2009
6914096	N05CD01	14/01/2008
1103441	N05CD01	09/05/2011
1101830	N05CD01	27/11/2003
1134288	N05CD01	01/10/2001
21282892	N05CD01	23/10/2006
1552431	N05CD01	20/11/2006
1552120	N05CD01	27/08/2004
1103928	N05CD01	08/04/2010
1640729	N05CD01	19/01/2010
1134812	N05CD01	11/04/2009
716836	N05CD01	03/05/2011
25776775	N05CD01	24/09/2008
1101985	N05CD01	01/08/2005
902237	N05CD01	02/05/2011
874441	N05CD01	03/04/2006
875569	N05CD01	11/12/2002
3054324	N05CD01	07/05/2011
2778683	N05CD01	29/12/2009
3053366	N05CD01	22/05/2008
26489080	N05CD01	16/05/2008
17041146	N05CD01	04/04/2008
304932	N05CD01	15/03/2004
186183	N05CD01	26/08/2009
186094	N05CD01	09/03/2004
264967	N05CD01	03/08/2006
649031	N05CD01	01/05/2005
1362871	N05CD01	14/01/2002
1372823	N05CD01	09/05/2011
1359208	N05CD01	26/05/2011
1013085	N05CD01	18/05/2009
1361706	N05CD01	13/12/2006
18190987	N05CD01	19/01/2011
26719797	N05CD01	27/10/2006
26707647	N05CD01	20/07/2010
26626574	N05CD01	13/05/2011
16105363	N05CD01	15/04/2009
26722551	N05CD01	22/10/2010
24581156	N05CD01	17/11/2006
26742445	N05CD01	03/01/2008
26846064	N05CD01	12/04/2010
26713577	N05CD01	06/02/2006
26864172	N05CD01	08/10/2010
26865063	N05CD01	25/11/2009
26800376	N05CD01	15/12/2007
26805018	N05CD01	16/11/2006
27034735	N05CD01	07/09/2006
26939942	N05CD01	03/03/2010
27114481	N05CD01	14/06/2005
27088738	N05CD01	11/12/2008
27133477	N05CD01	28/09/2003
27064483	N05CD01	30/04/2010
27052734	N05CD01	05/04/2004
27084260	N05CD01	07/06/2005
27326850	N05CD01	15/06/2010
27159946	N05CD01	01/03/2011
27168764	N05CD01	22/12/2009
27369270	N05CD01	11/09/2008
27357965	N05CD01	10/02/2006
27348533	N05CD01	18/01/2008
27390453	N05CD01	19/04/2011
26989957	N05CD01	11/05/2011
26967221	N05CD01	27/04/2011
27597168	N05CD01	25/10/2006
27414681	N05CD01	17/05/2010
27656842	N05CD01	22/10/2010
27756656	N05CD01	04/05/2011
27563182	N05CD01	19/10/2006
27151908	N05CD01	19/11/2009
27129360	N05CD01	10/05/2011
27772101	N05CD01	13/10/2008
27773439	N05CD01	26/11/2003
27679826	N05CD01	05/01/2011
21651315	N05CD01	07/12/2006
26715264	N05CD01	04/06/2008
27810792	N05CD01	28/10/2010
27667214	N05CD01	10/11/2002
27520212	N05CD01	25/05/2007
26941998	N05CD01	17/03/2004
27780895	N05CD01	29/05/2011
27782172	N05CD01	30/05/2011
27794211	N05CD01	05/03/2009
33040260	N05CD01	08/03/2001
33111336	N05CD01	02/10/2009
33043763	N05CD01	02/06/2004
33019812	N05CD01	04/05/2011
33001039	N05CD01	29/04/2011
33061411	N05CD01	25/02/2003
33072290	N05CD01	13/01/2010
33050069	N05CD01	04/12/2008
33110326	N05CD01	18/04/2011
33070878	N05CD01	31/05/2011
33018895	N05CD01	21/04/2003
33018138	N05CD01	16/04/2008
33028747	N05CD01	08/01/2003
33045539	N05CD01	08/04/2010
33106497	N05CD01	05/09/2006
33030108	N05CD01	10/05/2011
33032013	N05CD01	25/05/2007
33058525	N05CD01	30/05/2011
33080535	N05CD01	16/12/2009
33102563	N05CD01	16/05/2005
33011692	N05CD01	02/06/2003
26972182	N05CD01	08/01/2009
33043382	N05CD01	17/10/2008
27800569	N05CD01	08/03/2008
27798157	N05CD01	04/02/2008
33008240	N05CD01	23/07/2009
33080278	N05CD01	13/08/2009
33077626	N05CD01	23/02/2011
33033679	N05CD01	19/06/2006
33063495	N05CD01	23/04/2003
33044203	N05CD01	16/10/2001
33045618	N05CD01	17/12/2010
33090788	N05CD01	11/06/2003
33036461	N05CD01	31/08/2004
33020653	N05CD01	03/10/2008
33053146	N05CD01	21/01/2008
33085245	N05CD01	01/06/2001
33019650	N05CD01	06/02/2009
33109860	N05CD01	15/02/2007
33067910	N05CD01	10/05/2001
33066033	N05CD01	25/03/2011
33053309	N05CD01	14/06/2005
33093762	N05CD01	07/03/2008
33012988	N05CD01	13/05/2009
23343181	N05CD01	06/05/2011
31082975	N05CD01	10/08/2004
16136518	N05CD01	10/03/2009
32217710	N05CD01	13/09/2006
31791854	N05CD01	16/06/2009
31451455	N05CD01	17/08/2010
31577920	N05CD01	04/03/2008
32210854	N05CD01	24/09/2009
31751181	N05CD01	11/06/2007
31444611	N05CD01	07/02/2011
31299460	N05CD01	19/07/2001
32063312	N05CD01	11/12/2006
31765323	N05CD01	21/03/2011
31187591	N05CD01	05/09/2008
31350240	N05CD01	15/11/2010
31301711	N05CD01	06/02/2006
32054451	N05CD01	07/03/2005
32185161	N05CD01	11/04/2011
31148284	N05CD01	18/03/2008
31269212	N05CD01	04/07/2006
32261215	N05CD01	31/08/2007
31842240	N05CD01	28/01/2009
31795086	N05CD01	06/10/2009
31316108	N05CD01	02/01/2004
31109164	N05CD01	11/11/2005
32046813	N05CD01	07/04/2005
31890406	N05CD01	27/11/2008
31786114	N05CD01	06/04/2011
31333815	N05CD01	09/03/2011
31713979	N05CD01	06/09/2005
31519781	N05CD01	15/11/2006
31401986	N05CD01	03/12/2009
31947419	N05CD01	16/11/2007
31641600	N05CD01	26/02/2007
32228473	N05CD01	22/11/2005
32209127	N05CD01	22/12/2004
31817457	N05CD01	17/12/2003
31264025	N05CD01	08/09/2006
32195050	N05CD01	09/12/2010
31787887	N05CD01	01/12/2008
32264301	N05CD01	14/12/2010
31506905	N05CD01	06/09/2007
31933305	N05CD01	15/03/2005
32253685	N05CD01	28/01/2009
31814249	N05CD01	15/04/2008
31851205	N05CD01	04/08/2010
32192670	N05CD01	06/09/2007
31615865	N05CD01	25/10/2010
32202282	N05CD01	09/05/2007
32237490	N05CD01	11/10/2005
31721691	N05CD01	17/12/2010
