patient_id	covar_name	date
12760945	N06AX18	19/10/2007
21153398	N06AX18	26/11/2010
20547221	N06AX18	22/07/2010
6759472	N06AX18	11/02/2005
20565332	N06AX18	04/02/2011
12185241	N06AX18	28/12/2010
7406503	N06AX18	01/04/2004
17172482	N06AX18	24/06/2005
8558145	N06AX18	17/01/2006
1208462	N06AX18	20/08/2004
8062012	N06AX18	20/02/2002
564634	N06AX18	16/04/2003
1849882	N06AX18	20/07/2005
6601131	N06AX18	28/03/2005
540075	N06AX18	01/09/2008
13985332	N06AX18	25/05/2011
6423585	N06AX18	09/05/2011
25248948	N06AX18	17/11/2005
1211624	N06AX18	16/06/2008
1090924	N06AX18	03/08/2007
7706534	N06AX18	07/05/2004
1296085	N06AX18	13/07/2004
28066813	N06AX18	27/05/2011
28042198	N06AX18	06/11/2007
25717471	N06AX18	08/02/2006
26637658	N06AX18	12/05/2011
16105473	N06AX18	31/05/2007
26720306	N06AX18	06/03/2011
26854601	N06AX18	31/03/2011
27252267	N06AX18	21/03/2011
26967221	N06AX18	30/06/2010
27199347	N06AX18	19/02/2002
27709153	N06AX18	09/05/2011
27414681	N06AX18	18/12/2009
27150779	N06AX18	16/05/2011
27167731	N06AX18	22/05/2011
27249520	N06AX18	17/02/2010
33105346	N06AX18	03/03/2010
33011692	N06AX18	05/03/2003
27661862	N06AX18	17/02/2010
27798157	N06AX18	04/05/2010
16619058	N06AX18	14/01/2004
33288621	N06AX18	26/08/2008
16609624	N06AX18	11/05/2011
21110120	N06AX18	13/05/2009
33206523	N06AX18	18/01/2010
27975673	N06AX18	18/03/2011
31979808	N06AX18	22/09/2006
32170654	N06AX18	05/06/2007
31744955	N06AX18	23/02/2004
31290105	N06AX18	05/11/2010
31765323	N06AX18	30/10/2009
31102291	N06AX18	08/03/2004
31174835	N06AX18	31/05/2006
31457808	N06AX18	26/10/2010
32064758	N06AX18	28/12/2007
32181861	N06AX18	18/06/2008
32159037	N06AX18	05/09/2006
31542939	N06AX18	09/07/2007
31283408	N06AX18	20/07/2007
31788025	N06AX18	23/06/2008
31092295	N06AX18	09/12/2010
31633415	N06AX18	05/12/2008
31228032	N06AX18	13/07/2010
31445382	N06AX18	06/05/2009
31323678	N06AX18	29/10/2010
31787887	N06AX18	12/01/2006
31328449	N06AX18	22/10/2008
31495297	N06AX18	04/12/2008
31479508	N06AX18	25/11/2009
31333245	N06AX18	20/12/2006
