patient_id	covar_name	date
20528864	N05CD11	09/03/2011
19184498	N05CD11	19/10/2010
17171994	N05CD11	21/12/2009
12767301	N05CD11	13/07/2006
5026215	N05CD11	09/06/2009
16487315	N05CD11	09/03/2009
9388668	N05CD11	04/03/2005
21857539	N05CD11	21/05/2010
19228281	N05CD11	26/10/2007
8559033	N05CD11	22/11/2007
12790379	N05CD11	28/09/2009
294247	N05CD11	06/04/2011
15667822	N05CD11	19/05/2011
1424358	N05CD11	05/03/2002
4700861	N05CD11	24/01/2006
1848778	N05CD11	11/05/2011
1666507	N05CD11	14/04/2004
8933362	N05CD11	01/06/2011
6423585	N05CD11	15/09/2008
1444218	N05CD11	10/07/2009
23843778	N05CD11	08/05/2011
1091311	N05CD11	03/10/2002
1855343	N05CD11	07/11/2003
1552120	N05CD11	17/12/2004
26351849	N05CD11	04/02/2011
28092214	N05CD11	06/04/2009
2778926	N05CD11	09/05/2011
24655567	N05CD11	12/05/2011
25535638	N05CD11	07/04/2009
24662048	N05CD11	16/12/2006
25558732	N05CD11	17/03/2010
421990	N05CD11	23/05/2011
18195981	N05CD11	31/03/2011
1359659	N05CD11	04/04/2006
26642443	N05CD11	28/06/2005
26790332	N05CD11	08/02/2011
17128641	N05CD11	04/05/2010
22729770	N05CD11	09/02/2007
16105363	N05CD11	18/05/2009
15823494	N05CD11	30/09/2004
24654918	N05CD11	08/05/2011
21651898	N05CD11	25/04/2011
26958740	N05CD11	10/12/2004
26958799	N05CD11	22/02/2010
26897230	N05CD11	05/10/2009
26959391	N05CD11	11/03/2009
26780109	N05CD11	27/05/2011
26887048	N05CD11	01/06/2011
26942306	N05CD11	31/05/2004
26800376	N05CD11	11/11/2009
26976383	N05CD11	23/05/2011
26957990	N05CD11	26/03/2008
26969723	N05CD11	15/10/2003
27065374	N05CD11	19/04/2011
27106289	N05CD11	06/07/2005
27043981	N05CD11	31/05/2011
27029722	N05CD11	14/01/2011
27042973	N05CD11	27/07/2004
27041316	N05CD11	15/01/2007
27039179	N05CD11	01/12/2004
27015154	N05CD11	09/05/2011
27034016	N05CD11	17/09/2004
27362443	N05CD11	01/03/2005
27306095	N05CD11	30/05/2006
26967221	N05CD11	15/01/2009
27251819	N05CD11	19/05/2008
26957237	N05CD11	17/03/2011
27546225	N05CD11	15/05/2005
27472715	N05CD11	23/11/2010
27420939	N05CD11	05/05/2006
27759030	N05CD11	28/01/2003
27720067	N05CD11	01/03/2005
27228930	N05CD11	17/05/2011
27143220	N05CD11	23/01/2002
27144708	N05CD11	10/11/2003
27476329	N05CD11	14/04/2010
27533892	N05CD11	19/02/2011
27767877	N05CD11	10/07/2005
27785751	N05CD11	28/05/2011
27785173	N05CD11	30/05/2011
27539859	N05CD11	07/04/2011
27115834	N05CD11	17/05/2010
27595452	N05CD11	27/04/2011
27756194	N05CD11	01/06/2011
27667247	N05CD11	11/10/2006
27686175	N05CD11	20/06/2006
27720525	N05CD11	12/04/2006
21553613	N05CD11	25/05/2011
33109340	N05CD11	01/06/2011
33018895	N05CD11	25/05/2011
18197978	N05CD11	16/09/2005
26972182	N05CD11	11/02/2009
24661802	N05CD11	15/04/2011
33074065	N05CD11	22/03/2010
33099116	N05CD11	01/04/2011
33103069	N05CD11	12/03/2010
31979808	N05CD11	20/01/2006
31642952	N05CD11	20/12/2004
32117832	N05CD11	03/01/2006
31097740	N05CD11	28/02/2011
31038837	N05CD11	26/10/2010
31930395	N05CD11	05/03/2003
31083744	N05CD11	07/09/2010
31765323	N05CD11	10/12/2009
31539072	N05CD11	10/01/2008
31248296	N05CD11	10/02/2005
31349798	N05CD11	29/03/2007
31237604	N05CD11	07/12/2010
31865494	N05CD11	24/07/2006
32232978	N05CD11	12/06/2008
32254966	N05CD11	11/11/2009
32025648	N05CD11	04/06/2010
31490951	N05CD11	09/10/2006
31925806	N05CD11	17/12/2008
31184461	N05CD11	04/07/2007
31245180	N05CD11	20/11/2009
31419416	N05CD11	15/11/2006
31133456	N05CD11	25/01/2008
