patient_id	covar_name	date
9995113	N02CC07	08/02/2007
9388668	N02CC07	12/01/2007
9310884	N02CC07	12/09/2007
10003864	N02CC07	11/02/2008
12478643	N02CC07	16/10/2007
751585	N02CC07	26/04/2011
1203166	N02CC07	09/02/2005
2134010	N02CC07	09/05/2008
26460224	N02CC07	07/03/2005
28063046	N02CC07	21/04/2005
26730688	N02CC07	23/05/2005
26789735	N02CC07	15/12/2005
27349049	N02CC07	28/05/2011
27210678	N02CC07	02/12/2009
27475366	N02CC07	12/05/2011
33062908	N02CC07	13/05/2011
33045066	N02CC07	09/04/2010
33005283	N02CC07	08/09/2010
28020243	N02CC07	06/04/2009
21108023	N02CC07	03/03/2010
31673775	N02CC07	29/08/2007
31255889	N02CC07	02/01/2008
31157137	N02CC07	31/03/2010
31820615	N02CC07	09/01/2009
31576491	N02CC07	24/05/2007
32274362	N02CC07	22/09/2005
31294988	N02CC07	17/11/2009
31307352	N02CC07	03/10/2007
31361941	N02CC07	18/04/2007
31532642	N02CC07	12/04/2010
32087007	N02CC07	24/01/2006
