patient_id	covar_name	date
6887463	N05CD08	01/10/2008
16977028	N05CD08	12/05/2011
6888824	N05CD08	17/02/2011
6759472	N05CD08	16/03/2011
24938766	N05CD08	22/06/2007
8555305	N05CD08	28/04/2011
1064683	N05CD08	04/11/2003
1517273	N05CD08	09/08/2010
6177699	N05CD08	12/04/2011
7797621	N05CD08	02/08/2006
1263401	N05CD08	30/05/2011
15548901	N05CD08	22/06/2010
1850285	N05CD08	05/05/2004
525534	N05CD08	19/08/2008
7076246	N05CD08	25/05/2011
6597124	N05CD08	13/01/2009
1276321	N05CD08	28/01/2007
1415968	N05CD08	19/06/2001
1202451	N05CD08	26/01/2006
4412964	N05CD08	15/11/2007
25888400	N05CD08	15/03/2011
715994	N05CD08	30/03/2004
2068934	N05CD08	13/12/2006
1762716	N05CD08	28/01/2009
2758263	N05CD08	16/05/2008
28041048	N05CD08	16/05/2011
26565210	N05CD08	23/05/2011
16836109	N05CD08	14/12/2009
7229790	N05CD08	28/12/2009
464504	N05CD08	11/12/2009
265635	N05CD08	20/07/2006
26617547	N05CD08	28/05/2011
24577204	N05CD08	27/05/2011
26931533	N05CD08	16/12/2002
27353964	N05CD08	31/07/2006
27493393	N05CD08	20/06/2008
27414681	N05CD08	11/11/2005
27780168	N05CD08	11/12/2007
33063325	N05CD08	11/03/2010
27074781	N05CD08	21/05/2011
27800055	N05CD08	27/06/2008
27800569	N05CD08	28/09/2006
27798157	N05CD08	04/05/2011
33041177	N05CD08	13/01/2010
33116869	N05CD08	21/08/2007
33044203	N05CD08	24/05/2011
33019650	N05CD08	17/02/2009
33012988	N05CD08	08/04/2010
27856629	N05CD08	20/05/2011
16712016	N05CD08	11/12/2003
16631616	N05CD08	19/04/2011
28013456	N05CD08	22/12/2009
16186433	N05CD08	16/04/2009
31404679	N05CD08	04/03/2009
32091134	N05CD08	29/12/2003
32211007	N05CD08	21/04/2011
32261215	N05CD08	13/03/2009
31957036	N05CD08	28/01/2009
31346856	N05CD08	20/04/2005
31813777	N05CD08	28/05/2009
32236287	N05CD08	07/03/2011
31378501	N05CD08	22/04/2009
31632144	N05CD08	29/04/2009
32262652	N05CD08	02/11/2007
31917506	N05CD08	19/06/2009
31083826	N05CD08	25/10/2006
31479508	N05CD08	16/11/2009
31615865	N05CD08	08/02/2005
