patient_id	covar_name	date
24730236	N06BX54	20/09/2004
5034818	N06BX54	23/07/2008
8276701	N06BX54	30/05/2006
8521498	N06BX54	10/01/2011
6757586	N06BX54	27/05/2008
21806479	N06BX54	22/06/2006
24722159	N06BX54	10/04/2006
11661106	N06BX54	24/10/2008
5025978	N06BX54	15/11/2010
12760243	N06BX54	23/10/2007
23442780	N06BX54	16/04/2008
13538926	N06BX54	06/07/2010
9310935	N06BX54	05/06/2009
12729740	N06BX54	14/12/2005
8293863	N06BX54	07/08/2008
960982	N06BX54	17/11/2009
13940459	N06BX54	02/06/2009
1122381	N06BX54	20/10/2010
16919759	N06BX54	02/07/2010
16977028	N06BX54	14/11/2006
23455049	N06BX54	31/08/2010
3322587	N06BX54	08/05/2009
17049862	N06BX54	17/05/2011
6888824	N06BX54	10/12/2009
12765942	N06BX54	07/08/2009
1067567	N06BX54	21/05/2007
6746616	N06BX54	07/04/2011
5026215	N06BX54	14/02/2008
20548767	N06BX54	22/05/2007
9309990	N06BX54	20/05/2004
12185241	N06BX54	26/10/2010
8977888	N06BX54	16/09/2009
16531942	N06BX54	12/04/2011
943801	N06BX54	10/05/2006
7095167	N06BX54	29/09/2010
19289186	N06BX54	29/07/2010
12761046	N06BX54	24/11/2004
12772955	N06BX54	23/02/2007
6753010	N06BX54	14/03/2011
18712780	N06BX54	22/01/2010
12171465	N06BX54	01/06/2011
8556700	N06BX54	25/05/2010
6752008	N06BX54	22/11/2010
18575534	N06BX54	11/03/2010
9296225	N06BX54	06/04/2009
12774611	N06BX54	16/03/2007
697976	N06BX54	13/04/2004
21558754	N06BX54	01/09/2006
6749295	N06BX54	15/10/2010
10457360	N06BX54	14/06/2010
603859	N06BX54	03/08/2009
12782238	N06BX54	02/02/2011
1535079	N06BX54	27/01/2005
6236639	N06BX54	02/02/2007
23471965	N06BX54	01/04/2008
11993515	N06BX54	07/04/2003
11992885	N06BX54	14/04/2010
8700724	N06BX54	20/08/2010
12790379	N06BX54	11/01/2010
12764196	N06BX54	13/01/2006
6415215	N06BX54	06/10/2009
11661691	N06BX54	17/02/2011
63243	N06BX54	21/03/2006
12761839	N06BX54	30/11/2007
6757580	N06BX54	30/04/2007
12765089	N06BX54	30/04/2004
17216732	N06BX54	17/02/2009
1336786	N06BX54	08/04/2011
21152754	N06BX54	28/02/2006
5024803	N06BX54	31/03/2010
9309579	N06BX54	22/12/2003
16977479	N06BX54	27/02/2006
10002746	N06BX54	16/11/2005
1851166	N06BX54	02/05/2006
8067146	N06BX54	28/04/2008
8066182	N06BX54	07/08/2009
1352974	N06BX54	18/09/2002
6333765	N06BX54	13/04/2011
1852422	N06BX54	24/07/2006
7966101	N06BX54	18/06/2009
26143659	N06BX54	03/01/2011
1547289	N06BX54	18/07/2008
1262655	N06BX54	13/05/2003
1090583	N06BX54	03/10/2003
7770971	N06BX54	08/03/2006
1547087	N06BX54	18/01/2005
1546096	N06BX54	30/06/2010
1321721	N06BX54	08/07/2009
6599178	N06BX54	30/04/2007
8063672	N06BX54	09/08/2002
648760	N06BX54	12/05/2009
13285107	N06BX54	02/03/2009
1171783	N06BX54	03/03/2009
7801996	N06BX54	23/10/2008
524498	N06BX54	05/01/2005
1208200	N06BX54	31/03/2008
1419572	N06BX54	13/07/2005
6212006	N06BX54	03/09/2002
4700631	N06BX54	03/03/2010
8061402	N06BX54	12/03/2008
1349490	N06BX54	12/03/2001
1418182	N06BX54	26/11/2002
1446022	N06BX54	21/12/2010
526051	N06BX54	26/04/2000
6603802	N06BX54	04/09/2003
7970589	N06BX54	31/08/2010
7898474	N06BX54	10/01/2011
7848502	N06BX54	19/03/2008
7966461	N06BX54	26/10/2009
1354463	N06BX54	19/01/2011
1265194	N06BX54	01/02/2005
1200860	N06BX54	17/04/2008
1658853	N06BX54	13/07/2010
640251	N06BX54	22/04/2002
26144041	N06BX54	23/03/2011
7963946	N06BX54	15/09/2009
1320212	N06BX54	28/08/2007
7769677	N06BX54	19/04/2006
7800187	N06BX54	23/11/2006
15696603	N06BX54	17/06/2009
1850960	N06BX54	02/02/2005
6212704	N06BX54	11/02/2004
22114632	N06BX54	27/04/2009
6592990	N06BX54	17/04/2009
6400754	N06BX54	19/11/2008
13264943	N06BX54	09/07/2009
525618	N06BX54	07/12/2005
1211624	N06BX54	14/02/2003
1417328	N06BX54	25/06/2001
7777716	N06BX54	11/03/2008
1265106	N06BX54	28/04/2004
648547	N06BX54	20/05/2003
1262999	N06BX54	03/05/2011
7776254	N06BX54	26/12/2007
4700277	N06BX54	06/07/2010
7966778	N06BX54	23/05/2011
1320083	N06BX54	26/04/2011
639310	N06BX54	17/07/2008
1135215	N06BX54	22/07/2003
1133221	N06BX54	17/06/2008
1855659	N06BX54	28/08/2007
716428	N06BX54	23/11/2010
1425322	N06BX54	19/04/2010
1321161	N06BX54	22/09/2005
1351177	N06BX54	05/02/2010
1134366	N06BX54	23/01/2007
1638022	N06BX54	16/05/2011
1855368	N06BX54	07/09/2007
716674	N06BX54	14/10/2004
1638786	N06BX54	20/10/2004
25888400	N06BX54	13/12/2010
25768791	N06BX54	17/09/2009
1102247	N06BX54	28/01/2005
5975487	N06BX54	20/04/2010
1102090	N06BX54	12/09/2005
1103757	N06BX54	23/02/2007
1027312	N06BX54	27/09/2010
1135310	N06BX54	25/08/2009
994239	N06BX54	04/06/2007
25914977	N06BX54	08/04/2011
2200948	N06BX54	26/08/2004
25776939	N06BX54	07/07/2008
25750805	N06BX54	21/05/2010
1135359	N06BX54	24/03/2008
25883011	N06BX54	22/07/2010
1102919	N06BX54	03/12/2007
1102009	N06BX54	19/09/2006
25860190	N06BX54	15/04/2008
716180	N06BX54	23/06/2009
25883547	N06BX54	10/08/2010
1102000	N06BX54	03/07/2008
1131844	N06BX54	04/08/2004
25892496	N06BX54	17/11/2010
1065365	N06BX54	28/06/2006
716068	N06BX54	15/02/2004
1640729	N06BX54	08/07/2002
1134812	N06BX54	29/04/2008
1638244	N06BX54	26/05/2009
1135567	N06BX54	28/10/2010
716836	N06BX54	11/05/2007
1031773	N06BX54	25/09/2007
2059870	N06BX54	08/09/2009
2216986	N06BX54	26/02/2008
2238370	N06BX54	08/10/2008
2139967	N06BX54	23/04/2009
1647977	N06BX54	13/06/2007
2239321	N06BX54	17/05/2005
2133429	N06BX54	04/09/2007
2068266	N06BX54	02/01/2007
2217164	N06BX54	04/08/2010
2137012	N06BX54	17/03/2006
2139488	N06BX54	08/01/2004
2041106	N06BX54	04/01/2005
2139418	N06BX54	16/03/2005
2070415	N06BX54	11/02/2009
904793	N06BX54	26/10/2007
902930	N06BX54	02/07/2008
879024	N06BX54	12/02/2008
904929	N06BX54	28/02/2005
2140421	N06BX54	22/11/2007
2035752	N06BX54	11/02/2004
875499	N06BX54	13/06/2006
1683248	N06BX54	27/01/2010
2238458	N06BX54	18/05/2011
2139279	N06BX54	17/04/2003
905430	N06BX54	22/03/2011
1682937	N06BX54	20/06/2001
757533	N06BX54	03/02/2005
757643	N06BX54	10/06/2008
859067	N06BX54	11/09/2007
875644	N06BX54	01/06/2001
903206	N06BX54	28/01/2011
904619	N06BX54	13/09/2001
902142	N06BX54	10/06/2008
873828	N06BX54	06/08/2001
2035821	N06BX54	22/09/2010
2759595	N06BX54	18/05/2006
2758263	N06BX54	28/05/2010
2034398	N06BX54	11/06/2009
2034995	N06BX54	23/07/2007
1679643	N06BX54	03/01/2008
875091	N06BX54	22/07/2010
2777238	N06BX54	15/07/2008
2759303	N06BX54	11/02/2011
5471148	N06BX54	26/02/2008
3055184	N06BX54	18/11/2002
7047183	N06BX54	30/09/2009
3053901	N06BX54	19/02/2004
2813592	N06BX54	19/01/2011
7128035	N06BX54	18/09/2003
2778754	N06BX54	30/06/2010
7128622	N06BX54	15/11/2002
3052081	N06BX54	12/01/2005
2524518	N06BX54	30/09/2009
2520944	N06BX54	25/05/2006
2520741	N06BX54	13/09/2009
2520367	N06BX54	09/07/2009
2520416	N06BX54	20/04/2006
2772820	N06BX54	24/09/2007
2755769	N06BX54	12/05/2011
2407695	N06BX54	30/07/2007
2407446	N06BX54	02/09/2003
16979768	N06BX54	22/07/2004
2764508	N06BX54	24/04/2003
2574986	N06BX54	31/01/2011
2407008	N06BX54	08/08/2003
16979732	N06BX54	10/04/2006
2525077	N06BX54	13/05/2004
16948347	N06BX54	06/07/2006
2755397	N06BX54	19/06/2006
26461136	N06BX54	12/06/2003
28055991	N06BX54	18/02/2010
26350464	N06BX54	06/04/2011
26583203	N06BX54	23/02/2011
26463036	N06BX54	31/08/2007
26488037	N06BX54	09/05/2011
26565598	N06BX54	12/03/2002
26481067	N06BX54	26/06/2001
26525231	N06BX54	17/05/2007
28049312	N06BX54	07/06/2005
26409464	N06BX54	22/05/2007
28063102	N06BX54	12/12/2005
8116495	N06BX54	11/03/2004
7128442	N06BX54	27/04/2011
17323361	N06BX54	04/03/2004
17323964	N06BX54	28/04/2010
17323982	N06BX54	24/06/2008
26243769	N06BX54	12/11/2003
20147606	N06BX54	16/04/2010
7129253	N06BX54	31/05/2002
18222850	N06BX54	29/05/2008
7143108	N06BX54	09/07/2009
26261422	N06BX54	09/01/2009
7142308	N06BX54	29/07/2003
20023965	N06BX54	07/10/2010
20147205	N06BX54	12/03/2007
26290885	N06BX54	04/09/2008
26217958	N06BX54	20/05/2011
26190060	N06BX54	24/07/2008
26182006	N06BX54	19/06/2007
28042198	N06BX54	05/10/2005
28042210	N06BX54	16/06/2009
26460224	N06BX54	10/10/2007
26385357	N06BX54	17/09/2010
26338190	N06BX54	09/07/2009
26464787	N06BX54	16/05/2008
26182791	N06BX54	12/06/2006
26235928	N06BX54	06/04/2010
26235453	N06BX54	22/07/2010
10490976	N06BX54	21/07/2003
7007687	N06BX54	06/05/2008
17040830	N06BX54	28/05/2011
17041018	N06BX54	21/04/2004
17040796	N06BX54	19/07/2005
7228900	N06BX54	31/03/2004
7140005	N06BX54	28/01/2004
17323744	N06BX54	21/11/2007
16959538	N06BX54	15/06/2009
13003749	N06BX54	26/05/2004
17040534	N06BX54	15/11/2005
1910163	N06BX54	23/08/2010
650010	N06BX54	24/04/2003
423010	N06BX54	27/12/2006
2965533	N06BX54	28/09/2007
649048	N06BX54	28/07/2005
307239	N06BX54	29/09/2008
650164	N06BX54	10/03/2006
650187	N06BX54	09/02/2011
419475	N06BX54	24/10/2006
185473	N06BX54	03/11/2009
433748	N06BX54	14/06/2010
8334780	N06BX54	10/08/2007
302235	N06BX54	18/10/2010
464149	N06BX54	29/05/2007
464151	N06BX54	09/10/2001
1900723	N06BX54	15/11/2006
182306	N06BX54	06/02/2006
420644	N06BX54	23/05/2011
12979856	N06BX54	18/12/2007
12994706	N06BX54	24/01/2011
16835354	N06BX54	25/02/2005
874875	N06BX54	16/11/2010
28087560	N06BX54	26/05/2011
26261042	N06BX54	02/06/2008
3053216	N06BX54	17/05/2010
3054239	N06BX54	29/12/2008
2522355	N06BX54	16/02/2010
9495019	N06BX54	24/08/2010
28091864	N06BX54	30/10/2007
28093277	N06BX54	03/12/2007
28089532	N06BX54	19/04/2007
2778926	N06BX54	17/09/2010
28072491	N06BX54	08/03/2011
650372	N06BX54	18/01/2008
425192	N06BX54	15/02/2008
181538	N06BX54	05/05/2011
463352	N06BX54	08/08/2009
271966	N06BX54	06/05/2005
422311	N06BX54	26/09/2000
427372	N06BX54	07/05/2001
419430	N06BX54	02/09/1998
423811	N06BX54	18/07/2003
303624	N06BX54	14/01/2011
305231	N06BX54	01/08/2007
28056093	N06BX54	16/09/2010
26488661	N06BX54	04/05/2007
28071928	N06BX54	19/07/2006
28041657	N06BX54	01/04/2011
28072320	N06BX54	23/09/2003
28052601	N06BX54	16/12/2009
28045853	N06BX54	23/09/2008
28072766	N06BX54	06/06/2008
28078808	N06BX54	21/12/2009
28071783	N06BX54	09/05/2006
28056661	N06BX54	16/06/2010
28056690	N06BX54	21/06/2007
28045890	N06BX54	14/01/2010
24658648	N06BX54	01/08/2007
25535638	N06BX54	20/05/2009
25741980	N06BX54	29/04/2011
24658550	N06BX54	13/10/2010
24664772	N06BX54	24/04/2008
24661692	N06BX54	21/04/2004
25743607	N06BX54	25/01/2007
25539451	N06BX54	24/03/2009
24669823	N06BX54	28/04/2010
25641792	N06BX54	30/12/2009
24659548	N06BX54	06/07/2005
26623679	N06BX54	13/04/2010
26627333	N06BX54	11/01/2010
24664366	N06BX54	22/05/2010
25746656	N06BX54	21/10/2008
24669225	N06BX54	12/06/2008
25727783	N06BX54	05/07/2006
24663007	N06BX54	01/10/2007
25740511	N06BX54	18/08/2008
24657011	N06BX54	03/09/2004
25741338	N06BX54	31/03/2010
24670366	N06BX54	10/10/2008
25740001	N06BX54	09/11/2009
1361265	N06BX54	03/11/2009
19423118	N06BX54	30/12/2009
1360042	N06BX54	05/07/2004
1361648	N06BX54	28/04/2008
1904043	N06BX54	29/04/2008
1369115	N06BX54	11/08/2009
1020567	N06BX54	22/10/2007
1020473	N06BX54	18/05/2006
1360800	N06BX54	14/06/2006
1371652	N06BX54	07/01/2009
1371686	N06BX54	04/06/2009
1906965	N06BX54	24/12/2009
1363047	N06BX54	11/02/2004
1031036	N06BX54	04/03/2008
1363828	N06BX54	07/03/2007
1030976	N06BX54	15/09/2006
1361853	N06BX54	15/03/2000
1363788	N06BX54	25/10/2000
1360903	N06BX54	08/01/2004
1371981	N06BX54	28/08/2007
1359321	N06BX54	24/05/2011
16841259	N06BX54	01/07/2005
16566958	N06BX54	01/03/2011
1372631	N06BX54	24/03/2006
1368854	N06BX54	16/01/2008
1359659	N06BX54	17/01/2005
19424347	N06BX54	07/05/2008
18188133	N06BX54	12/04/2010
18190062	N06BX54	17/10/2003
19800926	N06BX54	28/07/2008
18194731	N06BX54	13/09/2001
18193809	N06BX54	23/07/2007
20070622	N06BX54	04/05/2011
19803579	N06BX54	08/09/2009
19803915	N06BX54	06/06/2007
18196791	N06BX54	13/10/2009
18197975	N06BX54	01/12/2006
21063541	N06BX54	09/06/2008
18186791	N06BX54	16/07/2001
18187319	N06BX54	01/08/2005
21065744	N06BX54	29/09/2009
18197591	N06BX54	05/03/2008
22757992	N06BX54	12/07/2010
21063093	N06BX54	06/10/2009
18197681	N06BX54	23/05/2011
19804975	N06BX54	25/06/2003
19786115	N06BX54	26/12/2006
18188104	N06BX54	17/05/2007
18956880	N06BX54	30/06/2006
18194693	N06BX54	09/12/2005
16568733	N06BX54	04/11/2004
8334836	N06BX54	08/01/2007
1910836	N06BX54	16/06/2005
2249632	N06BX54	11/10/2010
2962765	N06BX54	13/08/2010
1370391	N06BX54	21/05/1998
10804110	N06BX54	24/07/2008
1361009	N06BX54	18/12/2008
1904262	N06BX54	04/02/2008
1899549	N06BX54	21/08/2006
1015918	N06BX54	13/08/2009
1910693	N06BX54	19/01/2010
8109355	N06BX54	17/11/2010
926529	N06BX54	25/05/2009
1363174	N06BX54	15/12/2004
1909227	N06BX54	25/03/2003
1019222	N06BX54	17/03/2005
26853880	N06BX54	17/07/2008
26833959	N06BX54	20/12/2010
26768339	N06BX54	27/08/2010
26776551	N06BX54	02/03/2010
26625977	N06BX54	21/06/2010
26770131	N06BX54	20/06/2007
26852141	N06BX54	29/10/2010
26636839	N06BX54	13/07/2007
26626081	N06BX54	05/06/2007
26628447	N06BX54	25/05/2011
26618354	N06BX54	03/09/2009
26703830	N06BX54	17/03/2011
26706338	N06BX54	08/09/2010
26630135	N06BX54	19/12/2006
26722489	N06BX54	15/06/2005
26638407	N06BX54	29/12/2009
26805040	N06BX54	07/09/2007
26803235	N06BX54	23/10/2008
26834531	N06BX54	07/05/2007
26805217	N06BX54	20/11/2006
26856143	N06BX54	22/05/2008
26626574	N06BX54	05/04/2011
14311205	N06BX54	29/04/2003
21552949	N06BX54	08/04/2005
22881967	N06BX54	05/09/2005
13872036	N06BX54	17/11/2006
12974196	N06BX54	07/04/2003
16105363	N06BX54	12/04/2011
16104391	N06BX54	18/09/2001
12976348	N06BX54	04/05/2006
15810332	N06BX54	14/11/2003
15810669	N06BX54	23/02/2009
24579514	N06BX54	02/11/2009
22882856	N06BX54	04/10/2006
2988267	N06BX54	21/07/2009
16105473	N06BX54	17/07/2007
12975430	N06BX54	24/01/2003
13788822	N06BX54	11/09/2009
12975801	N06BX54	27/05/2009
16567909	N06BX54	18/05/2006
2989966	N06BX54	28/03/2006
17165183	N06BX54	01/02/2008
26618323	N06BX54	03/03/2010
12975349	N06BX54	09/03/2009
26620234	N06BX54	17/08/2005
25740918	N06BX54	22/11/2010
25740921	N06BX54	31/03/2005
16841844	N06BX54	20/06/2005
26705536	N06BX54	22/10/2010
15816263	N06BX54	26/05/2010
15810961	N06BX54	30/03/2006
12974415	N06BX54	29/09/2005
26618516	N06BX54	30/10/2009
26620167	N06BX54	25/05/2010
26625814	N06BX54	16/05/2008
26702888	N06BX54	30/05/2011
26618242	N06BX54	04/06/2008
22882021	N06BX54	04/09/2006
24577473	N06BX54	05/12/2006
22882065	N06BX54	30/03/2009
24578953	N06BX54	29/05/2008
24654931	N06BX54	23/12/2008
24582540	N06BX54	17/03/2008
21651799	N06BX54	10/09/2003
22909166	N06BX54	16/01/2004
21650926	N06BX54	29/08/2008
22922776	N06BX54	09/09/2009
21651484	N06BX54	29/12/2009
21064114	N06BX54	23/05/2008
24581156	N06BX54	11/07/2007
26917078	N06BX54	31/01/2011
26946079	N06BX54	31/10/2006
26936348	N06BX54	14/05/2010
26917313	N06BX54	01/08/2008
26916169	N06BX54	20/11/2001
26938564	N06BX54	13/03/2008
26948632	N06BX54	14/04/2011
26936433	N06BX54	15/11/2010
26946963	N06BX54	05/09/2005
26940146	N06BX54	05/10/2005
26889844	N06BX54	21/05/2007
26889893	N06BX54	15/04/2008
26933236	N06BX54	21/04/2009
26936020	N06BX54	15/04/2008
26915160	N06BX54	21/04/2010
26917769	N06BX54	07/01/2008
26932935	N06BX54	08/10/2001
26949733	N06BX54	11/05/2010
26947472	N06BX54	26/11/2002
26879225	N06BX54	18/01/2011
26777798	N06BX54	26/05/2011
26713271	N06BX54	14/03/2011
26880919	N06BX54	03/10/2006
26854601	N06BX54	22/10/2008
26730064	N06BX54	10/11/2006
26866237	N06BX54	17/05/2011
26730108	N06BX54	20/11/2009
26742445	N06BX54	28/05/2007
26779481	N06BX54	26/07/2005
26714061	N06BX54	02/12/2010
26871724	N06BX54	12/02/2008
26714948	N06BX54	22/08/2008
26871932	N06BX54	04/04/2007
26714735	N06BX54	13/03/2007
26941964	N06BX54	22/09/2008
26881378	N06BX54	23/02/2010
26851612	N06BX54	17/09/2009
26863888	N06BX54	13/01/2011
26948825	N06BX54	09/10/2007
26882263	N06BX54	17/09/2007
26845956	N06BX54	07/11/2008
26846476	N06BX54	05/05/2011
26856371	N06BX54	08/02/2011
26942306	N06BX54	26/08/2008
26856963	N06BX54	27/03/2008
26779962	N06BX54	09/05/2006
26728879	N06BX54	15/04/2008
26728888	N06BX54	20/12/2005
26776303	N06BX54	03/06/2008
26713793	N06BX54	03/10/2008
26834404	N06BX54	29/07/2010
26801999	N06BX54	27/07/2007
26831105	N06BX54	18/05/2011
26852036	N06BX54	14/07/2009
26812447	N06BX54	13/03/2008
26835837	N06BX54	01/04/2011
26715346	N06BX54	18/02/2011
26815899	N06BX54	10/01/2005
26776107	N06BX54	29/12/2004
26717132	N06BX54	07/07/2010
26801817	N06BX54	13/01/2011
26804650	N06BX54	20/05/2011
26835056	N06BX54	07/04/2010
26833689	N06BX54	10/12/2007
26770232	N06BX54	28/08/2009
26939739	N06BX54	27/05/2010
26995682	N06BX54	23/10/2009
26977641	N06BX54	12/07/2006
26941704	N06BX54	30/07/2010
26955339	N06BX54	19/12/2005
26990015	N06BX54	30/07/2010
26977552	N06BX54	14/04/2010
27034247	N06BX54	30/03/2007
26967347	N06BX54	30/07/2001
26953587	N06BX54	09/01/2004
26989770	N06BX54	30/05/2011
27034735	N06BX54	23/05/2007
27031524	N06BX54	23/11/2007
27066870	N06BX54	03/01/2007
27052004	N06BX54	11/04/2008
26972749	N06BX54	15/11/2007
26975257	N06BX54	30/12/2008
27071882	N06BX54	02/02/2011
27084393	N06BX54	22/02/2011
27087271	N06BX54	10/08/2009
27102099	N06BX54	29/10/2009
27127480	N06BX54	26/03/2007
27102365	N06BX54	25/03/2008
26991456	N06BX54	25/10/2007
27151243	N06BX54	20/12/2010
27099790	N06BX54	29/03/2011
27088683	N06BX54	15/12/2008
27116894	N06BX54	23/11/2005
27113365	N06BX54	11/04/2011
27102554	N06BX54	10/06/2004
27149654	N06BX54	18/06/2010
27035579	N06BX54	31/03/2010
27105669	N06BX54	15/02/2011
27082944	N06BX54	05/08/2010
27112337	N06BX54	15/04/2004
27105146	N06BX54	02/07/2010
27024673	N06BX54	07/08/2008
27151056	N06BX54	29/01/2009
27130162	N06BX54	23/11/2010
27149269	N06BX54	14/11/2005
27054520	N06BX54	03/03/2009
27062217	N06BX54	02/07/2007
27133601	N06BX54	22/12/2009
27052734	N06BX54	21/05/2004
27045169	N06BX54	04/01/2008
27043267	N06BX54	09/09/2005
27029722	N06BX54	31/03/2004
27062156	N06BX54	23/12/2009
27045550	N06BX54	20/09/2010
27033265	N06BX54	10/03/2010
27075029	N06BX54	17/03/2011
27082854	N06BX54	12/07/2005
27074929	N06BX54	06/07/2005
27106068	N06BX54	08/02/2005
27072046	N06BX54	18/05/2011
27034376	N06BX54	07/04/2006
26994636	N06BX54	11/06/2009
26997004	N06BX54	02/12/2009
27026391	N06BX54	21/03/2011
27025237	N06BX54	11/09/2006
26996574	N06BX54	31/05/2010
27038965	N06BX54	07/11/2008
27036617	N06BX54	17/03/2009
26978032	N06BX54	17/05/2010
27041316	N06BX54	08/03/2011
26994966	N06BX54	15/10/2010
27036781	N06BX54	10/01/2011
27000699	N06BX54	29/11/2007
27023482	N06BX54	01/09/2009
27015165	N06BX54	19/05/2009
27039270	N06BX54	12/06/2009
26999375	N06BX54	01/06/2006
27034016	N06BX54	15/09/2003
27025820	N06BX54	21/03/2006
27024702	N06BX54	30/04/2009
27032436	N06BX54	26/05/2005
27000807	N06BX54	23/03/2011
27150732	N06BX54	17/08/2010
27172465	N06BX54	18/03/2008
27150434	N06BX54	01/10/2007
27172241	N06BX54	11/05/2009
27168764	N06BX54	24/07/2009
27286892	N06BX54	25/04/2003
27383534	N06BX54	19/05/2011
27138466	N06BX54	14/02/2011
27143681	N06BX54	26/04/2011
27130080	N06BX54	22/09/2010
27148073	N06BX54	02/02/2004
27284737	N06BX54	17/05/2010
27163611	N06BX54	11/06/2007
27286965	N06BX54	23/07/2008
27385184	N06BX54	18/06/2004
27173275	N06BX54	26/06/2009
27315028	N06BX54	17/07/2006
27169975	N06BX54	26/01/2007
27365421	N06BX54	29/06/2006
27198906	N06BX54	26/01/2010
27349311	N06BX54	17/07/2009
27356518	N06BX54	15/07/2003
27362675	N06BX54	07/08/2009
27364506	N06BX54	25/10/2005
27251223	N06BX54	31/10/2006
27384653	N06BX54	21/02/2011
27349973	N06BX54	06/02/2008
27300856	N06BX54	18/12/2009
27348533	N06BX54	12/09/2008
27302542	N06BX54	05/09/2008
27314340	N06BX54	16/05/2006
27345781	N06BX54	04/08/2008
27350171	N06BX54	25/03/2011
27355276	N06BX54	10/06/2010
27388480	N06BX54	14/04/2011
27170141	N06BX54	21/05/2008
27253729	N06BX54	09/06/2005
27254030	N06BX54	07/11/2007
27217738	N06BX54	14/05/2009
27286648	N06BX54	14/07/2005
26954101	N06BX54	09/03/2004
27253841	N06BX54	15/02/2008
26957165	N06BX54	15/06/2005
26957273	N06BX54	23/11/2004
26957279	N06BX54	11/12/2009
26975874	N06BX54	06/10/2003
27169743	N06BX54	30/12/2010
27249837	N06BX54	23/08/2004
27249682	N06BX54	10/02/2011
27170060	N06BX54	26/01/2011
27614064	N06BX54	18/02/2009
27576235	N06BX54	09/02/2009
27592893	N06BX54	26/03/2008
27574692	N06BX54	01/07/2005
27643198	N06BX54	13/09/2006
27593063	N06BX54	17/06/2005
27642131	N06BX54	24/05/2007
27568172	N06BX54	12/04/2010
27643447	N06BX54	04/07/2008
27622219	N06BX54	22/06/2009
27577420	N06BX54	07/09/2005
27646512	N06BX54	29/04/2010
27591859	N06BX54	20/06/2007
27656239	N06BX54	04/10/2006
27623983	N06BX54	28/04/2006
27606126	N06BX54	29/05/2009
27426480	N06BX54	31/07/2006
27641028	N06BX54	19/02/2010
27414554	N06BX54	23/04/2007
27476407	N06BX54	15/06/2005
27419668	N06BX54	13/08/2009
27493267	N06BX54	23/04/2010
27647339	N06BX54	27/07/2007
27427591	N06BX54	14/03/2006
27481473	N06BX54	13/05/2010
27420117	N06BX54	02/03/2007
27426871	N06BX54	15/06/2009
27420258	N06BX54	27/01/2003
27660215	N06BX54	06/05/2009
27657086	N06BX54	13/05/2011
27716882	N06BX54	30/07/2007
27707969	N06BX54	10/09/2008
27759030	N06BX54	07/02/2005
27765553	N06BX54	03/04/2003
27758847	N06BX54	02/11/2009
27543445	N06BX54	25/05/2011
27756656	N06BX54	30/05/2005
27623279	N06BX54	07/04/2010
27720952	N06BX54	12/01/2007
27572901	N06BX54	31/07/2008
27565857	N06BX54	31/03/2011
27614461	N06BX54	22/03/2011
27546307	N06BX54	04/04/2005
27544049	N06BX54	02/01/2008
27572256	N06BX54	08/06/2007
27565501	N06BX54	06/05/2011
27571164	N06BX54	12/09/2007
27151902	N06BX54	21/12/2010
27151908	N06BX54	07/03/2007
27292071	N06BX54	29/08/2006
27126835	N06BX54	01/07/2008
27129607	N06BX54	22/09/2006
27129360	N06BX54	14/05/2010
27132227	N06BX54	02/01/2009
27132288	N06BX54	08/03/2002
27132788	N06BX54	10/08/2009
27285444	N06BX54	29/09/2009
27127605	N06BX54	27/05/2008
27166399	N06BX54	11/06/2010
27285401	N06BX54	16/09/2009
27284226	N06BX54	07/09/2010
27154137	N06BX54	16/02/2011
27166743	N06BX54	14/03/2008
27287614	N06BX54	01/02/2005
27284148	N06BX54	17/04/2009
27469980	N06BX54	20/03/2006
27128107	N06BX54	24/04/2007
27284645	N06BX54	04/12/2009
27481340	N06BX54	24/09/2010
27785567	N06BX54	24/03/2011
27066420	N06BX54	23/02/2011
27126839	N06BX54	19/05/2005
12974157	N06BX54	19/04/2010
27248683	N06BX54	03/05/2011
266530	N06BX54	31/05/2010
26792439	N06BX54	17/01/2007
26962557	N06BX54	10/03/2008
27780235	N06BX54	01/04/2005
26973816	N06BX54	16/04/2003
27301418	N06BX54	09/08/2010
27781142	N06BX54	12/02/2007
27683287	N06BX54	17/10/2003
27528556	N06BX54	20/04/2010
27784044	N06BX54	17/11/2008
27573631	N06BX54	25/05/2005
27531288	N06BX54	03/04/2008
27772597	N06BX54	18/07/2007
27779059	N06BX54	15/01/2007
27531352	N06BX54	12/01/2010
27535710	N06BX54	02/02/2005
27669094	N06BX54	12/09/2008
27534918	N06BX54	01/04/2011
27770505	N06BX54	13/03/2008
27530889	N06BX54	24/12/2007
27531090	N06BX54	08/09/2009
27664085	N06BX54	25/06/2004
27784476	N06BX54	11/11/2009
24581729	N06BX54	17/07/2007
24654854	N06BX54	13/11/2007
27687190	N06BX54	20/04/2010
27666079	N06BX54	11/04/2005
27674361	N06BX54	07/05/2008
27662860	N06BX54	24/08/2007
27782736	N06BX54	14/12/2004
27666599	N06BX54	08/03/2010
184096	N06BX54	26/03/2007
27679826	N06BX54	18/12/2003
27675773	N06BX54	20/02/2007
26996509	N06BX54	14/12/2007
27785173	N06BX54	01/12/2009
25717446	N06BX54	02/12/2009
27680726	N06BX54	02/03/2006
27671191	N06BX54	11/09/2002
27682306	N06BX54	24/01/2003
27669167	N06BX54	12/03/2002
26879411	N06BX54	12/01/2011
26833867	N06BX54	13/06/2008
27508678	N06BX54	03/07/2004
27539930	N06BX54	20/04/2009
27508441	N06BX54	05/04/2006
27648593	N06BX54	09/07/2009
27496739	N06BX54	16/02/2009
27454435	N06BX54	19/06/2009
27614274	N06BX54	03/05/2010
27574011	N06BX54	02/06/2006
27591699	N06BX54	25/02/2011
27540250	N06BX54	26/10/2009
27515695	N06BX54	17/07/2006
27623685	N06BX54	03/04/2006
27633791	N06BX54	14/11/2005
27530452	N06BX54	17/01/2011
27631227	N06BX54	18/04/2011
26933407	N06BX54	01/06/2010
27799332	N06BX54	26/11/2009
27707840	N06BX54	08/02/2008
16568199	N06BX54	24/08/2006
27116483	N06BX54	04/01/2011
27083023	N06BX54	12/01/2010
26619933	N06BX54	26/10/2010
27794597	N06BX54	25/03/2004
27798131	N06BX54	27/09/2006
1904202	N06BX54	10/02/2010
21651315	N06BX54	24/01/2005
26715264	N06BX54	15/03/2007
27133136	N06BX54	17/03/2010
22883469	N06BX54	27/10/2005
27658995	N06BX54	01/04/2003
27812233	N06BX54	22/01/2004
27154246	N06BX54	26/08/2008
12975841	N06BX54	21/04/2005
27812357	N06BX54	02/01/2004
26760653	N06BX54	30/05/2008
27220336	N06BX54	18/05/2009
26962759	N06BX54	27/12/2006
27673749	N06BX54	17/10/2008
27674543	N06BX54	12/01/2004
27804595	N06BX54	11/03/2009
428085	N06BX54	30/06/2005
27546390	N06BX54	28/09/2010
27799688	N06BX54	03/05/1999
27663903	N06BX54	12/04/2011
27707583	N06BX54	24/04/2008
27797371	N06BX54	11/02/2011
27668939	N06BX54	03/10/2001
27676312	N06BX54	28/04/2011
27799547	N06BX54	25/05/2011
27805828	N06BX54	01/03/2010
27765654	N06BX54	19/09/2008
27804103	N06BX54	20/04/2010
27666334	N06BX54	21/07/2003
27676239	N06BX54	11/04/2005
27758797	N06BX54	24/06/2009
27709451	N06BX54	22/08/2006
27761994	N06BX54	25/01/2008
27668627	N06BX54	16/02/2010
27811534	N06BX54	30/04/2009
27797548	N06BX54	11/08/2004
27665005	N06BX54	16/06/2003
27718995	N06BX54	29/06/2009
27806547	N06BX54	03/04/2008
27794365	N06BX54	16/12/2009
26963640	N06BX54	26/03/2009
27667214	N06BX54	08/03/2006
27799358	N06BX54	23/03/2005
1911207	N06BX54	02/12/2002
27325643	N06BX54	16/03/2010
27664220	N06BX54	07/09/2007
1361374	N06BX54	15/05/2009
27043641	N06BX54	01/10/2007
27614092	N06BX54	18/05/2011
26852782	N06BX54	19/06/2007
8210358	N06BX54	06/08/2009
27382993	N06BX54	29/06/2007
304327	N06BX54	30/09/2010
27780895	N06BX54	02/11/2006
27533909	N06BX54	10/10/2007
27780080	N06BX54	25/02/2008
27782172	N06BX54	13/01/2010
27785454	N06BX54	29/03/2005
26715183	N06BX54	30/06/2005
2957951	N06BX54	07/06/2010
27246927	N06BX54	21/10/2003
27715979	N06BX54	07/04/2010
27084129	N06BX54	03/09/2007
27663355	N06BX54	29/06/2005
27283919	N06BX54	24/03/2009
27358783	N06BX54	06/10/2009
27366636	N06BX54	07/04/2011
27811520	N06BX54	04/06/2007
27379120	N06BX54	20/12/2007
27666811	N06BX54	04/11/2010
26873786	N06BX54	19/05/2009
27670466	N06BX54	26/07/2007
33008470	N06BX54	13/01/2011
33057954	N06BX54	07/03/2008
33048157	N06BX54	05/09/2007
33129697	N06BX54	12/05/2010
33065542	N06BX54	29/06/2009
33067601	N06BX54	18/08/2009
33021438	N06BX54	23/01/2007
33045066	N06BX54	11/08/2006
33044195	N06BX54	12/06/2007
33030987	N06BX54	24/08/2009
33043546	N06BX54	14/04/2011
33013763	N06BX54	26/11/2004
33045042	N06BX54	14/02/2008
33072614	N06BX54	12/09/2003
33008912	N06BX54	01/09/2009
33071109	N06BX54	12/04/2011
33026966	N06BX54	06/11/2006
33106608	N06BX54	08/05/2006
33065720	N06BX54	14/08/2006
33016797	N06BX54	08/05/2002
33111017	N06BX54	01/06/2010
33112449	N06BX54	18/10/2010
33084411	N06BX54	30/11/2007
33099866	N06BX54	21/10/2009
33079795	N06BX54	25/10/2002
33008425	N06BX54	18/08/2010
33060297	N06BX54	29/11/2010
33073796	N06BX54	22/07/2009
33103479	N06BX54	27/09/2004
33098168	N06BX54	03/03/2008
33093456	N06BX54	17/07/2009
33111158	N06BX54	03/03/2011
33072776	N06BX54	05/08/2009
33059213	N06BX54	28/06/2006
33034168	N06BX54	17/03/2009
33079596	N06BX54	11/05/2011
33033051	N06BX54	06/07/2004
33007739	N06BX54	21/11/2002
18197978	N06BX54	25/05/2010
10826850	N06BX54	30/01/2009
27812161	N06BX54	11/01/2010
420958	N06BX54	10/06/2005
16843427	N06BX54	28/02/2003
27796540	N06BX54	27/09/2005
26972182	N06BX54	22/05/2008
12995018	N06BX54	13/01/2010
19796635	N06BX54	27/03/2007
183728	N06BX54	23/06/2004
27812443	N06BX54	25/02/2011
27805215	N06BX54	13/05/2005
27800569	N06BX54	30/09/2004
27798157	N06BX54	29/03/2005
27800241	N06BX54	30/08/2005
27810250	N06BX54	17/11/2009
24661802	N06BX54	25/02/2011
2958097	N06BX54	05/11/2001
19423345	N06BX54	19/06/2008
265805	N06BX54	29/03/2011
27805149	N06BX54	19/06/2009
26720883	N06BX54	15/06/2010
23408153	N06BX54	22/12/2010
21109297	N06BX54	22/10/2010
33219101	N06BX54	07/09/2010
33034636	N06BX54	06/10/2010
33238483	N06BX54	15/09/2009
16178210	N06BX54	19/11/2010
16185833	N06BX54	16/03/2009
23320348	N06BX54	04/01/2006
20983764	N06BX54	06/08/2010
23294826	N06BX54	12/08/2008
21045687	N06BX54	15/06/2010
33077626	N06BX54	08/05/2009
16603876	N06BX54	08/10/2009
27913645	N06BX54	04/10/2010
33234706	N06BX54	30/05/2011
23335211	N06BX54	01/02/2005
33041177	N06BX54	20/10/2008
33048116	N06BX54	01/06/2007
33054553	N06BX54	20/10/2010
33117698	N06BX54	13/04/2011
33033679	N06BX54	26/07/2002
33101694	N06BX54	07/12/2010
33063405	N06BX54	23/05/2006
33057719	N06BX54	31/07/2009
33019718	N06BX54	23/03/2006
33082186	N06BX54	15/01/2004
33111035	N06BX54	29/03/2008
33096056	N06BX54	03/12/2009
33087238	N06BX54	06/02/2008
33089997	N06BX54	23/07/2010
33097532	N06BX54	31/05/2007
33050859	N06BX54	26/03/2009
33087055	N06BX54	31/12/2006
33030403	N06BX54	09/07/2009
33115874	N06BX54	28/07/2010
33066033	N06BX54	10/05/2011
33129831	N06BX54	31/05/2011
33053638	N06BX54	03/01/2011
33044074	N06BX54	18/11/2005
33048714	N06BX54	15/09/2010
16616691	N06BX54	20/04/2011
33234694	N06BX54	09/03/2010
18770787	N06BX54	30/05/2005
23342582	N06BX54	20/02/2007
16705563	N06BX54	09/12/2009
16179088	N06BX54	29/02/2008
23320149	N06BX54	29/04/2005
28005105	N06BX54	31/08/2010
16625249	N06BX54	06/05/2010
23260633	N06BX54	15/10/2009
21114103	N06BX54	16/06/2009
21117574	N06BX54	20/10/2009
27983991	N06BX54	01/02/2010
16183222	N06BX54	17/12/2007
16138404	N06BX54	01/02/2007
16610929	N06BX54	25/07/2007
18757441	N06BX54	07/10/2004
23396603	N06BX54	13/12/2010
18768957	N06BX54	15/10/2008
33200115	N06BX54	08/06/2010
16138857	N06BX54	30/03/2007
28021554	N06BX54	31/10/2007
33200808	N06BX54	23/05/2008
18743061	N06BX54	10/03/2005
16181675	N06BX54	22/07/2004
14188303	N06BX54	17/06/2010
33245853	N06BX54	20/05/2011
16165687	N06BX54	19/06/2009
21117274	N06BX54	16/11/2010
16609624	N06BX54	21/09/2006
21113911	N06BX54	04/09/2009
23342699	N06BX54	11/04/2006
23315502	N06BX54	27/04/2007
16630680	N06BX54	14/07/2008
16184028	N06BX54	29/05/2002
16138565	N06BX54	16/08/2007
16705669	N06BX54	03/08/2004
33306067	N06BX54	01/02/2007
27912569	N06BX54	18/06/2004
33244163	N06BX54	28/04/2004
23293211	N06BX54	24/09/2010
16636527	N06BX54	20/04/2006
16626099	N06BX54	06/06/2007
27915318	N06BX54	28/05/2009
18770458	N06BX54	21/07/2006
20982073	N06BX54	04/06/2004
16139405	N06BX54	24/09/2004
28022840	N06BX54	08/10/2010
16165721	N06BX54	08/06/2006
23354990	N06BX54	17/09/2009
16187150	N06BX54	21/07/2009
23369560	N06BX54	31/07/2006
18770821	N06BX54	30/06/2010
21110120	N06BX54	13/05/2009
23339422	N06BX54	08/05/2008
20985440	N06BX54	29/12/2008
23368758	N06BX54	30/10/2008
16648802	N06BX54	20/10/2009
20989739	N06BX54	11/05/2011
16124521	N06BX54	27/08/2007
24463283	N06BX54	20/08/2008
23366446	N06BX54	25/07/2007
23353969	N06BX54	12/04/2006
16623737	N06BX54	19/04/2006
23283916	N06BX54	07/03/2007
28028633	N06BX54	23/11/2009
16623061	N06BX54	10/01/2011
16186168	N06BX54	24/05/2007
23400805	N06BX54	21/10/2010
28039439	N06BX54	10/07/2008
23362700	N06BX54	03/11/2009
23342956	N06BX54	14/10/2010
27954341	N06BX54	01/10/2010
33233849	N06BX54	13/03/2009
23315832	N06BX54	04/01/2007
16181188	N06BX54	12/05/2008
16708154	N06BX54	27/03/2009
18796239	N06BX54	29/09/2008
23346872	N06BX54	10/02/2011
23332477	N06BX54	10/09/2007
20986175	N06BX54	18/12/2007
23397368	N06BX54	10/06/2010
16124869	N06BX54	21/05/2010
23354037	N06BX54	27/02/2008
16125107	N06BX54	24/10/2005
16180694	N06BX54	05/05/2011
23353502	N06BX54	17/05/2011
23402227	N06BX54	22/01/2010
23325465	N06BX54	30/01/2009
18728304	N06BX54	30/07/2009
20985436	N06BX54	31/08/2010
14189326	N06BX54	19/04/2007
16637664	N06BX54	09/08/2006
16637922	N06BX54	04/09/2007
18770491	N06BX54	03/06/2002
27847304	N06BX54	16/05/2007
18755707	N06BX54	17/02/2005
21101295	N06BX54	03/11/2010
16138964	N06BX54	12/11/2007
23361932	N06BX54	27/05/2008
16775145	N06BX54	29/05/2009
16135556	N06BX54	26/01/2009
27975673	N06BX54	18/06/2008
27984060	N06BX54	24/05/2011
16606863	N06BX54	02/11/2006
23318897	N06BX54	22/03/2004
21114699	N06BX54	04/05/2009
18757709	N06BX54	26/11/2007
16705838	N06BX54	20/11/2008
32067983	N06BX54	27/02/2006
33306306	N06BX54	14/10/2008
16622928	N06BX54	03/09/2007
23317066	N06BX54	05/05/2011
23366435	N06BX54	16/06/2009
16124564	N06BX54	12/12/2008
33220514	N06BX54	27/09/2007
23366428	N06BX54	08/05/2008
27948668	N06BX54	18/02/2005
16623961	N06BX54	06/04/2009
16648158	N06BX54	23/06/2010
33245848	N06BX54	22/04/2003
23352140	N06BX54	20/08/2007
16712169	N06BX54	23/10/2007
23412047	N06BX54	18/05/2009
16636710	N06BX54	30/07/2008
16186433	N06BX54	29/10/2007
23338189	N06BX54	07/06/2006
20985230	N06BX54	02/11/2010
16613895	N06BX54	30/11/2004
21102426	N06BX54	18/11/2010
23333929	N06BX54	24/06/2010
16652601	N06BX54	08/05/2009
33312738	N06BX54	16/02/2011
16124871	N06BX54	18/03/2003
16598795	N06BX54	11/05/2011
28012288	N06BX54	15/04/2010
16602630	N06BX54	06/05/2011
23315594	N06BX54	12/09/2007
16623344	N06BX54	28/04/2011
16598700	N06BX54	05/12/2002
16712863	N06BX54	12/06/2007
27848565	N06BX54	01/09/2010
33293205	N06BX54	19/05/2007
27895998	N06BX54	25/03/2009
18755454	N06BX54	27/05/2011
23371935	N06BX54	30/07/2009
16598501	N06BX54	02/04/2008
27954891	N06BX54	29/06/2010
16598711	N06BX54	30/03/2009
16604885	N06BX54	04/03/2011
23353743	N06BX54	25/01/2005
20984891	N06BX54	27/04/2007
23401236	N06BX54	07/07/2009
23347347	N06BX54	28/04/2009
23349661	N06BX54	22/09/2010
23408437	N06BX54	21/08/2009
33200239	N06BX54	20/04/2006
31345711	N06BX54	03/03/2011
31062826	N06BX54	17/07/2003
32217710	N06BX54	17/12/2010
31681815	N06BX54	28/01/2008
31159532	N06BX54	19/10/2009
31083013	N06BX54	07/06/2010
31980351	N06BX54	27/01/2009
31540098	N06BX54	05/10/2010
31536904	N06BX54	21/09/2009
32048150	N06BX54	04/02/2008
32231605	N06BX54	19/02/2009
31327201	N06BX54	08/05/2009
32233519	N06BX54	10/12/2008
31156348	N06BX54	16/05/2007
32224890	N06BX54	01/07/2005
31892616	N06BX54	16/01/2008
32043160	N06BX54	29/08/2006
31677756	N06BX54	21/09/2009
31455675	N06BX54	25/05/2006
32240562	N06BX54	11/09/2008
32108246	N06BX54	25/03/2009
32246359	N06BX54	09/02/2007
32231437	N06BX54	10/06/2010
32166665	N06BX54	07/05/2010
31534125	N06BX54	16/06/2009
31238552	N06BX54	06/09/2004
31963757	N06BX54	23/06/2006
32218783	N06BX54	30/04/2007
31085353	N06BX54	21/01/2009
31491434	N06BX54	31/10/2005
32221033	N06BX54	27/09/2007
32192753	N06BX54	29/03/2000
31799453	N06BX54	25/06/2004
31085239	N06BX54	13/10/2009
31530639	N06BX54	19/11/2009
31217229	N06BX54	08/11/2005
31388249	N06BX54	21/01/2011
32074407	N06BX54	07/08/2008
31099804	N06BX54	23/02/2007
31937062	N06BX54	11/09/2009
31309692	N06BX54	08/06/2010
32005669	N06BX54	24/02/2010
31848831	N06BX54	22/07/2009
31646804	N06BX54	26/10/2007
31297746	N06BX54	30/10/2008
31665027	N06BX54	28/10/2010
31259746	N06BX54	25/11/2009
31698320	N06BX54	19/05/2004
31301711	N06BX54	08/10/2007
31298030	N06BX54	06/05/2005
32180811	N06BX54	03/05/2004
31767484	N06BX54	20/03/2007
31968363	N06BX54	22/02/2010
32185161	N06BX54	26/08/2005
31248417	N06BX54	22/02/2008
31847576	N06BX54	25/03/2009
31638730	N06BX54	15/11/2005
31568595	N06BX54	05/04/2005
31517124	N06BX54	28/09/2010
31925603	N06BX54	09/04/2002
31577330	N06BX54	05/08/2009
32182514	N06BX54	15/12/2009
31753548	N06BX54	23/11/2006
31165906	N06BX54	11/11/2005
32019031	N06BX54	10/02/2009
32272908	N06BX54	10/12/2004
31466278	N06BX54	02/11/2006
32236711	N06BX54	12/05/2009
31269212	N06BX54	09/08/2006
31369580	N06BX54	11/08/2009
32264291	N06BX54	03/07/2006
31396650	N06BX54	21/12/2005
31271943	N06BX54	07/06/2007
31441426	N06BX54	11/12/2009
31728384	N06BX54	18/07/2007
31670179	N06BX54	19/09/2006
31671060	N06BX54	02/01/2007
31505974	N06BX54	23/07/2009
31061462	N06BX54	30/06/2006
31678786	N06BX54	21/04/2005
31294522	N06BX54	28/10/2010
31248296	N06BX54	28/08/2003
31990571	N06BX54	12/11/2009
31349798	N06BX54	20/11/2006
31961565	N06BX54	05/09/2007
31554561	N06BX54	14/04/2005
31550481	N06BX54	06/02/2006
31710392	N06BX54	12/01/2005
32046813	N06BX54	18/01/2005
31419213	N06BX54	14/07/2003
31655861	N06BX54	30/09/2004
31953204	N06BX54	22/09/2004
31867997	N06BX54	20/07/2009
31984866	N06BX54	29/03/2006
31597078	N06BX54	26/12/2006
32250544	N06BX54	19/05/2004
32037041	N06BX54	11/03/2005
31483186	N06BX54	11/06/2008
31044169	N06BX54	10/03/2006
31333815	N06BX54	08/09/2008
32192268	N06BX54	31/01/2003
32265312	N06BX54	07/06/2007
31422757	N06BX54	10/04/2008
31920467	N06BX54	30/07/2002
31619024	N06BX54	26/09/2010
31087836	N06BX54	23/11/2005
31051001	N06BX54	16/01/2007
31519781	N06BX54	15/11/2006
32267029	N06BX54	21/05/2001
32256883	N06BX54	15/01/2009
31635838	N06BX54	11/11/2003
32007468	N06BX54	08/08/2007
31067036	N06BX54	07/04/2008
31439367	N06BX54	30/09/2009
32209727	N06BX54	18/03/2009
32173948	N06BX54	02/11/2010
32063147	N06BX54	05/03/2007
32228473	N06BX54	15/01/2009
31444085	N06BX54	17/09/2007
31131105	N06BX54	12/03/2007
31645480	N06BX54	09/11/2007
31378501	N06BX54	10/04/2006
31433790	N06BX54	09/05/2006
31062770	N06BX54	29/07/2009
31734758	N06BX54	03/09/2007
31860135	N06BX54	17/03/2005
31282867	N06BX54	17/01/2005
32047705	N06BX54	11/09/2006
31827456	N06BX54	05/06/2009
32125538	N06BX54	14/04/2009
32020359	N06BX54	27/07/2004
31846862	N06BX54	29/03/2011
31756864	N06BX54	22/12/2006
32109768	N06BX54	20/02/2003
31524569	N06BX54	22/10/2010
31249989	N06BX54	13/03/2009
32200027	N06BX54	15/03/2006
31448770	N06BX54	04/08/2005
31637621	N06BX54	25/04/2007
31516645	N06BX54	05/05/2008
31822263	N06BX54	27/09/2010
32158955	N06BX54	22/12/2009
31080678	N06BX54	22/02/2008
32210034	N06BX54	29/10/2007
31600813	N06BX54	09/04/2001
31166539	N06BX54	28/08/2008
31202980	N06BX54	10/06/2005
31378626	N06BX54	22/06/2007
31901728	N06BX54	09/10/2007
31788106	N06BX54	22/12/2008
32121090	N06BX54	26/02/2004
32133275	N06BX54	02/11/2007
31480321	N06BX54	25/07/2006
31790134	N06BX54	17/10/2007
31645396	N06BX54	22/07/2005
31546897	N06BX54	25/02/2010
31905297	N06BX54	29/07/2009
31099545	N06BX54	16/01/2007
32255967	N06BX54	16/07/2008
31155640	N06BX54	24/11/2009
31359071	N06BX54	26/12/2008
32142567	N06BX54	03/07/2007
31587995	N06BX54	30/03/2007
32026900	N06BX54	13/02/2009
31333245	N06BX54	02/06/2009
32197664	N06BX54	27/07/2006
