patient_id	covar_name	date
8960142	N06AB03	27/04/2006
9323419	N06AB03	13/08/2002
1123839	N06AB03	28/06/2002
3323175	N06AB03	12/05/2010
8654002	N06AB03	13/12/2007
15901954	N06AB03	16/06/2003
8291441	N06AB03	05/05/2011
9251250	N06AB03	15/03/2006
12182578	N06AB03	15/09/2010
12760945	N06AB03	27/09/2006
10002116	N06AB03	01/06/2004
132608	N06AB03	20/10/2010
6749631	N06AB03	25/07/2006
1731330	N06AB03	10/11/2003
25062697	N06AB03	20/07/2006
1162001	N06AB03	30/01/2003
3550782	N06AB03	28/01/2010
6625226	N06AB03	15/11/2010
15899686	N06AB03	12/01/2009
21153398	N06AB03	29/06/2005
3938112	N06AB03	13/01/2010
14816698	N06AB03	27/04/2011
11661106	N06AB03	17/12/2003
5034257	N06AB03	08/04/2008
9328550	N06AB03	06/03/2009
24729351	N06AB03	02/11/2005
8979056	N06AB03	08/04/2003
704170	N06AB03	30/11/2009
6757275	N06AB03	17/06/2010
12781913	N06AB03	12/09/2003
12789223	N06AB03	26/10/2004
1547786	N06AB03	03/11/2006
3332699	N06AB03	30/03/2004
1516436	N06AB03	06/09/2004
10394066	N06AB03	12/07/2010
9374894	N06AB03	30/06/2008
3119947	N06AB03	29/03/2011
612920	N06AB03	21/05/2003
19184498	N06AB03	19/07/2010
7246007	N06AB03	24/10/2007
8989996	N06AB03	08/09/2008
3293030	N06AB03	05/10/2009
3939012	N06AB03	28/01/2005
9319745	N06AB03	24/05/2007
3322587	N06AB03	11/12/2006
20549671	N06AB03	12/02/2003
12779663	N06AB03	22/02/2006
10002659	N06AB03	05/09/2002
16087795	N06AB03	25/03/2009
25048483	N06AB03	30/05/2011
5814184	N06AB03	17/07/2006
9319097	N06AB03	11/04/2008
9214687	N06AB03	05/10/2005
8555693	N06AB03	29/12/2006
17174935	N06AB03	15/12/2010
9176414	N06AB03	18/01/2006
6746940	N06AB03	11/11/2009
5031417	N06AB03	28/08/2007
5867995	N06AB03	28/02/2011
6182135	N06AB03	23/05/2006
1067567	N06AB03	14/05/2010
7094087	N06AB03	30/08/2005
8784331	N06AB03	09/02/2006
3332686	N06AB03	09/02/2004
608864	N06AB03	16/11/2009
3117787	N06AB03	05/10/2007
8294054	N06AB03	17/06/2008
6746616	N06AB03	05/12/2003
3117910	N06AB03	08/10/2008
16529657	N06AB03	17/05/2011
209616	N06AB03	14/06/2005
3333819	N06AB03	17/09/1999
610479	N06AB03	12/05/2008
8652755	N06AB03	26/05/2011
12695840	N06AB03	15/04/2009
11435174	N06AB03	23/04/2009
9250589	N06AB03	03/12/2003
7247475	N06AB03	13/04/2004
7243139	N06AB03	15/02/2011
11994782	N06AB03	19/09/2008
12690487	N06AB03	03/05/2011
19185095	N06AB03	19/05/2011
21152676	N06AB03	23/12/2004
9376034	N06AB03	31/01/2008
7405489	N06AB03	25/11/2004
3322175	N06AB03	16/12/2009
1938542	N06AB03	08/04/2003
21875563	N06AB03	27/03/2008
16554489	N06AB03	17/03/2011
12857478	N06AB03	07/10/2005
3326971	N06AB03	05/11/2004
12688862	N06AB03	03/05/2011
9327383	N06AB03	05/01/2011
6415918	N06AB03	15/01/2003
3331615	N06AB03	24/05/2011
1517271	N06AB03	20/09/2004
3502098	N06AB03	09/05/2008
9388668	N06AB03	01/09/2004
6866296	N06AB03	17/05/2011
9320295	N06AB03	03/09/2007
1433662	N06AB03	16/09/2003
3303799	N06AB03	12/03/2003
10604480	N06AB03	22/12/2010
1123996	N06AB03	23/05/2011
9319288	N06AB03	19/08/2005
6752008	N06AB03	07/06/2010
24950927	N06AB03	11/06/2008
611175	N06AB03	31/01/2005
10245628	N06AB03	14/04/2010
949851	N06AB03	02/09/2008
10846228	N06AB03	19/04/2009
9250324	N06AB03	13/01/2006
8293467	N06AB03	10/11/2010
697976	N06AB03	18/11/2005
25071236	N06AB03	08/10/2003
1731987	N06AB03	10/12/2004
4836831	N06AB03	30/08/2007
610477	N06AB03	11/04/2003
8292030	N06AB03	12/04/2011
1938824	N06AB03	19/05/2011
17172387	N06AB03	22/04/2009
17215819	N06AB03	14/02/2011
9378605	N06AB03	04/07/2005
8979107	N06AB03	20/05/2009
6040773	N06AB03	09/05/2011
3119951	N06AB03	17/05/2011
19228281	N06AB03	13/07/2006
137620	N06AB03	23/02/2011
16101133	N06AB03	17/05/2004
7350206	N06AB03	17/08/2006
16927871	N06AB03	22/12/2010
1064683	N06AB03	07/02/2005
9370823	N06AB03	04/10/2005
21370083	N06AB03	17/01/2006
11993515	N06AB03	20/04/2005
6622144	N06AB03	28/07/1999
3322728	N06AB03	22/10/2009
9214936	N06AB03	05/05/2011
949009	N06AB03	18/04/2005
6757758	N06AB03	15/02/2011
3301348	N06AB03	20/05/2009
5023566	N06AB03	24/05/2011
9349186	N06AB03	24/05/2011
936659	N06AB03	02/09/2003
12738650	N06AB03	03/04/2009
12763994	N06AB03	30/05/2011
20548457	N06AB03	25/06/2003
16556701	N06AB03	25/06/2010
3119296	N06AB03	01/09/2004
25063184	N06AB03	11/10/2010
21871084	N06AB03	04/11/2010
6757580	N06AB03	22/06/2007
12739708	N06AB03	25/04/2011
8777089	N06AB03	18/05/2011
3122199	N06AB03	19/07/2006
1063243	N06AB03	26/03/2009
8567858	N06AB03	03/05/2011
14816674	N06AB03	21/06/2010
9385419	N06AB03	29/03/2004
1515178	N06AB03	07/10/2008
24765014	N06AB03	19/05/2011
24729383	N06AB03	18/05/2005
24730044	N06AB03	07/12/2006
1067775	N06AB03	31/01/2011
21644622	N06AB03	31/05/2011
9373480	N06AB03	11/12/2006
9283721	N06AB03	01/02/2002
22013417	N06AB03	30/05/2011
3067637	N06AB03	23/06/2006
6592947	N06AB03	30/05/2011
1546771	N06AB03	27/10/2008
1200223	N06AB03	30/05/2011
4700861	N06AB03	05/10/2004
1546390	N06AB03	14/10/2004
18056114	N06AB03	21/05/2011
1351154	N06AB03	01/06/2004
1851166	N06AB03	18/10/2000
514728	N06AB03	29/09/2009
674448	N06AB03	02/03/2006
7848911	N06AB03	12/07/2010
12605703	N06AB03	21/11/2008
7966101	N06AB03	01/06/2009
6599830	N06AB03	30/08/2007
7662300	N06AB03	20/05/2011
564634	N06AB03	15/02/2006
6591734	N06AB03	27/11/2003
1263670	N06AB03	21/01/2004
24941250	N06AB03	05/05/2005
13984900	N06AB03	22/06/2007
1199932	N06AB03	13/04/2005
6595352	N06AB03	30/06/2010
1850285	N06AB03	18/03/2004
1546096	N06AB03	01/06/2011
6599178	N06AB03	06/07/2007
6600753	N06AB03	03/07/2009
8063672	N06AB03	09/12/2004
1666039	N06AB03	20/02/2008
6598890	N06AB03	11/02/2003
1545758	N06AB03	19/05/2011
1207309	N06AB03	13/12/2004
1346900	N06AB03	06/10/2005
7838720	N06AB03	25/01/2005
6597538	N06AB03	26/04/2011
6211809	N06AB03	15/05/2008
6212006	N06AB03	18/10/2010
6591197	N06AB03	05/07/2007
6602978	N06AB03	10/02/2009
7970963	N06AB03	21/10/2010
1206503	N06AB03	04/01/2006
7965270	N06AB03	22/07/2010
629522	N06AB03	24/03/2005
7848502	N06AB03	05/08/2010
1852867	N06AB03	23/03/2006
13986535	N06AB03	31/05/2011
1212449	N06AB03	17/03/2003
1265194	N06AB03	16/11/2005
1200860	N06AB03	12/03/2003
8240201	N06AB03	21/12/2010
1275963	N06AB03	19/02/2004
540075	N06AB03	02/12/2005
7781663	N06AB03	18/04/2011
1665602	N06AB03	10/01/2006
1445240	N06AB03	12/12/2007
1264564	N06AB03	20/11/2006
1666882	N06AB03	19/12/2003
8061893	N06AB03	17/12/2010
6596858	N06AB03	24/06/2010
6211340	N06AB03	30/03/2007
1263009	N06AB03	29/01/2009
648003	N06AB03	09/11/2010
1354510	N06AB03	02/01/2008
8063389	N06AB03	13/05/2011
6596566	N06AB03	21/08/2003
1199856	N06AB03	17/02/2003
641968	N06AB03	15/01/2004
24940353	N06AB03	31/05/2011
8955143	N06AB03	30/11/2006
648547	N06AB03	20/05/2003
1545327	N06AB03	01/01/2007
1425106	N06AB03	13/01/2005
515412	N06AB03	10/12/2004
5992669	N06AB03	16/02/2004
12614346	N06AB03	28/03/2011
1276627	N06AB03	11/12/2001
1205740	N06AB03	26/04/2006
1852196	N06AB03	15/10/2001
1320083	N06AB03	09/03/2006
639310	N06AB03	10/12/2007
1135117	N06AB03	12/07/2010
25883724	N06AB03	13/07/2010
6597378	N06AB03	02/11/2001
1425322	N06AB03	04/02/2005
1353013	N06AB03	26/09/2006
7850361	N06AB03	30/10/2009
1170644	N06AB03	30/03/2006
638847	N06AB03	23/12/2009
1208369	N06AB03	10/04/2006
1639524	N06AB03	12/09/2007
1638747	N06AB03	10/11/2010
1638708	N06AB03	10/12/2008
22844462	N06AB03	05/10/2010
1100704	N06AB03	26/04/2011
1102247	N06AB03	12/05/2000
1103763	N06AB03	29/08/2006
1640838	N06AB03	24/04/2003
1641058	N06AB03	08/10/2009
25889379	N06AB03	06/07/2010
889830	N06AB03	31/01/2005
1131283	N06AB03	31/08/2009
1134288	N06AB03	08/03/2004
21282892	N06AB03	23/01/2008
1552431	N06AB03	10/07/2008
25913321	N06AB03	16/05/2011
25760442	N06AB03	01/09/2006
1101989	N06AB03	14/03/2005
25889450	N06AB03	27/11/2009
1102507	N06AB03	04/06/2001
995605	N06AB03	31/03/2011
16037367	N06AB03	13/05/2008
717026	N06AB03	06/04/2007
2041539	N06AB03	11/10/2010
2043156	N06AB03	27/02/2004
2059046	N06AB03	25/03/2004
2110088	N06AB03	02/07/2004
2164170	N06AB03	05/04/2011
2133253	N06AB03	14/10/2009
2068934	N06AB03	10/02/2006
2142935	N06AB03	09/12/2010
2068266	N06AB03	12/05/2008
2041105	N06AB03	28/10/2004
2059211	N06AB03	19/02/2007
2053983	N06AB03	01/07/2003
2036391	N06AB03	20/05/2004
1754164	N06AB03	23/03/2011
904929	N06AB03	14/03/2007
2110888	N06AB03	10/02/2011
2140421	N06AB03	15/12/2010
2036799	N06AB03	18/12/2007
875499	N06AB03	12/08/2004
878003	N06AB03	12/11/2007
1753155	N06AB03	09/02/2010
1754153	N06AB03	31/03/2011
1683248	N06AB03	08/01/2010
2109639	N06AB03	27/05/2011
2044424	N06AB03	26/06/2001
2068612	N06AB03	05/04/2011
2143938	N06AB03	17/06/2003
903543	N06AB03	11/05/2011
903895	N06AB03	11/07/2008
903902	N06AB03	29/11/2001
903860	N06AB03	05/03/2002
1682937	N06AB03	01/06/2011
1753828	N06AB03	15/10/2009
2041325	N06AB03	20/06/2007
6024859	N06AB03	19/11/2008
2777014	N06AB03	07/09/2006
3054353	N06AB03	15/03/2011
3055265	N06AB03	29/10/2001
1767375	N06AB03	16/11/2005
2041614	N06AB03	24/07/2008
2038153	N06AB03	06/11/2006
1765584	N06AB03	12/04/2007
1755991	N06AB03	19/12/2007
877499	N06AB03	27/03/2008
2777238	N06AB03	09/05/2011
3053603	N06AB03	14/06/2001
2776510	N06AB03	05/05/2005
3055385	N06AB03	16/01/2009
3053901	N06AB03	17/02/2009
3055168	N06AB03	07/11/2002
4894255	N06AB03	01/07/2003
6434327	N06AB03	09/05/2007
2763918	N06AB03	29/12/2004
2778110	N06AB03	10/05/2011
2776308	N06AB03	15/11/2010
2521789	N06AB03	26/12/2007
2779963	N06AB03	26/05/2011
2759074	N06AB03	01/03/2004
2765080	N06AB03	28/05/2008
3055444	N06AB03	29/04/2002
2755855	N06AB03	25/03/2003
2520741	N06AB03	06/07/2006
2519204	N06AB03	03/12/2004
2520376	N06AB03	30/05/2011
2522350	N06AB03	30/09/2003
2519418	N06AB03	26/03/2008
15660220	N06AB03	28/06/2007
2519961	N06AB03	28/01/2011
16948347	N06AB03	11/12/2009
2239894	N06AB03	21/11/2005
26410629	N06AB03	17/11/2009
26583203	N06AB03	17/11/2010
26384041	N06AB03	20/01/2011
28069576	N06AB03	13/11/2009
26409683	N06AB03	30/05/2011
28063519	N06AB03	07/11/2007
28042694	N06AB03	21/08/2009
26409464	N06AB03	06/08/2003
26564907	N06AB03	13/12/2005
26461456	N06AB03	16/05/2011
18471742	N06AB03	26/10/2005
17746457	N06AB03	09/11/2000
26243769	N06AB03	20/11/2003
18223470	N06AB03	10/12/2007
18472363	N06AB03	12/07/2007
7228785	N06AB03	05/02/2008
18222850	N06AB03	24/04/2008
18222884	N06AB03	01/06/2009
26336640	N06AB03	02/06/2008
26340652	N06AB03	26/08/2008
26261422	N06AB03	18/05/2011
6990280	N06AB03	13/05/2005
26462196	N06AB03	02/12/2008
17325261	N06AB03	22/04/2004
26243831	N06AB03	24/09/2004
28042198	N06AB03	12/01/2006
28042210	N06AB03	27/05/2011
26341767	N06AB03	25/10/2002
26425992	N06AB03	07/11/2001
17742392	N06AB03	27/10/2010
26458743	N06AB03	30/03/2011
26255901	N06AB03	27/09/2007
18472156	N06AB03	16/04/2010
26424620	N06AB03	16/06/2004
17324116	N06AB03	11/07/2005
26235928	N06AB03	09/05/2011
9880647	N06AB03	08/04/2011
11583878	N06AB03	12/02/2009
16836109	N06AB03	23/06/2008
7135727	N06AB03	05/05/2011
17040534	N06AB03	13/04/2011
305687	N06AB03	18/12/2001
184115	N06AB03	04/03/2009
300241	N06AB03	19/05/2011
1903028	N06AB03	24/09/2001
2965493	N06AB03	20/01/2011
1903000	N06AB03	21/02/2005
1910935	N06AB03	11/02/2004
180907	N06AB03	27/11/2009
649048	N06AB03	07/09/2009
6577193	N06AB03	06/05/2011
4110046	N06AB03	31/05/2011
5759433	N06AB03	20/04/2011
184887	N06AB03	28/12/2010
429077	N06AB03	12/09/2003
420644	N06AB03	09/01/2007
12979856	N06AB03	05/11/2007
2960079	N06AB03	17/07/2008
2525880	N06AB03	31/03/2006
28093277	N06AB03	28/09/2005
28044469	N06AB03	06/07/2005
28092230	N06AB03	30/08/2006
1753843	N06AB03	05/05/2010
28091105	N06AB03	11/09/2003
873986	N06AB03	29/04/2003
28084179	N06AB03	22/10/2008
2108998	N06AB03	12/05/2011
650372	N06AB03	08/01/2003
28090121	N06AB03	04/01/2010
424750	N06AB03	01/06/2005
17741586	N06AB03	19/05/2011
7448161	N06AB03	27/08/2009
434471	N06AB03	17/01/2002
649405	N06AB03	25/03/2004
2408634	N06AB03	28/09/2004
181894	N06AB03	19/04/2010
18222549	N06AB03	19/01/2009
26410164	N06AB03	15/07/2010
28053711	N06AB03	25/08/2004
424667	N06AB03	01/06/2011
184252	N06AB03	21/04/2011
427930	N06AB03	04/10/2004
265148	N06AB03	22/05/2011
649031	N06AB03	27/12/2005
28062996	N06AB03	21/09/2009
28055135	N06AB03	17/05/2007
28080732	N06AB03	21/10/2009
28068401	N06AB03	04/01/2006
28066204	N06AB03	01/04/2011
28074969	N06AB03	16/02/2011
28056641	N06AB03	16/04/2004
28063181	N06AB03	05/02/2007
28063039	N06AB03	01/10/2010
24655545	N06AB03	23/10/2003
24669451	N06AB03	21/04/2004
25556018	N06AB03	21/11/2005
26629170	N06AB03	05/11/2010
1904043	N06AB03	01/04/2003
19964901	N06AB03	19/09/2007
19424121	N06AB03	20/01/2006
1372836	N06AB03	06/05/1999
1360745	N06AB03	25/03/2008
1366229	N06AB03	26/05/2005
1905306	N06AB03	09/02/2005
17750508	N06AB03	26/02/2003
1374923	N06AB03	14/12/2001
1360903	N06AB03	12/01/1999
18195981	N06AB03	05/02/2002
1366853	N06AB03	17/02/2011
1366526	N06AB03	03/05/2011
18981170	N06AB03	22/04/2011
1359659	N06AB03	14/04/2004
1359005	N06AB03	26/08/2004
18187889	N06AB03	16/01/2002
18193999	N06AB03	24/06/2008
18194003	N06AB03	21/03/2005
19803579	N06AB03	30/03/2006
18191861	N06AB03	27/04/2011
19801055	N06AB03	06/04/2005
16567128	N06AB03	25/07/2006
18189831	N06AB03	15/12/2000
16841682	N06AB03	12/06/2006
18188014	N06AB03	23/01/2001
22757992	N06AB03	10/05/2011
18187430	N06AB03	02/04/2003
1903111	N06AB03	04/09/2009
1906291	N06AB03	03/11/2009
2960430	N06AB03	02/05/2011
1374589	N06AB03	19/10/1999
2962765	N06AB03	22/04/2011
1904262	N06AB03	14/06/2006
2959039	N06AB03	15/11/2006
1363174	N06AB03	12/01/2005
26628537	N06AB03	23/09/2005
26720817	N06AB03	30/07/2009
26626574	N06AB03	17/05/2011
2994406	N06AB03	19/10/2006
12974196	N06AB03	07/10/2010
22923362	N06AB03	18/03/2004
12976349	N06AB03	28/06/2001
13788822	N06AB03	10/10/2003
11465926	N06AB03	19/12/2008
26707001	N06AB03	02/03/2010
15823494	N06AB03	31/08/2004
26723041	N06AB03	02/04/2008
26701106	N06AB03	13/11/2006
26640542	N06AB03	07/07/2006
26616688	N06AB03	18/03/2010
17163387	N06AB03	20/11/2003
14310735	N06AB03	17/01/2007
25722972	N06AB03	11/05/2011
26640331	N06AB03	11/05/2011
22922894	N06AB03	05/06/2010
24576414	N06AB03	28/09/2005
24576680	N06AB03	11/01/2006
21065021	N06AB03	28/02/2007
19968501	N06AB03	23/01/2009
24577909	N06AB03	12/06/2008
21064114	N06AB03	26/04/2011
24528370	N06AB03	08/08/2010
26932610	N06AB03	29/03/2011
26936348	N06AB03	28/05/2008
26948731	N06AB03	31/05/2011
26897499	N06AB03	04/11/2008
26945400	N06AB03	01/05/2011
26958880	N06AB03	17/08/2006
26950378	N06AB03	21/01/2004
26889893	N06AB03	29/04/2011
26933236	N06AB03	17/07/2003
27041155	N06AB03	28/04/2003
26949743	N06AB03	12/01/2005
26938632	N06AB03	27/05/2011
26932832	N06AB03	15/10/2009
26715837	N06AB03	25/11/2004
26761679	N06AB03	26/01/2009
26776105	N06AB03	18/10/2006
26874543	N06AB03	01/04/2011
26876200	N06AB03	25/04/2008
26874283	N06AB03	25/05/2007
26864172	N06AB03	20/01/2007
26848422	N06AB03	30/03/2007
26784084	N06AB03	05/04/2005
26835837	N06AB03	04/03/2011
26776668	N06AB03	03/11/2009
26815899	N06AB03	20/01/2005
26776107	N06AB03	09/05/2011
26966714	N06AB03	26/04/2011
26954470	N06AB03	19/05/2011
27034975	N06AB03	28/06/2005
27056041	N06AB03	05/03/2010
26953587	N06AB03	14/10/2008
26981190	N06AB03	25/05/2011
26954733	N06AB03	05/01/2007
26939942	N06AB03	29/03/2006
27043376	N06AB03	26/04/2011
27102365	N06AB03	12/05/2011
27151243	N06AB03	15/04/2008
27115829	N06AB03	01/08/2006
27149827	N06AB03	24/03/2009
27102811	N06AB03	28/06/2005
27137973	N06AB03	23/05/2011
27046890	N06AB03	20/01/2004
27127065	N06AB03	31/05/2011
27106068	N06AB03	12/08/2010
27049237	N06AB03	10/03/2010
27065487	N06AB03	01/06/2011
27055101	N06AB03	01/06/2011
26996974	N06AB03	13/07/2010
27039179	N06AB03	08/08/2005
27023735	N06AB03	09/05/2011
27034016	N06AB03	19/04/2011
27005644	N06AB03	06/11/2003
27326850	N06AB03	26/09/2007
27152044	N06AB03	27/11/2001
27382915	N06AB03	14/01/2011
27383534	N06AB03	16/02/2007
27238052	N06AB03	20/04/2001
27352971	N06AB03	29/05/2011
27363193	N06AB03	07/11/2010
27210678	N06AB03	11/05/2011
27316281	N06AB03	26/09/2006
27349595	N06AB03	06/07/2008
27383112	N06AB03	06/02/2008
27369620	N06AB03	17/04/2011
27357940	N06AB03	28/07/2008
27364443	N06AB03	02/11/2010
27348533	N06AB03	05/06/2009
27317311	N06AB03	20/12/2003
27368240	N06AB03	18/05/2011
27348103	N06AB03	17/03/2007
27326516	N06AB03	06/07/2010
27388480	N06AB03	30/03/2011
26967221	N06AB03	04/07/2006
27254030	N06AB03	31/10/2003
27238217	N06AB03	30/04/2011
27286648	N06AB03	10/04/2011
26954101	N06AB03	05/12/2001
27230962	N06AB03	26/05/2011
26974195	N06AB03	02/09/2009
26952329	N06AB03	13/06/2007
26975874	N06AB03	18/05/2006
27252810	N06AB03	10/12/2003
27249682	N06AB03	26/04/2011
26989196	N06AB03	06/09/2010
27596914	N06AB03	08/05/2011
27596955	N06AB03	29/04/2011
27646883	N06AB03	11/01/2007
27600750	N06AB03	25/05/2006
27591859	N06AB03	22/05/2011
27660829	N06AB03	12/07/2010
27656239	N06AB03	12/05/2010
27661768	N06AB03	28/01/2003
27414681	N06AB03	02/02/2007
27414394	N06AB03	21/06/2001
27426871	N06AB03	05/04/2005
27420258	N06AB03	29/05/2011
27479406	N06AB03	12/07/2004
27492885	N06AB03	28/04/2011
27572024	N06AB03	28/08/2002
27572036	N06AB03	08/01/2007
27544530	N06AB03	17/06/2010
27543445	N06AB03	05/09/2008
27551398	N06AB03	30/08/2004
27573207	N06AB03	26/08/2008
27233968	N06AB03	27/01/2005
27150779	N06AB03	19/11/2008
27414193	N06AB03	11/02/2003
27163993	N06AB03	06/04/2005
27469950	N06AB03	26/05/2005
27127843	N06AB03	18/05/2011
26637275	N06AB03	02/07/2008
27315655	N06AB03	17/02/2010
25741964	N06AB03	14/11/2006
26851356	N06AB03	01/06/2011
26948927	N06AB03	28/10/2004
27662048	N06AB03	10/09/2002
27674960	N06AB03	29/07/2005
27772597	N06AB03	05/06/2006
27539673	N06AB03	30/11/2004
27531352	N06AB03	25/09/2001
27530707	N06AB03	26/07/2004
27781303	N06AB03	23/10/2008
22922095	N06AB03	14/10/2009
27771931	N06AB03	20/02/2009
27679826	N06AB03	25/08/2004
27236277	N06AB03	26/01/2004
27675773	N06AB03	16/06/2004
27508678	N06AB03	07/04/2011
27445289	N06AB03	31/05/2011
27516538	N06AB03	12/12/2005
16568199	N06AB03	16/10/2007
24580966	N06AB03	02/11/2004
26780894	N06AB03	20/07/2005
26715264	N06AB03	27/01/2003
27810792	N06AB03	27/01/2005
27664577	N06AB03	03/10/2003
27668939	N06AB03	06/05/2010
27804984	N06AB03	31/10/2005
27686175	N06AB03	08/08/2006
1903664	N06AB03	24/12/1999
27067043	N06AB03	12/01/2010
27667214	N06AB03	14/09/2002
27794774	N06AB03	21/12/2005
620759	N06AB03	19/04/2008
26980891	N06AB03	06/12/2009
19800992	N06AB03	07/02/2006
1361374	N06AB03	26/11/2008
27047014	N06AB03	18/07/2003
27614816	N06AB03	12/05/2005
27780895	N06AB03	20/08/2008
27775707	N06AB03	21/09/2004
27794211	N06AB03	20/03/2006
27352679	N06AB03	23/06/2003
27783816	N06AB03	26/06/2007
26776955	N06AB03	21/06/2007
26887104	N06AB03	05/08/2009
33055640	N06AB03	11/05/2011
33040260	N06AB03	21/03/2007
33018984	N06AB03	26/05/2010
33111336	N06AB03	08/12/2010
33129697	N06AB03	08/04/2010
33033701	N06AB03	26/05/2010
33086922	N06AB03	19/05/2011
33109326	N06AB03	26/05/2010
33073611	N06AB03	10/06/2004
33058109	N06AB03	13/12/2001
33075946	N06AB03	07/10/2010
33018545	N06AB03	13/01/2005
33077903	N06AB03	27/06/2002
33075788	N06AB03	25/09/2002
33066649	N06AB03	28/12/2001
33043546	N06AB03	01/06/2011
33069498	N06AB03	01/07/2010
33025822	N06AB03	31/07/2010
33008987	N06AB03	11/01/2006
33026966	N06AB03	13/11/2008
33081368	N06AB03	24/05/2006
33072290	N06AB03	18/08/2004
33050069	N06AB03	04/05/2005
33018895	N06AB03	08/03/2004
33027943	N06AB03	08/01/2004
33003004	N06AB03	25/05/2011
33060643	N06AB03	21/09/2007
33098127	N06AB03	10/01/2006
33034767	N06AB03	20/05/2005
33034793	N06AB03	06/05/2009
33072253	N06AB03	19/07/2007
33025068	N06AB03	15/01/2010
33129146	N06AB03	08/09/2010
33024920	N06AB03	29/04/2003
33004867	N06AB03	22/12/2004
33060297	N06AB03	16/12/2010
33107937	N06AB03	18/01/2011
33098553	N06AB03	04/05/2011
33020581	N06AB03	26/06/2006
33030108	N06AB03	12/05/2011
33123693	N06AB03	05/04/2011
33103479	N06AB03	22/03/2005
33046246	N06AB03	23/04/2002
33092933	N06AB03	12/05/2010
33084983	N06AB03	22/02/2011
33072776	N06AB03	19/05/2005
33026288	N06AB03	25/04/2007
33025804	N06AB03	01/06/2011
33033051	N06AB03	26/02/2002
27661862	N06AB03	01/10/2008
1029165	N06AB03	07/08/2009
33079470	N06AB03	23/10/2007
19422878	N06AB03	26/05/2006
26881208	N06AB03	08/10/2007
33124197	N06AB03	15/06/2010
27798157	N06AB03	25/08/2005
33008240	N06AB03	09/12/2003
33094218	N06AB03	28/10/2008
33002823	N06AB03	29/12/2003
33011062	N06AB03	05/07/2007
16632057	N06AB03	07/02/2011
16637240	N06AB03	16/03/2009
16630949	N06AB03	25/03/2011
33077626	N06AB03	10/08/2010
33022070	N06AB03	30/08/2001
33241195	N06AB03	22/03/2002
16619587	N06AB03	20/07/2004
33113958	N06AB03	29/09/2009
33104458	N06AB03	24/11/2009
33004522	N06AB03	18/12/2001
33041657	N06AB03	07/04/2008
33024104	N06AB03	08/03/2002
33004734	N06AB03	18/01/2011
33094299	N06AB03	07/04/2009
33013638	N06AB03	27/05/2009
33073451	N06AB03	31/08/2009
33044203	N06AB03	14/09/2001
33025702	N06AB03	01/10/2007
33028840	N06AB03	20/05/2011
33000877	N06AB03	21/04/2003
33112492	N06AB03	13/10/2010
33102600	N06AB03	03/03/2008
33046061	N06AB03	23/06/2004
33034545	N06AB03	13/05/2011
33045618	N06AB03	12/07/2010
33090788	N06AB03	26/05/2011
33085777	N06AB03	01/03/2002
33065389	N06AB03	30/05/2007
33000591	N06AB03	28/12/2009
33024843	N06AB03	08/08/2006
33008084	N06AB03	24/05/2011
33088209	N06AB03	04/06/2009
33100039	N06AB03	09/05/2011
33063000	N06AB03	22/11/2007
33099116	N06AB03	09/01/2002
33004385	N06AB03	25/09/2000
33011985	N06AB03	12/11/2008
33087055	N06AB03	06/03/2001
33073628	N06AB03	19/06/2006
33060722	N06AB03	24/09/2001
33068017	N06AB03	19/11/2002
33103069	N06AB03	01/02/2010
33037060	N06AB03	08/10/2008
33307887	N06AB03	14/07/2010
16600381	N06AB03	14/08/2009
16600568	N06AB03	04/11/2005
27984436	N06AB03	15/09/2009
33239892	N06AB03	09/08/2001
23329515	N06AB03	29/04/2010
16683830	N06AB03	29/04/2011
18765874	N06AB03	21/05/2010
33311914	N06AB03	27/03/2009
27985054	N06AB03	09/05/2008
33308973	N06AB03	19/07/2004
23329332	N06AB03	11/08/2006
23396448	N06AB03	21/02/2011
28021554	N06AB03	01/06/2011
23315590	N06AB03	29/04/2008
23328443	N06AB03	19/10/2007
33315653	N06AB03	08/10/2010
33292875	N06AB03	25/05/2011
14188303	N06AB03	13/09/2005
21109195	N06AB03	28/10/2008
28029027	N06AB03	22/02/2010
18769506	N06AB03	21/12/2004
16610882	N06AB03	27/05/2011
27895246	N06AB03	24/06/2008
18764646	N06AB03	23/11/2010
16655743	N06AB03	11/05/2005
24463738	N06AB03	10/03/2008
16639019	N06AB03	19/05/2005
18765717	N06AB03	02/09/2004
18765826	N06AB03	14/03/2008
23328512	N06AB03	09/09/2008
16138565	N06AB03	11/02/2010
18770852	N06AB03	05/08/2009
33306067	N06AB03	17/04/2007
16639778	N06AB03	04/11/2010
16630616	N06AB03	05/07/2005
33240080	N06AB03	16/05/2011
16636488	N06AB03	20/01/2011
27934525	N06AB03	25/08/2010
23366991	N06AB03	24/01/2008
23354990	N06AB03	19/05/2011
21102189	N06AB03	30/03/2010
18766148	N06AB03	21/01/2004
16612802	N06AB03	22/01/2007
21110120	N06AB03	03/06/2003
16621553	N06AB03	29/07/2003
23402466	N06AB03	11/05/2010
16124521	N06AB03	06/07/2010
16605999	N06AB03	11/05/2011
20985394	N06AB03	17/12/2010
33244770	N06AB03	16/12/2010
28028633	N06AB03	10/05/2011
23371267	N06AB03	12/05/2011
16169664	N06AB03	06/04/2006
33245266	N06AB03	27/10/2009
33232371	N06AB03	16/12/2002
33311744	N06AB03	10/08/2009
16165612	N06AB03	02/07/2003
28038777	N06AB03	25/05/2011
24463048	N06AB03	13/08/2010
23396411	N06AB03	13/04/2005
16631616	N06AB03	31/01/2007
23404874	N06AB03	14/02/2011
23332844	N06AB03	02/06/2004
23404666	N06AB03	17/11/2005
21102555	N06AB03	27/05/2011
18755933	N06AB03	03/12/2004
23327879	N06AB03	16/10/2003
23350072	N06AB03	07/06/2005
16638012	N06AB03	11/06/2008
23412017	N06AB03	25/07/2006
14189326	N06AB03	31/07/2008
16601219	N06AB03	18/01/2006
16631655	N06AB03	11/06/2010
33304409	N06AB03	09/12/2010
16706310	N06AB03	18/10/2004
16706166	N06AB03	27/08/2008
18757709	N06AB03	13/09/2005
27847279	N06AB03	04/03/2011
31665307	N06AB03	02/03/2004
31540727	N06AB03	10/12/2009
16124564	N06AB03	14/10/2009
23413554	N06AB03	26/04/2010
20986309	N06AB03	26/11/2010
23412985	N06AB03	07/08/2009
33226206	N06AB03	03/06/2010
23402611	N06AB03	08/07/2003
16598795	N06AB03	02/03/2007
16603341	N06AB03	09/05/2011
16598700	N06AB03	12/05/2011
16709260	N06AB03	21/08/2007
23406293	N06AB03	09/05/2011
16130884	N06AB03	19/05/2011
23326983	N06AB03	20/11/2006
16124541	N06AB03	11/12/2003
16598711	N06AB03	14/11/2006
23401605	N06AB03	20/04/2011
20981775	N06AB03	31/05/2011
23401236	N06AB03	03/05/2011
23350311	N06AB03	12/04/2005
16621754	N06AB03	13/12/2005
32192677	N06AB03	21/11/2003
32278286	N06AB03	25/09/2003
32077830	N06AB03	18/11/2008
32215396	N06AB03	29/06/2005
31585826	N06AB03	11/12/2007
31431373	N06AB03	01/12/2006
31204599	N06AB03	23/12/2009
31162165	N06AB03	09/02/2007
31117673	N06AB03	02/01/2007
31636214	N06AB03	16/03/2004
32128014	N06AB03	28/11/2003
31530846	N06AB03	05/01/2011
31253940	N06AB03	16/03/2006
31284771	N06AB03	23/11/1999
31341379	N06AB03	30/11/2009
32217710	N06AB03	31/05/2007
31165115	N06AB03	20/10/2009
31355319	N06AB03	17/11/2006
32176436	N06AB03	04/12/2002
31675939	N06AB03	26/08/2002
31775842	N06AB03	09/07/2009
31614831	N06AB03	28/05/2002
32032989	N06AB03	05/11/2008
31960155	N06AB03	29/08/2008
31359861	N06AB03	18/09/2009
32250001	N06AB03	27/11/2003
31760323	N06AB03	17/12/2007
31550961	N06AB03	21/11/2005
31650069	N06AB03	07/03/2011
31407462	N06AB03	20/12/2006
31588190	N06AB03	20/04/2007
31547137	N06AB03	10/10/2001
31073820	N06AB03	02/07/2004
31760303	N06AB03	28/01/2004
32041896	N06AB03	23/08/2005
31817892	N06AB03	23/05/2011
31614642	N06AB03	11/08/2004
31941393	N06AB03	14/12/2004
31777519	N06AB03	22/01/2001
31854978	N06AB03	07/07/2004
31775309	N06AB03	23/05/2007
31719362	N06AB03	21/02/2007
31979808	N06AB03	08/03/2007
31071465	N06AB03	03/11/2009
31750507	N06AB03	24/03/2008
31782678	N06AB03	12/05/2006
32233519	N06AB03	13/06/2006
31360500	N06AB03	14/12/2007
31067713	N06AB03	13/02/2006
31712443	N06AB03	29/03/2007
31892586	N06AB03	15/02/2008
31537704	N06AB03	28/12/2009
32262825	N06AB03	12/03/2011
32169186	N06AB03	12/09/2007
31224811	N06AB03	17/11/2006
31517581	N06AB03	13/10/2005
31119347	N06AB03	28/12/2004
31373457	N06AB03	03/12/2008
31355341	N06AB03	04/04/2005
31765237	N06AB03	21/01/2009
31284999	N06AB03	26/01/1999
32092135	N06AB03	07/05/2008
31616781	N06AB03	17/12/2010
31884944	N06AB03	11/03/2011
32063518	N06AB03	10/09/2009
31037147	N06AB03	10/09/2003
32144155	N06AB03	18/12/2002
31138230	N06AB03	11/03/2008
31835091	N06AB03	14/03/2011
32232461	N06AB03	08/10/2007
31564150	N06AB03	20/07/2005
31410312	N06AB03	30/03/2006
31710696	N06AB03	17/10/2006
31700856	N06AB03	27/12/2010
31467850	N06AB03	25/04/2007
31039639	N06AB03	10/02/2009
32176799	N06AB03	15/10/2008
31267473	N06AB03	14/07/2004
31500490	N06AB03	12/08/2004
32059128	N06AB03	11/01/2007
31165367	N06AB03	04/03/2009
31988348	N06AB03	23/05/2001
31673775	N06AB03	17/03/2011
32036937	N06AB03	05/09/2005
31199652	N06AB03	06/08/2007
31294029	N06AB03	28/05/2004
31394744	N06AB03	26/09/2002
31470168	N06AB03	23/08/2004
31529916	N06AB03	02/09/2005
31963757	N06AB03	17/03/2003
32214444	N06AB03	31/07/2000
32212407	N06AB03	11/12/2008
31847696	N06AB03	22/10/2009
31286555	N06AB03	02/08/2005
31338379	N06AB03	05/11/2007
32078709	N06AB03	02/09/2010
32242174	N06AB03	10/10/2006
31928758	N06AB03	13/07/2007
31813951	N06AB03	23/03/2010
31458704	N06AB03	18/10/2004
31328921	N06AB03	30/11/2007
31427598	N06AB03	13/02/2008
31915254	N06AB03	01/02/2005
31195680	N06AB03	25/02/2008
31866867	N06AB03	21/03/2005
31163272	N06AB03	22/05/2009
31302647	N06AB03	29/12/2004
31542276	N06AB03	19/02/2008
31273552	N06AB03	07/02/2008
31416932	N06AB03	29/12/2008
31339893	N06AB03	16/12/2009
31454718	N06AB03	03/12/2009
31565489	N06AB03	06/03/2007
32044149	N06AB03	02/06/2004
31493821	N06AB03	09/09/2004
31684707	N06AB03	02/12/2009
31591322	N06AB03	28/02/2008
31380125	N06AB03	14/04/2008
31765323	N06AB03	15/06/2006
32174861	N06AB03	05/03/2008
32044425	N06AB03	10/11/2009
31937062	N06AB03	12/03/2009
31635404	N06AB03	27/06/2008
31420909	N06AB03	20/05/2003
31187591	N06AB03	08/07/2004
31882696	N06AB03	26/02/2009
32105750	N06AB03	09/06/2009
31255739	N06AB03	22/10/2010
32052348	N06AB03	10/09/2008
31633993	N06AB03	29/01/2007
31835258	N06AB03	18/04/2002
32094672	N06AB03	29/03/2010
31925813	N06AB03	19/06/2007
32243083	N06AB03	17/08/1999
31711266	N06AB03	18/04/2008
31102291	N06AB03	06/04/2011
31493163	N06AB03	17/07/2009
31968068	N06AB03	24/05/2000
31092206	N06AB03	07/08/2006
31107119	N06AB03	19/04/2001
31447535	N06AB03	27/11/2008
32076252	N06AB03	20/11/2008
31036364	N06AB03	05/04/2006
31301711	N06AB03	25/04/2002
31927982	N06AB03	24/03/2004
32180811	N06AB03	18/12/2008
31697264	N06AB03	07/03/2008
32281367	N06AB03	16/06/2005
31989306	N06AB03	14/07/2006
31345069	N06AB03	14/12/2005
31824660	N06AB03	13/04/2010
31357765	N06AB03	12/06/2006
31706832	N06AB03	12/01/2005
32185161	N06AB03	01/09/2004
32244371	N06AB03	24/09/2002
32119254	N06AB03	06/12/2010
31440348	N06AB03	17/07/2003
31342812	N06AB03	29/11/2005
32160779	N06AB03	12/05/2006
31322609	N06AB03	07/11/2005
31557279	N06AB03	10/01/2007
32002259	N06AB03	14/09/2006
31925603	N06AB03	09/05/2002
31514428	N06AB03	11/05/2004
31319783	N06AB03	27/03/2001
31458732	N06AB03	20/01/2005
31617814	N06AB03	03/04/2007
31602842	N06AB03	16/02/2010
31661434	N06AB03	27/11/2008
32120488	N06AB03	31/10/2005
31994914	N06AB03	27/11/2007
31889191	N06AB03	04/10/2004
31527057	N06AB03	19/11/2003
32236711	N06AB03	05/05/2011
31269212	N06AB03	27/03/2008
32261215	N06AB03	22/12/2009
32141200	N06AB03	06/04/2011
32156100	N06AB03	26/04/2005
31378249	N06AB03	17/03/2008
32017201	N06AB03	19/09/2002
31815136	N06AB03	10/01/2002
32141296	N06AB03	19/02/2003
31662877	N06AB03	07/06/2010
31071290	N06AB03	28/10/2004
31482073	N06AB03	21/04/2005
31626899	N06AB03	02/02/2004
32129855	N06AB03	05/05/2004
31992521	N06AB03	06/11/2008
31711818	N06AB03	29/06/2010
32233713	N06AB03	09/08/2010
31830714	N06AB03	01/12/2009
31345749	N06AB03	30/11/2009
31901111	N06AB03	27/10/2009
31907081	N06AB03	29/12/2009
31142174	N06AB03	08/10/2010
32212869	N06AB03	11/05/2009
32269533	N06AB03	29/04/2005
31917486	N06AB03	22/06/2006
32227680	N06AB03	19/08/2005
31098304	N06AB03	04/07/2007
32010684	N06AB03	06/07/2007
31051066	N06AB03	02/09/2008
31683193	N06AB03	21/06/2004
31128087	N06AB03	30/03/2005
31665218	N06AB03	08/03/2004
31800102	N06AB03	04/09/2006
31126185	N06AB03	05/05/2005
32071256	N06AB03	26/04/2005
32094579	N06AB03	07/12/2009
31956345	N06AB03	20/07/2010
31743661	N06AB03	21/10/2003
31750227	N06AB03	20/11/2008
31615936	N06AB03	22/12/2005
31835704	N06AB03	22/10/1999
31440741	N06AB03	06/11/2008
31630310	N06AB03	06/04/2011
31584708	N06AB03	11/07/2006
31640606	N06AB03	28/09/2007
32215294	N06AB03	01/12/2010
31094327	N06AB03	20/02/2002
31186229	N06AB03	29/12/2008
31538537	N06AB03	17/06/2008
31958704	N06AB03	13/12/2006
31354855	N06AB03	23/04/2002
31953204	N06AB03	10/03/2004
31963858	N06AB03	02/11/2010
32006568	N06AB03	27/05/2008
31328114	N06AB03	18/01/2010
31924972	N06AB03	17/01/2007
31137112	N06AB03	03/09/2009
31245311	N06AB03	26/05/2011
31948492	N06AB03	05/12/2008
32256398	N06AB03	15/12/2009
32125428	N06AB03	30/03/2011
31903968	N06AB03	12/12/2005
31179884	N06AB03	31/10/2007
31055199	N06AB03	24/07/2006
32250490	N06AB03	18/09/2008
32037041	N06AB03	07/07/2004
31070465	N06AB03	28/09/2006
31384268	N06AB03	01/02/2010
31569281	N06AB03	15/03/2000
31508779	N06AB03	20/07/2004
31340935	N06AB03	05/05/2006
32236449	N06AB03	29/10/2008
31794135	N06AB03	13/08/2010
31333815	N06AB03	31/05/2006
31697066	N06AB03	22/02/2011
31995728	N06AB03	10/07/2006
31756578	N06AB03	26/05/2004
31619077	N06AB03	12/07/2010
31532198	N06AB03	13/06/2006
31598640	N06AB03	28/12/2010
31565758	N06AB03	13/07/2004
31422757	N06AB03	18/10/2006
31135885	N06AB03	30/12/2009
31123761	N06AB03	10/12/2010
31050240	N06AB03	26/11/2010
31037287	N06AB03	28/06/2007
31889249	N06AB03	02/11/2009
32081758	N06AB03	01/03/2007
31107967	N06AB03	12/11/2007
31514901	N06AB03	11/05/2004
31039433	N06AB03	12/02/2007
32018263	N06AB03	30/05/2007
31487303	N06AB03	23/10/2008
31098047	N06AB03	13/12/2010
31891996	N06AB03	22/09/2009
31245792	N06AB03	06/03/2006
31694846	N06AB03	30/08/2005
31338971	N06AB03	26/02/2003
31570040	N06AB03	23/07/2007
31159201	N06AB03	16/12/2010
31577491	N06AB03	19/02/2007
32117961	N06AB03	16/05/2002
31788025	N06AB03	27/01/2009
31191195	N06AB03	27/04/2006
31058197	N06AB03	02/09/2003
31075396	N06AB03	03/02/2011
32176198	N06AB03	22/10/2010
31031831	N06AB03	28/02/2011
31197692	N06AB03	27/07/2009
31047317	N06AB03	12/11/2008
31616815	N06AB03	23/05/2002
31739321	N06AB03	29/09/2008
31424056	N06AB03	04/05/2005
32052592	N06AB03	22/08/2008
32267029	N06AB03	22/08/2001
31429891	N06AB03	16/04/2009
32089790	N06AB03	27/03/2006
31406432	N06AB03	27/07/2007
31090401	N06AB03	31/03/2011
32025648	N06AB03	01/10/2010
31550645	N06AB03	18/04/2002
31367892	N06AB03	04/03/2009
31954330	N06AB03	19/04/2004
31489393	N06AB03	10/07/2006
31691952	N06AB03	06/10/2009
31345381	N06AB03	18/01/2011
31180574	N06AB03	23/06/2008
31679146	N06AB03	19/11/2010
32090750	N06AB03	28/12/2006
31565378	N06AB03	03/02/2004
31947419	N06AB03	04/02/2010
31583648	N06AB03	22/10/2004
31443659	N06AB03	24/11/2006
32139036	N06AB03	01/04/2005
31975991	N06AB03	06/05/2009
31719301	N06AB03	25/06/2010
31087698	N06AB03	05/07/2005
31444085	N06AB03	12/01/2007
31511527	N06AB03	18/05/2006
32051643	N06AB03	26/05/2009
31111879	N06AB03	28/04/2006
32195377	N06AB03	20/02/2003
31378501	N06AB03	18/02/2009
31378201	N06AB03	22/07/2003
32143146	N06AB03	02/03/2009
31774644	N06AB03	02/07/2010
31843315	N06AB03	13/03/2009
31075969	N06AB03	27/09/2010
31329015	N06AB03	22/09/2009
31474269	N06AB03	20/07/2010
31587944	N06AB03	16/07/2010
31570017	N06AB03	28/03/2006
31929235	N06AB03	22/09/2008
32047705	N06AB03	03/06/2005
32256053	N06AB03	11/11/2010
31235641	N06AB03	19/07/2005
32058821	N06AB03	05/02/2009
31435158	N06AB03	12/01/2005
31183406	N06AB03	11/06/2002
31142306	N06AB03	03/08/2007
31467209	N06AB03	24/04/2007
31772722	N06AB03	13/08/2008
31966757	N06AB03	04/10/2004
31668860	N06AB03	25/10/2005
31363103	N06AB03	19/02/2004
32267924	N06AB03	25/11/2008
31759301	N06AB03	16/11/2009
31233103	N06AB03	14/12/2007
31766750	N06AB03	21/03/2005
31143232	N06AB03	02/02/2011
31141808	N06AB03	30/07/2009
31657268	N06AB03	23/12/2004
31956709	N06AB03	26/03/2004
31658052	N06AB03	31/08/2006
32020359	N06AB03	27/01/2009
31484227	N06AB03	21/09/2007
31683931	N06AB03	24/03/2006
32109768	N06AB03	22/12/2009
32079431	N06AB03	10/06/2008
31777551	N06AB03	04/11/2004
31374198	N06AB03	08/11/2010
31261241	N06AB03	21/08/2006
31892020	N06AB03	14/11/2008
31705692	N06AB03	13/04/2005
32155126	N06AB03	16/12/2008
31040325	N06AB03	25/11/2004
31624416	N06AB03	09/09/2008
31589962	N06AB03	03/11/2006
31464346	N06AB03	28/12/2005
32060351	N06AB03	28/02/2011
31318962	N06AB03	03/05/2010
32118813	N06AB03	28/08/2002
31941100	N06AB03	29/12/2008
31125609	N06AB03	29/06/2010
31508244	N06AB03	25/03/2004
31537523	N06AB03	22/07/2010
31084473	N06AB03	22/02/2007
31333055	N06AB03	15/04/2004
31448770	N06AB03	05/10/2006
32209026	N06AB03	18/07/2008
31725976	N06AB03	21/04/2006
31244108	N06AB03	10/02/2005
32135373	N06AB03	20/01/2006
32119598	N06AB03	12/05/2008
32210034	N06AB03	05/05/2011
31087789	N06AB03	09/10/2006
31659751	N06AB03	20/07/2004
31048637	N06AB03	27/04/2006
31641752	N06AB03	06/03/2008
32263832	N06AB03	17/07/2003
31179655	N06AB03	05/05/2009
32264301	N06AB03	22/01/2009
31328449	N06AB03	06/05/2008
32028704	N06AB03	11/07/2002
32055179	N06AB03	19/12/2009
32225048	N06AB03	19/12/2008
31143108	N06AB03	31/08/2004
32271150	N06AB03	07/07/2009
31525212	N06AB03	22/02/2006
32281526	N06AB03	30/12/2010
31378626	N06AB03	16/12/2005
32172947	N06AB03	19/12/2008
32013785	N06AB03	13/07/2004
32225962	N06AB03	26/09/2007
31897580	N06AB03	02/03/2006
31160946	N06AB03	14/11/2008
31427802	N06AB03	14/10/2010
32253685	N06AB03	21/12/2010
31538518	N06AB03	07/12/2009
31997273	N06AB03	09/10/2009
31786645	N06AB03	18/03/2005
32121090	N06AB03	21/12/2010
31490180	N06AB03	17/08/2005
31030569	N06AB03	30/01/2011
31736383	N06AB03	26/03/2007
31847212	N06AB03	05/05/2004
32279388	N06AB03	01/09/2009
31083826	N06AB03	25/10/2006
31312898	N06AB03	30/03/2004
32133275	N06AB03	13/05/2008
31937147	N06AB03	30/09/2005
31221154	N06AB03	09/01/2007
31169643	N06AB03	01/06/2005
31921601	N06AB03	28/08/2007
31799729	N06AB03	19/08/2005
32270707	N06AB03	27/12/2007
31761362	N06AB03	08/04/2011
31386421	N06AB03	15/10/2004
32019277	N06AB03	21/01/2011
32261108	N06AB03	09/05/2006
31171065	N06AB03	03/11/2009
32281779	N06AB03	22/10/2008
31882443	N06AB03	19/04/2011
32049670	N06AB03	11/05/2007
32198029	N06AB03	09/03/2011
32183049	N06AB03	13/09/2005
31111424	N06AB03	13/08/2001
31226766	N06AB03	02/06/2010
31227279	N06AB03	15/01/2009
32274498	N06AB03	15/11/2002
32121072	N06AB03	14/11/2007
31546409	N06AB03	08/06/2007
31793463	N06AB03	09/05/2003
32255955	N06AB03	19/09/2006
31257145	N06AB03	15/03/2011
31100263	N06AB03	02/03/2006
32220436	N06AB03	11/03/2004
31561607	N06AB03	15/10/2002
32087007	N06AB03	18/12/2003
31725531	N06AB03	21/02/2005
31246669	N06AB03	04/06/2010
31566843	N06AB03	31/01/2005
31675341	N06AB03	12/09/2003
32176704	N06AB03	22/05/2006
31788521	N06AB03	10/03/2009
31922177	N06AB03	23/12/2010
32087928	N06AB03	07/03/2006
31703712	N06AB03	03/02/2004
