patient_id	covar_name	date
9385544	N02AE01	27/10/2004
3288904	N02AE01	16/03/2009
9323502	N02AE01	20/01/2011
12688723	N02AE01	15/10/2010
5867449	N02AE01	30/11/2010
6080444	N02AE01	14/06/2005
11660918	N02AE01	13/05/2011
12694616	N02AE01	16/05/2008
24951792	N02AE01	05/05/2011
20549085	N02AE01	27/12/2005
23471565	N02AE01	09/12/2005
12174179	N02AE01	17/05/2011
12688464	N02AE01	29/09/2008
1731389	N02AE01	22/12/2010
12831650	N02AE01	29/05/2011
1303002	N02AE01	10/07/2008
19228281	N02AE01	09/03/2010
25052219	N02AE01	05/12/2008
23471643	N02AE01	02/12/2008
6707615	N02AE01	16/05/2011
23996759	N02AE01	05/05/2011
7967014	N02AE01	14/10/2010
1445557	N02AE01	15/03/2011
1424358	N02AE01	30/08/2005
1852451	N02AE01	03/08/2007
525724	N02AE01	23/08/2006
641313	N02AE01	08/06/2009
540075	N02AE01	19/05/2011
1211186	N02AE01	30/12/2004
6599963	N02AE01	12/04/2011
1172012	N02AE01	03/07/2007
6212704	N02AE01	10/05/2010
8063389	N02AE01	24/03/2011
13116462	N02AE01	26/05/2011
1132264	N02AE01	14/08/2010
6914096	N02AE01	22/01/2007
1135310	N02AE01	31/05/2010
25904870	N02AE01	07/04/2011
12788129	N02AE01	29/09/2009
1855343	N02AE01	31/05/2011
1103285	N02AE01	24/09/2008
2043930	N02AE01	30/05/2011
2238908	N02AE01	15/01/2007
2109340	N02AE01	04/05/2007
2110088	N02AE01	13/06/2007
2133314	N02AE01	08/04/2010
2068682	N02AE01	31/05/2011
2068045	N02AE01	18/11/2005
2109593	N02AE01	21/05/2007
2133822	N02AE01	29/04/2011
2139418	N02AE01	28/06/2007
2070415	N02AE01	31/05/2011
859956	N02AE01	08/07/2005
2035752	N02AE01	01/06/2011
878003	N02AE01	17/11/2004
2055147	N02AE01	04/03/2011
2109145	N02AE01	03/04/2009
903543	N02AE01	11/05/2011
874560	N02AE01	24/02/2010
1765422	N02AE01	07/01/2010
902575	N02AE01	22/07/2004
2759303	N02AE01	20/10/2007
3052992	N02AE01	17/03/2003
3576769	N02AE01	08/01/2009
2813159	N02AE01	20/10/2006
2811840	N02AE01	04/02/2010
2524518	N02AE01	28/08/2009
2408299	N02AE01	26/05/2004
2407695	N02AE01	03/05/2006
16835771	N02AE01	02/10/2009
16835317	N02AE01	16/12/2009
28049312	N02AE01	05/07/2010
26460462	N02AE01	25/05/2011
26260880	N02AE01	12/04/2011
7229328	N02AE01	13/12/2006
17323541	N02AE01	25/05/2011
26338968	N02AE01	22/01/2007
17325261	N02AE01	28/03/2011
26182006	N02AE01	20/02/2004
20501716	N02AE01	23/02/2011
26410194	N02AE01	03/07/2008
26235974	N02AE01	23/12/2009
17040830	N02AE01	28/05/2011
12472322	N02AE01	25/02/2011
304932	N02AE01	14/06/2005
1900806	N02AE01	30/05/2006
419475	N02AE01	12/08/2010
3054239	N02AE01	26/05/2011
7128685	N02AE01	06/11/2009
26457855	N02AE01	04/12/2009
184560	N02AE01	30/11/2010
463352	N02AE01	19/01/2009
17741653	N02AE01	11/08/2008
28045692	N02AE01	01/10/2009
28087444	N02AE01	23/08/2004
28068401	N02AE01	21/02/2006
28071034	N02AE01	27/04/2011
28071783	N02AE01	18/07/2005
28066246	N02AE01	25/04/2005
25707060	N02AE01	12/02/2011
25742680	N02AE01	31/08/2009
25742981	N02AE01	21/12/2009
25740545	N02AE01	16/11/2010
1903682	N02AE01	03/06/2003
1373981	N02AE01	28/06/2006
422231	N02AE01	02/11/2010
21386521	N02AE01	30/05/2008
1030188	N02AE01	22/05/2006
26778699	N02AE01	27/05/2009
26700714	N02AE01	14/11/2005
16105363	N02AE01	16/05/2011
26628248	N02AE01	22/09/2010
26620804	N02AE01	27/09/2007
14310735	N02AE01	12/09/2005
21554193	N02AE01	07/05/2008
21062954	N02AE01	06/10/2003
26894714	N02AE01	30/05/2011
26854601	N02AE01	05/02/2008
26800799	N02AE01	21/01/2008
26776107	N02AE01	26/02/2010
26717132	N02AE01	29/04/2008
26995682	N02AE01	20/05/2008
27064483	N02AE01	09/06/2008
27065167	N02AE01	19/05/2010
26992138	N02AE01	28/04/2011
26996974	N02AE01	03/05/2007
27022714	N02AE01	16/07/2007
27000807	N02AE01	09/02/2007
27383412	N02AE01	01/12/2008
27362717	N02AE01	05/04/2009
27317311	N02AE01	25/06/2006
27302542	N02AE01	11/03/2011
27600699	N02AE01	05/08/2010
27756732	N02AE01	19/05/2011
27614866	N02AE01	29/05/2011
27621566	N02AE01	16/09/2008
27708618	N02AE01	02/12/2007
27066420	N02AE01	08/07/2009
266530	N02AE01	28/11/2007
27530889	N02AE01	15/06/2006
27783945	N02AE01	26/06/2010
27325643	N02AE01	06/07/2010
186266	N02AE01	31/03/2006
27799362	N02AE01	12/06/2006
27806522	N02AE01	19/03/2006
33040260	N02AE01	04/07/2007
33022764	N02AE01	09/08/2004
33061832	N02AE01	08/01/2008
33092896	N02AE01	29/09/2009
33027806	N02AE01	05/05/2011
33063228	N02AE01	09/03/2011
33019657	N02AE01	27/04/2011
33008912	N02AE01	15/01/2010
33008987	N02AE01	25/01/2006
33106608	N02AE01	10/04/2007
33110326	N02AE01	13/02/2009
33004433	N02AE01	05/11/2008
33064888	N02AE01	16/01/2008
33006134	N02AE01	31/05/2005
33060211	N02AE01	12/12/2007
33072776	N02AE01	17/06/2009
33056194	N02AE01	12/06/2009
33032821	N02AE01	22/04/2003
27796872	N02AE01	11/12/2006
183728	N02AE01	19/08/2010
27061980	N02AE01	24/08/2010
16178210	N02AE01	11/02/2009
23320348	N02AE01	22/03/2006
33041177	N02AE01	06/10/2009
33083224	N02AE01	31/01/2008
33053146	N02AE01	25/09/2007
33050859	N02AE01	27/12/2009
33046881	N02AE01	03/03/2009
33087055	N02AE01	24/02/2006
33055038	N02AE01	17/12/2008
14186599	N02AE01	31/05/2011
16179088	N02AE01	04/05/2011
18765887	N02AE01	31/01/2008
28018064	N02AE01	28/12/2007
18743061	N02AE01	17/10/2005
33293731	N02AE01	27/07/2007
23382344	N02AE01	13/05/2005
28000274	N02AE01	27/08/2010
16178935	N02AE01	05/08/2008
16636746	N02AE01	10/03/2005
18770821	N02AE01	10/11/2009
16649380	N02AE01	05/07/2007
28028633	N02AE01	10/05/2011
33228458	N02AE01	20/05/2011
23353839	N02AE01	14/01/2005
23470869	N02AE01	31/05/2011
16124564	N02AE01	30/12/2010
33245848	N02AE01	01/04/2011
16636987	N02AE01	03/04/2009
33313475	N02AE01	26/08/2009
23353918	N02AE01	18/08/2008
32005939	N02AE01	21/09/2005
32119285	N02AE01	18/12/2009
31445246	N02AE01	27/07/2009
31604165	N02AE01	21/03/2011
31215985	N02AE01	20/02/2011
31160878	N02AE01	28/10/2010
31400525	N02AE01	13/05/2004
31987098	N02AE01	07/05/2009
31658349	N02AE01	04/03/2005
32180261	N02AE01	07/07/2006
31675988	N02AE01	17/03/2005
31358766	N02AE01	04/09/2006
32106342	N02AE01	04/12/2007
31447433	N02AE01	04/12/2009
32100197	N02AE01	12/02/2008
31054626	N02AE01	15/04/2008
31407204	N02AE01	03/06/2004
31076697	N02AE01	17/11/2004
32017201	N02AE01	24/01/2008
32168690	N02AE01	21/08/2008
32146190	N02AE01	24/08/2007
31349798	N02AE01	26/05/2009
31916030	N02AE01	05/10/2010
32183666	N02AE01	26/03/2011
32026942	N02AE01	03/11/2010
31048154	N02AE01	16/02/2006
31282676	N02AE01	17/12/2009
31116078	N02AE01	17/10/2005
31596789	N02AE01	30/12/2004
32257488	N02AE01	15/10/2009
31487291	N02AE01	10/10/2008
32205096	N02AE01	11/12/2008
32139036	N02AE01	26/04/2005
31962165	N02AE01	17/12/2008
31445382	N02AE01	12/02/2008
31171012	N02AE01	17/08/2010
31448770	N02AE01	19/09/2008
31759943	N02AE01	05/03/2007
31328449	N02AE01	28/12/2006
31559291	N02AE01	24/01/2006
31735196	N02AE01	03/12/2008
32011511	N02AE01	01/08/2008
