patient_id	covar_name	date
15899105	N04BA02	02/02/2009
24763655	N04BA02	03/01/2011
19183970	N04BA02	26/05/2010
10394066	N04BA02	06/05/2011
5814184	N04BA02	01/06/2011
15914106	N04BA02	25/05/2011
15987481	N04BA02	01/06/2011
8977888	N04BA02	31/05/2011
9382870	N04BA02	29/09/2005
3323225	N04BA02	24/02/2010
24887993	N04BA02	29/03/2011
8292672	N04BA02	06/05/2011
9339322	N04BA02	31/03/2003
10270807	N04BA02	14/05/2011
5813348	N04BA02	13/05/2011
9377350	N04BA02	18/03/2005
19184721	N04BA02	20/05/2011
7160922	N04BA02	11/03/2011
6177699	N04BA02	12/04/2011
659587	N04BA02	22/05/2003
1419222	N04BA02	18/05/2011
5991673	N04BA02	03/04/2008
1276765	N04BA02	09/04/2011
1547134	N04BA02	09/05/2011
6601131	N04BA02	11/05/2011
1211186	N04BA02	11/05/2011
1207086	N04BA02	08/05/2011
1415968	N04BA02	25/05/2011
1320083	N04BA02	26/04/2011
1638022	N04BA02	09/05/2011
487297	N04BA02	18/05/2011
890075	N04BA02	11/08/2008
1131198	N04BA02	21/08/2009
2040077	N04BA02	18/05/2011
3053366	N04BA02	04/02/2002
2779723	N04BA02	27/07/2004
2406808	N04BA02	13/05/2011
28041048	N04BA02	11/04/2011
26459310	N04BA02	22/04/2009
26384859	N04BA02	26/01/2011
429077	N04BA02	22/04/2011
7137629	N04BA02	23/05/2011
28060193	N04BA02	18/04/2011
28043285	N04BA02	28/05/2011
25558732	N04BA02	23/05/2011
18551274	N04BA02	09/05/2011
18197591	N04BA02	27/04/2011
22881967	N04BA02	02/03/2007
24579155	N04BA02	29/05/2011
16567909	N04BA02	02/01/2009
26628248	N04BA02	23/05/2011
24581188	N04BA02	22/05/2011
20835034	N04BA02	22/05/2011
26730017	N04BA02	18/05/2011
26988800	N04BA02	04/05/2011
27133198	N04BA02	09/05/2011
27128238	N04BA02	10/02/2008
27114640	N04BA02	23/05/2009
27102811	N04BA02	04/05/2011
27033115	N04BA02	20/01/2010
26991420	N04BA02	17/05/2011
27014990	N04BA02	19/05/2011
27168833	N04BA02	21/12/2010
27217927	N04BA02	13/04/2011
27384468	N04BA02	23/04/2011
27167505	N04BA02	19/04/2011
27367264	N04BA02	24/05/2011
27646258	N04BA02	24/03/2011
27546225	N04BA02	11/04/2005
27656239	N04BA02	17/05/2011
27493393	N04BA02	23/05/2011
27657086	N04BA02	30/04/2011
27759030	N04BA02	30/04/2011
27758847	N04BA02	24/03/2011
27694922	N04BA02	21/07/2006
27166743	N04BA02	10/05/2007
27066420	N04BA02	29/01/2007
27674082	N04BA02	14/03/2008
27444528	N04BA02	29/12/2006
27454435	N04BA02	24/05/2011
26619933	N04BA02	14/04/2011
26742398	N04BA02	31/01/2007
301474	N04BA02	22/04/2009
33040260	N04BA02	07/04/2011
33041016	N04BA02	03/05/2011
33094244	N04BA02	27/06/2001
33081884	N04BA02	01/12/2009
33106497	N04BA02	23/10/2009
33104735	N04BA02	07/11/2005
33015203	N04BA02	26/12/2006
33080278	N04BA02	27/04/2011
16706268	N04BA02	26/04/2006
33089947	N04BA02	15/12/2010
33003742	N04BA02	22/03/2007
33290902	N04BA02	26/05/2011
28005105	N04BA02	26/05/2011
18768957	N04BA02	05/05/2011
33288621	N04BA02	26/05/2011
23327062	N04BA02	16/02/2010
16623961	N04BA02	22/03/2010
21101114	N04BA02	27/04/2011
33235048	N04BA02	16/04/2007
23353743	N04BA02	03/05/2011
31541778	N04BA02	26/10/2010
31338026	N04BA02	06/04/2011
31662126	N04BA02	23/04/2009
31444611	N04BA02	07/02/2011
32246359	N04BA02	14/07/2005
32250577	N04BA02	20/01/2011
31790214	N04BA02	17/12/2009
31646804	N04BA02	28/05/2009
31553569	N04BA02	02/03/2007
31661434	N04BA02	22/10/2010
31165913	N04BA02	19/06/2008
31740844	N04BA02	23/10/2009
31741824	N04BA02	06/04/2011
31288965	N04BA02	09/07/2009
32264291	N04BA02	17/05/2011
32006875	N04BA02	07/04/2011
32159112	N04BA02	04/03/2011
31242151	N04BA02	11/11/2004
31712543	N04BA02	19/12/2008
31354855	N04BA02	25/09/2007
31352687	N04BA02	07/12/2010
31367573	N04BA02	27/10/2010
31926083	N04BA02	06/02/2010
32227283	N04BA02	25/11/2008
32008235	N04BA02	20/10/2009
32193941	N04BA02	10/12/2010
31053838	N04BA02	25/10/2010
31430532	N04BA02	26/01/2011
31856647	N04BA02	17/07/2008
32058126	N04BA02	30/09/2008
31468640	N04BA02	03/02/2010
31850345	N04BA02	26/01/2011
31970294	N04BA02	21/05/2011
31186532	N04BA02	30/09/2010
32205096	N04BA02	26/01/2011
31321749	N04BA02	28/05/2007
31228142	N04BA02	15/03/2011
31647102	N04BA02	13/07/2010
31656010	N04BA02	13/11/2009
32173478	N04BA02	20/05/2011
31766750	N04BA02	10/06/2005
31944943	N04BA02	16/12/2010
31782240	N04BA02	16/10/2009
31067211	N04BA02	29/12/2010
31746758	N04BA02	15/12/2010
31081424	N04BA02	19/12/2007
