patient_id	covar_name	date
6181929	OBESI	03/03/2009
10006506	OBESI	13/04/2007
206830	OBESI	21/03/2011
10340384	OBESI	20/04/2011
3940306	OBESI	10/01/2007
1939199	OBESI	28/12/2007
7162208	OBESI	02/02/2011
7349356	OBESI	11/12/2004
9319410	OBESI	07/03/2011
12738921	OBESI	31/08/2009
8990080	OBESI	29/05/2008
12200443	OBESI	31/10/2002
5030597	OBESI	30/06/2009
9323419	OBESI	04/04/2011
10333546	OBESI	07/07/2006
9128114	OBESI	21/01/2011
1123839	OBESI	27/03/2002
8567548	OBESI	01/02/2007
949712	OBESI	07/11/2007
1186180	OBESI	10/03/2010
8294969	OBESI	31/01/2001
12774625	OBESI	09/07/2007
9376691	OBESI	05/05/2011
8276701	OBESI	19/05/2011
17171311	OBESI	23/04/2010
3323175	OBESI	23/05/2008
6040714	OBESI	17/02/2010
8570357	OBESI	06/05/2010
1515934	OBESI	16/05/2011
8654002	OBESI	17/11/2008
21859577	OBESI	01/03/1999
15901954	OBESI	10/02/2005
1524837	OBESI	10/02/2011
20558540	OBESI	10/05/2011
17217322	OBESI	09/07/2010
1937760	OBESI	16/04/2009
9211548	OBESI	21/10/2009
61642	OBESI	21/02/2006
7244070	OBESI	14/02/2007
9251250	OBESI	16/08/2007
9319702	OBESI	08/02/2006
8641990	OBESI	04/05/2011
12765976	OBESI	20/09/2010
5028478	OBESI	25/05/2009
24950976	OBESI	24/06/2008
9374764	OBESI	22/03/2005
21871806	OBESI	09/12/2002
9371683	OBESI	09/03/2011
9371686	OBESI	05/04/2005
6178660	OBESI	03/04/2007
12691957	OBESI	03/08/2009
12689969	OBESI	12/05/2011
8558268	OBESI	12/11/2008
7162816	OBESI	09/12/2010
3119471	OBESI	13/10/2009
3331774	OBESI	20/12/2010
14983098	OBESI	15/10/2010
24764996	OBESI	08/02/2006
7246977	OBESI	07/12/2007
1068210	OBESI	18/04/2011
1068306	OBESI	15/04/2011
12774896	OBESI	25/10/2006
5813015	OBESI	14/05/2004
6758365	OBESI	25/08/2006
6178601	OBESI	10/08/2009
5813371	OBESI	17/11/2008
10605463	OBESI	15/05/2008
59828	OBESI	18/05/2007
173560	OBESI	23/01/1996
21871359	OBESI	25/05/2005
25052542	OBESI	24/04/2007
6749631	OBESI	28/04/2011
10001615	OBESI	10/03/2011
8784088	OBESI	05/02/2008
10395800	OBESI	19/04/2011
1942400	OBESI	22/08/2008
12691690	OBESI	17/05/2011
7095550	OBESI	28/04/2011
10269870	OBESI	07/10/2010
20565534	OBESI	25/06/2008
5812917	OBESI	18/05/2010
10266752	OBESI	25/11/2004
61487	OBESI	04/10/2010
25063544	OBESI	28/09/2005
24950727	OBESI	03/05/2011
8655621	OBESI	14/06/2005
8279983	OBESI	10/01/2007
1732204	OBESI	16/06/2008
5030705	OBESI	12/07/2010
1516611	OBESI	09/01/2009
9219557	OBESI	06/09/2006
18628739	OBESI	05/06/2006
9340914	OBESI	14/05/2009
24764457	OBESI	16/10/2009
16099901	OBESI	02/11/2007
732079	OBESI	05/04/2011
12691489	OBESI	12/05/2011
12186471	OBESI	10/05/2011
9338994	OBESI	18/10/2007
9284420	OBESI	20/04/2010
11407938	OBESI	05/03/2010
11899588	OBESI	04/02/2009
8559269	OBESI	25/04/2003
3938112	OBESI	10/05/2011
601268	OBESI	19/11/2008
12182795	OBESI	07/05/2007
3124388	OBESI	08/10/2009
24721540	OBESI	27/12/2005
5869620	OBESI	23/12/2008
7220955	OBESI	16/09/2010
7243497	OBESI	09/02/2010
7093908	OBESI	12/04/2011
208451	OBESI	09/03/2011
9298997	OBESI	19/10/2010
1336396	OBESI	18/02/2009
3289857	OBESI	05/05/2005
173928	OBESI	26/01/2011
5022326	OBESI	02/03/2009
11661106	OBESI	15/09/2010
12766797	OBESI	15/09/2010
15900439	OBESI	10/04/2002
21370124	OBESI	09/07/2008
9284936	OBESI	20/01/2011
12729352	OBESI	16/06/2010
10332441	OBESI	04/07/2006
9325258	OBESI	30/03/2006
22918279	OBESI	09/03/2010
24729230	OBESI	25/03/2010
7407098	OBESI	25/02/2011
7405502	OBESI	03/08/2006
15384882	OBESI	07/02/2011
8977394	OBESI	29/05/2007
24951557	OBESI	22/02/2008
25071280	OBESI	14/12/2010
8293370	OBESI	10/06/2009
13916750	OBESI	08/07/2009
21152973	OBESI	30/06/2010
9215041	OBESI	23/04/2009
9249976	OBESI	31/05/2011
1302984	OBESI	15/09/2010
1941527	OBESI	29/04/2004
8976351	OBESI	13/10/2010
21370177	OBESI	27/04/2004
24729351	OBESI	28/07/2010
62073	OBESI	04/04/2011
8979056	OBESI	08/03/2011
732151	OBESI	27/08/2009
9339067	OBESI	18/03/2011
3940545	OBESI	21/07/2008
12858198	OBESI	14/06/2007
3328722	OBESI	06/05/2011
8488643	OBESI	28/12/2010
4833653	OBESI	03/03/2010
9983678	OBESI	20/04/2011
1068704	OBESI	01/04/2011
1069599	OBESI	19/11/2010
12186613	OBESI	08/05/2007
1334993	OBESI	18/05/2010
731512	OBESI	11/05/2011
6887463	OBESI	19/07/2004
3332628	OBESI	20/11/2008
5026972	OBESI	12/03/2010
9370774	OBESI	20/08/2003
19184169	OBESI	14/09/2010
1162228	OBESI	07/03/2008
10388076	OBESI	15/09/2010
13223006	OBESI	09/07/2009
8557344	OBESI	07/08/2006
23472297	OBESI	08/02/2006
10335737	OBESI	08/08/2007
9390097	OBESI	02/02/2004
18146144	OBESI	29/03/2011
6757275	OBESI	03/04/2008
17169198	OBESI	12/02/2007
9177654	OBESI	04/09/2008
15984186	OBESI	04/03/2009
13538926	OBESI	15/09/2010
7243333	OBESI	03/05/2011
9371955	OBESI	18/05/2010
25041739	OBESI	16/01/2006
3117152	OBESI	07/12/2000
10004067	OBESI	17/03/2006
20529245	OBESI	14/10/2003
59209	OBESI	28/02/2011
1123872	OBESI	16/02/2011
210163	OBESI	08/10/2007
3123404	OBESI	23/02/2009
3288904	OBESI	06/10/2010
9983468	OBESI	23/08/2010
16530652	OBESI	14/12/2009
12479828	OBESI	26/10/2009
948728	OBESI	29/04/2011
949632	OBESI	06/10/2008
5866130	OBESI	22/09/2009
7220507	OBESI	27/12/2006
1124827	OBESI	17/03/2006
949778	OBESI	18/04/2006
8293863	OBESI	13/12/2005
11994028	OBESI	28/06/2010
9374623	OBESI	08/05/2007
21370276	OBESI	05/12/2007
12858444	OBESI	23/06/2010
1185872	OBESI	09/05/2011
960982	OBESI	09/12/2005
613057	OBESI	28/10/2010
15990791	OBESI	16/09/2009
60762	OBESI	26/02/2003
23454844	OBESI	31/03/2009
6748364	OBESI	02/02/2007
15900660	OBESI	26/05/2004
1937852	OBESI	15/07/2010
14224014	OBESI	17/12/2009
6887580	OBESI	14/06/2010
14944892	OBESI	06/08/2009
9323502	OBESI	04/04/2011
9386515	OBESI	09/10/2007
60228	OBESI	13/10/2009
5867289	OBESI	04/09/2002
612097	OBESI	12/11/2009
8785722	OBESI	01/07/2005
20547033	OBESI	16/01/2003
5813349	OBESI	03/06/2004
1930429	OBESI	03/06/2009
21152552	OBESI	19/11/2010
8960480	OBESI	02/04/2009
12689869	OBESI	01/04/2011
1341295	OBESI	31/03/2005
12778315	OBESI	09/06/2008
6178242	OBESI	21/10/2004
10604778	OBESI	13/02/2006
12299958	OBESI	26/05/2011
9319630	OBESI	16/05/2011
15064574	OBESI	09/05/2006
9340953	OBESI	22/05/2003
600971	OBESI	14/03/2011
63668	OBESI	30/12/2010
1515940	OBESI	12/02/2008
10332948	OBESI	01/03/2006
24930795	OBESI	04/05/2011
8783936	OBESI	09/10/2007
20549366	OBESI	06/07/2000
6760798	OBESI	04/05/2011
7353267	OBESI	19/02/2004
7353549	OBESI	17/06/2010
3289024	OBESI	15/05/2002
9771759	OBESI	24/03/2011
12688723	OBESI	27/04/2006
3939012	OBESI	05/05/2011
16978282	OBESI	25/05/2011
10245464	OBESI	30/03/2011
12696060	OBESI	13/01/2005
7220833	OBESI	10/03/2009
9311429	OBESI	15/06/2010
1936765	OBESI	13/04/2011
730169	OBESI	02/05/2009
5809580	OBESI	28/01/2009
7351380	OBESI	01/08/2005
1515900	OBESI	30/11/2007
605455	OBESI	21/01/2008
3321745	OBESI	20/05/2008
5812596	OBESI	26/11/2008
60876	OBESI	12/12/2005
3322587	OBESI	05/05/2011
1938563	OBESI	29/03/2011
12689625	OBESI	18/04/2006
16531516	OBESI	10/03/2008
9383919	OBESI	22/04/2009
20530770	OBESI	04/08/2009
7372257	OBESI	16/11/2009
8784987	OBESI	15/06/2010
25043628	OBESI	08/03/2007
6416606	OBESI	11/04/2006
21152856	OBESI	01/08/2007
21370724	OBESI	16/09/2004
18582121	OBESI	26/04/2011
61852	OBESI	24/01/2011
7248660	OBESI	17/08/2007
175156	OBESI	24/03/2011
8699154	OBESI	24/11/2005
9302090	OBESI	09/06/2010
8558181	OBESI	23/04/2008
25047538	OBESI	15/07/2004
21152200	OBESI	30/03/2005
9268220	OBESI	19/04/2010
8277865	OBESI	12/04/2000
21856467	OBESI	26/05/2010
25062840	OBESI	23/02/2011
8293363	OBESI	02/12/2010
732315	OBESI	06/10/2004
16087795	OBESI	28/05/2009
15667860	OBESI	03/05/2011
9209618	OBESI	08/09/2005
15380445	OBESI	16/10/2007
1937944	OBESI	07/05/2010
5027855	OBESI	14/03/2007
2767848	OBESI	29/04/2011
1434172	OBESI	21/07/2010
9346624	OBESI	20/04/2007
734248	OBESI	11/04/2011
5814184	OBESI	12/04/2011
9231202	OBESI	19/04/2011
11660918	OBESI	10/06/2010
5028400	OBESI	11/04/2011
9371920	OBESI	14/04/2011
9201917	OBESI	20/04/2011
18712955	OBESI	14/05/2007
10270534	OBESI	29/09/2009
23442330	OBESI	16/01/2006
23442333	OBESI	13/01/2011
1301839	OBESI	06/07/2007
10268044	OBESI	25/08/2009
6749753	OBESI	29/04/2010
16558782	OBESI	04/05/2011
1432635	OBESI	23/04/2010
2151884	OBESI	31/01/2006
10331535	OBESI	17/11/2010
12765942	OBESI	20/02/2009
5867543	OBESI	19/12/2007
9231397	OBESI	01/03/1999
9227211	OBESI	26/05/2011
12766899	OBESI	04/11/2004
5813345	OBESI	19/07/2004
8567614	OBESI	04/12/2009
20819800	OBESI	13/05/2005
3292358	OBESI	07/08/2003
11574332	OBESI	15/12/2009
8277775	OBESI	29/11/2007
2563973	OBESI	25/03/2010
9376231	OBESI	24/11/2006
7094859	OBESI	28/03/2011
5031417	OBESI	27/01/2010
5031423	OBESI	16/02/2011
5867995	OBESI	05/03/2009
20569667	OBESI	02/02/2011
9385740	OBESI	22/05/2003
8975251	OBESI	06/05/2011
8568268	OBESI	22/12/2010
8976564	OBESI	03/05/2007
1067567	OBESI	02/02/2009
8979574	OBESI	21/12/2009
9341638	OBESI	09/02/2011
9556003	OBESI	04/01/2011
12739033	OBESI	29/04/2011
20564312	OBESI	17/05/2011
5867088	OBESI	19/02/2010
15425469	OBESI	02/03/2011
5028776	OBESI	12/05/2011
12690816	OBESI	03/05/2011
25052045	OBESI	22/03/2011
61498	OBESI	26/05/2011
21871509	OBESI	13/10/2004
24951792	OBESI	22/01/2008
24721420	OBESI	25/02/2008
3333155	OBESI	23/04/2002
3125700	OBESI	07/06/2010
11992678	OBESI	31/10/2006
9294943	OBESI	27/05/2010
9372898	OBESI	31/05/2011
3332686	OBESI	24/02/2011
6112286	OBESI	16/05/2011
1937110	OBESI	07/06/2010
8655802	OBESI	23/03/2011
608864	OBESI	06/04/2011
23472073	OBESI	02/07/2008
24951170	OBESI	03/09/2008
12773101	OBESI	28/11/2003
1069182	OBESI	19/05/2010
3117787	OBESI	26/06/2009
7095356	OBESI	01/04/2005
8294054	OBESI	16/01/2003
3320397	OBESI	31/01/2008
12899582	OBESI	06/10/2010
601168	OBESI	17/06/2009
9311044	OBESI	14/05/2001
3120195	OBESI	22/06/2009
7219660	OBESI	27/07/2007
8654391	OBESI	06/07/2009
1331277	OBESI	12/03/2008
16977801	OBESI	22/02/2011
3334954	OBESI	09/03/2010
9309602	OBESI	16/05/2011
946083	OBESI	05/05/2009
61548	OBESI	15/01/2008
24764589	OBESI	29/03/2011
25062478	OBESI	02/02/2010
17170094	OBESI	11/05/2009
1517537	OBESI	05/04/2005
3126286	OBESI	02/03/2011
9373053	OBESI	11/05/2011
16101181	OBESI	27/07/2005
9996090	OBESI	23/02/2004
610374	OBESI	23/05/2011
8279117	OBESI	12/05/2010
17527479	OBESI	09/03/2011
20557462	OBESI	31/03/2011
612341	OBESI	11/05/2011
610479	OBESI	13/11/2007
8652755	OBESI	02/02/2011
9375334	OBESI	05/11/2004
1166214	OBESI	13/04/2011
24763528	OBESI	17/03/2011
601270	OBESI	19/07/2006
8784917	OBESI	12/09/2008
25048718	OBESI	23/02/2009
17969122	OBESI	09/05/2011
12695840	OBESI	19/12/2006
1516008	OBESI	05/03/2008
9996304	OBESI	05/04/2011
9209479	OBESI	24/03/2009
23443230	OBESI	10/05/2007
1069020	OBESI	18/05/2011
5029698	OBESI	31/01/2011
9180128	OBESI	16/08/2010
9250589	OBESI	15/12/2008
9285061	OBESI	06/05/2011
7244033	OBESI	20/09/2010
3334058	OBESI	30/10/2009
16531570	OBESI	29/04/2011
8639376	OBESI	23/03/2011
732933	OBESI	27/06/2006
611433	OBESI	04/12/2006
23442442	OBESI	22/12/2005
23442823	OBESI	02/12/2003
9311118	OBESI	16/05/2011
11994782	OBESI	12/11/2007
12690487	OBESI	16/09/2009
949102	OBESI	09/02/2000
1515199	OBESI	23/12/2010
9340826	OBESI	12/04/2011
6184040	OBESI	26/03/2007
7095280	OBESI	24/04/2008
16926879	OBESI	16/11/2009
733955	OBESI	19/11/2007
10266394	OBESI	18/03/2011
3125005	OBESI	23/05/2011
9386317	OBESI	09/03/2011
8654629	OBESI	29/08/2007
3330917	OBESI	24/06/2010
6745205	OBESI	23/11/2005
16532021	OBESI	04/11/2009
12779839	OBESI	21/07/2004
9178557	OBESI	12/05/2011
9178923	OBESI	17/06/2010
5029306	OBESI	28/06/2005
12479856	OBESI	20/01/2010
13951854	OBESI	16/11/2007
21152123	OBESI	19/10/2004
9996121	OBESI	22/02/2010
16557846	OBESI	06/09/2000
12478237	OBESI	21/04/2010
5022237	OBESI	12/07/2006
10270367	OBESI	16/05/2011
7407354	OBESI	22/11/2010
10247682	OBESI	15/03/2011
11247995	OBESI	02/03/2009
25048416	OBESI	12/07/2004
7336149	OBESI	17/02/2006
8278064	OBESI	21/07/2008
8278140	OBESI	07/12/1999
9299339	OBESI	03/09/2004
5814221	OBESI	31/10/2007
5812460	OBESI	15/09/2006
731159	OBESI	20/01/2010
10268993	OBESI	25/10/2010
12695067	OBESI	22/11/2010
9374294	OBESI	10/05/2011
10269939	OBESI	20/08/2008
10269135	OBESI	31/03/2011
5031702	OBESI	04/11/2010
15668328	OBESI	04/05/2011
1937947	OBESI	21/09/2009
1331502	OBESI	14/10/2004
7246999	OBESI	29/03/2011
1938542	OBESI	07/12/2010
6746487	OBESI	31/05/2011
7383099	OBESI	16/03/2011
8975474	OBESI	07/05/2010
12857013	OBESI	26/05/2011
25071403	OBESI	13/04/2011
12690074	OBESI	22/02/2011
12688935	OBESI	13/05/2011
3502847	OBESI	26/02/2004
3124058	OBESI	19/01/2011
8983439	OBESI	14/01/2011
3247747	OBESI	25/10/2005
12173441	OBESI	11/07/2005
5024153	OBESI	04/10/2006
25041900	OBESI	11/05/2011
12830610	OBESI	15/04/2008
24930936	OBESI	05/06/2000
23472104	OBESI	10/04/2008
1937181	OBESI	08/11/2007
21152434	OBESI	20/02/2006
1731389	OBESI	10/09/2010
21152202	OBESI	03/09/2009
12857478	OBESI	24/10/2008
63163	OBESI	12/04/2011
947534	OBESI	22/07/2005
9210924	OBESI	26/11/2003
3333511	OBESI	23/03/2011
9134395	OBESI	11/01/1999
15273153	OBESI	12/02/2010
3292536	OBESI	01/12/2008
21153412	OBESI	19/07/2004
25043161	OBESI	23/04/2001
25042468	OBESI	28/04/2003
8570510	OBESI	21/11/2008
9268258	OBESI	17/05/2011
15668417	OBESI	30/05/2011
25062892	OBESI	03/08/2007
9249338	OBESI	15/12/2005
9215265	OBESI	12/05/2009
609566	OBESI	29/03/2011
12688862	OBESI	29/07/2010
7353093	OBESI	28/12/2009
15931606	OBESI	09/02/2011
6415918	OBESI	20/01/2011
17361649	OBESI	25/08/2010
1941438	OBESI	25/04/2011
12182796	OBESI	26/05/2011
12182868	OBESI	09/05/2011
7219712	OBESI	16/01/2006
731313	OBESI	03/02/2010
1517271	OBESI	27/04/2011
12231738	OBESI	27/10/2009
16529815	OBESI	02/02/2005
10270152	OBESI	20/03/2009
16529515	OBESI	26/10/2009
6416965	OBESI	13/03/2003
1069069	OBESI	07/04/2011
6178345	OBESI	29/01/2008
8558343	OBESI	28/04/2011
1124857	OBESI	10/04/2002
25062016	OBESI	29/04/2011
6417112	OBESI	19/09/1945
5812100	OBESI	27/04/2009
9983422	OBESI	07/04/2006
8651387	OBESI	26/01/2005
1063691	OBESI	17/05/2011
9388668	OBESI	04/05/2011
8557367	OBESI	27/04/2011
6866296	OBESI	17/05/2011
25060675	OBESI	22/05/2007
6745423	OBESI	14/10/2002
23454243	OBESI	19/04/2004
7336239	OBESI	20/10/2010
24722227	OBESI	17/12/2009
603045	OBESI	11/08/2008
5021335	OBESI	29/08/2008
22537806	OBESI	24/05/2011
1335044	OBESI	11/05/2011
8973282	OBESI	19/11/2010
10332859	OBESI	25/04/2011
3330054	OBESI	21/11/2001
21370980	OBESI	08/05/2006
10247366	OBESI	11/05/2011
6177821	OBESI	09/06/2009
10246026	OBESI	12/04/2007
21370047	OBESI	29/03/2011
8294126	OBESI	28/02/2002
20549659	OBESI	04/05/2007
12790408	OBESI	07/09/2007
9371260	OBESI	21/03/2011
8641065	OBESI	13/05/2011
12183551	OBESI	04/05/2011
12857231	OBESI	14/04/2005
23443048	OBESI	10/05/2011
12739599	OBESI	30/09/2010
730507	OBESI	21/01/2008
25071448	OBESI	17/02/2010
9382262	OBESI	07/04/2011
9220013	OBESI	10/05/2011
20528913	OBESI	13/08/2008
12184259	OBESI	08/03/2011
12689596	OBESI	03/05/2011
703510	OBESI	08/09/2004
6415196	OBESI	03/01/2011
6748638	OBESI	17/02/2011
12831650	OBESI	05/10/2010
6752729	OBESI	15/04/2011
1303002	OBESI	13/05/2008
8975906	OBESI	25/01/2011
10004315	OBESI	20/04/2004
1069551	OBESI	28/04/2011
941531	OBESI	22/11/2010
6744911	OBESI	06/07/2010
175245	OBESI	05/02/2009
10393862	OBESI	01/09/2007
12858903	OBESI	20/05/2005
9231095	OBESI	10/10/2002
9315447	OBESI	26/05/2011
6745501	OBESI	09/05/2011
732307	OBESI	28/06/2004
173592	OBESI	12/05/2011
12790596	OBESI	21/04/2008
7219764	OBESI	18/05/2009
5028278	OBESI	03/03/2011
8655966	OBESI	09/12/2008
12690450	OBESI	20/07/2010
24765071	OBESI	08/01/2010
9374541	OBESI	13/05/2011
12182622	OBESI	21/05/2010
6745268	OBESI	23/07/2003
1067499	OBESI	07/03/2011
7162181	OBESI	26/05/2009
7220377	OBESI	07/03/2011
612002	OBESI	18/10/2002
3123679	OBESI	11/08/2006
10271514	OBESI	17/06/2009
945609	OBESI	10/05/2007
12688905	OBESI	25/05/2011
1069126	OBESI	04/05/2011
25051083	OBESI	11/06/2010
9319288	OBESI	09/05/2011
25041877	OBESI	14/11/2002
13951419	OBESI	11/04/2011
13951624	OBESI	08/06/2005
12774766	OBESI	19/04/2010
9218975	OBESI	01/04/2004
15900996	OBESI	17/05/2011
1301846	OBESI	03/01/2008
947533	OBESI	23/02/2009
16557695	OBESI	26/06/2002
1517495	OBESI	01/10/2010
25063270	OBESI	04/04/2001
5865734	OBESI	10/02/2011
15237928	OBESI	19/05/2009
24950927	OBESI	30/07/2004
5812021	OBESI	01/06/2009
6236514	OBESI	29/05/2009
10247645	OBESI	26/05/2009
24764733	OBESI	30/06/2009
64824	OBESI	27/11/2008
9339322	OBESI	07/03/2001
9376083	OBESI	24/04/2009
1124806	OBESI	28/10/2009
9250324	OBESI	11/01/2011
9984803	OBESI	09/02/2004
20546500	OBESI	18/08/2009
21370517	OBESI	27/01/2004
9995220	OBESI	11/04/2011
16097839	OBESI	10/11/2006
9376288	OBESI	03/10/2008
20546433	OBESI	31/10/2006
9135492	OBESI	19/01/2007
3331546	OBESI	17/02/2011
6745916	OBESI	18/10/2006
8700529	OBESI	13/04/2009
8699018	OBESI	11/05/2011
8976809	OBESI	08/08/2001
9983562	OBESI	07/10/2009
945665	OBESI	05/05/2011
5031618	OBESI	24/05/2007
9321282	OBESI	11/05/2009
12762522	OBESI	06/10/2010
9375496	OBESI	12/02/2010
12831015	OBESI	03/02/2011
8975417	OBESI	16/12/2008
6146361	OBESI	05/05/2008
3292708	OBESI	14/03/2011
16530712	OBESI	30/03/2009
703443	OBESI	05/05/2011
8987413	OBESI	21/11/2007
13950951	OBESI	17/01/2007
25042008	OBESI	16/02/2011
25066397	OBESI	30/05/2006
25042627	OBESI	17/12/2010
23442777	OBESI	18/05/2011
1828347	OBESI	05/10/2004
14983661	OBESI	27/09/2006
14982885	OBESI	25/04/2011
9327444	OBESI	05/04/2011
8557985	OBESI	26/01/2011
12688652	OBESI	18/10/2010
7406416	OBESI	18/09/2009
8573896	OBESI	20/05/2005
1329760	OBESI	01/04/2011
7246149	OBESI	01/01/2005
1938323	OBESI	26/05/2011
1068416	OBESI	01/08/2008
10246462	OBESI	11/02/2011
16927097	OBESI	31/05/2011
8988978	OBESI	03/07/2008
610477	OBESI	12/06/2009
1938824	OBESI	15/11/2004
12299806	OBESI	18/08/2008
9377691	OBESI	31/10/2006
23442733	OBESI	19/04/2011
608337	OBESI	21/08/2008
8786569	OBESI	02/09/2004
7094856	OBESI	08/04/2011
17172387	OBESI	21/01/2011
3328312	OBESI	19/06/2008
9214769	OBESI	04/09/2006
1936960	OBESI	07/01/2010
10394089	OBESI	19/05/2011
730440	OBESI	24/10/2008
9382397	OBESI	25/02/2009
9373588	OBESI	14/03/2006
21871587	OBESI	15/02/2007
21805511	OBESI	22/01/2010
9378605	OBESI	29/03/2004
10246645	OBESI	17/01/2011
10246659	OBESI	02/03/2009
8643485	OBESI	21/09/2009
8979107	OBESI	13/06/2005
7093957	OBESI	21/09/2006
8990046	OBESI	02/07/2008
9215550	OBESI	03/05/2011
732611	OBESI	11/11/2009
8651304	OBESI	06/04/2011
12763683	OBESI	16/02/2011
945347	OBESI	17/05/2011
736944	OBESI	17/01/2011
2768422	OBESI	08/03/2005
12183581	OBESI	13/10/2008
732442	OBESI	15/06/2010
6747870	OBESI	29/10/1960
7220614	OBESI	17/06/2010
8582373	OBESI	26/09/2006
3119951	OBESI	16/11/2000
6747277	OBESI	20/10/2005
10003982	OBESI	11/12/2008
16927754	OBESI	01/03/2011
8959289	OBESI	10/03/2008
6758089	OBESI	14/03/2006
8980948	OBESI	02/12/2009
25062374	OBESI	28/05/2010
9220165	OBESI	06/06/2006
25051546	OBESI	31/05/2010
8570996	OBESI	15/02/2010
8557616	OBESI	13/05/2010
9212325	OBESI	19/06/2008
23454809	OBESI	24/04/2006
14859280	OBESI	06/04/2009
25052219	OBESI	15/03/2010
1535079	OBESI	19/01/2010
292840	OBESI	05/04/2011
12172995	OBESI	13/03/2006
12173508	OBESI	08/04/2009
21369799	OBESI	26/05/2011
12173020	OBESI	05/04/2010
3331547	OBESI	19/04/2010
7350206	OBESI	08/10/2009
6184310	OBESI	16/12/2009
16558240	OBESI	28/06/2010
3328431	OBESI	28/04/2011
1963862	OBESI	23/02/2011
9388407	OBESI	27/04/2011
5813363	OBESI	16/12/2008
3326972	OBESI	17/09/2001
8960256	OBESI	18/01/2008
2768042	OBESI	17/04/2007
7408581	OBESI	22/05/2009
24930692	OBESI	17/03/2011
16927871	OBESI	07/02/2011
24017001	OBESI	27/08/2008
7244041	OBESI	05/03/2002
1942264	OBESI	11/02/2009
1725481	OBESI	11/02/2010
9311451	OBESI	20/12/2004
3501905	OBESI	26/09/2008
10604210	OBESI	25/02/2008
20565596	OBESI	12/07/2007
8408523	OBESI	10/08/2006
10269139	OBESI	18/04/2011
10148015	OBESI	11/04/2008
3937717	OBESI	04/05/2011
3333455	OBESI	07/07/2010
12765626	OBESI	25/01/2011
10270381	OBESI	20/03/2007
5024381	OBESI	13/04/2007
3939357	OBESI	05/10/2007
8292798	OBESI	03/01/2011
23471643	OBESI	16/03/2011
16559078	OBESI	30/03/2011
18163097	OBESI	25/02/2005
10266866	OBESI	28/04/2011
10266402	OBESI	23/06/2005
939363	OBESI	26/06/2008
1069269	OBESI	24/05/2011
949680	OBESI	25/05/2011
2622772	OBESI	08/08/2005
20545893	OBESI	28/08/2008
16559866	OBESI	05/09/2008
8976509	OBESI	09/06/2004
5813359	OBESI	10/01/2008
16554513	OBESI	18/02/2011
12186350	OBESI	14/10/2010
6752418	OBESI	01/03/2007
3332462	OBESI	30/07/2010
25041809	OBESI	12/02/1927
16530907	OBESI	04/04/2008
3334883	OBESI	31/03/2006
10604592	OBESI	01/06/2007
17170104	OBESI	16/05/2011
949119	OBESI	17/09/2003
949299	OBESI	30/10/2006
17348911	OBESI	20/01/2011
3123797	OBESI	28/02/2011
3125131	OBESI	11/04/2011
8783486	OBESI	29/04/2010
7094703	OBESI	20/05/2011
25062071	OBESI	17/01/2006
3290458	OBESI	05/01/2009
9214936	OBESI	03/02/2011
5814208	OBESI	04/03/2010
9304423	OBESI	25/04/2011
1963788	OBESI	09/09/2008
1068170	OBESI	04/02/2009
9210517	OBESI	20/10/2003
9319138	OBESI	03/09/1998
1608454	OBESI	12/04/2010
12174226	OBESI	20/11/2006
17170528	OBESI	23/07/2010
6415215	OBESI	15/03/2004
2156546	OBESI	13/04/2011
9392962	OBESI	19/05/2011
6079237	OBESI	25/05/2011
14982320	OBESI	13/05/2011
6626450	OBESI	10/05/2011
8959073	OBESI	05/03/2009
6143377	OBESI	07/04/2009
6182455	OBESI	25/02/2009
10003227	OBESI	16/05/2011
6417039	OBESI	02/10/2002
13421942	OBESI	25/03/2011
9178706	OBESI	24/04/2001
12688610	OBESI	02/08/2006
20564355	OBESI	22/07/2010
730718	OBESI	06/07/2005
21370365	OBESI	03/11/2000
9177066	OBESI	15/02/2007
6750309	OBESI	31/07/2006
12763994	OBESI	29/01/2009
24951114	OBESI	22/04/2009
21152518	OBESI	05/02/2010
944486	OBESI	09/10/2009
12737779	OBESI	02/09/2009
24765208	OBESI	11/04/2006
8293901	OBESI	26/04/2010
12781098	OBESI	29/03/2005
1937567	OBESI	21/10/2009
19231650	OBESI	05/02/2008
14771562	OBESI	07/03/2011
23454398	OBESI	14/04/2011
10335470	OBESI	23/05/2011
63636	OBESI	08/05/2006
12779387	OBESI	30/03/2011
21854118	OBESI	08/04/2011
6707615	OBESI	03/10/2005
63243	OBESI	17/11/1995
6417619	OBESI	14/01/2011
10247511	OBESI	24/03/2011
9302747	OBESI	14/04/2011
6235148	OBESI	28/07/2010
21152212	OBESI	29/12/2008
5029033	OBESI	22/12/2005
5033201	OBESI	14/09/2007
24950963	OBESI	29/04/2011
10333295	OBESI	11/03/2011
9994923	OBESI	02/09/2003
6761142	OBESI	07/06/2010
19152713	OBESI	18/12/2009
6178382	OBESI	18/01/2011
6177775	OBESI	21/07/2008
21146681	OBESI	07/03/2008
8293025	OBESI	16/11/2009
9378353	OBESI	13/04/2011
16557300	OBESI	11/03/2005
12182705	OBESI	05/05/2011
174475	OBESI	16/07/2009
9372568	OBESI	12/01/2011
17216732	OBESI	13/05/2011
16549107	OBESI	31/01/2005
8982494	OBESI	17/03/2009
3332130	OBESI	12/04/2010
3122199	OBESI	16/02/2004
13223279	OBESI	08/09/2008
731670	OBESI	18/07/2005
25047527	OBESI	18/05/2011
24951791	OBESI	31/07/2008
9283784	OBESI	19/01/2005
1517273	OBESI	13/11/2001
24721456	OBESI	12/12/2008
731713	OBESI	13/04/2011
5812379	OBESI	01/06/2004
6751810	OBESI	17/11/2009
10331347	OBESI	18/09/2007
10267886	OBESI	23/06/2010
9301337	OBESI	17/05/2011
8979696	OBESI	19/09/2006
12777882	OBESI	01/02/2006
6749557	OBESI	23/07/2008
9299599	OBESI	16/12/2010
5864959	OBESI	03/12/2009
10270612	OBESI	05/10/2004
15427499	OBESI	23/08/2007
8784100	OBESI	29/05/2002
12689812	OBESI	25/05/2011
7220016	OBESI	22/12/2004
5024803	OBESI	19/06/2009
1069550	OBESI	21/02/2011
13222119	OBESI	27/02/2008
9984869	OBESI	06/05/2011
8643505	OBESI	21/10/2008
11992760	OBESI	10/09/2010
8567858	OBESI	09/02/2010
10004179	OBESI	18/06/2002
8700627	OBESI	14/06/2010
7094074	OBESI	09/05/2011
10265984	OBESI	14/01/2009
9384479	OBESI	26/02/2009
14816674	OBESI	17/09/2009
19299305	OBESI	30/11/2010
3304658	OBESI	15/11/2004
6035529	OBESI	09/10/2007
6745401	OBESI	06/04/2006
608353	OBESI	15/10/2010
294603	OBESI	08/04/2009
1515178	OBESI	05/09/2007
17175863	OBESI	20/08/2009
2768457	OBESI	10/01/2006
6415450	OBESI	18/02/2011
12372204	OBESI	29/10/2008
3332042	OBESI	12/01/2005
5814191	OBESI	01/12/2008
21806208	OBESI	11/05/2011
10002429	OBESI	08/05/2007
21369952	OBESI	27/11/2007
21371533	OBESI	20/08/2008
21782270	OBESI	12/08/2010
8655880	OBESI	11/01/2011
1067775	OBESI	30/08/2005
23442728	OBESI	25/05/2011
9378237	OBESI	16/04/2011
23472124	OBESI	05/12/2007
11995102	OBESI	02/07/2002
7352900	OBESI	15/04/2011
7407053	OBESI	10/09/2008
9375873	OBESI	24/07/2009
7352863	OBESI	15/03/2006
1162239	OBESI	11/04/2007
15427626	OBESI	11/04/2006
7405282	OBESI	12/12/2001
7158865	OBESI	05/09/2007
8655494	OBESI	25/05/2011
7220267	OBESI	08/01/2009
24729307	OBESI	04/07/2001
24721032	OBESI	09/05/2007
23996759	OBESI	10/05/2006
12774422	OBESI	16/09/2010
21644622	OBESI	21/07/2000
10002746	OBESI	18/10/2010
9373480	OBESI	17/10/2006
10331626	OBESI	10/05/2011
