patient_id	covar_name	date
10340384	OTIEXT	25/08/2005
20546697	OTIEXT	26/08/2010
21372644	OTIEXT	13/09/2005
10245764	OTIEXT	18/05/2011
10271032	OTIEXT	24/07/2003
24730236	OTIEXT	04/11/2003
9323895	OTIEXT	12/01/2005
17169829	OTIEXT	10/06/2010
1122942	OTIEXT	26/08/2008
6236520	OTIEXT	22/03/2007
8291674	OTIEXT	18/05/2006
8294969	OTIEXT	24/08/2006
9231384	OTIEXT	14/01/2009
6040714	OTIEXT	09/11/2004
8282083	OTIEXT	25/11/2003
9203265	OTIEXT	20/10/2009
23455156	OTIEXT	28/04/2010
24950976	OTIEXT	06/08/2007
12730894	OTIEXT	10/11/2006
9328709	OTIEXT	04/07/2007
13375674	OTIEXT	14/03/2011
9371686	OTIEXT	11/01/2005
19007857	OTIEXT	22/08/2002
1068306	OTIEXT	16/11/2004
9302346	OTIEXT	24/02/2011
9996391	OTIEXT	04/10/2006
9290308	OTIEXT	31/07/2009
62714	OTIEXT	28/01/2011
24950727	OTIEXT	02/07/2004
16097947	OTIEXT	07/12/2006
24929938	OTIEXT	07/02/2008
11993675	OTIEXT	16/10/2007
3939492	OTIEXT	24/04/2006
12781245	OTIEXT	10/06/2010
16530698	OTIEXT	02/08/2002
12783062	OTIEXT	10/08/2005
7405502	OTIEXT	12/03/2004
8555445	OTIEXT	04/08/2008
1162872	OTIEXT	27/10/2008
25055681	OTIEXT	17/10/2002
9999107	OTIEXT	29/04/2005
8979056	OTIEXT	26/11/2008
9982943	OTIEXT	15/03/2010
9202720	OTIEXT	20/05/2009
6887463	OTIEXT	08/03/2006
1162228	OTIEXT	02/09/2010
20412348	OTIEXT	13/03/2009
9125579	OTIEXT	06/09/1999
13538926	OTIEXT	08/06/2009
10393855	OTIEXT	24/02/2006
25041739	OTIEXT	07/10/2005
948941	OTIEXT	13/02/2006
9371112	OTIEXT	20/08/2004
7407067	OTIEXT	11/08/2005
9300096	OTIEXT	11/11/2010
23505942	OTIEXT	15/12/1999
12830667	OTIEXT	14/10/2010
17173040	OTIEXT	13/06/2007
12477883	OTIEXT	12/04/2011
3284840	OTIEXT	03/11/2005
9231451	OTIEXT	01/03/2001
20547034	OTIEXT	07/11/2001
7242799	OTIEXT	30/07/2008
12299958	OTIEXT	11/02/2010
9129511	OTIEXT	13/04/2007
740507	OTIEXT	26/11/2001
601024	OTIEXT	16/08/2010
10292723	OTIEXT	07/01/2011
16098870	OTIEXT	15/11/2010
9386691	OTIEXT	14/05/2008
8554672	OTIEXT	08/08/2006
21152371	OTIEXT	30/10/2009
8292513	OTIEXT	26/03/2003
6752622	OTIEXT	12/08/2003
9215559	OTIEXT	03/10/2003
1331516	OTIEXT	05/05/2011
9179006	OTIEXT	12/04/2010
9305372	OTIEXT	06/07/2007
21370724	OTIEXT	22/09/2000
9178196	OTIEXT	28/04/2009
1069732	OTIEXT	13/02/2006
6244710	OTIEXT	07/02/2011
9249480	OTIEXT	15/07/2005
12765373	OTIEXT	02/06/2010
25051143	OTIEXT	18/04/2007
10270319	OTIEXT	24/02/2004
731423	OTIEXT	08/07/2003
732315	OTIEXT	20/04/2007
16087795	OTIEXT	06/08/2007
19179021	OTIEXT	08/07/2009
9231202	OTIEXT	28/02/2000
17172613	OTIEXT	29/06/2006
5028400	OTIEXT	23/09/2008
14983299	OTIEXT	09/09/2004
10271236	OTIEXT	16/11/2010
17173612	OTIEXT	29/09/2006
9288958	OTIEXT	28/08/2007
12478033	OTIEXT	14/06/2005
15997980	OTIEXT	30/08/2010
11994113	OTIEXT	09/08/2010
8277792	OTIEXT	27/01/2010
2563973	OTIEXT	19/01/2011
9380512	OTIEXT	28/07/2006
9385740	OTIEXT	22/05/2003
3550752	OTIEXT	04/05/2006
7094087	OTIEXT	03/08/2009
5031929	OTIEXT	26/05/2011
939490	OTIEXT	05/02/2002
67800	OTIEXT	03/01/2002
5031166	OTIEXT	04/04/2005
9306009	OTIEXT	18/08/2010
9340736	OTIEXT	02/09/2010
6245113	OTIEXT	20/06/2008
3120764	OTIEXT	19/01/2009
739896	OTIEXT	14/08/2003
10002466	OTIEXT	21/11/2007
20564026	OTIEXT	26/06/1998
8975315	OTIEXT	03/08/2006
14981860	OTIEXT	31/01/2007
8986016	OTIEXT	05/12/2008
10605408	OTIEXT	22/10/2010
20413021	OTIEXT	15/03/2010
3789443	OTIEXT	22/11/2004
8279900	OTIEXT	17/03/2000
5029698	OTIEXT	08/11/2004
9250589	OTIEXT	30/03/2007
7244033	OTIEXT	05/10/2006
20549085	OTIEXT	10/11/2005
9231345	OTIEXT	27/12/2001
9209267	OTIEXT	26/12/2006
12696324	OTIEXT	25/02/2005
1069578	OTIEXT	10/06/2009
604775	OTIEXT	15/04/2011
5021563	OTIEXT	28/12/2005
19179194	OTIEXT	10/10/2007
11993545	OTIEXT	13/06/2007
12374768	OTIEXT	12/04/2010
12739267	OTIEXT	09/07/2009
10393847	OTIEXT	18/01/2007
3939956	OTIEXT	04/09/2002
6416595	OTIEXT	23/02/2009
1938542	OTIEXT	17/12/2001
1547724	OTIEXT	02/10/2000
9382870	OTIEXT	07/04/2006
8983439	OTIEXT	24/12/2001
5035816	OTIEXT	02/03/2007
8787236	OTIEXT	07/11/2007
20566164	OTIEXT	29/03/2005
12857478	OTIEXT	10/05/2011
3119107	OTIEXT	29/05/2001
1160472	OTIEXT	21/07/2010
9309280	OTIEXT	04/12/2007
8569753	OTIEXT	20/06/2005
21152720	OTIEXT	20/05/2008
9214840	OTIEXT	11/12/2006
16559495	OTIEXT	25/06/2010
12783616	OTIEXT	30/03/2011
732157	OTIEXT	09/02/2007
12779686	OTIEXT	02/01/2008
9381989	OTIEXT	05/02/2009
25047937	OTIEXT	09/05/2011
12858584	OTIEXT	05/05/2003
10003771	OTIEXT	17/06/2008
19177362	OTIEXT	19/05/2009
9328332	OTIEXT	12/04/2004
6177197	OTIEXT	30/09/2009
15901751	OTIEXT	02/01/2008
1162907	OTIEXT	03/07/2007
10198644	OTIEXT	14/07/2010
9382262	OTIEXT	10/08/2010
19179255	OTIEXT	30/07/2007
10284830	OTIEXT	31/05/2007
19179490	OTIEXT	05/03/2009
8985305	OTIEXT	07/11/2002
607070	OTIEXT	23/10/2008
3292667	OTIEXT	14/09/2009
15402656	OTIEXT	20/07/2010
25072171	OTIEXT	11/08/2005
23994781	OTIEXT	17/11/2004
8655155	OTIEXT	18/04/2008
5032592	OTIEXT	29/05/2007
11373114	OTIEXT	25/08/2010
945609	OTIEXT	09/09/2009
15900996	OTIEXT	16/10/2008
10393675	OTIEXT	09/01/2006
16557722	OTIEXT	10/05/2004
64824	OTIEXT	02/01/2009
13191160	OTIEXT	29/01/2010
12688847	OTIEXT	15/12/2006
9387065	OTIEXT	17/10/2003
9230569	OTIEXT	03/09/2001
13744404	OTIEXT	11/08/2008
7162636	OTIEXT	21/02/2006
8973833	OTIEXT	27/08/2010
9996784	OTIEXT	03/09/2004
14982212	OTIEXT	11/01/2008
3291956	OTIEXT	24/01/2002
9213222	OTIEXT	06/03/2006
12774611	OTIEXT	14/04/2010
8987413	OTIEXT	09/05/2011
13950951	OTIEXT	04/07/2006
23442777	OTIEXT	16/04/2007
25071236	OTIEXT	31/01/2006
1163092	OTIEXT	24/07/2003
14983661	OTIEXT	27/03/2006
9327444	OTIEXT	17/12/2010
3119036	OTIEXT	20/09/2002
8976224	OTIEXT	03/07/2006
1515149	OTIEXT	30/07/2001
22780091	OTIEXT	21/08/2003
8973037	OTIEXT	25/12/2004
1938824	OTIEXT	20/07/2004
12299806	OTIEXT	18/08/2008
8987992	OTIEXT	30/06/2009
730440	OTIEXT	09/09/2003
3309269	OTIEXT	01/03/2004
16097957	OTIEXT	03/04/2006
9378605	OTIEXT	30/10/2006
9376385	OTIEXT	03/01/2008
948518	OTIEXT	06/07/2002
6706990	OTIEXT	25/09/2007
12185318	OTIEXT	29/05/2009
12764691	OTIEXT	11/08/2010
25065893	OTIEXT	25/06/2010
3121795	OTIEXT	28/05/2009
17175205	OTIEXT	12/04/2010
25062686	OTIEXT	30/10/2008
1942264	OTIEXT	12/09/2006
9311451	OTIEXT	27/03/2006
3126302	OTIEXT	22/07/2003
8784119	OTIEXT	27/08/2004
10148015	OTIEXT	07/02/2011
12765626	OTIEXT	02/07/2010
3292475	OTIEXT	22/08/2003
16559078	OTIEXT	07/02/2005
23685706	OTIEXT	11/05/2010
939363	OTIEXT	04/08/2006
8976509	OTIEXT	08/06/2002
6752418	OTIEXT	17/09/2003
21370083	OTIEXT	19/11/1999
9376319	OTIEXT	05/09/2007
8783486	OTIEXT	12/06/2008
8556206	OTIEXT	19/08/2009
753709	OTIEXT	04/02/2009
3329070	OTIEXT	11/07/2010
733479	OTIEXT	25/09/2008
16929664	OTIEXT	07/09/2009
12478868	OTIEXT	17/04/2007
10285095	OTIEXT	10/09/2007
12783015	OTIEXT	23/12/2008
173433	OTIEXT	27/12/2005
8983520	OTIEXT	22/04/2004
8986732	OTIEXT	04/08/2003
16530087	OTIEXT	10/12/2008
944486	OTIEXT	14/08/2006
20414136	OTIEXT	05/03/2007
9562628	OTIEXT	23/12/2008
63636	OTIEXT	09/09/2003
1334775	OTIEXT	07/08/2006
24930906	OTIEXT	28/07/2008
21854118	OTIEXT	03/09/2010
1461902	OTIEXT	12/04/2004
7160942	OTIEXT	03/11/2005
10604299	OTIEXT	23/08/2010
10333295	OTIEXT	16/08/2010
9994923	OTIEXT	11/08/2003
19179650	OTIEXT	13/12/2010
9231426	OTIEXT	12/04/2011
19179544	OTIEXT	25/11/2010
3334915	OTIEXT	06/02/2004
12182705	OTIEXT	05/07/2010
174475	OTIEXT	23/05/2002
10867603	OTIEXT	21/08/2008
13375615	OTIEXT	22/07/2010
12183815	OTIEXT	14/07/2008
9283784	OTIEXT	15/12/2008
731713	OTIEXT	28/03/2011
7245614	OTIEXT	19/06/2007
7248494	OTIEXT	11/05/2007
25062059	OTIEXT	15/10/2009
949230	OTIEXT	31/01/2003
19179478	OTIEXT	15/12/2010
10866215	OTIEXT	14/03/2005
7094074	OTIEXT	21/10/2008
10333445	OTIEXT	04/03/2005
8984656	OTIEXT	02/05/2005
24765014	OTIEXT	01/06/2006
1418232	OTIEXT	29/04/2011
13984382	OTIEXT	12/04/2006
21369952	OTIEXT	18/09/2006
9299616	OTIEXT	31/01/2005
1162239	OTIEXT	17/03/2006
7158865	OTIEXT	24/09/2010
10002746	OTIEXT	22/08/2006
10331626	OTIEXT	30/03/2010
9283721	OTIEXT	16/06/2010
22013417	OTIEXT	04/01/2011
640357	OTIEXT	10/05/2005
673940	OTIEXT	02/11/2007
515932	OTIEXT	03/12/2010
7849301	OTIEXT	23/10/2003
641170	OTIEXT	01/06/2006
1169659	OTIEXT	12/02/2009
24718616	OTIEXT	25/08/2006
6592110	OTIEXT	04/01/2008
7777782	OTIEXT	08/10/2002
1666099	OTIEXT	16/11/2006
10557719	OTIEXT	09/11/2009
17932194	OTIEXT	19/08/2003
1091265	OTIEXT	18/06/2004
6594789	OTIEXT	21/09/2004
7776172	OTIEXT	29/10/2010
1849585	OTIEXT	23/12/2003
6592552	OTIEXT	24/07/2000
9889795	OTIEXT	09/01/2009
18056114	OTIEXT	30/05/2005
1379001	OTIEXT	12/09/2006
1352974	OTIEXT	16/02/2004
8932068	OTIEXT	16/01/2007
6598452	OTIEXT	30/10/2002
6603276	OTIEXT	07/10/2005
652035	OTIEXT	30/01/2008
1425158	OTIEXT	20/09/2004
1171151	OTIEXT	10/10/2006
1853498	OTIEXT	29/06/2010
1191344	OTIEXT	12/11/2010
24719453	OTIEXT	17/04/2009
652717	OTIEXT	07/05/2008
1296387	OTIEXT	11/12/2003
8933997	OTIEXT	17/08/2005
6603667	OTIEXT	10/06/2009
6597829	OTIEXT	17/02/2011
6212219	OTIEXT	23/07/2009
6333765	OTIEXT	25/01/2007
1263836	OTIEXT	03/01/2009
1474100	OTIEXT	05/10/2004
13263525	OTIEXT	07/01/2005
5723544	OTIEXT	31/07/2007
7905833	OTIEXT	09/08/2006
6592952	OTIEXT	11/07/2008
6602819	OTIEXT	19/12/2009
6596593	OTIEXT	17/05/2001
1202381	OTIEXT	20/02/2008
18038985	OTIEXT	11/05/2009
6602371	OTIEXT	02/12/2008
6592099	OTIEXT	20/03/2009
7969130	OTIEXT	13/09/2006
1854071	OTIEXT	02/03/2001
25177530	OTIEXT	06/07/2010
1262655	OTIEXT	29/08/2004
1199932	OTIEXT	31/08/2009
6842062	OTIEXT	08/02/2007
6604048	OTIEXT	05/08/2008
24940853	OTIEXT	02/01/2001
11499223	OTIEXT	31/07/2009
26144877	OTIEXT	06/08/2008
1545533	OTIEXT	16/11/2004
8955480	OTIEXT	16/12/2010
1416316	OTIEXT	16/09/2008
6842063	OTIEXT	15/09/2009
12189272	OTIEXT	21/01/2003
6600753	OTIEXT	28/02/2002
7818399	OTIEXT	10/10/2002
23510510	OTIEXT	28/04/2008
1206620	OTIEXT	18/06/2010
641933	OTIEXT	22/01/2011
1419572	OTIEXT	08/08/2003
1203312	OTIEXT	03/05/2011
24941723	OTIEXT	28/01/2005
6602655	OTIEXT	27/01/2003
6602978	OTIEXT	18/01/2005
1669715	OTIEXT	23/08/2002
6595850	OTIEXT	30/09/2009
2906336	OTIEXT	03/03/2009
6594594	OTIEXT	13/05/2008
6600312	OTIEXT	17/06/2008
7971482	OTIEXT	12/09/2005
3074316	OTIEXT	02/09/2005
1204129	OTIEXT	01/07/2010
6592449	OTIEXT	04/12/2000
6603802	OTIEXT	10/03/2005
6478740	OTIEXT	13/03/2008
1545551	OTIEXT	26/06/2005
7768936	OTIEXT	26/05/2008
438081	OTIEXT	19/01/2005
917736	OTIEXT	01/04/2007
1321846	OTIEXT	04/09/2007
13986535	OTIEXT	18/10/2005
648336	OTIEXT	20/10/2003
1208133	OTIEXT	07/06/2002
7771619	OTIEXT	11/11/2003
1354463	OTIEXT	05/03/2010
6841352	OTIEXT	29/11/2005
641468	OTIEXT	16/09/2004
6592127	OTIEXT	22/07/2005
1200860	OTIEXT	29/10/2010
5723212	OTIEXT	30/03/2010
6602686	OTIEXT	01/03/2006
1444156	OTIEXT	14/05/2007
24940627	OTIEXT	08/07/2002
1665602	OTIEXT	29/11/2004
18366531	OTIEXT	06/01/2010
1192084	OTIEXT	25/11/2005
8935141	OTIEXT	29/01/2004
8063275	OTIEXT	27/08/2001
7801045	OTIEXT	01/04/2008
8454242	OTIEXT	25/07/2006
1191971	OTIEXT	19/03/2002
11140931	OTIEXT	08/10/2008
2906332	OTIEXT	30/04/2010
525429	OTIEXT	16/01/2009
24941580	OTIEXT	13/07/2004
1853921	OTIEXT	19/04/2002
1202345	OTIEXT	05/08/2009
1426251	OTIEXT	16/04/2009
404542	OTIEXT	19/05/2011
1850771	OTIEXT	02/06/2010
1666482	OTIEXT	23/11/2010
7801775	OTIEXT	06/02/2004
1351123	OTIEXT	17/02/2004
674486	OTIEXT	01/08/2003
8061893	OTIEXT	20/09/2005
1296242	OTIEXT	28/09/2007
7770079	OTIEXT	11/02/2011
7956042	OTIEXT	11/07/2009
12613643	OTIEXT	22/06/2009
6601829	OTIEXT	01/08/2003
525368	OTIEXT	06/05/2003
7776529	OTIEXT	27/02/2004
1054690	OTIEXT	25/04/2006
1295868	OTIEXT	02/11/2006
7850197	OTIEXT	06/11/2003
1418128	OTIEXT	03/05/2000
17607037	OTIEXT	03/02/2003
5992383	OTIEXT	14/07/2006
1351722	OTIEXT	23/10/2007
10328695	OTIEXT	24/11/2010
8063147	OTIEXT	09/09/2005
6842492	OTIEXT	02/05/2007
13986237	OTIEXT	03/04/2008
6602975	OTIEXT	14/06/2010
6633906	OTIEXT	19/05/2009
25248948	OTIEXT	14/02/2005
1199703	OTIEXT	19/08/2007
525618	OTIEXT	17/10/2007
516181	OTIEXT	31/10/2003
26145718	OTIEXT	25/02/2011
1261312	OTIEXT	24/03/2010
1320228	OTIEXT	26/10/2010
1278011	OTIEXT	21/09/2008
8062385	OTIEXT	04/06/2003
7966257	OTIEXT	01/09/2008
1054556	OTIEXT	27/07/2009
1443262	OTIEXT	02/12/2010
12187604	OTIEXT	29/07/2009
405368	OTIEXT	15/07/2005
7623127	OTIEXT	04/12/2007
6632683	OTIEXT	25/04/2007
1443910	OTIEXT	07/05/2004
1666966	OTIEXT	05/06/2002
405420	OTIEXT	13/02/2008
1351713	OTIEXT	22/04/2004
1443624	OTIEXT	05/07/2006
6598234	OTIEXT	29/03/2011
25355224	OTIEXT	08/10/2003
6603214	OTIEXT	18/06/2008
25884256	OTIEXT	06/03/2007
1577616	OTIEXT	19/12/2003
12665128	OTIEXT	19/10/1999
1129404	OTIEXT	10/08/2009
1133221	OTIEXT	01/10/2010
1640758	OTIEXT	27/04/2005
1107488	OTIEXT	15/06/2000
1067145	OTIEXT	12/04/2006
25766904	OTIEXT	23/02/2011
1100157	OTIEXT	29/09/2007
1107468	OTIEXT	09/03/2009
1567088	OTIEXT	01/07/2008
25902108	OTIEXT	21/02/2011
12575092	OTIEXT	22/10/2007
1132264	OTIEXT	03/09/2007
25766761	OTIEXT	02/05/2008
13733143	OTIEXT	10/10/2008
1191137	OTIEXT	25/08/2008
6632005	OTIEXT	26/04/2008
1355662	OTIEXT	29/01/2009
25176961	OTIEXT	20/12/2010
6598193	OTIEXT	26/05/2011
638847	OTIEXT	28/10/2002
1639039	OTIEXT	13/11/2001
12660032	OTIEXT	18/01/2011
1134366	OTIEXT	20/01/2004
1106958	OTIEXT	11/10/2007
1641899	OTIEXT	02/09/2009
1638708	OTIEXT	25/11/2008
25767713	OTIEXT	28/11/2009
1130755	OTIEXT	24/02/2009
716480	OTIEXT	10/08/2009
1101869	OTIEXT	17/04/2006
25766504	OTIEXT	04/11/2003
25885986	OTIEXT	07/04/2010
1581159	OTIEXT	30/09/2005
1557815	OTIEXT	26/11/2008
1102247	OTIEXT	25/05/2001
135798	OTIEXT	17/05/2011
1129701	OTIEXT	14/04/2009
1130304	OTIEXT	03/01/2006
25909736	OTIEXT	20/11/2006
1108840	OTIEXT	22/11/2007
1133112	OTIEXT	16/09/2005
1109327	OTIEXT	12/03/2008
1108536	OTIEXT	14/10/2010
25894610	OTIEXT	04/07/2008
134966	OTIEXT	27/10/2006
4688914	OTIEXT	30/03/2004
716254	OTIEXT	16/10/2001
1066140	OTIEXT	07/11/2006
12640327	OTIEXT	04/08/2005
1641058	OTIEXT	05/01/2010
1107905	OTIEXT	08/11/2000
717738	OTIEXT	15/07/2003
1135310	OTIEXT	17/03/2003
994239	OTIEXT	17/09/2010
12636453	OTIEXT	20/01/2009
12162681	OTIEXT	15/08/2004
1856271	OTIEXT	02/11/2005
1129944	OTIEXT	13/08/2010
1106828	OTIEXT	07/07/2008
1104695	OTIEXT	18/07/2008
1580789	OTIEXT	17/11/2003
25861244	OTIEXT	26/01/2011
4678755	OTIEXT	20/12/2006
1130148	OTIEXT	05/01/2011
25750805	OTIEXT	07/04/2010
6513850	OTIEXT	01/04/2009
1099585	OTIEXT	12/11/2010
1110879	OTIEXT	09/12/2009
1135359	OTIEXT	05/12/2003
25891689	OTIEXT	21/09/2009
1131941	OTIEXT	06/02/2002
25883011	OTIEXT	16/03/2010
486308	OTIEXT	19/11/2009
890808	OTIEXT	24/01/2006
25766651	OTIEXT	02/12/2009
1274503	OTIEXT	11/08/2008
25768725	OTIEXT	08/05/2008
1640469	OTIEXT	03/08/2006
1558166	OTIEXT	11/08/2003
1274932	OTIEXT	04/11/2006
3655963	OTIEXT	28/07/2006
1108431	OTIEXT	24/02/2010
1101989	OTIEXT	05/05/2003
1108253	OTIEXT	15/02/2003
5987200	OTIEXT	03/03/2008
1552120	OTIEXT	27/09/2005
1641017	OTIEXT	08/01/2008
1639675	OTIEXT	28/07/2003
1111994	OTIEXT	08/07/2008
1109004	OTIEXT	07/12/2005
1108799	OTIEXT	29/06/2007
2799361	OTIEXT	08/02/2001
25904160	OTIEXT	05/07/2005
1065365	OTIEXT	20/03/2009
1640877	OTIEXT	20/08/2010
3656051	OTIEXT	06/10/2009
1108899	OTIEXT	22/07/2008
1065570	OTIEXT	29/05/2006
486077	OTIEXT	05/08/2005
717026	OTIEXT	23/05/2005
716101	OTIEXT	16/11/2004
25901987	OTIEXT	03/11/2009
487173	OTIEXT	17/01/2011
716836	OTIEXT	21/02/2006
1557371	OTIEXT	05/09/2007
12705229	OTIEXT	29/01/2008
12705368	OTIEXT	11/01/2011
25757178	OTIEXT	27/07/2010
1108853	OTIEXT	05/10/2005
889933	OTIEXT	03/03/2010
1103247	OTIEXT	23/09/2003
25883143	OTIEXT	29/12/2006
2112731	OTIEXT	25/07/2006
2059817	OTIEXT	10/11/2004
2068536	OTIEXT	02/06/2006
2087936	OTIEXT	05/12/2006
2216586	OTIEXT	23/08/2004
2519852	OTIEXT	12/04/2005
2059046	OTIEXT	25/07/2001
2215125	OTIEXT	31/01/2003
2109549	OTIEXT	07/07/2009
2217778	OTIEXT	28/12/2007
2041879	OTIEXT	29/10/2008
2067952	OTIEXT	26/04/2007
2072003	OTIEXT	05/11/2008
4679012	OTIEXT	05/08/2008
2216049	OTIEXT	23/07/2007
2088140	OTIEXT	26/12/2007
2045279	OTIEXT	15/10/2004
2143165	OTIEXT	26/01/2006
2072714	OTIEXT	02/08/2006
2087739	OTIEXT	06/06/2006
2049566	OTIEXT	07/02/2007
2043496	OTIEXT	05/06/2001
2217164	OTIEXT	03/08/2010
2048440	OTIEXT	07/03/2007
2137092	OTIEXT	21/11/2007
903477	OTIEXT	01/11/2002
858856	OTIEXT	22/12/2004
1682020	OTIEXT	30/12/2003
905347	OTIEXT	18/09/2006
875533	OTIEXT	24/10/2006
1761601	OTIEXT	22/09/2004
901293	OTIEXT	27/09/2003
2036978	OTIEXT	31/03/2010
2037558	OTIEXT	21/12/2006
2411290	OTIEXT	18/07/2005
2377893	OTIEXT	18/05/2010
2143483	OTIEXT	03/02/2005
2365323	OTIEXT	12/03/2007
2143938	OTIEXT	16/10/2003
2058667	OTIEXT	18/08/2010
1755871	OTIEXT	29/08/2004
1755920	OTIEXT	09/07/2003
859110	OTIEXT	17/03/2005
1765440	OTIEXT	02/09/2003
1682937	OTIEXT	14/07/2004
2038121	OTIEXT	23/03/2010
873649	OTIEXT	29/03/2001
905655	OTIEXT	06/06/2010
903438	OTIEXT	28/12/2006
2038100	OTIEXT	03/06/2005
904619	OTIEXT	01/04/2007
901698	OTIEXT	11/10/2000
860479	OTIEXT	27/12/2007
860192	OTIEXT	27/03/2007
877057	OTIEXT	31/03/2009
1763695	OTIEXT	05/05/2003
2573403	OTIEXT	12/01/2011
2811902	OTIEXT	12/04/2011
3049475	OTIEXT	04/11/2002
4088519	OTIEXT	15/05/2008
2760233	OTIEXT	15/03/2011
1754233	OTIEXT	01/07/2003
3055474	OTIEXT	25/08/2006
3053847	OTIEXT	16/12/2003
904067	OTIEXT	19/12/2005
904069	OTIEXT	22/08/2009
7037594	OTIEXT	22/06/2009
901284	OTIEXT	11/10/2004
876918	OTIEXT	20/04/2010
859599	OTIEXT	28/10/2004
879101	OTIEXT	03/08/2007
902575	OTIEXT	10/01/2007
1679643	OTIEXT	04/09/2001
1767597	OTIEXT	27/11/2009
2780191	OTIEXT	04/12/2003
2757125	OTIEXT	06/06/2006
3052465	OTIEXT	02/05/2005
3054907	OTIEXT	21/10/2005
3048899	OTIEXT	18/09/2005
2775987	OTIEXT	14/02/2007
2762974	OTIEXT	05/06/2009
7135080	OTIEXT	20/09/2003
2779832	OTIEXT	08/08/2005
2757514	OTIEXT	01/12/2003
2812104	OTIEXT	16/07/2010
2773905	OTIEXT	23/09/2003
3055375	OTIEXT	01/05/2010
2760064	OTIEXT	08/08/2010
3053901	OTIEXT	01/05/2009
3049642	OTIEXT	07/07/2010
3052992	OTIEXT	21/04/2003
2759631	OTIEXT	24/05/2004
3051873	OTIEXT	20/10/2010
3052680	OTIEXT	24/12/2001
7128035	OTIEXT	01/10/2001
2863271	OTIEXT	20/12/2002
5322696	OTIEXT	20/10/2005
2778447	OTIEXT	23/10/2007
3049095	OTIEXT	26/01/2001
3054609	OTIEXT	13/08/2003
2757182	OTIEXT	04/03/2004
2773977	OTIEXT	23/04/2010
3053490	OTIEXT	21/03/2001
2755898	OTIEXT	07/08/2003
2521889	OTIEXT	10/08/2004
2524097	OTIEXT	19/12/2002
2411962	OTIEXT	02/08/2004
2411165	OTIEXT	13/10/2003
2520230	OTIEXT	29/05/2009
2524216	OTIEXT	15/03/2004
2762771	OTIEXT	26/08/2009
2365677	OTIEXT	23/11/2008
2756982	OTIEXT	16/11/2002
2756861	OTIEXT	01/02/2010
2522731	OTIEXT	15/02/2011
17741931	OTIEXT	03/04/2003
17041600	OTIEXT	25/02/2011
17818675	OTIEXT	07/11/2004
2522124	OTIEXT	05/08/2006
2765504	OTIEXT	18/02/2003
15660220	OTIEXT	24/03/2009
2574986	OTIEXT	29/05/2007
2523637	OTIEXT	25/02/2009
14360982	OTIEXT	04/03/2010
14257722	OTIEXT	23/08/2009
16961600	OTIEXT	26/06/2003
16836413	OTIEXT	02/09/2004
16961992	OTIEXT	30/07/2010
16823527	OTIEXT	08/07/2009
12215748	OTIEXT	04/02/2003
26478046	OTIEXT	20/12/2007
28062656	OTIEXT	29/01/2010
26455768	OTIEXT	18/02/2009
28065993	OTIEXT	19/12/2001
26461804	OTIEXT	30/05/2006
28054168	OTIEXT	02/10/2006
28051262	OTIEXT	18/08/2008
26423896	OTIEXT	26/05/1999
26425755	OTIEXT	02/07/1999
28080890	OTIEXT	28/09/2006
26351849	OTIEXT	30/07/2004
26477539	OTIEXT	15/12/2006
26408902	OTIEXT	26/02/2009
28062793	OTIEXT	24/01/2000
26409445	OTIEXT	03/01/2009
26564907	OTIEXT	26/10/2006
26464583	OTIEXT	25/08/2008
26488067	OTIEXT	29/08/2007
18471721	OTIEXT	11/06/2003
17324362	OTIEXT	29/01/2007
26256480	OTIEXT	30/06/2004
18223470	OTIEXT	21/01/2005
26181280	OTIEXT	06/08/2004
23804442	OTIEXT	17/10/2008
18222850	OTIEXT	20/11/2008
26237160	OTIEXT	06/07/2010
7136827	OTIEXT	22/04/2003
17219245	OTIEXT	23/07/2010
26176701	OTIEXT	22/07/2006
10455373	OTIEXT	22/06/2008
8118544	OTIEXT	21/01/2008
7223764	OTIEXT	15/02/2003
17742562	OTIEXT	30/11/2005
7149053	OTIEXT	23/12/2009
19495436	OTIEXT	05/04/2010
7142308	OTIEXT	23/09/2004
18223290	OTIEXT	13/09/2005
26425415	OTIEXT	21/12/2005
26425357	OTIEXT	16/08/2006
26290885	OTIEXT	20/09/2010
26384096	OTIEXT	12/07/2007
26455732	OTIEXT	26/09/2005
26243831	OTIEXT	04/07/2010
26258038	OTIEXT	24/02/2007
28042198	OTIEXT	26/11/2003
28042210	OTIEXT	30/09/2004
26460224	OTIEXT	13/01/2006
26383120	OTIEXT	03/06/2009
26383122	OTIEXT	14/02/2007
24908384	OTIEXT	14/11/2002
18471446	OTIEXT	01/06/2011
26459370	OTIEXT	26/02/2010
17742404	OTIEXT	02/02/2011
26355054	OTIEXT	04/10/2006
26458743	OTIEXT	12/03/2003
26506163	OTIEXT	21/09/2006
17324116	OTIEXT	28/02/2005
26244631	OTIEXT	01/04/2005
26337609	OTIEXT	26/08/2008
26290677	OTIEXT	04/09/2007
26411120	OTIEXT	12/03/2004
26306610	OTIEXT	23/04/2003
28042688	OTIEXT	01/09/2005
16826989	OTIEXT	24/09/2003
10926333	OTIEXT	28/10/2006
16824519	OTIEXT	05/01/2010
16824531	OTIEXT	05/03/2004
8116823	OTIEXT	15/02/2008
16961631	OTIEXT	08/02/2008
16829573	OTIEXT	22/09/2005
16832631	OTIEXT	20/11/2010
11531641	OTIEXT	13/04/2003
11084819	OTIEXT	01/08/2006
16959538	OTIEXT	29/10/2006
17040546	OTIEXT	16/12/2004
7570211	OTIEXT	18/04/2011
17219101	OTIEXT	24/08/2003
10482938	OTIEXT	15/12/2008
16836479	OTIEXT	02/09/2004
423504	OTIEXT	15/02/2000
183388	OTIEXT	11/04/2007
437120	OTIEXT	10/09/2006
1908451	OTIEXT	26/07/2008
1903028	OTIEXT	02/11/2010
1903031	OTIEXT	18/05/2005
437549	OTIEXT	30/06/2005
180781	OTIEXT	28/07/2010
436094	OTIEXT	05/02/2003
1910935	OTIEXT	12/08/2003
301267	OTIEXT	08/12/2010
650061	OTIEXT	02/08/2002
2967304	OTIEXT	31/08/2009
650187	OTIEXT	07/04/2005
427169	OTIEXT	30/07/2001
4748192	OTIEXT	23/06/2010
302918	OTIEXT	06/05/2011
184942	OTIEXT	06/07/2009
435689	OTIEXT	25/06/2005
435701	OTIEXT	01/09/2003
306607	OTIEXT	22/04/2005
1019947	OTIEXT	20/06/2006
1900723	OTIEXT	23/03/2007
302264	OTIEXT	10/04/2008
185604	OTIEXT	28/01/2010
2966457	OTIEXT	09/08/2003
2964457	OTIEXT	09/08/2003
464564	OTIEXT	28/07/2010
464571	OTIEXT	08/09/2009
464603	OTIEXT	06/04/2004
2960079	OTIEXT	19/05/2010
28090208	OTIEXT	15/02/2011
28081504	OTIEXT	14/06/2004
16827076	OTIEXT	11/05/2007
26481213	OTIEXT	06/02/2007
16823937	OTIEXT	16/03/2005
4088131	OTIEXT	12/08/2009
28090753	OTIEXT	15/10/2008
28092074	OTIEXT	17/07/2003
16824251	OTIEXT	10/04/2007
28091919	OTIEXT	15/02/2008
3055456	OTIEXT	11/11/2004
26478054	OTIEXT	17/06/2010
3054239	OTIEXT	29/05/2001
28065816	OTIEXT	31/01/2002
8304018	OTIEXT	23/05/2007
902885	OTIEXT	12/02/2002
2219508	OTIEXT	08/11/2010
2039177	OTIEXT	12/03/2001
28082470	OTIEXT	10/01/2002
28091078	OTIEXT	02/07/2006
9880689	OTIEXT	05/08/2008
3049347	OTIEXT	08/10/2004
28078380	OTIEXT	28/05/2011
2378015	OTIEXT	11/03/2009
18471524	OTIEXT	17/07/2003
28087610	OTIEXT	11/11/2009
13520117	OTIEXT	06/10/2006
2040821	OTIEXT	17/09/2007
6418160	OTIEXT	25/02/2009
7134485	OTIEXT	27/03/2008
7137629	OTIEXT	11/07/2007
17741586	OTIEXT	15/12/2009
303041	OTIEXT	26/02/2003
6992366	OTIEXT	19/08/2009
26261706	OTIEXT	18/06/2010
181538	OTIEXT	08/09/2006
620203	OTIEXT	04/01/2007
266554	OTIEXT	24/05/2009
423324	OTIEXT	05/05/2006
434399	OTIEXT	14/04/2006
437354	OTIEXT	12/04/2003
427372	OTIEXT	08/05/2007
184746	OTIEXT	05/10/2004
437604	OTIEXT	24/07/2002
437623	OTIEXT	13/08/2003
649601	OTIEXT	05/08/2003
187861	OTIEXT	29/05/2009
302602	OTIEXT	19/09/2008
179777	OTIEXT	30/06/2004
179817	OTIEXT	24/11/2005
428157	OTIEXT	23/06/2007
428159	OTIEXT	27/07/2005
418234	OTIEXT	06/11/2000
437195	OTIEXT	13/08/2010
183588	OTIEXT	28/07/2006
464887	OTIEXT	31/07/2007
649885	OTIEXT	04/09/2009
28090511	OTIEXT	05/06/2008
421022	OTIEXT	08/09/2005
648824	OTIEXT	06/02/2011
180024	OTIEXT	23/06/2005
28070991	OTIEXT	26/03/2003
28086732	OTIEXT	30/07/2003
28063724	OTIEXT	17/10/2005
28062418	OTIEXT	11/01/2001
28071933	OTIEXT	04/08/2004
28053640	OTIEXT	29/01/2009
28065837	OTIEXT	16/12/2009
28044311	OTIEXT	25/07/2006
28055506	OTIEXT	29/12/2010
28066154	OTIEXT	20/06/2001
28072507	OTIEXT	07/08/2002
28072361	OTIEXT	04/08/2006
28051807	OTIEXT	21/04/2003
28069726	OTIEXT	11/09/2009
28066044	OTIEXT	07/08/2008
28078808	OTIEXT	26/07/2005
28071181	OTIEXT	19/04/2005
28074972	OTIEXT	23/09/2009
28071034	OTIEXT	18/01/2011
28085264	OTIEXT	30/09/2010
859404	OTIEXT	06/08/2008
26477728	OTIEXT	29/06/2007
28057599	OTIEXT	21/05/2005
28056412	OTIEXT	06/02/2006
28056690	OTIEXT	02/07/2007
28071392	OTIEXT	03/06/2009
26476057	OTIEXT	07/06/2006
24657144	OTIEXT	07/10/2008
24665617	OTIEXT	25/06/2009
24669803	OTIEXT	17/10/2005
24660602	OTIEXT	12/04/2011
25727444	OTIEXT	27/07/2009
24670871	OTIEXT	22/06/2009
24664725	OTIEXT	16/02/2006
24658550	OTIEXT	27/01/2010
24660846	OTIEXT	17/01/2005
25600261	OTIEXT	30/04/2009
25641669	OTIEXT	24/02/2011
24662993	OTIEXT	13/08/2003
24660214	OTIEXT	07/09/2010
24660225	OTIEXT	15/02/2010
24666997	OTIEXT	06/03/2009
25740455	OTIEXT	29/01/2007
26622202	OTIEXT	05/04/2008
25740001	OTIEXT	03/04/2003
1361265	OTIEXT	18/07/2000
18187243	OTIEXT	13/08/2003
1369798	OTIEXT	28/12/2007
178500	OTIEXT	14/09/2004
178537	OTIEXT	26/08/1999
1361493	OTIEXT	18/08/2007
1343858	OTIEXT	11/05/1999
1028738	OTIEXT	21/12/2008
1015611	OTIEXT	02/08/2005
1908113	OTIEXT	21/07/2010
1372836	OTIEXT	28/01/2004
1374276	OTIEXT	23/03/2007
1368600	OTIEXT	11/05/2004
1370134	OTIEXT	04/02/2008
1360745	OTIEXT	22/06/2010
1903723	OTIEXT	10/08/1999
1360800	OTIEXT	31/08/2007
1028230	OTIEXT	14/07/2009
618395	OTIEXT	02/07/2003
1367632	OTIEXT	18/07/2010
1371686	OTIEXT	15/06/2010
18192655	OTIEXT	31/10/2007
1913183	OTIEXT	09/10/2006
1367175	OTIEXT	14/03/2003
1366687	OTIEXT	08/10/2004
1366697	OTIEXT	30/11/2000
1908241	OTIEXT	04/09/2008
1013203	OTIEXT	11/08/2008
16566958	OTIEXT	13/03/2011
1371015	OTIEXT	20/06/2006
18198609	OTIEXT	15/03/2011
1017369	OTIEXT	07/08/2003
1360957	OTIEXT	05/07/2006
422239	OTIEXT	02/08/2007
21063153	OTIEXT	29/04/2011
16841283	OTIEXT	30/05/2007
21065700	OTIEXT	01/08/2002
18199400	OTIEXT	22/05/2008
21650458	OTIEXT	20/09/2007
16840863	OTIEXT	06/10/2006
18196870	OTIEXT	13/05/2010
16817217	OTIEXT	05/02/2002
19279900	OTIEXT	12/05/2004
18192502	OTIEXT	20/10/2001
16841205	OTIEXT	26/07/2009
16840957	OTIEXT	28/02/2009
18191207	OTIEXT	19/11/2001
21063481	OTIEXT	28/03/2006
19801055	OTIEXT	25/04/2006
19790450	OTIEXT	14/02/2008
21063510	OTIEXT	29/07/2010
18187579	OTIEXT	22/05/2008
18188014	OTIEXT	03/06/2005
18197637	OTIEXT	05/01/2010
18195654	OTIEXT	30/08/2004
18195212	OTIEXT	11/09/2006
17596151	OTIEXT	23/10/2007
2987559	OTIEXT	24/10/2007
1022535	OTIEXT	24/10/2006
1022560	OTIEXT	25/08/2003
2987616	OTIEXT	25/02/2006
1369305	OTIEXT	15/07/2009
2988749	OTIEXT	04/02/2009
2961611	OTIEXT	09/06/2004
2997587	OTIEXT	11/03/2011
1043086	OTIEXT	11/12/2008
1906254	OTIEXT	26/12/2002
1343014	OTIEXT	26/06/2008
1912671	OTIEXT	03/01/2008
1904472	OTIEXT	18/08/2003
1361578	OTIEXT	24/10/2005
1361752	OTIEXT	31/08/2004
418928	OTIEXT	15/06/2003
2997814	OTIEXT	23/03/2005
1015243	OTIEXT	10/09/2010
2997982	OTIEXT	12/07/2010
6563463	OTIEXT	12/03/2011
1368352	OTIEXT	21/08/2003
1368375	OTIEXT	23/07/2007
1017453	OTIEXT	17/08/2008
1363174	OTIEXT	24/02/2006
2962153	OTIEXT	30/03/2009
26640897	OTIEXT	13/02/2005
26831859	OTIEXT	16/05/2007
26805953	OTIEXT	22/07/2009
26776551	OTIEXT	29/03/2011
26699948	OTIEXT	25/03/2003
26793792	OTIEXT	23/11/2007
26774025	OTIEXT	11/12/2007
26719714	OTIEXT	06/07/2009
26719068	OTIEXT	10/04/2006
26825417	OTIEXT	04/09/2010
26775659	OTIEXT	09/06/2004
26628463	OTIEXT	07/02/2008
26625877	OTIEXT	16/05/2011
26639040	OTIEXT	03/08/2006
26720817	OTIEXT	21/03/2011
26801033	OTIEXT	03/04/2007
26635911	OTIEXT	17/07/2010
26805040	OTIEXT	17/10/2009
26704023	OTIEXT	17/02/2003
26835974	OTIEXT	10/10/2008
26856143	OTIEXT	10/07/2008
26804285	OTIEXT	11/04/2011
2988700	OTIEXT	17/06/2006
14311192	OTIEXT	03/05/2006
16844467	OTIEXT	11/08/2007
16842212	OTIEXT	26/07/2005
16820134	OTIEXT	17/12/2010
12975498	OTIEXT	04/03/2008
12878243	OTIEXT	18/12/2005
12952428	OTIEXT	11/11/2004
12952403	OTIEXT	25/05/2010
16105363	OTIEXT	17/01/2007
16104391	OTIEXT	15/03/2006
9064126	OTIEXT	03/07/2007
11943566	OTIEXT	25/01/2007
12993696	OTIEXT	21/11/2006
12993701	OTIEXT	03/04/2003
16085135	OTIEXT	03/05/2010
10824694	OTIEXT	25/06/2010
16820284	OTIEXT	02/12/2009
24593705	OTIEXT	11/07/2000
24485183	OTIEXT	23/06/2006
12952534	OTIEXT	17/10/2002
16105440	OTIEXT	20/04/2004
24661095	OTIEXT	16/04/2010
24579211	OTIEXT	11/10/2009
12951467	OTIEXT	22/11/2007
10770156	OTIEXT	04/04/2011
2996458	OTIEXT	25/06/1999
16567620	OTIEXT	11/08/2003
12975801	OTIEXT	18/08/2003
16844100	OTIEXT	22/07/2008
9025807	OTIEXT	15/11/2005
16844351	OTIEXT	13/02/2007
24654532	OTIEXT	12/07/2002
17161572	OTIEXT	28/07/2004
12952587	OTIEXT	29/08/2010
16105286	OTIEXT	05/08/2004
12953486	OTIEXT	21/10/2009
24654552	OTIEXT	09/06/2006
13871955	OTIEXT	09/05/2007
10824903	OTIEXT	31/07/2009
2996761	OTIEXT	12/02/2009
16844360	OTIEXT	06/02/2009
26722558	OTIEXT	18/05/2009
26623053	OTIEXT	17/07/2006
26707001	OTIEXT	14/02/2007
12975538	OTIEXT	13/09/2010
16105651	OTIEXT	27/06/2003
26625626	OTIEXT	13/11/2010
26627995	OTIEXT	01/08/2008
12975349	OTIEXT	22/05/2006
26720966	OTIEXT	16/10/2010
26622322	OTIEXT	28/02/2011
26638734	OTIEXT	05/12/2004
26616690	OTIEXT	19/12/2007
12994993	OTIEXT	25/08/2009
26639138	OTIEXT	13/02/2007
16843464	OTIEXT	14/07/2010
16843475	OTIEXT	04/11/2004
16841887	OTIEXT	13/02/2008
26620306	OTIEXT	03/08/2009
10759057	OTIEXT	22/07/2008
2989932	OTIEXT	10/05/2004
26620573	OTIEXT	27/07/2005
26706433	OTIEXT	28/11/2006
26720626	OTIEXT	24/09/2002
26718324	OTIEXT	19/02/2003
3264626	OTIEXT	06/07/2009
26643138	OTIEXT	24/08/2005
26703240	OTIEXT	27/07/2006
24485512	OTIEXT	04/11/2005
22882013	OTIEXT	15/11/2002
21651512	OTIEXT	08/09/2009
24658335	OTIEXT	25/08/2009
24594098	OTIEXT	03/03/2011
24594122	OTIEXT	08/11/2010
24485583	OTIEXT	06/02/2010
24663248	OTIEXT	17/08/2008
19966968	OTIEXT	12/08/2008
24654931	OTIEXT	12/12/2008
24593668	OTIEXT	26/03/2004
21581808	OTIEXT	05/04/2007
21581847	OTIEXT	21/02/2007
22621949	OTIEXT	26/06/2002
22909924	OTIEXT	25/06/2010
21581713	OTIEXT	23/07/2004
22922409	OTIEXT	01/07/2002
24656922	OTIEXT	26/12/2001
24656327	OTIEXT	05/05/2011
22883392	OTIEXT	16/08/2009
22882165	OTIEXT	05/08/2006
22922790	OTIEXT	13/07/2006
24580412	OTIEXT	10/05/2004
24579654	OTIEXT	06/04/2010
20331537	OTIEXT	28/07/2009
21651863	OTIEXT	20/01/2010
24578434	OTIEXT	02/08/2008
24578829	OTIEXT	23/07/2007
24503300	OTIEXT	13/03/2002
24593848	OTIEXT	19/04/2005
24576929	OTIEXT	08/08/2005
26890532	OTIEXT	07/01/2011
26948499	OTIEXT	15/07/2008
26936348	OTIEXT	05/12/2008
26912476	OTIEXT	23/01/2003
26936321	OTIEXT	21/08/2002
26896002	OTIEXT	11/04/2008
26948731	OTIEXT	14/08/2006
26897692	OTIEXT	10/08/2010
26938864	OTIEXT	09/08/2004
26944866	OTIEXT	25/01/2006
26896346	OTIEXT	10/07/2008
26900691	OTIEXT	26/08/2009
26917699	OTIEXT	20/08/2008
26916982	OTIEXT	23/09/2009
26946970	OTIEXT	13/09/2002
26901476	OTIEXT	30/06/2007
26916199	OTIEXT	09/09/2009
26932224	OTIEXT	16/07/2004
26938134	OTIEXT	24/05/2010
26936020	OTIEXT	15/03/2002
26896385	OTIEXT	29/05/2007
26938632	OTIEXT	03/07/2006
26948185	OTIEXT	22/12/2008
26933470	OTIEXT	24/06/2005
26714804	OTIEXT	08/09/2008
26728428	OTIEXT	22/07/2010
26900097	OTIEXT	25/02/2006
26873578	OTIEXT	31/08/2010
26720306	OTIEXT	25/11/2009
26900257	OTIEXT	15/04/2009
26754178	OTIEXT	02/08/2010
26762365	OTIEXT	14/11/2005
26716003	OTIEXT	03/10/2008
26742016	OTIEXT	06/10/2009
26713107	OTIEXT	04/04/2007
26853290	OTIEXT	09/03/2006
26761686	OTIEXT	24/11/2008
26730108	OTIEXT	14/08/2006
26869278	OTIEXT	09/04/2006
26769910	OTIEXT	03/03/2011
26728298	OTIEXT	04/11/2005
26714937	OTIEXT	05/01/2006
26714948	OTIEXT	20/07/2005
26710863	OTIEXT	14/12/2005
26762007	OTIEXT	27/08/2009
26883943	OTIEXT	11/04/2005
26780527	OTIEXT	23/08/2010
26779298	OTIEXT	10/04/2007
26725743	OTIEXT	03/08/2009
26782413	OTIEXT	08/03/2011
26878229	OTIEXT	09/08/2007
26711798	OTIEXT	02/07/2008
26728966	OTIEXT	04/08/2008
26867344	OTIEXT	30/08/2010
26869072	OTIEXT	14/04/2010
26872902	OTIEXT	18/10/1999
26874283	OTIEXT	24/07/2009
26853342	OTIEXT	23/03/2011
26937953	OTIEXT	30/12/2004
26878683	OTIEXT	15/10/2007
26882202	OTIEXT	24/07/2009
26849622	OTIEXT	09/03/2011
26944507	OTIEXT	23/03/2004
26862957	OTIEXT	25/06/2009
26883511	OTIEXT	20/07/2009
26857964	OTIEXT	20/07/2005
26859561	OTIEXT	04/10/2007
26881560	OTIEXT	10/03/2008
26848149	OTIEXT	30/06/2006
26876768	OTIEXT	11/09/2006
26851788	OTIEXT	02/06/2010
26851800	OTIEXT	18/11/2005
26795906	OTIEXT	27/08/2010
26780794	OTIEXT	04/03/2008
26824327	OTIEXT	03/03/2007
26791998	OTIEXT	06/05/2010
26801395	OTIEXT	21/10/1997
26792943	OTIEXT	03/05/2011
26829999	OTIEXT	11/08/2006
26792107	OTIEXT	12/06/2006
26805696	OTIEXT	20/04/2011
26727767	OTIEXT	03/01/2007
26713687	OTIEXT	26/06/2003
26830622	OTIEXT	29/07/2004
26776380	OTIEXT	22/03/2005
26831366	OTIEXT	09/08/2006
26812125	OTIEXT	31/08/2005
26850367	OTIEXT	16/05/2008
26753114	OTIEXT	06/06/2008
26853016	OTIEXT	02/11/2004
26726321	OTIEXT	06/07/2010
26791959	OTIEXT	13/04/2011
26853251	OTIEXT	19/06/2008
26711151	OTIEXT	24/09/2010
26834817	OTIEXT	25/02/2009
26825165	OTIEXT	17/07/2009
26775366	OTIEXT	20/01/2011
26774723	OTIEXT	04/08/2008
26777422	OTIEXT	07/02/2008
26776165	OTIEXT	10/07/2006
26716075	OTIEXT	10/06/2010
26941645	OTIEXT	01/07/2003
27002739	OTIEXT	04/06/2010
26955265	OTIEXT	27/07/2005
26949108	OTIEXT	08/09/2009
26941704	OTIEXT	31/12/2003
27052252	OTIEXT	15/11/2004
26989418	OTIEXT	07/05/2010
26977552	OTIEXT	14/03/2011
27061273	OTIEXT	20/08/2009
26963646	OTIEXT	08/04/2009
26957085	OTIEXT	21/09/2009
27032728	OTIEXT	19/08/2003
26995388	OTIEXT	30/06/2008
26989053	OTIEXT	03/11/2005
26957609	OTIEXT	01/08/2008
26956977	OTIEXT	22/07/2009
26989770	OTIEXT	07/06/2006
26989365	OTIEXT	22/02/2010
27061399	OTIEXT	10/05/2010
27034735	OTIEXT	15/11/2007
27029751	OTIEXT	24/02/2009
27066870	OTIEXT	20/06/2006
27066915	OTIEXT	14/01/2010
27071926	OTIEXT	20/02/2006
26972976	OTIEXT	11/05/2004
26988906	OTIEXT	26/04/2007
26992035	OTIEXT	01/11/2009
27103339	OTIEXT	19/10/2009
27106289	OTIEXT	26/07/2006
27126956	OTIEXT	18/05/2011
27086485	OTIEXT	06/09/2006
27114160	OTIEXT	26/08/2003
27061932	OTIEXT	30/07/2009
27080165	OTIEXT	29/10/2010
27100681	OTIEXT	26/02/2007
27035579	OTIEXT	16/05/2011
27099915	OTIEXT	31/08/2009
27103473	OTIEXT	01/04/2010
27133523	OTIEXT	21/10/2004
27106469	OTIEXT	29/12/2004
27100651	OTIEXT	07/11/2009
27021728	OTIEXT	08/11/2006
27084973	OTIEXT	15/07/2009
27087755	OTIEXT	28/02/2009
27031209	OTIEXT	15/12/2003
27055317	OTIEXT	31/03/2009
27126993	OTIEXT	13/09/2002
27061482	OTIEXT	03/01/2011
27046890	OTIEXT	31/12/2003
27043827	OTIEXT	21/07/2006
27067240	OTIEXT	03/09/2007
27048458	OTIEXT	26/08/2010
27061759	OTIEXT	07/12/2004
27044414	OTIEXT	26/03/2004
27074517	OTIEXT	01/08/2008
27042973	OTIEXT	27/07/2004
27063859	OTIEXT	07/10/2007
27056963	OTIEXT	09/05/2000
27113047	OTIEXT	12/12/2002
27052581	OTIEXT	27/01/2005
27113090	OTIEXT	21/11/2006
27034650	OTIEXT	18/08/2003
27055530	OTIEXT	29/06/2010
27053590	OTIEXT	27/07/2009
27037293	OTIEXT	10/09/2010
27038432	OTIEXT	10/09/2009
27028876	OTIEXT	24/07/2004
26982178	OTIEXT	07/08/2009
27041065	OTIEXT	31/10/2010
26979025	OTIEXT	02/11/2007
27023693	OTIEXT	19/07/2003
27012009	OTIEXT	22/04/2009
27012024	OTIEXT	02/01/2010
26978375	OTIEXT	10/10/2007
26978590	OTIEXT	28/06/2009
27041316	OTIEXT	13/05/2004
26981638	OTIEXT	08/01/2004
26998818	OTIEXT	28/07/2006
27002859	OTIEXT	16/11/2006
27042240	OTIEXT	12/05/2005
27021411	OTIEXT	27/07/2005
27039150	OTIEXT	10/09/2008
27021879	OTIEXT	02/08/2004
27012120	OTIEXT	31/10/2006
27002578	OTIEXT	03/10/2007
27036260	OTIEXT	07/05/2008
27022026	OTIEXT	10/08/2004
27039199	OTIEXT	21/03/2006
27041910	OTIEXT	02/12/2003
27014990	OTIEXT	13/05/2011
27005644	OTIEXT	13/02/2010
27039848	OTIEXT	30/09/2003
27211585	OTIEXT	20/08/2005
27150732	OTIEXT	03/06/2002
27346535	OTIEXT	18/02/2011
27379761	OTIEXT	02/02/2010
27362443	OTIEXT	30/09/2005
27285986	OTIEXT	30/03/2006
27166936	OTIEXT	10/06/2010
27327912	OTIEXT	27/01/2011
27325913	OTIEXT	30/08/2010
27286905	OTIEXT	20/08/2007
27170907	OTIEXT	31/01/2008
27357217	OTIEXT	25/05/2007
27385659	OTIEXT	25/08/1999
27346964	OTIEXT	12/07/2007
27350595	OTIEXT	07/10/2004
27369270	OTIEXT	04/02/2009
27165895	OTIEXT	09/01/2007
27171067	OTIEXT	18/12/2006
27143681	OTIEXT	10/12/2010
27388635	OTIEXT	30/11/2007
27146949	OTIEXT	16/05/2007
27383911	OTIEXT	10/08/2010
27354142	OTIEXT	04/08/2009
27284739	OTIEXT	02/09/2010
27387977	OTIEXT	18/10/2010
27346085	OTIEXT	29/12/2010
27169084	OTIEXT	08/07/2005
27166818	OTIEXT	09/03/2009
27218921	OTIEXT	04/10/2005
27218931	OTIEXT	10/12/2007
27169975	OTIEXT	07/10/2004
27309287	OTIEXT	11/06/2007
27356310	OTIEXT	26/10/2009
27211089	OTIEXT	16/02/2009
27200696	OTIEXT	16/08/2006
27200697	OTIEXT	09/08/2004
27250543	OTIEXT	19/08/2004
27237978	OTIEXT	05/10/2006
27238010	OTIEXT	31/05/2009
27219070	OTIEXT	20/10/2008
27253999	OTIEXT	17/08/2005
27306920	OTIEXT	09/02/2008
27396771	OTIEXT	16/10/2006
27251650	OTIEXT	26/01/2006
27369449	OTIEXT	07/03/2011
27210678	OTIEXT	22/03/2011
27215554	OTIEXT	10/04/2010
27368002	OTIEXT	05/11/2007
27304667	OTIEXT	05/09/2005
27251223	OTIEXT	15/09/2006
27295913	OTIEXT	01/06/2010
27359229	OTIEXT	02/09/2008
27363578	OTIEXT	30/05/2011
27389824	OTIEXT	24/06/2005
27369620	OTIEXT	21/11/2005
27349891	OTIEXT	20/07/2010
27357542	OTIEXT	01/03/2011
27346294	OTIEXT	23/08/2010
27364443	OTIEXT	19/11/2003
27348355	OTIEXT	28/12/2010
27308015	OTIEXT	01/03/2008
27305367	OTIEXT	23/09/2009
27316017	OTIEXT	21/06/2002
27368240	OTIEXT	31/08/2009
27306621	OTIEXT	07/03/2006
27306964	OTIEXT	30/03/2006
27306966	OTIEXT	02/09/2010
27390428	OTIEXT	08/03/2007
27221923	OTIEXT	27/06/2010
26994333	OTIEXT	23/06/2006
26989934	OTIEXT	10/09/2010
27232800	OTIEXT	01/04/2009
26998337	OTIEXT	09/08/2005
27199256	OTIEXT	25/01/2010
27173410	OTIEXT	14/05/2010
26999911	OTIEXT	07/05/2009
27173478	OTIEXT	02/09/2010
26976230	OTIEXT	20/12/2005
26992519	OTIEXT	26/08/2005
26968859	OTIEXT	06/02/2007
27251281	OTIEXT	03/05/2011
27228741	OTIEXT	10/05/2004
27230961	OTIEXT	23/05/2007
27173281	OTIEXT	15/03/2005
27231345	OTIEXT	19/09/2001
27201094	OTIEXT	02/08/2008
26977456	OTIEXT	23/10/2004
26967092	OTIEXT	19/10/2010
26958964	OTIEXT	26/11/1997
27286684	OTIEXT	30/07/2004
27232587	OTIEXT	13/03/2009
27253579	OTIEXT	30/12/2009
27246020	OTIEXT	02/08/2005
26960683	OTIEXT	31/07/2010
26960523	OTIEXT	22/08/2008
26960524	OTIEXT	08/10/2008
26954591	OTIEXT	17/07/2009
26988730	OTIEXT	17/03/2006
27169775	OTIEXT	14/05/2010
27243998	OTIEXT	24/01/2002
26967685	OTIEXT	03/02/2010
27196869	OTIEXT	25/06/2007
26999643	OTIEXT	09/03/2005
27001265	OTIEXT	18/01/2007
26989612	OTIEXT	29/07/2009
27605673	OTIEXT	27/07/2006
27657732	OTIEXT	07/10/2009
27589319	OTIEXT	15/02/2008
27604346	OTIEXT	30/03/2011
27575771	OTIEXT	31/05/2007
27595904	OTIEXT	24/02/2006
27592893	OTIEXT	11/01/2008
27592896	OTIEXT	24/09/2007
27574680	OTIEXT	21/10/2010
27575329	OTIEXT	24/04/2010
27578349	OTIEXT	30/05/2006
27618071	OTIEXT	12/01/2009
27597440	OTIEXT	02/04/2007
27548002	OTIEXT	05/02/2010
27593071	OTIEXT	16/09/2005
27596793	OTIEXT	25/08/2005
27641540	OTIEXT	26/06/2008
27590877	OTIEXT	17/05/2011
27600442	OTIEXT	21/07/2009
27623958	OTIEXT	01/10/2009
27570888	OTIEXT	29/12/2010
27574834	OTIEXT	04/04/2008
27759805	OTIEXT	08/11/2003
27577871	OTIEXT	07/01/2009
27591859	OTIEXT	08/09/2005
27589421	OTIEXT	30/09/2004
27660850	OTIEXT	16/05/2005
27631969	OTIEXT	18/07/2005
27623983	OTIEXT	28/12/2005
27623554	OTIEXT	21/07/2005
27601592	OTIEXT	30/08/2006
27595843	OTIEXT	28/08/2006
27575921	OTIEXT	29/09/2007
27622577	OTIEXT	24/06/2009
27606372	OTIEXT	11/11/2008
27641838	OTIEXT	25/04/2011
27578159	OTIEXT	31/07/2006
27574894	OTIEXT	29/06/2010
27578571	OTIEXT	16/05/2009
27633482	OTIEXT	15/07/2008
27641028	OTIEXT	27/10/2009
27451933	OTIEXT	30/10/2007
27645831	OTIEXT	16/03/2007
27471234	OTIEXT	14/10/2005
27660500	OTIEXT	21/10/2006
27484556	OTIEXT	05/07/2005
27478900	OTIEXT	29/07/2005
27476748	OTIEXT	01/08/2005
27478312	OTIEXT	14/05/2008
27484738	OTIEXT	03/04/2006
27445919	OTIEXT	14/08/2009
27453751	OTIEXT	11/10/2007
27443998	OTIEXT	12/04/2005
27451954	OTIEXT	06/06/2004
27484203	OTIEXT	22/08/2008
27479422	OTIEXT	10/08/2010
27442209	OTIEXT	27/07/2005
27642593	OTIEXT	26/07/2005
27492885	OTIEXT	30/03/2011
27569334	OTIEXT	23/11/2009
27551559	OTIEXT	13/03/2002
27622861	OTIEXT	16/11/2010
27564660	OTIEXT	26/10/2006
27567475	OTIEXT	02/10/2009
27614798	OTIEXT	28/04/2011
27764873	OTIEXT	27/05/2005
27569742	OTIEXT	15/01/2010
27618223	OTIEXT	31/08/2010
27618240	OTIEXT	30/08/2004
27763363	OTIEXT	22/05/2007
27621282	OTIEXT	29/04/2010
27570581	OTIEXT	15/10/2007
27614661	OTIEXT	04/01/2005
27621743	OTIEXT	25/06/2008
27616396	OTIEXT	20/08/2008
27565580	OTIEXT	29/07/2006
27720952	OTIEXT	03/08/2004
27720960	OTIEXT	27/07/2006
27572910	OTIEXT	02/08/2006
27565661	OTIEXT	18/05/2011
27617784	OTIEXT	06/07/2006
27570840	OTIEXT	28/04/2009
27565888	OTIEXT	30/06/2004
27546338	OTIEXT	01/12/2006
27633086	OTIEXT	24/11/2009
27568014	OTIEXT	27/09/2001
27479047	OTIEXT	24/06/2009
27234266	OTIEXT	26/11/2010
27243482	OTIEXT	19/11/2004
27148558	OTIEXT	30/07/2010
27129360	OTIEXT	19/05/2005
27130996	OTIEXT	28/08/2010
27137709	OTIEXT	05/05/2011
27283905	OTIEXT	13/08/2009
27284523	OTIEXT	04/06/2006
27160286	OTIEXT	07/10/2009
27152530	OTIEXT	04/07/2008
27445969	OTIEXT	03/02/2010
27161111	OTIEXT	01/10/2008
27285551	OTIEXT	01/06/2008
27154137	OTIEXT	30/07/2008
27165153	OTIEXT	14/07/2009
27161557	OTIEXT	12/07/2006
27161354	OTIEXT	29/08/2008
27284148	OTIEXT	13/08/2007
27150419	OTIEXT	20/08/2004
27167078	OTIEXT	23/02/2005
27167562	OTIEXT	24/08/2006
27232543	OTIEXT	01/08/2005
27161899	OTIEXT	12/07/2010
27768129	OTIEXT	15/09/2003
26954350	OTIEXT	23/02/2007
27125723	OTIEXT	29/08/2003
26701820	OTIEXT	22/08/2003
27591531	OTIEXT	01/02/2005
27128283	OTIEXT	14/04/2003
27303081	OTIEXT	23/08/2008
26969021	OTIEXT	27/10/2005
27025269	OTIEXT	24/01/2004
24654692	OTIEXT	08/03/2001
24661425	OTIEXT	29/10/2009
27659130	OTIEXT	27/06/2006
27101650	OTIEXT	22/05/2009
27219474	OTIEXT	13/09/2010
27360727	OTIEXT	29/04/2010
27105042	OTIEXT	17/11/2010
27597550	OTIEXT	01/09/2005
266530	OTIEXT	19/12/2006
462371	OTIEXT	07/07/2007
21064783	OTIEXT	29/08/2001
27038840	OTIEXT	19/08/2004
27475185	OTIEXT	07/08/2009
27772053	OTIEXT	06/06/2005
27665197	OTIEXT	11/03/2004
27774345	OTIEXT	18/03/2003
27766630	OTIEXT	01/08/2006
27683287	OTIEXT	14/05/2009
27773248	OTIEXT	28/06/2010
27771832	OTIEXT	22/08/2005
27779059	OTIEXT	19/07/2010
27718052	OTIEXT	01/02/2006
27686849	OTIEXT	11/01/2010
27508546	OTIEXT	12/09/2003
27563265	OTIEXT	03/11/2001
27680128	OTIEXT	09/09/2008
27685556	OTIEXT	05/02/2002
27676634	OTIEXT	04/07/2007
27473835	OTIEXT	30/03/2011
27459362	OTIEXT	24/12/2007
27685025	OTIEXT	31/01/2001
27678951	OTIEXT	26/07/2010
27778129	OTIEXT	09/01/2004
27708450	OTIEXT	08/08/2007
27674475	OTIEXT	12/02/2010
27478598	OTIEXT	11/09/2010
27678368	OTIEXT	17/08/2009
27531095	OTIEXT	17/07/2008
27676570	OTIEXT	04/08/2008
27784434	OTIEXT	05/10/2010
27775441	OTIEXT	28/12/2006
27772297	OTIEXT	07/09/2006
27680700	OTIEXT	01/06/2010
27244646	OTIEXT	11/01/2003
27356200	OTIEXT	20/10/2003
27531259	OTIEXT	20/05/2008
27570153	OTIEXT	11/08/2009
27772974	OTIEXT	05/12/2007
26977152	OTIEXT	25/11/2009
27675759	OTIEXT	28/07/2003
1343895	OTIEXT	22/06/2006
27062706	OTIEXT	11/01/2007
27361147	OTIEXT	23/02/2011
24582605	OTIEXT	28/02/2007
20331239	OTIEXT	09/11/2004
27678211	OTIEXT	23/04/2002
27079586	OTIEXT	12/08/2009
25728108	OTIEXT	03/02/2006
27767036	OTIEXT	14/10/2003
27784086	OTIEXT	29/05/2008
27082032	OTIEXT	28/07/2009
27165990	OTIEXT	05/04/2009
27708482	OTIEXT	09/06/2009
26717973	OTIEXT	18/07/2005
27082259	OTIEXT	12/06/2006
27215874	OTIEXT	17/10/2006
27771544	OTIEXT	28/09/2006
27367916	OTIEXT	21/02/2008
27446505	OTIEXT	12/11/2008
27304626	OTIEXT	27/12/2006
27304632	OTIEXT	18/07/2005
27649889	OTIEXT	12/03/2006
27657801	OTIEXT	05/11/2003
27575411	OTIEXT	20/07/2009
27449900	OTIEXT	19/12/2005
27320881	OTIEXT	31/07/2007
27473750	OTIEXT	16/10/2007
27659490	OTIEXT	04/12/2003
27482343	OTIEXT	17/07/2007
27659082	OTIEXT	30/07/2008
27533055	OTIEXT	27/01/2009
27459556	OTIEXT	19/06/2008
27573978	OTIEXT	10/11/2009
27573988	OTIEXT	03/07/2004
27528690	OTIEXT	23/08/2005
27614281	OTIEXT	01/05/2009
27591699	OTIEXT	11/09/2007
27618797	OTIEXT	28/07/2008
27615908	OTIEXT	18/07/2007
27512143	OTIEXT	21/01/2004
27475366	OTIEXT	27/03/2007
27449842	OTIEXT	27/01/2004
27620995	OTIEXT	31/05/2010
27527929	OTIEXT	14/06/2004
27307759	OTIEXT	19/08/2010
27799332	OTIEXT	05/03/2008
27758007	OTIEXT	09/03/2004
27668046	OTIEXT	18/06/1998
27553310	OTIEXT	31/07/2002
27074467	OTIEXT	22/08/2006
27346632	OTIEXT	19/12/2010
13873906	OTIEXT	04/10/2007
26624785	OTIEXT	31/03/2007
26854951	OTIEXT	27/07/2009
27214891	OTIEXT	28/12/2010
24668612	OTIEXT	16/08/2008
27794597	OTIEXT	06/11/2003
27798131	OTIEXT	27/09/2006
26948254	OTIEXT	30/12/2010
21553689	OTIEXT	03/08/2007
26804417	OTIEXT	21/09/2006
26935988	OTIEXT	22/08/2003
27389399	OTIEXT	28/10/2004
26724711	OTIEXT	09/07/2004
26711147	OTIEXT	17/03/2010
9072497	OTIEXT	28/06/2002
27000730	OTIEXT	03/09/2009
27132526	OTIEXT	01/05/2010
27803463	OTIEXT	28/11/2008
27563581	OTIEXT	30/07/2004
27319324	OTIEXT	27/05/2008
1912943	OTIEXT	01/03/2007
27812607	OTIEXT	25/10/2007
27673749	OTIEXT	17/06/2004
27664675	OTIEXT	05/01/2008
27797221	OTIEXT	07/05/2007
27793622	OTIEXT	30/06/2004
27759567	OTIEXT	20/11/2002
27759574	OTIEXT	15/03/2007
27803956	OTIEXT	20/08/2007
27809731	OTIEXT	23/01/2009
27718465	OTIEXT	03/01/2008
27793739	OTIEXT	20/07/2009
27759597	OTIEXT	22/09/2003
27797324	OTIEXT	06/05/2005
27809473	OTIEXT	24/07/2008
27806447	OTIEXT	24/07/2007
27707606	OTIEXT	23/04/2009
27677462	OTIEXT	18/06/2004
27797733	OTIEXT	07/08/2009
27797371	OTIEXT	19/01/2005
27664631	OTIEXT	23/05/2005
27758954	OTIEXT	21/12/2009
27685358	OTIEXT	05/11/2002
27794453	OTIEXT	04/10/2007
27063601	OTIEXT	22/08/2009
27766338	OTIEXT	28/08/2007
27709451	OTIEXT	01/10/2008
27797674	OTIEXT	21/09/2006
27763308	OTIEXT	05/09/2006
27716826	OTIEXT	22/08/2009
27665598	OTIEXT	10/03/2006
27670711	OTIEXT	24/12/1998
27797548	OTIEXT	18/05/2007
27682885	OTIEXT	15/03/2007
27666478	OTIEXT	06/06/2002
27285750	OTIEXT	13/09/2010
27764267	OTIEXT	24/12/2007
27758552	OTIEXT	24/04/2007
27684475	OTIEXT	08/03/2006
27662240	OTIEXT	26/02/2010
184548	OTIEXT	09/06/2007
27765080	OTIEXT	15/03/2010
1905372	OTIEXT	02/09/2008
26969095	OTIEXT	23/09/2008
27667214	OTIEXT	08/06/2001
2967286	OTIEXT	27/07/2006
2962517	OTIEXT	10/06/2005
27642769	OTIEXT	29/11/2005
1368878	OTIEXT	04/04/2010
27767366	OTIEXT	10/05/2007
27222339	OTIEXT	07/10/2009
178560	OTIEXT	21/08/2000
27657576	OTIEXT	22/01/2003
27451921	OTIEXT	31/01/2007
27687008	OTIEXT	30/12/2010
27102397	OTIEXT	09/10/2008
26711749	OTIEXT	08/04/2011
26975695	OTIEXT	25/11/2003
26845368	OTIEXT	27/04/2004
21650765	OTIEXT	20/04/2010
18199101	OTIEXT	04/06/2008
27797993	OTIEXT	12/06/2007
27808234	OTIEXT	02/09/2010
27808239	OTIEXT	05/06/2007
27767597	OTIEXT	29/12/2004
26954759	OTIEXT	18/06/1999
27102180	OTIEXT	11/08/2003
27794198	OTIEXT	17/07/2008
27794220	OTIEXT	20/03/2007
27032665	OTIEXT	11/04/2011
27678694	OTIEXT	09/03/2011
27786169	OTIEXT	24/05/2008
27664782	OTIEXT	28/12/2007
27084228	OTIEXT	02/08/2008
27778320	OTIEXT	20/08/2009
26959063	OTIEXT	02/06/2005
11937600	OTIEXT	04/03/2011
18198960	OTIEXT	09/07/2009
27801341	OTIEXT	24/06/2008
27796173	OTIEXT	22/11/2005
27799572	OTIEXT	14/10/2008
27795958	OTIEXT	12/12/2007
22882399	OTIEXT	14/01/2009
26935765	OTIEXT	22/05/2003
27366636	OTIEXT	11/12/2008
27806522	OTIEXT	28/05/2004
27771604	OTIEXT	22/12/2003
33103780	OTIEXT	01/09/2006
33112774	OTIEXT	11/06/2010
33107586	OTIEXT	29/03/2000
33028364	OTIEXT	24/01/2006
33006102	OTIEXT	23/07/2004
33007786	OTIEXT	29/03/2008
33084349	OTIEXT	08/07/2009
33033879	OTIEXT	24/08/2006
33118313	OTIEXT	15/09/2007
33072664	OTIEXT	01/03/2004
33018416	OTIEXT	25/08/2008
33073168	OTIEXT	31/08/2004
33080368	OTIEXT	16/05/2000
33007198	OTIEXT	25/06/2004
33041880	OTIEXT	24/07/2008
33038992	OTIEXT	07/08/2006
33051313	OTIEXT	07/08/2008
33071870	OTIEXT	04/08/2009
33085788	OTIEXT	06/04/2005
33093595	OTIEXT	03/09/2009
33083573	OTIEXT	21/05/2010
33094584	OTIEXT	12/05/2010
33075744	OTIEXT	01/02/2011
33134765	OTIEXT	10/09/2010
33098852	OTIEXT	06/04/2004
33117702	OTIEXT	12/08/2009
33118863	OTIEXT	08/05/2007
33008724	OTIEXT	28/12/2004
33044195	OTIEXT	12/01/2010
33040235	OTIEXT	10/01/2006
33062433	OTIEXT	25/07/2007
33017935	OTIEXT	29/07/2008
33091260	OTIEXT	01/09/2004
33029258	OTIEXT	12/11/2009
33005585	OTIEXT	20/08/2010
33041335	OTIEXT	24/07/2000
33129205	OTIEXT	08/09/2008
33079717	OTIEXT	23/08/2004
33047468	OTIEXT	24/06/2009
33037834	OTIEXT	28/02/2007
33022736	OTIEXT	12/06/2008
33039101	OTIEXT	22/10/2007
33105346	OTIEXT	22/11/2005
33045042	OTIEXT	11/05/2010
33080053	OTIEXT	31/01/2002
33097374	OTIEXT	26/06/2003
33049687	OTIEXT	27/06/2005
33041429	OTIEXT	23/10/2009
33079691	OTIEXT	02/05/2002
33097238	OTIEXT	19/11/2010
33000739	OTIEXT	08/06/2009
33007694	OTIEXT	28/07/2008
33111605	OTIEXT	30/07/2001
33113624	OTIEXT	02/07/2009
33007749	OTIEXT	23/02/2010
33071533	OTIEXT	25/01/2010
33091555	OTIEXT	08/07/2003
33066807	OTIEXT	05/08/2000
33116010	OTIEXT	03/08/2009
33037406	OTIEXT	31/08/2010
33074872	OTIEXT	25/09/2010
33021631	OTIEXT	18/07/2009
33109408	OTIEXT	01/08/2005
33105550	OTIEXT	31/07/2007
33098127	OTIEXT	18/05/2011
33087917	OTIEXT	10/08/2006
33019290	OTIEXT	04/02/2009
33072253	OTIEXT	06/08/2008
33025068	OTIEXT	12/08/2009
33070784	OTIEXT	25/08/2009
33012773	OTIEXT	10/08/2010
33106497	OTIEXT	22/05/2009
33057183	OTIEXT	15/07/2009
33091061	OTIEXT	08/07/2009
33108978	OTIEXT	24/11/2008
33004433	OTIEXT	15/09/2005
33057226	OTIEXT	10/01/2008
33065123	OTIEXT	13/02/2009
33007386	OTIEXT	28/10/2009
33061545	OTIEXT	05/08/2009
33039975	OTIEXT	12/05/2009
33000634	OTIEXT	03/07/2008
33065039	OTIEXT	10/04/2007
33084051	OTIEXT	29/05/2001
33051131	OTIEXT	22/11/2001
33076049	OTIEXT	22/02/2008
33118326	OTIEXT	16/07/2010
33093636	OTIEXT	16/03/2011
33110070	OTIEXT	25/05/2006
33072905	OTIEXT	14/08/2006
33012828	OTIEXT	13/07/2007
33042936	OTIEXT	03/10/2008
33081752	OTIEXT	23/06/2009
33058525	OTIEXT	09/07/2004
33062688	OTIEXT	13/05/2002
33106201	OTIEXT	10/10/2008
33005367	OTIEXT	29/08/2007
33045184	OTIEXT	13/08/2008
33091621	OTIEXT	16/04/2007
33091326	OTIEXT	24/06/2010
33041455	OTIEXT	18/08/2008
33012294	OTIEXT	21/09/2006
33126891	OTIEXT	12/03/2008
33043932	OTIEXT	03/08/2004
33044028	OTIEXT	18/07/2006
33008734	OTIEXT	26/01/2007
33052309	OTIEXT	15/03/2002
33001868	OTIEXT	17/07/2009
27801932	OTIEXT	25/09/2003
26879958	OTIEXT	09/04/2009
26636182	OTIEXT	31/12/2004
1029165	OTIEXT	02/05/2006
27798304	OTIEXT	26/03/2004
27075873	OTIEXT	20/06/2008
27551829	OTIEXT	03/10/2006
184713	OTIEXT	18/08/2007
16843427	OTIEXT	12/11/2003
180238	OTIEXT	10/03/2009
26727611	OTIEXT	07/03/2011
27798190	OTIEXT	26/08/2009
12980458	OTIEXT	16/07/2008
27800051	OTIEXT	23/04/2004
27812443	OTIEXT	15/02/2011
26724428	OTIEXT	06/04/2007
27798253	OTIEXT	24/05/2004
464881	OTIEXT	17/07/2006
33054276	OTIEXT	03/08/2006
436222	OTIEXT	30/11/2002
27798157	OTIEXT	03/07/2008
13873657	OTIEXT	09/04/2010
33122437	OTIEXT	19/09/2007
18199022	OTIEXT	03/11/2004
27802006	OTIEXT	10/11/2009
2967985	OTIEXT	30/03/2010
8108774	OTIEXT	20/04/2010
16105238	OTIEXT	01/08/2006
33020523	OTIEXT	23/09/2009
21101233	OTIEXT	19/02/2008
27949925	OTIEXT	07/03/2007
27846920	OTIEXT	21/07/2004
33037240	OTIEXT	19/08/2005
16177914	OTIEXT	24/06/2002
21114673	OTIEXT	17/11/2006
33034636	OTIEXT	19/09/2002
16167141	OTIEXT	11/07/2008
33224916	OTIEXT	04/08/2009
33306049	OTIEXT	30/08/2006
16647181	OTIEXT	24/08/2004
24465483	OTIEXT	18/01/2008
28029465	OTIEXT	02/07/2010
27948652	OTIEXT	01/08/2008
33112165	OTIEXT	16/04/2008
24465418	OTIEXT	07/08/2010
33007194	OTIEXT	20/10/2005
33013257	OTIEXT	24/02/2011
33085861	OTIEXT	14/08/2000
33048320	OTIEXT	24/08/2005
33085897	OTIEXT	31/07/2000
33028726	OTIEXT	30/01/2008
33034000	OTIEXT	18/06/2010
33036694	OTIEXT	17/08/2005
33091181	OTIEXT	24/07/2003
33025614	OTIEXT	01/08/2003
33053391	OTIEXT	10/04/2001
33005071	OTIEXT	08/03/2010
33034466	OTIEXT	02/07/2010
33099079	OTIEXT	29/08/2002
33105648	OTIEXT	02/09/2003
33106875	OTIEXT	23/08/2002
33017905	OTIEXT	08/09/2009
33072943	OTIEXT	26/06/2001
33036272	OTIEXT	31/03/2006
33032471	OTIEXT	15/03/2004
33026712	OTIEXT	13/08/2010
33020105	OTIEXT	17/08/2007
33019080	OTIEXT	29/04/2008
33058910	OTIEXT	24/09/2002
33116651	OTIEXT	16/08/2005
33085572	OTIEXT	17/07/2008
33051390	OTIEXT	29/04/2009
33037707	OTIEXT	05/07/2006
33100304	OTIEXT	28/10/2009
33000877	OTIEXT	10/05/2011
33101430	OTIEXT	16/06/2008
33106625	OTIEXT	27/01/2009
33078447	OTIEXT	27/06/2006
33084973	OTIEXT	28/07/2010
33031821	OTIEXT	13/08/2007
33045618	OTIEXT	03/11/2008
33090788	OTIEXT	28/11/2006
33049611	OTIEXT	07/07/2009
33097482	OTIEXT	10/11/2010
33133635	OTIEXT	05/10/2010
33007224	OTIEXT	30/04/2004
33063789	OTIEXT	03/03/2011
33085777	OTIEXT	05/01/2009
33056435	OTIEXT	06/08/2003
33092247	OTIEXT	24/02/2011
33074478	OTIEXT	20/01/2010
33127566	OTIEXT	30/04/2009
33053845	OTIEXT	09/04/2010
33104966	OTIEXT	31/08/2009
33118243	OTIEXT	31/07/2009
33089002	OTIEXT	29/06/2005
33018547	OTIEXT	02/08/2004
33112009	OTIEXT	29/10/2004
33048842	OTIEXT	14/02/2009
33055487	OTIEXT	08/08/2008
33031207	OTIEXT	11/10/2007
33044755	OTIEXT	23/10/2009
33088209	OTIEXT	12/07/2006
33030500	OTIEXT	06/11/2003
33043693	OTIEXT	19/11/2009
33135064	OTIEXT	10/03/2011
33011953	OTIEXT	16/01/2002
33032983	OTIEXT	13/01/2010
33081872	OTIEXT	17/08/2004
33029125	OTIEXT	28/07/2009
33082143	OTIEXT	26/11/2008
33069979	OTIEXT	16/11/2009
33085575	OTIEXT	21/07/2009
33089947	OTIEXT	27/02/2003
33034268	OTIEXT	25/10/2002
33016818	OTIEXT	08/08/2007
33096009	OTIEXT	16/09/2004
33114635	OTIEXT	07/09/2009
33070678	OTIEXT	28/07/2010
33108877	OTIEXT	07/07/2009
33093006	OTIEXT	05/05/2006
33100604	OTIEXT	04/01/2007
33084091	OTIEXT	26/01/2006
33111813	OTIEXT	26/05/2008
33004431	OTIEXT	29/09/2005
33109860	OTIEXT	04/05/2001
33067910	OTIEXT	03/08/2006
33051467	OTIEXT	20/10/2008
33110291	OTIEXT	22/04/2003
33093084	OTIEXT	23/10/2002
33093016	OTIEXT	15/10/2009
33097272	OTIEXT	11/09/2009
33091004	OTIEXT	11/08/2008
33003742	OTIEXT	18/06/2007
33047751	OTIEXT	19/09/2006
33091039	OTIEXT	10/09/2003
33014083	OTIEXT	13/10/2010
33000686	OTIEXT	24/05/2002
33083707	OTIEXT	19/07/2010
33085707	OTIEXT	17/08/2009
33007894	OTIEXT	15/07/2010
33091308	OTIEXT	22/12/1999
33087820	OTIEXT	20/02/2004
33116126	OTIEXT	08/10/2010
16646444	OTIEXT	30/08/2010
33288377	OTIEXT	23/11/2010
18768070	OTIEXT	16/05/2011
33303155	OTIEXT	01/03/2008
33307194	OTIEXT	03/09/2010
16616189	OTIEXT	30/07/2003
27999175	OTIEXT	13/11/2009
33293488	OTIEXT	03/11/2006
33226133	OTIEXT	13/10/2010
24089585	OTIEXT	14/01/2006
16609573	OTIEXT	24/06/2009
16634678	OTIEXT	12/11/2003
28017164	OTIEXT	08/03/2011
23407899	OTIEXT	30/07/2010
16625746	OTIEXT	24/01/2007
33303012	OTIEXT	07/07/2008
33258499	OTIEXT	27/12/2007
27878671	OTIEXT	30/09/2008
16651428	OTIEXT	13/02/2010
16639327	OTIEXT	31/03/2011
24463189	OTIEXT	11/07/2003
23315807	OTIEXT	24/02/2006
27972671	OTIEXT	31/08/2009
27998885	OTIEXT	07/10/2008
16631902	OTIEXT	30/09/2009
33244530	OTIEXT	17/01/2008
27945722	OTIEXT	20/07/2006
21100330	OTIEXT	20/11/2009
27999995	OTIEXT	09/06/2006
20983485	OTIEXT	01/07/2008
33250285	OTIEXT	15/07/2009
23361248	OTIEXT	14/05/2008
16607145	OTIEXT	06/03/2009
23328374	OTIEXT	20/09/2004
33308205	OTIEXT	29/04/2009
16680317	OTIEXT	28/08/2010
16655753	OTIEXT	19/04/2007
24040104	OTIEXT	01/12/2010
16138978	OTIEXT	11/05/2009
33243654	OTIEXT	01/09/2008
16165687	OTIEXT	17/07/2010
28023165	OTIEXT	04/10/2010
16596526	OTIEXT	25/10/2010
33293086	OTIEXT	28/07/2008
33201856	OTIEXT	21/02/2007
16177948	OTIEXT	10/12/2008
27913617	OTIEXT	11/09/2003
33299575	OTIEXT	13/05/2011
23382344	OTIEXT	07/04/2006
27998334	OTIEXT	13/11/2010
16651620	OTIEXT	19/07/2010
27989809	OTIEXT	14/07/2009
23407914	OTIEXT	27/06/2003
23385295	OTIEXT	06/07/2010
23328512	OTIEXT	26/12/2006
23361043	OTIEXT	14/07/2008
21100000	OTIEXT	06/09/2006
33231135	OTIEXT	19/01/2011
21106540	OTIEXT	18/03/2008
16628834	OTIEXT	10/01/2005
28022811	OTIEXT	17/06/2010
23362294	OTIEXT	17/09/2009
18770852	OTIEXT	09/02/2006
33306335	OTIEXT	22/02/2005
16601406	OTIEXT	20/07/2006
33243775	OTIEXT	03/09/2009
27912569	OTIEXT	04/12/2007
23386984	OTIEXT	19/08/2009
27846966	OTIEXT	02/09/2005
33208695	OTIEXT	29/06/2009
16627962	OTIEXT	04/04/2005
28020243	OTIEXT	29/10/2007
16184630	OTIEXT	25/08/2009
16712648	OTIEXT	22/11/2005
16625960	OTIEXT	06/08/2008
33299292	OTIEXT	22/03/2010
23361804	OTIEXT	28/01/2008
21115002	OTIEXT	03/11/2007
27934525	OTIEXT	02/09/2009
16168742	OTIEXT	22/08/2005
33224366	OTIEXT	01/12/2009
16705277	OTIEXT	13/12/2009
16649321	OTIEXT	29/04/2005
20991079	OTIEXT	28/09/2010
16598988	OTIEXT	19/05/2009
21112058	OTIEXT	14/06/2010
20986922	OTIEXT	05/05/2008
16773887	OTIEXT	03/08/2010
16649380	OTIEXT	16/11/2005
16124109	OTIEXT	04/08/2009
16183727	OTIEXT	03/08/2007
16127453	OTIEXT	07/11/2000
16599304	OTIEXT	09/10/2008
16186548	OTIEXT	15/01/2011
28023159	OTIEXT	10/07/2008
23404958	OTIEXT	13/01/2005
21011098	OTIEXT	09/07/2008
21102892	OTIEXT	08/06/2009
16124191	OTIEXT	14/09/2009
16628841	OTIEXT	14/11/2006
23384367	OTIEXT	25/03/2009
23383661	OTIEXT	15/07/2008
16602684	OTIEXT	11/04/2008
27848432	OTIEXT	27/02/2008
18756517	OTIEXT	10/11/2007
23398292	OTIEXT	15/09/2009
16713099	OTIEXT	07/02/2009
27913205	OTIEXT	18/08/2009
28025330	OTIEXT	25/05/2009
16596274	OTIEXT	22/01/2002
33251513	OTIEXT	30/01/2008
18755562	OTIEXT	04/03/2009
16774792	OTIEXT	11/10/2005
16657864	OTIEXT	27/09/2001
33295676	OTIEXT	05/05/2003
20984093	OTIEXT	14/08/2006
27856112	OTIEXT	24/11/2010
23409483	OTIEXT	27/07/2006
16647105	OTIEXT	02/07/2007
21101160	OTIEXT	24/07/2007
27958849	OTIEXT	11/07/2007
18769100	OTIEXT	29/10/2007
16629051	OTIEXT	07/09/2010
23397279	OTIEXT	26/10/2005
16639518	OTIEXT	28/09/2005
33201428	OTIEXT	30/10/2007
33294335	OTIEXT	30/09/2010
23319566	OTIEXT	15/03/1995
21011657	OTIEXT	17/08/2009
16127501	OTIEXT	14/09/2009
27837120	OTIEXT	06/11/2007
16130964	OTIEXT	08/04/2006
23332844	OTIEXT	10/08/2010
23385463	OTIEXT	20/07/2010
23353839	OTIEXT	23/11/2010
27948667	OTIEXT	09/08/2007
16171769	OTIEXT	01/12/2001
20986175	OTIEXT	03/07/2008
16623422	OTIEXT	09/03/2011
16631801	OTIEXT	22/06/2010
23354037	OTIEXT	14/10/2010
23413136	OTIEXT	01/08/2005
16648876	OTIEXT	09/04/2010
33243444	OTIEXT	30/04/2007
33283091	OTIEXT	03/08/2007
16123913	OTIEXT	27/09/2007
23360490	OTIEXT	27/06/2010
16648845	OTIEXT	07/08/2006
16648785	OTIEXT	28/07/2005
23401872	OTIEXT	03/07/2008
16130019	OTIEXT	16/10/2008
23350072	OTIEXT	31/08/2009
23412981	OTIEXT	10/07/2006
21107800	OTIEXT	20/08/2010
23382269	OTIEXT	02/08/2010
33253952	OTIEXT	24/02/2011
16634720	OTIEXT	19/02/2010
18770491	OTIEXT	04/08/2004
33200338	OTIEXT	02/03/2009
33243281	OTIEXT	06/10/2010
16634463	OTIEXT	15/11/2008
33227687	OTIEXT	26/03/2008
16135290	OTIEXT	14/08/2008
33239342	OTIEXT	10/02/2005
21114449	OTIEXT	02/02/2011
16680230	OTIEXT	01/09/2006
16611332	OTIEXT	23/11/2010
16606808	OTIEXT	17/10/2007
28004723	OTIEXT	30/08/2010
16647294	OTIEXT	07/02/2008
16775059	OTIEXT	04/11/2005
28007119	OTIEXT	24/06/2010
27847279	OTIEXT	04/08/2010
16639460	OTIEXT	19/09/2007
16705838	OTIEXT	29/06/2002
31049364	OTIEXT	29/11/2010
31310309	OTIEXT	06/04/2004
31865293	OTIEXT	21/07/2004
32041977	OTIEXT	21/06/2007
31991726	OTIEXT	26/07/2010
32177764	OTIEXT	27/08/2010
32232336	OTIEXT	07/03/2008
31539683	OTIEXT	24/02/2010
23405281	OTIEXT	23/07/2007
23386350	OTIEXT	19/07/2010
23398442	OTIEXT	21/07/2010
16124564	OTIEXT	24/05/2004
16648689	OTIEXT	09/09/2009
16773532	OTIEXT	11/02/2010
23380825	OTIEXT	21/07/2009
33314705	OTIEXT	11/08/2010
16126880	OTIEXT	09/07/2009
24139993	OTIEXT	09/05/2002
23349604	OTIEXT	03/01/2010
23332352	OTIEXT	03/02/2009
23371553	OTIEXT	04/01/2008
33316316	OTIEXT	30/08/2006
21106978	OTIEXT	01/07/2008
23412985	OTIEXT	31/07/2009
16647011	OTIEXT	29/09/2010
33315070	OTIEXT	07/12/2006
23470370	OTIEXT	10/11/2009
20990980	OTIEXT	20/07/2010
23400909	OTIEXT	01/08/2005
16652685	OTIEXT	02/01/2007
23362487	OTIEXT	28/06/2010
16647731	OTIEXT	08/11/2010
16616766	OTIEXT	21/08/2008
23275767	OTIEXT	12/06/2006
16712509	OTIEXT	30/07/2005
23344022	OTIEXT	24/01/2008
33287525	OTIEXT	27/07/2009
16598340	OTIEXT	27/10/2006
16603382	OTIEXT	13/04/2007
33204560	OTIEXT	05/09/2010
23362309	OTIEXT	07/03/2011
33228321	OTIEXT	02/04/2001
27946149	OTIEXT	03/07/2008
23366484	OTIEXT	17/11/2006
21110084	OTIEXT	28/05/2008
16186784	OTIEXT	30/12/2005
21105858	OTIEXT	24/02/2010
16126697	OTIEXT	21/10/2010
33226252	OTIEXT	24/06/2008
20985559	OTIEXT	03/09/2007
20985996	OTIEXT	22/09/2006
20985351	OTIEXT	28/04/2009
16598711	OTIEXT	06/04/2006
23401605	OTIEXT	25/04/2005
23412332	OTIEXT	28/07/2008
27880957	OTIEXT	14/07/2008
23360494	OTIEXT	30/07/2009
23401236	OTIEXT	07/10/2003
16621461	OTIEXT	27/12/2005
16712077	OTIEXT	06/07/2010
23402322	OTIEXT	16/02/2004
16646378	OTIEXT	26/07/2005
18872531	OTIEXT	13/07/2006
23386909	OTIEXT	15/07/2010
23385623	OTIEXT	10/07/2009
33246911	OTIEXT	16/03/2011
16124383	OTIEXT	08/09/2008
23385616	OTIEXT	30/07/2008
33265185	OTIEXT	14/07/2009
23367113	OTIEXT	05/11/2008
31407717	OTIEXT	10/02/2004
31856289	OTIEXT	22/01/2007
32164188	OTIEXT	20/11/2009
31469887	OTIEXT	25/02/2004
31228694	OTIEXT	18/09/2009
32179812	OTIEXT	03/11/2009
31632078	OTIEXT	12/04/2004
32196435	OTIEXT	03/09/2009
31184453	OTIEXT	16/08/2006
31967730	OTIEXT	06/07/2010
31628609	OTIEXT	19/12/2003
31607904	OTIEXT	09/08/2010
31749711	OTIEXT	01/09/2004
31661400	OTIEXT	21/09/2001
31638063	OTIEXT	10/11/2005
32261398	OTIEXT	11/08/2006
31281095	OTIEXT	17/02/2011
31079772	OTIEXT	20/08/2008
32017487	OTIEXT	24/10/2008
31675939	OTIEXT	01/03/2004
32276089	OTIEXT	25/11/2004
31393143	OTIEXT	23/12/2005
31960155	OTIEXT	26/08/2005
31123402	OTIEXT	25/11/2009
31837224	OTIEXT	05/07/2008
31370194	OTIEXT	30/07/2004
31237591	OTIEXT	05/12/2006
32254036	OTIEXT	29/07/2007
32257023	OTIEXT	14/07/2006
31045649	OTIEXT	09/08/2006
31666545	OTIEXT	11/12/2002
31353977	OTIEXT	19/06/2009
31431511	OTIEXT	10/10/2005
31603806	OTIEXT	16/07/2009
32098573	OTIEXT	13/09/2010
31553887	OTIEXT	19/05/2006
31450299	OTIEXT	20/07/2004
31601335	OTIEXT	08/09/2003
32045160	OTIEXT	30/03/2009
31899042	OTIEXT	07/07/2003
32253846	OTIEXT	30/08/2005
31217335	OTIEXT	17/08/2007
31989161	OTIEXT	09/06/2006
31868652	OTIEXT	13/04/2005
31720754	OTIEXT	15/06/2005
31923451	OTIEXT	08/10/2005
32238559	OTIEXT	28/11/2005
31117278	OTIEXT	10/11/2008
31966573	OTIEXT	06/05/2010
31267839	OTIEXT	21/04/2009
31590399	OTIEXT	25/03/2008
31824780	OTIEXT	13/07/2006
31832257	OTIEXT	26/06/2009
31515657	OTIEXT	11/02/2002
32195757	OTIEXT	15/01/2010
31863922	OTIEXT	07/12/2006
31217147	OTIEXT	03/01/2011
32246611	OTIEXT	25/06/2004
31538378	OTIEXT	25/04/2006
31184585	OTIEXT	25/05/2007
31820890	OTIEXT	20/05/2005
31733052	OTIEXT	17/12/2007
31082542	OTIEXT	17/02/2006
32276203	OTIEXT	17/01/2011
31321545	OTIEXT	30/12/2004
31749706	OTIEXT	22/06/2005
31744702	OTIEXT	15/01/2007
32147894	OTIEXT	14/07/2009
31673662	OTIEXT	20/06/2007
31175917	OTIEXT	18/10/2006
31074296	OTIEXT	28/03/2003
32172173	OTIEXT	28/07/2008
31509670	OTIEXT	24/06/2009
32045759	OTIEXT	29/07/2004
31406021	OTIEXT	06/08/2009
31487409	OTIEXT	29/01/2007
31577920	OTIEXT	05/08/2002
31096707	OTIEXT	28/08/2008
32109045	OTIEXT	28/05/2008
32011425	OTIEXT	02/08/2005
31861493	OTIEXT	25/08/2010
31720865	OTIEXT	17/03/1999
31697096	OTIEXT	04/01/2005
31287014	OTIEXT	18/08/2005
32200000	OTIEXT	04/09/2008
31093898	OTIEXT	03/10/2005
31034602	OTIEXT	10/09/2009
32065784	OTIEXT	17/05/2006
31043915	OTIEXT	16/10/2006
32179446	OTIEXT	08/09/2009
31900779	OTIEXT	09/03/2011
31517581	OTIEXT	09/09/2004
31276014	OTIEXT	14/03/2007
31779355	OTIEXT	05/09/2005
31889462	OTIEXT	31/10/2008
31833062	OTIEXT	20/01/2010
32099105	OTIEXT	26/01/2004
32134154	OTIEXT	06/05/2009
31765237	OTIEXT	11/11/1998
31628785	OTIEXT	09/06/2010
31631227	OTIEXT	24/06/2009
31957216	OTIEXT	12/08/2010
31451599	OTIEXT	27/01/2010
31374849	OTIEXT	12/08/2004
31048112	OTIEXT	26/11/2009
31882578	OTIEXT	10/02/2010
31787535	OTIEXT	28/08/2008
31462347	OTIEXT	24/11/2009
32006633	OTIEXT	07/04/2004
31570188	OTIEXT	30/03/2006
31898729	OTIEXT	20/01/2005
31037147	OTIEXT	08/09/2008
32028967	OTIEXT	27/10/2010
31177909	OTIEXT	10/12/2010
31234749	OTIEXT	06/10/2000
31336940	OTIEXT	07/05/2003
31199545	OTIEXT	02/09/2004
31917631	OTIEXT	31/07/2009
31388103	OTIEXT	01/07/2009
31474523	OTIEXT	13/07/2007
31410312	OTIEXT	08/11/2005
31913299	OTIEXT	09/06/2005
31896290	OTIEXT	03/09/2002
31402776	OTIEXT	17/08/2009
31319121	OTIEXT	24/01/2006
31661884	OTIEXT	04/08/2009
31761283	OTIEXT	08/08/2006
32032148	OTIEXT	06/07/2001
31722801	OTIEXT	23/10/2006
31450205	OTIEXT	20/11/2008
31088492	OTIEXT	27/03/2009
31489624	OTIEXT	31/10/2008
32190645	OTIEXT	04/09/2003
31626228	OTIEXT	01/05/2005
31140897	OTIEXT	11/07/2007
31771748	OTIEXT	15/02/2006
32272859	OTIEXT	31/10/2003
32259804	OTIEXT	28/07/2008
31376540	OTIEXT	23/06/2003
31494299	OTIEXT	16/11/2009
32059128	OTIEXT	24/11/2003
31424423	OTIEXT	03/04/2008
31842658	OTIEXT	14/08/2009
31135470	OTIEXT	18/01/2011
31165367	OTIEXT	30/07/2002
31292908	OTIEXT	28/08/2009
31162306	OTIEXT	18/05/2004
31170501	OTIEXT	16/02/2007
31045629	OTIEXT	13/10/2005
32191632	OTIEXT	10/09/2009
32246359	OTIEXT	06/03/2009
31813848	OTIEXT	12/11/2004
31097740	OTIEXT	01/04/2005
31270466	OTIEXT	15/01/2009
32045521	OTIEXT	18/06/2002
32180261	OTIEXT	12/06/2008
32054331	OTIEXT	05/06/2006
31963757	OTIEXT	13/01/2003
31675988	OTIEXT	12/05/2010
31421438	OTIEXT	19/11/2010
31237244	OTIEXT	31/07/2003
31184648	OTIEXT	04/11/2008
31059184	OTIEXT	24/02/2010
31770920	OTIEXT	17/03/2011
31447101	OTIEXT	27/02/2009
31592837	OTIEXT	19/04/2002
31271559	OTIEXT	15/03/2004
31728713	OTIEXT	14/07/2003
31208995	OTIEXT	16/04/2008
31075394	OTIEXT	19/06/2002
31409135	OTIEXT	15/10/2004
31954840	OTIEXT	28/03/2007
31938419	OTIEXT	23/03/2007
31445853	OTIEXT	15/07/2004
31791869	OTIEXT	15/08/2005
31372288	OTIEXT	08/07/2010
32061702	OTIEXT	27/11/2003
31888749	OTIEXT	02/12/2003
31194521	OTIEXT	04/07/2008
32064148	OTIEXT	11/01/2005
31970088	OTIEXT	13/04/2004
32221033	OTIEXT	18/08/2008
32192753	OTIEXT	18/02/2000
31952663	OTIEXT	17/05/2004
32097844	OTIEXT	04/03/2011
31138705	OTIEXT	04/09/2003
32187040	OTIEXT	05/02/2007
31923736	OTIEXT	02/09/2004
32026658	OTIEXT	26/05/2009
31632896	OTIEXT	09/08/2007
31052455	OTIEXT	12/12/2005
31635127	OTIEXT	29/11/2004
32148086	OTIEXT	30/12/2009
31236641	OTIEXT	15/01/2010
31597009	OTIEXT	01/08/2001
31129991	OTIEXT	12/11/2009
31697444	OTIEXT	01/03/2006
31153502	OTIEXT	21/08/2009
31352577	OTIEXT	17/02/2009
32222307	OTIEXT	09/07/2007
31342310	OTIEXT	19/04/2001
32271701	OTIEXT	18/07/2005
31165538	OTIEXT	07/07/2008
31966221	OTIEXT	26/08/2008
32260229	OTIEXT	15/03/2006
31034342	OTIEXT	20/03/2009
31387411	OTIEXT	07/04/2009
32133208	OTIEXT	28/04/2003
31083744	OTIEXT	16/09/2008
31640309	OTIEXT	18/03/2009
31285866	OTIEXT	05/04/2006
31815983	OTIEXT	22/01/2010
31389119	OTIEXT	31/07/2003
31454718	OTIEXT	23/02/2009
32080325	OTIEXT	02/03/2009
32144525	OTIEXT	27/09/2006
31577745	OTIEXT	18/08/2009
31747891	OTIEXT	09/02/2009
32078164	OTIEXT	24/08/2009
31324227	OTIEXT	31/08/1999
32275796	OTIEXT	22/08/2006
31235701	OTIEXT	04/12/2008
31301351	OTIEXT	11/01/2011
31672960	OTIEXT	03/12/2009
32186315	OTIEXT	08/11/2007
31870585	OTIEXT	29/06/2005
32191031	OTIEXT	27/09/2007
31053166	OTIEXT	14/07/2010
31220965	OTIEXT	08/03/2006
31074997	OTIEXT	12/12/2005
31861892	OTIEXT	18/08/2009
31716553	OTIEXT	21/07/2009
31734576	OTIEXT	28/08/2007
31097521	OTIEXT	10/12/2001
31099804	OTIEXT	07/10/2008
31813658	OTIEXT	16/11/2007
31553549	OTIEXT	14/09/2010
31300536	OTIEXT	11/03/2008
31129747	OTIEXT	04/05/2009
31922604	OTIEXT	23/07/2002
31222949	OTIEXT	07/01/2011
31791916	OTIEXT	21/11/2008
31522613	OTIEXT	21/06/2007
31849501	OTIEXT	12/11/2008
31757252	OTIEXT	16/08/2006
31594993	OTIEXT	05/01/2007
31991549	OTIEXT	19/07/2010
31977064	OTIEXT	12/05/2008
31956916	OTIEXT	16/12/2008
31702162	OTIEXT	29/08/2003
31581886	OTIEXT	02/09/2009
31546446	OTIEXT	12/08/2010
32243083	OTIEXT	19/08/2010
32079692	OTIEXT	06/04/2004
31140696	OTIEXT	26/03/2003
31975247	OTIEXT	29/10/2009
31629479	OTIEXT	29/03/2007
31243991	OTIEXT	22/02/2011
32036039	OTIEXT	16/01/2008
31099634	OTIEXT	07/08/2009
31806471	OTIEXT	06/11/2005
31886657	OTIEXT	08/10/2003
31137331	OTIEXT	25/10/2006
32035559	OTIEXT	14/04/2011
31924171	OTIEXT	11/08/2008
31945051	OTIEXT	26/05/2008
32113531	OTIEXT	07/03/2011
31585946	OTIEXT	07/04/2009
31442204	OTIEXT	09/10/2001
31915105	OTIEXT	18/06/2008
31725944	OTIEXT	02/01/2009
31924953	OTIEXT	10/02/2010
31584781	OTIEXT	15/03/2011
31738312	OTIEXT	10/12/2008
31241434	OTIEXT	06/06/2006
31103419	OTIEXT	08/09/2006
31445063	OTIEXT	21/05/2007
31847585	OTIEXT	29/05/2009
31137463	OTIEXT	13/03/2009
32159495	OTIEXT	16/10/2008
31931296	OTIEXT	13/07/2009
31614153	OTIEXT	07/07/2009
32281367	OTIEXT	10/11/2008
31865183	OTIEXT	22/07/2003
32241350	OTIEXT	20/08/2010
32237911	OTIEXT	25/02/2005
31225686	OTIEXT	12/08/2009
31401305	OTIEXT	19/02/2007
31582091	OTIEXT	22/09/2006
31699123	OTIEXT	05/07/2006
31405336	OTIEXT	20/10/2007
31317073	OTIEXT	07/02/2011
32116202	OTIEXT	28/07/2008
32244371	OTIEXT	05/01/2011
31033502	OTIEXT	15/03/2007
31165395	OTIEXT	18/01/2005
32030032	OTIEXT	09/03/2007
31689766	OTIEXT	17/10/2008
32010861	OTIEXT	23/11/2009
31278238	OTIEXT	15/11/2006
31174835	OTIEXT	20/08/2008
31925399	OTIEXT	14/08/2008
31200904	OTIEXT	05/08/2008
31820707	OTIEXT	07/09/2007
32013154	OTIEXT	28/05/2002
31500512	OTIEXT	11/05/2011
31315477	OTIEXT	31/08/2008
32262837	OTIEXT	27/10/2008
32183678	OTIEXT	03/04/2004
31986530	OTIEXT	20/11/2009
31126264	OTIEXT	11/08/2008
31502961	OTIEXT	29/08/2001
31339118	OTIEXT	06/03/2007
31639526	OTIEXT	25/11/2005
31492737	OTIEXT	21/02/2011
31621628	OTIEXT	20/09/2006
31404448	OTIEXT	19/01/2009
31248907	OTIEXT	07/12/2004
31790794	OTIEXT	07/05/2001
31047908	OTIEXT	17/01/2011
31897930	OTIEXT	13/08/2007
31177768	OTIEXT	01/12/2005
31614272	OTIEXT	17/10/2008
31339883	OTIEXT	22/08/2005
31571961	OTIEXT	24/06/2003
31294383	OTIEXT	12/05/2010
32059362	OTIEXT	30/07/2007
32219312	OTIEXT	17/03/2008
31401562	OTIEXT	18/07/2007
32134927	OTIEXT	10/11/2009
31110380	OTIEXT	30/07/2008
31054420	OTIEXT	10/08/2010
32132555	OTIEXT	15/01/2007
32017593	OTIEXT	10/05/2010
31590262	OTIEXT	29/10/2004
32101459	OTIEXT	26/04/2010
31502615	OTIEXT	13/09/2000
31518352	OTIEXT	23/02/2011
31696885	OTIEXT	19/02/2009
31712570	OTIEXT	03/11/2003
32048394	OTIEXT	23/02/2011
31490416	OTIEXT	09/08/2010
31429202	OTIEXT	14/06/2005
31173612	OTIEXT	23/09/2005
31700966	OTIEXT	07/07/2004
31848497	OTIEXT	28/11/2008
31768821	OTIEXT	14/09/2005
31801055	OTIEXT	02/06/2010
31685000	OTIEXT	05/08/2010
31437098	OTIEXT	13/09/2010
31356901	OTIEXT	11/11/2003
31815136	OTIEXT	02/10/2008
31413302	OTIEXT	16/10/2006
31982121	OTIEXT	15/10/2007
31778251	OTIEXT	13/08/2008
31781991	OTIEXT	06/06/2006
31066164	OTIEXT	02/12/2008
31422483	OTIEXT	17/02/2009
31098476	OTIEXT	26/11/2008
31329070	OTIEXT	24/01/2001
31319812	OTIEXT	23/02/2010
31696573	OTIEXT	23/03/2004
31631947	OTIEXT	11/11/2004
32036768	OTIEXT	19/05/2010
31774996	OTIEXT	22/08/2005
31837090	OTIEXT	11/05/2010
31923205	OTIEXT	23/08/2007
31525981	OTIEXT	01/09/2008
31864025	OTIEXT	06/08/2002
31176750	OTIEXT	20/10/2003
32106251	OTIEXT	17/01/2008
32040052	OTIEXT	21/04/2009
31280468	OTIEXT	05/11/2010
31524254	OTIEXT	12/07/2010
31124331	OTIEXT	30/08/2004
32011623	OTIEXT	06/09/2005
31757888	OTIEXT	14/08/2006
31866202	OTIEXT	28/06/2010
32240004	OTIEXT	02/12/2003
32018111	OTIEXT	11/03/2010
31872332	OTIEXT	24/08/2010
31352150	OTIEXT	07/04/2003
31298297	OTIEXT	01/07/2002
31233054	OTIEXT	10/07/2009
32182197	OTIEXT	18/08/2008
32072356	OTIEXT	28/03/2003
31114322	OTIEXT	02/09/2003
31457097	OTIEXT	28/08/2003
31691505	OTIEXT	10/07/2007
31948747	OTIEXT	15/12/2003
32281617	OTIEXT	18/06/2010
31607561	OTIEXT	31/07/2006
31349798	OTIEXT	08/02/2006
31632825	OTIEXT	30/07/2007
31677585	OTIEXT	19/10/2010
31239463	OTIEXT	05/09/2009
31211511	OTIEXT	02/02/2010
31464132	OTIEXT	16/09/2009
32244935	OTIEXT	10/07/2009
31550519	OTIEXT	01/08/2006
31075098	OTIEXT	25/11/2010
31601396	OTIEXT	03/02/2005
32065071	OTIEXT	23/03/2007
31323734	OTIEXT	14/08/2006
31759965	OTIEXT	03/08/2007
31166024	OTIEXT	03/08/2006
31924531	OTIEXT	14/09/2007
32010721	OTIEXT	07/03/2011
31733068	OTIEXT	19/08/2010
31248576	OTIEXT	08/11/2007
31981150	OTIEXT	21/09/2010
31437543	OTIEXT	31/03/2010
31100267	OTIEXT	29/06/2005
31862124	OTIEXT	21/05/2001
31362286	OTIEXT	09/08/2005
32270765	OTIEXT	27/08/2010
31447684	OTIEXT	06/07/2010
31456456	OTIEXT	03/09/2009
31567046	OTIEXT	19/08/2003
31695492	OTIEXT	09/05/2002
31813469	OTIEXT	31/07/2008
31334152	OTIEXT	16/08/2010
32000169	OTIEXT	25/08/2009
31746215	OTIEXT	11/08/2003
32023181	OTIEXT	20/08/2003
31180827	OTIEXT	21/11/2006
31950983	OTIEXT	04/07/2005
31275713	OTIEXT	18/03/2007
31067631	OTIEXT	24/05/2011
31546151	OTIEXT	07/12/2002
31546023	OTIEXT	08/09/2005
31134851	OTIEXT	10/08/2007
32245026	OTIEXT	22/03/2011
31415156	OTIEXT	08/11/2010
31354855	OTIEXT	11/11/2005
32017307	OTIEXT	10/03/2008
31537253	OTIEXT	18/09/2002
31668345	OTIEXT	03/04/2007
31833813	OTIEXT	17/08/2010
31368264	OTIEXT	20/03/2007
31109895	OTIEXT	30/08/2003
32174906	OTIEXT	16/05/2006
31690269	OTIEXT	21/10/2003
31330729	OTIEXT	22/10/2002
32248515	OTIEXT	14/04/2004
31827495	OTIEXT	16/08/2001
32104033	OTIEXT	26/05/2010
31068246	OTIEXT	08/10/2007
31327472	OTIEXT	14/02/2007
31222985	OTIEXT	28/04/2010
31895100	OTIEXT	13/07/2001
31527512	OTIEXT	29/03/2010
31866208	OTIEXT	21/08/2003
32136300	OTIEXT	11/12/2001
31204461	OTIEXT	25/01/2006
31273101	OTIEXT	21/04/2010
32176725	OTIEXT	03/12/2008
31560503	OTIEXT	22/03/2007
31474342	OTIEXT	04/06/2008
32049606	OTIEXT	05/02/2009
31186052	OTIEXT	06/08/2002
31384268	OTIEXT	17/10/2005
32162807	OTIEXT	25/02/2010
31479765	OTIEXT	03/08/2009
31045073	OTIEXT	08/03/2006
31551131	OTIEXT	14/06/2004
31864534	OTIEXT	18/08/1999
31127548	OTIEXT	11/06/2004
31434473	OTIEXT	08/07/2004
32093203	OTIEXT	20/02/2009
31333815	OTIEXT	04/10/2002
31697066	OTIEXT	23/08/2007
31236915	OTIEXT	25/08/2006
31528759	OTIEXT	10/07/2006
31163346	OTIEXT	15/09/2004
32236750	OTIEXT	29/01/2008
32275147	OTIEXT	20/07/2009
31325610	OTIEXT	25/11/2010
32140341	OTIEXT	27/08/2007
32009303	OTIEXT	11/12/2006
31355429	OTIEXT	25/01/2011
31315742	OTIEXT	28/03/2000
32011804	OTIEXT	16/12/2009
32069282	OTIEXT	05/11/1998
31721371	OTIEXT	18/09/2001
31396958	OTIEXT	01/06/2011
31573724	OTIEXT	10/01/2005
32053538	OTIEXT	07/11/2008
31169171	OTIEXT	22/08/2006
31532198	OTIEXT	04/07/2007
31412210	OTIEXT	14/07/2003
31598640	OTIEXT	28/01/2005
31135814	OTIEXT	26/12/2007
31398997	OTIEXT	18/11/2010
31290625	OTIEXT	19/04/2011
32192108	OTIEXT	06/06/2006
32238209	OTIEXT	09/06/2006
31703573	OTIEXT	08/08/2006
31240777	OTIEXT	22/02/2007
32240789	OTIEXT	12/03/2009
31420535	OTIEXT	25/02/2005
31375145	OTIEXT	30/05/2007
31905242	OTIEXT	23/10/2007
32160956	OTIEXT	27/02/2008
32278236	OTIEXT	12/04/2010
31451439	OTIEXT	17/06/2004
32150114	OTIEXT	30/06/2010
31514901	OTIEXT	19/09/2006
31646493	OTIEXT	02/08/2006
31796622	OTIEXT	01/07/2008
32130047	OTIEXT	05/01/2010
32145346	OTIEXT	27/10/2005
31091322	OTIEXT	04/03/2010
31596322	OTIEXT	03/03/2010
31378768	OTIEXT	19/07/2005
31391294	OTIEXT	06/10/2003
31626836	OTIEXT	13/09/2004
31708797	OTIEXT	26/04/2011
32065963	OTIEXT	13/09/2005
31094040	OTIEXT	07/12/2005
32050442	OTIEXT	22/04/2003
32246429	OTIEXT	25/04/2005
31883253	OTIEXT	12/09/2007
31113628	OTIEXT	14/12/2009
31310885	OTIEXT	25/02/2009
31840787	OTIEXT	24/06/2008
31684605	OTIEXT	06/10/2008
31142950	OTIEXT	12/06/2003
31788025	OTIEXT	27/01/2009
31471718	OTIEXT	16/01/2007
31621984	OTIEXT	23/06/2005
31584320	OTIEXT	16/06/2003
31042629	OTIEXT	05/04/2001
32258540	OTIEXT	01/09/2005
32254900	OTIEXT	13/09/2007
31208045	OTIEXT	26/07/2010
31033021	OTIEXT	07/05/2002
31652044	OTIEXT	16/08/2010
32137299	OTIEXT	18/06/2007
32038162	OTIEXT	30/08/2010
31784685	OTIEXT	03/08/2009
32191042	OTIEXT	31/10/2003
31077067	OTIEXT	14/11/2006
31899477	OTIEXT	11/07/2003
32223263	OTIEXT	25/11/2009
32119583	OTIEXT	06/10/2006
31357291	OTIEXT	30/05/2011
31460189	OTIEXT	30/03/2007
31618220	OTIEXT	14/06/2004
31808318	OTIEXT	18/06/2001
31301320	OTIEXT	10/08/2006
31061557	OTIEXT	19/07/2006
32248168	OTIEXT	30/01/2009
31391258	OTIEXT	11/06/2004
31198323	OTIEXT	20/05/2009
32263249	OTIEXT	19/08/2002
31152460	OTIEXT	18/07/2005
31233533	OTIEXT	26/09/2005
31629315	OTIEXT	15/12/2009
31898173	OTIEXT	06/09/2010
31685174	OTIEXT	04/05/2010
31290982	OTIEXT	15/01/2001
31273855	OTIEXT	08/08/2007
31382749	OTIEXT	08/07/2005
31968780	OTIEXT	07/08/2006
31724642	OTIEXT	24/10/2002
31872743	OTIEXT	28/01/2003
31654518	OTIEXT	02/09/2009
31084479	OTIEXT	21/06/2002
31489393	OTIEXT	18/08/2010
31184463	OTIEXT	29/12/2010
31992839	OTIEXT	08/10/2007
31980986	OTIEXT	09/08/2005
31349105	OTIEXT	01/06/2006
32203030	OTIEXT	30/06/2009
31909860	OTIEXT	26/10/2006
31924885	OTIEXT	30/08/2010
31995343	OTIEXT	06/10/2006
31408692	OTIEXT	14/08/2001
31416750	OTIEXT	10/06/2002
31369789	OTIEXT	07/04/2003
31949286	OTIEXT	27/07/2009
31220483	OTIEXT	23/08/2005
31054169	OTIEXT	26/10/2005
31172851	OTIEXT	14/08/2007
31172615	OTIEXT	18/08/2003
31321749	OTIEXT	15/04/2010
31774208	OTIEXT	02/04/2009
31338208	OTIEXT	08/09/2006
32106690	OTIEXT	15/01/2007
31648571	OTIEXT	05/07/2004
32277458	OTIEXT	10/01/2001
32114107	OTIEXT	19/04/2011
32227582	OTIEXT	16/10/2009
32274409	OTIEXT	25/11/2010
31751512	OTIEXT	05/08/2003
31677326	OTIEXT	26/07/2010
31466772	OTIEXT	04/09/2006
31691761	OTIEXT	29/02/2000
31820480	OTIEXT	14/11/2007
32020492	OTIEXT	02/08/2006
31987427	OTIEXT	28/01/2000
31534740	OTIEXT	12/02/2007
32229209	OTIEXT	26/06/2007
31442038	OTIEXT	26/10/2000
32127700	OTIEXT	20/10/2004
32141661	OTIEXT	04/05/2011
32101952	OTIEXT	27/11/2006
32240142	OTIEXT	06/04/2011
32190094	OTIEXT	02/08/2004
31777197	OTIEXT	02/02/2004
31699191	OTIEXT	03/09/2007
31717835	OTIEXT	27/02/2007
32154338	OTIEXT	27/07/2006
31929235	OTIEXT	28/03/2006
31717321	OTIEXT	14/07/2008
31396572	OTIEXT	15/06/2010
31238640	OTIEXT	28/08/2006
31802364	OTIEXT	06/05/2011
31323394	OTIEXT	17/12/2010
31505216	OTIEXT	30/07/2001
31184541	OTIEXT	03/08/2010
31548173	OTIEXT	02/08/2004
31759301	OTIEXT	30/08/2010
31788420	OTIEXT	20/09/2010
31673952	OTIEXT	11/10/2002
31382962	OTIEXT	14/08/2008
31633415	OTIEXT	05/05/2006
31143232	OTIEXT	07/05/2007
31098999	OTIEXT	30/04/2007
32144480	OTIEXT	20/07/2007
32233869	OTIEXT	19/07/2010
31478038	OTIEXT	30/06/2006
31536647	OTIEXT	06/08/2009
31261675	OTIEXT	01/02/2006
31431642	OTIEXT	11/06/2003
31997918	OTIEXT	17/08/2001
31512215	OTIEXT	31/08/2007
31899019	OTIEXT	01/07/2002
31803324	OTIEXT	27/12/2006
31950452	OTIEXT	07/04/2004
31273240	OTIEXT	04/11/2003
31817927	OTIEXT	29/08/2008
31579343	OTIEXT	08/10/2007
31301268	OTIEXT	06/11/2009
32202397	OTIEXT	15/06/2005
32192856	OTIEXT	04/08/2006
31824276	OTIEXT	15/11/2005
32079431	OTIEXT	29/05/2001
31261756	OTIEXT	06/02/2009
31445382	OTIEXT	25/05/2007
31391526	OTIEXT	08/10/2010
31396977	OTIEXT	27/07/2005
31143978	OTIEXT	11/06/2007
31946060	OTIEXT	20/07/2010
31607988	OTIEXT	09/04/2003
31247894	OTIEXT	10/11/2008
31767577	OTIEXT	15/01/2009
31281875	OTIEXT	11/02/2005
31578601	OTIEXT	29/07/2002
31485171	OTIEXT	09/07/2010
31576373	OTIEXT	26/07/2005
32024753	OTIEXT	06/11/2007
31380249	OTIEXT	03/06/2008
31572848	OTIEXT	17/04/2009
31031117	OTIEXT	02/12/2010
31520527	OTIEXT	13/12/2004
31068631	OTIEXT	17/05/2011
31883663	OTIEXT	10/11/2008
31715220	OTIEXT	11/02/2004
31739715	OTIEXT	05/05/2009
31589962	OTIEXT	17/05/2004
31783482	OTIEXT	13/07/2010
31464346	OTIEXT	05/02/2007
31424872	OTIEXT	16/03/2006
31382341	OTIEXT	16/01/2007
32260474	OTIEXT	09/09/2008
31895589	OTIEXT	05/08/2006
31465993	OTIEXT	25/03/2008
31711147	OTIEXT	06/03/2003
31556127	OTIEXT	20/08/2009
31233039	OTIEXT	24/02/2006
31577781	OTIEXT	17/01/2006
32249623	OTIEXT	28/12/2010
31497176	OTIEXT	21/01/2009
31567476	OTIEXT	30/12/2005
31448770	OTIEXT	18/07/2005
31637621	OTIEXT	22/08/2005
31656298	OTIEXT	01/08/2002
31406134	OTIEXT	15/11/2006
31047471	OTIEXT	10/06/2005
32119117	OTIEXT	25/07/2002
32073087	OTIEXT	09/07/2009
32169758	OTIEXT	27/12/2010
31277264	OTIEXT	20/08/2004
31679948	OTIEXT	09/05/2007
31943993	OTIEXT	02/07/2007
32230743	OTIEXT	02/09/2009
31756049	OTIEXT	01/04/2008
31923733	OTIEXT	12/01/2011
32119598	OTIEXT	14/08/2006
31199814	OTIEXT	20/01/2010
31891362	OTIEXT	26/03/2008
31061564	OTIEXT	29/07/2009
31509713	OTIEXT	06/07/2009
32172086	OTIEXT	17/08/2007
32138134	OTIEXT	19/05/2008
31168872	OTIEXT	13/07/2005
31556912	OTIEXT	11/01/2010
32050762	OTIEXT	25/05/2010
32014179	OTIEXT	06/05/2002
31140327	OTIEXT	23/06/2005
31786674	OTIEXT	18/05/2007
31751005	OTIEXT	22/04/2004
31497420	OTIEXT	24/05/2004
31328449	OTIEXT	04/10/2010
32219823	OTIEXT	12/02/2009
31190425	OTIEXT	06/11/2002
31866747	OTIEXT	18/10/2002
32189767	OTIEXT	08/09/2004
31053935	OTIEXT	23/01/2007
31968838	OTIEXT	10/07/2007
31538206	OTIEXT	31/01/2003
32016023	OTIEXT	17/08/2006
31165845	OTIEXT	14/01/2007
31315245	OTIEXT	02/01/2001
31495297	OTIEXT	11/06/2007
32172719	OTIEXT	23/05/2005
31609242	OTIEXT	28/06/2010
32129185	OTIEXT	14/12/2004
31186969	OTIEXT	27/02/2002
31640661	OTIEXT	29/08/2008
31517413	OTIEXT	17/03/2005
31273323	OTIEXT	21/07/2010
31318204	OTIEXT	19/12/2006
31067211	OTIEXT	24/10/2008
32274831	OTIEXT	03/08/2005
31183042	OTIEXT	20/05/2008
31797353	OTIEXT	19/04/2006
32026871	OTIEXT	18/05/2010
31549675	OTIEXT	05/08/2010
32129695	OTIEXT	13/02/2006
31892704	OTIEXT	28/12/2004
31360382	OTIEXT	23/01/2007
31764379	OTIEXT	04/01/2002
31166106	OTIEXT	28/12/2004
31449353	OTIEXT	14/06/2010
31939937	OTIEXT	16/10/2006
31477688	OTIEXT	22/03/2001
31727361	OTIEXT	29/12/2009
32106084	OTIEXT	16/11/1999
31670926	OTIEXT	23/08/2007
32194941	OTIEXT	14/06/2005
32119693	OTIEXT	24/01/2005
31657638	OTIEXT	04/08/2010
31991894	OTIEXT	28/12/2010
31681512	OTIEXT	20/07/2010
31103271	OTIEXT	27/09/2005
31377746	OTIEXT	12/02/2010
31585215	OTIEXT	02/08/2010
31940868	OTIEXT	10/07/2009
32132667	OTIEXT	13/01/2010
31919657	OTIEXT	08/04/2008
32041237	OTIEXT	06/07/2010
31449578	OTIEXT	30/03/2007
31953695	OTIEXT	17/06/2005
32144581	OTIEXT	24/06/2002
31689849	OTIEXT	22/09/2009
31838059	OTIEXT	14/01/2010
31842217	OTIEXT	15/03/2010
31910903	OTIEXT	30/09/2008
31807189	OTIEXT	01/06/2005
31928015	OTIEXT	20/05/2003
31673165	OTIEXT	06/10/2008
31561962	OTIEXT	29/09/2004
31601681	OTIEXT	08/06/2010
31479508	OTIEXT	07/05/2008
32205447	OTIEXT	26/07/2010
31511874	OTIEXT	23/05/2001
32248718	OTIEXT	23/08/2004
32054919	OTIEXT	04/05/2005
32023639	OTIEXT	02/02/2010
31053703	OTIEXT	27/02/2006
31091452	OTIEXT	24/10/2003
31946733	OTIEXT	13/12/2007
31486375	OTIEXT	12/11/2004
31722565	OTIEXT	21/06/2002
31636015	OTIEXT	29/01/2004
31461886	OTIEXT	22/04/2010
31158871	OTIEXT	13/12/2004
31614575	OTIEXT	28/05/2009
31111424	OTIEXT	15/01/2008
31566932	OTIEXT	30/09/2008
31192139	OTIEXT	23/03/2010
31956592	OTIEXT	10/07/2007
31960006	OTIEXT	08/11/2001
31813990	OTIEXT	20/06/2008
31761837	OTIEXT	26/07/2006
31745205	OTIEXT	13/02/2003
31110029	OTIEXT	03/09/2009
31224080	OTIEXT	16/10/2009
31746287	OTIEXT	19/11/2010
31257145	OTIEXT	19/06/2002
32163968	OTIEXT	08/09/2003
31283930	OTIEXT	28/12/2007
31511769	OTIEXT	20/11/2006
31585275	OTIEXT	12/05/2010
32064941	OTIEXT	29/04/2004
31353254	OTIEXT	19/10/2007
32113306	OTIEXT	14/04/2008
31482847	OTIEXT	19/06/2007
31165916	OTIEXT	25/01/2010
31241398	OTIEXT	13/10/2005
31657716	OTIEXT	30/04/2008
31248047	OTIEXT	17/08/2009
32123263	OTIEXT	02/08/2005
31461372	OTIEXT	18/02/2011
31721691	OTIEXT	02/12/2008
31089428	OTIEXT	16/08/2006
31765523	OTIEXT	06/09/2005
31778043	OTIEXT	11/08/2006
31779362	OTIEXT	09/09/2008
31558358	OTIEXT	04/04/2011
31720031	OTIEXT	04/09/2003
31084635	OTIEXT	24/08/2009
31955856	OTIEXT	06/02/2006
31358220	OTIEXT	24/05/2007
31767143	OTIEXT	29/07/1999
31694659	OTIEXT	09/10/2006
31373906	OTIEXT	10/05/2010
31570519	OTIEXT	19/01/2004
31234701	OTIEXT	30/12/2010
31427687	OTIEXT	29/06/2009
31653454	OTIEXT	20/08/2004
31838445	OTIEXT	30/05/2006
