patient_id	covar_name	date
3123115	R03AC13	21/11/2005
20558540	R03AC13	26/10/2009
9209336	R03AC13	23/04/2007
5812962	R03AC13	27/10/2003
9302346	R03AC13	09/11/2006
1069599	R03AC13	09/10/2008
6416555	R03AC13	08/02/2007
8571389	R03AC13	24/10/2007
9212611	R03AC13	04/09/2009
5867289	R03AC13	10/11/2006
6416606	R03AC13	05/02/2007
7094087	R03AC13	19/05/2010
10270238	R03AC13	31/07/2003
10268993	R03AC13	25/10/2010
1938542	R03AC13	13/04/2004
8278748	R03AC13	09/06/2000
9983422	R03AC13	10/06/2005
731887	R03AC13	08/04/2011
24929910	R03AC13	01/04/2008
8642170	R03AC13	26/02/2008
5031647	R03AC13	17/05/2011
7404595	R03AC13	08/06/2006
9293857	R03AC13	22/01/2009
9135492	R03AC13	13/10/2005
25052021	R03AC13	28/04/2011
10246462	R03AC13	31/03/2004
8641010	R03AC13	10/03/2008
25048008	R03AC13	16/04/2009
3333455	R03AC13	10/01/2011
1069269	R03AC13	14/09/2009
8783486	R03AC13	04/06/2009
9349186	R03AC13	24/05/2011
16977479	R03AC13	21/03/2007
10004108	R03AC13	08/03/2011
21369952	R03AC13	25/11/2009
10002746	R03AC13	12/05/2011
6594762	R03AC13	10/08/2004
1445557	R03AC13	26/02/2007
1444184	R03AC13	30/03/2010
1352974	R03AC13	06/10/2003
1445893	R03AC13	18/03/2011
1666001	R03AC13	27/05/2008
7967084	R03AC13	26/09/2006
7771685	R03AC13	29/09/2003
1170363	R03AC13	22/11/2010
5992233	R03AC13	10/02/2011
1545758	R03AC13	18/02/2005
524498	R03AC13	08/01/2004
1848720	R03AC13	13/03/2008
6594082	R03AC13	10/12/2008
6593220	R03AC13	16/12/2003
1205228	R03AC13	19/09/2005
1547134	R03AC13	29/04/2008
515787	R03AC13	03/01/2007
1214146	R03AC13	26/03/2009
1545551	R03AC13	26/05/2007
1205994	R03AC13	04/02/2003
7971319	R03AC13	31/01/2007
12189158	R03AC13	02/11/2000
6591104	R03AC13	10/04/2006
8454242	R03AC13	20/12/2005
13987343	R03AC13	30/04/2007
7966714	R03AC13	31/05/2011
7776922	R03AC13	08/10/2010
1201513	R03AC13	12/01/2006
18365866	R03AC13	03/01/2008
1419033	R03AC13	13/02/2001
1349153	R03AC13	09/01/2003
135900	R03AC13	09/05/2007
716273	R03AC13	18/09/2001
1638747	R03AC13	22/02/2001
1638786	R03AC13	07/10/2003
25882333	R03AC13	31/05/2007
1638565	R03AC13	20/03/2001
134966	R03AC13	29/08/2005
889830	R03AC13	07/05/2009
1099959	R03AC13	16/09/2003
21282892	R03AC13	16/06/2004
135815	R03AC13	22/03/2004
890201	R03AC13	10/12/2003
1065365	R03AC13	04/11/2008
716068	R03AC13	13/03/2003
1135038	R03AC13	19/01/2010
1131425	R03AC13	01/10/2001
1557371	R03AC13	28/06/2010
1103551	R03AC13	25/04/2011
2216049	R03AC13	01/04/2011
2144214	R03AC13	18/04/2007
1766474	R03AC13	10/03/2004
2140421	R03AC13	01/08/2003
905063	R03AC13	01/06/2011
1755279	R03AC13	03/10/2005
876930	R03AC13	31/01/2002
1755991	R03AC13	25/09/2009
3055385	R03AC13	12/12/2000
2777436	R03AC13	18/11/2003
2526231	R03AC13	10/05/2011
2756008	R03AC13	09/05/2007
2522313	R03AC13	30/12/2008
2574244	R03AC13	28/03/2006
28045594	R03AC13	10/04/2008
26481852	R03AC13	04/12/2003
20673832	R03AC13	20/11/2008
18472312	R03AC13	17/10/2008
26261422	R03AC13	27/10/2008
26423547	R03AC13	09/03/2011
23890725	R03AC13	10/08/2003
18068223	R03AC13	16/11/2010
1910382	R03AC13	21/11/2005
300857	R03AC13	28/01/2003
3055456	R03AC13	17/09/2003
28092306	R03AC13	05/11/2010
860408	R03AC13	04/05/2006
28079828	R03AC13	20/03/2000
903103	R03AC13	01/10/2001
428157	R03AC13	22/04/2010
301938	R03AC13	10/12/2002
427244	R03AC13	02/02/2006
25738696	R03AC13	19/06/2010
24670887	R03AC13	13/05/2011
24658550	R03AC13	21/09/2007
1020566	R03AC13	03/10/2005
1373725	R03AC13	14/11/2007
1371652	R03AC13	01/03/2004
1373981	R03AC13	05/07/2007
21065700	R03AC13	03/08/2010
21064728	R03AC13	13/01/2005
25739625	R03AC13	25/05/2004
18197591	R03AC13	03/07/2001
1370051	R03AC13	07/03/2003
26638407	R03AC13	20/11/2007
26803235	R03AC13	27/05/2011
21064578	R03AC13	07/10/2009
26628248	R03AC13	20/02/2008
12994970	R03AC13	27/05/2008
21065021	R03AC13	15/03/2007
21065539	R03AC13	01/04/2005
26946237	R03AC13	05/12/2007
26917214	R03AC13	24/01/2002
26897230	R03AC13	18/05/2009
26915478	R03AC13	20/02/2008
26759249	R03AC13	02/02/2011
26888469	R03AC13	12/05/2011
26780794	R03AC13	23/05/2006
26812447	R03AC13	17/01/2005
26855405	R03AC13	24/03/2010
26856155	R03AC13	15/05/2011
26998473	R03AC13	12/11/2010
27149748	R03AC13	27/11/2002
27151273	R03AC13	20/05/2011
27104209	R03AC13	29/12/2003
27074961	R03AC13	10/09/2009
27037290	R03AC13	13/08/2008
27038141	R03AC13	01/06/2011
27233913	R03AC13	06/07/2009
27168097	R03AC13	21/10/2010
27378775	R03AC13	05/05/2011
27169975	R03AC13	06/03/2009
27303621	R03AC13	28/04/2006
27305570	R03AC13	24/05/2011
27358392	R03AC13	13/01/2007
27168989	R03AC13	11/12/2007
27296189	R03AC13	10/02/2004
26954109	R03AC13	02/11/2007
27241512	R03AC13	11/09/2003
27171327	R03AC13	14/01/2011
27170060	R03AC13	18/01/2011
27571525	R03AC13	18/09/2006
27660756	R03AC13	13/12/2006
27759030	R03AC13	21/02/2007
27765553	R03AC13	15/05/2003
26957342	R03AC13	17/08/2004
26730346	R03AC13	14/12/2010
27674951	R03AC13	02/11/2010
27784826	R03AC13	21/01/2004
27673317	R03AC13	07/06/2005
27454341	R03AC13	11/10/2007
27679944	R03AC13	02/05/2006
27684912	R03AC13	19/03/2011
27666599	R03AC13	05/01/2001
26998273	R03AC13	09/07/2010
27664927	R03AC13	03/06/2003
27444018	R03AC13	11/05/2011
27538271	R03AC13	27/03/2008
27214891	R03AC13	08/11/2007
27104774	R03AC13	10/05/2007
2959222	R03AC13	20/11/2003
27760886	R03AC13	23/04/2011
27662240	R03AC13	18/11/2008
27623151	R03AC13	07/11/2002
27218796	R03AC13	18/05/2011
33049981	R03AC13	11/10/2010
33008475	R03AC13	02/07/2007
33067338	R03AC13	07/04/2005
33042452	R03AC13	10/02/2011
33099564	R03AC13	05/02/2002
33067601	R03AC13	06/02/2007
33028516	R03AC13	05/11/2009
33043194	R03AC13	01/06/2005
33106608	R03AC13	16/04/2010
33072290	R03AC13	28/04/2010
33070878	R03AC13	17/11/2003
33019290	R03AC13	12/02/2001
33064809	R03AC13	11/09/2008
33047656	R03AC13	07/02/2002
33026288	R03AC13	12/03/2002
33066419	R03AC13	02/08/2001
1912842	R03AC13	16/04/2010
27680372	R03AC13	13/05/2003
180195	R03AC13	06/03/2003
24658196	R03AC13	19/10/2005
26638174	R03AC13	22/03/2006
28019239	R03AC13	30/01/2007
16135277	R03AC13	03/11/2004
16618574	R03AC13	18/05/2011
33020265	R03AC13	09/02/2005
33096256	R03AC13	28/05/2007
33053309	R03AC13	22/10/2003
18770764	R03AC13	19/03/2001
14187910	R03AC13	17/08/2007
33233293	R03AC13	25/06/2002
23382344	R03AC13	01/02/2005
23381315	R03AC13	28/09/2009
23412051	R03AC13	29/04/2011
28026109	R03AC13	19/11/2009
16181468	R03AC13	03/10/2007
16707810	R03AC13	04/06/2010
16630904	R03AC13	23/02/2004
23338189	R03AC13	08/02/2005
16654459	R03AC13	14/12/2006
16186784	R03AC13	06/05/2003
16127420	R03AC13	23/02/2001
23401808	R03AC13	07/07/2008
23340233	R03AC13	05/05/2011
32192677	R03AC13	30/03/2007
31366887	R03AC13	12/01/2004
31139565	R03AC13	11/12/2009
31641080	R03AC13	20/03/2007
31217091	R03AC13	08/02/2005
31547137	R03AC13	29/03/2004
31051753	R03AC13	13/12/2010
31391321	R03AC13	17/09/2003
31191853	R03AC13	24/05/2006
31994910	R03AC13	07/06/2004
31213209	R03AC13	11/12/2007
32224890	R03AC13	14/09/2010
31724968	R03AC13	03/12/2010
31595903	R03AC13	23/05/2003
31236375	R03AC13	28/10/2010
32117832	R03AC13	13/11/2006
32248909	R03AC13	13/05/2009
31410312	R03AC13	16/06/1999
32078134	R03AC13	03/11/2009
32045415	R03AC13	22/12/2006
32276946	R03AC13	16/05/2006
31842658	R03AC13	06/04/2006
31803168	R03AC13	04/08/2008
31954840	R03AC13	12/09/2005
32113126	R03AC13	13/05/2003
31862184	R03AC13	24/08/2010
31952663	R03AC13	06/03/2003
31915254	R03AC13	09/12/2009
31374114	R03AC13	17/05/2001
31851762	R03AC13	14/03/2006
31736075	R03AC13	26/04/2005
31203374	R03AC13	11/02/2009
32074407	R03AC13	03/10/2007
31097381	R03AC13	07/05/2007
31929890	R03AC13	16/04/2003
31735765	R03AC13	04/11/2009
31213651	R03AC13	04/03/2011
31723265	R03AC13	26/02/2007
32094474	R03AC13	16/02/2007
32164645	R03AC13	19/10/2010
31097231	R03AC13	14/04/2009
31517124	R03AC13	05/06/2008
31174835	R03AC13	15/12/2008
31319783	R03AC13	07/12/2009
31470909	R03AC13	02/04/2007
31086702	R03AC13	14/11/2008
31358449	R03AC13	10/10/2007
31313087	R03AC13	08/07/2005
31081419	R03AC13	10/05/2002
31637140	R03AC13	28/06/2004
32116733	R03AC13	15/01/2007
31377253	R03AC13	14/12/2007
31048154	R03AC13	03/12/2010
31037991	R03AC13	14/10/2003
31243831	R03AC13	24/11/2008
31132462	R03AC13	02/06/2003
31564399	R03AC13	07/01/2004
31652283	R03AC13	12/07/2010
31241823	R03AC13	10/11/2009
31596789	R03AC13	10/10/2007
31849175	R03AC13	05/11/2007
31514901	R03AC13	06/11/2002
31054507	R03AC13	11/03/2005
31191195	R03AC13	11/02/2011
32156190	R03AC13	19/05/2003
31970294	R03AC13	09/07/2001
32111220	R03AC13	13/02/2006
31925538	R03AC13	06/03/2008
31668860	R03AC13	02/09/2010
31488181	R03AC13	09/06/2005
31456279	R03AC13	05/04/2005
31582604	R03AC13	22/05/2008
31304698	R03AC13	02/06/2003
31632371	R03AC13	12/12/2006
31385542	R03AC13	03/12/2009
31300735	R03AC13	16/11/2001
31943993	R03AC13	26/03/2007
31436600	R03AC13	14/02/2007
31395424	R03AC13	03/11/2006
31209696	R03AC13	22/05/2002
31829829	R03AC13	06/04/2011
32197657	R03AC13	23/11/2004
32270707	R03AC13	26/07/2006
31103681	R03AC13	19/05/2006
31842217	R03AC13	08/06/2005
31948792	R03AC13	11/04/2005
31317268	R03AC13	01/12/2004
31380118	R03AC13	12/07/2005
31329818	R03AC13	15/03/2007
32158039	R03AC13	21/08/2006
31523676	R03AC13	03/12/2007
