patient_id	covar_name	date
10268484	R01AC02	17/05/2006
7348760	R01AC02	30/04/2008
3125474	R01AC02	29/03/2010
10245851	R01AC02	04/05/2004
8293370	R01AC02	28/06/2010
14792271	R01AC02	09/02/2010
7248380	R01AC02	22/07/2004
1946126	R01AC02	04/06/2003
12694964	R01AC02	08/05/2008
209647	R01AC02	14/04/2010
12731532	R01AC02	07/05/2009
7095604	R01AC02	11/04/2008
12762299	R01AC02	25/05/2011
5021335	R01AC02	17/01/2011
16530402	R01AC02	03/06/2009
10247580	R01AC02	20/05/2004
3117156	R01AC02	26/01/2011
3292306	R01AC02	28/01/2003
6946248	R01AC02	13/05/2008
14997897	R01AC02	25/05/2006
12688374	R01AC02	11/05/2006
23471643	R01AC02	10/08/2007
3290458	R01AC02	25/05/2011
9213036	R01AC02	12/05/2010
1419222	R01AC02	30/04/2007
1206466	R01AC02	10/11/2009
12613853	R01AC02	27/05/2004
1203945	R01AC02	08/07/2005
6841374	R01AC02	05/01/2009
1353433	R01AC02	05/10/2010
917707	R01AC02	14/03/2011
6598890	R01AC02	07/03/2008
1054563	R01AC02	21/04/2003
6590532	R01AC02	18/10/2005
4447846	R01AC02	16/07/2008
6212361	R01AC02	22/06/2006
1103491	R01AC02	28/08/2003
717761	R01AC02	24/05/2002
999093	R01AC02	04/03/2011
1065365	R01AC02	07/04/2008
860336	R01AC02	03/12/2002
249389	R01AC02	24/06/2010
876284	R01AC02	13/09/2001
757533	R01AC02	27/04/2004
2773699	R01AC02	23/03/2006
26565210	R01AC02	05/11/2008
20153089	R01AC02	22/09/2010
18225788	R01AC02	29/05/2002
7143476	R01AC02	01/06/2004
26338790	R01AC02	05/04/2010
26425372	R01AC02	18/04/2008
28041808	R01AC02	17/05/2011
26424606	R01AC02	08/01/2007
28084179	R01AC02	09/03/2010
436745	R01AC02	22/05/2009
437623	R01AC02	09/06/2007
184271	R01AC02	23/03/2010
28063602	R01AC02	23/04/2009
25738686	R01AC02	04/03/2009
25600261	R01AC02	11/11/2010
24668940	R01AC02	11/04/2005
1019432	R01AC02	13/09/2007
1029957	R01AC02	11/05/2006
18195981	R01AC02	13/10/2003
18189507	R01AC02	24/09/2007
1910693	R01AC02	06/03/2001
1042407	R01AC02	20/05/2003
1368375	R01AC02	03/06/1999
26616698	R01AC02	22/02/2011
26721016	R01AC02	08/03/2005
26722119	R01AC02	12/03/2007
26629276	R01AC02	14/03/2006
24656327	R01AC02	09/03/2005
26936276	R01AC02	15/06/2009
26960818	R01AC02	24/05/2011
26960849	R01AC02	28/05/2010
26883590	R01AC02	05/06/2009
26936559	R01AC02	18/05/2007
26939625	R01AC02	25/04/2008
26939494	R01AC02	19/02/2008
26973602	R01AC02	24/05/2004
26960443	R01AC02	25/05/2011
27103255	R01AC02	29/04/2011
27057399	R01AC02	16/06/2009
27034016	R01AC02	20/10/2010
27307620	R01AC02	11/11/2009
27306952	R01AC02	09/06/2009
27306966	R01AC02	01/06/2009
27231019	R01AC02	22/02/2008
27173478	R01AC02	02/09/2010
27251955	R01AC02	19/12/2001
27249837	R01AC02	03/06/2010
27573021	R01AC02	17/01/2006
27640466	R01AC02	10/08/2006
27414867	R01AC02	01/06/2001
27472551	R01AC02	31/05/2005
27642593	R01AC02	14/03/2006
27659581	R01AC02	15/02/2002
27565501	R01AC02	06/05/2011
27129344	R01AC02	24/05/2010
27287802	R01AC02	11/05/2005
24654692	R01AC02	15/05/2006
27244772	R01AC02	09/12/2008
24671344	R01AC02	23/02/2007
27662387	R01AC02	07/05/2007
27674998	R01AC02	10/06/2004
27674475	R01AC02	21/03/2005
27446070	R01AC02	27/04/2010
27471936	R01AC02	04/01/2010
27812607	R01AC02	15/11/2009
428085	R01AC02	12/06/2008
27759567	R01AC02	19/06/2009
27794453	R01AC02	24/04/2007
27757222	R01AC02	16/11/2006
27576566	R01AC02	27/12/2007
27170744	R01AC02	11/03/2004
27680864	R01AC02	11/04/2003
27532824	R01AC02	16/04/2007
27811520	R01AC02	04/06/2007
33103780	R01AC02	26/05/2010
33065542	R01AC02	12/09/2005
33004867	R01AC02	11/02/2000
27385393	R01AC02	16/10/2007
185517	R01AC02	12/05/2006
1373130	R01AC02	21/12/2002
33051621	R01AC02	08/08/2007
33005736	R01AC02	20/03/2002
33074992	R01AC02	17/02/2004
33111959	R01AC02	03/01/2003
33231021	R01AC02	29/12/2010
23410502	R01AC02	20/04/2010
31138171	R01AC02	07/05/2008
33306337	R01AC02	17/03/2011
23410160	R01AC02	10/03/2011
32282396	R01AC02	17/02/2003
31117829	R01AC02	01/12/2009
31115684	R01AC02	23/05/2008
31334279	R01AC02	31/05/2002
31709531	R01AC02	19/03/2007
31573454	R01AC02	21/09/2006
32158065	R01AC02	01/02/2006
31384308	R01AC02	04/04/2008
31110105	R01AC02	19/05/2004
31225579	R01AC02	07/06/2002
31061000	R01AC02	29/05/2006
31062691	R01AC02	12/03/2007
31957345	R01AC02	04/06/2007
31114979	R01AC02	14/09/2005
31654172	R01AC02	21/05/2009
31468701	R01AC02	29/04/2010
31080708	R01AC02	29/04/2003
31605572	R01AC02	08/04/2008
31299767	R01AC02	18/07/2001
32246352	R01AC02	21/02/2007
31450548	R01AC02	31/05/2007
32042526	R01AC02	27/09/2006
31363946	R01AC02	07/05/2008
31300372	R01AC02	10/04/2007
31864099	R01AC02	26/02/2007
31032877	R01AC02	23/06/2009
31227671	R01AC02	31/05/2007
31850150	R01AC02	22/03/2006
31848997	R01AC02	01/06/2001
32065071	R01AC02	28/12/2010
31259055	R01AC02	10/06/2003
31256421	R01AC02	10/05/2005
31532514	R01AC02	01/10/2010
31442959	R01AC02	12/05/2006
31040057	R01AC02	19/05/2009
31915839	R01AC02	06/06/2007
31767601	R01AC02	10/05/2005
32278810	R01AC02	28/08/2006
31815155	R01AC02	13/03/2009
31518313	R01AC02	04/05/2006
31193567	R01AC02	12/02/2007
32119583	R01AC02	18/05/2001
31338208	R01AC02	25/01/2008
31745891	R01AC02	04/05/2009
31681113	R01AC02	17/07/2002
31135777	R01AC02	16/11/2009
31145470	R01AC02	31/03/1999
31869856	R01AC02	13/05/2008
31401437	R01AC02	22/02/2001
31576373	R01AC02	02/06/2009
31984117	R01AC02	15/05/2008
31495297	R01AC02	23/01/2006
31567723	R01AC02	08/05/2006
31176638	R01AC02	10/05/2005
31347384	R01AC02	25/01/2008
31823756	R01AC02	23/07/2008
31259283	R01AC02	04/05/2006
31558532	R01AC02	24/04/2002
32189511	R01AC02	03/03/2008
31220264	R01AC02	20/06/2008
32192670	R01AC02	05/06/2003
31165938	R01AC02	02/02/2011
31682920	R01AC02	21/05/2008
32114983	R01AC02	26/10/2004
31649595	R01AC02	11/05/2005
