patient_id	covar_name	date
8986265	R03DC03	14/05/2009
8987581	R03DC03	10/03/2008
12857166	R03DC03	28/09/2010
8784390	R03DC03	22/02/2001
25066998	R03DC03	09/05/2011
9231384	R03DC03	04/06/2009
25054888	R03DC03	30/11/2007
25054487	R03DC03	17/01/2007
9371686	R03DC03	28/06/2005
24006220	R03DC03	16/11/2007
1608275	R03DC03	22/07/2009
6749631	R03DC03	28/04/2011
14990478	R03DC03	13/05/2010
11407938	R03DC03	09/05/2006
5566098	R03DC03	16/10/2007
8988089	R03DC03	31/01/2008
8274671	R03DC03	08/05/2007
9134181	R03DC03	07/07/2010
740635	R03DC03	11/05/2011
8977568	R03DC03	14/03/2006
8979038	R03DC03	05/09/2007
17184017	R03DC03	06/04/2011
16249525	R03DC03	12/01/2011
3332699	R03DC03	17/02/2011
9212611	R03DC03	20/04/2011
9310935	R03DC03	04/12/2007
16556934	R03DC03	20/07/2009
12772856	R03DC03	06/04/2010
612097	R03DC03	17/11/2008
6500193	R03DC03	29/12/2004
205360	R03DC03	10/04/2007
5814094	R03DC03	15/11/2005
8979424	R03DC03	26/05/2011
704332	R03DC03	14/05/2007
3322587	R03DC03	22/02/2011
25065782	R03DC03	27/04/2010
21152856	R03DC03	07/04/2011
6187767	R03DC03	26/04/2011
9209618	R03DC03	25/05/2011
17172613	R03DC03	20/05/2011
15427518	R03DC03	24/05/2011
740565	R03DC03	22/04/2008
1941590	R03DC03	24/06/2009
25067960	R03DC03	07/05/2008
10866968	R03DC03	15/01/2010
5031166	R03DC03	28/03/2011
13222335	R03DC03	14/04/2005
62859	R03DC03	15/10/2008
8283295	R03DC03	25/05/2010
7243139	R03DC03	15/03/2011
16531570	R03DC03	05/05/2009
6746935	R03DC03	23/04/2010
8980123	R03DC03	01/02/2011
13191192	R03DC03	02/06/2010
8569203	R03DC03	16/05/2011
16557846	R03DC03	19/02/2010
12695067	R03DC03	06/04/2006
7405489	R03DC03	20/04/2006
12689672	R03DC03	06/05/2011
1938542	R03DC03	11/01/2008
13375636	R03DC03	14/03/2011
20413411	R03DC03	29/11/2010
3118580	R03DC03	26/05/2010
9425279	R03DC03	06/04/2009
8554725	R03DC03	10/05/2010
12772955	R03DC03	11/05/2009
20910320	R03DC03	08/04/2011
16922577	R03DC03	12/09/2006
23994781	R03DC03	01/03/2005
19180813	R03DC03	08/02/2008
5865734	R03DC03	26/01/2010
5002420	R03DC03	04/07/2003
9296225	R03DC03	07/07/2008
9135492	R03DC03	17/05/2006
24006136	R03DC03	30/05/2011
6749295	R03DC03	17/02/2005
25065956	R03DC03	04/02/2011
1515149	R03DC03	28/05/2003
19178597	R03DC03	31/03/2008
25054416	R03DC03	31/05/2006
10246618	R03DC03	02/03/2004
21805511	R03DC03	15/05/2009
8651304	R03DC03	12/12/2008
6745181	R03DC03	27/05/2011
15426039	R03DC03	28/03/2011
12259754	R03DC03	16/12/2009
1069269	R03DC03	24/05/2011
1433271	R03DC03	16/05/2006
6079237	R03DC03	25/05/2011
3285528	R03DC03	01/06/2006
24004245	R03DC03	08/04/2010
16530087	R03DC03	10/12/2008
20414136	R03DC03	14/03/2006
12259696	R03DC03	15/10/2007
14857979	R03DC03	05/10/2006
19179544	R03DC03	25/06/2008
751585	R03DC03	19/02/2007
21806208	R03DC03	08/11/2010
21369952	R03DC03	17/11/2010
24004943	R03DC03	28/03/2011
7635178	R03DC03	30/06/2005
7824020	R03DC03	25/07/2007
17789325	R03DC03	25/05/2011
13734382	R03DC03	25/09/2008
1054373	R03DC03	10/01/2002
7777189	R03DC03	19/03/2008
404904	R03DC03	02/03/2009
21477563	R03DC03	05/11/2010
1199932	R03DC03	25/03/2011
11457524	R03DC03	04/02/2010
6842229	R03DC03	02/02/2011
1853285	R03DC03	28/05/2008
2723955	R03DC03	13/04/2010
1547134	R03DC03	08/04/2009
18039002	R03DC03	28/09/2005
638786	R03DC03	25/09/2008
6594944	R03DC03	19/04/2005
6633918	R03DC03	10/05/2010
648336	R03DC03	06/05/2011
25984215	R03DC03	05/12/2006
8956059	R03DC03	10/05/2011
18039159	R03DC03	27/03/2007
15477506	R03DC03	10/03/2010
8066983	R03DC03	02/06/2008
18365866	R03DC03	18/12/2006
404974	R03DC03	15/07/2005
12189609	R03DC03	25/05/2001
18038752	R03DC03	29/03/2011
1055033	R03DC03	29/04/2005
7697001	R03DC03	29/07/2008
25897464	R03DC03	13/12/2010
1135117	R03DC03	08/02/2010
1578228	R03DC03	04/11/2009
12665128	R03DC03	02/02/2009
1566989	R03DC03	04/02/2011
2643117	R03DC03	02/06/2006
25900612	R03DC03	11/01/2010
25888228	R03DC03	11/03/2011
716273	R03DC03	29/09/2009
10492183	R03DC03	04/06/2008
25897788	R03DC03	09/01/2009
1855368	R03DC03	08/01/2007
6495063	R03DC03	02/03/2009
25766579	R03DC03	23/08/2006
6392832	R03DC03	15/04/2008
6492704	R03DC03	07/03/2011
1108840	R03DC03	22/12/2006
1108525	R03DC03	09/08/2007
1638565	R03DC03	19/05/2005
134966	R03DC03	31/05/2011
1027312	R03DC03	14/01/2008
1104695	R03DC03	21/01/2011
1577875	R03DC03	13/05/2011
6494913	R03DC03	28/10/2010
25905289	R03DC03	28/10/2008
25897169	R03DC03	16/04/2010
21282892	R03DC03	25/05/2011
1135359	R03DC03	06/03/2009
25766651	R03DC03	06/05/2011
1108431	R03DC03	03/03/2010
1855343	R03DC03	31/05/2011
135815	R03DC03	23/01/2011
1552120	R03DC03	25/04/2011
25883547	R03DC03	26/03/2009
4675831	R03DC03	22/10/2007
25897453	R03DC03	22/06/2010
1065365	R03DC03	11/05/2011
25757999	R03DC03	23/04/2007
1109593	R03DC03	10/05/2011
3656051	R03DC03	30/03/2011
25873473	R03DC03	08/02/2010
3656203	R03DC03	03/05/2010
25768735	R03DC03	12/11/2004
1638244	R03DC03	15/03/2011
1566887	R03DC03	26/02/2002
1107084	R03DC03	17/05/2006
2087936	R03DC03	09/06/2010
2238624	R03DC03	18/02/2011
2068106	R03DC03	21/02/2011
2043315	R03DC03	30/04/2009
2087956	R03DC03	04/02/2008
2143165	R03DC03	01/06/2010
875533	R03DC03	02/07/2010
905063	R03DC03	08/08/2008
1763227	R03DC03	04/12/2007
874253	R03DC03	05/05/2010
7134077	R03DC03	19/01/2010
858702	R03DC03	13/07/2006
879101	R03DC03	08/02/2011
2757125	R03DC03	18/03/2010
2756008	R03DC03	13/11/2003
2357436	R03DC03	20/11/2007
15643872	R03DC03	06/05/2011
16962173	R03DC03	05/04/2010
16835317	R03DC03	29/04/2011
26565598	R03DC03	06/05/2011
26550709	R03DC03	01/12/2008
26284651	R03DC03	26/10/2010
26392078	R03DC03	24/02/2009
26480772	R03DC03	10/03/2011
7228407	R03DC03	18/11/2010
7229284	R03DC03	13/07/2010
20147230	R03DC03	20/11/2006
28042025	R03DC03	05/05/2005
26392599	R03DC03	11/01/2011
11533934	R03DC03	26/05/2008
15657691	R03DC03	11/05/2010
17893260	R03DC03	22/03/2011
16962020	R03DC03	10/04/2008
16836110	R03DC03	17/11/2008
9643749	R03DC03	26/05/2010
11533840	R03DC03	27/05/2011
7987077	R03DC03	03/05/2011
16945854	R03DC03	26/03/2008
16835513	R03DC03	05/08/2005
1908398	R03DC03	30/03/2007
436735	R03DC03	05/10/2004
18222373	R03DC03	14/01/2009
28075231	R03DC03	07/03/2011
28085103	R03DC03	07/01/2011
26408077	R03DC03	01/09/2008
16962291	R03DC03	13/01/2009
2754223	R03DC03	02/03/2009
619579	R03DC03	19/09/2007
2779304	R03DC03	21/02/2011
464887	R03DC03	15/04/2011
24661671	R03DC03	07/12/2010
25743607	R03DC03	27/07/2010
24662440	R03DC03	24/03/2011
24660678	R03DC03	20/04/2011
24660214	R03DC03	25/03/2010
24670759	R03DC03	20/05/2011
25737845	R03DC03	03/03/2009
1020566	R03DC03	21/05/2003
1020473	R03DC03	07/05/2011
619414	R03DC03	04/08/2008
1373981	R03DC03	19/03/2007
18198609	R03DC03	08/04/2011
19803524	R03DC03	11/06/2010
18187303	R03DC03	11/04/2001
18197591	R03DC03	26/05/2011
1904747	R03DC03	26/09/2008
2968063	R03DC03	30/04/2004
12984429	R03DC03	11/09/2008
12984462	R03DC03	17/09/2001
12994266	R03DC03	21/02/2006
12984522	R03DC03	27/11/2008
618339	R03DC03	25/09/2008
618369	R03DC03	21/01/2011
6563419	R03DC03	20/09/2007
1042407	R03DC03	07/07/2008
26831859	R03DC03	18/05/2011
26796008	R03DC03	29/03/2011
26621822	R03DC03	18/11/2008
17157171	R03DC03	25/11/2008
15808607	R03DC03	04/03/2011
12952403	R03DC03	06/11/2008
24485599	R03DC03	15/12/2010
16820284	R03DC03	01/12/2010
12951527	R03DC03	11/01/2011
16085193	R03DC03	25/05/2011
16844351	R03DC03	23/11/2006
26622322	R03DC03	30/11/2005
26626128	R03DC03	22/06/2009
26703240	R03DC03	14/05/2003
24485512	R03DC03	30/04/2007
24666066	R03DC03	17/05/2011
24656518	R03DC03	11/06/2007
24656356	R03DC03	08/06/2010
24547776	R03DC03	03/01/2011
23453474	R03DC03	18/04/2011
24578829	R03DC03	21/12/2008
24576929	R03DC03	08/06/2004
24594349	R03DC03	05/05/2011
27026991	R03DC03	13/02/2009
26896402	R03DC03	27/12/2005
26900691	R03DC03	14/10/2010
26882417	R03DC03	23/05/2011
26916199	R03DC03	27/05/2011
26938136	R03DC03	31/05/2011
26779381	R03DC03	20/04/2011
26759540	R03DC03	06/04/2010
26883943	R03DC03	15/06/2007
26726334	R03DC03	30/03/2007
26881361	R03DC03	11/02/2008
26879837	R03DC03	01/06/2010
26880289	R03DC03	13/01/2009
26886743	R03DC03	16/12/2010
26936559	R03DC03	11/06/2007
26879702	R03DC03	13/03/2009
26803581	R03DC03	21/02/2011
26784984	R03DC03	07/03/2011
26713687	R03DC03	04/10/2007
26791924	R03DC03	10/03/2008
26753798	R03DC03	11/07/2008
26715350	R03DC03	10/11/2008
26960799	R03DC03	26/12/2009
26999711	R03DC03	09/04/2009
26939494	R03DC03	14/09/2007
26973183	R03DC03	29/06/2009
26944531	R03DC03	27/10/2009
27043420	R03DC03	24/11/2004
27134502	R03DC03	30/12/2009
27115927	R03DC03	29/05/2011
27108006	R03DC03	23/02/2011
27072992	R03DC03	17/05/2011
27030054	R03DC03	02/05/2008
27062865	R03DC03	18/05/2011
27048458	R03DC03	12/11/2007
27075973	R03DC03	10/01/2007
27065487	R03DC03	01/06/2011
27048705	R03DC03	08/02/2011
27053590	R03DC03	22/03/2010
27021301	R03DC03	08/04/2008
27030545	R03DC03	07/04/2009
27023693	R03DC03	18/09/2006
27002175	R03DC03	27/02/2007
27021767	R03DC03	08/06/2009
27027383	R03DC03	11/02/2009
27027687	R03DC03	09/11/2005
27027595	R03DC03	12/03/2008
26996261	R03DC03	31/05/2011
27027177	R03DC03	05/06/2009
27000993	R03DC03	04/06/2009
27002578	R03DC03	21/11/2007
27032118	R03DC03	12/05/2011
27327343	R03DC03	24/12/2008
27233913	R03DC03	11/01/2011
27216549	R03DC03	03/05/2011
27213133	R03DC03	13/05/2011
27327876	R03DC03	08/02/2011
27162490	R03DC03	25/02/2010
27295722	R03DC03	27/01/2010
27131300	R03DC03	20/11/2006
27222204	R03DC03	02/11/2010
27296387	R03DC03	26/09/2008
27235809	R03DC03	29/04/2008
27196362	R03DC03	05/12/2007
27295991	R03DC03	18/10/2005
27319659	R03DC03	06/11/2007
27295928	R03DC03	14/04/2004
27319537	R03DC03	11/09/2009
27346014	R03DC03	24/05/2011
27346451	R03DC03	30/06/2010
27317311	R03DC03	18/05/2011
27359705	R03DC03	25/05/2011
27306964	R03DC03	29/09/2009
27306966	R03DC03	18/06/2007
26981482	R03DC03	04/06/2010
26954109	R03DC03	28/05/2010
26943081	R03DC03	14/04/2009
26943084	R03DC03	07/06/2010
27248145	R03DC03	13/05/2008
27237009	R03DC03	08/09/2000
26960579	R03DC03	02/03/2011
27632394	R03DC03	06/05/2011
27660756	R03DC03	19/05/2011
27739364	R03DC03	01/06/2011
27591057	R03DC03	13/10/2009
27574941	R03DC03	26/10/2009
27484556	R03DC03	28/04/2011
27478312	R03DC03	30/04/2008
27452366	R03DC03	11/03/2004
27451954	R03DC03	09/05/2011
27450296	R03DC03	16/02/2009
27415090	R03DC03	09/05/2011
27616208	R03DC03	07/07/2010
27569588	R03DC03	15/09/2008
27570415	R03DC03	25/05/2011
27564567	R03DC03	27/11/2008
27765553	R03DC03	19/05/2011
27565610	R03DC03	23/04/2011
27716033	R03DC03	17/05/2011
27161370	R03DC03	03/03/2010
27148357	R03DC03	20/08/2010
27286567	R03DC03	10/05/2011
27232266	R03DC03	24/11/2008
27295071	R03DC03	26/10/2006
27452036	R03DC03	18/12/2006
27167562	R03DC03	27/03/2008
27146052	R03DC03	20/11/2007
27000618	R03DC03	07/05/2009
27451408	R03DC03	14/10/2009
27675236	R03DC03	29/05/2011
27125723	R03DC03	23/01/2009
26969021	R03DC03	16/05/2007
23087622	R03DC03	19/04/2011
24745593	R03DC03	20/10/2010
26725920	R03DC03	07/10/2010
26944101	R03DC03	10/12/2003
27452007	R03DC03	02/06/2009
27108137	R03DC03	07/03/2011
27530515	R03DC03	25/12/2008
27781212	R03DC03	15/04/2009
27451039	R03DC03	04/06/2009
27451091	R03DC03	30/07/2009
27454577	R03DC03	16/05/2007
27678951	R03DC03	17/10/2008
27767169	R03DC03	09/06/2008
27679944	R03DC03	29/05/2011
27296616	R03DC03	22/04/2003
27678368	R03DC03	10/12/2007
27777418	R03DC03	15/10/2010
27515560	R03DC03	25/05/2011
27680700	R03DC03	02/12/2009
27664133	R03DC03	06/05/2011
27570288	R03DC03	04/04/2011
27671191	R03DC03	19/05/2011
26943131	R03DC03	09/03/2009
27517142	R03DC03	03/02/2010
27575437	R03DC03	05/05/2011
27651027	R03DC03	19/06/2008
27449148	R03DC03	03/04/2007
27450937	R03DC03	10/03/2008
27296530	R03DC03	12/01/2011
27477049	R03DC03	18/08/2008
27451490	R03DC03	25/06/2008
27295270	R03DC03	17/03/2010
2809166	R03DC03	02/09/2009
26935988	R03DC03	13/11/2001
27451803	R03DC03	05/05/2009
6012728	R03DC03	13/09/2010
27319324	R03DC03	06/05/2011
27808069	R03DC03	28/06/2010
27689424	R03DC03	06/05/2009
27797328	R03DC03	03/10/2008
27764267	R03DC03	05/05/2011
27662240	R03DC03	06/05/2011
18192670	R03DC03	22/03/2011
26969095	R03DC03	21/01/2009
27484343	R03DC03	15/03/2011
27484270	R03DC03	19/04/2011
27520212	R03DC03	25/03/2011
27471521	R03DC03	17/10/2006
27031166	R03DC03	01/10/2010
2987569	R03DC03	21/05/2009
27648962	R03DC03	11/02/2011
27766767	R03DC03	11/04/2011
13497550	R03DC03	15/04/2005
27047804	R03DC03	04/05/2011
27413880	R03DC03	21/10/2003
27795968	R03DC03	03/03/2011
27027551	R03DC03	05/11/2010
27802966	R03DC03	20/10/2005
27771604	R03DC03	20/12/2004
27803156	R03DC03	17/12/2003
33067338	R03DC03	26/05/2011
33000047	R03DC03	23/10/2006
33007193	R03DC03	29/04/2009
33019812	R03DC03	02/04/2009
33012880	R03DC03	03/06/2009
33075946	R03DC03	29/05/2006
33067601	R03DC03	08/04/2011
33031382	R03DC03	25/09/2007
33125119	R03DC03	10/01/2008
33075095	R03DC03	05/01/2006
33073090	R03DC03	04/05/2009
33047468	R03DC03	14/05/2010
33010944	R03DC03	18/01/2002
33114697	R03DC03	08/05/2007
33106608	R03DC03	06/04/2011
33131703	R03DC03	20/04/2011
33113624	R03DC03	05/05/2010
33015423	R03DC03	06/07/2009
33118985	R03DC03	10/11/2006
33099374	R03DC03	19/11/2007
33004433	R03DC03	18/05/2011
33090887	R03DC03	10/12/2008
33074224	R03DC03	27/01/2003
33000634	R03DC03	28/08/2009
33024979	R03DC03	01/01/2011
33118326	R03DC03	09/02/2007
33056441	R03DC03	29/03/2010
33024315	R03DC03	12/06/2008
33029027	R03DC03	13/05/2011
33126891	R03DC03	29/03/2011
33066001	R03DC03	13/04/2000
33005545	R03DC03	28/05/2010
33034999	R03DC03	31/05/2011
33097390	R03DC03	19/06/2009
33066419	R03DC03	06/06/2005
26943592	R03DC03	16/01/2006
20330777	R03DC03	09/10/2007
27808378	R03DC03	24/03/2010
33054276	R03DC03	29/01/2010
436222	R03DC03	07/07/2005
27994744	R03DC03	30/05/2011
28019239	R03DC03	10/11/2003
33109924	R03DC03	19/04/2011
27994059	R03DC03	05/02/2008
16655774	R03DC03	12/07/2005
33007194	R03DC03	21/01/2009
33048320	R03DC03	25/04/2011
33128935	R03DC03	18/02/2011
33025298	R03DC03	06/05/2011
33106875	R03DC03	24/01/2008
33017905	R03DC03	07/12/2010
33065144	R03DC03	01/02/2005
33104781	R03DC03	15/12/2010
33102600	R03DC03	27/04/2011
33019575	R03DC03	10/04/2003
33106615	R03DC03	11/05/2011
33049611	R03DC03	03/12/2008
33104544	R03DC03	10/05/2011
33000591	R03DC03	07/10/2010
33111959	R03DC03	11/01/2008
33012899	R03DC03	27/04/2005
33080540	R03DC03	28/05/2011
33022830	R03DC03	17/05/2011
33065950	R03DC03	04/06/2008
33011953	R03DC03	18/10/2010
33091322	R03DC03	30/07/2009
33105556	R03DC03	05/04/2004
33057611	R03DC03	21/02/2008
33109220	R03DC03	11/03/2011
33077831	R03DC03	23/05/2011
33058332	R03DC03	02/03/2001
33118257	R03DC03	10/06/2008
16774206	R03DC03	23/12/2009
23381129	R03DC03	15/04/2009
16646009	R03DC03	26/03/2007
23360965	R03DC03	03/03/2009
33218148	R03DC03	27/08/2010
27996332	R03DC03	17/11/2009
27996447	R03DC03	15/05/2011
16651428	R03DC03	04/03/2009
16133833	R03DC03	11/08/2008
20983733	R03DC03	20/11/2010
33233059	R03DC03	07/03/2011
33242352	R03DC03	03/05/2010
16652243	R03DC03	29/06/2007
33293602	R03DC03	07/02/2011
28007253	R03DC03	24/02/2010
33221866	R03DC03	06/05/2005
33306067	R03DC03	13/06/2008
16680316	R03DC03	15/01/2009
23386984	R03DC03	09/05/2008
33226092	R03DC03	14/03/2008
16633771	R03DC03	25/07/2006
27934525	R03DC03	29/03/2010
20982073	R03DC03	04/10/2004
33212635	R03DC03	24/05/2010
20991532	R03DC03	18/03/2009
16596274	R03DC03	20/05/2004
33212859	R03DC03	30/05/2011
16133563	R03DC03	29/10/2007
23410797	R03DC03	19/05/2011
20990975	R03DC03	24/05/2005
33246285	R03DC03	09/05/2006
16684088	R03DC03	25/05/2011
20982124	R03DC03	15/09/2008
33243281	R03DC03	15/09/2010
18761680	R03DC03	10/05/2011
33213081	R03DC03	24/05/2011
27998853	R03DC03	22/05/2006
16652192	R03DC03	15/06/2007
27975673	R03DC03	06/05/2011
18757709	R03DC03	30/05/2008
16646273	R03DC03	18/04/2005
31899887	R03DC03	25/09/2008
32260917	R03DC03	10/09/2009
31540727	R03DC03	10/12/2009
33308242	R03DC03	02/01/2008
33314705	R03DC03	03/09/2010
16630904	R03DC03	17/01/2005
23387186	R03DC03	28/04/2011
28213072	R03DC03	14/04/2011
16186784	R03DC03	20/12/2007
23371485	R03DC03	11/06/2008
31681468	R03DC03	22/05/2006
31971268	R03DC03	07/05/2007
32128014	R03DC03	25/10/2005
31427737	R03DC03	03/11/2010
31655296	R03DC03	17/03/2006
32217710	R03DC03	10/09/2010
31638051	R03DC03	21/02/2005
31641080	R03DC03	16/09/2009
31359861	R03DC03	12/12/2008
31889673	R03DC03	19/12/2006
31346249	R03DC03	26/01/2010
31737752	R03DC03	23/03/2011
31340895	R03DC03	01/06/2006
31298093	R03DC03	21/06/2010
31509471	R03DC03	13/10/2009
31103952	R03DC03	15/05/2006
31804323	R03DC03	15/12/2008
31560518	R03DC03	22/03/2006
31296440	R03DC03	13/10/2010
31391321	R03DC03	21/12/2010
32067501	R03DC03	23/11/2010
31866110	R03DC03	07/12/2010
31137773	R03DC03	13/07/2010
31344263	R03DC03	13/02/2007
31168611	R03DC03	14/01/2011
31478383	R03DC03	14/02/2008
31994910	R03DC03	30/05/2006
32273248	R03DC03	16/10/2009
31979808	R03DC03	02/06/2009
31750270	R03DC03	05/11/2009
32086668	R03DC03	31/10/2008
31499937	R03DC03	31/05/2010
31160986	R03DC03	20/05/2008
31953094	R03DC03	09/03/2011
31114447	R03DC03	10/06/2009
31573454	R03DC03	21/09/2006
31396351	R03DC03	02/03/2011
31345157	R03DC03	22/12/2008
32282437	R03DC03	24/03/2009
31898729	R03DC03	08/03/2006
31993693	R03DC03	13/03/2009
31471291	R03DC03	09/08/2010
31868233	R03DC03	16/08/2005
31067837	R03DC03	02/11/2010
32153585	R03DC03	28/03/2006
31278219	R03DC03	09/03/2005
32137034	R03DC03	20/09/2010
31268864	R03DC03	11/02/2010
31399327	R03DC03	14/04/2009
31638561	R03DC03	10/01/2007
31101485	R03DC03	13/05/2011
31359458	R03DC03	01/07/2009
31183723	R03DC03	21/01/2011
31478904	R03DC03	27/10/2010
31282825	R03DC03	11/04/2008
31443846	R03DC03	22/05/2008
31071617	R03DC03	12/01/2010
31332969	R03DC03	16/03/2004
31580241	R03DC03	26/05/2010
31610314	R03DC03	15/10/2010
31663201	R03DC03	24/04/2007
31765330	R03DC03	13/05/2010
31126238	R03DC03	02/06/2008
31874278	R03DC03	10/04/2007
31796678	R03DC03	08/05/2007
31851762	R03DC03	21/02/2006
31810278	R03DC03	21/02/2008
31284291	R03DC03	06/04/2011
31553549	R03DC03	13/11/2006
31595393	R03DC03	16/11/2004
32084541	R03DC03	03/12/2008
31255739	R03DC03	22/01/2008
31929890	R03DC03	26/03/2010
31777190	R03DC03	24/10/2008
31426404	R03DC03	29/01/2010
31076402	R03DC03	04/03/2010
31103963	R03DC03	03/10/2008
31811731	R03DC03	09/11/2006
32257593	R03DC03	23/12/2009
31904957	R03DC03	16/05/2006
31296098	R03DC03	10/12/2009
31970563	R03DC03	26/09/2008
31553248	R03DC03	18/11/2009
32064227	R03DC03	25/11/2009
32075594	R03DC03	01/12/2004
31726864	R03DC03	14/10/2008
31787514	R03DC03	06/05/2009
31723265	R03DC03	22/03/2011
32033414	R03DC03	27/12/2007
31080059	R03DC03	11/12/2009
32232415	R03DC03	23/12/2008
32118134	R03DC03	09/02/2009
32273087	R03DC03	06/05/2005
32245709	R03DC03	24/01/2011
31677971	R03DC03	19/10/2010
32229476	R03DC03	22/06/2009
32262837	R03DC03	16/04/2007
31332467	R03DC03	04/07/2008
31350214	R03DC03	26/10/2010
31390634	R03DC03	30/11/2007
31404448	R03DC03	21/06/2010
31833902	R03DC03	03/05/2011
31961203	R03DC03	31/10/2008
31203077	R03DC03	30/06/2009
31847089	R03DC03	29/09/2009
31505481	R03DC03	30/10/2009
31721930	R03DC03	15/04/2011
31308618	R03DC03	11/06/2007
31927171	R03DC03	11/04/2011
31225275	R03DC03	12/06/2007
31353604	R03DC03	19/04/2011
32043742	R03DC03	05/11/2009
32032672	R03DC03	16/03/2007
31538379	R03DC03	14/04/2009
31980687	R03DC03	24/03/2006
31504835	R03DC03	14/05/2010
32109438	R03DC03	06/05/2011
32018111	R03DC03	28/11/2008
31142684	R03DC03	18/08/2009
31588667	R03DC03	25/01/2011
32102604	R03DC03	01/02/2011
31645924	R03DC03	06/05/2009
32050400	R03DC03	11/02/2004
32115818	R03DC03	14/05/2008
31246615	R03DC03	17/11/2010
31672308	R03DC03	11/12/2009
32166442	R03DC03	23/05/2008
31956345	R03DC03	07/04/2011
31211511	R03DC03	30/04/2009
32054329	R03DC03	13/11/2007
31385047	R03DC03	17/05/2006
31529005	R03DC03	17/04/2009
31816065	R03DC03	14/04/2005
31532514	R03DC03	04/06/2004
31991847	R03DC03	30/11/2009
31243831	R03DC03	10/01/2007
32190244	R03DC03	29/12/2006
31479115	R03DC03	29/05/2009
31564399	R03DC03	03/12/2009
31627573	R03DC03	21/05/2009
31045073	R03DC03	10/11/2009
31044454	R03DC03	04/03/2011
32029132	R03DC03	19/06/2009
31279289	R03DC03	01/03/2011
32147351	R03DC03	20/03/2007
31525710	R03DC03	01/08/2006
31341166	R03DC03	17/09/2009
32275147	R03DC03	13/07/2010
31273806	R03DC03	02/06/2006
32108735	R03DC03	24/09/2007
31050834	R03DC03	08/04/2011
31828790	R03DC03	07/02/2011
31964079	R03DC03	16/12/2009
31209417	R03DC03	20/05/2009
32084841	R03DC03	15/10/2009
31261235	R03DC03	07/06/2002
31264507	R03DC03	26/04/2005
32145346	R03DC03	26/05/2009
31414392	R03DC03	27/04/2011
31722025	R03DC03	21/04/2010
31528429	R03DC03	19/11/2008
32258540	R03DC03	29/12/2010
31197692	R03DC03	20/04/2009
31076207	R03DC03	21/02/2006
31451508	R03DC03	28/10/2009
31670721	R03DC03	08/01/2004
31807086	R03DC03	20/01/2011
31857542	R03DC03	15/06/2009
31970294	R03DC03	21/05/2011
31224475	R03DC03	02/01/2006
31595311	R03DC03	27/05/2004
31339785	R03DC03	13/08/2009
31432970	R03DC03	14/12/2006
31375081	R03DC03	11/02/2011
32082986	R03DC03	12/06/2000
31956931	R03DC03	12/12/2008
31214599	R03DC03	09/12/2004
32270655	R03DC03	25/10/2010
32111220	R03DC03	18/01/2007
31674303	R03DC03	31/10/2007
31416750	R03DC03	26/09/2006
31176011	R03DC03	23/11/2009
31563177	R03DC03	15/12/2008
31693991	R03DC03	19/05/2010
31061178	R03DC03	24/02/2006
31644023	R03DC03	28/10/2010
31102254	R03DC03	28/06/2010
31774644	R03DC03	21/05/2007
31117424	R03DC03	10/03/2005
32225093	R03DC03	14/12/2009
31340149	R03DC03	03/11/2009
31699520	R03DC03	09/07/2009
31233848	R03DC03	26/10/2010
31941186	R03DC03	19/11/2007
31073316	R03DC03	03/11/2009
31238640	R03DC03	30/06/2005
31933820	R03DC03	07/07/2004
31160290	R03DC03	20/03/2009
31586852	R03DC03	19/04/2010
31512215	R03DC03	26/07/2006
31676073	R03DC03	26/11/2009
31873049	R03DC03	14/11/2007
31266006	R03DC03	27/04/2009
32109768	R03DC03	05/04/2004
31096524	R03DC03	10/11/2004
32239114	R03DC03	28/03/2007
31127249	R03DC03	05/05/2009
31477255	R03DC03	25/02/2004
31755336	R03DC03	21/07/2009
31660369	R03DC03	14/02/2006
31630819	R03DC03	20/11/2009
31189775	R03DC03	08/02/2007
31518348	R03DC03	25/05/2010
31385542	R03DC03	11/12/2009
31122698	R03DC03	25/04/2005
31300735	R03DC03	09/12/2009
31367730	R03DC03	02/04/2007
31484727	R03DC03	22/01/2009
31614670	R03DC03	04/06/2007
31818087	R03DC03	11/05/2011
32044916	R03DC03	04/05/2007
32110650	R03DC03	16/02/2009
31209696	R03DC03	17/02/2006
31968838	R03DC03	10/12/2007
31812691	R03DC03	04/07/2007
31520226	R03DC03	13/07/2007
31610930	R03DC03	13/02/2007
31352690	R03DC03	14/12/2007
32165604	R03DC03	11/12/2009
31549675	R03DC03	01/02/2008
31157988	R03DC03	02/12/2009
32016098	R03DC03	08/03/2005
31829829	R03DC03	06/04/2011
31952651	R03DC03	30/01/2008
32189511	R03DC03	29/07/2009
31734620	R03DC03	18/11/2009
32219984	R03DC03	04/08/2004
32122873	R03DC03	15/04/2011
31759307	R03DC03	26/03/2010
31429083	R03DC03	17/09/2009
31640617	R03DC03	18/02/2009
32120400	R03DC03	21/12/2007
31575149	R03DC03	12/06/2006
31353254	R03DC03	03/07/2008
31197126	R03DC03	01/10/2008
32260381	R03DC03	25/02/2005
31747060	R03DC03	30/04/2004
32030746	R03DC03	01/06/2010
31506882	R03DC03	25/02/2011
32114983	R03DC03	22/05/2006
32231510	R03DC03	15/12/2010
31963525	R03DC03	23/03/2011
