patient_id	covar_name	date
8654002	R03AK04	13/05/2008
6747933	R03AK04	16/03/2007
3122137	R03AK04	14/06/2002
5031417	R03AK04	28/01/2005
21806664	R03AK04	26/04/2006
8786220	R03AK04	16/11/2004
4700861	R03AK04	08/01/2008
1320092	R03AK04	23/02/2007
8068502	R03AK04	21/02/2008
1444332	R03AK04	19/04/2005
7971640	R03AK04	20/02/2008
1200721	R03AK04	20/04/2004
1850465	R03AK04	25/11/2003
1417278	R03AK04	08/04/2008
645626	R03AK04	17/02/2004
6594944	R03AK04	11/05/2005
515787	R03AK04	03/01/2007
1852867	R03AK04	05/04/2005
648336	R03AK04	12/04/2006
7971319	R03AK04	28/09/2006
6842461	R03AK04	21/06/2007
6842058	R03AK04	10/01/2008
6591119	R03AK04	04/02/2008
7801045	R03AK04	01/02/2005
12613417	R03AK04	24/10/2006
7776144	R03AK04	25/02/2008
24940303	R03AK04	18/09/2006
6842492	R03AK04	06/02/2008
7777716	R03AK04	17/01/2008
7966257	R03AK04	17/09/2008
6423378	R03AK04	14/11/2007
716273	R03AK04	09/10/2001
7801714	R03AK04	13/02/2008
1006749	R03AK04	09/03/2009
134659	R03AK04	22/12/2003
1579746	R03AK04	04/12/2007
25766392	R03AK04	02/11/2000
1855343	R03AK04	14/02/2006
25768735	R03AK04	13/02/2001
873649	R03AK04	17/04/2001
16979996	R03AK04	15/01/2008
2755397	R03AK04	19/11/2008
23890725	R03AK04	10/08/2003
16832644	R03AK04	07/01/2008
186158	R03AK04	15/04/2008
302105	R03AK04	18/06/2003
186102	R03AK04	17/03/2009
1020237	R03AK04	13/12/2007
19800570	R03AK04	11/12/2007
18197681	R03AK04	16/08/2004
26825417	R03AK04	02/07/2004
24654583	R03AK04	04/03/2002
26742016	R03AK04	26/01/2007
27086485	R03AK04	18/01/2005
27086095	R03AK04	22/02/2005
27086129	R03AK04	20/06/2005
27085041	R03AK04	02/11/2004
27061186	R03AK04	17/03/2009
27085882	R03AK04	12/09/2005
27034376	R03AK04	24/07/2008
27359957	R03AK04	11/08/2008
27415090	R03AK04	22/10/2003
27086174	R03AK04	23/02/2007
27804349	R03AK04	09/07/2008
33105472	R03AK04	11/06/2007
33043461	R03AK04	12/05/2006
33019235	R03AK04	27/04/2000
33004433	R03AK04	20/05/2003
33067653	R03AK04	17/01/2005
33066419	R03AK04	07/02/2003
33010680	R03AK04	02/01/2006
33090531	R03AK04	20/02/2007
33065144	R03AK04	09/01/2007
33084973	R03AK04	31/05/2001
33012104	R03AK04	02/11/2000
33070826	R03AK04	27/04/2007
33013603	R03AK04	10/07/2002
33053309	R03AK04	13/02/2002
16774206	R03AK04	31/03/2005
33200115	R03AK04	18/04/2011
33231663	R03AK04	27/05/2010
23411938	R03AK04	14/06/2006
23406100	R03AK04	01/08/2005
23408701	R03AK04	22/05/2007
16139599	R03AK04	20/01/2005
31992684	R03AK04	21/01/2003
31488907	R03AK04	08/07/2003
31728384	R03AK04	27/10/2003
31137112	R03AK04	05/06/2002
