patient_id	covar_name	date
1188645	S01CC01	17/07/2007
16531516	S01CC01	01/10/2004
8972632	S01CC01	29/04/2004
16531570	S01CC01	19/02/2008
12479856	S01CC01	26/05/2011
16557846	S01CC01	17/09/2007
1335810	S01CC01	17/09/2003
6080399	S01CC01	16/08/2005
12188310	S01CC01	19/04/2003
18056114	S01CC01	16/08/2002
1415991	S01CC01	30/04/2010
1054373	S01CC01	10/05/2006
8934911	S01CC01	29/12/2008
1261770	S01CC01	18/04/2010
7800898	S01CC01	08/11/2006
8175392	S01CC01	09/06/2008
8955480	S01CC01	01/02/2007
1261455	S01CC01	05/05/2004
1545551	S01CC01	22/01/2005
8956630	S01CC01	29/01/2009
1264156	S01CC01	15/03/2005
1263776	S01CC01	17/09/2010
26139882	S01CC01	03/02/2011
8935141	S01CC01	29/06/2010
1262006	S01CC01	15/01/2005
12187273	S01CC01	07/04/2003
1263009	S01CC01	23/07/2007
1378876	S01CC01	23/03/2005
25355224	S01CC01	30/05/2007
1261575	S01CC01	11/11/2009
718128	S01CC01	14/03/2001
1855343	S01CC01	20/03/2002
2070080	S01CC01	26/01/2010
2059046	S01CC01	03/07/2009
2068498	S01CC01	03/12/2010
2068080	S01CC01	06/09/2005
2239335	S01CC01	02/03/2005
2041143	S01CC01	22/11/2005
2139902	S01CC01	10/04/2006
2217164	S01CC01	02/07/2008
2112990	S01CC01	25/08/2006
2053983	S01CC01	16/12/2010
2162696	S01CC01	17/02/2010
901547	S01CC01	27/07/2010
2218765	S01CC01	24/04/2003
2041685	S01CC01	17/08/2006
873649	S01CC01	23/10/2009
2811902	S01CC01	31/05/2011
2041614	S01CC01	19/07/2006
2780191	S01CC01	14/04/2007
2778033	S01CC01	02/07/2009
3052992	S01CC01	09/11/2004
3049571	S01CC01	19/03/2011
3055409	S01CC01	17/11/2006
2525213	S01CC01	30/04/2008
2526231	S01CC01	01/12/2009
2523880	S01CC01	18/05/2009
2522313	S01CC01	27/04/2007
2521654	S01CC01	31/05/2004
2526072	S01CC01	06/10/2010
2713002	S01CC01	14/08/2008
2407008	S01CC01	29/08/2006
26424856	S01CC01	23/02/2009
26463495	S01CC01	31/08/2010
26462819	S01CC01	08/12/2009
26488237	S01CC01	25/12/2009
26409464	S01CC01	22/03/2001
26392037	S01CC01	28/03/2009
17746470	S01CC01	15/10/2009
17747528	S01CC01	22/03/2011
26265184	S01CC01	10/08/2008
26160167	S01CC01	31/05/2010
7229284	S01CC01	14/05/2005
26175205	S01CC01	18/07/2010
26425372	S01CC01	29/07/2010
26424835	S01CC01	13/06/2006
26255901	S01CC01	09/10/2004
16980703	S01CC01	08/06/2004
17041018	S01CC01	26/12/2008
16962769	S01CC01	30/09/2007
18026280	S01CC01	26/11/2010
421427	S01CC01	11/12/2006
188089	S01CC01	16/11/2009
437549	S01CC01	03/07/2006
434740	S01CC01	15/01/2007
434771	S01CC01	05/11/2005
427903	S01CC01	24/09/2004
419256	S01CC01	10/06/2003
437093	S01CC01	14/03/2005
434879	S01CC01	18/03/2010
436990	S01CC01	13/06/2005
182306	S01CC01	11/05/2009
2959751	S01CC01	23/09/2008
419797	S01CC01	09/04/2008
28090716	S01CC01	26/03/2005
28044182	S01CC01	02/11/2010
28091105	S01CC01	08/09/2010
28084179	S01CC01	25/03/2004
2765586	S01CC01	22/09/2010
424784	S01CC01	06/06/2008
425192	S01CC01	14/08/2007
436857	S01CC01	22/02/2005
28051376	S01CC01	04/11/2004
420981	S01CC01	05/12/2003
437604	S01CC01	25/02/2005
423166	S01CC01	19/05/2010
28069809	S01CC01	25/09/2004
28090511	S01CC01	14/04/2011
418315	S01CC01	04/11/2006
437499	S01CC01	09/01/2006
185854	S01CC01	07/12/2009
28044735	S01CC01	22/03/2010
28043427	S01CC01	03/11/2010
28064242	S01CC01	09/06/2003
28062418	S01CC01	11/09/2006
28043953	S01CC01	13/07/2008
28044189	S01CC01	21/07/2009
28046328	S01CC01	04/11/2009
28080549	S01CC01	19/01/2007
28054205	S01CC01	18/01/2008
28045890	S01CC01	19/01/2009
26488738	S01CC01	25/11/2005
25743009	S01CC01	17/04/2009
24670701	S01CC01	31/03/2011
21553944	S01CC01	05/03/2010
18187564	S01CC01	02/03/2005
19788236	S01CC01	26/10/2007
25741729	S01CC01	01/07/2009
1904262	S01CC01	21/02/2008
26777378	S01CC01	21/03/2007
26855912	S01CC01	24/09/2010
16842597	S01CC01	24/04/2007
12975801	S01CC01	19/08/2008
16843220	S01CC01	14/09/2006
26718859	S01CC01	14/12/2010
26719543	S01CC01	25/01/2010
26722846	S01CC01	17/11/2008
16843464	S01CC01	07/01/2010
26719166	S01CC01	07/05/2010
23475652	S01CC01	22/08/2003
26895374	S01CC01	01/11/2010
26930368	S01CC01	19/11/2007
26716443	S01CC01	05/05/2010
26715577	S01CC01	09/03/2009
26720208	S01CC01	29/12/2009
26730108	S01CC01	21/09/2006
26846091	S01CC01	26/05/2011
26848752	S01CC01	15/12/2005
26887343	S01CC01	15/06/2009
26888411	S01CC01	02/06/2008
26857317	S01CC01	07/09/2007
26852671	S01CC01	01/04/2005
26776303	S01CC01	18/05/2005
26778413	S01CC01	25/09/2006
26776380	S01CC01	16/08/2005
26825159	S01CC01	22/06/2009
26947571	S01CC01	26/06/2004
26952101	S01CC01	16/11/2007
27132881	S01CC01	20/03/2011
27062802	S01CC01	02/10/2007
27170364	S01CC01	21/09/2009
27172241	S01CC01	16/09/2010
27172244	S01CC01	15/10/2009
27309182	S01CC01	28/12/2006
27363242	S01CC01	02/09/2008
27306591	S01CC01	25/05/2010
27232386	S01CC01	19/02/2011
27631667	S01CC01	15/06/2007
27617024	S01CC01	05/07/2009
27618071	S01CC01	29/05/2009
27571038	S01CC01	22/03/2007
27643447	S01CC01	02/05/2009
27646502	S01CC01	04/11/2008
27575818	S01CC01	31/10/2003
27475803	S01CC01	13/06/2009
27453703	S01CC01	23/01/2006
27452284	S01CC01	23/05/2006
27460445	S01CC01	30/03/2009
27757050	S01CC01	19/07/2010
27570774	S01CC01	29/07/2005
27553803	S01CC01	05/09/2008
27551398	S01CC01	17/03/2008
27556897	S01CC01	23/05/2011
27564137	S01CC01	09/09/2006
27165352	S01CC01	15/10/2009
27153250	S01CC01	01/07/2003
27454845	S01CC01	01/08/2008
27666103	S01CC01	06/08/2005
27680700	S01CC01	03/05/2004
26888348	S01CC01	02/02/2010
27674082	S01CC01	27/04/2006
27456439	S01CC01	20/07/2008
26933407	S01CC01	16/10/2007
26946481	S01CC01	27/11/2008
21553339	S01CC01	01/04/2006
26971047	S01CC01	24/05/2010
419700	S01CC01	20/04/2007
27797548	S01CC01	28/08/2010
26777332	S01CC01	11/01/2011
26770940	S01CC01	14/10/2008
435210	S01CC01	14/11/2004
27663402	S01CC01	01/12/2006
33089231	S01CC01	26/07/2001
33012294	S01CC01	28/01/2004
25624094	S01CC01	01/08/2008
12876971	S01CC01	27/03/2008
184941	S01CC01	18/12/2006
16841346	S01CC01	01/04/2006
33020434	S01CC01	06/02/2008
16174125	S01CC01	03/04/2003
33207477	S01CC01	26/03/2011
31588614	S01CC01	11/07/2002
31651007	S01CC01	02/06/2004
31756119	S01CC01	23/07/2007
31760474	S01CC01	05/07/2004
31444517	S01CC01	02/01/2008
31077319	S01CC01	26/04/2006
31796127	S01CC01	16/07/2004
31857606	S01CC01	03/05/2002
31075591	S01CC01	13/06/2000
31308618	S01CC01	24/02/2005
31695492	S01CC01	28/03/2005
31258782	S01CC01	30/07/2009
31244492	S01CC01	23/03/2004
31087698	S01CC01	26/04/2005
31073316	S01CC01	21/02/2006
31949691	S01CC01	18/05/2006
31505216	S01CC01	02/03/2005
31293711	S01CC01	26/02/2008
32249623	S01CC01	17/03/2008
31145497	S01CC01	14/02/2007
31539070	S01CC01	18/02/2009
