patient_id	covar_name	date
25050947	S01GX09	25/04/2007
1334423	S01GX09	15/03/2011
8664969	S01GX09	23/06/2008
11407938	S01GX09	23/05/2008
9129326	S01GX09	09/05/2011
9310935	S01GX09	14/04/2011
6235632	S01GX09	31/03/2011
8641180	S01GX09	06/06/2008
6751368	S01GX09	16/06/2006
9302090	S01GX09	17/11/2010
19179021	S01GX09	24/01/2011
9377737	S01GX09	22/06/2010
6153914	S01GX09	18/05/2007
13222335	S01GX09	12/06/2009
610374	S01GX09	11/06/2010
7244033	S01GX09	31/05/2010
8785120	S01GX09	27/04/2006
12761508	S01GX09	04/05/2011
12782081	S01GX09	04/06/2009
16487315	S01GX09	01/03/2010
12790442	S01GX09	26/02/2008
24006136	S01GX09	30/05/2011
24763504	S01GX09	31/05/2007
5024989	S01GX09	30/11/2005
15901339	S01GX09	21/07/2004
24729124	S01GX09	31/05/2010
17169516	S01GX09	05/05/2010
8582021	S01GX09	09/07/2007
8288758	S01GX09	14/04/2011
3322728	S01GX09	08/03/2010
3291696	S01GX09	30/07/2008
9304423	S01GX09	07/07/2005
1468404	S01GX09	05/05/2005
3290897	S01GX09	27/01/2011
7248494	S01GX09	22/10/2010
24730202	S01GX09	24/06/2004
6887263	S01GX09	19/01/2011
1446082	S01GX09	09/08/2010
1054373	S01GX09	26/01/2011
5992233	S01GX09	03/09/2010
639892	S01GX09	31/05/2011
7848502	S01GX09	19/05/2006
7801045	S01GX09	30/09/2008
1351123	S01GX09	11/06/2004
7964660	S01GX09	17/01/2006
1212257	S01GX09	29/01/2008
8357140	S01GX09	02/10/2009
1099425	S01GX09	05/09/2008
716273	S01GX09	25/07/2005
1855368	S01GX09	19/11/2008
1108842	S01GX09	28/05/2008
1006749	S01GX09	14/04/2009
6925973	S01GX09	04/05/2006
192085	S01GX09	10/11/2010
1111259	S01GX09	04/04/2011
25757999	S01GX09	05/04/2010
2239416	S01GX09	28/04/2010
2167024	S01GX09	17/11/2009
2072714	S01GX09	16/05/2005
2238417	S01GX09	14/05/2007
2070277	S01GX09	16/10/2009
2112990	S01GX09	23/01/2008
758598	S01GX09	25/05/2011
2780191	S01GX09	28/12/2010
2777493	S01GX09	29/11/2007
4088249	S01GX09	03/09/2008
2520684	S01GX09	04/08/2010
16962328	S01GX09	14/10/2005
26424992	S01GX09	08/03/2004
26410774	S01GX09	23/11/2007
26181280	S01GX09	05/04/2011
17323541	S01GX09	26/10/2005
26425992	S01GX09	04/02/2004
26384859	S01GX09	05/08/2009
7987077	S01GX09	03/07/2010
2249543	S01GX09	09/03/2006
187884	S01GX09	26/08/2010
28091118	S01GX09	31/07/2008
2754223	S01GX09	19/08/2010
2779304	S01GX09	16/07/2008
303884	S01GX09	11/06/2009
437584	S01GX09	17/05/2011
28090511	S01GX09	27/04/2007
28072320	S01GX09	13/06/2006
24660602	S01GX09	19/01/2009
25740462	S01GX09	02/04/2009
1020473	S01GX09	22/08/2008
19800354	S01GX09	31/05/2007
20070622	S01GX09	03/07/2009
3230740	S01GX09	16/05/2011
2251076	S01GX09	11/12/2003
8044845	S01GX09	17/04/2009
26700153	S01GX09	18/04/2008
2987297	S01GX09	18/06/2008
16810184	S01GX09	18/07/2008
24665451	S01GX09	15/03/2011
22922696	S01GX09	25/08/2005
24578829	S01GX09	01/06/2006
26890905	S01GX09	12/04/2006
26941906	S01GX09	20/05/2008
26865844	S01GX09	30/03/2011
26711269	S01GX09	31/10/2008
26857096	S01GX09	25/07/2007
26863320	S01GX09	11/09/2009
26789735	S01GX09	30/05/2011
27102099	S01GX09	04/07/2005
27078348	S01GX09	07/07/2010
27087718	S01GX09	04/05/2010
27054901	S01GX09	25/06/2003
26978032	S01GX09	25/10/2004
27039385	S01GX09	09/06/2008
27041217	S01GX09	29/03/2011
27327948	S01GX09	01/06/2010
27389275	S01GX09	11/11/2008
27317311	S01GX09	13/05/2011
27306966	S01GX09	01/06/2011
27623983	S01GX09	26/02/2007
27576468	S01GX09	28/09/2008
27474475	S01GX09	02/03/2011
27470779	S01GX09	13/05/2010
27716882	S01GX09	26/06/2006
27621282	S01GX09	31/05/2011
27284502	S01GX09	30/04/2009
27285401	S01GX09	01/06/2011
12974157	S01GX09	18/09/2006
27785654	S01GX09	09/05/2008
27480464	S01GX09	27/11/2007
27496435	S01GX09	25/02/2011
27784418	S01GX09	29/05/2011
27529159	S01GX09	15/01/2009
26623395	S01GX09	08/04/2010
26971047	S01GX09	30/05/2011
26792436	S01GX09	13/05/2006
27662240	S01GX09	02/04/2004
25567971	S01GX09	31/03/2011
27222339	S01GX09	31/03/2009
27797057	S01GX09	09/09/2003
27051909	S01GX09	01/08/2003
33065542	S01GX09	27/09/2006
33101389	S01GX09	22/10/2009
33008724	S01GX09	25/03/2011
33065445	S01GX09	16/12/2010
33080053	S01GX09	28/03/2006
33081368	S01GX09	25/01/2007
33069259	S01GX09	21/06/2006
33039975	S01GX09	27/04/2006
33112070	S01GX09	01/10/2010
33067653	S01GX09	14/12/2010
27812331	S01GX09	18/02/2011
27074781	S01GX09	04/11/2008
19423345	S01GX09	17/12/2009
23408153	S01GX09	18/08/2009
16625814	S01GX09	15/05/2007
33056325	S01GX09	21/01/2010
33025702	S01GX09	15/07/2004
33019718	S01GX09	03/05/2010
33022326	S01GX09	11/05/2007
33104544	S01GX09	22/02/2011
33086557	S01GX09	26/02/2008
33088645	S01GX09	13/01/2011
33004431	S01GX09	23/06/2010
33062785	S01GX09	29/03/2004
23315706	S01GX09	20/02/2009
16181789	S01GX09	15/03/2006
23279589	S01GX09	26/07/2004
33207936	S01GX09	30/06/2010
18762892	S01GX09	06/04/2011
16183931	S01GX09	23/05/2009
23362211	S01GX09	08/03/2010
33312615	S01GX09	30/05/2011
16177766	S01GX09	12/04/2011
16599304	S01GX09	22/12/2009
23332526	S01GX09	26/03/2009
21011325	S01GX09	21/05/2010
16634787	S01GX09	29/05/2007
14188146	S01GX09	29/09/2005
16135365	S01GX09	23/07/2007
28022506	S01GX09	28/12/2010
16707810	S01GX09	02/02/2004
33266891	S01GX09	20/05/2011
23385894	S01GX09	13/05/2005
33231972	S01GX09	24/08/2010
23381215	S01GX09	06/07/2005
23366114	S01GX09	31/05/2010
23369142	S01GX09	03/06/2010
23367214	S01GX09	07/04/2010
31222630	S01GX09	16/05/2006
31194005	S01GX09	25/06/2010
31391321	S01GX09	27/05/2004
31031406	S01GX09	30/04/2007
32147868	S01GX09	17/07/2009
31595601	S01GX09	13/08/2008
31438930	S01GX09	07/05/2010
31525679	S01GX09	08/11/2006
31140630	S01GX09	17/06/2009
31176341	S01GX09	23/05/2007
32268858	S01GX09	05/06/2009
32118132	S01GX09	09/07/2004
31765237	S01GX09	24/03/2009
31792698	S01GX09	24/06/2010
31168941	S01GX09	12/04/2010
31467850	S01GX09	20/11/2007
31039440	S01GX09	07/08/2007
31810404	S01GX09	26/05/2009
31421332	S01GX09	23/11/2007
31988348	S01GX09	10/07/2006
31179545	S01GX09	27/08/2009
31694151	S01GX09	16/03/2009
31901343	S01GX09	11/05/2009
31580241	S01GX09	21/05/2008
31362667	S01GX09	02/03/2011
31967739	S01GX09	10/05/2011
31952663	S01GX09	27/04/2007
31416932	S01GX09	16/12/2008
32256122	S01GX09	23/01/2006
31387411	S01GX09	25/02/2011
31949535	S01GX09	22/05/2006
31444512	S01GX09	15/04/2008
31121989	S01GX09	19/10/2009
31051184	S01GX09	01/06/2009
31485700	S01GX09	15/05/2007
31633993	S01GX09	01/04/2009
32004524	S01GX09	24/04/2009
31580317	S01GX09	08/06/2007
32042366	S01GX09	21/05/2010
32278996	S01GX09	13/02/2008
31363653	S01GX09	18/09/2006
31677971	S01GX09	12/04/2010
32184078	S01GX09	11/05/2007
31554181	S01GX09	28/01/2009
31390850	S01GX09	14/05/2004
31206865	S01GX09	12/05/2005
31081419	S01GX09	27/09/2007
31396650	S01GX09	21/01/2008
31602375	S01GX09	22/08/2006
31112738	S01GX09	11/05/2009
32032672	S01GX09	26/06/2006
31279651	S01GX09	24/06/2010
32018111	S01GX09	04/06/2008
31588667	S01GX09	30/07/2008
31349798	S01GX09	31/01/2008
32102978	S01GX09	18/05/2006
32065071	S01GX09	11/11/2010
31447684	S01GX09	01/03/2011
31998582	S01GX09	29/03/2010
31245288	S01GX09	11/08/2008
31143643	S01GX09	28/05/2009
31245311	S01GX09	12/08/2009
31215534	S01GX09	17/05/2006
31448449	S01GX09	29/01/2009
31542939	S01GX09	24/09/2008
32090511	S01GX09	17/04/2006
32065117	S01GX09	19/10/2010
31261965	S01GX09	01/06/2010
32081758	S01GX09	18/02/2008
31738105	S01GX09	08/01/2009
31414584	S01GX09	20/05/2009
31380056	S01GX09	10/05/2010
31924861	S01GX09	15/04/2011
31283871	S01GX09	03/03/2011
31387090	S01GX09	30/03/2009
31442352	S01GX09	10/02/2004
31489393	S01GX09	18/06/2007
31551683	S01GX09	29/10/2008
32111220	S01GX09	28/05/2009
31058694	S01GX09	04/07/2007
32232823	S01GX09	21/04/2008
31135777	S01GX09	04/01/2011
31512021	S01GX09	13/05/2008
31944943	S01GX09	20/10/2010
31419355	S01GX09	16/02/2009
31048057	S01GX09	11/05/2010
31711147	S01GX09	24/06/2010
31822263	S01GX09	04/06/2010
31201499	S01GX09	11/02/2008
31102748	S01GX09	15/02/2006
31344355	S01GX09	18/01/2006
32130841	S01GX09	08/07/2008
31387065	S01GX09	02/06/2009
31741333	S01GX09	05/04/2011
31631182	S01GX09	31/10/2008
31851205	S01GX09	15/07/2009
31968147	S01GX09	23/06/2008
32235679	S01GX09	14/05/2007
31591493	S01GX09	05/05/2005
31501116	S01GX09	23/05/2007
31948792	S01GX09	18/05/2009
31931676	S01GX09	11/07/2008
31618977	S01GX09	11/05/2009
31720031	S01GX09	06/10/2008
31555376	S01GX09	02/09/2008
