patient_id	covar_name	date
7244070	S01EE04	10/10/2007
21152973	S01EE04	07/03/2008
7094993	S01EE04	22/03/2011
6416555	S01EE04	04/05/2011
16978282	S01EE04	23/05/2011
15136810	S01EE04	19/05/2008
25062892	S01EE04	30/05/2007
12831650	S01EE04	06/02/2009
6745727	S01EE04	03/10/2005
5865734	S01EE04	13/11/2007
9348188	S01EE04	07/07/2008
12691979	S01EE04	07/03/2008
8786315	S01EE04	14/11/2002
9377350	S01EE04	05/08/2010
21806555	S01EE04	30/05/2011
7850270	S01EE04	18/07/2007
6594059	S01EE04	26/05/2011
7777409	S01EE04	08/08/2008
524498	S01EE04	19/05/2011
5489882	S01EE04	09/05/2011
7850480	S01EE04	25/06/2007
6595121	S01EE04	30/05/2011
1420230	S01EE04	29/05/2011
1850423	S01EE04	08/02/2006
25960644	S01EE04	25/04/2011
1129404	S01EE04	30/07/2009
1208369	S01EE04	17/05/2011
1855368	S01EE04	26/08/2010
1557815	S01EE04	28/02/2006
1855787	S01EE04	20/03/2009
134966	S01EE04	06/02/2004
1641240	S01EE04	30/03/2004
2136921	S01EE04	08/06/2005
2069915	S01EE04	28/02/2011
2759226	S01EE04	26/05/2011
7047416	S01EE04	24/05/2011
1765194	S01EE04	24/05/2011
2763799	S01EE04	12/01/2011
2764043	S01EE04	28/03/2011
2525213	S01EE04	13/01/2010
2524518	S01EE04	18/05/2011
2764747	S01EE04	23/02/2007
26478550	S01EE04	26/05/2011
20146851	S01EE04	30/05/2011
10085916	S01EE04	25/05/2011
26462074	S01EE04	20/10/2009
8116592	S01EE04	25/04/2011
2958619	S01EE04	30/05/2011
28077381	S01EE04	10/05/2011
875817	S01EE04	15/12/2005
28044182	S01EE04	27/06/2007
28078871	S01EE04	26/05/2011
427511	S01EE04	03/09/2003
28064975	S01EE04	05/01/2011
28046328	S01EE04	05/04/2011
24665274	S01EE04	20/12/2006
1358991	S01EE04	10/05/2011
25740582	S01EE04	25/12/2008
18197745	S01EE04	24/03/2010
26639040	S01EE04	22/11/2005
22921551	S01EE04	02/05/2006
21651387	S01EE04	02/02/2011
26935278	S01EE04	18/09/2002
26897230	S01EE04	08/04/2011
26890905	S01EE04	04/10/2006
26768393	S01EE04	03/03/2008
26759120	S01EE04	11/03/2011
26957599	S01EE04	02/11/2009
27133104	S01EE04	25/05/2011
27136847	S01EE04	01/10/2007
27040604	S01EE04	06/05/2011
27217927	S01EE04	07/01/2010
27384510	S01EE04	30/09/2008
27385174	S01EE04	14/04/2007
27368382	S01EE04	03/06/2007
27351291	S01EE04	17/05/2011
27300698	S01EE04	16/01/2009
27353964	S01EE04	13/05/2011
27570888	S01EE04	12/02/2006
27621282	S01EE04	31/05/2011
27545579	S01EE04	17/05/2011
27128882	S01EE04	02/05/2010
27782453	S01EE04	16/05/2011
26916719	S01EE04	14/11/2010
27540250	S01EE04	20/03/2007
27450011	S01EE04	23/11/2008
24655178	S01EE04	03/06/2005
33050061	S01EE04	23/05/2005
33073771	S01EE04	29/10/2002
26624685	S01EE04	14/01/2010
19423345	S01EE04	20/02/2010
27796565	S01EE04	16/05/2011
23382045	S01EE04	22/03/2011
28013065	S01EE04	11/01/2010
16634931	S01EE04	22/03/2006
33091566	S01EE04	08/05/2011
33022447	S01EE04	06/02/2006
33062785	S01EE04	15/12/2009
18770764	S01EE04	01/04/2011
33313168	S01EE04	30/05/2011
23333064	S01EE04	28/09/2004
16138365	S01EE04	21/10/2009
18757767	S01EE04	05/06/2007
16684814	S01EE04	22/06/2006
16707745	S01EE04	05/04/2006
27947649	S01EE04	06/11/2008
21100604	S01EE04	30/11/2007
33313637	S01EE04	03/05/2011
33224929	S01EE04	11/05/2011
23332754	S01EE04	09/11/2009
31118201	S01EE04	22/11/2005
31681815	S01EE04	09/05/2008
31391321	S01EE04	21/12/2010
31420742	S01EE04	29/11/2010
32026760	S01EE04	23/03/2011
31535138	S01EE04	16/11/2006
31641342	S01EE04	12/05/2004
31612836	S01EE04	10/05/2005
32106342	S01EE04	02/12/2008
31535500	S01EE04	11/11/2004
31977064	S01EE04	26/12/2007
31120658	S01EE04	29/09/2010
31569317	S01EE04	01/10/2010
32280955	S01EE04	23/12/2009
31868709	S01EE04	08/02/2010
31245288	S01EE04	20/02/2007
31232170	S01EE04	04/11/2009
32141776	S01EE04	19/01/2009
31514901	S01EE04	17/11/2004
31430347	S01EE04	09/12/2009
31339822	S01EE04	15/07/2008
32004779	S01EE04	22/01/2010
31692146	S01EE04	06/11/2009
31647102	S01EE04	10/12/2008
32090445	S01EE04	06/06/2007
31758507	S01EE04	25/05/2010
31901024	S01EE04	15/01/2007
31052272	S01EE04	10/01/2006
31937215	S01EE04	24/05/2006
31126735	S01EE04	23/12/2010
31937147	S01EE04	15/02/2006
31624485	S01EE04	02/07/2010
31148510	S01EE04	14/08/2008
