patient_id	covar_name	date
9319410	S01EE01	07/07/2010
12731764	S01EE01	10/02/2009
944651	S01EE01	18/05/2010
15135392	S01EE01	03/03/2011
208485	S01EE01	15/04/2011
5030705	S01EE01	05/06/2009
7094993	S01EE01	19/02/2009
9984797	S01EE01	19/05/2009
21369976	S01EE01	16/05/2008
8699154	S01EE01	24/09/2008
12831552	S01EE01	20/05/2005
1301839	S01EE01	21/01/2011
7242025	S01EE01	03/05/2011
3303598	S01EE01	25/08/2004
1162337	S01EE01	22/05/2006
5029698	S01EE01	16/03/2011
1302368	S01EE01	05/04/2011
6866296	S01EE01	21/09/2010
8294820	S01EE01	25/05/2011
5865734	S01EE01	19/02/2009
20546500	S01EE01	18/04/2000
14983661	S01EE01	03/05/2011
19153840	S01EE01	16/05/2011
19228281	S01EE01	15/07/2005
25052219	S01EE01	14/05/2010
8786315	S01EE01	14/12/2001
25047741	S01EE01	19/09/2008
16979253	S01EE01	17/02/2010
3322236	S01EE01	21/05/2011
1851166	S01EE01	20/05/2011
6597973	S01EE01	13/12/2010
24941050	S01EE01	16/03/2007
1200673	S01EE01	16/05/2011
6596593	S01EE01	18/09/2001
1203945	S01EE01	14/07/2006
12711348	S01EE01	03/05/2011
6595352	S01EE01	25/05/2011
1417003	S01EE01	11/04/2005
524498	S01EE01	01/04/2005
1208200	S01EE01	15/05/2011
24719884	S01EE01	04/11/2005
1547420	S01EE01	17/09/2003
1669715	S01EE01	09/05/2011
1265201	S01EE01	02/02/2006
539256	S01EE01	15/12/2010
7850480	S01EE01	30/12/2008
674640	S01EE01	16/07/2008
1207086	S01EE01	23/05/2011
1200884	S01EE01	21/03/2006
6425342	S01EE01	03/01/2003
6598268	S01EE01	16/04/2010
4700452	S01EE01	28/03/2007
12187756	S01EE01	09/04/2010
13264943	S01EE01	15/03/2011
525618	S01EE01	25/05/2011
7966257	S01EE01	02/05/2007
1850423	S01EE01	13/05/2011
1200208	S01EE01	23/09/2002
6601117	S01EE01	11/02/2011
6951044	S01EE01	24/05/2011
1129404	S01EE01	06/05/2011
1642032	S01EE01	26/04/2011
25768791	S01EE01	26/05/2011
134966	S01EE01	12/07/2005
1027312	S01EE01	17/11/2006
1099959	S01EE01	11/04/2005
1646970	S01EE01	28/04/2011
1641240	S01EE01	04/05/2011
2112759	S01EE01	31/05/2011
2039914	S01EE01	31/03/2011
2218387	S01EE01	11/03/2011
2518884	S01EE01	20/04/2011
2067684	S01EE01	30/06/2010
2035752	S01EE01	17/05/2010
1755667	S01EE01	04/05/2005
1682828	S01EE01	06/10/2005
904770	S01EE01	10/11/2006
2140245	S01EE01	28/10/2008
1765141	S01EE01	23/03/2011
1763227	S01EE01	29/04/2011
2766184	S01EE01	31/05/2011
3054353	S01EE01	16/05/2011
2759226	S01EE01	02/07/2004
7047416	S01EE01	20/09/2010
1764942	S01EE01	05/05/2011
3049212	S01EE01	10/01/2007
2766317	S01EE01	08/04/2011
3049313	S01EE01	22/08/2007
2811851	S01EE01	04/08/2004
2763799	S01EE01	12/01/2011
2764043	S01EE01	29/06/2009
3052081	S01EE01	30/07/2004
2525813	S01EE01	07/03/2011
2520367	S01EE01	29/10/2010
2755836	S01EE01	05/05/2011
2756861	S01EE01	11/09/2007
2407695	S01EE01	06/05/2011
17323216	S01EE01	09/02/2005
9848198	S01EE01	05/05/2011
26488037	S01EE01	09/05/2011
28063099	S01EE01	20/05/2011
26459310	S01EE01	23/06/2010
28066813	S01EE01	22/05/2011
18471502	S01EE01	22/07/2003
20147123	S01EE01	07/12/2007
20673495	S01EE01	08/11/2007
7229328	S01EE01	07/06/2007
17041146	S01EE01	29/04/2011
7137238	S01EE01	01/03/2010
10085916	S01EE01	31/01/2011
26261422	S01EE01	23/05/2011
26464502	S01EE01	01/06/2011
28090208	S01EE01	20/04/2011
28077381	S01EE01	15/02/2006
18222373	S01EE01	16/05/2011
28091901	S01EE01	31/01/2011
11524756	S01EE01	12/09/2008
1754240	S01EE01	13/09/2010
28044182	S01EE01	08/04/2003
28082470	S01EE01	04/05/2010
2778926	S01EE01	13/10/2010
904007	S01EE01	03/05/2011
28078871	S01EE01	18/03/2011
463486	S01EE01	27/03/2008
7137629	S01EE01	09/12/2005
28045692	S01EE01	29/11/2007
28069830	S01EE01	28/09/2010
28054497	S01EE01	27/05/2011
26488758	S01EE01	08/02/2011
25741980	S01EE01	09/12/2007
24662048	S01EE01	31/05/2011
24658550	S01EE01	09/12/2010
24665519	S01EE01	03/05/2011
25743054	S01EE01	20/05/2011
24667282	S01EE01	02/05/2011
1361648	S01EE01	11/05/2011
1903723	S01EE01	14/03/2011
1359321	S01EE01	01/06/2011
1030470	S01EE01	14/01/2008
18188133	S01EE01	12/11/2004
18196862	S01EE01	09/05/2011
3055872	S01EE01	27/05/2011
1016697	S01EE01	10/05/2011
26628935	S01EE01	16/05/2011
26639040	S01EE01	22/05/2009
26777501	S01EE01	26/05/2011
26639825	S01EE01	24/05/2011
26831234	S01EE01	13/12/2010
22881924	S01EE01	08/02/2010
2989980	S01EE01	01/06/2011
14310647	S01EE01	18/05/2011
2988044	S01EE01	10/05/2011
26640331	S01EE01	03/09/2003
24656409	S01EE01	08/09/2008
21651387	S01EE01	13/05/2008
26917078	S01EE01	15/05/2011
26963483	S01EE01	06/05/2011
26899361	S01EE01	11/05/2011
26857096	S01EE01	13/05/2011
26759120	S01EE01	10/12/2009
26714948	S01EE01	29/04/2008
26899205	S01EE01	17/05/2011
26864788	S01EE01	18/10/2010
26800799	S01EE01	12/05/2011
26776735	S01EE01	19/04/2010
26789735	S01EE01	17/10/2010
26768866	S01EE01	27/05/2011
26955462	S01EE01	20/06/2006
27055003	S01EE01	07/12/2005
26989053	S01EE01	25/09/2009
27071882	S01EE01	16/05/2011
27149748	S01EE01	15/08/2007
27086485	S01EE01	27/05/2011
27077494	S01EE01	21/02/2011
27087139	S01EE01	14/06/2010
27099243	S01EE01	25/03/2010
27115263	S01EE01	30/05/2011
27085041	S01EE01	25/10/2009
27033414	S01EE01	22/05/2011
27072298	S01EE01	26/05/2011
27046655	S01EE01	15/05/2011
27064536	S01EE01	17/04/2010
27056356	S01EE01	26/01/2011
27033796	S01EE01	23/10/2006
27042121	S01EE01	09/03/2008
27170737	S01EE01	20/05/2011
27383534	S01EE01	29/04/2011
27143681	S01EE01	21/05/2011
27384510	S01EE01	26/04/2011
27385174	S01EE01	22/02/2008
27385189	S01EE01	12/04/2011
27173275	S01EE01	20/05/2011
27233440	S01EE01	27/12/2010
27314686	S01EE01	19/05/2011
27303621	S01EE01	09/03/2011
27362717	S01EE01	11/07/2007
27348027	S01EE01	06/05/2011
27362271	S01EE01	13/08/2010
27362286	S01EE01	30/05/2011
27348103	S01EE01	06/05/2011
27230962	S01EE01	30/08/2007
27633922	S01EE01	06/04/2010
27592893	S01EE01	26/09/2003
27764912	S01EE01	21/05/2011
27475803	S01EE01	22/10/2009
27420361	S01EE01	14/05/2011
27563976	S01EE01	26/05/2011
27153665	S01EE01	22/05/2011
27148314	S01EE01	14/11/2004
27284645	S01EE01	15/02/2002
26702902	S01EE01	28/05/2011
26720527	S01EE01	19/10/2009
24579212	S01EE01	21/04/2009
27106877	S01EE01	06/08/2009
27546503	S01EE01	11/11/2003
27785654	S01EE01	18/06/2009
27480464	S01EE01	31/05/2011
27664133	S01EE01	30/05/2011
27767877	S01EE01	25/02/2005
27668538	S01EE01	12/05/2011
26888348	S01EE01	30/05/2011
27684000	S01EE01	28/05/2011
27024856	S01EE01	09/05/2011
27449900	S01EE01	08/05/2011
27602350	S01EE01	03/09/2008
27496599	S01EE01	22/11/2006
27496261	S01EE01	28/04/2011
27453474	S01EE01	11/02/2011
27535521	S01EE01	30/10/2009
24655178	S01EE01	19/02/2003
26777286	S01EE01	30/04/2011
27154246	S01EE01	21/07/2010
26997354	S01EE01	19/08/2010
27718525	S01EE01	27/10/2010
27686913	S01EE01	30/03/2010
27720814	S01EE01	10/02/2010
26866438	S01EE01	23/04/2010
33089231	S01EE01	30/12/2003
33018984	S01EE01	21/02/2011
33065341	S01EE01	06/04/2010
33015046	S01EE01	03/07/2008
33065445	S01EE01	01/06/2011
33102608	S01EE01	22/05/2011
33056431	S01EE01	30/09/2008
33070878	S01EE01	28/02/2006
33033430	S01EE01	01/06/2011
33072303	S01EE01	08/11/2007
33024920	S01EE01	03/05/2011
33063559	S01EE01	18/05/2011
33064809	S01EE01	18/05/2011
33112070	S01EE01	27/04/2011
33028180	S01EE01	16/05/2011
33068552	S01EE01	21/01/2009
33012303	S01EE01	11/06/2009
24661802	S01EE01	21/12/2007
2958097	S01EE01	30/05/2011
27796565	S01EE01	23/10/2006
27086613	S01EE01	27/12/2005
26720883	S01EE01	05/05/2011
28013065	S01EE01	07/03/2011
16135277	S01EE01	29/06/2005
20983717	S01EE01	12/05/2011
23320348	S01EE01	05/05/2011
16708369	S01EE01	17/12/2009
33025702	S01EE01	03/11/2005
33065070	S01EE01	27/05/2011
33021411	S01EE01	30/11/2010
33006775	S01EE01	28/04/2011
33030836	S01EE01	05/11/2008
33104544	S01EE01	24/05/2011
33050169	S01EE01	30/05/2011
33053146	S01EE01	18/01/2007
33057639	S01EE01	18/01/2008
33026483	S01EE01	18/05/2011
33067910	S01EE01	29/04/2011
33066715	S01EE01	05/05/2011
33027780	S01EE01	26/11/2010
33072181	S01EE01	19/02/2011
18770764	S01EE01	20/05/2009
23407899	S01EE01	05/03/2008
16631705	S01EE01	28/04/2011
16707733	S01EE01	10/05/2011
33308973	S01EE01	24/03/2006
21100250	S01EE01	23/05/2011
16165687	S01EE01	29/03/2011
27985124	S01EE01	04/05/2011
16183623	S01EE01	29/05/2009
28027854	S01EE01	10/05/2011
33313715	S01EE01	06/05/2011
18757767	S01EE01	30/12/2010
16684814	S01EE01	14/05/2010
16712648	S01EE01	18/07/2003
16712061	S01EE01	10/11/2006
16610132	S01EE01	17/05/2011
27847515	S01EE01	24/05/2011
21100604	S01EE01	04/05/2011
23412008	S01EE01	13/05/2011
23370714	S01EE01	23/05/2008
23368758	S01EE01	17/05/2011
23369406	S01EE01	19/05/2011
23369058	S01EE01	25/05/2011
16613546	S01EE01	06/10/2006
16774588	S01EE01	13/04/2011
23347890	S01EE01	09/01/2007
23353839	S01EE01	15/09/2008
23405805	S01EE01	23/03/2010
16605321	S01EE01	29/03/2011
16684088	S01EE01	25/05/2011
16706310	S01EE01	01/06/2010
16602618	S01EE01	25/05/2011
16705838	S01EE01	01/07/2002
14187835	S01EE01	29/04/2009
28007232	S01EE01	08/04/2010
16622928	S01EE01	04/04/2007
16773532	S01EE01	18/05/2011
16712169	S01EE01	18/05/2011
21108146	S01EE01	10/05/2011
16168690	S01EE01	30/05/2011
27914427	S01EE01	23/03/2011
23332688	S01EE01	09/02/2011
21107879	S01EE01	24/04/2008
23351379	S01EE01	09/09/2009
33244556	S01EE01	31/05/2011
23353940	S01EE01	08/05/2011
23319637	S01EE01	21/12/2009
31992320	S01EE01	04/11/2004
31669449	S01EE01	14/12/2009
31338329	S01EE01	17/04/2009
31451455	S01EE01	09/03/2011
31214666	S01EE01	28/03/2011
31053990	S01EE01	29/12/2010
32175738	S01EE01	22/11/2006
31605554	S01EE01	10/12/2009
31135317	S01EE01	10/12/2008
31591152	S01EE01	05/02/2008
31043915	S01EE01	16/12/2008
32218880	S01EE01	07/12/2010
31033667	S01EE01	20/10/2004
31839581	S01EE01	03/06/2008
31246912	S01EE01	22/10/2010
31614093	S01EE01	29/10/2009
31489624	S01EE01	14/12/2010
31774241	S01EE01	04/11/2010
31679755	S01EE01	20/06/2006
31101485	S01EE01	28/04/2011
31345483	S01EE01	24/09/2010
32192753	S01EE01	01/04/2008
31078140	S01EE01	11/04/2008
31887602	S01EE01	16/05/2011
31422146	S01EE01	14/03/2007
32141818	S01EE01	08/10/2008
32265725	S01EE01	04/12/2009
31461611	S01EE01	15/12/2010
31874420	S01EE01	15/12/2009
31107119	S01EE01	10/04/2007
31488907	S01EE01	16/02/2006
31152150	S01EE01	23/03/2009
31046930	S01EE01	15/02/2006
31584781	S01EE01	15/12/2009
31847576	S01EE01	09/11/2010
31399669	S01EE01	03/02/2009
32174005	S01EE01	23/07/2007
31470909	S01EE01	07/06/2010
31683144	S01EE01	21/12/2009
31564173	S01EE01	28/11/2008
31666600	S01EE01	28/08/2007
31149940	S01EE01	01/08/2006
31700614	S01EE01	28/09/2007
32051470	S01EE01	19/01/2005
32032672	S01EE01	09/04/2007
31806375	S01EE01	15/11/2010
31670179	S01EE01	14/04/2011
31195235	S01EE01	10/11/2009
31273175	S01EE01	01/04/2009
31928477	S01EE01	23/01/2003
31125719	S01EE01	17/11/2009
32114832	S01EE01	10/03/2010
31424207	S01EE01	02/02/2011
32187498	S01EE01	14/12/2009
31608205	S01EE01	08/04/2011
31895100	S01EE01	16/11/2007
31652283	S01EE01	12/07/2010
31441799	S01EE01	30/07/2010
32044352	S01EE01	29/05/2011
31054768	S01EE01	19/04/2006
32090511	S01EE01	30/10/2007
31748071	S01EE01	30/09/2009
31370565	S01EE01	27/04/2007
31537972	S01EE01	16/11/2009
31133266	S01EE01	10/11/2009
31514901	S01EE01	07/12/2009
32130047	S01EE01	30/10/2009
31430347	S01EE01	08/04/2011
31857639	S01EE01	29/03/2011
31198323	S01EE01	05/05/2010
32231459	S01EE01	23/11/2010
31375081	S01EE01	26/02/2011
31938524	S01EE01	29/10/2010
31186532	S01EE01	06/11/2007
32063147	S01EE01	09/08/2004
32042762	S01EE01	25/04/2007
31070458	S01EE01	11/09/2006
32090445	S01EE01	15/02/2007
31442077	S01EE01	30/08/2010
31128250	S01EE01	21/01/2011
31037060	S01EE01	18/09/2007
31624416	S01EE01	26/08/2008
31140632	S01EE01	08/04/2011
31457699	S01EE01	10/01/2007
31901024	S01EE01	23/12/2003
31937215	S01EE01	20/05/2010
31199814	S01EE01	20/10/2004
32142008	S01EE01	05/01/2009
31190425	S01EE01	13/10/2009
31878709	S01EE01	22/12/2010
31532333	S01EE01	10/04/2002
32129489	S01EE01	06/11/2006
31104559	S01EE01	21/12/2007
31206444	S01EE01	18/11/2009
31696583	S01EE01	25/05/2010
31312898	S01EE01	21/03/2011
31624485	S01EE01	04/11/2008
32154430	S01EE01	15/10/2010
31148510	S01EE01	15/12/2010
31242261	S01EE01	11/09/2008
31451631	S01EE01	28/10/2009
31291105	S01EE01	12/05/2009
31573542	S01EE01	06/05/2011
31608836	S01EE01	28/12/2010
32178811	S01EE01	18/02/2005
31733685	S01EE01	06/10/2003
31152637	S01EE01	14/11/2003
31165916	S01EE01	19/11/2008
31049512	S01EE01	07/06/2010
32011511	S01EE01	20/12/2006
