patient_id	covar_name	date
8402250	TOSFER	14/12/2004
6187767	TOSFER	31/08/2007
8569720	TOSFER	28/06/1981
1379573	TOSFER	20/07/2000
6842142	TOSFER	12/06/1948
1547572	TOSFER	01/07/1987
1207468	TOSFER	01/12/1939
25896527	TOSFER	26/11/1982
26463036	TOSFER	08/02/2007
12985074	TOSFER	16/08/2007
419019	TOSFER	13/12/1960
21063109	TOSFER	25/08/2010
16820033	TOSFER	21/02/2011
27382993	TOSFER	27/09/1937
23360479	TOSFER	12/06/2002
18734568	TOSFER	06/09/2005
31087796	TOSFER	21/02/2003
31406021	TOSFER	05/12/2001
31472076	TOSFER	21/03/1933
32072664	TOSFER	04/04/2011
31893770	TOSFER	04/01/1917
31638561	TOSFER	07/07/2006
32151497	TOSFER	10/01/1969
32265868	TOSFER	31/07/2007
31831547	TOSFER	27/05/1961
31363946	TOSFER	09/01/2001
31323734	TOSFER	08/02/2002
31537932	TOSFER	07/06/2005
32021251	TOSFER	06/05/2001
32200321	TOSFER	19/11/2006
31349695	TOSFER	07/03/2011
31818844	TOSFER	18/03/2010
32014902	TOSFER	24/12/1929
31775325	TOSFER	15/03/2011
31100793	TOSFER	13/05/2008
31569939	TOSFER	26/10/2004
32135005	TOSFER	25/06/2010
31143978	TOSFER	12/04/2000
31897753	TOSFER	22/03/2010
31328449	TOSFER	03/02/2010
31889065	TOSFER	27/05/2005
