patient_id	covar_name	date
3328327	TRVEPR	24/01/1995
3331774	TRVEPR	08/03/2006
1731330	TRVEPR	21/10/2003
9214995	TRVEPR	19/12/2008
12778095	TRVEPR	29/06/2009
11661106	TRVEPR	28/10/2002
24729407	TRVEPR	30/10/2009
7407098	TRVEPR	05/03/2010
10392185	TRVEPR	13/09/2010
6887463	TRVEPR	14/01/2009
5461472	TRVEPR	06/07/2010
20568992	TRVEPR	05/10/2010
12182868	TRVEPR	10/05/2006
6416608	TRVEPR	31/01/2005
603045	TRVEPR	09/03/2007
1303002	TRVEPR	23/03/2009
945122	TRVEPR	27/11/2003
5812021	TRVEPR	08/08/1994
9375496	TRVEPR	05/03/2004
7094856	TRVEPR	14/04/2011
24764612	TRVEPR	04/02/2011
21153303	TRVEPR	05/03/2003
1851987	TRVEPR	19/08/2002
7800178	TRVEPR	08/01/1986
645707	TRVEPR	11/06/2007
4381496	TRVEPR	10/12/2002
24942789	TRVEPR	12/05/2011
7847421	TRVEPR	02/07/2009
1276321	TRVEPR	04/07/2001
4700540	TRVEPR	30/09/2009
1417328	TRVEPR	15/09/2009
890075	TRVEPR	06/09/2001
1135406	TRVEPR	15/09/2010
1641240	TRVEPR	21/02/2006
2133314	TRVEPR	25/08/2004
2070415	TRVEPR	02/02/2009
7043275	TRVEPR	02/05/2001
3052680	TRVEPR	03/10/2000
2526231	TRVEPR	18/11/2002
2525973	TRVEPR	10/10/1995
15643872	TRVEPR	20/12/2010
26424856	TRVEPR	10/03/2005
28066528	TRVEPR	05/06/1992
26244722	TRVEPR	22/04/2004
15628453	TRVEPR	28/12/2009
650010	TRVEPR	17/08/2010
1912146	TRVEPR	07/03/2011
12971265	TRVEPR	29/12/2008
265900	TRVEPR	09/05/1957
186064	TRVEPR	04/10/2006
302502	TRVEPR	30/11/2010
28054417	TRVEPR	08/06/2004
28063183	TRVEPR	10/06/2010
25738686	TRVEPR	22/06/2000
24659245	TRVEPR	24/04/2009
24666868	TRVEPR	29/03/2011
25741980	TRVEPR	03/07/2009
25738827	TRVEPR	26/11/2004
24668966	TRVEPR	19/04/2010
24657011	TRVEPR	11/05/2010
1374270	TRVEPR	07/01/2009
18189831	TRVEPR	15/01/2007
26630599	TRVEPR	01/01/2001
26830552	TRVEPR	21/12/2005
26625877	TRVEPR	21/02/2006
26701119	TRVEPR	25/01/2011
14310735	TRVEPR	07/12/2007
24581806	TRVEPR	31/12/2009
26916180	TRVEPR	08/04/2011
26857096	TRVEPR	25/01/2011
26976941	TRVEPR	20/12/2010
26994023	TRVEPR	29/10/2001
27078625	TRVEPR	03/06/2009
27116894	TRVEPR	04/03/2001
27035249	TRVEPR	02/12/2009
27084260	TRVEPR	25/04/2005
26991408	TRVEPR	06/09/2006
26991420	TRVEPR	31/07/2005
26997004	TRVEPR	29/12/2009
27000812	TRVEPR	28/07/2008
27213348	TRVEPR	24/04/2007
27385174	TRVEPR	25/02/1998
27308809	TRVEPR	11/01/2006
27215513	TRVEPR	15/11/2006
27296189	TRVEPR	18/01/1984
27169775	TRVEPR	11/01/1990
27197700	TRVEPR	26/09/2008
27642052	TRVEPR	27/08/1939
27493925	TRVEPR	03/05/2011
27757330	TRVEPR	01/01/1992
27647736	TRVEPR	20/09/1962
27247133	TRVEPR	17/05/2010
27533971	TRVEPR	09/12/2005
27683782	TRVEPR	22/10/2003
27442644	TRVEPR	20/03/2010
27477146	TRVEPR	14/01/2009
26941998	TRVEPR	15/11/2010
27358783	TRVEPR	16/03/2007
33008019	TRVEPR	21/05/2003
33074802	TRVEPR	15/05/1918
33125136	TRVEPR	09/10/2008
33040270	TRVEPR	25/05/2011
33099318	TRVEPR	25/04/2011
33019022	TRVEPR	09/04/2010
26637123	TRVEPR	02/06/2001
1361620	TRVEPR	23/06/2009
16185833	TRVEPR	17/10/2005
33313101	TRVEPR	06/05/1927
33034268	TRVEPR	05/12/2007
16610720	TRVEPR	21/09/2005
16596474	TRVEPR	21/05/2002
16636866	TRVEPR	03/02/1946
20985633	TRVEPR	09/12/2004
16125129	TRVEPR	16/03/2000
33264434	TRVEPR	14/04/2010
18757709	TRVEPR	09/06/1935
31445246	TRVEPR	02/10/2008
31767891	TRVEPR	04/09/2001
31767728	TRVEPR	20/08/2007
32132737	TRVEPR	02/06/2009
31201487	TRVEPR	21/03/2009
31775845	TRVEPR	15/03/2004
31893770	TRVEPR	14/10/2009
31547195	TRVEPR	23/10/2008
31873426	TRVEPR	28/06/2005
32262841	TRVEPR	06/09/2004
31035751	TRVEPR	04/04/2006
32054028	TRVEPR	22/05/2008
31270706	TRVEPR	15/03/2005
31543145	TRVEPR	10/02/2004
32100016	TRVEPR	09/02/2011
31147226	TRVEPR	20/06/1955
31237787	TRVEPR	11/12/2003
31342478	TRVEPR	21/07/2009
31888707	TRVEPR	10/10/2001
32119517	TRVEPR	17/01/2005
31671119	TRVEPR	01/07/2004
31221423	TRVEPR	15/07/2008
32111753	TRVEPR	05/07/2007
31554121	TRVEPR	22/03/2007
31811435	TRVEPR	15/11/2010
32237041	TRVEPR	11/05/2007
31888462	TRVEPR	07/05/2010
31550481	TRVEPR	05/10/2010
31854539	TRVEPR	11/05/2004
31577402	TRVEPR	09/05/2008
31204461	TRVEPR	21/01/2011
31807086	TRVEPR	21/12/2007
31159489	TRVEPR	21/08/2009
31533731	TRVEPR	18/09/2000
31675069	TRVEPR	09/12/2003
32276914	TRVEPR	04/01/2003
32271038	TRVEPR	15/10/2008
31539521	TRVEPR	20/03/2009
32223637	TRVEPR	27/12/2004
31776554	TRVEPR	14/11/2002
31507386	TRVEPR	13/05/2011
31294881	TRVEPR	05/12/2005
31110042	TRVEPR	22/02/2005
31853792	TRVEPR	16/11/2007
31929829	TRVEPR	29/09/2006
31955845	TRVEPR	14/01/2005
31536931	TRVEPR	20/10/2008
31107785	TRVEPR	01/01/1978
31824460	TRVEPR	13/06/2007
32205678	TRVEPR	18/03/2001
32029903	TRVEPR	25/02/2005
31698117	TRVEPR	18/02/2011
31037831	TRVEPR	05/06/2006
