patient_id	covar_name	date
10284307	TDAHTO	11/12/2007
3285168	TDAHTO	01/06/2011
20570072	TDAHTO	22/03/2010
12789284	TDAHTO	07/04/2006
9125579	TDAHTO	05/05/2011
20558327	TDAHTO	22/10/2007
17175343	TDAHTO	09/05/2011
740507	TDAHTO	26/05/2011
8985363	TDAHTO	31/01/2008
8277792	TDAHTO	27/04/2011
17777705	TDAHTO	24/02/2011
6759472	TDAHTO	16/12/2004
3285235	TDAHTO	17/05/2011
12791017	TDAHTO	12/02/2010
8289861	TDAHTO	28/04/2011
10867647	TDAHTO	03/02/2011
12185241	TDAHTO	11/03/2009
1547724	TDAHTO	16/02/2011
12759917	TDAHTO	20/05/2011
1983462	TDAHTO	21/02/2011
15931742	TDAHTO	06/04/2010
19146191	TDAHTO	26/01/2000
12762627	TDAHTO	05/04/2011
21164195	TDAHTO	19/11/2009
17175301	TDAHTO	15/02/2006
15589807	TDAHTO	08/09/2009
2944335	TDAHTO	22/04/2010
8291287	TDAHTO	17/12/2010
19228281	TDAHTO	18/10/2006
21806470	TDAHTO	18/01/2011
6243591	TDAHTO	20/05/2010
20414136	TDAHTO	19/05/2008
12259155	TDAHTO	03/02/2010
8960556	TDAHTO	27/04/2010
8788270	TDAHTO	15/04/2011
11188249	TDAHTO	19/08/2010
13297670	TDAHTO	24/05/2011
6212357	TDAHTO	06/08/2010
1378695	TDAHTO	20/01/2010
7781978	TDAHTO	06/05/2011
7973047	TDAHTO	08/10/2009
10505680	TDAHTO	17/05/2011
8062012	TDAHTO	20/01/2003
1849882	TDAHTO	11/12/2001
7850022	TDAHTO	26/03/2003
18366106	TDAHTO	11/04/2011
7782943	TDAHTO	19/12/2008
6478740	TDAHTO	29/07/2010
917736	TDAHTO	01/07/2004
7820646	TDAHTO	09/05/2011
1212449	TDAHTO	14/09/2010
7968220	TDAHTO	29/01/1990
404765	TDAHTO	27/05/2011
19958838	TDAHTO	08/04/2011
1090924	TDAHTO	15/06/2005
1203166	TDAHTO	18/05/2011
1425322	TDAHTO	17/11/2003
25889376	TDAHTO	27/05/2011
1108799	TDAHTO	25/05/2011
1109593	TDAHTO	30/01/2009
2072963	TDAHTO	14/05/2011
249389	TDAHTO	18/12/2008
249467	TDAHTO	25/05/2010
4228487	TDAHTO	05/10/2009
2757185	TDAHTO	25/09/2008
2410384	TDAHTO	09/06/2010
15288608	TDAHTO	11/06/2010
28075875	TDAHTO	16/05/2011
26335980	TDAHTO	28/10/2002
26383695	TDAHTO	17/02/2011
16962234	TDAHTO	30/09/2003
17219101	TDAHTO	05/04/2011
18026286	TDAHTO	15/10/2009
1910408	TDAHTO	02/12/1984
1028373	TDAHTO	01/06/2011
2965493	TDAHTO	03/08/2005
436094	TDAHTO	27/05/2011
436004	TDAHTO	09/03/2011
437093	TDAHTO	25/05/2011
435701	TDAHTO	09/05/2011
436990	TDAHTO	20/05/2007
1021654	TDAHTO	25/10/2007
28073308	TDAHTO	04/08/2009
28073392	TDAHTO	28/05/2010
2239878	TDAHTO	16/04/1974
436857	TDAHTO	30/03/2011
437623	TDAHTO	07/04/2009
426640	TDAHTO	08/04/2011
179468	TDAHTO	24/01/2008
28057980	TDAHTO	19/05/2011
28071928	TDAHTO	16/12/2009
28074969	TDAHTO	13/04/2011
28056619	TDAHTO	15/12/2010
21581705	TDAHTO	13/05/2011
25743626	TDAHTO	16/05/2011
24665840	TDAHTO	30/03/2009
24660738	TDAHTO	12/05/2009
1028092	TDAHTO	22/05/2007
1370131	TDAHTO	12/04/2007
619414	TDAHTO	26/05/2011
180311	TDAHTO	05/04/2002
1028230	TDAHTO	27/05/2011
1908278	TDAHTO	06/04/2011
18199169	TDAHTO	14/04/2011
1368537	TDAHTO	14/04/2011
1908072	TDAHTO	30/05/2011
19279900	TDAHTO	26/10/2009
1022535	TDAHTO	27/12/2006
1369305	TDAHTO	06/05/2005
2967493	TDAHTO	22/02/2008
2966115	TDAHTO	19/05/2011
619210	TDAHTO	22/10/2007
2809156	TDAHTO	22/02/2011
26617309	TDAHTO	29/04/2011
26784175	TDAHTO	10/05/2011
26626081	TDAHTO	05/06/2007
26618929	TDAHTO	13/09/2005
14310667	TDAHTO	11/09/1989
10824694	TDAHTO	11/02/2009
12950966	TDAHTO	25/05/2011
16844683	TDAHTO	21/02/2005
24578364	TDAHTO	27/05/2011
21581713	TDAHTO	04/01/2011
26961078	TDAHTO	27/05/2011
26943767	TDAHTO	29/09/2010
26960818	TDAHTO	14/01/2010
26711644	TDAHTO	04/05/2011
26779440	TDAHTO	19/06/2007
26858217	TDAHTO	24/10/2008
26728263	TDAHTO	03/05/2011
26708164	TDAHTO	15/01/2008
26872889	TDAHTO	19/05/2011
26880069	TDAHTO	09/05/2011
26874258	TDAHTO	02/05/2011
26824290	TDAHTO	23/05/2007
26960792	TDAHTO	09/05/2011
27027092	TDAHTO	30/06/2009
27033510	TDAHTO	27/02/2007
26945706	TDAHTO	17/12/2010
27103255	TDAHTO	18/05/2011
27103339	TDAHTO	19/05/2011
27083800	TDAHTO	28/01/2009
27108300	TDAHTO	16/10/2009
27045345	TDAHTO	23/05/2011
27049237	TDAHTO	04/11/2007
27034650	TDAHTO	07/12/2010
27021541	TDAHTO	16/02/2011
27012399	TDAHTO	27/12/2005
27002841	TDAHTO	11/04/2011
27011370	TDAHTO	12/05/2011
27325534	TDAHTO	28/02/2008
27357373	TDAHTO	28/09/2010
27383911	TDAHTO	24/11/2010
27236533	TDAHTO	01/09/2009
27197911	TDAHTO	01/04/2011
27361659	TDAHTO	06/04/2011
27319545	TDAHTO	03/05/2011
27219325	TDAHTO	03/05/2011
26960545	TDAHTO	06/03/2009
26962184	TDAHTO	01/02/2000
27196869	TDAHTO	29/09/2010
27624260	TDAHTO	26/04/2011
27574834	TDAHTO	02/03/2011
27451914	TDAHTO	05/12/2007
27451920	TDAHTO	17/09/2007
27660500	TDAHTO	09/05/2011
27758848	TDAHTO	24/05/2011
27564508	TDAHTO	15/09/2009
27616396	TDAHTO	30/06/2006
27572910	TDAHTO	01/12/2009
27558827	TDAHTO	14/06/2010
27552612	TDAHTO	03/11/2009
27275955	TDAHTO	01/09/2001
27148150	TDAHTO	26/10/2004
27150779	TDAHTO	29/07/2005
27169167	TDAHTO	26/05/2009
27534467	TDAHTO	15/12/2010
27662036	TDAHTO	01/09/2009
27683378	TDAHTO	25/05/2011
27649448	TDAHTO	21/12/2007
27776504	TDAHTO	18/08/2003
27688363	TDAHTO	02/05/2011
27149524	TDAHTO	03/04/2007
27678089	TDAHTO	09/06/2010
27304632	TDAHTO	31/05/2011
27512143	TDAHTO	09/03/2010
1028687	TDAHTO	26/05/2011
620353	TDAHTO	18/03/2011
26935988	TDAHTO	19/05/2011
27003832	TDAHTO	16/05/2011
27030688	TDAHTO	03/11/2008
27811158	TDAHTO	27/05/2011
27759574	TDAHTO	20/04/2011
27808054	TDAHTO	15/03/2010
27803316	TDAHTO	31/05/2011
27145089	TDAHTO	09/03/2011
1042371	TDAHTO	14/12/2010
27572679	TDAHTO	07/09/2007
19800992	TDAHTO	04/11/2009
27810240	TDAHTO	27/07/2006
26982469	TDAHTO	06/04/2011
27065351	TDAHTO	10/01/2005
26967701	TDAHTO	13/03/2009
27794211	TDAHTO	12/09/2007
26980856	TDAHTO	12/09/2003
13497915	TDAHTO	29/09/2004
27572773	TDAHTO	12/05/2011
26959063	TDAHTO	27/03/1998
27801354	TDAHTO	09/09/2008
27771604	TDAHTO	04/01/2011
33094544	TDAHTO	21/09/2009
33075946	TDAHTO	29/03/2010
33117702	TDAHTO	29/05/2009
33035121	TDAHTO	31/10/2007
33113624	TDAHTO	25/04/2008
33008179	TDAHTO	12/04/2007
33077864	TDAHTO	17/03/2009
33087661	TDAHTO	29/04/2011
33034168	TDAHTO	09/03/2006
27661862	TDAHTO	02/11/2009
620129	TDAHTO	09/04/2010
26643101	TDAHTO	03/06/2008
27798157	TDAHTO	18/03/2010
2966560	TDAHTO	08/03/2011
33010680	TDAHTO	06/11/2006
33025614	TDAHTO	20/01/2011
33114729	TDAHTO	30/03/2010
33132438	TDAHTO	14/04/2011
33049611	TDAHTO	13/05/2004
33004082	TDAHTO	04/07/2007
33069979	TDAHTO	14/11/2006
33085575	TDAHTO	17/12/2010
33091492	TDAHTO	15/03/2011
33091308	TDAHTO	04/08/2010
33302598	TDAHTO	31/05/2011
16634466	TDAHTO	18/03/2011
16646009	TDAHTO	16/11/2010
33314905	TDAHTO	03/03/2011
33218148	TDAHTO	31/01/2011
23361253	TDAHTO	12/05/2011
27841942	TDAHTO	30/03/2010
16174048	TDAHTO	16/05/2011
33240654	TDAHTO	17/02/2010
33242446	TDAHTO	10/02/2010
16619058	TDAHTO	16/03/2005
33224931	TDAHTO	29/07/2005
27984369	TDAHTO	18/05/2011
16173411	TDAHTO	11/05/2011
33295652	TDAHTO	16/03/2011
21106540	TDAHTO	21/02/2011
16601406	TDAHTO	26/04/2011
33226201	TDAHTO	06/05/2011
27845922	TDAHTO	11/02/2007
33235687	TDAHTO	19/03/2010
16705277	TDAHTO	30/03/2006
21112058	TDAHTO	06/04/2005
23400888	TDAHTO	26/02/2002
16627959	TDAHTO	15/04/2011
16680392	TDAHTO	01/12/2010
23346675	TDAHTO	12/05/2011
16680130	TDAHTO	09/03/2009
33250509	TDAHTO	24/05/2011
33206544	TDAHTO	04/05/2011
33251513	TDAHTO	18/01/2010
28002227	TDAHTO	09/05/2011
16134020	TDAHTO	22/07/2008
33201428	TDAHTO	20/01/2011
23360490	TDAHTO	15/06/2009
21105465	TDAHTO	27/04/2011
16171981	TDAHTO	01/04/2011
33200213	TDAHTO	24/08/2010
27996300	TDAHTO	29/01/2009
31967836	TDAHTO	18/10/2010
32054545	TDAHTO	11/11/2009
33265212	TDAHTO	23/05/2011
21112179	TDAHTO	17/02/2010
20990624	TDAHTO	29/12/2009
21105384	TDAHTO	19/08/2008
16173873	TDAHTO	06/04/2011
33201953	TDAHTO	10/05/2011
23402803	TDAHTO	22/10/2007
16599419	TDAHTO	09/10/2003
18872531	TDAHTO	13/05/2004
33265185	TDAHTO	12/04/2011
31380840	TDAHTO	11/01/2006
31221081	TDAHTO	27/05/2011
31655296	TDAHTO	25/02/2008
31341379	TDAHTO	18/11/2009
31031406	TDAHTO	02/10/2009
31664443	TDAHTO	28/11/2008
32033042	TDAHTO	09/10/2008
32069381	TDAHTO	08/09/2010
31334279	TDAHTO	29/12/2009
31692769	TDAHTO	27/04/2009
31277905	TDAHTO	29/04/2011
31091078	TDAHTO	02/02/2011
31278219	TDAHTO	10/03/2011
31250125	TDAHTO	28/09/2009
31938419	TDAHTO	10/05/2011
31665551	TDAHTO	01/12/2008
31392551	TDAHTO	03/04/2008
32166336	TDAHTO	07/12/2009
31563980	TDAHTO	10/11/2008
32013614	TDAHTO	30/07/2009
31167200	TDAHTO	25/05/2005
31879513	TDAHTO	12/05/2008
31811731	TDAHTO	06/11/2009
31357765	TDAHTO	21/06/2006
31565245	TDAHTO	27/12/2006
32265123	TDAHTO	30/12/2009
31389876	TDAHTO	18/12/2006
32261215	TDAHTO	31/07/2008
32087547	TDAHTO	08/06/2009
31793357	TDAHTO	04/03/2010
31330808	TDAHTO	27/05/2010
32153728	TDAHTO	17/04/2007
31622874	TDAHTO	17/09/2009
31827681	TDAHTO	28/08/2009
31794769	TDAHTO	07/02/2007
31730194	TDAHTO	07/10/2010
32180255	TDAHTO	03/04/2007
32109438	TDAHTO	30/11/2004
31314272	TDAHTO	30/11/2010
31726688	TDAHTO	03/12/2009
31588667	TDAHTO	01/01/2011
31457097	TDAHTO	25/02/2008
31833066	TDAHTO	04/05/2009
32056480	TDAHTO	19/05/2010
31676811	TDAHTO	16/10/2007
31974878	TDAHTO	17/11/2010
31275713	TDAHTO	15/04/2010
32108175	TDAHTO	03/05/2006
32021251	TDAHTO	13/08/2010
31103124	TDAHTO	18/04/2007
32273366	TDAHTO	03/11/2010
31151712	TDAHTO	14/09/2009
31357662	TDAHTO	10/01/2011
31747041	TDAHTO	19/05/1932
31786775	TDAHTO	23/10/2006
31796622	TDAHTO	03/05/2010
31687308	TDAHTO	29/04/2008
32117961	TDAHTO	06/06/2005
31042629	TDAHTO	02/12/2010
31420088	TDAHTO	18/07/2008
31465406	TDAHTO	19/04/2007
32046270	TDAHTO	19/05/2006
32158371	TDAHTO	28/06/2005
31117424	TDAHTO	21/09/2009
31713564	TDAHTO	18/06/2008
31095396	TDAHTO	12/03/2004
31387899	TDAHTO	29/04/2008
31539606	TDAHTO	11/01/2010
31902166	TDAHTO	05/05/2008
31292902	TDAHTO	08/05/2009
31587651	TDAHTO	15/11/2006
31517321	TDAHTO	05/10/2009
31279391	TDAHTO	03/03/2011
31809617	TDAHTO	28/01/2009
31795658	TDAHTO	04/12/2009
31658052	TDAHTO	16/10/2009
31271819	TDAHTO	06/11/2009
31061959	TDAHTO	24/09/2009
31335818	TDAHTO	11/12/2007
31921777	TDAHTO	30/10/2009
31123485	TDAHTO	21/02/2005
31596203	TDAHTO	28/10/2010
31424872	TDAHTO	02/12/2010
31688264	TDAHTO	29/12/2010
32073087	TDAHTO	14/06/2010
31774235	TDAHTO	14/04/2009
31714377	TDAHTO	18/03/2010
31568355	TDAHTO	24/01/2011
31893484	TDAHTO	28/02/2005
31423912	TDAHTO	16/10/2006
31964176	TDAHTO	14/12/2005
31806300	TDAHTO	12/02/2008
31704409	TDAHTO	02/09/2010
31777453	TDAHTO	23/06/2004
31991628	TDAHTO	07/02/2011
31994898	TDAHTO	06/07/2010
31798383	TDAHTO	23/03/2011
31223206	TDAHTO	21/01/2011
31665669	TDAHTO	16/12/2010
31631084	TDAHTO	27/11/2009
