patient_id	covar_name	date
1640524	V03AE91	10/05/2011
27720128	V03AE91	10/02/2011
27665005	V03AE91	23/04/2011
33100103	V03AE91	22/04/2011
33107313	V03AE91	26/04/2010
33290109	V03AE91	05/05/2009
31493727	V03AE91	19/12/2006
31406581	V03AE91	01/12/2010
31927125	V03AE91	19/12/2007
32050605	V03AE91	31/07/2006
31937147	V03AE91	03/02/2005
