patient_id	covar_name	date
24721664	VALCAR	01/01/1999
7023743	VALCAR	18/01/2005
12773401	VALCAR	14/08/2000
61642	VALCAR	26/08/2008
23471437	VALCAR	03/03/2006
7162816	VALCAR	23/09/2005
16035910	VALCAR	04/02/2011
5812917	VALCAR	08/09/2005
9372370	VALCAR	03/03/2009
20565610	VALCAR	15/03/2006
12691489	VALCAR	14/04/2009
3939492	VALCAR	04/03/2003
7220940	VALCAR	29/12/2003
7405502	VALCAR	25/03/2004
610072	VALCAR	26/03/2003
9982943	VALCAR	12/07/2002
3328722	VALCAR	26/03/1999
12806895	VALCAR	17/03/2009
948728	VALCAR	24/03/2000
9231451	VALCAR	25/01/2001
5028400	VALCAR	08/02/2007
9371920	VALCAR	20/04/2004
8555693	VALCAR	15/01/2004
21871509	VALCAR	04/03/2003
1123313	VALCAR	13/08/2001
9294363	VALCAR	15/09/2010
6757389	VALCAR	14/08/2009
10053579	VALCAR	27/03/2010
174774	VALCAR	26/11/1999
12174280	VALCAR	08/01/2004
5027051	VALCAR	11/08/2006
5031702	VALCAR	26/07/2004
3940167	VALCAR	06/08/2008
3502435	VALCAR	23/03/2009
25043161	VALCAR	08/06/2010
1516892	VALCAR	15/04/2003
23853699	VALCAR	10/07/2008
6177821	VALCAR	13/10/2009
19179255	VALCAR	21/05/2007
12831650	VALCAR	19/04/2011
16479624	VALCAR	29/10/2010
6888668	VALCAR	20/03/2009
9376083	VALCAR	07/02/2007
9995220	VALCAR	14/02/2003
3939234	VALCAR	26/01/2007
16530712	VALCAR	29/04/2009
21371389	VALCAR	23/12/2010
6747870	VALCAR	29/10/1980
8582373	VALCAR	14/11/2006
1941220	VALCAR	15/02/2000
1462085	VALCAR	27/10/2004
25051272	VALCAR	09/03/2007
5023903	VALCAR	01/09/1990
5813348	VALCAR	23/05/2002
5813363	VALCAR	05/08/2009
23471965	VALCAR	31/10/2007
24729124	VALCAR	04/06/2007
949680	VALCAR	20/05/2003
23472923	VALCAR	28/01/2010
6168387	VALCAR	05/07/2006
9302409	VALCAR	10/06/2002
731004	VALCAR	25/03/2004
11661691	VALCAR	11/04/1993
19228687	VALCAR	23/02/2010
5033201	VALCAR	12/12/1991
12691896	VALCAR	05/08/2010
9203860	VALCAR	06/07/2007
9319365	VALCAR	24/07/2002
15427083	VALCAR	15/11/2010
17618962	VALCAR	13/01/2010
1171088	VALCAR	15/12/2001
1320092	VALCAR	02/07/2004
6597437	VALCAR	12/03/2002
7964357	VALCAR	01/01/2000
7770599	VALCAR	19/08/2004
1848778	VALCAR	26/04/2007
7800389	VALCAR	18/03/2009
8933270	VALCAR	28/11/2003
1209248	VALCAR	24/02/2006
1206194	VALCAR	22/03/2006
1547420	VALCAR	01/03/1992
1669715	VALCAR	22/01/2008
7771521	VALCAR	22/11/2008
515787	VALCAR	03/02/2005
7847087	VALCAR	24/11/2005
7657311	VALCAR	02/04/2010
525534	VALCAR	05/09/2006
7817572	VALCAR	11/04/2006
1204023	VALCAR	18/07/2008
1207086	VALCAR	23/02/2011
673927	VALCAR	01/02/1953
1211090	VALCAR	12/04/2007
7770079	VALCAR	04/10/2008
7956042	VALCAR	19/01/2011
647941	VALCAR	16/11/2009
1278011	VALCAR	09/03/2011
7966257	VALCAR	11/07/1980
12189048	VALCAR	18/05/2000
1203560	VALCAR	18/08/2008
7770064	VALCAR	09/10/2003
639310	VALCAR	23/12/2004
15798351	VALCAR	01/01/2005
651463	VALCAR	05/04/2011
1638022	VALCAR	25/01/2008
1581159	VALCAR	21/12/2000
1855343	VALCAR	03/05/2000
487173	VALCAR	11/11/2008
1557371	VALCAR	11/12/2000
1641240	VALCAR	29/04/2004
2216952	VALCAR	01/01/1964
2043930	VALCAR	27/10/2009
2070277	VALCAR	01/01/2000
2068620	VALCAR	06/02/2003
2089404	VALCAR	15/03/2002
859454	VALCAR	13/03/2002
1763515	VALCAR	05/10/2001
2777495	VALCAR	04/04/2002
2764924	VALCAR	27/10/2006
2777436	VALCAR	22/12/2005
7128035	VALCAR	01/01/1990
2524518	VALCAR	01/01/2000
2520416	VALCAR	24/06/2008
7462311	VALCAR	26/10/2005
26565592	VALCAR	24/06/2009
26458657	VALCAR	05/01/2006
28041472	VALCAR	25/01/2006
26409683	VALCAR	16/01/2008
28045160	VALCAR	29/12/2003
26478286	VALCAR	27/05/2005
7128484	VALCAR	26/03/2010
26263281	VALCAR	08/05/2003
20673832	VALCAR	02/12/2010
17041145	VALCAR	28/11/2005
7137854	VALCAR	10/10/1994
7136698	VALCAR	10/11/2004
26455732	VALCAR	24/03/2010
18203937	VALCAR	29/05/2006
17041554	VALCAR	02/04/2003
185359	VALCAR	13/10/2010
759194	VALCAR	06/08/1999
874346	VALCAR	22/01/2002
12971265	VALCAR	02/12/2008
28055652	VALCAR	24/07/2007
28086322	VALCAR	11/08/2003
2762750	VALCAR	20/04/1984
28081569	VALCAR	07/05/2007
2043165	VALCAR	14/02/2002
7136413	VALCAR	01/01/1999
434399	VALCAR	27/12/2006
427372	VALCAR	11/06/2010
419430	VALCAR	17/10/2006
423546	VALCAR	01/01/1997
427580	VALCAR	18/11/2008
300557	VALCAR	22/02/2002
26588342	VALCAR	01/01/2005
876220	VALCAR	30/04/2010
28080350	VALCAR	15/07/2010
25535638	VALCAR	15/07/2010
24658550	VALCAR	21/02/2011
24669225	VALCAR	09/09/2009
421960	VALCAR	17/08/2007
1020473	VALCAR	18/10/2006
1360775	VALCAR	13/08/1996
1366687	VALCAR	28/01/1998
1364710	VALCAR	13/01/2005
1366853	VALCAR	19/11/1998
1342869	VALCAR	12/11/1987
1372631	VALCAR	21/10/1996
422231	VALCAR	21/10/1998
19802014	VALCAR	07/05/2009
1904747	VALCAR	30/07/2002
2246976	VALCAR	04/06/1930
6890554	VALCAR	16/04/2007
2965411	VALCAR	07/02/2011
26629598	VALCAR	22/10/2004
26618354	VALCAR	27/09/2006
26829529	VALCAR	01/01/2001
16568033	VALCAR	05/01/2005
16105363	VALCAR	22/03/2006
16842252	VALCAR	18/03/2009
26617850	VALCAR	13/03/2008
26616698	VALCAR	26/05/2005
26623861	VALCAR	13/09/2006
23484674	VALCAR	23/07/2004
26948478	VALCAR	14/08/2003
26917635	VALCAR	26/07/2010
26958799	VALCAR	04/05/2004
26895133	VALCAR	24/08/2009
26901664	VALCAR	22/11/2001
26854943	VALCAR	01/10/1990
26881213	VALCAR	01/01/1993
26959476	VALCAR	11/11/2002
26779962	VALCAR	14/04/1967
26794725	VALCAR	25/03/2010
26781544	VALCAR	05/12/2007
26776303	VALCAR	02/04/2007
26815899	VALCAR	09/02/2006
26824728	VALCAR	14/03/2002
26761134	VALCAR	07/03/2011
27044460	VALCAR	23/11/2000
26939724	VALCAR	12/03/2002
27030806	VALCAR	30/01/2003
27078606	VALCAR	20/02/2004
27110068	VALCAR	11/11/2008
27114769	VALCAR	22/12/2003
27101595	VALCAR	13/02/2003
27083564	VALCAR	16/11/2005
27061186	VALCAR	20/05/2010
27043981	VALCAR	10/02/2005
27031739	VALCAR	07/02/2003
27043267	VALCAR	17/02/2003
26991408	VALCAR	09/02/2007
26994757	VALCAR	19/05/2007
27026349	VALCAR	20/08/2001
27030628	VALCAR	05/08/2010
27024244	VALCAR	01/09/2010
26993048	VALCAR	02/11/2007
27039199	VALCAR	01/01/2000
27032118	VALCAR	06/05/2005
27358740	VALCAR	08/06/2005
27216624	VALCAR	28/02/2011
27152048	VALCAR	15/02/2005
27383534	VALCAR	03/03/2000
27147397	VALCAR	01/01/1992
27348707	VALCAR	27/03/2007
27384468	VALCAR	25/01/1993
27384510	VALCAR	28/10/2004
27368382	VALCAR	18/05/2009
27314686	VALCAR	30/07/2003
27219070	VALCAR	05/11/1996
27302964	VALCAR	31/01/1999
27303034	VALCAR	04/05/2010
27357965	VALCAR	12/11/2010
27362271	VALCAR	11/06/2008
27362286	VALCAR	08/02/2005
27353939	VALCAR	14/09/2010
27361071	VALCAR	14/12/1954
26954101	VALCAR	13/06/2003
27253481	VALCAR	04/05/2001
27252810	VALCAR	25/05/1937
27596064	VALCAR	09/01/2008
27646878	VALCAR	19/07/2004
27648016	VALCAR	21/05/1936
27484464	VALCAR	28/08/2010
27442320	VALCAR	26/01/2005
27427357	VALCAR	01/01/2008
27647339	VALCAR	01/05/2000
27564766	VALCAR	01/04/2008
27614528	VALCAR	03/08/2010
27765553	VALCAR	08/05/1940
27763489	VALCAR	14/02/2003
27570581	VALCAR	01/01/2006
27694922	VALCAR	18/10/2005
27570840	VALCAR	13/02/2006
27153690	VALCAR	03/02/2005
27147928	VALCAR	24/02/1945
24579212	VALCAR	25/11/2008
27641770	VALCAR	09/04/1927
22882517	VALCAR	30/09/2009
27773248	VALCAR	20/05/2002
27684789	VALCAR	15/12/2003
27684839	VALCAR	19/06/2001
27508546	VALCAR	22/06/2000
27664085	VALCAR	09/10/2001
27770573	VALCAR	17/12/2007
18195688	VALCAR	31/03/2001
27662604	VALCAR	01/03/2003
27107232	VALCAR	19/02/2001
27024856	VALCAR	11/06/2008
27459556	VALCAR	17/12/2010
27597325	VALCAR	01/01/2002
27443512	VALCAR	14/09/2001
24655178	VALCAR	14/02/2006
27783717	VALCAR	18/08/2006
26619933	VALCAR	22/12/2004
27764992	VALCAR	13/09/2007
27171129	VALCAR	05/06/2009
27154246	VALCAR	21/05/2001
27359351	VALCAR	23/11/2010
27675953	VALCAR	23/11/2006
27763744	VALCAR	20/05/2007
27783945	VALCAR	01/05/2009
27809338	VALCAR	19/04/2011
27657730	VALCAR	05/10/2010
27797481	VALCAR	05/09/2003
27010245	VALCAR	21/06/2006
27614092	VALCAR	27/06/2007
27532824	VALCAR	10/12/2002
27801354	VALCAR	14/12/2004
33010690	VALCAR	28/05/2010
33104066	VALCAR	10/02/1928
33053828	VALCAR	20/05/2011
33021438	VALCAR	21/02/2003
33079702	VALCAR	22/04/2008
33012415	VALCAR	23/08/1999
33111158	VALCAR	07/08/2009
1029165	VALCAR	02/05/2006
24661802	VALCAR	01/12/2003
26998574	VALCAR	04/09/2009
27984387	VALCAR	26/03/2009
33309857	VALCAR	12/10/2002
20982153	VALCAR	10/04/2000
33019674	VALCAR	23/03/2011
33101479	VALCAR	10/10/1968
33106625	VALCAR	22/02/2002
33007224	VALCAR	06/10/1995
33039425	VALCAR	12/05/2008
16636662	VALCAR	22/05/2009
23397390	VALCAR	31/03/2010
28019450	VALCAR	01/01/2002
33297139	VALCAR	20/06/1998
20983733	VALCAR	01/01/2000
23381575	VALCAR	18/10/2010
16640222	VALCAR	27/07/1989
28026151	VALCAR	05/06/2009
33307085	VALCAR	11/06/2009
16654162	VALCAR	19/10/2009
33307268	VALCAR	26/05/2010
33233513	VALCAR	09/05/2003
16705254	VALCAR	12/05/2002
23366935	VALCAR	10/01/2006
23366991	VALCAR	14/04/2010
18811600	VALCAR	28/02/2008
23401564	VALCAR	19/08/2010
16621458	VALCAR	21/02/1984
20989739	VALCAR	09/08/2010
16124521	VALCAR	07/12/2001
20990169	VALCAR	25/08/2010
23403049	VALCAR	29/03/2004
16169664	VALCAR	12/05/2008
16684605	VALCAR	30/01/2008
27954341	VALCAR	09/03/2010
33288442	VALCAR	23/11/2010
16607708	VALCAR	19/06/2003
16125165	VALCAR	14/06/2000
16623658	VALCAR	16/12/2005
21099787	VALCAR	22/12/2010
16640187	VALCAR	05/06/1993
33225982	VALCAR	11/01/2010
14187326	VALCAR	09/09/2003
28026267	VALCAR	21/09/2010
31499727	VALCAR	05/10/2006
31418563	VALCAR	07/04/2004
33220514	VALCAR	26/09/1926
16126950	VALCAR	01/09/1994
21117548	VALCAR	17/10/2008
23349604	VALCAR	24/11/2009
33306337	VALCAR	18/03/1996
16654918	VALCAR	21/11/2009
33224201	VALCAR	12/12/2002
16713421	VALCAR	26/11/2003
16602556	VALCAR	15/04/2003
16603341	VALCAR	19/07/2002
16623344	VALCAR	12/02/2010
30299211	VALCAR	03/01/2011
23327900	VALCAR	30/12/1932
16712077	VALCAR	14/06/2007
16613501	VALCAR	01/01/1992
18767647	VALCAR	25/04/2007
32192677	VALCAR	14/02/2005
31271011	VALCAR	31/07/2007
31590499	VALCAR	29/04/2010
31286092	VALCAR	16/10/1998
31043246	VALCAR	05/10/2005
31245974	VALCAR	08/07/2002
31586751	VALCAR	10/06/2003
31412669	VALCAR	15/12/2009
32046442	VALCAR	30/08/2006
31053095	VALCAR	19/01/2005
32137081	VALCAR	15/03/2007
31314921	VALCAR	16/04/2007
31203868	VALCAR	01/04/2004
31605404	VALCAR	10/10/1982
31449000	VALCAR	01/01/1989
31034602	VALCAR	11/05/2007
31728526	VALCAR	10/06/2003
31461480	VALCAR	28/04/1994
31472076	VALCAR	31/05/2002
31955515	VALCAR	22/04/2002
32250774	VALCAR	01/09/2008
31093440	VALCAR	20/06/2008
31033667	VALCAR	16/04/2009
31140970	VALCAR	14/07/2005
31390699	VALCAR	23/12/2005
31197084	VALCAR	14/01/2008
32241646	VALCAR	20/04/2011
31597063	VALCAR	27/02/2004
32276946	VALCAR	15/10/2004
31999224	VALCAR	01/01/1995
32195861	VALCAR	02/10/2007
31547195	VALCAR	15/02/2002
31470168	VALCAR	16/10/2007
31529916	VALCAR	04/05/2011
31300199	VALCAR	10/12/2008
31873426	VALCAR	22/05/2010
31219050	VALCAR	03/12/2003
31110434	VALCAR	06/03/2006
32192753	VALCAR	29/03/2000
32090008	VALCAR	31/10/2003
31915254	VALCAR	26/02/2010
32154292	VALCAR	28/03/2005
31136755	VALCAR	05/03/1931
32148086	VALCAR	18/04/2007
31336882	VALCAR	18/02/2009
32091134	VALCAR	29/12/2003
31641342	VALCAR	27/05/2009
32044149	VALCAR	08/11/2006
32001413	VALCAR	17/05/2002
32074407	VALCAR	09/07/2007
31905886	VALCAR	24/06/2005
31166710	VALCAR	17/03/1994
31734298	VALCAR	11/04/2005
31229262	VALCAR	27/07/2009
32121144	VALCAR	03/09/2008
32271367	VALCAR	01/01/1999
31107119	VALCAR	26/04/2001
31485067	VALCAR	02/03/2005
31794802	VALCAR	14/05/2009
32018491	VALCAR	15/04/2004
31097231	VALCAR	17/06/2010
32189808	VALCAR	27/09/2008
32002259	VALCAR	01/01/1997
31223261	VALCAR	10/01/2005
31441666	VALCAR	21/08/1942
31308391	VALCAR	11/07/1962
31269212	VALCAR	29/10/2007
31660701	VALCAR	11/05/1999
31048661	VALCAR	06/11/2008
31959694	VALCAR	11/11/2009
32089605	VALCAR	10/04/2006
31048224	VALCAR	10/10/1993
31613374	VALCAR	07/10/1999
31492215	VALCAR	15/01/2001
31964245	VALCAR	22/02/2002
31441426	VALCAR	19/08/2004
31923205	VALCAR	03/07/2004
31621909	VALCAR	02/01/2003
32196147	VALCAR	26/05/2009
31175246	VALCAR	07/11/2000
31552874	VALCAR	07/08/1962
31800102	VALCAR	24/06/2004
31439920	VALCAR	29/04/2005
31103583	VALCAR	28/10/2008
31474377	VALCAR	01/11/1996
31653793	VALCAR	19/11/2008
31974787	VALCAR	21/02/2006
31566153	VALCAR	04/03/2010
31823040	VALCAR	18/10/1960
32133025	VALCAR	05/11/2009
31570301	VALCAR	20/01/2004
31853702	VALCAR	26/10/2010
31235124	VALCAR	01/10/2001
31306254	VALCAR	20/02/1993
31354855	VALCAR	12/12/2005
31041581	VALCAR	09/04/2008
31475546	VALCAR	12/08/2008
31608216	VALCAR	28/05/2003
31352687	VALCAR	17/01/2002
31419428	VALCAR	02/01/2009
31241823	VALCAR	03/06/2008
31346856	VALCAR	06/05/2006
32236017	VALCAR	24/03/2009
31279289	VALCAR	02/02/2000
31447714	VALCAR	23/11/1989
31883127	VALCAR	17/03/2006
31441799	VALCAR	30/11/2001
31038355	VALCAR	26/08/2005
32174291	VALCAR	17/02/2007
31704070	VALCAR	14/12/2004
31672769	VALCAR	30/11/2010
32090511	VALCAR	06/11/1972
32020453	VALCAR	15/03/2011
31973312	VALCAR	10/03/2010
31164925	VALCAR	04/04/2004
32227283	VALCAR	30/05/2011
32001923	VALCAR	19/06/2003
31584060	VALCAR	05/05/2004
31291544	VALCAR	12/04/2010
31245381	VALCAR	18/02/2010
32164279	VALCAR	31/08/2001
32110341	VALCAR	29/06/2007
31776478	VALCAR	12/06/2009
31265780	VALCAR	29/12/2004
31711216	VALCAR	02/04/2004
31856153	VALCAR	20/02/2003
31836599	VALCAR	05/07/2005
32130634	VALCAR	11/03/2000
31967869	VALCAR	15/01/2002
32094491	VALCAR	25/11/2005
31339822	VALCAR	20/06/2007
31519781	VALCAR	01/06/2011
31190114	VALCAR	04/03/2002
31458857	VALCAR	19/01/2005
31642262	VALCAR	19/07/2006
31268299	VALCAR	21/06/2010
31962312	VALCAR	22/03/2006
32154327	VALCAR	14/03/2008
32135671	VALCAR	20/10/2005
31489393	VALCAR	16/12/2003
32270655	VALCAR	08/09/2010
31317920	VALCAR	16/03/2007
31901197	VALCAR	13/11/2007
31485842	VALCAR	04/05/2010
31820480	VALCAR	23/01/2009
31445281	VALCAR	04/09/2003
31667004	VALCAR	01/01/1970
31497844	VALCAR	22/06/2005
31305570	VALCAR	13/10/2010
31393998	VALCAR	18/02/2009
31213814	VALCAR	06/09/2001
31579343	VALCAR	10/05/2009
32249380	VALCAR	17/11/2010
31094118	VALCAR	18/10/2005
32155126	VALCAR	12/07/2003
31067242	VALCAR	22/05/2001
31672025	VALCAR	10/10/1998
31622189	VALCAR	31/07/2002
31071531	VALCAR	24/04/2007
31960354	VALCAR	01/01/1976
31933747	VALCAR	14/05/2008
31538206	VALCAR	22/11/2001
31520629	VALCAR	13/05/2009
31427802	VALCAR	01/12/2008
31505607	VALCAR	10/07/2003
31374121	VALCAR	02/11/2001
31863861	VALCAR	14/01/2009
32029614	VALCAR	04/04/2007
31449858	VALCAR	16/11/2007
32204761	VALCAR	01/01/1995
32274498	VALCAR	26/02/2007
31421108	VALCAR	02/03/2006
31608836	VALCAR	01/06/2007
31152637	VALCAR	22/02/2011
31940613	VALCAR	09/06/2010
31166412	VALCAR	09/04/2001
