patient_id	covar_name	date
3304592	A10AB05	24/07/2007
24763655	A10AB05	03/01/2011
21152856	A10AB05	07/04/2011
14641279	A10AB05	08/04/2011
2767848	A10AB05	28/05/2011
12831650	A10AB05	06/08/2007
10394089	A10AB05	26/09/2008
24442143	A10AB05	11/12/2007
24763876	A10AB05	23/02/2011
1162456	A10AB05	13/05/2011
564746	A10AB05	16/09/2008
7801719	A10AB05	17/05/2011
1208133	A10AB05	19/05/2011
1855368	A10AB05	09/03/2009
995762	A10AB05	22/07/2009
133899	A10AB05	05/05/2011
1641017	A10AB05	18/04/2011
25908066	A10AB05	05/05/2011
1647977	A10AB05	20/12/2007
2143723	A10AB05	02/04/2008
2059211	A10AB05	25/03/2011
2053983	A10AB05	20/04/2011
1764780	A10AB05	19/05/2011
876130	A10AB05	09/02/2010
2524518	A10AB05	18/05/2011
2526072	A10AB05	23/09/2009
26464502	A10AB05	08/04/2011
7229492	A10AB05	13/05/2011
184887	A10AB05	04/06/2010
25704459	A10AB05	11/05/2011
24667949	A10AB05	11/05/2011
16840841	A10AB05	31/01/2011
1906106	A10AB05	29/04/2011
2994355	A10AB05	28/02/2011
2988643	A10AB05	02/05/2011
12994993	A10AB05	30/09/2010
26946408	A10AB05	02/03/2011
26941008	A10AB05	31/05/2011
26941906	A10AB05	27/05/2010
26954803	A10AB05	30/05/2011
26955339	A10AB05	02/03/2010
27133143	A10AB05	09/05/2011
27149748	A10AB05	31/12/2008
27086485	A10AB05	14/10/2009
27079522	A10AB05	06/09/2009
27367102	A10AB05	16/07/2008
27383112	A10AB05	24/05/2011
27764749	A10AB05	21/08/2008
27242158	A10AB05	26/04/2011
27675727	A10AB05	23/04/2011
26970741	A10AB05	28/04/2011
27608043	A10AB05	02/12/2010
24655178	A10AB05	15/01/2009
27683678	A10AB05	22/04/2011
27718674	A10AB05	17/05/2011
33100103	A10AB05	25/08/2010
33144464	A10AB05	05/06/2008
33019657	A10AB05	12/05/2008
33063559	A10AB05	18/05/2011
4740006	A10AB05	23/05/2011
33008240	A10AB05	03/04/2011
24464374	A10AB05	22/10/2010
14187910	A10AB05	10/09/2007
27878671	A10AB05	09/05/2011
16625697	A10AB05	05/05/2011
33293913	A10AB05	03/05/2011
33245853	A10AB05	29/12/2010
33253139	A10AB05	02/03/2011
23362937	A10AB05	25/11/2009
33206545	A10AB05	27/10/2010
33249205	A10AB05	09/12/2010
23366881	A10AB05	22/03/2011
28019140	A10AB05	01/06/2011
16130964	A10AB05	16/05/2011
16684088	A10AB05	02/08/2010
16683552	A10AB05	17/05/2011
33246637	A10AB05	19/04/2011
31224183	A10AB05	05/10/2010
31915703	A10AB05	10/03/2010
31644416	A10AB05	29/12/2008
31998448	A10AB05	02/03/2011
31396539	A10AB05	23/09/2010
31443647	A10AB05	11/04/2011
31627593	A10AB05	11/01/2005
31336940	A10AB05	30/10/2007
31678708	A10AB05	07/07/2010
31049500	A10AB05	06/05/2009
32214444	A10AB05	17/05/2011
31505016	A10AB05	16/12/2009
31259853	A10AB05	07/02/2011
31331386	A10AB05	11/12/2009
31099705	A10AB05	20/09/2007
31659026	A10AB05	11/10/2007
31480749	A10AB05	21/10/2010
32037940	A10AB05	12/02/2008
32002259	A10AB05	18/01/2006
31719017	A10AB05	20/08/2009
31502615	A10AB05	17/12/2008
31255192	A10AB05	23/09/2009
31858658	A10AB05	14/12/2010
31765504	A10AB05	25/01/2005
32281205	A10AB05	31/08/2009
32022210	A10AB05	02/11/2010
32125428	A10AB05	05/10/2009
31748071	A10AB05	03/11/2010
31548478	A10AB05	23/05/2008
31339822	A10AB05	28/12/2009
31929544	A10AB05	23/09/2008
31962312	A10AB05	04/12/2009
31311199	A10AB05	16/11/2009
31429454	A10AB05	21/10/2009
31161532	A10AB05	07/02/2011
31329423	A10AB05	10/05/2007
31076824	A10AB05	13/02/2011
31353873	A10AB05	02/02/2010
32195657	A10AB05	19/11/2007
31970673	A10AB05	07/09/2010
31760431	A10AB05	23/10/2008
32136272	A10AB05	14/12/2010
31202980	A10AB05	26/10/2009
32011511	A10AB05	07/04/2011
