patient_id	covar_name	date
6747933	A10AE04	04/05/2010
16411132	A10AE04	07/04/2011
3304592	A10AE04	24/07/2007
949778	A10AE04	08/09/2009
6887580	A10AE04	28/10/2009
9383919	A10AE04	05/05/2010
21152856	A10AE04	07/04/2011
14641279	A10AE04	16/04/2010
2767848	A10AE04	30/05/2011
8277775	A10AE04	19/02/2008
8979574	A10AE04	15/03/2011
1069182	A10AE04	07/03/2011
9180128	A10AE04	13/04/2011
8639376	A10AE04	15/09/2009
731905	A10AE04	22/03/2011
731159	A10AE04	15/04/2011
12857013	A10AE04	26/05/2011
12688464	A10AE04	24/07/2007
19184518	A10AE04	27/04/2011
8641065	A10AE04	18/04/2011
21373507	A10AE04	06/05/2011
10395603	A10AE04	21/02/2011
9348188	A10AE04	27/06/2008
25042008	A10AE04	14/10/2008
10394089	A10AE04	30/03/2009
21152643	A10AE04	05/01/2009
24763876	A10AE04	23/02/2011
9323777	A10AE04	01/03/2011
17216732	A10AE04	06/05/2011
1162456	A10AE04	27/05/2011
10245737	A10AE04	21/03/2011
564746	A10AE04	16/05/2011
6597437	A10AE04	05/05/2011
7801719	A10AE04	17/05/2011
4700332	A10AE04	22/03/2011
1276395	A10AE04	21/05/2011
6842062	A10AE04	29/12/2006
7777409	A10AE04	25/05/2011
7800679	A10AE04	18/05/2010
6213484	A10AE04	18/03/2011
1667186	A10AE04	26/04/2011
1205375	A10AE04	09/02/2011
1199368	A10AE04	08/04/2011
1209204	A10AE04	28/03/2011
8068179	A10AE04	05/05/2011
7776373	A10AE04	09/05/2011
1320083	A10AE04	02/02/2011
1132264	A10AE04	24/05/2011
1855368	A10AE04	16/05/2011
1640603	A10AE04	19/05/2011
998259	A10AE04	04/05/2011
189189	A10AE04	15/04/2011
1641017	A10AE04	18/04/2011
25818249	A10AE04	25/05/2011
25908066	A10AE04	05/05/2011
2138546	A10AE04	04/05/2011
2053983	A10AE04	20/04/2011
2053540	A10AE04	15/11/2010
1752991	A10AE04	01/06/2011
1767503	A10AE04	19/04/2011
859012	A10AE04	27/04/2011
7047183	A10AE04	06/05/2011
4088249	A10AE04	28/04/2011
2775560	A10AE04	16/05/2011
2524518	A10AE04	18/05/2011
2522213	A10AE04	29/03/2004
2755836	A10AE04	05/05/2011
16979853	A10AE04	04/05/2011
9848198	A10AE04	13/12/2010
26461696	A10AE04	25/03/2011
26458657	A10AE04	05/04/2011
28041048	A10AE04	11/04/2011
18471446	A10AE04	19/05/2011
17324116	A10AE04	14/04/2011
13049153	A10AE04	17/05/2011
7229492	A10AE04	13/05/2011
1900806	A10AE04	10/11/2008
650187	A10AE04	23/02/2011
180748	A10AE04	05/05/2011
426744	A10AE04	08/03/2011
28044182	A10AE04	14/05/2008
303479	A10AE04	20/08/2010
418421	A10AE04	05/05/2011
418234	A10AE04	18/05/2011
186409	A10AE04	01/06/2011
649902	A10AE04	03/05/2011
648824	A10AE04	04/03/2011
28088132	A10AE04	23/05/2011
24666302	A10AE04	10/05/2011
25743561	A10AE04	15/04/2011
24658550	A10AE04	01/06/2011
24662681	A10AE04	23/05/2008
25704459	A10AE04	13/05/2011
24657011	A10AE04	21/03/2011
1373198	A10AE04	04/05/2009
1371686	A10AE04	29/02/2008
1906965	A10AE04	11/04/2011
926250	A10AE04	08/02/2011
18197681	A10AE04	20/05/2011
1906106	A10AE04	29/04/2011
26776551	A10AE04	15/12/2010
26637658	A10AE04	12/05/2011
26639040	A10AE04	11/05/2011
2994355	A10AE04	28/02/2011
16105363	A10AE04	29/05/2011
2988643	A10AE04	01/06/2011
26700857	A10AE04	07/09/2007
12994993	A10AE04	30/09/2010
26620755	A10AE04	24/09/2010
24578320	A10AE04	26/05/2011
21651387	A10AE04	05/05/2011
26946408	A10AE04	06/05/2011
26941008	A10AE04	31/05/2011
26941906	A10AE04	17/02/2011
26950378	A10AE04	08/04/2011
26824324	A10AE04	07/05/2011
26715319	A10AE04	31/08/2007
27072138	A10AE04	13/05/2011
27061821	A10AE04	19/04/2011
26954803	A10AE04	27/04/2010
26955339	A10AE04	08/04/2011
26990015	A10AE04	29/04/2011
26989053	A10AE04	24/05/2011
27149748	A10AE04	13/05/2011
27098823	A10AE04	30/04/2011
27137973	A10AE04	09/05/2011
27026108	A10AE04	02/04/2011
27013186	A10AE04	13/04/2011
26996642	A10AE04	15/05/2011
27214679	A10AE04	25/05/2011
27171122	A10AE04	21/01/2011
27362443	A10AE04	19/11/2010
27211457	A10AE04	28/05/2011
27348707	A10AE04	24/04/2011
27368382	A10AE04	27/05/2011
27396771	A10AE04	10/08/2010
27317083	A10AE04	30/05/2011
27383112	A10AE04	28/06/2006
27296141	A10AE04	26/05/2011
27218443	A10AE04	27/04/2011
27345639	A10AE04	25/05/2011
27238217	A10AE04	24/05/2011
27246754	A10AE04	16/05/2011
27632436	A10AE04	13/04/2011
27474528	A10AE04	11/03/2011
27460528	A10AE04	11/05/2011
27473971	A10AE04	03/03/2011
27572382	A10AE04	12/04/2011
27764749	A10AE04	27/05/2011
27752383	A10AE04	23/04/2010
27573184	A10AE04	14/04/2011
27658878	A10AE04	24/05/2011
27242158	A10AE04	26/04/2011
26637275	A10AE04	11/03/2011
26976144	A10AE04	20/04/2011
27805592	A10AE04	04/07/2006
27687204	A10AE04	25/03/2011
27459230	A10AE04	21/04/2011
27675727	A10AE04	18/05/2011
26970741	A10AE04	28/04/2011
27674082	A10AE04	03/05/2011
1017321	A10AE04	21/02/2011
27589530	A10AE04	26/03/2011
27709553	A10AE04	06/02/2007
27398357	A10AE04	26/05/2011
27647973	A10AE04	22/04/2011
27686913	A10AE04	16/04/2011
27683678	A10AE04	22/05/2011
27718674	A10AE04	01/06/2011
27804341	A10AE04	19/04/2011
27797674	A10AE04	17/12/2007
26941998	A10AE04	01/04/2011
27314862	A10AE04	01/06/2011
26872972	A10AE04	05/05/2011
33040260	A10AE04	07/04/2011
33100103	A10AE04	05/01/2011
33068739	A10AE04	10/05/2011
33105480	A10AE04	16/05/2011
33019657	A10AE04	12/05/2008
33040236	A10AE04	26/09/2006
33133444	A10AE04	28/12/2010
33072179	A10AE04	11/04/2011
33073315	A10AE04	19/05/2011
33063559	A10AE04	18/05/2011
33030108	A10AE04	28/02/2011
33091621	A10AE04	28/12/2010
33053742	A10AE04	30/05/2011
4740006	A10AE04	23/04/2011
33008240	A10AE04	03/05/2011
22881940	A10AE04	23/05/2011
33083395	A10AE04	06/09/2010
33101101	A10AE04	30/05/2011
33050859	A10AE04	12/04/2011
33072029	A10AE04	06/05/2011
33007891	A10AE04	06/05/2011
24464374	A10AE04	25/04/2011
14187910	A10AE04	05/05/2011
27878671	A10AE04	13/04/2011
16625697	A10AE04	16/10/2007
33208331	A10AE04	28/04/2011
16184117	A10AE04	12/04/2011
27985124	A10AE04	11/04/2011
28018038	A10AE04	20/04/2011
28022563	A10AE04	17/02/2011
28018743	A10AE04	19/04/2011
23361804	A10AE04	06/05/2011
23366881	A10AE04	22/11/2010
23402038	A10AE04	10/03/2007
23339422	A10AE04	04/05/2011
28019140	A10AE04	09/03/2011
16636819	A10AE04	03/06/2008
16130964	A10AE04	16/05/2011
16684088	A10AE04	11/03/2011
33246637	A10AE04	19/04/2011
18770491	A10AE04	31/03/2011
18758361	A10AE04	03/05/2011
23371261	A10AE04	16/09/2009
16648158	A10AE04	06/05/2011
23367381	A10AE04	30/03/2010
16618677	A10AE04	05/05/2011
16603341	A10AE04	09/05/2011
20982002	A10AE04	30/05/2011
23316314	A10AE04	21/01/2011
21108790	A10AE04	15/06/2009
16606426	A10AE04	10/02/2010
21102991	A10AE04	24/05/2011
31224183	A10AE04	05/10/2010
32144827	A10AE04	15/06/2007
31409038	A10AE04	09/06/2010
31357015	A10AE04	20/01/2011
32100781	A10AE04	20/01/2010
31915703	A10AE04	17/02/2005
31053990	A10AE04	29/12/2010
31644416	A10AE04	29/12/2008
31998448	A10AE04	01/08/2006
31810817	A10AE04	01/12/2010
31126630	A10AE04	17/07/2006
31396539	A10AE04	23/09/2010
31934644	A10AE04	30/01/2006
31443647	A10AE04	11/12/2009
31627593	A10AE04	08/04/2011
31336940	A10AE04	27/12/2010
31846828	A10AE04	12/05/2011
31735454	A10AE04	21/12/2010
31424621	A10AE04	07/09/2009
31678708	A10AE04	29/12/2010
31455126	A10AE04	08/04/2011
31049500	A10AE04	29/12/2009
31205880	A10AE04	28/12/2006
32214444	A10AE04	21/07/2010
32212407	A10AE04	03/03/2011
32122580	A10AE04	23/10/2006
31259853	A10AE04	20/01/2011
32245047	A10AE04	29/09/2010
31331386	A10AE04	11/12/2009
31585879	A10AE04	14/05/2011
31659026	A10AE04	11/10/2007
32186902	A10AE04	04/12/2008
31643582	A10AE04	29/12/2010
31652847	A10AE04	20/05/2011
31480749	A10AE04	10/08/2010
32002259	A10AE04	14/09/2006
31991756	A10AE04	16/03/2009
31507581	A10AE04	24/06/2009
32100016	A10AE04	13/05/2009
31502615	A10AE04	24/07/2007
31282883	A10AE04	20/08/2008
31045812	A10AE04	29/11/2004
31255192	A10AE04	23/09/2009
31087176	A10AE04	30/09/2009
31600321	A10AE04	04/03/2011
31858658	A10AE04	11/11/2009
31566153	A10AE04	05/11/2010
31928477	A10AE04	29/08/2010
31765504	A10AE04	18/06/2009
31608488	A10AE04	24/11/2010
32194499	A10AE04	30/05/2011
32281205	A10AE04	09/12/2009
32125428	A10AE04	05/10/2009
32006368	A10AE04	09/03/2011
31577402	A10AE04	20/11/2008
31748071	A10AE04	03/11/2010
31125341	A10AE04	08/04/2011
32064327	A10AE04	16/12/2009
31948150	A10AE04	09/08/2005
31339822	A10AE04	28/12/2009
31929544	A10AE04	10/12/2009
31995928	A10AE04	23/11/2009
31567799	A10AE04	24/06/2009
31084479	A10AE04	14/12/2009
31954330	A10AE04	22/01/2011
31216105	A10AE04	13/09/2010
31304181	A10AE04	29/09/2010
31099021	A10AE04	02/10/2007
32045804	A10AE04	20/10/2009
31161532	A10AE04	07/02/2011
32090626	A10AE04	06/02/2008
32205231	A10AE04	09/03/2011
31074963	A10AE04	06/12/2010
31076824	A10AE04	08/02/2011
31101310	A10AE04	27/10/2010
31353873	A10AE04	02/10/2009
31549250	A10AE04	10/11/2008
32267988	A10AE04	10/03/2011
31970673	A10AE04	30/11/2010
31558486	A10AE04	30/03/2009
31973866	A10AE04	17/06/2005
31701260	A10AE04	20/11/2007
32236174	A10AE04	06/11/2007
31150444	A10AE04	25/10/2010
32242783	A10AE04	13/01/2011
31897149	A10AE04	24/02/2011
32266454	A10AE04	06/05/2009
31991894	A10AE04	15/10/2009
32154430	A10AE04	08/05/2011
31689849	A10AE04	24/02/2011
31354769	A10AE04	28/10/2010
32057261	A10AE04	11/04/2011
31807657	A10AE04	19/10/2010
32116282	A10AE04	23/01/2008
32011511	A10AE04	05/05/2010
