patient_id	covar_name	date
208481	ACVHEM	23/12/2009
10003991	ACVHEM	25/03/2002
17710122	ACVHEM	20/03/2007
9375948	ACVHEM	03/02/2004
12856801	ACVHEM	31/07/1996
12242307	ACVHEM	30/09/2004
3318988	ACVHEM	11/10/1995
6602648	ACVHEM	13/04/2009
24718852	ACVHEM	18/05/2006
6227493	ACVHEM	13/11/2006
526070	ACVHEM	12/01/2007
13984960	ACVHEM	06/06/1991
1296791	ACVHEM	23/02/1999
24718581	ACVHEM	26/11/2008
8955962	ACVHEM	11/03/2009
7971322	ACVHEM	20/04/2011
6602253	ACVHEM	04/02/2008
6601117	ACVHEM	26/05/2011
25900745	ACVHEM	13/01/2011
1855343	ACVHEM	16/03/2001
2070964	ACVHEM	22/02/2011
17747103	ACVHEM	03/06/2000
26488369	ACVHEM	03/09/2009
26236359	ACVHEM	12/08/2002
28093276	ACVHEM	31/01/2006
20070622	ACVHEM	03/05/2011
19801472	ACVHEM	29/08/2006
19424258	ACVHEM	08/12/2010
26621036	ACVHEM	28/11/1992
26635277	ACVHEM	02/11/2004
22921551	ACVHEM	15/10/2002
26932881	ACVHEM	08/12/2002
26730017	ACVHEM	09/12/2010
26864665	ACVHEM	05/05/1999
26881213	ACVHEM	25/10/2007
26864441	ACVHEM	14/04/2009
27151528	ACVHEM	01/03/2007
27056679	ACVHEM	15/03/2007
26997004	ACVHEM	10/08/2009
27348961	ACVHEM	16/02/2000
27168742	ACVHEM	18/03/2003
27379580	ACVHEM	03/08/2006
27388816	ACVHEM	06/10/2007
27303501	ACVHEM	14/04/1987
27213832	ACVHEM	25/01/1999
27495476	ACVHEM	10/05/2005
27756656	ACVHEM	10/05/1946
27167731	ACVHEM	13/03/2009
24582476	ACVHEM	01/01/1990
27765029	ACVHEM	02/12/2010
27767366	ACVHEM	25/07/1971
26864823	ACVHEM	26/04/1977
1030390	ACVHEM	19/11/1934
27574497	ACVHEM	10/04/1995
304426	ACVHEM	19/12/1982
33105641	ACVHEM	21/01/2009
23396737	ACVHEM	11/10/1931
28019450	ACVHEM	01/04/2006
33291051	ACVHEM	01/01/1991
21109734	ACVHEM	14/03/2005
31487753	ACVHEM	21/07/2006
23367113	ACVHEM	22/03/1926
31119305	ACVHEM	01/08/1998
31796610	ACVHEM	04/09/2009
31667854	ACVHEM	08/06/1998
32005539	ACVHEM	26/01/2000
31973718	ACVHEM	03/11/2004
31082521	ACVHEM	15/12/2006
31815136	ACVHEM	24/07/2002
31707369	ACVHEM	14/07/2007
31712543	ACVHEM	12/09/2008
31047801	ACVHEM	15/12/2009
31367892	ACVHEM	01/06/1994
32232823	ACVHEM	28/08/2008
31604848	ACVHEM	25/01/2011
31067242	ACVHEM	30/10/2007
32178097	ACVHEM	20/01/2011
31973593	ACVHEM	13/05/1999
