patient_id	covar_name	date
21856793	A02BC05	22/03/2011
6040714	A02BC05	20/07/2009
12771754	A02BC05	31/01/2011
24763901	A02BC05	20/11/2009
8654979	A02BC05	13/03/2006
1731330	A02BC05	09/02/2011
1732204	A02BC05	02/08/2004
18628739	A02BC05	05/05/2010
1069458	A02BC05	11/03/2010
9385413	A02BC05	13/05/2011
9328550	A02BC05	18/09/2009
15384882	A02BC05	30/05/2011
1302984	A02BC05	14/12/2009
12779443	A02BC05	17/03/2011
12186613	A02BC05	28/09/2007
701693	A02BC05	14/07/2010
23472297	A02BC05	10/03/2009
9390097	A02BC05	25/06/2007
8975154	A02BC05	29/12/2010
1188645	A02BC05	09/03/2011
1122381	A02BC05	13/01/2006
731962	A02BC05	23/05/2011
10269993	A02BC05	27/02/2008
16087795	A02BC05	03/05/2011
6080444	A02BC05	04/06/2009
9371920	A02BC05	14/04/2011
12694616	A02BC05	10/09/2010
24937833	A02BC05	30/03/2009
9293811	A02BC05	27/04/2009
9372898	A02BC05	03/05/2011
12220480	A02BC05	18/06/2008
9294363	A02BC05	17/05/2011
16101181	A02BC05	12/03/2008
20549780	A02BC05	23/03/2009
8283295	A02BC05	25/05/2010
1300852	A02BC05	06/04/2011
16532021	A02BC05	05/10/2009
16915547	A02BC05	23/07/2010
9388668	A02BC05	30/03/2007
207716	A02BC05	24/05/2011
611502	A02BC05	18/10/2010
8642044	A02BC05	04/10/2006
6177821	A02BC05	21/05/2009
12171465	A02BC05	01/06/2011
6744713	A02BC05	25/03/2008
6888668	A02BC05	20/03/2009
15237928	A02BC05	10/07/2008
21856435	A02BC05	12/05/2011
940917	A02BC05	26/05/2011
1068416	A02BC05	22/09/2009
9285180	A02BC05	22/02/2005
6040773	A02BC05	14/03/2011
12691458	A02BC05	16/05/2011
8786315	A02BC05	26/04/2011
6746814	A02BC05	01/06/2007
20565596	A02BC05	03/10/2007
12186350	A02BC05	09/11/2005
25062071	A02BC05	05/11/2009
21856470	A02BC05	20/08/2010
5866498	A02BC05	03/12/2010
8643251	A02BC05	30/10/2007
6417039	A02BC05	22/11/2007
936659	A02BC05	21/03/2011
5022239	A02BC05	28/03/2011
13986519	A02BC05	18/12/2008
659587	A02BC05	06/05/2011
4700229	A02BC05	19/03/2011
13388507	A02BC05	20/02/2009
18056114	A02BC05	31/10/2009
1204433	A02BC05	01/09/2009
1171992	A02BC05	17/11/2008
1379596	A02BC05	29/03/2011
1853226	A02BC05	27/10/2010
7964982	A02BC05	27/02/2006
18365576	A02BC05	19/05/2011
1171151	A02BC05	13/12/2005
1172020	A02BC05	02/12/2010
1205153	A02BC05	24/04/2010
1210615	A02BC05	03/04/2007
3113356	A02BC05	16/05/2011
6227493	A02BC05	29/04/2011
13984900	A02BC05	25/03/2009
6842062	A02BC05	31/03/2010
1546096	A02BC05	18/05/2011
1207309	A02BC05	08/02/2011
640398	A02BC05	02/01/2009
26139483	A02BC05	27/05/2011
8061402	A02BC05	18/05/2011
6424908	A02BC05	05/02/2009
5489882	A02BC05	09/05/2011
648336	A02BC05	01/06/2009
1204770	A02BC05	16/12/2008
1354463	A02BC05	24/02/2011
12189158	A02BC05	27/05/2011
7850480	A02BC05	22/08/2005
1211186	A02BC05	11/05/2011
1207086	A02BC05	31/05/2011
7966509	A02BC05	17/12/2009
8061893	A02BC05	13/09/2005
7777513	A02BC05	27/05/2011
1417023	A02BC05	20/08/2004
6593294	A02BC05	07/01/2009
7769677	A02BC05	03/02/2004
13985332	A02BC05	10/10/2005
18365866	A02BC05	14/04/2011
12187756	A02BC05	09/04/2010
5992383	A02BC05	03/04/2007
12613860	A02BC05	03/05/2011
1850819	A02BC05	02/07/2007
25960205	A02BC05	06/05/2010
525618	A02BC05	13/05/2011
1417328	A02BC05	01/03/2011
7777716	A02BC05	25/08/2010
12189511	A02BC05	11/03/2008
1207737	A02BC05	27/05/2011
7779623	A02BC05	03/05/2011
13987268	A02BC05	13/05/2010
7776254	A02BC05	03/05/2011
4700277	A02BC05	31/05/2011
13986679	A02BC05	26/05/2011
6951044	A02BC05	23/06/2009
12657677	A02BC05	28/09/2010
25892818	A02BC05	16/02/2010
1067145	A02BC05	10/07/2006
1566989	A02BC05	27/09/2010
1639158	A02BC05	09/05/2011
4678923	A02BC05	18/09/2009
1851693	A02BC05	19/05/2011
6597378	A02BC05	05/05/2011
716273	A02BC05	16/11/2009
25908152	A02BC05	26/05/2011
1638022	A02BC05	30/05/2011
889650	A02BC05	12/01/2006
1638786	A02BC05	24/05/2011
1578995	A02BC05	30/10/2007
1110970	A02BC05	06/05/2008
1640838	A02BC05	10/07/2007
1579638	A02BC05	10/07/2009
1638565	A02BC05	15/09/2006
6914096	A02BC05	21/01/2008
890075	A02BC05	20/12/2005
1640534	A02BC05	06/05/2011
1641072	A02BC05	02/03/2011
12162776	A02BC05	12/06/2008
485949	A02BC05	03/11/2008
25889094	A02BC05	29/12/2006
1639147	A02BC05	17/09/2008
21282892	A02BC05	14/10/2010
1135359	A02BC05	04/04/2011
1638528	A02BC05	18/05/2011
1552431	A02BC05	10/07/2008
486308	A02BC05	15/01/2010
1578839	A02BC05	22/02/2011
25913321	A02BC05	21/11/2005
12788129	A02BC05	11/05/2011
1558166	A02BC05	23/04/2007
1101989	A02BC05	08/03/2007
1641017	A02BC05	10/03/2008
1855296	A02BC05	07/06/2010
1581260	A02BC05	10/06/2005
486077	A02BC05	01/02/2008
717026	A02BC05	20/08/2009
1134812	A02BC05	23/05/2011
1132627	A02BC05	10/03/2011
1101207	A02BC05	30/05/2006
889933	A02BC05	03/09/2010
890380	A02BC05	11/05/2011
2139902	A02BC05	13/04/2011
2067684	A02BC05	14/02/2011
2217164	A02BC05	26/05/2010
2140698	A02BC05	18/04/2005
2139488	A02BC05	20/12/2010
2140686	A02BC05	01/03/2010
2139418	A02BC05	29/07/2010
2138590	A02BC05	11/03/2010
2140421	A02BC05	18/03/2010
905063	A02BC05	20/04/2010
2143938	A02BC05	29/10/2009
859110	A02BC05	28/09/2004
1763227	A02BC05	31/07/2007
875480	A02BC05	18/04/2011
904532	A02BC05	23/06/2009
859050	A02BC05	11/06/2008
902142	A02BC05	20/03/2009
1755284	A02BC05	12/11/2003
2035821	A02BC05	03/01/2007
7134077	A02BC05	27/05/2011
3050342	A02BC05	28/04/2011
2034405	A02BC05	06/10/2008
859012	A02BC05	27/03/2007
860139	A02BC05	20/02/2007
1767597	A02BC05	23/02/2010
2777238	A02BC05	24/12/2010
7135080	A02BC05	13/08/2009
3052217	A02BC05	09/09/2010
3052049	A02BC05	12/08/2009
3055051	A02BC05	28/05/2011
2764043	A02BC05	01/06/2006
2765080	A02BC05	17/12/2009
2406926	A02BC05	18/03/2011
2714643	A02BC05	10/03/2011
2756025	A02BC05	24/02/2011
12970489	A02BC05	30/05/2011
9848198	A02BC05	23/04/2010
26461782	A02BC05	09/12/2008
26461804	A02BC05	24/03/2011
26425762	A02BC05	10/06/2009
26409464	A02BC05	13/03/2007
26461518	A02BC05	04/03/2011
26503596	A02BC05	08/06/2009
28044970	A02BC05	24/05/2011
28063102	A02BC05	24/05/2011
17746470	A02BC05	16/05/2011
7137654	A02BC05	27/09/2006
17041460	A02BC05	22/06/2009
7036392	A02BC05	07/03/2011
8118544	A02BC05	19/05/2011
20452613	A02BC05	28/09/2010
22497799	A02BC05	19/08/2009
7229284	A02BC05	19/05/2011
26244408	A02BC05	11/01/2006
26441845	A02BC05	26/10/2006
26464787	A02BC05	04/12/2009
26199127	A02BC05	20/09/2006
20147574	A02BC05	23/11/2009
26384859	A02BC05	25/08/2010
17742432	A02BC05	24/05/2011
16979546	A02BC05	21/08/2008
8117983	A02BC05	18/05/2011
7136999	A02BC05	15/03/2011
17323744	A02BC05	20/05/2011
16867929	A02BC05	02/02/2011
421437	A02BC05	27/10/2010
300241	A02BC05	19/05/2011
302093	A02BC05	08/04/2010
433439	A02BC05	30/05/2011
1905961	A02BC05	16/03/2005
26478302	A02BC05	17/05/2011
2144096	A02BC05	21/05/2011
28084179	A02BC05	26/05/2009
20147197	A02BC05	18/05/2011
20147240	A02BC05	03/11/2009
28086673	A02BC05	31/05/2011
28090863	A02BC05	13/05/2009
28086148	A02BC05	01/10/2010
2055267	A02BC05	07/03/2011
181145	A02BC05	17/05/2011
184746	A02BC05	28/07/2006
17040128	A02BC05	20/09/2007
418421	A02BC05	20/05/2011
419430	A02BC05	12/08/2010
303624	A02BC05	24/08/2004
28054748	A02BC05	30/07/2010
28045692	A02BC05	25/04/2011
28054205	A02BC05	25/04/2011
28085935	A02BC05	08/08/2008
28085264	A02BC05	17/06/2010
24655567	A02BC05	20/10/2005
24665617	A02BC05	06/04/2011
24668527	A02BC05	09/01/2006
24657685	A02BC05	02/12/2009
25535638	A02BC05	08/05/2011
25742981	A02BC05	09/10/2008
25539451	A02BC05	24/03/2009
25588570	A02BC05	17/12/2009
24669225	A02BC05	09/09/2006
25743229	A02BC05	14/05/2011
1372823	A02BC05	04/05/2006
40584	A02BC05	16/01/2007
1370928	A02BC05	23/01/2009
1342869	A02BC05	26/03/2003
1020212	A02BC05	03/09/2010
1372631	A02BC05	31/05/2011
19801995	A02BC05	28/10/2010
18191327	A02BC05	04/02/2005
18196862	A02BC05	21/05/2011
20070622	A02BC05	11/02/2009
18191207	A02BC05	22/01/2007
21063993	A02BC05	14/10/2009
1911817	A02BC05	21/10/2009
4312803	A02BC05	23/02/2010
2957103	A02BC05	16/05/2008
418928	A02BC05	09/12/2010
1366818	A02BC05	09/05/2011
26640214	A02BC05	04/05/2010
26628519	A02BC05	07/01/2010
26706338	A02BC05	13/05/2011
16567752	A02BC05	21/02/2008
21552949	A02BC05	23/12/2009
22881967	A02BC05	29/11/2010
12878243	A02BC05	31/05/2011
16105997	A02BC05	17/04/2008
2987297	A02BC05	10/11/2008
16105286	A02BC05	07/04/2011
21553551	A02BC05	16/05/2011
26707001	A02BC05	25/05/2011
26628248	A02BC05	31/05/2011
26626604	A02BC05	01/10/2008
16843475	A02BC05	16/06/2010
26618458	A02BC05	22/07/2010
24578320	A02BC05	31/05/2011
24577473	A02BC05	22/05/2009
24581986	A02BC05	25/08/2008
24593639	A02BC05	08/04/2010
23484160	A02BC05	22/11/2007
26932610	A02BC05	27/10/2009
26723668	A02BC05	25/05/2011
26894948	A02BC05	05/05/2011
26946278	A02BC05	23/12/2009
26917313	A02BC05	17/05/2011
26897230	A02BC05	07/03/2011
26946963	A02BC05	23/05/2011
26897795	A02BC05	12/05/2011
26938144	A02BC05	03/05/2011
26933236	A02BC05	30/03/2009
26915129	A02BC05	10/05/2005
26782134	A02BC05	02/11/2007
26845617	A02BC05	26/04/2011
26869247	A02BC05	27/09/2010
26714437	A02BC05	19/11/2010
26859048	A02BC05	29/10/2009
26865382	A02BC05	05/02/2009
26930721	A02BC05	16/09/2005
26845417	A02BC05	08/10/2009
26877242	A02BC05	08/05/2011
26847638	A02BC05	19/05/2010
26851758	A02BC05	26/04/2011
26857019	A02BC05	03/07/2009
26834377	A02BC05	12/04/2011
26714270	A02BC05	10/10/2006
26801817	A02BC05	08/03/2011
26717334	A02BC05	28/12/2009
26856155	A02BC05	08/07/2010
26977158	A02BC05	23/05/2011
27034247	A02BC05	19/05/2011
27067241	A02BC05	14/07/2008
26956977	A02BC05	20/05/2009
27061513	A02BC05	13/10/2008
26972749	A02BC05	10/05/2011
26976907	A02BC05	21/08/2007
26982772	A02BC05	30/11/2010
27086485	A02BC05	18/11/2010
27102365	A02BC05	30/06/2008
27113773	A02BC05	17/03/2010
27086147	A02BC05	02/05/2011
27109851	A02BC05	08/11/2007
27105146	A02BC05	03/05/2011
27137945	A02BC05	07/05/2011
27055690	A02BC05	14/06/2008
27066800	A02BC05	17/05/2011
27046535	A02BC05	22/02/2011
27037293	A02BC05	24/11/2010
27023070	A02BC05	06/09/2004
27023858	A02BC05	12/05/2011
27026108	A02BC05	31/05/2011
27000732	A02BC05	15/07/2008
27024702	A02BC05	08/06/2010
27348961	A02BC05	09/05/2011
27326221	A02BC05	13/04/2011
27324677	A02BC05	11/03/2009
27349067	A02BC05	01/06/2011
27147397	A02BC05	05/03/2010
27354142	A02BC05	20/01/2009
27365421	A02BC05	13/03/2008
27249436	A02BC05	31/05/2011
27170658	A02BC05	24/07/2009
27368805	A02BC05	01/06/2011
27323992	A02BC05	06/03/2009
27220297	A02BC05	21/05/2011
27348023	A02BC05	06/03/2006
27306529	A02BC05	24/01/2011
27303739	A02BC05	24/08/2010
27296167	A02BC05	12/05/2011
27370248	A02BC05	17/10/2008
27353964	A02BC05	09/05/2011
27246754	A02BC05	16/05/2011
26988657	A02BC05	02/03/2011
27247425	A02BC05	31/03/2010
27248861	A02BC05	10/05/2011
27200892	A02BC05	07/05/2011
27592896	A02BC05	09/10/2008
27607371	A02BC05	21/09/2010
27591421	A02BC05	03/11/2010
27600699	A02BC05	13/05/2011
27643447	A02BC05	23/04/2009
27643451	A02BC05	10/09/2010
27643454	A02BC05	17/09/2009
27623848	A02BC05	22/12/2009
27647784	A02BC05	27/10/2009
27427506	A02BC05	27/05/2011
27476407	A02BC05	02/05/2011
27426832	A02BC05	09/05/2011
27493714	A02BC05	03/03/2007
27645599	A02BC05	28/09/2009
27470779	A02BC05	17/01/2007
27639481	A02BC05	17/05/2011
27479893	A02BC05	20/03/2009
27605366	A02BC05	02/05/2011
27545803	A02BC05	22/06/2010
27707973	A02BC05	01/04/2011
27570774	A02BC05	22/05/2011
27563858	A02BC05	22/10/2009
27614610	A02BC05	16/05/2011
27716033	A02BC05	03/11/2010
27716087	A02BC05	12/05/2011
27283840	A02BC05	18/04/2011
27143752	A02BC05	15/09/2010
27131771	A02BC05	22/12/2010
27138764	A02BC05	27/02/2009
27284523	A02BC05	04/04/2011
27132788	A02BC05	01/03/2004
26899689	A02BC05	25/05/2011
18187165	A02BC05	26/01/2006
27252613	A02BC05	21/12/2005
27780235	A02BC05	03/01/2011
27533964	A02BC05	15/03/2011
27782628	A02BC05	18/09/2006
27772101	A02BC05	10/03/2010
27718156	A02BC05	11/09/2008
27533855	A02BC05	04/03/2011
27533892	A02BC05	30/04/2008
27534253	A02BC05	15/07/2003
27679924	A02BC05	15/05/2007
27535710	A02BC05	19/06/2007
27563279	A02BC05	30/05/2011
27457585	A02BC05	13/10/2009
27679946	A02BC05	05/06/2008
27496435	A02BC05	24/05/2011
27530889	A02BC05	09/07/2010
27514984	A02BC05	18/04/2005
27664085	A02BC05	05/03/2006
27571886	A02BC05	13/09/2010
27782736	A02BC05	27/05/2011
27444018	A02BC05	28/03/2008
27539930	A02BC05	27/05/2011
27648593	A02BC05	07/03/2011
27444265	A02BC05	13/05/2011
27597325	A02BC05	08/06/2006
27459207	A02BC05	18/02/2011
27648764	A02BC05	28/01/2008
27799332	A02BC05	05/03/2009
27640778	A02BC05	10/09/2009
27620824	A02BC05	20/08/2008
27798131	A02BC05	06/05/2008
26833671	A02BC05	14/02/2011
27043127	A02BC05	23/06/2010
27764992	A02BC05	27/05/2011
21705761	A02BC05	17/12/2008
27398357	A02BC05	03/09/2010
27803448	A02BC05	19/01/2010
27783945	A02BC05	16/07/2008
27667247	A02BC05	22/11/2010
27046555	A02BC05	19/04/2011
18192670	A02BC05	04/05/2011
424828	A02BC05	10/02/2009
26770940	A02BC05	27/05/2011
27591900	A02BC05	13/11/2008
27664220	A02BC05	18/05/2011
23484255	A02BC05	29/04/2011
27780213	A02BC05	10/02/2009
27588768	A02BC05	25/01/2010
27218796	A02BC05	17/05/2011
27356544	A02BC05	01/12/2008
27532824	A02BC05	14/03/2007
26834550	A02BC05	18/05/2011
27716323	A02BC05	06/03/2007
27285481	A02BC05	05/07/2010
27769812	A02BC05	11/08/2008
27572773	A02BC05	30/05/2011
27044136	A02BC05	12/11/2008
27233694	A02BC05	26/10/2010
27799643	A02BC05	16/03/2011
27366636	A02BC05	24/08/2010
27799208	A02BC05	11/10/2010
33002980	A02BC05	17/05/2011
33022477	A02BC05	18/12/2007
33133812	A02BC05	02/11/2010
33006102	A02BC05	30/01/2008
33078180	A02BC05	12/01/2010
33036212	A02BC05	27/02/2008
33023244	A02BC05	23/04/2009
33022764	A02BC05	11/10/2010
33086922	A02BC05	29/04/2011
33101389	A02BC05	22/11/2010
33092896	A02BC05	29/10/2009
33022600	A02BC05	08/06/2009
33077958	A02BC05	07/07/2010
33029275	A02BC05	07/06/2006
33111340	A02BC05	03/05/2011
33018545	A02BC05	22/07/2008
33053828	A02BC05	04/06/2009
33067601	A02BC05	18/03/2011
33065951	A02BC05	17/01/2006
33098852	A02BC05	16/05/2011
33069210	A02BC05	06/05/2005
33030987	A02BC05	08/11/2009
33114019	A02BC05	08/08/2007
33103468	A02BC05	18/04/2006
33125136	A02BC05	21/06/2010
33063325	A02BC05	08/01/2010
33019657	A02BC05	29/04/2008
33099353	A02BC05	11/11/2008
33003988	A02BC05	08/09/2006
33008987	A02BC05	17/07/2006
33111896	A02BC05	21/10/2009
33106608	A02BC05	23/01/2008
33099318	A02BC05	10/08/2009
33075351	A02BC05	08/11/2010
33070878	A02BC05	19/11/2007
33105763	A02BC05	09/07/2009
33027943	A02BC05	25/05/2011
33111017	A02BC05	21/03/2011
33079795	A02BC05	11/03/2009
33106497	A02BC05	28/02/2007
33111481	A02BC05	17/09/2010
33004433	A02BC05	18/05/2011
33128557	A02BC05	09/01/2009
33098674	A02BC05	06/03/2007
33029467	A02BC05	07/02/2011
33039975	A02BC05	15/02/2007
33020581	A02BC05	22/03/2010
33000634	A02BC05	08/10/2009
33100593	A02BC05	29/04/2008
33056259	A02BC05	12/05/2011
33072905	A02BC05	23/05/2011
33118796	A02BC05	27/04/2011
33093456	A02BC05	15/11/2007
33046246	A02BC05	20/08/2008
33083974	A02BC05	17/07/2009
33067653	A02BC05	24/10/2008
33096415	A02BC05	29/06/2007
33112794	A02BC05	18/03/2010
33045248	A02BC05	09/01/2009
33005545	A02BC05	14/08/2009
33079596	A02BC05	11/09/2008
33056182	A02BC05	17/02/2009
421387	A02BC05	11/06/2007
33042521	A02BC05	14/02/2011
33124177	A02BC05	18/09/2009
26724428	A02BC05	02/02/2011
27805215	A02BC05	05/04/2005
1905033	A02BC05	02/05/2011
27798157	A02BC05	12/01/2011
24661802	A02BC05	15/04/2011
27804097	A02BC05	23/12/2008
33002823	A02BC05	18/03/2009
26626671	A02BC05	08/01/2010
16637397	A02BC05	27/04/2011
16177914	A02BC05	30/04/2003
16773808	A02BC05	16/05/2011
28017369	A02BC05	03/05/2011
16633713	A02BC05	30/05/2011
33312211	A02BC05	26/05/2011
33252437	A02BC05	22/01/2009
23335211	A02BC05	12/05/2011
33097958	A02BC05	28/05/2009
33005283	A02BC05	04/11/2009
33020265	A02BC05	18/05/2011
33105648	A02BC05	05/01/2005
33106850	A02BC05	11/03/2009
33017775	A02BC05	01/04/2008
33026712	A02BC05	31/07/2008
33067650	A02BC05	02/04/2009
33117698	A02BC05	13/04/2011
33051621	A02BC05	02/09/2009
33073370	A02BC05	05/04/2011
33108807	A02BC05	10/05/2007
33060956	A02BC05	13/02/2007
33044945	A02BC05	25/04/2011
33128229	A02BC05	12/08/2009
33000877	A02BC05	11/04/2011
33066941	A02BC05	02/12/2008
33046061	A02BC05	18/02/2009
33034545	A02BC05	17/01/2007
33060011	A02BC05	22/02/2011
33026699	A02BC05	04/05/2011
33078447	A02BC05	03/09/2003
33049405	A02BC05	02/11/2004
33045618	A02BC05	08/09/2010
33113117	A02BC05	21/05/2009
33032465	A02BC05	28/08/2008
33052051	A02BC05	05/05/2010
33070531	A02BC05	30/09/2005
33023608	A02BC05	18/05/2009
33020543	A02BC05	14/04/2005
33060239	A02BC05	31/05/2011
33053146	A02BC05	26/05/2011
33130667	A02BC05	07/02/2011
33002563	A02BC05	15/04/2011
33099116	A02BC05	03/11/2003
33073628	A02BC05	04/11/2010
33092804	A02BC05	04/05/2011
33109220	A02BC05	19/02/2010
33066033	A02BC05	10/05/2011
33093016	A02BC05	25/11/2008
33129831	A02BC05	04/05/2011
33003742	A02BC05	26/07/2010
33083819	A02BC05	24/05/2011
33073595	A02BC05	03/06/2010
33022255	A02BC05	07/10/2009
33027073	A02BC05	22/02/2007
16774206	A02BC05	04/05/2011
23315706	A02BC05	03/01/2008
16634466	A02BC05	12/05/2011
16774800	A02BC05	25/03/2008
18768448	A02BC05	25/05/2011
16655186	A02BC05	23/06/2008
27934625	A02BC05	17/09/2010
33305015	A02BC05	09/12/2010
21116381	A02BC05	05/11/2008
33204352	A02BC05	24/09/2010
18771349	A02BC05	02/03/2010
33264985	A02BC05	10/01/2011
23397584	A02BC05	22/07/2009
33200808	A02BC05	25/02/2010
18743061	A02BC05	19/03/2010
33245491	A02BC05	01/04/2009
16611242	A02BC05	30/05/2011
33304547	A02BC05	21/01/2011
33293731	A02BC05	28/08/2009
16597365	A02BC05	04/04/2011
16640222	A02BC05	24/05/2006
16596125	A02BC05	12/09/2008
16595922	A02BC05	06/11/2008
18765717	A02BC05	11/08/2010
33204424	A02BC05	09/06/2010
23396351	A02BC05	01/07/2009
16654162	A02BC05	11/05/2011
16612949	A02BC05	24/11/2005
33248203	A02BC05	12/08/2008
28000274	A02BC05	29/04/2011
23361804	A02BC05	14/11/2008
28017377	A02BC05	16/05/2011
27817266	A02BC05	23/03/2010
21010991	A02BC05	27/07/2009
21102189	A02BC05	18/12/2008
23339422	A02BC05	04/05/2011
16177824	A02BC05	14/10/2010
23371267	A02BC05	27/04/2011
23326117	A02BC05	19/04/2011
33245266	A02BC05	30/09/2008
18757155	A02BC05	20/04/2010
16634039	A02BC05	04/12/2007
33311593	A02BC05	30/05/2011
18755562	A02BC05	24/01/2009
33238439	A02BC05	13/05/2009
33208317	A02BC05	18/05/2011
27954341	A02BC05	09/05/2011
33288442	A02BC05	30/03/2010
28017195	A02BC05	18/03/2009
33233833	A02BC05	18/08/2010
33313637	A02BC05	07/03/2011
16601485	A02BC05	27/04/2010
23319611	A02BC05	06/05/2010
16172349	A02BC05	19/02/2010
23353839	A02BC05	17/09/2004
18802898	A02BC05	17/05/2010
23354092	A02BC05	27/09/2006
33290109	A02BC05	16/11/2009
23354037	A02BC05	06/05/2011
23353469	A02BC05	12/04/2010
33235413	A02BC05	16/10/2010
16125129	A02BC05	08/04/2009
20987632	A02BC05	15/04/2005
16127700	A02BC05	27/04/2011
20985576	A02BC05	19/10/2007
18728304	A02BC05	06/05/2011
23327062	A02BC05	19/05/2011
23406445	A02BC05	25/09/2008
16637664	A02BC05	17/03/2011
16640187	A02BC05	04/01/2010
33244922	A02BC05	15/12/2008
33225982	A02BC05	25/05/2011
18761680	A02BC05	10/05/2011
33291051	A02BC05	31/05/2011
21117653	A02BC05	16/03/2009
33253146	A02BC05	23/07/2010
33253822	A02BC05	26/05/2011
16622928	A02BC05	02/12/2010
23402490	A02BC05	17/03/2011
23346656	A02BC05	10/03/2010
23366435	A02BC05	23/12/2008
16649316	A02BC05	19/08/2008
16124564	A02BC05	20/05/2011
33220514	A02BC05	03/03/2011
21117548	A02BC05	09/11/2009
16609745	A02BC05	11/05/2011
21102426	A02BC05	14/04/2011
23366114	A02BC05	21/06/2006
20985663	A02BC05	13/08/2010
23402638	A02BC05	03/06/2009
20988305	A02BC05	23/05/2011
21101114	A02BC05	25/05/2011
16602997	A02BC05	11/04/2011
23353994	A02BC05	16/03/2006
27983007	A02BC05	11/06/2008
16623344	A02BC05	26/05/2011
28021593	A02BC05	12/08/2009
23354686	A02BC05	02/12/2008
23340750	A02BC05	14/11/2007
33244556	A02BC05	18/12/2007
20987102	A02BC05	04/05/2011
16655019	A02BC05	17/09/2007
33224929	A02BC05	15/04/2011
16598379	A02BC05	07/09/2005
23354527	A02BC05	02/08/2007
31637638	A02BC05	22/02/2007
32157770	A02BC05	21/08/2008
31568357	A02BC05	26/09/2005
31117829	A02BC05	24/03/2010
31409038	A02BC05	20/01/2011
31773481	A02BC05	12/01/2006
31445246	A02BC05	04/08/2009
31338026	A02BC05	15/02/2008
32269606	A02BC05	13/09/2006
31588614	A02BC05	04/06/2007
32233519	A02BC05	20/08/2008
31993308	A02BC05	15/06/2005
31043915	A02BC05	30/03/2007
31858594	A02BC05	19/11/2009
32076096	A02BC05	04/06/2008
31111511	A02BC05	14/01/2011
32211811	A02BC05	02/09/2009
31500490	A02BC05	01/12/2009
31592347	A02BC05	21/05/2010
31627787	A02BC05	25/08/2008
31491434	A02BC05	02/06/2005
32026658	A02BC05	05/12/2005
31207253	A02BC05	21/01/2011
31044730	A02BC05	10/01/2011
31416932	A02BC05	30/07/2007
31562635	A02BC05	20/02/2008
31792074	A02BC05	06/03/2008
31538580	A02BC05	09/03/2011
32005529	A02BC05	06/02/2007
31397010	A02BC05	23/03/2009
32074407	A02BC05	02/11/2010
31982810	A02BC05	22/02/2010
31704498	A02BC05	12/03/2008
32199911	A02BC05	26/07/2007
32246352	A02BC05	30/06/2010
32056262	A02BC05	12/04/2011
31127513	A02BC05	30/06/2009
32188715	A02BC05	07/07/2006
31897930	A02BC05	02/04/2009
31165913	A02BC05	06/04/2011
31696885	A02BC05	12/12/2010
31904860	A02BC05	14/12/2007
31921891	A02BC05	18/11/2004
32207830	A02BC05	21/12/2010
31308618	A02BC05	19/02/2008
31815136	A02BC05	05/11/2008
32229216	A02BC05	08/01/2009
31401453	A02BC05	31/10/2006
31932902	A02BC05	26/12/2010
31352150	A02BC05	20/03/2009
31678786	A02BC05	06/04/2011
31128087	A02BC05	16/02/2011
31695808	A02BC05	11/04/2011
31958520	A02BC05	09/03/2011
32160945	A02BC05	17/07/2007
31970873	A02BC05	25/08/2005
31961565	A02BC05	04/05/2009
32265697	A02BC05	18/03/2010
31143643	A02BC05	04/12/2009
31250279	A02BC05	29/11/2007
31455404	A02BC05	02/12/2009
31577402	A02BC05	04/05/2007
31746041	A02BC05	01/09/2005
31406581	A02BC05	25/04/2006
31636908	A02BC05	04/01/2011
31121688	A02BC05	13/07/2007
31116078	A02BC05	05/08/2008
31868197	A02BC05	21/05/2007
31230558	A02BC05	18/01/2007
31210443	A02BC05	11/01/2007
31918158	A02BC05	27/02/2011
31221513	A02BC05	15/04/2010
32210631	A02BC05	06/04/2011
31791129	A02BC05	09/06/2006
31890800	A02BC05	03/03/2009
31137076	A02BC05	11/11/2009
32223263	A02BC05	08/04/2011
32104396	A02BC05	19/12/2008
31283871	A02BC05	17/06/2010
31209907	A02BC05	26/08/2009
32209727	A02BC05	30/05/2008
31906218	A02BC05	24/08/2007
31759343	A02BC05	28/10/2008
32127700	A02BC05	20/09/2010
31929235	A02BC05	20/12/2007
31184461	A02BC05	10/01/2006
31099271	A02BC05	05/07/2007
31496367	A02BC05	06/11/2008
31478038	A02BC05	23/10/2008
31892481	A02BC05	10/06/2010
31354653	A02BC05	17/12/2009
32133944	A02BC05	16/12/2008
31512689	A02BC05	05/11/2010
31032144	A02BC05	03/12/2009
31848757	A02BC05	15/12/2009
32107618	A02BC05	04/04/2008
31935842	A02BC05	03/03/2011
32167646	A02BC05	23/03/2006
31423912	A02BC05	30/11/2006
31549675	A02BC05	10/08/2007
31346582	A02BC05	11/07/2008
32028980	A02BC05	02/09/2010
31928343	A02BC05	20/12/2006
31937147	A02BC05	03/09/2009
32194941	A02BC05	28/07/2008
31259283	A02BC05	02/12/2009
32132667	A02BC05	15/12/2009
31413114	A02BC05	15/02/2007
31380313	A02BC05	28/12/2010
31452945	A02BC05	06/04/2011
31077181	A02BC05	11/08/2005
32008286	A02BC05	25/04/2007
31923548	A02BC05	21/11/2008
32220436	A02BC05	11/05/2011
32233236	A02BC05	07/12/2009
31649595	A02BC05	30/05/2007
