patient_id	covar_name	date
5026147	ALZDEM	02/11/2007
14865414	ALZDEM	28/04/2011
24730236	ALZDEM	30/04/2009
16109927	ALZDEM	21/10/2009
10333546	ALZDEM	28/04/2011
7245845	ALZDEM	03/10/2008
8643970	ALZDEM	08/09/2010
8521498	ALZDEM	17/05/2011
6166130	ALZDEM	11/05/2011
8784088	ALZDEM	15/01/2010
15899105	ALZDEM	02/02/2009
18628739	ALZDEM	16/05/2011
11995010	ALZDEM	01/02/2011
7220940	ALZDEM	05/10/2009
15854322	ALZDEM	09/12/2010
19183970	ALZDEM	17/06/2010
6748448	ALZDEM	21/10/2009
8293863	ALZDEM	25/05/2011
9295478	ALZDEM	11/09/2006
20535914	ALZDEM	17/05/2010
20551807	ALZDEM	21/02/2011
14859914	ALZDEM	05/03/2008
12831552	ALZDEM	19/05/2011
12765942	ALZDEM	20/02/2009
8784331	ALZDEM	30/09/2010
12773101	ALZDEM	16/03/2009
7153968	ALZDEM	11/04/2011
18628876	ALZDEM	05/03/2010
15987481	ALZDEM	03/12/2008
8977888	ALZDEM	17/05/2011
16915547	ALZDEM	19/05/2011
21153412	ALZDEM	19/07/2004
21549680	ALZDEM	28/10/2010
24887993	ALZDEM	17/05/2011
24930465	ALZDEM	02/10/2003
11578588	ALZDEM	16/07/2009
8292672	ALZDEM	27/04/2011
10395525	ALZDEM	05/02/2010
945609	ALZDEM	30/05/2011
2768422	ALZDEM	01/02/2011
6759067	ALZDEM	05/04/2011
10270807	ALZDEM	27/05/2011
5813363	ALZDEM	16/09/2008
23471965	ALZDEM	10/02/2011
17169097	ALZDEM	25/05/2011
12695481	ALZDEM	10/09/2009
21856470	ALZDEM	23/11/2010
9349186	ALZDEM	27/12/2006
6707615	ALZDEM	25/08/2009
16557300	ALZDEM	12/05/2011
9203860	ALZDEM	22/12/2008
19184721	ALZDEM	29/04/2011
1517273	ALZDEM	31/07/2008
24864967	ALZDEM	24/09/2008
5024803	ALZDEM	25/03/2011
9385419	ALZDEM	03/05/2011
24721601	ALZDEM	05/05/2011
13505193	ALZDEM	20/05/2011
24721032	ALZDEM	30/05/2011
23996759	ALZDEM	26/04/2006
8923087	ALZDEM	27/05/2011
18365564	ALZDEM	07/05/2009
7929164	ALZDEM	06/02/2008
18365576	ALZDEM	13/04/2010
7654868	ALZDEM	15/04/2011
6842063	ALZDEM	20/07/2004
648760	ALZDEM	13/05/2011
524498	ALZDEM	13/05/2011
24719884	ALZDEM	09/05/2011
1443076	ALZDEM	16/03/2011
648336	ALZDEM	04/04/2011
6601131	ALZDEM	29/10/2008
1211186	ALZDEM	11/05/2011
5991475	ALZDEM	20/02/2004
6598274	ALZDEM	21/07/2010
651079	ALZDEM	05/06/2009
8061893	ALZDEM	27/05/2009
1276321	ALZDEM	01/06/2011
6594510	ALZDEM	14/04/2011
12187273	ALZDEM	19/05/2011
1850960	ALZDEM	25/04/2011
6400754	ALZDEM	21/02/2007
525618	ALZDEM	09/12/2010
1205114	ALZDEM	30/07/1987
1356232	ALZDEM	30/05/2006
6599608	ALZDEM	30/05/2011
13205676	ALZDEM	22/05/2009
1132387	ALZDEM	30/05/2011
25913606	ALZDEM	13/05/2011
25776939	ALZDEM	25/02/2011
1099824	ALZDEM	28/05/2011
999093	ALZDEM	27/05/2011
4678967	ALZDEM	27/05/2008
1102000	ALZDEM	26/04/2011
25818249	ALZDEM	07/04/2009
1134812	ALZDEM	20/01/2009
2043930	ALZDEM	04/11/2003
2378618	ALZDEM	19/03/2004
2070140	ALZDEM	12/02/2010
2070225	ALZDEM	30/05/2011
2132832	ALZDEM	17/11/2007
2043843	ALZDEM	24/05/2011
2143723	ALZDEM	30/12/2009
2110204	ALZDEM	12/03/1941
2162696	ALZDEM	26/05/2011
1767215	ALZDEM	05/05/2011
1763042	ALZDEM	28/04/2011
859956	ALZDEM	04/06/2010
878003	ALZDEM	16/05/2011
902237	ALZDEM	04/01/2007
1763742	ALZDEM	26/05/2011
2773774	ALZDEM	26/05/2011
4651671	ALZDEM	13/05/2011
7073348	ALZDEM	17/06/2000
2408299	ALZDEM	22/05/2009
2526072	ALZDEM	07/10/2009
26384162	ALZDEM	29/04/2011
26462819	ALZDEM	01/09/2010
26464840	ALZDEM	22/05/2007
28041048	ALZDEM	20/04/2011
23678237	ALZDEM	28/04/2011
26338968	ALZDEM	03/06/2010
28042198	ALZDEM	24/03/2011
26384859	ALZDEM	24/05/2011
11583878	ALZDEM	27/03/2009
16835893	ALZDEM	01/03/2009
185359	ALZDEM	20/05/2011
429077	ALZDEM	23/04/2011
301569	ALZDEM	27/05/2011
425076	ALZDEM	20/05/2011
266327	ALZDEM	17/04/2008
3053216	ALZDEM	17/07/2003
2753836	ALZDEM	09/10/2009
28079729	ALZDEM	10/05/2011
16829627	ALZDEM	22/05/2011
423574	ALZDEM	27/05/2011
265392	ALZDEM	15/05/2011
7029377	ALZDEM	19/05/2011
28069290	ALZDEM	28/03/2008
28060556	ALZDEM	21/05/2011
26477734	ALZDEM	09/06/2010
28043285	ALZDEM	08/09/2008
24662681	ALZDEM	20/05/2011
24657011	ALZDEM	22/05/2011
1014856	ALZDEM	30/05/2011
1029992	ALZDEM	19/05/2011
1363788	ALZDEM	12/06/2003
18197591	ALZDEM	29/12/1931
2986710	ALZDEM	17/04/2011
12977023	ALZDEM	02/11/2006
1018757	ALZDEM	26/11/2007
26639013	ALZDEM	22/04/2010
26856096	ALZDEM	04/02/2010
26628447	ALZDEM	21/05/2011
26630135	ALZDEM	23/05/2011
26803235	ALZDEM	12/09/2001
26858886	ALZDEM	21/06/1930
14311205	ALZDEM	24/02/2009
3254435	ALZDEM	03/03/2008
2987979	ALZDEM	31/03/2011
16840615	ALZDEM	23/05/2011
14309539	ALZDEM	02/05/2011
16567909	ALZDEM	20/05/2011
26702888	ALZDEM	27/11/2002
24581188	ALZDEM	16/05/2011
24656409	ALZDEM	10/01/2011
20835034	ALZDEM	08/01/2009
22717795	ALZDEM	15/03/2006
23463234	ALZDEM	16/03/2011
26932654	ALZDEM	03/08/2001
26950141	ALZDEM	05/03/2010
26946237	ALZDEM	27/05/2011
26948632	ALZDEM	06/05/2008
27012625	ALZDEM	02/07/2008
26729787	ALZDEM	13/05/2011
26777798	ALZDEM	04/12/2009
26716003	ALZDEM	18/05/2011
26887048	ALZDEM	05/05/2009
26881213	ALZDEM	25/10/2007
26863190	ALZDEM	25/05/2011
26851758	ALZDEM	19/05/2011
26780754	ALZDEM	27/04/2011
26829352	ALZDEM	08/05/2011
26742231	ALZDEM	05/11/2010
26815899	ALZDEM	11/05/2009
26760283	ALZDEM	15/12/2005
26955339	ALZDEM	18/05/2011
26946040	ALZDEM	02/08/2005
27149748	ALZDEM	13/05/2011
27136867	ALZDEM	22/05/2008
27101595	ALZDEM	23/09/2009
27115659	ALZDEM	15/01/2007
27112272	ALZDEM	25/04/2005
27033025	ALZDEM	10/05/2011
27052734	ALZDEM	02/05/2011
27065487	ALZDEM	11/03/2005
26996974	ALZDEM	09/05/2011
26994454	ALZDEM	13/05/2011
26998318	ALZDEM	25/02/2005
27400146	ALZDEM	07/04/2010
27168833	ALZDEM	10/12/2004
27379580	ALZDEM	16/05/2011
27362102	ALZDEM	20/06/2008
27285367	ALZDEM	28/04/2011
27383534	ALZDEM	26/01/2010
27217926	ALZDEM	03/05/2011
27358985	ALZDEM	15/10/2004
27167505	ALZDEM	19/04/2011
27214094	ALZDEM	22/02/2011
27303621	ALZDEM	30/11/2007
27305570	ALZDEM	24/05/2011
27296129	ALZDEM	19/05/2011
27302964	ALZDEM	25/05/2011
27371161	ALZDEM	30/04/2011
27358246	ALZDEM	02/09/2009
27361574	ALZDEM	01/05/2011
27367264	ALZDEM	29/05/2011
27360856	ALZDEM	05/10/2010
27168973	ALZDEM	27/10/2008
27296182	ALZDEM	19/07/2006
27358502	ALZDEM	13/12/2006
27241974	ALZDEM	13/10/2008
27389179	ALZDEM	10/05/2011
27169775	ALZDEM	08/02/2006
27218860	ALZDEM	14/05/2011
27546225	ALZDEM	01/02/2001
27640410	ALZDEM	03/06/2004
27577033	ALZDEM	14/05/2010
27600750	ALZDEM	17/05/2006
27632256	ALZDEM	16/09/2010
27449058	ALZDEM	03/07/2006
27493393	ALZDEM	23/05/2011
27639481	ALZDEM	15/09/2009
27759030	ALZDEM	12/09/2010
27694922	ALZDEM	14/01/2005
27546307	ALZDEM	20/07/2005
27631475	ALZDEM	12/05/2011
27545579	ALZDEM	01/06/2011
27147326	ALZDEM	25/05/2011
27641770	ALZDEM	20/05/2005
27665250	ALZDEM	19/05/2011
27686318	ALZDEM	02/05/2011
27778908	ALZDEM	15/05/2009
24581729	ALZDEM	08/02/2010
27773439	ALZDEM	31/12/2003
184096	ALZDEM	12/02/2007
27533492	ALZDEM	08/04/2011
27450192	ALZDEM	09/05/2011
27456109	ALZDEM	02/02/2004
27538271	ALZDEM	10/05/2011
27443512	ALZDEM	01/06/1998
26619933	ALZDEM	14/04/2011
26992651	ALZDEM	11/03/2011
27758876	ALZDEM	27/10/2009
27806448	ALZDEM	01/06/2011
27756359	ALZDEM	20/04/2009
27667247	ALZDEM	27/05/2011
27804349	ALZDEM	15/06/2010
1018488	ALZDEM	11/11/2010
27471521	ALZDEM	18/05/2011
301474	ALZDEM	30/04/2009
26941998	ALZDEM	10/05/2011
27775707	ALZDEM	07/02/2005
27572773	ALZDEM	02/05/2011
26863250	ALZDEM	10/02/2009
186266	ALZDEM	18/07/2006
27796173	ALZDEM	18/05/2011
27358783	ALZDEM	20/05/2011
21553613	ALZDEM	08/04/2010
33040260	ALZDEM	07/04/2011
33035460	ALZDEM	25/07/2003
33128799	ALZDEM	29/07/2008
33015982	ALZDEM	26/05/2011
33054165	ALZDEM	09/05/2011
33071109	ALZDEM	12/04/2011
33018738	ALZDEM	25/11/2008
33016797	ALZDEM	15/12/2010
33081884	ALZDEM	05/05/2011
33084411	ALZDEM	15/07/2010
33113908	ALZDEM	24/05/2011
33018999	ALZDEM	27/05/2011
33044627	ALZDEM	21/05/2011
33047551	ALZDEM	24/05/2011
33098659	ALZDEM	10/05/2011
33111158	ALZDEM	20/04/2011
33126560	ALZDEM	15/02/2010
33012303	ALZDEM	20/11/2009
24661802	ALZDEM	03/05/2011
27804097	ALZDEM	03/03/2010
2959756	ALZDEM	12/04/2011
27084170	ALZDEM	09/06/2010
28018387	ALZDEM	19/04/2011
16166466	ALZDEM	24/05/2011
33080278	ALZDEM	17/08/2010
16185833	ALZDEM	26/05/2011
33083231	ALZDEM	17/05/2007
16602253	ALZDEM	27/05/2011
33091566	ALZDEM	19/10/2010
33111035	ALZDEM	20/07/2006
33025051	ALZDEM	23/01/2007
33053146	ALZDEM	26/05/2011
33070455	ALZDEM	03/12/2007
33089997	ALZDEM	11/02/2005
33082095	ALZDEM	10/01/2011
33011946	ALZDEM	20/05/2011
33017406	ALZDEM	06/05/2011
28019450	ALZDEM	06/05/2011
18843310	ALZDEM	30/06/2010
33297088	ALZDEM	14/05/2003
18768957	ALZDEM	01/10/2007
16619900	ALZDEM	24/03/2009
14188303	ALZDEM	11/05/2011
33288621	ALZDEM	26/05/2011
16165687	ALZDEM	28/06/2010
23381959	ALZDEM	01/03/2005
16182953	ALZDEM	27/04/2011
16705669	ALZDEM	03/05/2011
33312698	ALZDEM	01/01/2009
27849109	ALZDEM	26/04/2011
16636746	ALZDEM	19/05/2011
27947649	ALZDEM	10/05/2011
28022840	ALZDEM	04/01/2011
23339422	ALZDEM	04/05/2011
28023159	ALZDEM	09/05/2011
23368758	ALZDEM	17/05/2011
20985317	ALZDEM	08/03/2006
16124521	ALZDEM	01/04/2011
23369406	ALZDEM	20/08/2010
27984380	ALZDEM	31/05/2011
16610043	ALZDEM	24/05/2011
33226292	ALZDEM	14/07/2009
28032635	ALZDEM	05/05/2011
33209870	ALZDEM	21/05/2009
18771064	ALZDEM	26/04/2004
16626274	ALZDEM	24/09/2009
16183731	ALZDEM	17/05/2011
16186327	ALZDEM	26/04/2011
33235413	ALZDEM	08/04/2011
21107862	ALZDEM	25/05/2011
23326929	ALZDEM	27/05/2011
28000578	ALZDEM	19/05/2011
16607575	ALZDEM	05/02/2010
16622928	ALZDEM	20/08/2010
23202331	ALZDEM	03/05/2011
16648158	ALZDEM	06/05/2010
23341083	ALZDEM	14/02/2007
23470370	ALZDEM	06/02/2009
23413392	ALZDEM	07/05/2007
33204004	ALZDEM	10/05/2011
33235048	ALZDEM	22/06/2004
27848565	ALZDEM	07/03/2011
16124689	ALZDEM	01/12/1996
23326983	ALZDEM	16/05/2011
16598726	ALZDEM	11/04/2011
16598025	ALZDEM	02/12/2009
31694945	ALZDEM	02/02/2011
32025408	ALZDEM	19/07/2010
31935432	ALZDEM	11/11/2010
31586751	ALZDEM	28/01/2011
31194005	ALZDEM	20/03/2009
31162193	ALZDEM	11/12/2008
32048150	ALZDEM	02/09/2010
31160621	ALZDEM	13/06/2003
31288795	ALZDEM	23/08/2010
31400996	ALZDEM	21/10/2003
31420742	ALZDEM	17/12/2010
31428096	ALZDEM	30/12/2010
31041033	ALZDEM	11/11/2010
31616781	ALZDEM	15/03/2011
31839581	ALZDEM	13/05/2011
31236375	ALZDEM	20/01/2004
31846449	ALZDEM	30/12/2009
31813848	ALZDEM	12/09/2003
31859149	ALZDEM	21/08/2008
32008853	ALZDEM	26/11/2010
31385826	ALZDEM	16/05/2007
31277367	ALZDEM	07/04/2005
31513523	ALZDEM	25/10/2010
31605151	ALZDEM	05/03/2010
31915254	ALZDEM	24/03/2010
31343858	ALZDEM	29/08/2008
31473113	ALZDEM	23/09/2010
32079219	ALZDEM	22/10/2010
31560889	ALZDEM	28/02/2003
31572163	ALZDEM	02/02/2007
32128887	ALZDEM	02/12/2009
31352566	ALZDEM	21/12/2010
31090531	ALZDEM	18/04/2011
32045169	ALZDEM	01/12/2010
31516496	ALZDEM	25/04/2008
31957088	ALZDEM	17/02/2011
31559193	ALZDEM	13/11/2006
31646804	ALZDEM	23/10/2009
31466688	ALZDEM	28/04/2004
32018491	ALZDEM	02/07/2010
32054451	ALZDEM	20/04/2011
32258424	ALZDEM	02/02/2011
31315407	ALZDEM	22/11/2010
32182514	ALZDEM	10/01/2008
31534286	ALZDEM	26/04/2011
31661434	ALZDEM	25/11/2009
31851820	ALZDEM	26/01/2010
31495525	ALZDEM	26/06/2007
31369580	ALZDEM	06/04/2011
31482800	ALZDEM	06/04/2011
31950369	ALZDEM	20/10/2010
32264291	ALZDEM	17/05/2011
32112412	ALZDEM	21/01/2009
31831196	ALZDEM	27/09/2007
31119403	ALZDEM	28/06/2010
31229808	ALZDEM	04/08/2009
31593327	ALZDEM	27/08/2008
31956345	ALZDEM	25/11/2008
31502915	ALZDEM	10/12/2010
31924531	ALZDEM	30/10/2007
32281205	ALZDEM	23/03/2010
32273088	ALZDEM	19/09/2008
31354855	ALZDEM	01/10/2010
32095585	ALZDEM	03/10/2007
31082208	ALZDEM	16/11/2006
31638966	ALZDEM	14/03/2011
31469615	ALZDEM	05/02/2008
31417692	ALZDEM	24/08/2006
31096236	ALZDEM	04/07/2005
32236750	ALZDEM	24/11/2009
31055196	ALZDEM	16/12/2009
32062851	ALZDEM	16/05/2007
31747041	ALZDEM	23/07/2004
32008235	ALZDEM	29/12/2009
31791803	ALZDEM	14/12/2010
32119166	ALZDEM	03/01/2006
31192975	ALZDEM	01/10/2010
31452657	ALZDEM	23/12/2010
31836599	ALZDEM	29/04/2011
31712883	ALZDEM	02/06/2004
31468640	ALZDEM	07/04/2008
31850345	ALZDEM	24/05/2006
31714524	ALZDEM	10/06/2010
31198323	ALZDEM	30/08/2010
31755456	ALZDEM	28/09/2010
31927125	ALZDEM	15/03/2002
31561636	ALZDEM	20/11/2008
31484206	ALZDEM	09/03/2007
32205096	ALZDEM	26/01/2011
31096124	ALZDEM	17/01/2011
31317920	ALZDEM	02/03/2011
32032305	ALZDEM	11/10/2010
32239025	ALZDEM	02/12/2003
31812581	ALZDEM	08/11/2010
31228479	ALZDEM	03/11/2010
31456941	ALZDEM	14/03/2011
31523713	ALZDEM	27/07/2010
31811807	ALZDEM	27/01/2010
31944943	ALZDEM	26/03/2010
32155126	ALZDEM	11/12/2007
31798971	ALZDEM	27/07/2004
31382341	ALZDEM	26/05/2008
31209591	ALZDEM	24/01/2011
31237625	ALZDEM	11/04/2011
31110042	ALZDEM	08/10/2009
31392527	ALZDEM	14/10/2009
32144868	ALZDEM	22/12/2009
32206935	ALZDEM	28/02/2011
31614016	ALZDEM	19/01/2010
31756059	ALZDEM	16/03/2010
31922210	ALZDEM	04/09/2009
31736452	ALZDEM	11/02/2010
32283030	ALZDEM	05/10/2009
31134757	ALZDEM	08/12/1961
31030569	ALZDEM	27/10/2010
31114959	ALZDEM	20/05/2010
31169643	ALZDEM	02/12/2005
31916785	ALZDEM	23/12/2008
31410826	ALZDEM	14/11/2008
31222269	ALZDEM	03/09/2010
32158039	ALZDEM	31/07/2007
32011511	ALZDEM	07/04/2011
