patient_id	covar_name	date
10270713	A07DA03	21/12/2010
5034754	A07DA03	05/09/2008
6757349	A07DA03	02/10/2008
16109927	A07DA03	03/01/2011
18503354	A07DA03	06/03/2006
8276701	A07DA03	08/03/2007
8977102	A07DA03	31/01/2007
9311487	A07DA03	14/01/2011
8521498	A07DA03	21/01/2010
3334732	A07DA03	22/01/2007
23471437	A07DA03	16/08/2010
3334249	A07DA03	05/11/2010
23454734	A07DA03	03/08/2009
6178660	A07DA03	17/04/2006
3293005	A07DA03	28/01/2009
9302346	A07DA03	06/10/2010
8556985	A07DA03	08/06/2009
21871359	A07DA03	21/03/2003
8278591	A07DA03	08/11/2002
21156478	A07DA03	01/12/2008
25048163	A07DA03	18/05/2010
9372370	A07DA03	31/10/2003
1516611	A07DA03	13/09/2007
9293874	A07DA03	04/04/2011
9220894	A07DA03	30/03/2010
16099901	A07DA03	22/07/2005
20565610	A07DA03	01/04/2008
702188	A07DA03	21/01/2010
12691489	A07DA03	21/02/2011
24722159	A07DA03	14/11/2006
949238	A07DA03	22/03/2011
6744323	A07DA03	14/03/2007
16530698	A07DA03	22/11/2010
21370773	A07DA03	24/04/2003
19378922	A07DA03	15/06/2010
8293370	A07DA03	17/10/2005
10270793	A07DA03	10/11/2005
7094806	A07DA03	27/05/2011
7094993	A07DA03	29/05/2006
731512	A07DA03	16/04/2008
23442060	A07DA03	15/11/2005
8561320	A07DA03	27/01/2011
18374608	A07DA03	10/05/2010
23442780	A07DA03	31/01/2007
24730138	A07DA03	14/03/2006
10001746	A07DA03	27/07/2006
10265650	A07DA03	30/01/2004
1064171	A07DA03	20/01/2009
9372483	A07DA03	07/05/2008
9984797	A07DA03	08/08/2005
948728	A07DA03	11/10/2006
9303849	A07DA03	16/11/2009
949778	A07DA03	18/06/2007
16556934	A07DA03	07/07/2010
6748364	A07DA03	14/06/2010
20535914	A07DA03	29/04/2008
1124409	A07DA03	12/07/2002
19184498	A07DA03	18/11/2008
1930429	A07DA03	07/03/2008
12689869	A07DA03	22/02/2008
16098821	A07DA03	24/03/2010
6178242	A07DA03	28/06/2005
15141585	A07DA03	10/09/2009
8278287	A07DA03	05/01/2006
24930795	A07DA03	02/02/2005
9304399	A07DA03	17/08/2010
16559674	A07DA03	29/11/2010
8292513	A07DA03	10/06/2003
6752622	A07DA03	03/05/2011
23443312	A07DA03	25/01/2011
6756037	A07DA03	26/09/2006
732094	A07DA03	20/07/2007
8293406	A07DA03	15/06/2006
16559016	A07DA03	21/05/2008
608929	A07DA03	28/05/2011
939591	A07DA03	10/08/2007
262094	A07DA03	26/11/2007
16559058	A07DA03	13/06/2006
12831474	A07DA03	31/03/2009
2768779	A07DA03	14/05/2008
10713520	A07DA03	14/04/2010
5035107	A07DA03	03/01/2011
6744501	A07DA03	04/05/2007
1941590	A07DA03	24/03/2008
8277775	A07DA03	19/09/2008
12829787	A07DA03	28/03/2011
20549743	A07DA03	27/01/2004
3332738	A07DA03	26/06/2002
9293811	A07DA03	24/11/2010
3321330	A07DA03	28/03/2005
3117787	A07DA03	23/12/2009
7095356	A07DA03	08/02/2005
3334954	A07DA03	19/12/2005
9310290	A07DA03	19/11/2007
16559022	A07DA03	31/03/2006
6178644	A07DA03	18/06/2007
601270	A07DA03	15/01/2008
11435174	A07DA03	14/05/2009
3334058	A07DA03	04/12/2009
3333355	A07DA03	02/11/2001
12858726	A07DA03	24/07/2008
20549085	A07DA03	22/12/2004
23442442	A07DA03	20/05/2010
3334201	A07DA03	23/06/2009
6745205	A07DA03	28/09/2004
23442833	A07DA03	18/09/2007
6968647	A07DA03	19/06/2009
24937901	A07DA03	28/09/2009
12182584	A07DA03	17/01/2008
943801	A07DA03	29/07/2005
8784792	A07DA03	14/06/2010
12857013	A07DA03	20/02/2008
12478677	A07DA03	26/04/2011
5026847	A07DA03	21/05/2007
12690074	A07DA03	26/12/2006
3940167	A07DA03	11/07/2007
7158560	A07DA03	26/05/2011
23472293	A07DA03	09/04/2010
1160472	A07DA03	30/12/2008
947534	A07DA03	09/12/2010
9373441	A07DA03	29/01/2010
7407097	A07DA03	12/07/2010
1517271	A07DA03	22/11/2006
6889143	A07DA03	23/03/2005
1069069	A07DA03	24/09/2009
12779686	A07DA03	13/07/2009
9388668	A07DA03	26/09/2005
23454243	A07DA03	16/03/2007
22537806	A07DA03	09/07/2003
16977211	A07DA03	11/05/2007
6177197	A07DA03	26/10/2004
24929910	A07DA03	16/09/2008
1303002	A07DA03	12/03/2010
941531	A07DA03	10/09/2008
18774349	A07DA03	13/01/2010
8976217	A07DA03	05/03/2010
3292667	A07DA03	29/05/2007
6888668	A07DA03	14/12/2007
24930637	A07DA03	09/07/2008
12692580	A07DA03	13/01/2010
10342548	A07DA03	19/02/2009
21370179	A07DA03	05/01/2007
21856435	A07DA03	20/04/2010
15008483	A07DA03	16/06/2009
16097839	A07DA03	13/11/2009
7160936	A07DA03	20/05/2009
8700529	A07DA03	13/03/2003
8699018	A07DA03	14/06/2007
5031618	A07DA03	28/05/2010
9210774	A07DA03	04/04/2011
8555305	A07DA03	23/04/2009
16530712	A07DA03	09/10/2007
25071236	A07DA03	30/07/2010
16559119	A07DA03	08/10/2007
8556760	A07DA03	03/01/2011
1068416	A07DA03	17/11/2005
6749295	A07DA03	12/11/2008
12857039	A07DA03	29/09/2010
9374566	A07DA03	15/10/2007
732611	A07DA03	07/01/2009
10604423	A07DA03	26/09/2008
18707874	A07DA03	25/03/2010
8557616	A07DA03	22/02/2011
10270807	A07DA03	07/04/2011
23454754	A07DA03	07/04/2011
9179706	A07DA03	04/08/2000
6080455	A07DA03	13/04/2011
3121795	A07DA03	16/05/2011
21369799	A07DA03	15/07/2008
9328308	A07DA03	13/08/2008
8273132	A07DA03	31/01/2011
5813363	A07DA03	19/04/2010
2768042	A07DA03	24/11/2009
15898930	A07DA03	03/10/2007
1064683	A07DA03	12/08/2005
15667708	A07DA03	30/12/2010
8784119	A07DA03	25/11/2008
19153820	A07DA03	02/02/2011
5024381	A07DA03	12/11/2008
8582021	A07DA03	09/05/2011
1069269	A07DA03	21/04/2010
10395240	A07DA03	28/01/2010
11993515	A07DA03	21/09/2009
12790379	A07DA03	01/06/2010
16530229	A07DA03	10/05/2011
8555657	A07DA03	22/08/2005
24865037	A07DA03	08/11/2010
3290458	A07DA03	11/01/2011
9214936	A07DA03	26/03/2007
1068170	A07DA03	09/10/2007
5866498	A07DA03	07/04/2009
17170528	A07DA03	16/11/2010
6415215	A07DA03	09/01/2008
6757758	A07DA03	04/11/2002
3121721	A07DA03	18/01/2008
1941817	A07DA03	11/02/2008
3119418	A07DA03	20/05/2009
6178246	A07DA03	01/12/2006
9230316	A07DA03	19/11/2007
16556701	A07DA03	25/04/2008
3289082	A07DA03	09/07/2004
25063184	A07DA03	05/01/2011
17216825	A07DA03	28/07/2005
16557300	A07DA03	09/07/2004
12830621	A07DA03	26/06/2007
8777089	A07DA03	19/05/2008
3332130	A07DA03	06/11/2003
7245614	A07DA03	12/07/2007
6751810	A07DA03	14/10/2002
8654889	A07DA03	14/03/2011
11994314	A07DA03	09/07/2009
1069550	A07DA03	03/01/2008
8784295	A07DA03	15/11/2010
8786644	A07DA03	31/05/2007
5035958	A07DA03	06/09/2005
16483841	A07DA03	04/08/2010
608353	A07DA03	23/06/2010
13986519	A07DA03	13/11/2007
9375873	A07DA03	25/03/2008
7405282	A07DA03	31/10/2007
10331626	A07DA03	10/05/2011
9283721	A07DA03	13/09/2005
6592947	A07DA03	23/09/2009
647526	A07DA03	10/03/2009
6424891	A07DA03	13/05/2002
12614538	A07DA03	01/07/2010
7849301	A07DA03	06/05/2003
1320092	A07DA03	24/04/2007
6594789	A07DA03	27/07/2004
1546390	A07DA03	05/02/2003
4412916	A07DA03	06/04/2010
7776172	A07DA03	13/11/2008
1263318	A07DA03	21/04/2008
18056114	A07DA03	28/11/2003
8066182	A07DA03	22/02/2009
8954635	A07DA03	08/02/2008
1276114	A07DA03	06/03/2009
6598233	A07DA03	15/03/2006
7780208	A07DA03	31/01/2011
19402838	A07DA03	27/08/2009
1296787	A07DA03	13/12/2010
1210462	A07DA03	13/05/2008
7801719	A07DA03	30/11/2004
7800178	A07DA03	25/08/2006
674348	A07DA03	18/12/2008
12605703	A07DA03	22/07/2010
6212955	A07DA03	14/04/2010
6212219	A07DA03	25/01/2010
1356229	A07DA03	25/06/2008
1349650	A07DA03	23/08/2010
7963931	A07DA03	29/04/2011
8933270	A07DA03	12/01/2007
7972566	A07DA03	18/08/2009
6212351	A07DA03	02/09/2004
6591734	A07DA03	10/03/2005
1349300	A07DA03	09/02/2005
1666026	A07DA03	20/09/2006
7777409	A07DA03	25/05/2011
1851243	A07DA03	30/07/2004
1201480	A07DA03	02/04/2004
674055	A07DA03	24/03/2007
1276765	A07DA03	23/02/2010
648760	A07DA03	10/07/2009
15868256	A07DA03	01/01/2010
7964334	A07DA03	05/12/2008
1850465	A07DA03	08/06/2004
1545758	A07DA03	15/04/2009
1851758	A07DA03	09/02/2001
1208200	A07DA03	13/05/2011
8956428	A07DA03	22/09/2010
24719884	A07DA03	08/02/2006
6425049	A07DA03	26/08/2008
6594082	A07DA03	02/09/2003
6598467	A07DA03	07/02/2007
6604047	A07DA03	18/08/2003
8063488	A07DA03	24/08/2010
6595850	A07DA03	27/02/2007
6594594	A07DA03	04/10/2010
7972394	A07DA03	25/03/2009
18999073	A07DA03	22/04/2010
526051	A07DA03	20/07/2006
648336	A07DA03	04/04/2011
1353307	A07DA03	14/07/2000
1354463	A07DA03	10/12/2010
11161485	A07DA03	09/02/2009
13578130	A07DA03	10/11/2008
7801845	A07DA03	21/12/2006
1420467	A07DA03	13/09/2002
640251	A07DA03	26/09/2008
7971452	A07DA03	20/08/2003
6597726	A07DA03	15/02/2011
8955223	A07DA03	02/02/2007
648621	A07DA03	28/07/2003
1264828	A07DA03	29/12/2010
7963946	A07DA03	14/04/2010
15623737	A07DA03	15/02/2011
6593465	A07DA03	07/09/2004
1417023	A07DA03	20/08/2004
6597391	A07DA03	10/09/2003
1355824	A07DA03	04/12/2007
1262491	A07DA03	27/10/2009
3110933	A07DA03	17/12/2004
6593908	A07DA03	31/08/2009
8956746	A07DA03	05/02/2008
6212805	A07DA03	09/09/2003
7800730	A07DA03	09/02/2007
4700304	A07DA03	10/12/2010
6423611	A07DA03	04/03/2008
4412964	A07DA03	24/11/2005
641962	A07DA03	02/12/2008
515412	A07DA03	07/02/2007
1419033	A07DA03	23/10/2001
1204177	A07DA03	30/12/2003
8357140	A07DA03	09/10/2007
6597674	A07DA03	26/01/2009
1350391	A07DA03	27/04/2011
12614346	A07DA03	18/04/2011
8066338	A07DA03	05/12/2003
6603214	A07DA03	19/01/2010
6593289	A07DA03	14/07/2003
639310	A07DA03	05/06/2009
7849206	A07DA03	05/10/2004
1135215	A07DA03	19/05/2003
1006725	A07DA03	26/11/2003
1131878	A07DA03	20/11/2003
1851693	A07DA03	11/09/2003
1132264	A07DA03	07/12/2006
1134894	A07DA03	15/06/2001
716983	A07DA03	11/01/2005
1425870	A07DA03	01/10/2001
1355456	A07DA03	02/02/2010
13733143	A07DA03	15/05/2003
4488179	A07DA03	18/10/2007
1103491	A07DA03	11/10/2010
1639616	A07DA03	02/07/2009
891027	A07DA03	25/01/2011
1638708	A07DA03	28/12/2009
1130755	A07DA03	10/12/2009
1101869	A07DA03	16/11/2005
25888400	A07DA03	17/05/2011
1006571	A07DA03	08/11/2010
25768791	A07DA03	06/03/2007
1639986	A07DA03	20/10/2009
1102090	A07DA03	20/09/2001
1103763	A07DA03	10/05/2000
195582	A07DA03	18/05/2011
135530	A07DA03	03/02/2011
1100188	A07DA03	11/04/2007
1638565	A07DA03	25/06/2009
4688914	A07DA03	23/07/2004
1066140	A07DA03	25/06/2001
12706591	A07DA03	08/10/2010
1027312	A07DA03	20/04/2009
12640327	A07DA03	18/08/2009
6914096	A07DA03	16/09/2009
25767981	A07DA03	27/02/2009
25891366	A07DA03	28/12/2009
1099959	A07DA03	17/12/2002
4687472	A07DA03	25/05/2009
1641868	A07DA03	05/09/2007
1111259	A07DA03	19/05/2011
4678755	A07DA03	17/10/2005
25750805	A07DA03	05/11/2010
1099824	A07DA03	19/05/2011
134659	A07DA03	29/12/1999
189189	A07DA03	04/04/2008
21282892	A07DA03	05/08/2008
997020	A07DA03	28/10/2002
1130822	A07DA03	28/06/2007
1105844	A07DA03	27/05/2003
25886838	A07DA03	05/05/2011
1133430	A07DA03	14/10/2002
717464	A07DA03	28/03/2001
1006204	A07DA03	21/07/2003
1640338	A07DA03	17/12/2007
25892496	A07DA03	19/01/2011
717026	A07DA03	12/12/2006
1134812	A07DA03	15/03/2011
1558068	A07DA03	11/01/2010
997266	A07DA03	26/10/2005
2112731	A07DA03	12/03/2003
2239728	A07DA03	07/04/2003
2070225	A07DA03	30/05/2011
2109340	A07DA03	16/11/2004
2214933	A07DA03	30/01/2007
2068681	A07DA03	22/05/2003
2068682	A07DA03	28/11/2003
2068045	A07DA03	20/09/2004
2068080	A07DA03	04/12/2006
2218563	A07DA03	01/03/2011
2069472	A07DA03	11/06/2010
2068934	A07DA03	04/04/2010
2140719	A07DA03	25/06/2003
2218499	A07DA03	11/05/2007
2216845	A07DA03	13/11/2007
2214845	A07DA03	07/03/2007
2068425	A07DA03	11/01/2006
2070415	A07DA03	24/03/2006
2214358	A07DA03	15/10/2008
2217822	A07DA03	02/11/2009
1755479	A07DA03	24/09/2003
904793	A07DA03	03/01/2008
902982	A07DA03	18/09/2002
859996	A07DA03	20/08/2007
875533	A07DA03	10/01/2006
1755826	A07DA03	20/10/2009
1755172	A07DA03	03/08/2004
2035752	A07DA03	01/06/2011
1682828	A07DA03	10/12/2010
1763629	A07DA03	03/01/2005
2068612	A07DA03	07/01/2010
1755871	A07DA03	01/04/2003
1752376	A07DA03	16/02/2010
903519	A07DA03	22/12/2005
876791	A07DA03	06/05/2003
1642138	A07DA03	05/02/2009
2034932	A07DA03	10/07/2009
903553	A07DA03	20/04/2011
903860	A07DA03	26/10/2009
1767339	A07DA03	10/02/2004
1764620	A07DA03	27/08/2004
1764621	A07DA03	06/08/2008
876845	A07DA03	17/12/2007
875644	A07DA03	05/05/2003
903206	A07DA03	25/09/2008
1755227	A07DA03	12/04/2006
2042704	A07DA03	06/02/2009
1764711	A07DA03	08/01/2009
2034405	A07DA03	24/05/2004
1765584	A07DA03	10/02/2010
1755982	A07DA03	20/09/2006
1762246	A07DA03	14/11/2005
1755340	A07DA03	01/12/2006
902391	A07DA03	14/09/2007
903298	A07DA03	27/03/2001
2779016	A07DA03	07/09/2010
2762974	A07DA03	15/10/2004
2773905	A07DA03	26/07/2010
3051712	A07DA03	12/09/2003
2760092	A07DA03	26/12/2010
2779249	A07DA03	19/09/2006
2777314	A07DA03	21/01/2010
3053832	A07DA03	27/03/2003
2813159	A07DA03	25/05/2010
3055051	A07DA03	20/03/2001
2774327	A07DA03	05/04/2011
2779038	A07DA03	13/05/2009
7047560	A07DA03	26/08/2003
2759125	A07DA03	06/02/2006
2525787	A07DA03	18/04/2006
2573352	A07DA03	04/12/2007
2525216	A07DA03	17/01/2011
2406926	A07DA03	25/10/2004
2755318	A07DA03	04/01/2010
2408292	A07DA03	10/09/2008
17741954	A07DA03	31/03/2008
17742027	A07DA03	21/08/2003
16980510	A07DA03	28/01/2009
2525342	A07DA03	10/09/2009
2525520	A07DA03	05/01/2011
2524717	A07DA03	12/02/2004
16835317	A07DA03	04/09/2008
26565034	A07DA03	05/11/2010
26466135	A07DA03	08/05/2006
26410716	A07DA03	14/02/2006
28062656	A07DA03	26/08/2008
28051262	A07DA03	08/07/2008
26423896	A07DA03	27/06/2008
26462699	A07DA03	03/08/2009
26489080	A07DA03	16/07/2010
28047608	A07DA03	11/11/2007
26409755	A07DA03	29/11/2009
28062623	A07DA03	07/05/2004
26441939	A07DA03	09/04/2010
28059013	A07DA03	04/09/2006
28045769	A07DA03	12/07/2009
26349371	A07DA03	22/06/2010
26478550	A07DA03	01/12/2008
20673667	A07DA03	09/12/2010
9654426	A07DA03	02/02/2010
8118515	A07DA03	13/04/2011
26256480	A07DA03	05/02/2009
26263281	A07DA03	28/03/2006
8177858	A07DA03	07/08/2007
7035689	A07DA03	16/11/2006
20636118	A07DA03	03/01/2011
7143108	A07DA03	24/05/2005
7143155	A07DA03	25/06/2001
7229284	A07DA03	11/11/2010
24847569	A07DA03	25/05/2009
7143476	A07DA03	07/01/2011
17323541	A07DA03	25/05/2011
20023965	A07DA03	16/06/2008
8118243	A07DA03	03/03/2003
26235519	A07DA03	18/06/2009
26338790	A07DA03	25/05/2009
26461292	A07DA03	04/11/2004
28042210	A07DA03	09/10/2006
22092867	A07DA03	15/12/2008
26207800	A07DA03	25/04/2005
17742404	A07DA03	06/10/2010
17742432	A07DA03	11/04/2011
26255901	A07DA03	03/11/2010
17676501	A07DA03	18/08/2010
26235974	A07DA03	26/05/2011
17323463	A07DA03	17/03/2010
17040830	A07DA03	20/05/2009
7492715	A07DA03	16/04/2009
17040205	A07DA03	11/01/2006
8116592	A07DA03	05/03/2007
13047181	A07DA03	14/07/2010
16959538	A07DA03	22/09/2003
16835971	A07DA03	09/03/2005
425558	A07DA03	06/11/2007
1910382	A07DA03	21/06/2006
1028373	A07DA03	10/05/2004
1912188	A07DA03	11/12/2007
424570	A07DA03	10/05/2010
425420	A07DA03	20/11/2008
1913335	A07DA03	24/08/2005
4110046	A07DA03	26/07/2006
302918	A07DA03	13/10/2009
419475	A07DA03	21/04/2004
1912576	A07DA03	29/04/2009
302235	A07DA03	23/06/2008
1019947	A07DA03	04/07/2007
185604	A07DA03	08/11/2006
184043	A07DA03	08/09/2006
2965207	A07DA03	07/11/2005
28084213	A07DA03	15/02/2011
3054505	A07DA03	30/10/2008
28065816	A07DA03	28/04/2008
875817	A07DA03	13/06/2007
28080679	A07DA03	18/10/2010
28077412	A07DA03	08/10/2009
2039177	A07DA03	03/03/2009
28082453	A07DA03	23/11/2007
28091105	A07DA03	10/12/2009
20147197	A07DA03	10/12/2001
28083449	A07DA03	16/05/2006
13520117	A07DA03	26/10/2009
904007	A07DA03	28/05/2008
28090931	A07DA03	12/04/2006
903103	A07DA03	24/08/2008
2055267	A07DA03	09/03/2011
424750	A07DA03	22/07/2005
424784	A07DA03	16/02/2006
6465704	A07DA03	29/03/2007
436745	A07DA03	19/02/2010
421359	A07DA03	26/05/2006
187189	A07DA03	05/09/2006
17040128	A07DA03	28/09/2004
418421	A07DA03	25/10/2010
186409	A07DA03	15/03/2011
186865	A07DA03	16/03/2005
28062950	A07DA03	04/07/2006
418315	A07DA03	15/03/2009
184271	A07DA03	27/12/2005
265148	A07DA03	22/12/2008
28055769	A07DA03	30/03/2010
7029377	A07DA03	12/02/2009
28070991	A07DA03	28/02/2011
28063551	A07DA03	26/06/2008
28064242	A07DA03	23/04/2008
28080784	A07DA03	18/03/2010
28071928	A07DA03	02/12/2005
28063663	A07DA03	09/11/2009
28072902	A07DA03	22/08/2001
28060570	A07DA03	05/04/2005
28072507	A07DA03	04/03/2010
28072361	A07DA03	13/10/2009
28068401	A07DA03	19/05/2011
28045829	A07DA03	27/12/2007
28072766	A07DA03	24/08/2004
26505114	A07DA03	03/02/2011
28071783	A07DA03	27/08/2010
28056690	A07DA03	17/11/2008
28045890	A07DA03	23/04/2009
26476057	A07DA03	27/11/2009
28063183	A07DA03	03/09/2009
24655567	A07DA03	24/05/2004
25707060	A07DA03	14/04/2011
24671348	A07DA03	25/10/2010
24661692	A07DA03	16/09/2009
25742981	A07DA03	28/12/2005
24662681	A07DA03	12/04/2011
26623679	A07DA03	10/01/2006
25727066	A07DA03	18/02/2011
25704459	A07DA03	11/06/2008
25740545	A07DA03	19/08/2010
25739933	A07DA03	14/10/2003
26629170	A07DA03	19/12/2007
1019290	A07DA03	07/10/2008
178619	A07DA03	23/05/2000
1020576	A07DA03	23/10/2007
40584	A07DA03	30/08/2010
618395	A07DA03	15/11/2001
1029035	A07DA03	08/12/2009
1374923	A07DA03	09/03/2010
1913186	A07DA03	16/08/2010
1031036	A07DA03	25/10/2010
1372631	A07DA03	24/09/2008
1360957	A07DA03	15/10/2004
18189106	A07DA03	28/01/2009
1359659	A07DA03	11/02/2010
18191327	A07DA03	14/01/2008
19800926	A07DA03	18/05/2011
21386521	A07DA03	28/12/2000
18196192	A07DA03	31/08/2010
18189831	A07DA03	23/05/2007
18187174	A07DA03	05/05/2009
18197637	A07DA03	17/09/2004
17596151	A07DA03	13/09/2008
22766292	A07DA03	04/02/2011
21199875	A07DA03	23/12/2010
1910813	A07DA03	20/09/2000
1899719	A07DA03	14/03/2007
4312803	A07DA03	11/05/2007
2963368	A07DA03	25/04/2008
2251076	A07DA03	09/05/2005
619210	A07DA03	10/10/2002
1906478	A07DA03	03/09/2007
2250911	A07DA03	23/10/2009
420454	A07DA03	12/04/2006
1912671	A07DA03	26/12/2009
1015918	A07DA03	28/04/2010
8109355	A07DA03	24/10/2009
2965411	A07DA03	28/06/2004
6563419	A07DA03	15/12/2004
1368382	A07DA03	11/01/2005
26723328	A07DA03	26/09/2005
26699948	A07DA03	17/01/2010
26852285	A07DA03	20/10/2009
26618414	A07DA03	05/02/2009
26700714	A07DA03	11/06/2009
26833435	A07DA03	04/02/2008
26628935	A07DA03	08/04/2011
26630996	A07DA03	02/02/2009
26800908	A07DA03	06/08/2007
11675108	A07DA03	07/01/2011
15823554	A07DA03	29/12/2010
2987979	A07DA03	22/03/2004
12975544	A07DA03	16/07/2009
14309684	A07DA03	01/03/2011
16105473	A07DA03	01/08/2006
13788822	A07DA03	27/08/2008
13873963	A07DA03	19/05/2008
12975801	A07DA03	28/04/2009
12950808	A07DA03	26/12/2000
14311089	A07DA03	03/02/2011
16842692	A07DA03	05/05/2011
14311343	A07DA03	15/07/2010
2990019	A07DA03	10/01/2006
17165183	A07DA03	05/02/2009
12876840	A07DA03	27/03/2008
26722393	A07DA03	23/10/2009
26625626	A07DA03	07/06/2000
26620846	A07DA03	05/05/2005
26720966	A07DA03	03/02/2011
14310735	A07DA03	24/11/2006
26623861	A07DA03	30/09/2005
26722266	A07DA03	07/09/2007
26718341	A07DA03	24/08/2005
26719166	A07DA03	04/12/2010
25722972	A07DA03	16/03/2009
2990126	A07DA03	26/08/2008
26616636	A07DA03	16/04/2009
26699845	A07DA03	27/01/2004
12993460	A07DA03	16/07/2004
24657567	A07DA03	16/03/2011
21554462	A07DA03	29/12/2009
21651799	A07DA03	09/12/2006
21065539	A07DA03	09/04/2008
24582056	A07DA03	13/09/2004
21651898	A07DA03	14/11/2005
26938219	A07DA03	31/10/2006
26917426	A07DA03	30/12/2004
26950141	A07DA03	17/03/2010
26940680	A07DA03	17/03/2010
26895615	A07DA03	25/01/2007
26935501	A07DA03	07/02/2011
26958799	A07DA03	18/04/2006
26946515	A07DA03	18/05/2010
26932901	A07DA03	28/05/2007
26916169	A07DA03	31/05/2002
26920797	A07DA03	10/04/2003
26945367	A07DA03	14/03/2005
26931835	A07DA03	27/05/2009
26959827	A07DA03	14/05/2011
26716000	A07DA03	06/06/2007
26703766	A07DA03	06/11/2009
26857096	A07DA03	26/02/2009
26867156	A07DA03	24/07/2008
26850810	A07DA03	20/10/2008
26887343	A07DA03	20/04/2010
26874543	A07DA03	04/08/2006
26847529	A07DA03	29/04/2011
26864172	A07DA03	23/12/2009
26900308	A07DA03	07/02/2006
26932135	A07DA03	18/07/2005
26845417	A07DA03	08/10/2009
26862957	A07DA03	03/07/2007
26888343	A07DA03	04/06/2010
26942306	A07DA03	06/11/2009
26864788	A07DA03	23/04/2008
26780754	A07DA03	12/01/2006
26824327	A07DA03	22/01/2004
26716668	A07DA03	28/04/2011
26781511	A07DA03	13/01/2009
26812125	A07DA03	26/12/2006
26770232	A07DA03	30/01/2008
27044460	A07DA03	19/05/2006
27079131	A07DA03	12/01/2006
26947330	A07DA03	31/07/2006
26955339	A07DA03	14/11/2005
27056041	A07DA03	03/03/2005
26966068	A07DA03	20/06/2007
26957599	A07DA03	24/07/2009
26992609	A07DA03	30/08/2006
26992176	A07DA03	08/02/2011
26952101	A07DA03	10/12/2005
27105324	A07DA03	04/03/2010
27112721	A07DA03	08/07/2004
27078321	A07DA03	09/11/2005
27106289	A07DA03	24/06/2005
27151243	A07DA03	14/09/2010
27105669	A07DA03	28/01/2009
27109338	A07DA03	23/11/2009
27112272	A07DA03	19/06/2008
27102811	A07DA03	22/10/2007
27065526	A07DA03	06/06/2005
27033025	A07DA03	04/09/2006
27067189	A07DA03	13/08/2008
27126993	A07DA03	30/04/2011
27045549	A07DA03	24/03/2004
27033265	A07DA03	03/02/2003
27065739	A07DA03	09/03/2011
27073277	A07DA03	06/04/2011
27084260	A07DA03	18/01/2008
27106068	A07DA03	29/01/2010
27066800	A07DA03	22/08/2007
27046535	A07DA03	22/02/2011
26991169	A07DA03	26/10/2005
27042240	A07DA03	22/04/2010
26993048	A07DA03	17/09/2009
27042092	A07DA03	14/04/2009
27039656	A07DA03	21/05/2007
26991378	A07DA03	13/12/2010
27388707	A07DA03	02/01/2007
27170731	A07DA03	24/08/2009
27168688	A07DA03	09/10/2006
27159946	A07DA03	11/02/2005
27362443	A07DA03	20/10/2009
27213558	A07DA03	26/11/2006
27389916	A07DA03	27/03/2008
27164095	A07DA03	05/10/2008
27217927	A07DA03	29/11/2010
27127166	A07DA03	23/06/2004
27378775	A07DA03	25/03/2009
27384468	A07DA03	20/04/2007
27244538	A07DA03	17/04/2007
27316566	A07DA03	23/03/2010
27198682	A07DA03	09/03/2006
27211096	A07DA03	22/09/2010
27216925	A07DA03	28/12/2009
27238010	A07DA03	21/01/2003
27284918	A07DA03	08/10/2004
27356518	A07DA03	16/12/2004
27200089	A07DA03	27/10/2004
27355027	A07DA03	20/07/2010
27250040	A07DA03	21/03/2007
27251223	A07DA03	22/11/2007
27347786	A07DA03	03/06/2010
27353083	A07DA03	30/12/2005
27370248	A07DA03	12/01/2011
27379926	A07DA03	08/07/2010
27345781	A07DA03	03/09/2007
27348103	A07DA03	06/08/2007
26989957	A07DA03	04/08/2010
26993940	A07DA03	14/03/2011
27211233	A07DA03	02/06/2008
27248145	A07DA03	02/06/2004
27247391	A07DA03	14/01/2004
27213814	A07DA03	20/09/2008
27243072	A07DA03	30/11/2007
27251026	A07DA03	16/09/2009
26988666	A07DA03	18/01/2011
26988505	A07DA03	06/03/2008
27216063	A07DA03	27/01/2011
26979651	A07DA03	15/04/2008
27251497	A07DA03	17/08/2006
27241599	A07DA03	14/04/2003
26989196	A07DA03	02/07/2010
27576235	A07DA03	28/07/2008
27646258	A07DA03	12/05/2011
27571525	A07DA03	14/08/2007
27557859	A07DA03	02/03/2011
27647922	A07DA03	02/06/2008
27593063	A07DA03	19/12/2009
27640466	A07DA03	01/06/2010
27606382	A07DA03	01/12/2007
27600652	A07DA03	30/06/2008
27600442	A07DA03	28/10/2009
27542463	A07DA03	31/07/2006
27576178	A07DA03	07/02/2008
27764912	A07DA03	09/10/2003
27592722	A07DA03	03/09/2008
27592171	A07DA03	18/05/2011
27574600	A07DA03	19/06/2008
27623539	A07DA03	16/01/2007
27595836	A07DA03	25/03/2011
27575921	A07DA03	04/08/2010
27624058	A07DA03	20/03/2009
27648016	A07DA03	05/11/2007
27632256	A07DA03	10/06/2005
27709153	A07DA03	23/09/2004
27601166	A07DA03	18/10/2007
27481161	A07DA03	21/10/2005
27473325	A07DA03	16/08/2010
27493267	A07DA03	13/10/2008
27426832	A07DA03	08/06/2010
27414845	A07DA03	30/06/2010
27420519	A07DA03	28/10/2005
27480998	A07DA03	05/02/2011
27479422	A07DA03	30/08/2006
27577243	A07DA03	22/10/2008
27415090	A07DA03	03/10/2001
27479893	A07DA03	07/01/2009
27564567	A07DA03	01/09/2010
27614533	A07DA03	28/06/2006
27765553	A07DA03	21/03/2005
27756700	A07DA03	28/12/2004
27543445	A07DA03	12/01/2010
27621282	A07DA03	26/04/2011
27621743	A07DA03	31/01/2005
27614610	A07DA03	29/04/2005
27614612	A07DA03	26/10/2006
27623442	A07DA03	18/10/2006
27614461	A07DA03	19/10/2007
27543863	A07DA03	21/10/2004
27719035	A07DA03	14/07/2010
27716070	A07DA03	05/01/2006
27716087	A07DA03	22/07/2009
27283981	A07DA03	23/12/2008
27143220	A07DA03	02/08/2001
27148314	A07DA03	10/12/2009
27229030	A07DA03	10/08/2004
26957342	A07DA03	26/05/2004
27785567	A07DA03	30/01/2004
27773455	A07DA03	25/06/2003
2960222	A07DA03	30/10/2002
27565992	A07DA03	15/12/2005
27546503	A07DA03	10/07/2009
22882517	A07DA03	08/09/2004
266530	A07DA03	29/04/2005
26803917	A07DA03	13/03/2008
462371	A07DA03	26/07/2002
27782628	A07DA03	04/09/2009
27772306	A07DA03	04/07/2006
27538570	A07DA03	19/10/2004
27534063	A07DA03	01/02/2011
27716439	A07DA03	25/03/2011
27533855	A07DA03	01/09/2005
27773698	A07DA03	10/12/2008
27782467	A07DA03	19/12/2007
27779761	A07DA03	02/05/2011
27687182	A07DA03	05/08/2004
27530889	A07DA03	24/12/2007
27509297	A07DA03	22/11/2001
27719107	A07DA03	22/03/2011
27767877	A07DA03	11/09/2008
27658984	A07DA03	16/10/2009
184096	A07DA03	23/01/2006
27679826	A07DA03	02/08/2004
27079385	A07DA03	21/12/2007
421835	A07DA03	22/06/1998
27775176	A07DA03	11/01/2007
27576426	A07DA03	13/06/2006
27646450	A07DA03	30/09/2008
27472174	A07DA03	16/04/2008
27597098	A07DA03	04/10/2005
27529159	A07DA03	11/10/2007
27472063	A07DA03	11/03/2009
27608043	A07DA03	05/11/2010
27540250	A07DA03	11/02/2010
27475366	A07DA03	16/04/2010
27623685	A07DA03	26/06/2007
27477049	A07DA03	14/10/2010
27459658	A07DA03	11/12/2007
27709553	A07DA03	03/09/2010
27798131	A07DA03	14/01/2011
26805773	A07DA03	10/12/2007
26715264	A07DA03	18/11/2010
26772557	A07DA03	21/10/2005
26619290	A07DA03	31/12/2008
26971047	A07DA03	04/06/2008
27809731	A07DA03	25/05/2010
27758876	A07DA03	10/01/2009
27707583	A07DA03	28/04/2005
27797371	A07DA03	31/05/2005
27728042	A07DA03	09/10/2006
27662207	A07DA03	28/09/2004
27718646	A07DA03	28/08/2010
27757839	A07DA03	22/03/2010
27667247	A07DA03	18/05/2009
27707178	A07DA03	12/02/2009
27694886	A07DA03	19/03/2007
27718995	A07DA03	05/05/2011
27715841	A07DA03	19/12/2005
27794365	A07DA03	12/11/2003
27797699	A07DA03	03/11/2008
26777332	A07DA03	21/09/2005
25567971	A07DA03	18/03/2010
27667214	A07DA03	06/11/2003
27474579	A07DA03	11/09/2007
27564429	A07DA03	13/06/2010
27591732	A07DA03	24/01/2011
27614092	A07DA03	31/10/2006
27539994	A07DA03	07/12/2005
305932	A07DA03	10/11/2005
26831340	A07DA03	30/05/2009
27680864	A07DA03	04/10/2001
26941998	A07DA03	08/02/2002
27764778	A07DA03	27/03/2009
26973087	A07DA03	30/06/2004
27084129	A07DA03	03/05/2011
27773628	A07DA03	28/07/2008
27799572	A07DA03	30/08/2010
1364955	A07DA03	14/03/2011
27767563	A07DA03	23/06/2009
27358783	A07DA03	22/11/2010
27806522	A07DA03	05/10/2004
33089231	A07DA03	27/04/2011
33007786	A07DA03	25/08/2010
33049981	A07DA03	05/07/2006
33081850	A07DA03	25/11/2008
33023244	A07DA03	01/06/2010
33085145	A07DA03	06/05/2004
33111336	A07DA03	03/10/2006
33037105	A07DA03	15/11/2010
33003168	A07DA03	21/02/2005
33101389	A07DA03	29/04/2011
33120981	A07DA03	15/05/2002
33051475	A07DA03	26/01/2009
33008019	A07DA03	03/02/2010
33065576	A07DA03	31/08/2010
33019812	A07DA03	12/02/2008
33092896	A07DA03	02/01/2009
33094244	A07DA03	29/06/2010
33072595	A07DA03	07/07/2004
33058109	A07DA03	11/01/2011
33018545	A07DA03	24/05/2004
33128144	A07DA03	01/03/2011
33050607	A07DA03	06/08/2007
33050061	A07DA03	18/09/2007
33067601	A07DA03	06/10/2009
33045066	A07DA03	23/07/2007
33030987	A07DA03	30/05/2011
33043546	A07DA03	30/09/2008
33103882	A07DA03	18/02/2008
33063228	A07DA03	01/12/2008
33001039	A07DA03	22/04/2010
33065445	A07DA03	29/06/2001
33005974	A07DA03	27/06/2000
33068637	A07DA03	07/01/2010
33089216	A07DA03	19/11/2004
33029033	A07DA03	21/12/2010
33080053	A07DA03	08/02/2011
33058726	A07DA03	24/06/2004
33111896	A07DA03	31/12/2001
33036483	A07DA03	15/06/2007
33081368	A07DA03	16/05/2011
33106608	A07DA03	02/01/2004
33005444	A07DA03	16/03/2009
33051958	A07DA03	01/09/2006
33110326	A07DA03	23/05/2002
33070878	A07DA03	12/12/2007
33080281	A07DA03	12/11/2009
33105763	A07DA03	12/12/2002
33018138	A07DA03	21/12/2009
33072672	A07DA03	17/09/2003
33112449	A07DA03	30/11/2010
33045759	A07DA03	23/09/2005
33052130	A07DA03	25/05/2004
33105550	A07DA03	14/12/2009
33099866	A07DA03	18/02/2005
33083154	A07DA03	23/01/2008
33104741	A07DA03	20/03/2002
33046900	A07DA03	01/02/2007
33019290	A07DA03	08/01/2008
33034267	A07DA03	25/09/2002
33072253	A07DA03	06/04/2011
33015969	A07DA03	29/12/2010
33011419	A07DA03	17/09/2009
33106661	A07DA03	18/12/2002
33072464	A07DA03	05/05/2009
33029467	A07DA03	23/03/2009
33039975	A07DA03	05/06/2001
33098553	A07DA03	04/11/2008
33043614	A07DA03	04/05/2010
33063559	A07DA03	08/01/2008
33051131	A07DA03	03/04/2006
33107313	A07DA03	18/01/2001
33023752	A07DA03	03/01/2011
33013033	A07DA03	07/01/2010
33112259	A07DA03	26/07/2001
33098168	A07DA03	07/10/2008
33004779	A07DA03	09/11/2005
33118796	A07DA03	27/01/2011
33046246	A07DA03	21/02/2008
33022790	A07DA03	25/09/2003
33071618	A07DA03	18/02/2004
33002612	A07DA03	28/04/2008
33092933	A07DA03	18/05/2009
33080535	A07DA03	02/09/2009
33065816	A07DA03	28/04/2008
33026052	A07DA03	07/01/2011
33072776	A07DA03	17/05/2010
33054272	A07DA03	23/10/2009
33052309	A07DA03	20/08/2010
33032821	A07DA03	08/01/2002
33033051	A07DA03	04/06/2003
2963608	A07DA03	22/10/2010
19967442	A07DA03	27/12/2009
27680372	A07DA03	22/03/2006
27812161	A07DA03	05/10/2007
420958	A07DA03	19/06/2008
33043382	A07DA03	21/09/2009
27798253	A07DA03	26/08/2004
1366024	A07DA03	11/09/2000
26618253	A07DA03	20/07/2010
33008240	A07DA03	13/07/2000
27797077	A07DA03	12/07/2010
27086613	A07DA03	30/03/2009
26720883	A07DA03	14/08/2003
33020523	A07DA03	25/05/2011
21109297	A07DA03	22/02/2008
33080052	A07DA03	19/05/2010
33063190	A07DA03	16/05/2011
21114796	A07DA03	19/03/2009
33034636	A07DA03	13/09/2010
33245195	A07DA03	20/05/2009
16653328	A07DA03	16/12/2008
23408868	A07DA03	28/10/2010
33314256	A07DA03	15/09/2010
16774189	A07DA03	25/11/2007
23320348	A07DA03	21/04/2005
27830165	A07DA03	17/09/2008
27915598	A07DA03	02/12/2008
16135385	A07DA03	19/11/2001
33253720	A07DA03	11/01/2010
33007194	A07DA03	23/01/2001
33098207	A07DA03	01/06/2005
33048233	A07DA03	24/03/2010
33085897	A07DA03	16/09/2008
33058319	A07DA03	04/11/2009
33050200	A07DA03	19/11/2009
33066631	A07DA03	17/12/2001
33105648	A07DA03	11/01/2010
33072391	A07DA03	27/07/2001
33048116	A07DA03	13/01/2003
33025341	A07DA03	28/02/2006
33026712	A07DA03	08/10/2001
33049911	A07DA03	10/11/2010
33073451	A07DA03	26/11/2007
33044433	A07DA03	07/06/2010
33051390	A07DA03	15/04/2008
33044203	A07DA03	24/11/2009
33000877	A07DA03	29/05/2000
33112492	A07DA03	19/11/2008
33102600	A07DA03	08/02/2011
33060011	A07DA03	22/02/2011
33115064	A07DA03	03/10/2006
33083224	A07DA03	25/07/2007
33082186	A07DA03	10/10/2005
33002545	A07DA03	04/02/2005
33007224	A07DA03	18/02/2002
33000875	A07DA03	06/02/2010
33112040	A07DA03	17/11/2008
33020543	A07DA03	22/01/2010
33055732	A07DA03	06/06/2008
33043124	A07DA03	30/05/2008
33107252	A07DA03	04/07/2006
33089997	A07DA03	28/12/2004
33045325	A07DA03	25/07/2000
33112464	A07DA03	30/08/2004
33022447	A07DA03	24/09/2008
33101385	A07DA03	23/04/2010
33073688	A07DA03	23/02/2011
33050859	A07DA03	22/07/2009
33033838	A07DA03	20/10/2010
33105580	A07DA03	30/06/2004
33087055	A07DA03	07/03/2000
33073628	A07DA03	04/11/2010
33120516	A07DA03	14/12/2009
33060722	A07DA03	24/02/2004
33030275	A07DA03	03/05/2007
33066033	A07DA03	07/12/2010
33040043	A07DA03	03/10/2005
33056105	A07DA03	18/05/2004
33112092	A07DA03	20/11/2008
33026558	A07DA03	17/02/2005
33086255	A07DA03	06/03/2010
33044074	A07DA03	15/04/2008
33000272	A07DA03	22/08/2007
33058122	A07DA03	27/01/2006
33072181	A07DA03	29/03/2011
33064084	A07DA03	23/02/2011
33040568	A07DA03	18/07/2003
33116126	A07DA03	01/08/2003
33024570	A07DA03	23/01/2004
33067091	A07DA03	19/07/2010
27983775	A07DA03	16/01/2009
28021743	A07DA03	18/08/2009
23291599	A07DA03	04/12/2009
33313168	A07DA03	02/02/2011
27848563	A07DA03	25/07/2007
23315807	A07DA03	31/01/2006
16636482	A07DA03	28/01/2011
16607145	A07DA03	07/02/2008
33200808	A07DA03	24/06/2009
16178584	A07DA03	11/06/2010
16181675	A07DA03	07/09/2010
33308377	A07DA03	29/04/2008
16656352	A07DA03	18/03/2010
14188303	A07DA03	03/10/2008
16595962	A07DA03	31/12/2009
28021098	A07DA03	22/04/2009
16596474	A07DA03	08/03/2010
33245491	A07DA03	23/03/2011
16602562	A07DA03	21/02/2006
16637147	A07DA03	03/02/2011
23364851	A07DA03	24/04/2008
33202100	A07DA03	23/09/2008
28023165	A07DA03	26/10/2009
18770704	A07DA03	20/09/2006
23342699	A07DA03	20/11/2008
16630680	A07DA03	17/07/2009
23364475	A07DA03	06/09/2007
23333064	A07DA03	10/02/2005
28022563	A07DA03	17/11/2010
23362211	A07DA03	03/01/2009
16183490	A07DA03	18/06/2007
33232471	A07DA03	28/09/2009
33244239	A07DA03	12/12/2008
16166375	A07DA03	11/03/2011
28016723	A07DA03	17/05/2010
16636746	A07DA03	16/05/2007
33224173	A07DA03	27/12/2010
27947649	A07DA03	21/06/2007
16139405	A07DA03	29/07/2002
16598988	A07DA03	21/03/2002
20991421	A07DA03	03/07/2007
23350564	A07DA03	03/06/2004
23339422	A07DA03	14/03/2007
28023159	A07DA03	06/10/2008
23336003	A07DA03	24/10/2006
16648707	A07DA03	17/01/2007
16605999	A07DA03	16/04/2010
16184071	A07DA03	02/10/2004
18761895	A07DA03	28/12/2007
23381987	A07DA03	23/02/2010
33232371	A07DA03	10/05/2005
18770770	A07DA03	07/04/2008
18771367	A07DA03	08/07/2008
16135365	A07DA03	19/01/2007
33254142	A07DA03	27/05/2010
33201412	A07DA03	26/03/2010
33309872	A07DA03	24/07/2007
16127501	A07DA03	23/11/2007
16125107	A07DA03	25/03/2002
16124919	A07DA03	06/10/2008
23350479	A07DA03	10/08/2005
23288974	A07DA03	27/10/2003
18755933	A07DA03	08/07/2010
23406100	A07DA03	16/04/2010
20985576	A07DA03	13/03/2011
20986311	A07DA03	01/04/2009
23405805	A07DA03	26/11/2007
16130156	A07DA03	21/02/2007
16623658	A07DA03	29/02/2008
28029066	A07DA03	12/11/2010
33200384	A07DA03	24/04/2010
33246306	A07DA03	21/01/2011
16169045	A07DA03	08/08/2007
18769218	A07DA03	17/10/2006
33244635	A07DA03	24/11/2004
16604397	A07DA03	22/12/2009
33244922	A07DA03	15/09/2009
33235211	A07DA03	18/01/2010
33206039	A07DA03	14/12/2010
16603111	A07DA03	01/06/2011
16135290	A07DA03	24/06/2010
16706310	A07DA03	30/05/2000
16706166	A07DA03	10/02/2010
16774727	A07DA03	20/07/2009
18762887	A07DA03	26/08/2010
28026267	A07DA03	10/11/2010
28019631	A07DA03	15/04/2008
18757709	A07DA03	14/02/2011
31487753	A07DA03	12/01/2007
31418563	A07DA03	06/05/2008
31171272	A07DA03	21/01/2004
23367296	A07DA03	22/11/2006
23398442	A07DA03	19/11/2007
16124564	A07DA03	13/06/2008
33232130	A07DA03	03/08/2009
16605243	A07DA03	07/04/2009
16648158	A07DA03	30/12/2010
23371553	A07DA03	04/06/2008
16636710	A07DA03	28/11/2007
23291864	A07DA03	19/06/2006
21010864	A07DA03	07/09/2010
16648627	A07DA03	16/01/2007
33244259	A07DA03	13/11/2006
28023386	A07DA03	08/10/2008
20989772	A07DA03	05/04/2010
23405168	A07DA03	02/04/2009
16602997	A07DA03	08/09/2010
28005613	A07DA03	10/09/2010
21100717	A07DA03	10/07/2008
16598700	A07DA03	26/09/2001
18868960	A07DA03	14/01/2010
33290165	A07DA03	15/04/2011
23406920	A07DA03	08/09/2004
21110084	A07DA03	16/04/2004
23326983	A07DA03	24/06/2010
20989863	A07DA03	10/09/2010
33245160	A07DA03	16/07/2008
16603132	A07DA03	24/05/2006
33313475	A07DA03	10/08/2010
16774215	A07DA03	14/01/2011
23347347	A07DA03	06/07/2010
33246911	A07DA03	28/01/2008
16621754	A07DA03	10/12/2009
23343500	A07DA03	14/08/2006
23371494	A07DA03	12/09/2007
32025799	A07DA03	25/09/2006
31301888	A07DA03	05/05/2010
31165115	A07DA03	07/08/2009
32119285	A07DA03	20/07/2007
31661668	A07DA03	10/03/2004
31696470	A07DA03	16/09/2009
31313850	A07DA03	23/07/2007
31771316	A07DA03	07/08/2008
31612646	A07DA03	06/04/2011
31767259	A07DA03	30/11/2005
31818244	A07DA03	20/12/2010
32150921	A07DA03	02/02/2006
31353664	A07DA03	25/01/2007
31536904	A07DA03	30/09/2009
31412669	A07DA03	30/09/2004
32277407	A07DA03	02/10/2003
31191853	A07DA03	17/10/2005
31941393	A07DA03	27/09/2007
31767891	A07DA03	22/12/2009
31796233	A07DA03	01/07/2009
31400996	A07DA03	11/05/2007
31340376	A07DA03	30/12/2010
31468035	A07DA03	16/05/2008
31285255	A07DA03	06/07/2005
31037188	A07DA03	09/03/2006
32030521	A07DA03	03/02/2006
31071544	A07DA03	15/06/2010
31605404	A07DA03	09/07/1999
32025631	A07DA03	25/10/2004
31720865	A07DA03	26/10/2010
31311553	A07DA03	23/01/2007
31260334	A07DA03	18/07/2008
32084553	A07DA03	05/05/2010
31431883	A07DA03	07/04/2006
31119347	A07DA03	26/01/2011
31373457	A07DA03	09/05/2008
31521249	A07DA03	28/05/2010
31207975	A07DA03	28/11/2005
31642302	A07DA03	04/04/2001
31956405	A07DA03	15/09/2009
31596585	A07DA03	03/01/2005
31544473	A07DA03	12/07/2004
32282437	A07DA03	07/02/2007
31406972	A07DA03	24/11/2005
31642952	A07DA03	24/06/2008
32084052	A07DA03	19/09/2007
31533750	A07DA03	05/09/2003
31832331	A07DA03	25/10/2004
31605831	A07DA03	01/12/2005
32117832	A07DA03	14/10/2004
31677756	A07DA03	16/02/2006
31835091	A07DA03	23/11/2010
31455675	A07DA03	14/05/2009
31793709	A07DA03	09/02/2010
32119827	A07DA03	02/04/2008
32070869	A07DA03	17/01/2008
31947034	A07DA03	21/11/2007
32059128	A07DA03	25/09/2007
31444611	A07DA03	26/10/2006
31687054	A07DA03	23/08/2010
31687289	A07DA03	18/01/2007
31479727	A07DA03	22/03/2005
31428879	A07DA03	27/06/2007
32112585	A07DA03	16/07/2003
31322543	A07DA03	29/09/2003
31521473	A07DA03	23/01/2004
31658349	A07DA03	13/10/2004
31665029	A07DA03	27/09/2004
31598575	A07DA03	18/03/2008
31470168	A07DA03	06/02/2007
31675988	A07DA03	21/07/2003
31285622	A07DA03	28/10/2004
32039669	A07DA03	14/03/2007
31827685	A07DA03	07/06/2007
32262841	A07DA03	19/07/2010
31974767	A07DA03	03/01/2007
32146428	A07DA03	01/12/2009
31343010	A07DA03	11/12/2007
31917313	A07DA03	16/01/2008
32262209	A07DA03	18/09/2009
31370288	A07DA03	09/01/2006
31669063	A07DA03	02/11/2010
31341768	A07DA03	08/09/2010
31872942	A07DA03	24/11/2003
31269714	A07DA03	08/04/2011
31630562	A07DA03	10/11/2008
32188546	A07DA03	19/04/2006
31302647	A07DA03	29/09/2008
31821410	A07DA03	23/12/2009
31796678	A07DA03	09/03/2005
31307737	A07DA03	04/03/2003
31331386	A07DA03	07/02/2008
31564944	A07DA03	16/08/2007
31752253	A07DA03	08/05/2008
31160405	A07DA03	23/03/2004
31532807	A07DA03	02/11/2006
31512653	A07DA03	05/10/2006
31380125	A07DA03	08/03/2010
31644593	A07DA03	26/01/2006
32013323	A07DA03	18/04/2007
31815808	A07DA03	06/05/2010
31436034	A07DA03	19/06/2009
31610456	A07DA03	20/04/2005
31090531	A07DA03	14/09/2009
32044425	A07DA03	25/10/2006
31855923	A07DA03	19/11/2007
32040874	A07DA03	01/02/2007
31722183	A07DA03	13/09/2007
31768805	A07DA03	04/02/2004
31108705	A07DA03	16/09/2008
31725328	A07DA03	17/12/2007
31878001	A07DA03	19/04/2007
31704498	A07DA03	19/05/2008
31243437	A07DA03	22/01/2009
31835258	A07DA03	21/03/2002
31349039	A07DA03	03/08/2010
32112134	A07DA03	19/07/2006
31581886	A07DA03	20/09/2007
31679805	A07DA03	30/07/2007
31821992	A07DA03	13/12/2007
31608572	A07DA03	05/01/2009
31102850	A07DA03	01/12/2004
31665027	A07DA03	18/01/2008
31446789	A07DA03	08/01/2009
31322279	A07DA03	16/08/2006
31195762	A07DA03	18/07/2006
31315391	A07DA03	05/09/2006
31311414	A07DA03	07/07/2008
31036364	A07DA03	10/04/2006
32094474	A07DA03	22/07/2009
31296696	A07DA03	13/02/2007
31767484	A07DA03	06/10/2004
31283139	A07DA03	19/08/2009
31539967	A07DA03	27/01/2003
32059302	A07DA03	08/10/2008
31686790	A07DA03	26/12/2002
32238575	A07DA03	26/02/2007
32199258	A07DA03	01/12/2008
32002259	A07DA03	16/01/2006
31213457	A07DA03	23/12/2008
31391874	A07DA03	12/09/2006
31169488	A07DA03	05/11/2007
31480774	A07DA03	30/09/2010
31392273	A07DA03	24/03/2004
31458732	A07DA03	07/10/2009
32238465	A07DA03	18/05/2006
32186252	A07DA03	10/02/2004
31490406	A07DA03	21/03/2006
31863781	A07DA03	22/06/2006
31591559	A07DA03	02/09/2008
31617814	A07DA03	22/08/2008
32106380	A07DA03	21/01/2009
31075591	A07DA03	31/08/1999
31270762	A07DA03	05/09/2007
31659587	A07DA03	16/05/2008
32100016	A07DA03	16/01/2006
31911477	A07DA03	21/11/2007
32223782	A07DA03	25/05/2007
31572491	A07DA03	22/06/2007
31467808	A07DA03	15/12/2006
31730830	A07DA03	23/11/2004
31714268	A07DA03	27/02/2006
31773644	A07DA03	29/09/2009
31696885	A07DA03	07/01/2010
31288965	A07DA03	20/12/2004
31383318	A07DA03	16/09/2009
31079523	A07DA03	19/04/2010
31587202	A07DA03	03/05/2006
31068766	A07DA03	13/05/2009
32261215	A07DA03	17/05/2007
31354097	A07DA03	13/01/2005
31282883	A07DA03	07/06/2006
31519225	A07DA03	28/12/2010
31693536	A07DA03	09/10/2006
31482073	A07DA03	16/04/2007
31043533	A07DA03	30/01/2006
32229216	A07DA03	28/11/2008
31569317	A07DA03	13/06/2003
31761466	A07DA03	19/10/2010
31794924	A07DA03	21/03/2006
31285403	A07DA03	19/08/2008
31425670	A07DA03	17/02/2011
31279651	A07DA03	18/08/2010
32212869	A07DA03	24/06/2009
31731142	A07DA03	24/02/2011
32240004	A07DA03	24/02/2011
32135145	A07DA03	05/06/2007
31061462	A07DA03	02/04/2008
31226791	A07DA03	04/09/2006
31195235	A07DA03	04/05/2010
31936986	A07DA03	30/05/2007
31522507	A07DA03	08/01/2010
31584632	A07DA03	16/03/2007
32181779	A07DA03	17/11/2008
31593707	A07DA03	18/08/2008
32034125	A07DA03	05/09/2007
31166024	A07DA03	30/09/2008
31922673	A07DA03	12/04/2004
31961565	A07DA03	02/06/2006
31643795	A07DA03	02/10/2006
31167229	A07DA03	25/09/2007
31225570	A07DA03	27/07/2009
31588436	A07DA03	16/05/2003
31778543	A07DA03	09/07/2007
31659535	A07DA03	18/07/2006
31354855	A07DA03	13/01/2010
31159808	A07DA03	08/06/2005
31417608	A07DA03	15/06/2010
31985435	A07DA03	04/01/2008
31953204	A07DA03	30/10/2007
31368264	A07DA03	28/03/2007
31176608	A07DA03	11/12/2009
32147698	A07DA03	16/10/2001
32237294	A07DA03	31/08/2005
31055199	A07DA03	09/05/2008
31560503	A07DA03	07/09/2010
31465949	A07DA03	08/10/2007
31872945	A07DA03	04/07/2006
31825880	A07DA03	09/07/2009
31448449	A07DA03	13/03/2006
31279289	A07DA03	04/11/2010
31441799	A07DA03	13/09/2007
31598491	A07DA03	17/11/2009
31503486	A07DA03	04/12/2008
31704070	A07DA03	11/09/2008
32090511	A07DA03	26/03/2002
31374650	A07DA03	01/07/2004
31415742	A07DA03	06/03/2009
31428122	A07DA03	24/04/2006
31036566	A07DA03	16/08/2002
31797949	A07DA03	28/02/2011
32182116	A07DA03	17/08/2006
31153085	A07DA03	14/07/2010
31650418	A07DA03	08/08/2006
31227615	A07DA03	07/09/2010
31355170	A07DA03	19/05/2010
31592330	A07DA03	10/11/2009
31230558	A07DA03	19/08/2008
31811871	A07DA03	20/07/2009
31210443	A07DA03	19/12/2006
31101370	A07DA03	16/07/2008
31527098	A07DA03	01/09/2005
31527790	A07DA03	09/06/2005
31588887	A07DA03	06/08/2007
31201536	A07DA03	20/11/2007
31310294	A07DA03	20/12/2007
32276647	A07DA03	25/05/2004
31698968	A07DA03	13/09/2006
31096804	A07DA03	04/02/2010
31626969	A07DA03	10/05/2006
31570040	A07DA03	26/10/2007
31788025	A07DA03	08/07/2010
31981387	A07DA03	19/04/2004
31379844	A07DA03	06/07/2010
31682992	A07DA03	06/05/2009
32083953	A07DA03	14/03/2008
32227842	A07DA03	11/01/2008
32256883	A07DA03	04/12/2008
31970294	A07DA03	13/07/2010
31595311	A07DA03	05/10/2004
31663644	A07DA03	31/08/2007
31391949	A07DA03	01/10/2004
32263249	A07DA03	11/04/2008
31693651	A07DA03	14/03/2007
32256725	A07DA03	24/07/2009
31369349	A07DA03	25/03/2009
32252204	A07DA03	03/02/2003
31432970	A07DA03	20/07/2009
32082986	A07DA03	26/10/2004
31938524	A07DA03	18/12/2008
31069508	A07DA03	07/11/2006
31939727	A07DA03	08/01/2003
31084479	A07DA03	20/06/2005
32171452	A07DA03	24/10/2005
32187085	A07DA03	23/09/2003
31091269	A07DA03	18/06/2003
31176011	A07DA03	25/06/2003
31462204	A07DA03	17/01/2006
31817457	A07DA03	24/05/2006
31519880	A07DA03	08/02/2007
32185395	A07DA03	20/10/2003
31318646	A07DA03	30/12/2009
32127700	A07DA03	10/07/2008
31871300	A07DA03	27/04/2009
32149838	A07DA03	12/11/2008
32026060	A07DA03	21/12/2009
31720251	A07DA03	06/11/2008
32280196	A07DA03	07/02/2008
31102134	A07DA03	29/12/2010
31706242	A07DA03	31/01/2011
31496367	A07DA03	25/02/2009
31813066	A07DA03	28/04/2008
31410815	A07DA03	05/09/2006
31721704	A07DA03	07/08/2006
31846862	A07DA03	29/03/2011
31419778	A07DA03	20/09/2007
32179438	A07DA03	24/01/2008
31380809	A07DA03	21/11/2005
31948589	A07DA03	17/04/2009
32172752	A07DA03	22/06/2006
31037060	A07DA03	20/04/2006
31763774	A07DA03	06/10/2009
31806825	A07DA03	30/11/2007
31705692	A07DA03	30/06/2006
32087818	A07DA03	30/12/2009
31154849	A07DA03	17/09/2007
32047678	A07DA03	28/12/2009
31107851	A07DA03	08/11/2005
31243931	A07DA03	14/10/2009
31315916	A07DA03	28/07/2006
32110280	A07DA03	02/12/2009
31396659	A07DA03	21/05/2001
31122460	A07DA03	06/08/2010
31658778	A07DA03	31/05/2005
32127265	A07DA03	17/04/2007
31513020	A07DA03	23/05/2008
31108637	A07DA03	06/09/2005
31247458	A07DA03	10/10/2010
32091657	A07DA03	27/07/2007
31943993	A07DA03	04/08/2009
31085609	A07DA03	14/01/2010
31757203	A07DA03	10/12/2009
31051737	A07DA03	20/07/2006
31344355	A07DA03	30/01/2007
31918740	A07DA03	23/10/2006
32264301	A07DA03	05/12/2007
31413160	A07DA03	06/11/2006
31098205	A07DA03	29/11/2007
31981297	A07DA03	20/09/2004
31973866	A07DA03	02/08/2006
31312056	A07DA03	04/09/2007
31143108	A07DA03	07/07/2005
31200246	A07DA03	09/06/2000
31490502	A07DA03	21/07/2010
31221792	A07DA03	10/06/2003
31633492	A07DA03	20/03/2007
31264594	A07DA03	21/07/2006
32105540	A07DA03	23/05/2005
31289028	A07DA03	03/08/2009
32011658	A07DA03	25/01/2001
31034301	A07DA03	10/02/2010
31627955	A07DA03	02/10/2007
31897149	A07DA03	16/10/2008
31936891	A07DA03	09/08/2005
32093133	A07DA03	05/11/2004
31944420	A07DA03	22/03/2003
31921601	A07DA03	28/08/2007
31913803	A07DA03	19/09/2007
31799729	A07DA03	27/03/2008
32021899	A07DA03	17/03/2004
32034301	A07DA03	20/12/2007
32045046	A07DA03	10/08/2001
31948679	A07DA03	11/06/2003
31348116	A07DA03	10/09/2009
31911997	A07DA03	17/01/2007
31811084	A07DA03	13/10/2009
31931082	A07DA03	22/04/2008
31779236	A07DA03	09/08/2004
31521703	A07DA03	20/10/2006
31963913	A07DA03	29/12/2004
32192670	A07DA03	26/01/2004
31470956	A07DA03	23/04/2004
31501116	A07DA03	17/07/2008
31615865	A07DA03	04/09/2006
31077181	A07DA03	06/11/2008
31144994	A07DA03	17/03/2010
32255967	A07DA03	12/11/2002
31974156	A07DA03	09/08/2007
32220436	A07DA03	08/03/2007
31513188	A07DA03	09/12/2010
31657716	A07DA03	13/07/2007
31219026	A07DA03	19/12/2008
32176704	A07DA03	21/10/2005
31768146	A07DA03	09/09/2008
31382369	A07DA03	01/12/2008
32011659	A07DA03	04/11/2005
31415299	A07DA03	15/10/2009
31640321	A07DA03	23/03/2004
