patient_id	covar_name	date
6747933	A10AC01	28/01/2010
24763655	A10AC01	29/05/2007
21152856	A10AC01	10/11/2005
5814184	A10AC01	01/06/2011
1069182	A10AC01	31/01/2005
8639376	A10AC01	24/05/2011
731159	A10AC01	02/03/2004
12688464	A10AC01	24/07/2007
8641065	A10AC01	16/08/2006
12831650	A10AC01	29/05/2011
10395603	A10AC01	23/09/2008
1068416	A10AC01	20/10/2006
21152643	A10AC01	06/05/2011
1069269	A10AC01	14/03/2007
25041809	A10AC01	30/03/2010
17216732	A10AC01	28/02/2006
10331626	A10AC01	10/05/2011
564746	A10AC01	22/11/2005
7850270	A10AC01	06/05/2011
1851987	A10AC01	12/11/2008
1320214	A10AC01	10/05/2011
1420780	A10AC01	09/09/2004
7971968	A10AC01	31/01/2006
7800679	A10AC01	03/05/2010
7801122	A10AC01	02/02/2011
6213484	A10AC01	20/07/2004
11286075	A10AC01	01/06/2011
24939790	A10AC01	25/04/2011
7776373	A10AC01	13/12/2007
1425106	A10AC01	25/06/2008
1351713	A10AC01	23/08/2010
1320083	A10AC01	26/03/2010
1027312	A10AC01	09/08/2007
189189	A10AC01	19/06/2007
133899	A10AC01	09/07/2007
2133314	A10AC01	25/08/2004
2143723	A10AC01	14/03/2006
2053983	A10AC01	11/06/2003
860336	A10AC01	02/07/2003
2053540	A10AC01	11/04/2008
2140245	A10AC01	19/05/2011
876130	A10AC01	08/03/2011
904650	A10AC01	02/05/2006
1767520	A10AC01	07/03/2006
1767503	A10AC01	31/01/2008
902908	A10AC01	07/07/2003
2574790	A10AC01	14/11/2003
2774327	A10AC01	28/04/2011
2526072	A10AC01	09/05/2011
2764242	A10AC01	02/02/2011
28066311	A10AC01	12/04/2011
26456181	A10AC01	28/04/2011
20147123	A10AC01	03/05/2011
26243506	A10AC01	29/03/2011
20147230	A10AC01	10/05/2011
24847695	A10AC01	14/05/2011
26456732	A10AC01	16/05/2005
26258038	A10AC01	25/05/2011
18471446	A10AC01	29/03/2006
650187	A10AC01	18/11/2010
425076	A10AC01	14/04/2011
2959751	A10AC01	18/03/2004
26478497	A10AC01	30/05/2011
428591	A10AC01	15/09/2004
418234	A10AC01	07/09/2002
648824	A10AC01	06/09/2010
28088132	A10AC01	22/09/2010
24667949	A10AC01	17/08/2005
1019300	A10AC01	25/03/2004
16840841	A10AC01	26/08/2010
26639040	A10AC01	04/03/2011
26700857	A10AC01	08/07/2004
26642699	A10AC01	20/05/2011
26941008	A10AC01	29/06/2005
26851800	A10AC01	26/04/2011
26715319	A10AC01	09/09/2004
26954803	A10AC01	17/01/2011
27133143	A10AC01	09/05/2011
27085041	A10AC01	12/09/2008
27064483	A10AC01	05/06/2006
26996642	A10AC01	15/11/2005
27159946	A10AC01	10/05/2011
27362443	A10AC01	18/05/2011
27383112	A10AC01	27/06/2005
27169743	A10AC01	18/04/2011
27592722	A10AC01	07/05/2011
27460528	A10AC01	11/12/2006
27658377	A10AC01	26/10/2008
27621566	A10AC01	06/10/2005
27149229	A10AC01	18/08/2008
26998989	A10AC01	20/02/2007
24576547	A10AC01	01/09/2005
26976144	A10AC01	16/08/2007
27675727	A10AC01	01/02/2006
26970741	A10AC01	22/08/2005
1017321	A10AC01	09/02/2010
27608043	A10AC01	16/04/2008
24655178	A10AC01	24/05/2011
27804341	A10AC01	31/12/2004
27797674	A10AC01	01/06/2004
33040260	A10AC01	04/03/2005
33100103	A10AC01	13/12/2002
33019657	A10AC01	27/04/2011
33050536	A10AC01	15/04/2011
33051529	A10AC01	12/04/2007
33091621	A10AC01	08/09/2004
22881940	A10AC01	31/05/2005
16640292	A10AC01	16/01/2007
16135369	A10AC01	27/05/2011
33053146	A10AC01	21/03/2006
33024570	A10AC01	24/04/2001
18771218	A10AC01	05/04/2011
16639614	A10AC01	11/05/2011
33255731	A10AC01	27/10/2004
16636746	A10AC01	06/04/2005
23402038	A10AC01	01/10/2004
23369406	A10AC01	06/08/2010
16596274	A10AC01	24/05/2011
23353839	A10AC01	14/03/2011
23327123	A10AC01	27/05/2011
16684088	A10AC01	19/06/2006
16683552	A10AC01	01/02/2010
16602618	A10AC01	25/05/2011
31487753	A10AC01	21/10/2008
23406762	A10AC01	01/12/2006
23339981	A10AC01	17/05/2007
23367381	A10AC01	25/11/2009
27984029	A10AC01	23/03/2010
23316314	A10AC01	27/05/2011
16168876	A10AC01	11/05/2011
31224183	A10AC01	09/09/2004
31202352	A10AC01	27/10/2010
31915703	A10AC01	21/09/2010
31378922	A10AC01	15/08/2010
31071465	A10AC01	03/11/2009
31396539	A10AC01	19/11/2004
31934644	A10AC01	14/01/2008
31799718	A10AC01	05/04/2010
31207975	A10AC01	17/01/2006
31396351	A10AC01	03/11/2006
31627593	A10AC01	30/12/2004
32238796	A10AC01	04/11/2010
31677756	A10AC01	02/10/2009
31735454	A10AC01	03/11/2004
31197084	A10AC01	15/03/2011
31678708	A10AC01	31/08/2005
31455126	A10AC01	19/04/2004
31679755	A10AC01	17/12/2010
31658349	A10AC01	24/11/2010
32143565	A10AC01	14/07/2010
31205880	A10AC01	18/07/2003
32214444	A10AC01	10/06/2005
31827685	A10AC01	08/11/2010
32083864	A10AC01	22/09/2009
31505016	A10AC01	30/11/2007
32122580	A10AC01	23/11/2005
31061135	A10AC01	16/09/2008
31747891	A10AC01	11/11/2009
31612836	A10AC01	01/03/2011
31585879	A10AC01	20/11/2006
31418145	A10AC01	11/07/2010
31664650	A10AC01	30/09/2010
32247436	A10AC01	21/06/2006
31314955	A10AC01	07/07/2006
32037940	A10AC01	19/01/2006
31378341	A10AC01	06/11/2006
32002259	A10AC01	16/01/2006
31719017	A10AC01	01/10/2009
31665712	A10AC01	14/12/2007
31895165	A10AC01	17/07/2007
32100016	A10AC01	03/02/2006
31502615	A10AC01	03/03/2006
31394212	A10AC01	19/01/2007
31045812	A10AC01	03/12/2008
32177881	A10AC01	13/11/2009
31864025	A10AC01	03/07/2003
32229637	A10AC01	13/11/2009
32240004	A10AC01	24/10/2004
32065071	A10AC01	03/11/2010
31105058	A10AC01	31/07/2009
32273397	A10AC01	07/09/2010
31273101	A10AC01	11/09/2008
31591497	A10AC01	13/07/2010
32062851	A10AC01	16/05/2007
31430347	A10AC01	26/01/2009
31983463	A10AC01	14/04/2010
31609748	A10AC01	23/09/2009
31929544	A10AC01	16/04/2008
31898173	A10AC01	17/06/2009
31084479	A10AC01	29/11/2005
31599491	A10AC01	12/07/2006
31304181	A10AC01	12/02/2010
31429454	A10AC01	08/01/2009
31427896	A10AC01	20/10/2003
32221360	A10AC01	28/12/2006
31099021	A10AC01	19/11/2008
31523397	A10AC01	19/05/2009
31225795	A10AC01	17/12/2004
32108396	A10AC01	17/09/2010
31478530	A10AC01	20/01/2011
32278837	A10AC01	14/11/2006
32090626	A10AC01	29/09/2009
31074963	A10AC01	19/01/2007
31740975	A10AC01	10/04/2007
31353873	A10AC01	02/09/2008
31822263	A10AC01	15/06/2010
32144868	A10AC01	03/12/2010
32271150	A10AC01	13/11/2006
32136272	A10AC01	09/05/2007
31659176	A10AC01	12/06/2006
31823756	A10AC01	31/07/2006
32154430	A10AC01	30/09/2002
31449578	A10AC01	05/05/2006
31853795	A10AC01	12/01/2011
31689849	A10AC01	26/12/2007
31793463	A10AC01	11/03/2011
32072112	A10AC01	02/03/2011
32220436	A10AC01	28/03/2007
