patient_id	covar_name	date
12731764	A10BD07	10/05/2011
18774365	A10BD07	07/12/2010
12692050	A10BD07	26/05/2011
20529644	A10BD07	28/04/2011
8979056	A10BD07	24/05/2011
1068704	A10BD07	17/01/2011
12479828	A10BD07	17/05/2011
948728	A10BD07	29/04/2011
6887580	A10BD07	10/02/2011
3289024	A10BD07	09/12/2009
18582121	A10BD07	16/05/2011
8558909	A10BD07	01/12/2010
8979574	A10BD07	15/04/2011
1069182	A10BD07	07/03/2011
9311044	A10BD07	24/05/2011
5029306	A10BD07	25/02/2011
9996121	A10BD07	26/05/2011
731159	A10BD07	29/01/2010
6415918	A10BD07	27/04/2011
25052298	A10BD07	10/05/2011
1063691	A10BD07	02/12/2009
18146152	A10BD07	26/05/2011
7245850	A10BD07	13/05/2011
10394089	A10BD07	13/04/2010
10266866	A10BD07	28/04/2011
17170104	A10BD07	24/05/2011
24763876	A10BD07	13/05/2011
294603	A10BD07	09/03/2011
1210825	A10BD07	30/05/2011
564746	A10BD07	20/05/2011
25170727	A10BD07	19/04/2011
7800178	A10BD07	23/06/2010
640885	A10BD07	23/05/2011
1349650	A10BD07	26/04/2011
1444199	A10BD07	24/05/2011
1545758	A10BD07	24/03/2011
7800679	A10BD07	09/06/2010
1419591	A10BD07	23/05/2011
15667199	A10BD07	17/05/2011
1262678	A10BD07	31/05/2011
5992383	A10BD07	16/05/2011
1424080	A10BD07	25/05/2011
1443624	A10BD07	19/05/2011
1133221	A10BD07	19/05/2011
1648751	A10BD07	23/05/2011
716938	A10BD07	26/05/2011
1855368	A10BD07	20/12/2010
1099959	A10BD07	10/05/2010
6513850	A10BD07	10/11/2009
486308	A10BD07	10/05/2011
25913321	A10BD07	03/12/2010
25892496	A10BD07	25/05/2011
25818249	A10BD07	11/05/2011
717026	A10BD07	11/05/2011
2070080	A10BD07	29/04/2011
2138546	A10BD07	04/05/2011
2143654	A10BD07	15/03/2011
1752991	A10BD07	01/06/2011
2055126	A10BD07	31/05/2011
2055265	A10BD07	02/04/2011
2777238	A10BD07	09/05/2011
2574790	A10BD07	30/05/2011
2774533	A10BD07	17/05/2011
2764043	A10BD07	13/05/2011
17741931	A10BD07	17/02/2011
2525914	A10BD07	10/05/2011
26458657	A10BD07	26/04/2010
26462819	A10BD07	13/08/2009
26456181	A10BD07	24/05/2011
18224910	A10BD07	11/05/2011
7142308	A10BD07	11/04/2011
7035406	A10BD07	29/04/2011
26338693	A10BD07	19/05/2011
26261314	A10BD07	03/05/2011
26258038	A10BD07	03/02/2010
180748	A10BD07	01/06/2011
303479	A10BD07	22/05/2011
28064907	A10BD07	16/10/2009
28043953	A10BD07	18/05/2011
25743607	A10BD07	27/04/2011
1913183	A10BD07	31/05/2011
18197681	A10BD07	29/04/2011
26851371	A10BD07	09/05/2011
26639040	A10BD07	22/05/2011
16105363	A10BD07	28/04/2011
2988643	A10BD07	10/05/2011
26721085	A10BD07	09/05/2011
26935278	A10BD07	29/05/2011
26963483	A10BD07	26/04/2011
26895844	A10BD07	25/08/2010
26932935	A10BD07	31/05/2011
26776065	A10BD07	20/05/2011
26710863	A10BD07	03/07/2009
26783590	A10BD07	09/05/2011
26711151	A10BD07	17/05/2011
27072138	A10BD07	20/04/2011
26976448	A10BD07	26/05/2011
26999711	A10BD07	30/05/2011
27034975	A10BD07	31/05/2011
26989103	A10BD07	15/04/2011
27086147	A10BD07	05/11/2009
27031301	A10BD07	12/04/2010
26998494	A10BD07	09/05/2011
27303587	A10BD07	23/05/2011
27313906	A10BD07	01/06/2011
27305913	A10BD07	07/04/2011
26989570	A10BD07	19/03/2011
26989189	A10BD07	10/05/2011
27660974	A10BD07	29/04/2011
27574600	A10BD07	27/05/2011
27708195	A10BD07	24/05/2011
27621282	A10BD07	13/05/2011
27719042	A10BD07	01/06/2011
27716087	A10BD07	12/05/2011
27147928	A10BD07	07/11/2010
27153250	A10BD07	15/05/2011
26998989	A10BD07	25/05/2011
25741964	A10BD07	25/01/2011
27563279	A10BD07	16/04/2011
27708450	A10BD07	29/04/2011
27684000	A10BD07	30/12/2010
27537397	A10BD07	28/01/2011
27720814	A10BD07	30/05/2011
27797094	A10BD07	13/05/2011
27811766	A10BD07	26/05/2011
33008470	A10BD07	03/05/2011
33072082	A10BD07	20/04/2011
33061411	A10BD07	18/05/2011
33065445	A10BD07	21/05/2011
33046900	A10BD07	07/04/2010
33004433	A10BD07	18/05/2011
33003806	A10BD07	05/04/2011
33030108	A10BD07	12/05/2011
33008270	A10BD07	06/07/2010
33043382	A10BD07	06/05/2011
33008240	A10BD07	26/01/2011
16183385	A10BD07	16/05/2011
33022459	A10BD07	29/04/2011
33088532	A10BD07	26/05/2011
33042798	A10BD07	12/08/2010
33065950	A10BD07	11/05/2011
33050859	A10BD07	03/05/2011
33093137	A10BD07	12/05/2011
33072029	A10BD07	25/05/2011
33060722	A10BD07	05/04/2011
33066033	A10BD07	17/08/2010
33008358	A10BD07	13/05/2011
23407899	A10BD07	18/05/2011
16654167	A10BD07	09/06/2009
16625697	A10BD07	05/10/2009
18768076	A10BD07	24/05/2011
27985124	A10BD07	21/07/2009
28018743	A10BD07	19/04/2011
16612944	A10BD07	18/05/2011
23366881	A10BD07	18/04/2011
20985576	A10BD07	30/05/2011
28029066	A10BD07	28/04/2011
16615324	A10BD07	28/09/2009
18755454	A10BD07	09/05/2011
16613501	A10BD07	27/05/2011
31833062	A10BD07	16/07/2010
31396351	A10BD07	02/03/2011
31386151	A10BD07	07/04/2011
32186315	A10BD07	30/12/2010
32088531	A10BD07	28/12/2009
32264533	A10BD07	30/12/2010
31495525	A10BD07	07/04/2011
31061037	A10BD07	29/12/2010
31329070	A10BD07	30/12/2009
31698713	A10BD07	11/11/2010
31765504	A10BD07	08/03/2011
32022210	A10BD07	27/08/2009
31367573	A10BD07	04/03/2011
31764206	A10BD07	07/06/2010
31732643	A10BD07	14/12/2010
31169763	A10BD07	06/05/2011
31151654	A10BD07	22/10/2010
31504927	A10BD07	26/12/2010
31511111	A10BD07	08/05/2011
31084479	A10BD07	16/04/2009
32175406	A10BD07	06/04/2011
31062629	A10BD07	14/10/2010
31216105	A10BD07	28/09/2010
31873722	A10BD07	29/12/2009
32045804	A10BD07	21/01/2011
31324107	A10BD07	13/10/2010
31115224	A10BD07	21/05/2011
32168626	A10BD07	18/11/2009
31146142	A10BD07	02/02/2011
32271150	A10BD07	15/11/2010
31940317	A10BD07	15/09/2010
32028980	A10BD07	27/10/2010
31374884	A10BD07	07/04/2011
32028322	A10BD07	21/01/2011
31458992	A10BD07	10/12/2009
