patient_id	covar_name	date
9230338	A12AA04	19/02/2008
8960142	A12AA04	21/08/2006
8784390	A12AA04	16/09/1999
16109980	A12AA04	29/05/2011
8294602	A12AA04	17/06/2010
12774896	A12AA04	18/09/2006
7349652	A12AA04	06/08/2007
21153398	A12AA04	26/04/2006
9214995	A12AA04	18/03/2010
9298951	A12AA04	11/04/2005
1547786	A12AA04	04/10/2007
59209	A12AA04	25/05/2011
6744663	A12AA04	19/09/2007
10269435	A12AA04	15/12/2008
7335727	A12AA04	17/01/2005
8979424	A12AA04	30/07/2008
14792243	A12AA04	11/04/2003
20547221	A12AA04	03/06/2003
3322587	A12AA04	20/04/2007
25043628	A12AA04	02/02/2009
25047538	A12AA04	27/01/2010
21152200	A12AA04	09/05/2007
5027855	A12AA04	22/04/2008
702001	A12AA04	05/05/2011
16090309	A12AA04	16/05/2003
5867088	A12AA04	28/04/2009
17216427	A12AA04	15/04/2011
7160853	A12AA04	02/04/2007
12173193	A12AA04	06/09/2006
12174179	A12AA04	04/01/2008
8982558	A12AA04	05/05/2011
3334345	A12AA04	06/05/2011
10270152	A12AA04	14/10/2003
8698869	A12AA04	28/04/2010
12690514	A12AA04	28/07/2008
8975906	A12AA04	16/12/2009
20546500	A12AA04	03/05/2011
8556760	A12AA04	26/11/2010
7350747	A12AA04	18/10/2006
15900881	A12AA04	29/01/2008
3292946	A12AA04	27/01/2010
15901339	A12AA04	06/10/2006
24729124	A12AA04	25/04/2011
16530907	A12AA04	30/04/2003
936659	A12AA04	15/01/2009
9231091	A12AA04	13/01/2009
6761142	A12AA04	13/05/2011
8292120	A12AA04	04/02/2002
17216825	A12AA04	28/07/2006
14982712	A12AA04	14/09/2009
3331483	A12AA04	27/04/2005
12790404	A12AA04	15/02/2011
6745401	A12AA04	31/05/2005
1515178	A12AA04	04/02/2009
1516973	A12AA04	02/02/2010
9375873	A12AA04	18/05/2011
1445557	A12AA04	15/11/2007
1090730	A12AA04	04/03/2009
24719453	A12AA04	04/10/2005
6212219	A12AA04	15/02/2006
1276830	A12AA04	03/03/2002
6212351	A12AA04	29/08/2007
1666507	A12AA04	20/03/2003
6598467	A12AA04	01/07/2002
639892	A12AA04	07/05/2009
6425493	A12AA04	14/05/2007
1349535	A12AA04	23/04/2007
641468	A12AA04	12/05/2010
639360	A12AA04	27/09/2010
1319971	A12AA04	28/08/2001
1262130	A12AA04	10/05/2011
7580200	A12AA04	18/05/2009
24940355	A12AA04	14/10/2004
1295976	A12AA04	28/04/2011
1638747	A12AA04	26/01/2005
195582	A12AA04	18/05/2011
891364	A12AA04	01/12/2004
135815	A12AA04	24/08/1999
890168	A12AA04	12/02/2007
1066880	A12AA04	25/09/2007
1638660	A12AA04	05/02/2009
2110791	A12AA04	14/03/2010
2162696	A12AA04	29/08/2002
903543	A12AA04	11/05/2011
904650	A12AA04	30/01/2008
1765141	A12AA04	25/05/2011
859374	A12AA04	25/03/2009
2759631	A12AA04	09/06/2003
2766082	A12AA04	15/01/2008
2574466	A12AA04	27/10/2004
2520230	A12AA04	07/12/2010
15660220	A12AA04	07/03/2011
26503596	A12AA04	05/12/2007
7144208	A12AA04	10/03/2004
26454075	A12AA04	23/10/2006
302849	A12AA04	26/04/2011
2960514	A12AA04	26/04/2005
185604	A12AA04	03/09/2010
2778926	A12AA04	03/02/2011
28079828	A12AA04	13/06/2005
1372352	A12AA04	14/04/2004
18187789	A12AA04	14/10/2009
25740582	A12AA04	24/05/2011
1904262	A12AA04	20/04/2011
26719797	A12AA04	29/05/2011
26776913	A12AA04	16/09/2009
26805159	A12AA04	19/02/2007
26834531	A12AA04	07/08/2007
24668853	A12AA04	09/01/2008
24655094	A12AA04	21/02/2011
21651847	A12AA04	29/11/2009
26942273	A12AA04	22/03/2007
26897230	A12AA04	31/03/2010
26947471	A12AA04	22/07/2003
26716003	A12AA04	02/07/2006
26741963	A12AA04	29/09/2005
26877189	A12AA04	25/11/2004
26847638	A12AA04	16/10/2009
26720068	A12AA04	10/09/2009
27112272	A12AA04	11/06/2004
27052734	A12AA04	28/08/2001
27106197	A12AA04	08/10/2009
26978664	A12AA04	15/02/2005
27219870	A12AA04	30/05/2011
27369449	A12AA04	26/05/2008
27308704	A12AA04	05/05/2011
27253172	A12AA04	15/03/2011
27592893	A12AA04	05/05/2008
27592604	A12AA04	30/04/2011
27427357	A12AA04	01/06/2011
27614533	A12AA04	14/03/2007
27758847	A12AA04	14/08/2006
27129091	A12AA04	07/12/2004
27444490	A12AA04	02/12/2009
24576547	A12AA04	17/05/2011
26792439	A12AA04	19/06/2007
27540070	A12AA04	30/03/2010
27772101	A12AA04	17/01/2006
27458555	A12AA04	25/01/2008
27784207	A12AA04	20/05/2011
27614649	A12AA04	13/05/2011
27369999	A12AA04	27/04/2010
27021569	A12AA04	31/03/2011
26972390	A12AA04	04/05/2011
27680750	A12AA04	11/05/2005
27456109	A12AA04	21/02/2004
27459762	A12AA04	06/04/2011
27597806	A12AA04	03/08/2009
27809277	A12AA04	26/05/2003
27665005	A12AA04	04/03/2007
27782172	A12AA04	13/12/2004
926950	A12AA04	02/12/2004
26887104	A12AA04	22/04/2011
33008470	A12AA04	22/01/2010
33100103	A12AA04	17/09/2010
33066336	A12AA04	10/09/2010
33070438	A12AA04	11/07/2008
33111017	A12AA04	17/03/2010
33103502	A12AA04	13/02/2009
33049435	A12AA04	04/04/2011
33107313	A12AA04	06/03/2007
33052953	A12AA04	20/10/2008
33056194	A12AA04	17/10/2005
33014069	A12AA04	19/12/2006
22882894	A12AA04	14/08/2008
27647888	A12AA04	18/02/2010
2959756	A12AA04	22/04/2011
33086713	A12AA04	29/06/2000
16840498	A12AA04	14/03/2005
16618718	A12AA04	18/11/2010
33252437	A12AA04	15/04/2011
33114133	A12AA04	20/11/2009
33034590	A12AA04	25/04/2011
33112202	A12AA04	20/05/2002
33087055	A12AA04	29/01/2004
33092804	A12AA04	04/10/2010
33017748	A12AA04	09/03/2011
33091289	A12AA04	13/03/2008
16705530	A12AA04	28/04/2011
16600568	A12AA04	23/05/2011
33200115	A12AA04	15/11/2010
16707874	A12AA04	15/09/2006
16602865	A12AA04	23/05/2011
16625522	A12AA04	07/04/2011
16165721	A12AA04	18/01/2008
33311593	A12AA04	22/02/2010
21107985	A12AA04	09/12/2009
23346872	A12AA04	21/02/2007
23368347	A12AA04	19/05/2010
16637922	A12AA04	08/04/2010
16712546	A12AA04	21/05/2003
21102466	A12AA04	29/04/2011
23362487	A12AA04	03/01/2005
16602997	A12AA04	20/07/2001
16633737	A12AA04	22/04/2010
21102991	A12AA04	24/05/2011
31590499	A12AA04	01/02/2007
31311295	A12AA04	15/06/2009
31313850	A12AA04	07/11/2006
31353977	A12AA04	02/07/2008
31298093	A12AA04	29/10/2008
31923451	A12AA04	23/04/2010
31515657	A12AA04	29/12/2010
31706287	A12AA04	01/03/2007
31719362	A12AA04	26/05/2006
31676111	A12AA04	15/12/2003
31037188	A12AA04	18/01/2005
31992684	A12AA04	31/05/2005
31126630	A12AA04	26/10/2007
31476903	A12AA04	29/10/2003
32030521	A12AA04	15/07/2008
31934644	A12AA04	05/10/2005
31396990	A12AA04	26/05/2009
31074309	A12AA04	04/07/2003
31091370	A12AA04	23/05/2006
32218880	A12AA04	21/09/2006
31841569	A12AA04	03/11/2006
32176492	A12AA04	28/01/2003
31462347	A12AA04	25/10/2005
32224890	A12AA04	17/05/2010
31119305	A12AA04	28/09/2006
31493727	A12AA04	10/10/2006
31635881	A12AA04	09/01/2006
31225363	A12AA04	28/04/2005
31810704	A12AA04	19/11/2010
31479727	A12AA04	07/02/2011
31988348	A12AA04	23/03/2001
31791551	A12AA04	17/10/2002
32112585	A12AA04	03/08/2004
31246303	A12AA04	06/11/2006
31694151	A12AA04	19/09/2006
31901343	A12AA04	10/03/2006
32122580	A12AA04	19/03/2007
31381249	A12AA04	11/04/2003
32221033	A12AA04	03/02/2005
31624771	A12AA04	30/07/2010
31915254	A12AA04	17/11/2009
31866867	A12AA04	31/10/2006
31979610	A12AA04	18/11/2009
32118712	A12AA04	20/04/2004
31577829	A12AA04	30/12/2009
31383072	A12AA04	17/12/2007
31107119	A12AA04	03/10/2005
31311414	A12AA04	07/07/2008
31140504	A12AA04	09/09/2008
32209804	A12AA04	07/10/2009
32100813	A12AA04	14/07/2010
31638235	A12AA04	19/04/2002
31350321	A12AA04	23/01/2004
32035850	A12AA04	07/11/2008
32119254	A12AA04	17/02/2006
32002259	A12AA04	09/10/2007
31286041	A12AA04	07/08/2006
31619861	A12AA04	30/04/2003
31422036	A12AA04	22/02/2005
32012208	A12AA04	23/06/2004
31893634	A12AA04	21/08/2003
32042526	A12AA04	18/11/2010
31177768	A12AA04	11/01/2011
31508797	A12AA04	17/11/2010
31185558	A12AA04	07/02/2008
31394212	A12AA04	16/03/2007
32017201	A12AA04	10/12/2007
31081419	A12AA04	19/10/2010
31160073	A12AA04	04/01/2006
31923205	A12AA04	22/01/2004
31629096	A12AA04	13/01/2009
31655961	A12AA04	14/07/2005
32201736	A12AA04	12/11/2009
31226791	A12AA04	12/09/2003
31683193	A12AA04	25/10/2007
31822050	A12AA04	30/11/2005
31246615	A12AA04	01/06/2006
31349798	A12AA04	15/06/2009
31049991	A12AA04	13/01/2009
31537932	A12AA04	06/03/2008
32082014	A12AA04	16/01/2007
31273101	A12AA04	07/12/2009
32159037	A12AA04	05/10/2005
31070465	A12AA04	18/11/2009
32236017	A12AA04	25/08/2004
31340935	A12AA04	16/02/2011
32093203	A12AA04	16/11/2007
32236449	A12AA04	29/10/2008
31973312	A12AA04	07/01/2011
31136060	A12AA04	19/10/2010
31901788	A12AA04	16/06/2004
31247441	A12AA04	13/05/2008
31679003	A12AA04	18/09/2009
31574292	A12AA04	28/02/2011
32198687	A12AA04	12/03/2009
31371712	A12AA04	11/06/2007
32212015	A12AA04	27/03/2001
31991627	A12AA04	09/05/2011
31725638	A12AA04	06/02/2004
31605104	A12AA04	18/07/2006
32117961	A12AA04	23/03/2006
31191209	A12AA04	29/07/2010
31642262	A12AA04	04/06/2008
31951116	A12AA04	18/04/2007
31927125	A12AA04	15/12/2008
32135671	A12AA04	29/10/2010
31489393	A12AA04	28/08/2008
31672938	A12AA04	24/03/2006
32143143	A12AA04	29/12/2005
32173948	A12AA04	28/09/2006
31563177	A12AA04	26/11/2010
32228473	A12AA04	22/06/2005
31805527	A12AA04	23/11/2009
32274565	A12AA04	09/07/2009
31429454	A12AA04	26/04/2007
31127796	A12AA04	10/10/2006
31936735	A12AA04	17/12/2009
31337640	A12AA04	19/12/2007
31445281	A12AA04	26/10/2007
32213023	A12AA04	24/09/2004
31925538	A12AA04	14/01/2004
32093512	A12AA04	27/06/2007
32173526	A12AA04	30/07/2007
31813066	A12AA04	20/07/2009
31381073	A12AA04	30/05/2006
31602075	A12AA04	31/10/2006
32194393	A12AA04	21/06/2007
31432709	A12AA04	09/11/2009
31944943	A12AA04	04/12/2010
31625423	A12AA04	18/12/2006
31457699	A12AA04	18/04/2007
31385542	A12AA04	26/12/2006
31939056	A12AA04	27/09/2006
31143409	A12AA04	10/07/2006
32091657	A12AA04	30/09/2004
32071225	A12AA04	27/06/2006
31634632	A12AA04	26/09/2002
31600813	A12AA04	21/06/2002
31145497	A12AA04	22/12/2003
31609117	A12AA04	20/11/2006
31556912	A12AA04	13/07/2010
31626869	A12AA04	17/04/2006
32264301	A12AA04	25/06/2004
32207420	A12AA04	25/04/2005
31030230	A12AA04	13/05/2004
31599016	A12AA04	28/10/2010
32281526	A12AA04	15/11/2010
31284012	A12AA04	30/01/2009
32062092	A12AA04	15/02/2007
31847212	A12AA04	12/05/2003
32086971	A12AA04	23/04/2009
32093133	A12AA04	03/11/2008
31740407	A12AA04	20/11/2007
31312120	A12AA04	29/11/1999
31394041	A12AA04	10/11/2010
31561607	A12AA04	11/11/2002
31793371	A12AA04	13/07/2005
32197664	A12AA04	10/03/2006
31063759	A12AA04	15/06/2007
