patient_id	covar_name	date
6756598	A10BB07	15/12/2006
9300058	A10BB07	30/05/2011
5031929	A10BB07	01/02/2011
9294363	A10BB07	17/05/2011
5814221	A10BB07	21/05/2011
1731389	A10BB07	08/10/2001
11661262	A10BB07	14/05/2008
10395240	A10BB07	01/05/2011
10331347	A10BB07	16/09/2005
639912	A10BB07	24/03/2006
7777348	A10BB07	24/05/2011
6597124	A10BB07	13/01/2009
8932929	A10BB07	30/05/2011
7776144	A10BB07	30/05/2011
135900	A10BB07	17/12/2005
25818249	A10BB07	08/10/2008
2038121	A10BB07	11/05/2011
2812092	A10BB07	29/11/2010
2777985	A10BB07	28/05/2011
26237160	A10BB07	01/06/2011
26235928	A10BB07	26/03/2008
2035462	A10BB07	25/04/2011
423574	A10BB07	10/05/2001
26864665	A10BB07	26/08/2009
26900451	A10BB07	17/05/2009
27116935	A10BB07	03/02/2006
27646258	A10BB07	12/05/2011
27613638	A10BB07	06/05/2011
27780914	A10BB07	04/07/2005
27602350	A10BB07	14/05/2010
27676342	A10BB07	12/05/2011
26872972	A10BB07	05/01/2007
33065445	A10BB07	01/06/2009
33086083	A10BB07	25/05/2011
33104669	A10BB07	12/05/2011
18767999	A10BB07	13/05/2011
33031905	A10BB07	26/04/2011
33088532	A10BB07	07/12/2005
33044203	A10BB07	24/05/2011
33026538	A10BB07	27/03/2003
33021606	A10BB07	07/02/2011
33099087	A10BB07	18/05/2011
33029780	A10BB07	30/05/2011
31806961	A10BB07	18/10/2010
31243230	A10BB07	04/06/2009
31067594	A10BB07	03/12/2010
31774615	A10BB07	05/07/2006
31245615	A10BB07	03/09/2007
31264775	A10BB07	28/02/2011
31207975	A10BB07	19/10/2009
31596585	A10BB07	15/12/2006
31201487	A10BB07	16/11/2007
32205450	A10BB07	04/02/2011
32122580	A10BB07	15/09/2004
31061135	A10BB07	21/07/2006
32194488	A10BB07	13/11/2009
31701050	A10BB07	18/03/2011
31507581	A10BB07	03/06/2009
31165913	A10BB07	13/12/2005
32177040	A10BB07	15/11/2010
31246615	A10BB07	30/04/2010
31593707	A10BB07	17/06/2005
31608488	A10BB07	10/12/2010
31514677	A10BB07	14/01/2009
32148445	A10BB07	16/11/2010
31297801	A10BB07	05/09/2007
31198415	A10BB07	28/12/2009
32217546	A10BB07	08/10/2010
31724163	A10BB07	07/10/2009
31038384	A10BB07	17/07/2007
31074963	A10BB07	26/04/2007
31805543	A10BB07	16/12/2010
32197657	A10BB07	24/04/2010
31947491	A10BB07	31/01/2007
