patient_id	covar_name	date
22799556	A11CC05	01/03/2011
24013007	A11CC05	24/05/2011
25066998	A11CC05	21/08/2002
24005400	A11CC05	19/02/2010
20910443	A11CC05	21/09/2010
21803068	A11CC05	18/02/2011
18607901	A11CC05	13/01/2010
22697820	A11CC05	10/03/2011
23072551	A11CC05	09/07/2009
12258873	A11CC05	02/10/2003
19178471	A11CC05	29/10/2004
20777386	A11CC05	28/03/2011
21652289	A11CC05	06/04/2011
20909836	A11CC05	27/12/2010
16930264	A11CC05	26/09/2003
23046783	A11CC05	18/05/2011
22604298	A11CC05	08/04/2011
12770781	A11CC05	18/04/2008
20910485	A11CC05	01/02/2011
6244710	A11CC05	17/08/2004
5027855	A11CC05	22/04/2008
12259462	A11CC05	18/12/2006
17174432	A11CC05	23/03/2010
5565850	A11CC05	22/05/2006
12258879	A11CC05	29/10/2003
12732142	A11CC05	02/03/2009
25060595	A11CC05	31/03/2002
25066092	A11CC05	08/11/2001
15066578	A11CC05	12/08/2009
18654616	A11CC05	16/06/2010
20083985	A11CC05	07/10/2010
10604434	A11CC05	27/02/2007
24006555	A11CC05	02/06/2008
12782509	A11CC05	26/03/2009
24006497	A11CC05	17/02/2009
8283295	A11CC05	22/06/2009
25067076	A11CC05	06/10/2009
12258291	A11CC05	30/09/2002
8982558	A11CC05	01/04/2011
13375645	A11CC05	10/03/2009
6243196	A11CC05	05/10/2004
9305853	A11CC05	08/06/2007
17519848	A11CC05	29/04/2010
24951039	A11CC05	14/02/2008
19179683	A11CC05	23/05/2006
8986612	A11CC05	04/02/2003
19177362	A11CC05	18/04/2005
21811886	A11CC05	28/03/2011
16929993	A11CC05	12/11/2009
14208986	A11CC05	10/08/2009
8987693	A11CC05	12/04/2005
16958009	A11CC05	09/07/2009
8987546	A11CC05	09/08/2004
14208990	A11CC05	22/03/2010
20413297	A11CC05	08/03/2010
12763214	A11CC05	25/06/2007
18654617	A11CC05	14/10/2009
10198682	A11CC05	26/11/2007
20777848	A11CC05	04/01/2011
20909054	A11CC05	04/01/2011
12770719	A11CC05	01/12/2009
10379329	A11CC05	20/05/2008
16922088	A11CC05	18/02/2010
23072754	A11CC05	01/02/2011
11573458	A11CC05	18/03/2010
12770935	A11CC05	11/05/2007
8988035	A11CC05	20/02/2006
8987368	A11CC05	22/05/2002
12732324	A11CC05	20/02/2007
6243591	A11CC05	11/01/2005
10865791	A11CC05	19/11/2008
16323527	A11CC05	09/12/2009
18391270	A11CC05	03/12/2010
3285563	A11CC05	07/10/2005
3290897	A11CC05	18/02/2005
24006333	A11CC05	23/02/2011
21652241	A11CC05	03/03/2011
25066254	A11CC05	17/10/2002
15755198	A11CC05	02/07/2009
1488376	A11CC05	15/09/2004
1169659	A11CC05	16/09/2004
20291009	A11CC05	24/05/2011
1474251	A11CC05	27/10/2003
26143815	A11CC05	04/04/2011
1474172	A11CC05	20/03/2003
6634150	A11CC05	13/04/2007
17789325	A11CC05	20/12/2010
405185	A11CC05	30/06/2004
404928	A11CC05	03/11/2003
4433535	A11CC05	25/05/2006
1379406	A11CC05	16/02/2005
18646634	A11CC05	04/01/2011
7444046	A11CC05	18/02/2008
1474394	A11CC05	31/03/2005
1379509	A11CC05	14/09/2005
1474100	A11CC05	06/03/2003
15885679	A11CC05	10/03/2011
404945	A11CC05	28/11/2002
1277321	A11CC05	02/08/2004
526070	A11CC05	14/08/2009
1379379	A11CC05	09/02/2004
19402229	A11CC05	29/11/2010
26144622	A11CC05	08/04/2011
917993	A11CC05	30/05/2002
2723955	A11CC05	07/04/2005
6633943	A11CC05	16/05/2006
21477584	A11CC05	22/03/2011
2723839	A11CC05	05/05/2006
1055120	A11CC05	23/02/2005
18039002	A11CC05	29/04/2004
3931824	A11CC05	13/12/2005
13081598	A11CC05	14/01/2009
6633918	A11CC05	07/04/2006
405045	A11CC05	27/05/2003
11069994	A11CC05	27/01/2009
15477441	A11CC05	30/06/2009
1488386	A11CC05	17/11/2003
21477596	A11CC05	26/11/2010
6555456	A11CC05	22/11/2007
18039159	A11CC05	27/03/2007
9497958	A11CC05	02/09/2008
16405782	A11CC05	23/01/2009
1378713	A11CC05	09/05/2001
11070001	A11CC05	08/05/2009
9498060	A11CC05	24/07/2008
1379495	A11CC05	02/09/2005
404765	A11CC05	30/05/2002
9498070	A11CC05	22/02/2008
10492173	A11CC05	14/12/2007
24944667	A11CC05	29/08/2007
24943410	A11CC05	01/07/2009
1179361	A11CC05	11/11/2002
404974	A11CC05	19/03/2003
405289	A11CC05	26/03/2001
5899636	A11CC05	20/09/2006
18038752	A11CC05	18/01/2010
14884073	A11CC05	23/02/2010
1379065	A11CC05	03/03/2003
11459203	A11CC05	22/01/2010
25885215	A11CC05	13/05/2011
1274586	A11CC05	05/01/2004
2642757	A11CC05	15/06/2005
6973828	A11CC05	15/05/2006
25766904	A11CC05	14/05/2009
1108125	A11CC05	14/01/2003
25902808	A11CC05	05/10/2009
2643117	A11CC05	19/10/2004
25909916	A11CC05	22/03/2011
25757298	A11CC05	21/09/2010
25766864	A11CC05	11/12/2008
25885109	A11CC05	03/07/2009
25902021	A11CC05	05/10/2009
1108842	A11CC05	24/02/2004
25884916	A11CC05	18/08/2008
2817356	A11CC05	20/12/2004
25757280	A11CC05	09/12/2010
6492632	A11CC05	12/05/2006
1274952	A11CC05	21/10/2004
1109481	A11CC05	11/10/2005
25902100	A11CC05	27/05/2010
1108840	A11CC05	26/09/2006
25902843	A11CC05	28/01/2010
25902956	A11CC05	30/05/2011
5987380	A11CC05	24/07/2006
1103441	A11CC05	04/08/2008
1108240	A11CC05	19/02/2004
12705349	A11CC05	08/10/2008
1274912	A11CC05	09/07/2004
5987342	A11CC05	04/04/2006
5987409	A11CC05	12/09/2006
25885176	A11CC05	13/04/2011
3656545	A11CC05	18/08/2005
3656508	A11CC05	30/08/2005
1274503	A11CC05	07/08/2002
1274932	A11CC05	03/11/2004
12660039	A11CC05	02/10/2009
6973874	A11CC05	11/08/2006
2817381	A11CC05	22/12/2004
25885854	A11CC05	03/05/2010
6492625	A11CC05	21/09/2006
25897453	A11CC05	04/11/2009
6492768	A11CC05	26/09/2006
1109004	A11CC05	15/07/2004
1108799	A11CC05	14/06/2002
25909809	A11CC05	13/08/2010
25757999	A11CC05	03/07/2006
25757163	A11CC05	22/01/2009
3656203	A11CC05	02/03/2006
1108899	A11CC05	23/03/2004
25884924	A11CC05	23/07/2008
25903622	A11CC05	23/09/2003
12705229	A11CC05	27/09/2007
1107084	A11CC05	21/03/2002
1108562	A11CC05	29/08/2001
25909802	A11CC05	26/05/2010
12705368	A11CC05	16/10/2008
1108853	A11CC05	12/05/2004
12705280	A11CC05	28/04/2008
2365510	A11CC05	01/07/2003
2072510	A11CC05	24/02/2005
2365565	A11CC05	16/04/2004
2365596	A11CC05	28/11/2003
2365625	A11CC05	27/07/2004
2049566	A11CC05	09/07/2004
249462	A11CC05	17/09/2003
249467	A11CC05	08/10/2003
2089404	A11CC05	13/06/2002
7089584	A11CC05	29/12/2006
4228487	A11CC05	23/09/2005
2863684	A11CC05	07/07/2003
4552132	A11CC05	28/11/2005
6630115	A11CC05	25/10/2006
3055444	A11CC05	19/04/2010
2523737	A11CC05	23/12/2003
2365682	A11CC05	19/11/2004
2357436	A11CC05	13/09/2004
2522743	A11CC05	25/01/2005
2522772	A11CC05	25/04/2005
2526860	A11CC05	09/03/2004
2526747	A11CC05	22/01/2004
16961955	A11CC05	29/12/2003
16961962	A11CC05	03/08/2004
16962173	A11CC05	26/05/2010
14360982	A11CC05	24/06/2009
16831364	A11CC05	28/06/2004
26322858	A11CC05	26/05/2011
26436493	A11CC05	26/08/2010
26383019	A11CC05	20/01/2004
26436708	A11CC05	11/05/2011
26436720	A11CC05	08/05/2009
28073766	A11CC05	22/07/2009
28075875	A11CC05	03/10/2002
26408101	A11CC05	25/08/2003
26436701	A11CC05	14/05/2011
26272108	A11CC05	13/04/2011
28051122	A11CC05	23/05/2011
26383423	A11CC05	24/02/2006
26383425	A11CC05	16/05/2006
26392078	A11CC05	31/03/2008
26272011	A11CC05	21/02/2011
9535857	A11CC05	05/12/2008
17219331	A11CC05	02/04/2007
20073652	A11CC05	27/05/2011
17219249	A11CC05	12/08/2005
17219263	A11CC05	12/01/2007
17218986	A11CC05	23/05/2005
21454031	A11CC05	18/05/2011
19390959	A11CC05	16/03/2011
9535834	A11CC05	28/10/2008
7149053	A11CC05	23/08/2007
7149056	A11CC05	31/08/2007
19393869	A11CC05	29/12/2010
19768247	A11CC05	10/05/2011
19768336	A11CC05	15/03/2011
26383263	A11CC05	28/03/2006
19361195	A11CC05	22/12/2010
20076139	A11CC05	29/09/2010
17219393	A11CC05	25/04/2008
18210166	A11CC05	29/10/2010
26383120	A11CC05	15/10/2003
26382863	A11CC05	13/01/2004
26436652	A11CC05	08/04/2011
26383695	A11CC05	13/11/2007
26391559	A11CC05	18/09/2006
19126524	A11CC05	05/10/2001
26272941	A11CC05	13/04/2011
19364998	A11CC05	31/07/2002
19365009	A11CC05	24/09/2010
26436525	A11CC05	01/02/2010
26436536	A11CC05	03/03/2009
7148916	A11CC05	23/05/2006
16832962	A11CC05	13/05/2008
13041158	A11CC05	24/04/2009
17219212	A11CC05	13/02/2008
15661493	A11CC05	11/05/2010
16832533	A11CC05	19/05/2008
15657779	A11CC05	06/07/2010
16961631	A11CC05	12/02/2004
14508033	A11CC05	27/07/2009
16961823	A11CC05	10/05/2007
13112128	A11CC05	25/02/2010
16961859	A11CC05	12/12/2006
16831960	A11CC05	10/05/2010
15661529	A11CC05	02/07/2010
17219152	A11CC05	27/03/2009
17219158	A11CC05	05/04/2010
17219164	A11CC05	14/10/2010
14281083	A11CC05	08/10/2009
11533840	A11CC05	28/11/2008
16832644	A11CC05	04/01/2007
16823696	A11CC05	27/08/2008
16824016	A11CC05	27/10/2008
16823918	A11CC05	29/08/2008
12653536	A11CC05	24/02/2009
16824032	A11CC05	28/11/2008
13085495	A11CC05	04/06/2009
13085502	A11CC05	13/02/2009
18025561	A11CC05	03/12/2007
16824080	A11CC05	19/04/2004
10824297	A11CC05	21/11/2005
2968002	A11CC05	09/01/2004
2966799	A11CC05	20/07/2004
1908398	A11CC05	10/03/2004
8055952	A11CC05	18/10/2007
8089010	A11CC05	24/06/2008
2967663	A11CC05	04/09/2001
437549	A11CC05	29/04/2004
437437	A11CC05	14/04/2003
1028505	A11CC05	16/12/2002
187572	A11CC05	26/12/2002
436444	A11CC05	18/11/2003
436004	A11CC05	14/12/2000
4742420	A11CC05	10/01/2006
4470990	A11CC05	29/08/2006
4328546	A11CC05	26/10/2005
8214406	A11CC05	24/01/2008
184942	A11CC05	04/02/2003
2966632	A11CC05	12/09/2002
2960514	A11CC05	29/05/2011
12985518	A11CC05	13/10/2009
2966646	A11CC05	10/04/2003
2967837	A11CC05	13/05/2003
437377	A11CC05	11/02/2003
180032	A11CC05	17/07/2003
6012771	A11CC05	02/01/2007
8090461	A11CC05	23/09/2008
435992	A11CC05	23/01/2001
12985074	A11CC05	09/01/2006
28076371	A11CC05	12/04/2011
16823937	A11CC05	08/03/2004
28075157	A11CC05	09/10/2009
28076297	A11CC05	11/08/2009
28075231	A11CC05	20/12/2010
28075115	A11CC05	03/02/2010
28075119	A11CC05	28/11/2007
28076342	A11CC05	17/03/2011
28076346	A11CC05	11/06/2010
28075046	A11CC05	23/08/2006
28076367	A11CC05	28/06/2010
16832916	A11CC05	25/08/2009
26408077	A11CC05	01/09/2008
28075070	A11CC05	27/10/2006
26436468	A11CC05	23/06/2010
16962291	A11CC05	06/07/2006
28076018	A11CC05	09/06/2004
28085405	A11CC05	26/01/2009
17663804	A11CC05	24/08/2007
28073342	A11CC05	30/10/2003
26383668	A11CC05	22/06/2007
28075236	A11CC05	09/08/2010
28075299	A11CC05	07/05/2011
28073842	A11CC05	06/04/2011
28073503	A11CC05	16/11/2006
15289103	A11CC05	10/12/2010
619579	A11CC05	25/09/2001
181481	A11CC05	17/12/2007
620489	A11CC05	04/01/2002
618894	A11CC05	22/03/2004
619671	A11CC05	28/02/2003
437195	A11CC05	01/06/2000
437499	A11CC05	09/03/2004
28077982	A11CC05	07/07/2008
28074494	A11CC05	21/01/2011
28073409	A11CC05	20/10/2004
28073477	A11CC05	18/10/2005
28075905	A11CC05	12/06/2002
28073872	A11CC05	05/05/2011
28073678	A11CC05	12/12/2008
28073428	A11CC05	24/08/2005
7765065	A11CC05	28/05/2007
24660456	A11CC05	20/04/2011
25621098	A11CC05	09/11/2004
24660501	A11CC05	23/05/2011
24745556	A11CC05	23/04/2008
25621011	A11CC05	12/09/2002
24578675	A11CC05	11/06/2008
24578706	A11CC05	04/11/2008
25620511	A11CC05	28/01/2009
25536809	A11CC05	14/04/2008
25615130	A11CC05	28/02/2011
24745622	A11CC05	27/08/2009
25537104	A11CC05	23/05/2008
25537185	A11CC05	28/11/2002
25620672	A11CC05	20/05/2011
25537207	A11CC05	25/11/2008
24745649	A11CC05	03/06/2010
25579160	A11CC05	09/12/2003
24661398	A11CC05	17/12/2007
24485717	A11CC05	28/03/2011
24660738	A11CC05	31/03/2005
24660196	A11CC05	09/08/2007
24660214	A11CC05	22/04/2009
24660225	A11CC05	02/04/2009
25620395	A11CC05	15/09/2006
25737845	A11CC05	20/02/2007
25737862	A11CC05	16/12/2005
17423581	A11CC05	10/02/2011
19963034	A11CC05	23/12/2010
18070034	A11CC05	11/02/2011
619414	A11CC05	19/09/2002
180311	A11CC05	18/06/2004
1043475	A11CC05	14/01/2004
1369983	A11CC05	28/07/2004
1369989	A11CC05	21/10/2004
1908215	A11CC05	27/09/2002
1908228	A11CC05	19/08/2002
1908278	A11CC05	17/06/2003
18198573	A11CC05	04/08/2009
18198609	A11CC05	24/06/2009
1343151	A11CC05	09/05/2000
1908072	A11CC05	27/03/2001
17418596	A11CC05	27/07/2010
17418597	A11CC05	02/10/2010
17423767	A11CC05	29/09/2010
18199400	A11CC05	18/09/2007
19983113	A11CC05	11/03/2011
19983502	A11CC05	02/02/2011
19983515	A11CC05	04/04/2011
18192401	A11CC05	09/01/2007
19279872	A11CC05	06/03/2009
20077471	A11CC05	20/04/2011
18556290	A11CC05	23/03/2010
20331083	A11CC05	08/09/2005
25605154	A11CC05	26/02/2010
18556316	A11CC05	15/11/2010
18556319	A11CC05	27/09/2010
22754851	A11CC05	09/01/2008
19280666	A11CC05	27/05/2003
18198663	A11CC05	01/03/2010
18198694	A11CC05	18/12/2009
17907906	A11CC05	03/03/2011
19280192	A11CC05	26/02/2009
19280205	A11CC05	20/10/2008
20331146	A11CC05	21/01/2009
20095841	A11CC05	17/05/2011
17412370	A11CC05	24/02/2009
19279949	A11CC05	24/05/2007
18199365	A11CC05	10/06/2009
19280057	A11CC05	11/03/2010
19280058	A11CC05	18/03/2003
20330675	A11CC05	05/12/2005
19280079	A11CC05	04/02/2010
21063093	A11CC05	18/05/2011
20330727	A11CC05	17/07/2006
20330930	A11CC05	25/06/2008
20077800	A11CC05	24/06/2010
18198775	A11CC05	22/10/2009
17412394	A11CC05	07/06/2010
17412488	A11CC05	28/12/2010
20077803	A11CC05	31/10/2005
20331035	A11CC05	21/09/2010
20331038	A11CC05	28/07/2009
2967880	A11CC05	15/01/2003
2967888	A11CC05	13/01/2004
6012549	A11CC05	31/08/2006
2968098	A11CC05	10/11/2004
12984397	A11CC05	11/01/2007
2966794	A11CC05	12/05/2005
2966546	A11CC05	20/11/2002
12984422	A11CC05	19/09/2006
12984429	A11CC05	07/02/2008
620398	A11CC05	24/04/2001
6562421	A11CC05	20/09/2007
12984466	A11CC05	22/10/2007
2809156	A11CC05	25/04/2005
8214501	A11CC05	28/02/2008
1993078	A11CC05	21/04/2005
1994071	A11CC05	06/09/2005
12984522	A11CC05	27/11/2008
9063949	A11CC05	28/03/2006
9063977	A11CC05	12/12/2006
6563659	A11CC05	04/07/2007
6563463	A11CC05	21/12/2006
26803455	A11CC05	05/11/2004
26774005	A11CC05	22/09/2009
26795814	A11CC05	28/09/2009
26699936	A11CC05	11/03/2010
26699952	A11CC05	30/05/2011
26774025	A11CC05	21/06/2007
26796008	A11CC05	15/06/2009
26796011	A11CC05	18/04/2011
26832637	A11CC05	04/11/2010
26621741	A11CC05	18/06/2010
26796156	A11CC05	26/04/2011
25729063	A11CC05	28/07/2008
21581480	A11CC05	24/04/2009
21581511	A11CC05	18/06/2009
21581538	A11CC05	20/05/2010
13497746	A11CC05	29/01/2008
13497799	A11CC05	17/09/2007
17157171	A11CC05	10/08/2006
16820326	A11CC05	25/08/2009
12953841	A11CC05	08/09/2009
15808607	A11CC05	04/06/2010
10824670	A11CC05	14/12/2005
16820134	A11CC05	13/07/2010
16820137	A11CC05	20/12/2010
22523394	A11CC05	15/06/2009
22523438	A11CC05	16/05/2011
11541606	A11CC05	17/12/2008
13804287	A11CC05	16/04/2009
12952403	A11CC05	27/06/2005
9064126	A11CC05	14/12/2000
13497609	A11CC05	15/06/2006
13497654	A11CC05	13/12/2006
16820182	A11CC05	17/07/2009
24485599	A11CC05	28/03/2008
15812087	A11CC05	22/09/2006
16085135	A11CC05	15/12/2005
10824694	A11CC05	14/06/2006
13497668	A11CC05	14/12/2007
16820284	A11CC05	09/12/2008
12951527	A11CC05	29/05/2008
12985711	A11CC05	28/02/2005
10825020	A11CC05	27/03/2009
15820281	A11CC05	17/02/2010
15820299	A11CC05	17/12/2009
11749296	A11CC05	16/01/2008
11443475	A11CC05	28/01/2008
16195223	A11CC05	03/07/2009
16198890	A11CC05	03/03/2010
16198913	A11CC05	01/02/2010
16198929	A11CC05	21/09/2010
17160992	A11CC05	09/06/2006
17161004	A11CC05	24/04/2006
9063598	A11CC05	07/03/2006
24661095	A11CC05	11/04/2007
12951467	A11CC05	11/06/2007
12953863	A11CC05	28/09/2009
14528746	A11CC05	22/03/2010
16085193	A11CC05	26/05/2010
16085200	A11CC05	01/09/2010
17160291	A11CC05	10/12/2010
12952640	A11CC05	14/05/2007
24661164	A11CC05	21/03/2005
12952651	A11CC05	28/03/2008
10824862	A11CC05	10/09/2007
12952674	A11CC05	28/07/2008
16820033	A11CC05	06/11/2009
11946341	A11CC05	23/12/2008
12951581	A11CC05	20/10/2008
12952587	A11CC05	18/05/2005
12952747	A11CC05	04/11/2008
12953486	A11CC05	29/09/2005
13497950	A11CC05	11/12/2008
12952223	A11CC05	14/11/2005
12952767	A11CC05	29/12/2008
12952779	A11CC05	22/12/2008
13879041	A11CC05	14/01/2010
21487570	A11CC05	09/09/2010
10824900	A11CC05	23/05/2008
20148492	A11CC05	27/05/2011
26640998	A11CC05	21/09/2010
26641057	A11CC05	15/09/2008
26641496	A11CC05	14/01/2005
13497586	A11CC05	29/09/2005
26641531	A11CC05	24/10/2008
17157102	A11CC05	13/05/2005
26622107	A11CC05	10/10/2007
16819757	A11CC05	21/08/2008
26620275	A11CC05	28/03/2007
26622821	A11CC05	16/10/2008
26622846	A11CC05	15/07/2010
26620306	A11CC05	27/07/2005
26620320	A11CC05	09/12/2009
26620326	A11CC05	17/12/2008
2998199	A11CC05	22/03/2005
17157382	A11CC05	28/01/2009
17157385	A11CC05	06/02/2009
26699604	A11CC05	23/11/2005
26699648	A11CC05	13/11/2007
26640727	A11CC05	30/05/2005
14627538	A11CC05	13/05/2009
14736254	A11CC05	04/05/2010
14528771	A11CC05	15/04/2010
14528786	A11CC05	29/06/2010
26620588	A11CC05	27/10/2008
26699739	A11CC05	15/05/2009
26641801	A11CC05	01/03/2007
26699845	A11CC05	02/12/2002
24485689	A11CC05	13/09/2010
24485512	A11CC05	05/10/2004
23465025	A11CC05	16/05/2011
24594122	A11CC05	20/09/2007
24485582	A11CC05	21/09/2007
24485583	A11CC05	05/11/2007
19966968	A11CC05	26/03/2004
23087708	A11CC05	17/05/2011
19967068	A11CC05	16/05/2011
22874924	A11CC05	09/06/2010
21094060	A11CC05	23/02/2011
20148473	A11CC05	17/09/2010
22876636	A11CC05	06/09/2010
20760970	A11CC05	12/08/2010
20761001	A11CC05	22/03/2011
24660376	A11CC05	16/05/2011
24660425	A11CC05	28/03/2011
24594207	A11CC05	04/04/2008
24661092	A11CC05	09/06/2004
23086691	A11CC05	17/05/2011
24656327	A11CC05	10/10/2002
22547584	A11CC05	02/05/2011
21581476	A11CC05	16/09/2009
22629527	A11CC05	20/05/2011
24594513	A11CC05	30/05/2011
23087202	A11CC05	05/07/2006
22629538	A11CC05	26/05/2011
22874910	A11CC05	10/05/2011
23087245	A11CC05	04/06/2007
24529484	A11CC05	04/05/2011
24598129	A11CC05	27/04/2011
21581410	A11CC05	08/04/2008
24594349	A11CC05	05/06/2009
26933980	A11CC05	16/05/2005
27026964	A11CC05	13/06/2007
27026991	A11CC05	05/10/2006
26943189	A11CC05	03/02/2010
26943034	A11CC05	10/05/2006
26943049	A11CC05	02/04/2007
26886481	A11CC05	20/08/2007
26886489	A11CC05	16/06/2008
26944377	A11CC05	05/03/2008
26910665	A11CC05	21/04/2008
26961000	A11CC05	27/10/2003
26961144	A11CC05	23/12/2010
26961183	A11CC05	13/12/2001
26901469	A11CC05	25/05/2011
26901340	A11CC05	05/03/2008
26943716	A11CC05	24/07/2007
26943767	A11CC05	06/02/2003
26944305	A11CC05	22/09/2003
26944310	A11CC05	02/06/2010
26943794	A11CC05	18/09/2002
26753374	A11CC05	12/01/2009
26728428	A11CC05	28/04/2008
26901736	A11CC05	27/06/2005
26879739	A11CC05	06/05/2010
26774920	A11CC05	26/05/2011
26727596	A11CC05	07/08/2008
26726454	A11CC05	17/08/2006
26754178	A11CC05	27/12/2007
26785327	A11CC05	19/02/2008
26753928	A11CC05	14/04/2008
26754184	A11CC05	12/02/2009
26715824	A11CC05	20/02/2008
26726560	A11CC05	03/11/2008
26754518	A11CC05	29/10/2004
26754258	A11CC05	20/07/2007
26753485	A11CC05	25/10/2007
26883590	A11CC05	19/10/2005
26759540	A11CC05	20/07/2007
26753632	A11CC05	26/04/2006
26726775	A11CC05	06/07/2010
26753772	A11CC05	05/11/2010
26883820	A11CC05	16/11/2009
26784787	A11CC05	08/05/2008
26728263	A11CC05	10/01/2003
26728276	A11CC05	07/08/2003
26726613	A11CC05	14/09/2009
26883904	A11CC05	18/02/2004
26726633	A11CC05	31/10/2003
26785410	A11CC05	02/03/2007
26883943	A11CC05	19/01/2005
26754307	A11CC05	18/01/2011
26725743	A11CC05	02/03/2009
26883960	A11CC05	20/10/2008
26754414	A11CC05	24/01/2006
26725945	A11CC05	11/11/2010
26882624	A11CC05	24/02/2009
26880512	A11CC05	11/06/2003
26868970	A11CC05	14/01/2009
26869072	A11CC05	27/12/2006
26879959	A11CC05	31/10/2005
26880178	A11CC05	21/05/2009
26880205	A11CC05	27/05/2004
26869185	A11CC05	19/10/2009
26883210	A11CC05	08/02/2008
26879837	A11CC05	19/09/2005
26880220	A11CC05	30/10/2007
26880051	A11CC05	27/04/2009
26880069	A11CC05	15/04/2005
26880072	A11CC05	18/08/2010
26880285	A11CC05	11/01/2007
26880289	A11CC05	04/02/2004
26853342	A11CC05	04/05/2010
26879789	A11CC05	02/08/2004
26849485	A11CC05	26/01/2011
26883450	A11CC05	05/05/2009
26886743	A11CC05	21/02/2007
26849802	A11CC05	12/05/2004
26886801	A11CC05	29/03/2010
26880467	A11CC05	09/09/2008
26943502	A11CC05	03/05/2007
26886364	A11CC05	25/02/2010
26879702	A11CC05	15/09/2008
26849622	A11CC05	30/07/2007
26943579	A11CC05	01/03/2011
26883508	A11CC05	28/07/2003
26901577	A11CC05	23/10/2009
26849264	A11CC05	08/04/2008
26882874	A11CC05	04/03/2011
26880615	A11CC05	23/07/2009
26960922	A11CC05	08/01/2010
26785070	A11CC05	10/11/2009
26759600	A11CC05	07/04/2011
26832761	A11CC05	27/11/2006
26832563	A11CC05	31/12/2009
26775207	A11CC05	29/12/2007
26727572	A11CC05	14/10/2003
26759511	A11CC05	19/06/2008
26850227	A11CC05	06/05/2011
26803581	A11CC05	14/02/2008
26727258	A11CC05	09/05/2003
26726147	A11CC05	31/03/2005
26727073	A11CC05	08/05/2006
26784984	A11CC05	09/05/2008
26726186	A11CC05	31/08/2009
26803439	A11CC05	25/04/2006
26785401	A11CC05	12/09/2006
26775692	A11CC05	19/10/2001
26850367	A11CC05	31/05/2004
26753114	A11CC05	15/03/2004
26754276	A11CC05	14/01/2011
26753245	A11CC05	13/07/2004
26852978	A11CC05	19/05/2008
26726321	A11CC05	07/05/2004
26753798	A11CC05	09/01/2006
26753808	A11CC05	17/07/2007
26832939	A11CC05	10/12/2007
26832963	A11CC05	22/09/2008
26853239	A11CC05	26/08/2010
26853249	A11CC05	26/03/2009
26853253	A11CC05	10/03/2008
26725843	A11CC05	05/07/2007
26726029	A11CC05	26/08/2010
26803704	A11CC05	01/06/2009
26775366	A11CC05	26/06/2006
26754017	A11CC05	10/04/2006
26726090	A11CC05	10/10/2007
26983022	A11CC05	02/07/2010
27080822	A11CC05	11/07/2008
27082033	A11CC05	06/06/2008
26944586	A11CC05	15/10/2002
26979358	A11CC05	15/10/2007
26969114	A11CC05	25/05/2009
27082488	A11CC05	04/06/2009
26969246	A11CC05	30/10/2006
27082080	A11CC05	27/05/2009
26969129	A11CC05	21/09/2009
26979441	A11CC05	31/03/2011
26982514	A11CC05	19/09/2008
26979335	A11CC05	02/07/2007
27030954	A11CC05	17/02/2005
27075563	A11CC05	24/08/2009
27047581	A11CC05	24/03/2006
26944531	A11CC05	11/10/2004
26972976	A11CC05	16/04/2010
26968464	A11CC05	26/09/2003
26982771	A11CC05	22/10/2007
26982772	A11CC05	29/01/2007
26968669	A11CC05	25/11/2003
27048515	A11CC05	08/05/2009
26960443	A11CC05	13/05/2004
27103273	A11CC05	04/10/2004
27108451	A11CC05	16/11/2009
27103339	A11CC05	15/10/2003
27082224	A11CC05	15/07/2008
27134275	A11CC05	15/07/2009
27134305	A11CC05	27/11/2009
27134310	A11CC05	16/02/2004
27134324	A11CC05	21/01/2010
27103558	A11CC05	21/01/2003
27134502	A11CC05	31/03/2004
27108228	A11CC05	26/11/2009
27108276	A11CC05	04/06/2007
27108278	A11CC05	06/06/2007
27107358	A11CC05	31/12/2007
27103477	A11CC05	28/01/2009
27063686	A11CC05	14/03/2011
27130374	A11CC05	10/08/2006
27103381	A11CC05	03/05/2011
27103494	A11CC05	09/03/2011
27103515	A11CC05	15/07/2004
27021728	A11CC05	17/03/2004
27103537	A11CC05	24/01/2007
27082135	A11CC05	08/02/2006
27108006	A11CC05	29/04/2008
27108157	A11CC05	03/11/2003
27134245	A11CC05	07/11/2006
27103236	A11CC05	27/05/2008
27107879	A11CC05	05/03/2008
27048924	A11CC05	21/10/2010
27048716	A11CC05	28/01/2010
27030054	A11CC05	12/05/2005
27047744	A11CC05	24/04/2008
27134721	A11CC05	16/06/2003
27047429	A11CC05	26/12/2005
27064178	A11CC05	09/02/2005
27108090	A11CC05	18/01/2011
27108115	A11CC05	15/07/2004
27048568	A11CC05	21/03/2011
27048430	A11CC05	19/02/2004
27048458	A11CC05	19/10/2004
27061759	A11CC05	06/03/2006
27048618	A11CC05	03/09/2009
27103593	A11CC05	22/12/2008
27080913	A11CC05	21/09/2006
27048626	A11CC05	16/12/2010
27053157	A11CC05	15/09/2003
27053176	A11CC05	16/05/2007
27075523	A11CC05	08/06/2005
27053373	A11CC05	17/11/2005
27048101	A11CC05	22/01/2010
27048879	A11CC05	27/06/2005
27048064	A11CC05	29/01/2010
27047483	A11CC05	30/11/2007
27048121	A11CC05	30/03/2010
27075974	A11CC05	14/01/2008
27048687	A11CC05	27/03/2008
27047536	A11CC05	05/01/2011
27047823	A11CC05	13/05/2011
27063859	A11CC05	17/03/2005
27048705	A11CC05	19/04/2011
27048917	A11CC05	23/12/2009
27053590	A11CC05	06/04/2006
27027501	A11CC05	17/03/2005
27000830	A11CC05	04/01/2010
27021301	A11CC05	18/11/2004
27021322	A11CC05	20/09/2006
27030545	A11CC05	29/10/2004
26982178	A11CC05	17/12/2004
27002391	A11CC05	18/05/2011
27021541	A11CC05	16/01/2007
26979025	A11CC05	20/06/2005
27012009	A11CC05	06/09/2007
27012024	A11CC05	14/08/2007
27030615	A11CC05	10/02/2009
27030628	A11CC05	23/05/2011
27003201	A11CC05	30/08/2004
27021756	A11CC05	10/03/2008
27021767	A11CC05	08/08/2006
27027098	A11CC05	19/04/2005
27027100	A11CC05	18/02/2009
27002859	A11CC05	24/07/2006
27021411	A11CC05	11/05/2004
27027386	A11CC05	21/09/2006
27027271	A11CC05	09/02/2010
27021605	A11CC05	23/01/2009
27027700	A11CC05	15/02/2005
27001487	A11CC05	27/04/2009
27027595	A11CC05	21/01/2005
27001937	A11CC05	26/12/2005
27021920	A11CC05	17/01/2011
27027177	A11CC05	23/11/2007
27000993	A11CC05	07/01/2008
27002585	A11CC05	14/01/2010
27011969	A11CC05	29/10/2009
27001521	A11CC05	30/03/2010
26983273	A11CC05	27/02/2007
26983284	A11CC05	16/06/2010
26978955	A11CC05	03/05/2011
27001964	A11CC05	15/03/2011
27027458	A11CC05	18/04/2011
27027465	A11CC05	14/11/2006
27327343	A11CC05	09/11/2005
27221240	A11CC05	03/05/2007
27388377	A11CC05	17/06/2008
27346535	A11CC05	13/02/2006
27213014	A11CC05	25/10/2006
27327876	A11CC05	03/06/2003
27327895	A11CC05	23/07/2004
27328085	A11CC05	23/10/2006
27347214	A11CC05	04/04/2006
27388344	A11CC05	15/02/2011
27388363	A11CC05	24/01/2008
27357217	A11CC05	05/07/2006
27357343	A11CC05	15/02/2010
27357376	A11CC05	18/04/2005
27162490	A11CC05	29/10/2007
27390585	A11CC05	13/01/2011
27295722	A11CC05	20/07/2007
27367590	A11CC05	11/11/2010
27387248	A11CC05	11/05/2006
27160989	A11CC05	28/11/2007
27327948	A11CC05	05/06/2003
27221319	A11CC05	29/11/2005
27131300	A11CC05	24/08/2004
27390684	A11CC05	22/02/2011
27357453	A11CC05	29/12/2008
27387977	A11CC05	08/11/2007
27221674	A11CC05	07/06/2005
27346085	A11CC05	23/03/2009
27281662	A11CC05	20/04/2009
27368103	A11CC05	23/11/2009
27231772	A11CC05	13/12/2006
27235008	A11CC05	18/09/2007
27307456	A11CC05	08/11/2007
27357632	A11CC05	24/03/2009
27222570	A11CC05	16/04/2007
27232670	A11CC05	23/02/2005
27295794	A11CC05	21/12/2005
27222204	A11CC05	09/01/2008
27295832	A11CC05	21/08/2003
27306850	A11CC05	10/12/2010
27296394	A11CC05	18/04/2011
27518047	A11CC05	17/12/2009
27295852	A11CC05	19/09/2003
27356824	A11CC05	31/08/2010
27387574	A11CC05	29/09/2008
27387575	A11CC05	22/09/2008
27235809	A11CC05	23/01/2006
27212701	A11CC05	26/12/2008
27212729	A11CC05	08/08/2008
27221183	A11CC05	30/12/2008
27196362	A11CC05	22/02/2007
27295991	A11CC05	10/11/2005
27307551	A11CC05	06/10/2006
27296349	A11CC05	20/07/2004
27296369	A11CC05	22/04/2004
27319443	A11CC05	23/11/2006
27319635	A11CC05	25/06/2010
27319656	A11CC05	26/03/2003
27296490	A11CC05	27/06/2008
27319481	A11CC05	08/04/2003
27295913	A11CC05	25/08/2006
27295928	A11CC05	29/01/2003
27387297	A11CC05	08/04/2011
27319537	A11CC05	17/09/2007
27319753	A11CC05	01/02/2010
27346014	A11CC05	15/12/2009
27346633	A11CC05	11/10/2007
27318821	A11CC05	07/10/2010
27357542	A11CC05	14/08/2007
27357691	A11CC05	07/08/2009
27387854	A11CC05	26/02/2010
27346451	A11CC05	10/01/2008
27356759	A11CC05	28/01/2010
27307991	A11CC05	12/12/2008
27322837	A11CC05	27/01/2010
27322996	A11CC05	18/04/2007
27308015	A11CC05	14/01/2003
27322477	A11CC05	09/05/2008
27295884	A11CC05	10/05/2006
27307169	A11CC05	18/12/2009
27319000	A11CC05	29/04/2011
27327858	A11CC05	22/07/2003
27221777	A11CC05	21/08/2006
27306646	A11CC05	01/07/2008
27356929	A11CC05	15/07/2008
27386894	A11CC05	05/10/2005
27221923	A11CC05	02/03/2005
26968902	A11CC05	15/05/2006
26968905	A11CC05	30/05/2007
26968760	A11CC05	18/05/2009
26982976	A11CC05	07/05/2004
27232386	A11CC05	08/01/2007
26968816	A11CC05	09/02/2009
26968859	A11CC05	16/10/2008
27196632	A11CC05	06/04/2006
27002905	A11CC05	26/10/2009
27222310	A11CC05	27/11/2009
27286684	A11CC05	31/01/2005
26979514	A11CC05	19/12/2002
26942878	A11CC05	16/01/2009
27212879	A11CC05	16/11/2006
27235467	A11CC05	13/04/2007
27235469	A11CC05	01/10/2008
26960683	A11CC05	16/10/2006
26979610	A11CC05	15/02/2010
26960523	A11CC05	03/05/2006
26960544	A11CC05	21/02/2007
26960545	A11CC05	17/09/2007
26960579	A11CC05	04/03/2009
27196741	A11CC05	17/05/2011
26968704	A11CC05	05/12/2008
27222425	A11CC05	25/07/2007
27001265	A11CC05	10/08/2005
27235782	A11CC05	02/01/2008
27617213	A11CC05	26/05/2011
27604346	A11CC05	22/09/2010
27575771	A11CC05	22/12/2005
27617597	A11CC05	19/05/2011
27651224	A11CC05	21/10/2009
27479101	A11CC05	26/09/2005
27575307	A11CC05	25/01/2010
27617001	A11CC05	13/05/2010
27617024	A11CC05	07/08/2007
27651171	A11CC05	01/12/2010
27616106	A11CC05	10/05/2011
27618071	A11CC05	30/10/2007
27617677	A11CC05	18/07/2008
27615842	A11CC05	30/12/2010
27617388	A11CC05	20/10/2008
27616798	A11CC05	04/08/2010
27590116	A11CC05	03/05/2010
27590877	A11CC05	11/09/2008
27590160	A11CC05	27/06/2008
27651125	A11CC05	22/12/2003
27765822	A11CC05	19/04/2011
27739364	A11CC05	14/01/2008
27604275	A11CC05	26/04/2011
27604284	A11CC05	18/08/2008
27591057	A11CC05	21/05/2001
27574917	A11CC05	13/07/2010
27574941	A11CC05	12/06/2008
27651305	A11CC05	09/01/2009
27484464	A11CC05	29/10/2010
27484386	A11CC05	15/11/2010
27478956	A11CC05	07/09/2005
27451933	A11CC05	05/06/2006
27450407	A11CC05	16/10/2006
27451920	A11CC05	08/03/2006
27450680	A11CC05	17/05/2004
27648963	A11CC05	29/05/2007
27649046	A11CC05	08/08/2008
27484221	A11CC05	31/07/2007
27451832	A11CC05	03/09/2010
27569159	A11CC05	14/03/2008
27569559	A11CC05	13/09/2006
27569326	A11CC05	28/04/2009
27569334	A11CC05	21/02/2008
27569588	A11CC05	11/01/2007
27650462	A11CC05	09/03/2007
27547802	A11CC05	01/02/2010
27616241	A11CC05	31/03/2011
27568903	A11CC05	05/10/2009
27569114	A11CC05	06/02/2009
27570415	A11CC05	13/09/2004
27759720	A11CC05	30/09/2005
27569742	A11CC05	13/05/2009
27618265	A11CC05	13/05/2010
27568690	A11CC05	26/03/2007
27570296	A11CC05	09/03/2007
27547142	A11CC05	28/07/2006
27617692	A11CC05	21/11/2006
27570041	A11CC05	21/02/2008
27570473	A11CC05	12/05/2006
27547200	A11CC05	19/06/2009
27570068	A11CC05	14/03/2011
27568937	A11CC05	14/03/2011
27547514	A11CC05	15/04/2004
27547537	A11CC05	06/09/2005
27569737	A11CC05	09/02/2010
27570342	A11CC05	17/06/2008
27558855	A11CC05	05/07/2007
27570384	A11CC05	26/11/2010
27570004	A11CC05	19/04/2011
27547901	A11CC05	18/04/2007
27294482	A11CC05	28/04/2008
27131238	A11CC05	26/04/2007
27130626	A11CC05	08/02/2011
27134583	A11CC05	07/05/2008
27134586	A11CC05	18/01/2007
27162204	A11CC05	11/06/2010
27162223	A11CC05	21/04/2008
27294843	A11CC05	17/03/2009
27145639	A11CC05	01/06/2009
27235595	A11CC05	07/01/2009
27294753	A11CC05	23/12/2008
27145481	A11CC05	23/02/2009
27235702	A11CC05	01/12/2009
27235708	A11CC05	28/10/2008
27161370	A11CC05	07/05/2009
27161376	A11CC05	17/06/2010
27235616	A11CC05	01/09/2004
27146121	A11CC05	24/11/2009
27145240	A11CC05	22/11/2004
27146134	A11CC05	24/04/2006
27161176	A11CC05	27/01/2011
27232266	A11CC05	30/04/2007
27295071	A11CC05	13/05/2005
27161111	A11CC05	23/01/2007
27134554	A11CC05	12/05/2011
27452036	A11CC05	28/03/2006
27145797	A11CC05	17/04/2009
27145826	A11CC05	15/02/2011
27295411	A11CC05	20/06/2008
27161354	A11CC05	22/02/2005
27145982	A11CC05	16/12/2004
27145994	A11CC05	01/12/2006
27146005	A11CC05	30/03/2006
27146052	A11CC05	19/05/2004
27232527	A11CC05	27/07/2007
27161797	A11CC05	05/01/2011
25621108	A11CC05	11/03/2005
27387035	A11CC05	17/05/2011
27800664	A11CC05	27/06/2008
27306626	A11CC05	16/05/2006
27689536	A11CC05	14/12/2006
27604464	A11CC05	27/08/2007
27615543	A11CC05	20/04/2011
26969021	A11CC05	11/01/2006
23087622	A11CC05	21/12/2010
24745593	A11CC05	12/05/2009
27689115	A11CC05	10/06/2008
26725920	A11CC05	05/01/2009
27776864	A11CC05	15/03/2006
27082335	A11CC05	08/05/2006
27452007	A11CC05	09/12/2008
26622330	A11CC05	05/04/2011
26754516	A11CC05	17/08/2009
26795423	A11CC05	13/01/2011
16085199	A11CC05	09/02/2010
27108137	A11CC05	07/10/2009
618924	A11CC05	05/10/2004
26944232	A11CC05	02/02/2011
27777460	A11CC05	31/05/2005
27131477	A11CC05	20/04/2004
23087147	A11CC05	10/04/2006
27030561	A11CC05	17/11/2003
26968518	A11CC05	17/01/2007
27450921	A11CC05	08/10/2007
27678863	A11CC05	05/01/2011
27777033	A11CC05	17/06/2004
27570138	A11CC05	10/01/2011
27451039	A11CC05	09/08/2007
27678332	A11CC05	16/11/2001
27678840	A11CC05	28/07/2008
27541302	A11CC05	19/10/2005
27513877	A11CC05	02/09/2010
27678271	A11CC05	11/11/2004
27678992	A11CC05	07/04/2008
27679001	A11CC05	25/01/2011
27672714	A11CC05	08/11/2005
27678951	A11CC05	19/05/2006
27767169	A11CC05	31/01/2003
27478546	A11CC05	23/02/2010
27478547	A11CC05	05/07/2010
27678367	A11CC05	23/07/2003
27678368	A11CC05	07/06/2004
27777355	A11CC05	29/04/2011
27319055	A11CC05	19/02/2009
27678444	A11CC05	07/08/2003
27767142	A11CC05	20/04/2005
27678491	A11CC05	05/09/2005
26775396	A11CC05	28/08/2007
27570280	A11CC05	12/04/2011
27570288	A11CC05	20/04/2005
26775834	A11CC05	30/11/2004
27161883	A11CC05	15/12/2008
27776837	A11CC05	29/05/2007
27777007	A11CC05	21/04/2010
27767099	A11CC05	15/04/2011
27766470	A11CC05	03/11/2008
26795838	A11CC05	29/09/2009
27777283	A11CC05	22/10/2007
27776504	A11CC05	02/09/2003
26883311	A11CC05	09/09/2009
27021569	A11CC05	12/02/2004
27678214	A11CC05	31/01/2011
27688385	A11CC05	27/08/2003
27688903	A11CC05	25/09/2003
27672522	A11CC05	16/03/2004
27672563	A11CC05	06/04/2011
27688187	A11CC05	04/04/2011
27688190	A11CC05	21/03/2011
27082259	A11CC05	22/02/2006
26727917	A11CC05	16/09/2005
26726270	A11CC05	04/02/2008
26726341	A11CC05	25/06/2008
27689255	A11CC05	12/05/2010
27688247	A11CC05	16/06/2009
27367916	A11CC05	25/05/2006
26943131	A11CC05	16/06/2005
27131034	A11CC05	14/09/2007
27162577	A11CC05	15/04/2009
27649428	A11CC05	29/08/2008
27307886	A11CC05	28/02/2003
27446300	A11CC05	18/01/2010
27517142	A11CC05	02/08/2005
27649889	A11CC05	09/01/2006
27650966	A11CC05	30/05/2005
27575437	A11CC05	23/08/2010
27451812	A11CC05	20/10/2006
27574984	A11CC05	11/01/2010
27450820	A11CC05	16/02/2006
27450937	A11CC05	23/02/2007
27540802	A11CC05	21/11/2005
27590359	A11CC05	14/05/2007
27451554	A11CC05	11/12/2003
27451605	A11CC05	17/05/2010
27541129	A11CC05	21/07/2005
27451274	A11CC05	15/04/2009
27617503	A11CC05	09/08/2006
27478713	A11CC05	05/03/2009
27451490	A11CC05	17/10/2005
27615803	A11CC05	08/02/2010
27446489	A11CC05	07/11/2005
27541499	A11CC05	03/11/2009
27031016	A11CC05	20/05/2011
27021584	A11CC05	04/04/2011
26620681	A11CC05	22/07/2003
27295270	A11CC05	04/05/2009
27346632	A11CC05	18/07/2008
27802903	A11CC05	08/11/2005
2809166	A11CC05	14/09/2005
10824991	A11CC05	17/06/2008
26853156	A11CC05	19/06/2009
27802222	A11CC05	18/11/2009
26623184	A11CC05	05/11/2003
27318723	A11CC05	04/06/2008
27776742	A11CC05	04/08/2009
27446455	A11CC05	11/03/2009
11443747	A11CC05	24/09/2008
10824741	A11CC05	30/06/2003
19280206	A11CC05	23/02/2009
2998206	A11CC05	17/05/2005
6012728	A11CC05	28/08/2006
15820302	A11CC05	17/07/2009
9063981	A11CC05	16/04/2007
10824950	A11CC05	03/01/2008
27196928	A11CC05	29/10/2008
27307298	A11CC05	25/09/2008
27319324	A11CC05	25/04/2008
27048619	A11CC05	01/09/2009
27766217	A11CC05	22/02/2010
26753072	A11CC05	04/01/2010
27617860	A11CC05	17/06/2010
27689311	A11CC05	03/03/2005
27689312	A11CC05	17/09/2003
27689326	A11CC05	07/08/2006
27803265	A11CC05	11/06/2009
27800781	A11CC05	16/06/2004
27677462	A11CC05	29/06/2005
27807774	A11CC05	01/03/2011
27800787	A11CC05	26/08/2009
27689453	A11CC05	10/03/2009
27803013	A11CC05	27/03/2003
27689299	A11CC05	27/09/2002
27735962	A11CC05	05/01/2007
27802651	A11CC05	23/04/2004
27802556	A11CC05	11/02/2009
27672311	A11CC05	11/09/2003
27665141	A11CC05	11/10/2001
27689424	A11CC05	06/04/2009
27693611	A11CC05	11/12/2008
27765982	A11CC05	14/10/2009
27689645	A11CC05	03/01/2008
27808311	A11CC05	15/01/2008
18192670	A11CC05	23/05/2005
27800778	A11CC05	03/01/2008
26727867	A11CC05	01/10/2010
26969095	A11CC05	14/01/2008
26727460	A11CC05	20/05/2011
27688461	A11CC05	30/03/2011
27103226	A11CC05	12/01/2005
18951056	A11CC05	31/05/2010
27484343	A11CC05	30/04/2010
27479159	A11CC05	04/09/2006
27484270	A11CC05	18/06/2008
27211765	A11CC05	21/09/2007
17160983	A11CC05	30/06/2006
26754055	A11CC05	02/10/2006
27131143	A11CC05	01/09/2003
27047731	A11CC05	21/06/2010
27451921	A11CC05	13/09/2005
437061	A11CC05	12/01/1999
18192604	A11CC05	07/08/2006
27618141	A11CC05	28/07/2010
27547937	A11CC05	30/05/2011
27053758	A11CC05	24/05/2010
15812136	A11CC05	12/01/2010
12954084	A11CC05	10/02/2009
26832989	A11CC05	25/01/2008
26849382	A11CC05	26/01/2010
19966985	A11CC05	12/01/2011
27808234	A11CC05	29/07/2008
27678355	A11CC05	17/11/2008
26754466	A11CC05	13/02/2008
27235375	A11CC05	21/07/2010
27802715	A11CC05	12/12/2005
27648962	A11CC05	01/09/2004
27759944	A11CC05	20/02/2007
27759951	A11CC05	28/05/2010
27318858	A11CC05	03/02/2005
27678671	A11CC05	12/06/2009
13497550	A11CC05	26/01/2005
27047804	A11CC05	16/10/2008
27766849	A11CC05	05/09/2003
27346635	A11CC05	15/06/2009
27687968	A11CC05	27/11/2008
26979256	A11CC05	28/12/2010
27765674	A11CC05	10/09/2007
27030758	A11CC05	09/05/2011
27776761	A11CC05	23/01/2009
27347222	A11CC05	28/05/2004
26968797	A11CC05	20/11/2008
27802966	A11CC05	23/08/2005
27766468	A11CC05	15/06/2010
27027072	A11CC05	16/03/2007
33039125	A11CC05	11/09/2006
33135137	A11CC05	29/04/2010
33117897	A11CC05	21/06/2007
33136370	A11CC05	10/03/2011
33078559	A11CC05	24/07/2006
33076691	A11CC05	28/04/2005
33129148	A11CC05	19/12/2008
33136975	A11CC05	27/04/2011
33133744	A11CC05	05/05/2010
33135680	A11CC05	13/09/2010
33137580	A11CC05	31/05/2011
33134765	A11CC05	27/04/2010
33132821	A11CC05	20/08/2009
33128769	A11CC05	25/09/2008
33070783	A11CC05	14/03/2002
33115825	A11CC05	01/12/2004
33135433	A11CC05	19/05/2010
33028018	A11CC05	27/05/2008
33133230	A11CC05	05/10/2009
33064052	A11CC05	23/08/2001
33007386	A11CC05	20/01/2006
33125033	A11CC05	17/10/2007
33061545	A11CC05	18/01/2002
33076049	A11CC05	18/11/2002
33136782	A11CC05	13/05/2011
33136870	A11CC05	04/05/2011
33126891	A11CC05	23/01/2009
33124982	A11CC05	16/01/2009
24594430	A11CC05	15/10/2010
26879958	A11CC05	28/07/2006
10767267	A11CC05	10/12/2008
26943592	A11CC05	21/06/2004
1043506	A11CC05	23/03/2004
27678827	A11CC05	18/05/2006
27604427	A11CC05	02/03/2010
465078	A11CC05	05/09/2001
26727611	A11CC05	20/02/2008
20330777	A11CC05	27/11/2006
27808378	A11CC05	30/06/2008
25738030	A11CC05	28/03/2007
2997907	A11CC05	10/12/2004
27759697	A11CC05	08/10/2009
20095810	A11CC05	01/02/2011
437585	A11CC05	17/11/2004
11443754	A11CC05	01/08/2008
436222	A11CC05	15/11/2001
2967605	A11CC05	16/05/2001
27801842	A11CC05	29/06/2006
18105381	A11CC05	17/01/2005
13497566	A11CC05	30/05/2005
27002206	A11CC05	20/06/2008
27801961	A11CC05	17/07/2007
2966560	A11CC05	06/02/2003
27802006	A11CC05	28/12/2006
13757021	A11CC05	11/07/2007
2967985	A11CC05	17/03/2004
27807346	A11CC05	07/09/2004
17157300	A11CC05	13/07/2009
24661191	A11CC05	09/02/2006
27999856	A11CC05	07/04/2005
21014590	A11CC05	23/05/2011
23274777	A11CC05	12/05/2011
27994744	A11CC05	30/06/2009
33249278	A11CC05	01/07/2009
16133593	A11CC05	05/04/2006
27994570	A11CC05	07/06/2010
27988885	A11CC05	02/02/2010
16648026	A11CC05	15/12/2009
33137951	A11CC05	28/04/2011
27872711	A11CC05	19/10/2005
27859346	A11CC05	15/02/2011
16646449	A11CC05	28/02/2008
16647181	A11CC05	15/04/2003
33302042	A11CC05	09/04/2010
33251220	A11CC05	17/06/2010
20997022	A11CC05	11/01/2011
16645939	A11CC05	15/05/2007
27936350	A11CC05	25/06/2010
33316391	A11CC05	31/03/2008
33316553	A11CC05	31/01/2007
27995271	A11CC05	27/04/2010
27994059	A11CC05	27/04/2007
27994177	A11CC05	13/05/2011
16647769	A11CC05	18/02/2008
16171779	A11CC05	19/02/2007
27874229	A11CC05	02/11/2010
33295085	A11CC05	09/03/2006
23360700	A11CC05	19/02/2009
16646463	A11CC05	06/06/2008
33028726	A11CC05	07/03/2007
33135111	A11CC05	15/04/2010
33132739	A11CC05	26/06/2009
33039152	A11CC05	09/11/2006
33136019	A11CC05	24/09/2010
33135909	A11CC05	29/09/2010
33030500	A11CC05	05/07/2002
33135283	A11CC05	30/08/2010
33103221	A11CC05	08/04/2002
33007029	A11CC05	06/11/2007
33037158	A11CC05	28/05/2004
33137433	A11CC05	13/04/2011
33091308	A11CC05	10/10/2005
16646444	A11CC05	07/02/2008
18730630	A11CC05	02/03/2011
27872780	A11CC05	15/05/2003
16134680	A11CC05	09/10/2009
23360636	A11CC05	16/05/2008
28035025	A11CC05	31/05/2005
23360399	A11CC05	05/08/2010
27999217	A11CC05	23/05/2011
27999273	A11CC05	19/02/2008
27999175	A11CC05	16/05/2008
33251008	A11CC05	18/07/2005
24466463	A11CC05	25/04/2011
16679673	A11CC05	10/11/2009
16174230	A11CC05	24/02/2009
28003393	A11CC05	04/03/2010
16645912	A11CC05	23/09/2004
16646009	A11CC05	22/03/2006
27995555	A11CC05	02/04/2008
27904276	A11CC05	30/05/2011
24465854	A11CC05	04/01/2011
23184467	A11CC05	12/05/2011
23360965	A11CC05	14/11/2007
27997212	A11CC05	20/07/2010
16647930	A11CC05	16/03/2009
16647755	A11CC05	25/03/2009
33295568	A11CC05	28/08/2006
28007587	A11CC05	14/07/2009
20954926	A11CC05	26/05/2011
14187882	A11CC05	26/05/2011
33279492	A11CC05	10/11/2009
16680776	A11CC05	17/12/2010
16172613	A11CC05	02/02/2009
16174048	A11CC05	30/05/2002
33264643	A11CC05	07/02/2011
33250756	A11CC05	17/03/2009
28003440	A11CC05	28/04/2011
16629078	A11CC05	09/09/2008
33317332	A11CC05	26/04/2010
16134782	A11CC05	21/07/2010
28003252	A11CC05	19/03/2010
16173716	A11CC05	19/04/2002
16651488	A11CC05	15/03/2007
16679731	A11CC05	07/01/2009
16680302	A11CC05	08/01/2009
28004706	A11CC05	30/06/2009
16652466	A11CC05	19/04/2010
16651428	A11CC05	29/06/2007
20955194	A11CC05	03/05/2011
27988190	A11CC05	04/05/2011
27996547	A11CC05	20/09/2010
27998592	A11CC05	07/06/2005
28010048	A11CC05	03/08/2010
27998885	A11CC05	07/10/2005
28004418	A11CC05	04/10/2010
27996397	A11CC05	01/09/2010
16133833	A11CC05	21/12/2001
33250285	A11CC05	15/11/2004
27846189	A11CC05	04/12/2007
23361209	A11CC05	08/04/2003
27995005	A11CC05	09/11/2009
16133260	A11CC05	17/07/2001
16646056	A11CC05	02/12/2008
16646080	A11CC05	09/09/2005
23361248	A11CC05	23/10/2008
28004880	A11CC05	26/01/2006
33250477	A11CC05	26/03/2009
27999910	A11CC05	15/06/2007
16627939	A11CC05	17/11/2010
16679741	A11CC05	03/07/2006
28034806	A11CC05	23/10/2006
16174291	A11CC05	21/04/2009
33250024	A11CC05	24/02/2011
16680317	A11CC05	29/12/2008
16657725	A11CC05	07/04/2004
16645941	A11CC05	08/06/2004
33294960	A11CC05	04/12/2009
27957670	A11CC05	11/05/2011
28034863	A11CC05	13/01/2009
23361045	A11CC05	25/09/2008
33316264	A11CC05	25/04/2011
16133223	A11CC05	06/11/2002
27994578	A11CC05	29/04/2010
16174177	A11CC05	29/05/2009
27989256	A11CC05	12/05/2011
16629237	A11CC05	13/12/2006
23272941	A11CC05	28/04/2011
16680141	A11CC05	12/04/2004
27873188	A11CC05	28/04/2008
16646490	A11CC05	05/05/2009
27901764	A11CC05	08/01/2004
33213110	A11CC05	02/03/2011
27845565	A11CC05	11/11/2010
33249450	A11CC05	23/12/2010
16171684	A11CC05	28/08/2001
28007253	A11CC05	24/11/2008
28004253	A11CC05	15/06/2010
28001237	A11CC05	06/04/2011
23360976	A11CC05	18/07/2008
16652191	A11CC05	08/05/2007
28003257	A11CC05	28/09/2009
16652153	A11CC05	02/11/2006
27999146	A11CC05	22/11/2007
23361199	A11CC05	01/07/2009
27957472	A11CC05	13/09/2010
27998947	A11CC05	17/11/2010
16172391	A11CC05	19/05/2003
16647269	A11CC05	30/08/2004
28004246	A11CC05	04/12/2009
16680316	A11CC05	16/01/2009
16648067	A11CC05	09/03/2009
16679672	A11CC05	17/12/2009
21012394	A11CC05	27/04/2011
18753740	A11CC05	14/11/2007
23204645	A11CC05	24/05/2011
33250951	A11CC05	10/10/2002
18754665	A11CC05	10/08/2010
16172075	A11CC05	13/05/2009
18745610	A11CC05	11/04/2011
33249036	A11CC05	19/05/2010
33249205	A11CC05	26/04/2004
16172110	A11CC05	18/03/2003
16173300	A11CC05	30/08/2010
27846145	A11CC05	30/08/2006
16172108	A11CC05	13/05/2002
16647705	A11CC05	20/11/2007
16629318	A11CC05	30/09/2008
16628644	A11CC05	26/12/2007
20975300	A11CC05	26/11/2008
23385430	A11CC05	14/10/2010
16647759	A11CC05	21/07/2009
24059082	A11CC05	11/04/2011
23374807	A11CC05	26/05/2011
21112305	A11CC05	08/04/2010
16645551	A11CC05	15/09/2006
23386649	A11CC05	14/06/2005
28001555	A11CC05	31/05/2011
20991039	A11CC05	05/05/2004
23308028	A11CC05	03/03/2011
27988612	A11CC05	27/11/2008
16173710	A11CC05	22/11/2005
20990962	A11CC05	28/03/2005
21106159	A11CC05	29/07/2010
33251264	A11CC05	14/02/2008
21106236	A11CC05	15/02/2011
20956468	A11CC05	19/04/2011
21055486	A11CC05	04/05/2011
18754843	A11CC05	26/01/2007
23383661	A11CC05	09/12/2004
20991511	A11CC05	16/09/2004
21055503	A11CC05	28/03/2011
28034015	A11CC05	13/03/2006
27989155	A11CC05	09/03/2010
16647726	A11CC05	26/05/2009
28008672	A11CC05	14/09/2010
28034097	A11CC05	23/10/2006
27989598	A11CC05	04/02/2009
33216871	A11CC05	25/03/2010
28001776	A11CC05	30/06/2010
27872488	A11CC05	01/06/2010
28001216	A11CC05	14/07/2006
33251513	A11CC05	07/11/2005
18753952	A11CC05	10/05/2011
27860757	A11CC05	29/10/2010
16647067	A11CC05	27/11/2001
18857014	A11CC05	04/04/2011
28001684	A11CC05	22/09/2009
27958849	A11CC05	18/08/2003
16133563	A11CC05	17/03/2004
28004671	A11CC05	09/02/2005
33295781	A11CC05	08/04/2011
33248767	A11CC05	02/01/2007
24465506	A11CC05	12/01/2010
23360554	A11CC05	21/04/2010
27998717	A11CC05	03/06/2008
23375524	A11CC05	09/05/2011
23386638	A11CC05	15/03/2006
23385800	A11CC05	04/04/2005
21105589	A11CC05	07/02/2007
18754412	A11CC05	28/10/2008
33302236	A11CC05	18/03/2010
21112078	A11CC05	05/08/2009
27936284	A11CC05	07/03/2011
16646427	A11CC05	07/01/2010
21105903	A11CC05	15/07/2008
23403447	A11CC05	13/05/2011
33243444	A11CC05	09/05/2006
21106050	A11CC05	07/06/2010
21112259	A11CC05	23/10/2009
16658860	A11CC05	26/06/2007
33302727	A11CC05	03/11/2010
23383495	A11CC05	02/03/2009
20990682	A11CC05	01/06/2006
21106287	A11CC05	04/11/2010
21111985	A11CC05	25/02/2011
27846161	A11CC05	15/03/2005
28007863	A11CC05	04/03/2009
16173802	A11CC05	13/12/2001
27989703	A11CC05	08/04/2010
33316585	A11CC05	18/03/2010
33213280	A11CC05	10/12/2010
27859464	A11CC05	14/02/2008
33243281	A11CC05	20/05/2008
23225384	A11CC05	06/04/2011
33242322	A11CC05	20/04/2011
16134659	A11CC05	20/02/2004
23361084	A11CC05	10/05/2011
16647928	A11CC05	23/01/2009
28030781	A11CC05	25/10/2001
16173620	A11CC05	16/06/2006
16173635	A11CC05	21/01/2009
16680230	A11CC05	19/08/2005
16134696	A11CC05	08/02/2010
33302039	A11CC05	15/06/2010
27998137	A11CC05	27/04/2005
27970428	A11CC05	20/07/2004
28004760	A11CC05	12/05/2011
30856676	A11CC05	19/05/2011
28798060	A11CC05	10/05/2011
28711404	A11CC05	17/12/2010
29220185	A11CC05	27/10/2010
29934778	A11CC05	16/12/2010
30775514	A11CC05	19/05/2011
28883140	A11CC05	03/01/2011
30623112	A11CC05	30/05/2011
30304744	A11CC05	20/05/2011
30341429	A11CC05	13/05/2011
28476945	A11CC05	28/04/2011
30484625	A11CC05	08/03/2011
29298555	A11CC05	29/04/2011
28931842	A11CC05	24/02/2011
30523906	A11CC05	20/05/2011
28800028	A11CC05	10/01/2011
28836431	A11CC05	27/05/2011
28860243	A11CC05	24/03/2011
29581932	A11CC05	28/04/2011
30383628	A11CC05	12/04/2011
28344348	A11CC05	25/05/2011
30943605	A11CC05	02/05/2011
29360014	A11CC05	02/02/2011
30022275	A11CC05	24/05/2011
29289022	A11CC05	12/04/2011
31004475	A11CC05	18/05/2011
29928429	A11CC05	30/05/2011
29804132	A11CC05	25/05/2011
29843708	A11CC05	28/04/2011
28188034	A11CC05	16/05/2011
29161980	A11CC05	18/04/2011
30087602	A11CC05	01/04/2011
28230308	A11CC05	04/04/2011
29591681	A11CC05	09/05/2011
28278619	A11CC05	17/12/2010
30097180	A11CC05	25/02/2011
28926753	A11CC05	24/02/2011
30336989	A11CC05	21/01/2011
28788164	A11CC05	02/02/2011
31019896	A11CC05	24/05/2011
30834337	A11CC05	06/05/2011
30675699	A11CC05	23/05/2011
30119695	A11CC05	25/03/2011
30428357	A11CC05	05/04/2011
29543372	A11CC05	27/05/2011
30552472	A11CC05	08/03/2011
31499727	A11CC05	26/12/2007
29855347	A11CC05	25/01/2011
28772103	A11CC05	26/05/2011
28819685	A11CC05	27/01/2011
29783735	A11CC05	24/05/2011
29487796	A11CC05	17/05/2011
29912043	A11CC05	10/03/2011
29889135	A11CC05	14/04/2011
29285507	A11CC05	25/04/2011
31017136	A11CC05	12/04/2011
30329545	A11CC05	19/11/2010
29417372	A11CC05	23/05/2011
30413876	A11CC05	25/01/2011
30627646	A11CC05	30/03/2011
29314972	A11CC05	30/05/2011
29072859	A11CC05	18/10/2010
30006879	A11CC05	11/04/2011
28337639	A11CC05	02/05/2011
30094435	A11CC05	31/05/2011
28489633	A11CC05	05/05/2011
29123287	A11CC05	26/05/2011
30481285	A11CC05	06/05/2011
28809068	A11CC05	24/05/2011
28850482	A11CC05	15/12/2010
29200314	A11CC05	23/05/2011
29362771	A11CC05	18/05/2011
28427775	A11CC05	10/05/2011
29560626	A11CC05	19/05/2011
29081899	A11CC05	24/03/2011
30907398	A11CC05	01/02/2011
28738417	A11CC05	26/05/2011
30609633	A11CC05	17/05/2011
29889124	A11CC05	25/04/2011
29616084	A11CC05	30/05/2011
30287899	A11CC05	17/03/2011
29537857	A11CC05	17/05/2011
30943603	A11CC05	02/05/2011
30305352	A11CC05	04/03/2011
28344530	A11CC05	19/04/2011
29558789	A11CC05	14/02/2011
29934774	A11CC05	28/04/2011
29792296	A11CC05	13/05/2011
28412482	A11CC05	18/02/2011
30199552	A11CC05	30/05/2011
30105772	A11CC05	06/05/2011
28470214	A11CC05	18/02/2011
28505900	A11CC05	19/05/2011
29152801	A11CC05	04/04/2011
28899782	A11CC05	12/01/2011
30104954	A11CC05	07/01/2011
30604900	A11CC05	29/04/2011
28788166	A11CC05	10/05/2011
28729832	A11CC05	30/05/2011
29029505	A11CC05	17/03/2011
29543785	A11CC05	13/05/2011
28962352	A11CC05	14/04/2011
30211671	A11CC05	14/03/2011
30892736	A11CC05	14/03/2011
29335712	A11CC05	15/04/2011
30712974	A11CC05	10/02/2011
30402634	A11CC05	26/04/2011
29784402	A11CC05	01/03/2011
30158106	A11CC05	18/04/2011
28258516	A11CC05	14/04/2011
29988873	A11CC05	25/05/2011
28941637	A11CC05	23/05/2011
29092186	A11CC05	20/05/2011
28273491	A11CC05	18/04/2011
29995459	A11CC05	28/10/2010
30197978	A11CC05	20/04/2011
29727992	A11CC05	07/04/2011
30228870	A11CC05	01/03/2011
28871860	A11CC05	11/03/2011
28930417	A11CC05	30/05/2011
30838715	A11CC05	04/04/2011
31446408	A11CC05	03/11/2008
28950971	A11CC05	11/04/2011
29039657	A11CC05	08/04/2011
28814499	A11CC05	24/03/2011
28915642	A11CC05	11/05/2011
30022868	A11CC05	12/05/2011
30968547	A11CC05	04/05/2011
23239629	A11CC05	30/05/2011
21105502	A11CC05	23/09/2008
20991338	A11CC05	30/12/2010
27989647	A11CC05	22/05/2009
21112228	A11CC05	26/08/2009
23360619	A11CC05	09/07/2008
18835908	A11CC05	04/01/2011
21106150	A11CC05	28/01/2011
23384928	A11CC05	03/02/2011
33314705	A11CC05	20/10/2010
21112369	A11CC05	23/01/2009
20990779	A11CC05	24/03/2006
16171700	A11CC05	18/07/2000
33315149	A11CC05	01/06/2007
23404011	A11CC05	11/04/2011
23374998	A11CC05	10/05/2011
16646450	A11CC05	09/01/2008
30381496	A11CC05	25/04/2011
28867494	A11CC05	11/02/2011
28470212	A11CC05	22/03/2011
28464183	A11CC05	12/04/2011
28952140	A11CC05	28/03/2011
30966517	A11CC05	19/05/2011
28349585	A11CC05	20/05/2011
29369970	A11CC05	05/04/2011
30268416	A11CC05	25/04/2011
30797244	A11CC05	07/12/2010
30361840	A11CC05	29/03/2011
29085463	A11CC05	23/12/2010
16647731	A11CC05	08/07/2009
28224275	A11CC05	05/05/2011
28224271	A11CC05	19/05/2011
29135125	A11CC05	05/04/2011
30351460	A11CC05	06/05/2011
28899774	A11CC05	24/02/2011
30542693	A11CC05	04/05/2011
16172535	A11CC05	30/01/2008
29145816	A11CC05	08/04/2011
29490546	A11CC05	30/05/2011
29498945	A11CC05	31/05/2011
29441219	A11CC05	22/02/2011
30736940	A11CC05	13/01/2011
28972326	A11CC05	06/02/2011
29863624	A11CC05	23/05/2011
30613718	A11CC05	16/05/2011
30692315	A11CC05	25/05/2011
28001029	A11CC05	20/12/2007
28802253	A11CC05	27/05/2011
21105748	A11CC05	10/09/2008
27998868	A11CC05	04/09/2006
29510235	A11CC05	09/03/2011
30392870	A11CC05	07/02/2011
29993333	A11CC05	03/05/2011
30569009	A11CC05	20/04/2011
23275767	A11CC05	11/01/2005
27999194	A11CC05	07/05/2009
30849991	A11CC05	06/05/2011
29934821	A11CC05	23/05/2011
30941467	A11CC05	09/05/2011
30913560	A11CC05	05/11/2010
30472706	A11CC05	06/04/2011
30751339	A11CC05	30/12/2010
29797309	A11CC05	04/01/2011
29733703	A11CC05	25/05/2011
30054193	A11CC05	25/04/2011
28819686	A11CC05	26/05/2011
30478153	A11CC05	07/10/2010
30307425	A11CC05	18/05/2011
29790458	A11CC05	29/11/2010
28006074	A11CC05	26/05/2011
30094436	A11CC05	23/05/2011
30842458	A11CC05	10/12/2010
28207177	A11CC05	14/04/2011
30101802	A11CC05	25/01/2011
30930191	A11CC05	13/05/2011
29616086	A11CC05	11/04/2011
30057157	A11CC05	11/04/2011
30947440	A11CC05	19/01/2011
30275682	A11CC05	06/04/2011
30642219	A11CC05	23/05/2011
28029529	A11CC05	14/04/2011
29287567	A11CC05	20/05/2011
29868674	A11CC05	25/04/2011
29830441	A11CC05	25/03/2011
28361921	A11CC05	23/11/2010
28213072	A11CC05	04/02/2011
28993491	A11CC05	19/05/2011
28852543	A11CC05	08/04/2011
33201953	A11CC05	17/01/2005
29554258	A11CC05	18/04/2011
30123327	A11CC05	10/12/2010
30147346	A11CC05	25/03/2011
29376947	A11CC05	18/04/2011
29201652	A11CC05	04/04/2011
29846847	A11CC05	10/01/2011
29820896	A11CC05	22/11/2010
28251794	A11CC05	28/03/2011
28226463	A11CC05	06/05/2011
30302449	A11CC05	20/05/2011
28138217	A11CC05	21/03/2011
29358032	A11CC05	17/02/2011
29172993	A11CC05	12/05/2011
28880104	A11CC05	03/02/2011
29529030	A11CC05	04/02/2011
28550446	A11CC05	24/05/2011
30527148	A11CC05	04/03/2011
23385240	A11CC05	03/11/2004
23385786	A11CC05	29/08/2003
20991299	A11CC05	10/03/2010
20990782	A11CC05	11/02/2009
24105038	A11CC05	13/09/2010
20991331	A11CC05	26/05/2011
656479	A11CC05	22/11/2004
33314832	A11CC05	21/06/2010
20991296	A11CC05	12/04/2011
20991622	A11CC05	08/07/2008
23360494	A11CC05	29/09/2006
21112153	A11CC05	18/11/2008
27872681	A11CC05	28/02/2011
16646378	A11CC05	15/10/2002
27994631	A11CC05	27/12/2007
16128054	A11CC05	01/10/2007
27998078	A11CC05	05/05/2011
23386909	A11CC05	07/05/2004
16174088	A11CC05	26/04/2004
27970377	A11CC05	17/02/2009
33279395	A11CC05	26/10/2010
32179812	A11CC05	02/07/2010
31148186	A11CC05	19/05/2011
32244890	A11CC05	01/09/2008
31265900	A11CC05	07/04/2006
31106042	A11CC05	19/11/2009
31685600	A11CC05	28/10/2010
31387379	A11CC05	30/12/2009
31656770	A11CC05	24/03/2010
32254036	A11CC05	16/08/2006
31346249	A11CC05	12/02/2008
31115684	A11CC05	20/12/2004
32098573	A11CC05	19/08/2003
31961593	A11CC05	07/07/2004
31182789	A11CC05	11/01/2007
31529676	A11CC05	13/06/2006
32140286	A11CC05	11/12/2006
31396661	A11CC05	04/12/2006
31853051	A11CC05	08/09/2010
31349118	A11CC05	23/06/2005
31127428	A11CC05	23/12/2009
31175917	A11CC05	20/01/2006
31880089	A11CC05	10/04/2002
32230652	A11CC05	29/11/2006
31876883	A11CC05	20/12/2007
31663405	A11CC05	29/12/2005
31104481	A11CC05	20/02/2008
31354819	A11CC05	23/07/2009
31050561	A11CC05	06/02/2007
32169470	A11CC05	14/03/2007
32052409	A11CC05	17/12/2009
31290929	A11CC05	13/10/2009
32139072	A11CC05	03/07/2009
31898729	A11CC05	15/09/2004
32263475	A11CC05	30/04/2002
31084883	A11CC05	11/02/2004
31277905	A11CC05	22/08/2005
31920078	A11CC05	25/09/2003
31431450	A11CC05	06/03/2007
31660676	A11CC05	01/10/2007
31761283	A11CC05	05/08/2002
31492035	A11CC05	02/04/2008
32252834	A11CC05	30/05/2007
31059554	A11CC05	24/01/2011
31283168	A11CC05	06/03/2007
31973186	A11CC05	12/07/2007
31546770	A11CC05	13/10/2008
31181167	A11CC05	29/07/2008
31188844	A11CC05	17/03/2009
32232506	A11CC05	17/11/2009
31732143	A11CC05	27/01/2011
31536611	A11CC05	10/06/2009
31927823	A11CC05	22/07/2009
31328096	A11CC05	14/03/2007
31341768	A11CC05	06/02/2007
31259853	A11CC05	11/09/2008
31874278	A11CC05	01/04/2005
31844023	A11CC05	24/06/2003
31073134	A11CC05	04/10/2004
31577829	A11CC05	07/05/2009
31144910	A11CC05	18/05/2009
32273130	A11CC05	05/05/2010
31491964	A11CC05	20/07/2004
31111232	A11CC05	07/03/2011
31553549	A11CC05	25/10/2005
31227090	A11CC05	29/10/2010
32084541	A11CC05	20/10/2006
32052348	A11CC05	14/06/2007
31299103	A11CC05	14/10/2005
32185788	A11CC05	18/02/2002
31055006	A11CC05	27/01/2005
32066435	A11CC05	17/08/2009
31193920	A11CC05	18/02/2005
31811731	A11CC05	24/07/2003
32257593	A11CC05	21/06/2007
32260664	A11CC05	03/01/2006
31955502	A11CC05	17/10/2007
31030848	A11CC05	17/09/2008
31805425	A11CC05	08/01/2010
31512513	A11CC05	30/04/2003
32270488	A11CC05	05/02/2008
32033414	A11CC05	18/07/2007
31630960	A11CC05	04/07/2008
31346907	A11CC05	29/06/2005
32124418	A11CC05	11/02/2008
31097038	A11CC05	19/09/2008
31873755	A11CC05	05/01/2006
31670086	A11CC05	17/12/2004
31251018	A11CC05	15/10/2010
31365873	A11CC05	13/02/2003
31289525	A11CC05	06/04/2009
31784392	A11CC05	05/12/2005
32037522	A11CC05	12/02/2009
32093954	A11CC05	10/05/2005
32172406	A11CC05	28/06/2007
31353604	A11CC05	19/06/2006
31857863	A11CC05	28/07/2009
32145509	A11CC05	05/11/2009
31354032	A11CC05	06/02/2006
31036786	A11CC05	04/10/2010
31151917	A11CC05	24/02/2006
31354176	A11CC05	22/01/2007
31214910	A11CC05	03/03/2010
31800462	A11CC05	23/02/2009
31729037	A11CC05	10/09/2003
31674787	A11CC05	21/10/2008
31083168	A11CC05	24/05/2007
31468457	A11CC05	18/04/2005
31806492	A11CC05	13/08/2010
31818182	A11CC05	28/02/2006
31357342	A11CC05	18/01/2005
31211511	A11CC05	20/03/2007
31869123	A11CC05	12/06/2008
31930124	A11CC05	26/03/2009
31110420	A11CC05	10/03/2009
31488109	A11CC05	12/11/2009
31049991	A11CC05	14/10/2010
32124625	A11CC05	08/08/2007
31537932	A11CC05	31/01/2008
31991804	A11CC05	28/10/2009
31766307	A11CC05	18/12/2009
31991847	A11CC05	12/05/2006
32095769	A11CC05	22/10/2004
31620279	A11CC05	23/02/2010
31371048	A11CC05	01/10/2002
31630762	A11CC05	24/11/2009
31784954	A11CC05	03/05/2010
32279907	A11CC05	16/06/2005
31049770	A11CC05	15/04/2009
31413669	A11CC05	12/12/2008
31560355	A11CC05	26/05/2006
31802920	A11CC05	11/10/2007
31117819	A11CC05	07/09/2009
31851021	A11CC05	04/01/2010
32181810	A11CC05	23/06/2005
32236750	A11CC05	17/09/2009
32274601	A11CC05	25/10/2005
31933577	A11CC05	28/08/2008
31914405	A11CC05	22/09/2009
31050834	A11CC05	27/06/2002
32065793	A11CC05	10/09/2003
31807339	A11CC05	10/09/2009
31504043	A11CC05	21/03/2006
31840486	A11CC05	20/01/2006
31883253	A11CC05	22/04/2003
31495497	A11CC05	22/01/2004
31450282	A11CC05	06/11/2008
31476688	A11CC05	15/10/2009
31384381	A11CC05	13/10/2009
31641614	A11CC05	08/02/2008
32235282	A11CC05	28/03/2008
31465406	A11CC05	25/01/2001
31206924	A11CC05	22/11/2006
31214599	A11CC05	13/05/2003
32267286	A11CC05	18/05/2010
31243849	A11CC05	23/05/2008
31953400	A11CC05	02/06/2003
31257980	A11CC05	10/03/2011
31941748	A11CC05	20/04/2007
31308844	A11CC05	24/11/2009
32078676	A11CC05	01/04/2009
31760312	A11CC05	21/11/2007
31067313	A11CC05	14/11/2008
31138562	A11CC05	21/05/2009
31636340	A11CC05	26/05/2009
32124982	A11CC05	10/09/2009
31932970	A11CC05	16/09/2009
31323394	A11CC05	04/01/2008
32256629	A11CC05	10/01/2005
32233869	A11CC05	07/02/2006
31196129	A11CC05	16/04/2008
31572848	A11CC05	09/05/2003
31368596	A11CC05	15/04/2008
31526798	A11CC05	05/10/2005
32243594	A11CC05	26/04/2004
31955177	A11CC05	23/05/2003
31218530	A11CC05	13/02/2002
31199814	A11CC05	15/05/2011
32208644	A11CC05	20/07/2010
31869652	A11CC05	25/05/2005
31933208	A11CC05	09/07/2004
31867121	A11CC05	01/03/2010
32245526	A11CC05	15/02/2008
31317844	A11CC05	21/01/2011
31214975	A11CC05	09/11/2007
31866955	A11CC05	25/01/2006
32267951	A11CC05	28/03/2006
31352690	A11CC05	26/06/2006
32165604	A11CC05	03/05/2007
31941575	A11CC05	28/04/2006
31142678	A11CC05	17/04/2007
31665299	A11CC05	25/07/2007
32062092	A11CC05	02/03/2005
31486793	A11CC05	23/07/2009
31200456	A11CC05	21/06/2010
31092409	A11CC05	20/10/2010
31839792	A11CC05	01/08/2005
31453749	A11CC05	14/02/2006
31112127	A11CC05	04/05/2007
31631182	A11CC05	13/01/2006
32064605	A11CC05	18/05/2007
31281165	A11CC05	14/02/2006
31545412	A11CC05	16/11/2009
32276558	A11CC05	05/07/2010
32019768	A11CC05	08/04/2011
31646137	A11CC05	23/04/2010
31952490	A11CC05	11/12/2009
31541336	A11CC05	24/11/2009
31885963	A11CC05	03/09/2010
32136835	A11CC05	17/08/2007
31169067	A11CC05	23/05/2008
31405024	A11CC05	23/04/2008
31228707	A11CC05	14/08/2009
31475511	A11CC05	08/06/2010
31337588	A11CC05	23/03/2010
31719359	A11CC05	17/10/2006
31959698	A11CC05	07/01/2009
31435904	A11CC05	05/07/2005
31188335	A11CC05	04/09/2006
31842553	A11CC05	06/06/2007
31929256	A11CC05	08/10/2008
32231510	A11CC05	22/04/2009
31572963	A11CC05	10/06/2009
32197664	A11CC05	16/09/2005
31878618	A11CC05	25/06/2003
