patient_id	covar_name	date
20564963	B01AC05	11/06/1999
8652950	B01AC05	11/05/2011
8293863	B01AC05	10/09/2004
15914106	B01AC05	28/06/2010
23442733	B01AC05	31/10/2005
6597437	B01AC05	19/09/2002
1356229	B01AC05	15/04/2011
1321721	B01AC05	10/03/2005
1850465	B01AC05	16/08/2007
6602655	B01AC05	04/01/2006
1207086	B01AC05	11/04/2002
8061893	B01AC05	09/01/2002
1207468	B01AC05	04/07/2002
2042982	B01AC05	18/06/2001
903543	B01AC05	04/06/2001
902525	B01AC05	23/11/2001
28083203	B01AC05	27/11/2001
3049347	B01AC05	15/03/2001
24662063	B01AC05	21/08/2006
1371015	B01AC05	07/03/2002
14311205	B01AC05	12/01/2011
26700941	B01AC05	13/02/2009
24577944	B01AC05	23/05/2011
26894950	B01AC05	14/05/2011
26920797	B01AC05	12/06/2001
26977158	B01AC05	01/02/2006
26991420	B01AC05	03/06/2005
27369903	B01AC05	30/12/2004
27664085	B01AC05	05/12/2004
27456174	B01AC05	29/04/2011
27805384	B01AC05	16/01/2010
2958097	B01AC05	22/03/2007
16636819	B01AC05	17/02/2005
31954565	B01AC05	11/11/2010
31463497	B01AC05	14/12/2006
32137081	B01AC05	10/11/2010
32118654	B01AC05	24/09/2007
32002259	B01AC05	16/01/2006
32173642	B01AC05	09/02/2006
31924531	B01AC05	24/03/2009
32273397	B01AC05	25/11/2008
32046813	B01AC05	14/09/2005
31949691	B01AC05	16/12/2009
31608836	B01AC05	29/11/2005
31733685	B01AC05	23/12/2010
