patient_id	covar_name	date
1068210	C07BB07	24/02/2011
8557344	C07BB07	21/04/2006
5813363	C07BB07	17/09/2009
1069269	C07BB07	24/05/2011
6597437	C07BB07	05/05/2011
638967	C07BB07	15/03/2011
6596858	C07BB07	13/12/2005
1851693	C07BB07	26/08/2010
25915017	C07BB07	25/05/2011
998259	C07BB07	30/01/2006
717026	C07BB07	07/11/2005
1066880	C07BB07	27/01/2003
3052996	C07BB07	20/04/2011
26244401	C07BB07	03/05/2011
1910209	C07BB07	09/05/2011
419216	C07BB07	22/04/2011
424667	C07BB07	28/10/2010
28070991	C07BB07	10/04/2008
28047186	C07BB07	02/06/2005
28071227	C07BB07	16/09/2010
28071783	C07BB07	24/05/2011
26628519	C07BB07	10/06/2008
2988172	C07BB07	31/05/2011
26846476	C07BB07	25/04/2011
27151119	C07BB07	24/02/2011
27151506	C07BB07	20/04/2006
27026349	C07BB07	12/07/2007
27152048	C07BB07	02/03/2011
27643198	C07BB07	07/02/2009
27589187	C07BB07	27/04/2011
27643016	C07BB07	22/04/2009
25741964	C07BB07	06/05/2011
27685053	C07BB07	09/09/2004
26933407	C07BB07	05/05/2004
27667259	C07BB07	01/04/2011
27718898	C07BB07	03/05/2007
18194111	C07BB07	29/10/2002
33030987	C07BB07	11/04/2011
33015982	C07BB07	16/02/2009
33025068	C07BB07	03/07/2008
33049435	C07BB07	27/06/2005
33005008	C07BB07	01/06/2011
16774544	C07BB07	24/08/2009
33064551	C07BB07	09/03/2011
33021606	C07BB07	07/02/2011
33022447	C07BB07	07/02/2011
33087055	C07BB07	13/01/2006
33057009	C07BB07	27/05/2011
33093762	C07BB07	30/11/2007
23343181	C07BB07	06/05/2011
14187910	C07BB07	30/07/2009
16636488	C07BB07	03/05/2011
23410714	C07BB07	27/05/2011
16623737	C07BB07	12/04/2011
16178544	C07BB07	29/05/2003
23327900	C07BB07	07/06/2007
31079225	C07BB07	27/04/2011
31288990	C07BB07	24/02/2011
32101746	C07BB07	29/09/2010
31396990	C07BB07	30/09/2009
32262394	C07BB07	15/12/2009
31876841	C07BB07	31/08/2009
31250416	C07BB07	04/10/2010
32190370	C07BB07	15/06/2006
32116733	C07BB07	03/03/2006
31426278	C07BB07	06/11/2008
31555309	C07BB07	13/04/2007
32004779	C07BB07	15/12/2010
31986505	C07BB07	24/11/2010
31741523	C07BB07	10/01/2005
31272763	C07BB07	09/03/2007
32223111	C07BB07	20/01/2011
