patient_id	covar_name	date
8960142	C05CA51	12/04/2007
8784390	C05CA51	02/06/2000
8972925	C05CA51	07/06/2002
59209	C05CA51	07/12/2000
16559058	C05CA51	20/08/2004
6757710	C05CA51	24/02/2009
5029698	C05CA51	15/10/2008
21152123	C05CA51	03/05/2011
25071403	C05CA51	01/07/2008
21371617	C05CA51	08/03/2011
8699018	C05CA51	19/08/2009
8556635	C05CA51	26/11/2007
25052219	C05CA51	24/08/2009
6236871	C05CA51	10/04/2007
6752418	C05CA51	09/03/2011
3125131	C05CA51	15/06/2009
12790379	C05CA51	27/11/2006
936659	C05CA51	15/01/2009
9302747	C05CA51	20/12/2002
8777089	C05CA51	19/11/2007
1067775	C05CA51	21/12/2007
1351403	C05CA51	04/01/2002
1350474	C05CA51	15/11/2000
7972566	C05CA51	26/02/2009
7971640	C05CA51	13/10/2009
1850285	C05CA51	21/02/2000
10199107	C05CA51	06/05/2011
7776723	C05CA51	28/04/2011
1349490	C05CA51	09/04/2001
648591	C05CA51	22/04/2005
1205994	C05CA51	13/05/2002
2934516	C05CA51	13/08/2007
1443793	C05CA51	10/02/2005
1852461	C05CA51	11/09/2009
12189846	C05CA51	26/04/2005
6951044	C05CA51	24/05/2011
3672726	C05CA51	15/12/2006
716428	C05CA51	16/04/2004
1208369	C05CA51	20/06/2005
1638022	C05CA51	20/09/2007
1638747	C05CA51	15/03/2011
1558536	C05CA51	14/04/2011
1110970	C05CA51	14/12/2010
134966	C05CA51	22/10/2008
1135310	C05CA51	17/05/2011
134659	C05CA51	16/03/2004
996909	C05CA51	24/11/2005
135815	C05CA51	05/10/2009
1065570	C05CA51	17/09/2003
903326	C05CA51	13/04/2005
858856	C05CA51	21/05/2002
873905	C05CA51	15/11/2006
2140421	C05CA51	04/12/2006
859050	C05CA51	16/09/2002
2759226	C05CA51	24/10/2005
2034398	C05CA51	24/05/2011
4088311	C05CA51	14/09/2006
3055190	C05CA51	29/11/2000
2520277	C05CA51	27/04/2007
17323216	C05CA51	29/07/2009
2755386	C05CA51	28/09/2004
28062656	C05CA51	26/07/2005
17323234	C05CA51	19/06/2006
18471931	C05CA51	13/05/2008
17041146	C05CA51	02/02/2011
26462082	C05CA51	07/01/2005
18471327	C05CA51	04/10/2007
17742312	C05CA51	21/11/2007
26236453	C05CA51	02/02/2009
26454075	C05CA51	02/06/2010
17323463	C05CA51	13/09/2006
16827134	C05CA51	25/04/2005
306607	C05CA51	17/06/2003
2777779	C05CA51	02/02/2011
428569	C05CA51	18/12/2001
26201016	C05CA51	19/11/2009
17041007	C05CA51	28/07/2003
28072376	C05CA51	05/04/2005
28057599	C05CA51	17/12/2004
28054954	C05CA51	17/07/2009
24664058	C05CA51	16/05/2008
1021057	C05CA51	06/06/2007
16568733	C05CA51	13/11/2001
2962449	C05CA51	14/11/2008
3230740	C05CA51	03/05/2006
12974196	C05CA51	31/08/2007
24659698	C05CA51	17/05/2011
26896402	C05CA51	23/09/2009
26944861	C05CA51	10/07/2003
26782340	C05CA51	30/09/2009
26824339	C05CA51	22/09/2009
26857025	C05CA51	15/06/2004
26711519	C05CA51	06/07/2004
27034975	C05CA51	18/09/2008
27034247	C05CA51	01/08/2006
26963689	C05CA51	04/09/2002
26975257	C05CA51	05/06/2009
26988906	C05CA51	05/05/2011
27101571	C05CA51	16/01/2006
27112272	C05CA51	11/06/2004
27151506	C05CA51	09/06/2004
27042973	C05CA51	31/01/2009
27037293	C05CA51	16/06/2007
27040570	C05CA51	22/02/2005
27041316	C05CA51	08/03/2011
27041367	C05CA51	10/07/2008
27371161	C05CA51	30/06/2009
26956671	C05CA51	22/09/2010
27571413	C05CA51	04/09/2007
27577389	C05CA51	13/10/2005
27541995	C05CA51	21/06/2004
27148314	C05CA51	16/07/2007
27147326	C05CA51	07/03/2008
27785549	C05CA51	02/05/2005
27538564	C05CA51	21/04/2010
18188132	C05CA51	03/03/2009
26711256	C05CA51	23/05/2011
33112774	C05CA51	27/06/2005
33055424	C05CA51	16/04/2009
33019812	C05CA51	30/06/2010
33076772	C05CA51	17/11/2009
33055329	C05CA51	23/09/2010
33070489	C05CA51	21/10/2004
33075788	C05CA51	16/09/2009
33098852	C05CA51	21/06/2000
33044195	C05CA51	26/05/2009
33072290	C05CA51	18/05/2011
33000739	C05CA51	20/04/2005
33110326	C05CA51	11/11/2002
33070878	C05CA51	19/08/2005
33027943	C05CA51	28/10/2004
33089670	C05CA51	07/10/2004
33034793	C05CA51	17/05/2011
33005386	C05CA51	30/11/2005
33006134	C05CA51	27/05/2011
33000634	C05CA51	18/12/2008
33092389	C05CA51	14/07/2006
33118796	C05CA51	04/07/2008
33071618	C05CA51	07/06/2005
33065816	C05CA51	14/02/2011
33067653	C05CA51	31/03/2011
33071989	C05CA51	22/02/2011
33012294	C05CA51	20/12/2005
33086713	C05CA51	26/03/2001
27912198	C05CA51	29/06/2009
33030964	C05CA51	16/11/2005
33012908	C05CA51	31/05/2011
33065942	C05CA51	15/10/2009
33015324	C05CA51	11/01/2011
33035010	C05CA51	09/02/2009
33069704	C05CA51	15/01/2007
33052051	C05CA51	05/05/2010
33102499	C05CA51	28/06/2005
33056714	C05CA51	13/06/2006
33030998	C05CA51	04/04/2001
33072181	C05CA51	01/02/2011
33116126	C05CA51	11/08/2010
16640297	C05CA51	17/07/2007
16606508	C05CA51	10/04/2008
33297139	C05CA51	22/07/2010
16607101	C05CA51	13/07/2005
16636482	C05CA51	26/06/2008
28023165	C05CA51	28/01/2010
33210334	C05CA51	21/10/2003
23402038	C05CA51	06/05/2011
23339422	C05CA51	12/09/2003
18770636	C05CA51	30/05/2008
16637922	C05CA51	07/07/2010
23354151	C05CA51	27/02/2004
27954891	C05CA51	30/12/2009
31632078	C05CA51	04/11/2009
31453699	C05CA51	31/01/2006
32276693	C05CA51	08/06/2006
31562450	C05CA51	21/03/2003
32214444	C05CA51	01/07/2005
32167290	C05CA51	12/09/2007
32221033	C05CA51	19/08/2005
31307737	C05CA51	04/06/2003
31903549	C05CA51	12/03/2007
31297297	C05CA51	20/11/2006
31235701	C05CA51	10/08/2007
31407204	C05CA51	03/06/1999
32037940	C05CA51	24/03/2006
31098672	C05CA51	23/06/2008
31440390	C05CA51	23/08/2010
31670262	C05CA51	21/04/2005
31779664	C05CA51	23/12/2010
31066230	C05CA51	18/02/2010
31195218	C05CA51	18/09/2009
31440741	C05CA51	17/01/2008
31550481	C05CA51	03/03/2005
31041581	C05CA51	26/06/2002
32022345	C05CA51	20/07/2005
31665383	C05CA51	07/05/2007
31347667	C05CA51	07/07/2003
32011072	C05CA51	12/11/2001
31969341	C05CA51	09/01/2002
31602075	C05CA51	20/03/2007
32127265	C05CA51	06/04/2011
31704034	C05CA51	24/05/2005
32259010	C05CA51	14/12/2001
32254414	C05CA51	06/05/2008
31866747	C05CA51	15/01/2004
31490502	C05CA51	22/02/2006
31475204	C05CA51	07/06/2002
32011658	C05CA51	13/03/2000
32008903	C05CA51	16/11/2010
31821619	C05CA51	24/05/2004
31480321	C05CA51	27/09/2007
31430986	C05CA51	17/09/2010
31655593	C05CA51	10/08/2001
32197664	C05CA51	20/06/2006
32094975	C05CA51	28/06/2001
