patient_id	covar_name	date
8438743	C07CB03	16/03/2011
9376691	C07CB03	07/07/2008
3940545	C07CB03	22/09/2008
24730115	C07CB03	16/07/2004
12689869	C07CB03	01/04/2011
8278064	C07CB03	05/04/2011
1731389	C07CB03	10/01/2008
948613	C07CB03	23/05/2005
6415196	C07CB03	11/05/2011
6748638	C07CB03	06/06/2005
8292030	C07CB03	27/05/2011
9373588	C07CB03	10/05/2011
6747277	C07CB03	12/12/2007
8292798	C07CB03	22/11/2010
9391990	C07CB03	18/01/2011
5029033	C07CB03	24/03/2009
12691896	C07CB03	11/09/2009
24730055	C07CB03	01/06/2011
12188310	C07CB03	26/10/2005
6593022	C07CB03	07/04/2011
1212400	C07CB03	11/04/2011
7802074	C07CB03	01/04/2011
8063672	C07CB03	02/01/2009
8956630	C07CB03	03/08/2004
1262130	C07CB03	24/06/2010
1647457	C07CB03	09/04/2002
2068612	C07CB03	05/04/2011
904619	C07CB03	14/03/2011
7043389	C07CB03	03/01/2005
15643872	C07CB03	14/10/2010
2754738	C07CB03	25/04/2011
2407047	C07CB03	20/08/2010
7229461	C07CB03	26/05/2011
24847740	C07CB03	26/04/2011
26384460	C07CB03	14/11/2007
12979856	C07CB03	27/07/2007
2215450	C07CB03	03/05/2011
419216	C07CB03	26/07/2001
28068401	C07CB03	08/07/2005
419008	C07CB03	21/04/2011
21386521	C07CB03	20/04/2007
1912438	C07CB03	13/02/2008
26638791	C07CB03	15/10/2003
26805159	C07CB03	27/05/2011
21066380	C07CB03	30/05/2011
27062423	C07CB03	18/04/2011
27034398	C07CB03	24/05/2011
27038965	C07CB03	14/02/2008
27039592	C07CB03	24/09/2004
27026228	C07CB03	10/05/2011
27326823	C07CB03	14/07/2010
27384510	C07CB03	26/11/2008
27244696	C07CB03	24/10/2005
27352971	C07CB03	17/05/2011
27369910	C07CB03	27/07/2006
27764912	C07CB03	09/05/2011
27153476	C07CB03	28/04/2011
27149059	C07CB03	25/05/2011
27469950	C07CB03	23/07/2007
27674029	C07CB03	27/09/2007
27663402	C07CB03	11/05/2011
33066001	C07CB03	13/03/2000
33020265	C07CB03	20/09/2005
18768070	C07CB03	16/05/2011
33240317	C07CB03	09/05/2011
18769407	C07CB03	28/04/2011
16684728	C07CB03	11/04/2011
23315883	C07CB03	05/05/2011
31592972	C07CB03	20/04/2005
23349702	C07CB03	16/03/2011
16598501	C07CB03	21/03/2011
16611148	C07CB03	13/04/2011
31118201	C07CB03	29/09/2009
31389763	C07CB03	07/02/2006
31166791	C07CB03	01/12/2008
31399315	C07CB03	02/12/2008
31642302	C07CB03	01/12/2008
31431896	C07CB03	11/04/2011
31107699	C07CB03	27/10/2009
31435961	C07CB03	02/12/2010
31970088	C07CB03	03/08/2009
31782703	C07CB03	12/12/2008
31638191	C07CB03	29/09/2009
31038591	C07CB03	20/12/2002
31383072	C07CB03	12/02/2008
31289568	C07CB03	22/01/2009
31827264	C07CB03	03/12/2010
31514428	C07CB03	05/05/2011
31831196	C07CB03	01/06/2005
31524254	C07CB03	12/04/2003
31184316	C07CB03	22/01/2004
31294522	C07CB03	10/12/2010
32116733	C07CB03	31/05/2011
31958520	C07CB03	21/12/2009
32262596	C07CB03	29/01/2007
31042165	C07CB03	30/04/2010
32149357	C07CB03	14/12/2010
31886871	C07CB03	02/07/2008
31523862	C07CB03	29/10/2007
32053538	C07CB03	28/04/2003
31361149	C07CB03	25/01/2011
32064327	C07CB03	16/12/2009
31853083	C07CB03	06/01/2011
31948150	C07CB03	13/09/2007
31265348	C07CB03	11/08/2008
31186532	C07CB03	13/04/2005
31715657	C07CB03	29/10/2008
32019169	C07CB03	15/11/2007
32280196	C07CB03	05/12/2008
31177447	C07CB03	11/01/2007
31115224	C07CB03	30/05/2011
31080402	C07CB03	30/12/2009
32264460	C07CB03	11/02/2011
31081987	C07CB03	25/11/2009
31756049	C07CB03	25/09/2006
31933747	C07CB03	11/01/2005
31703364	C07CB03	12/02/2004
32055179	C07CB03	31/01/2007
31395904	C07CB03	30/08/2010
31928482	C07CB03	03/12/2010
31317319	C07CB03	11/10/2002
31524901	C07CB03	19/09/2008
31549325	C07CB03	08/03/2007
