patient_id	covar_name	date
11407938	C08CA06	15/02/2007
6748364	C08CA06	06/07/2004
10604778	C08CA06	30/08/2006
9386317	C08CA06	06/07/2007
15554053	C08CA06	27/11/2007
3292667	C08CA06	15/03/2011
292904	C08CA06	15/11/2005
8581195	C08CA06	05/09/2007
25051272	C08CA06	13/05/2011
9370823	C08CA06	08/02/2010
12790379	C08CA06	02/12/2009
731004	C08CA06	16/04/2009
12791259	C08CA06	05/05/2011
6887263	C08CA06	19/01/2011
24721601	C08CA06	05/06/2008
10002746	C08CA06	20/07/2005
8955922	C08CA06	02/11/2004
6594887	C08CA06	20/03/2003
8061402	C08CA06	15/02/2008
1214146	C08CA06	20/04/2011
1446022	C08CA06	01/10/2008
526051	C08CA06	01/06/2011
7848502	C08CA06	27/01/2007
1446069	C08CA06	30/04/2008
5991475	C08CA06	16/01/2008
1202451	C08CA06	23/02/2004
1199703	C08CA06	05/01/2004
1856226	C08CA06	11/12/2000
1640425	C08CA06	10/02/2006
1638747	C08CA06	07/03/2007
890075	C08CA06	14/10/2009
25750805	C08CA06	11/06/2004
890168	C08CA06	21/09/2004
1763042	C08CA06	23/05/2011
1755667	C08CA06	18/04/2011
2053406	C08CA06	25/04/2003
1766049	C08CA06	21/10/2008
3049475	C08CA06	03/02/2004
860139	C08CA06	27/05/2003
3055168	C08CA06	01/04/2011
2759631	C08CA06	09/02/2009
2778364	C08CA06	10/07/2003
2756223	C08CA06	13/05/2011
26351975	C08CA06	13/07/2004
7228407	C08CA06	26/04/2011
17041145	C08CA06	15/04/2004
26236651	C08CA06	26/05/2011
26338790	C08CA06	22/05/2011
28042198	C08CA06	06/02/2006
19781450	C08CA06	30/12/2010
17041239	C08CA06	20/12/2010
26384450	C08CA06	04/03/2005
26178951	C08CA06	19/01/2011
16835893	C08CA06	18/05/2011
17041018	C08CA06	20/10/2003
307239	C08CA06	19/06/2002
419475	C08CA06	06/07/1998
28087560	C08CA06	26/05/2011
873986	C08CA06	11/05/2011
28044232	C08CA06	24/05/2010
28071783	C08CA06	31/03/2005
24670887	C08CA06	04/12/2008
1900288	C08CA06	23/05/2011
1359321	C08CA06	19/06/2009
2962765	C08CA06	01/09/2006
2250411	C08CA06	07/05/2011
26630599	C08CA06	18/05/2011
26630135	C08CA06	17/11/2007
12876840	C08CA06	07/02/2010
26628009	C08CA06	30/06/2010
26635277	C08CA06	16/11/2006
26702888	C08CA06	30/05/2011
24578320	C08CA06	04/04/2008
26890905	C08CA06	17/02/2011
26730017	C08CA06	23/03/2010
26742445	C08CA06	05/12/2007
26824274	C08CA06	14/03/2003
26834377	C08CA06	26/04/2011
26815899	C08CA06	25/09/2009
27102099	C08CA06	11/05/2011
27109787	C08CA06	14/03/2003
27052734	C08CA06	07/08/2009
27033265	C08CA06	21/06/2004
26996974	C08CA06	13/07/2010
26997004	C08CA06	24/06/2010
27041680	C08CA06	07/04/2011
27379580	C08CA06	23/08/2008
27383534	C08CA06	22/08/2005
27388795	C08CA06	05/01/2005
27384579	C08CA06	11/05/2011
27148073	C08CA06	25/05/2011
27219884	C08CA06	01/06/2011
27320518	C08CA06	27/03/2011
27352425	C08CA06	04/11/2008
27300856	C08CA06	11/05/2011
27360856	C08CA06	05/05/2010
27253823	C08CA06	28/04/2011
26995530	C08CA06	20/12/2007
27200892	C08CA06	07/01/2011
27658059	C08CA06	07/08/2009
27631341	C08CA06	17/09/2007
27765535	C08CA06	26/12/2006
27758847	C08CA06	14/08/2006
27762131	C08CA06	25/04/2011
27631475	C08CA06	18/04/2011
27716087	C08CA06	15/04/2008
27151908	C08CA06	08/05/2011
27147888	C08CA06	07/05/2011
27165699	C08CA06	11/04/2011
27785567	C08CA06	07/12/2006
648889	C08CA06	16/01/2008
16104517	C08CA06	26/05/2009
12974157	C08CA06	07/04/2006
26803917	C08CA06	19/04/2006
27443113	C08CA06	21/02/2007
27673317	C08CA06	11/12/2003
27665250	C08CA06	06/05/2011
27534917	C08CA06	16/11/2010
27475077	C08CA06	07/04/2011
27530889	C08CA06	29/10/2010
27664085	C08CA06	29/01/2006
23483951	C08CA06	06/07/2004
27443512	C08CA06	09/05/2011
27758584	C08CA06	05/02/2003
27775707	C08CA06	30/10/2003
27796173	C08CA06	18/04/2007
26887104	C08CA06	14/02/2008
33065445	C08CA06	29/05/2009
33001506	C08CA06	12/01/2006
33110326	C08CA06	27/11/2001
1361620	C08CA06	07/01/2005
24661802	C08CA06	31/12/2010
24462672	C08CA06	11/09/2006
16713414	C08CA06	30/05/2011
33007224	C08CA06	18/02/2002
33067910	C08CA06	19/01/2006
33093762	C08CA06	15/05/2000
16165687	C08CA06	31/01/2011
33313071	C08CA06	19/03/2010
18765826	C08CA06	11/02/2011
18758326	C08CA06	11/04/2011
23346675	C08CA06	12/05/2011
16652686	C08CA06	06/10/2008
16609724	C08CA06	13/12/2005
16606487	C08CA06	10/05/2011
16125137	C08CA06	23/05/2011
16648142	C08CA06	18/05/2011
16607575	C08CA06	06/04/2010
16706166	C08CA06	12/06/2002
20988305	C08CA06	28/10/2010
23363947	C08CA06	06/05/2011
21103023	C08CA06	28/03/2011
23367389	C08CA06	13/03/2007
20981736	C08CA06	04/05/2011
20987399	C08CA06	27/04/2011
23408437	C08CA06	10/11/2010
31943152	C08CA06	27/12/2007
31183705	C08CA06	22/02/2010
31226034	C08CA06	05/05/2010
31994638	C08CA06	19/09/2003
31400996	C08CA06	13/11/2008
31850585	C08CA06	01/10/2010
32038384	C08CA06	29/01/2011
31668398	C08CA06	09/12/2010
31071617	C08CA06	26/10/2010
32192909	C08CA06	12/11/2010
31102850	C08CA06	16/01/2006
31054626	C08CA06	10/12/2009
31935000	C08CA06	24/05/2007
32089318	C08CA06	20/11/2006
31973718	C08CA06	22/11/2004
31572491	C08CA06	25/11/2010
32119810	C08CA06	07/05/2008
32199151	C08CA06	20/03/2011
31958520	C08CA06	16/12/2005
32258866	C08CA06	14/04/2009
31467050	C08CA06	13/06/2007
31401177	C08CA06	15/04/2011
32051952	C08CA06	19/02/2004
32062812	C08CA06	15/04/2005
31712883	C08CA06	28/01/2010
32007468	C08CA06	24/01/2005
32015901	C08CA06	24/01/2007
32056724	C08CA06	19/09/2006
31483007	C08CA06	26/06/2006
31073086	C08CA06	12/11/2007
31725926	C08CA06	19/11/2009
31907199	C08CA06	29/07/2009
31606385	C08CA06	02/12/2008
31168630	C08CA06	16/01/2003
31687887	C08CA06	19/09/2006
31348116	C08CA06	10/09/2009
31370295	C08CA06	07/10/2009
31585275	C08CA06	08/01/2009
31811905	C08CA06	16/06/2005
