patient_id	covar_name	date
12790716	C08CA01	30/03/2009
7162208	C08CA01	21/03/2011
24730236	C08CA01	15/07/2010
3323175	C08CA01	01/06/2011
15425403	C08CA01	18/04/2008
23471437	C08CA01	06/10/2008
16815009	C08CA01	18/05/2011
1068210	C08CA01	09/09/2010
5813371	C08CA01	13/05/2011
5031451	C08CA01	19/07/2010
24950727	C08CA01	05/05/2008
1732204	C08CA01	19/05/2003
5030705	C08CA01	12/07/2010
9220894	C08CA01	11/05/2011
739474	C08CA01	07/12/2009
3938112	C08CA01	30/06/2003
24722159	C08CA01	28/04/2006
7243497	C08CA01	09/02/2010
21152973	C08CA01	11/05/2011
1340637	C08CA01	24/03/2011
8557344	C08CA01	16/07/2008
9304255	C08CA01	05/06/2006
23442780	C08CA01	31/05/2011
10004067	C08CA01	30/12/2002
10394066	C08CA01	16/10/2009
210163	C08CA01	18/05/2011
3286913	C08CA01	13/01/2009
9303849	C08CA01	14/11/2006
5035573	C08CA01	20/05/2011
8293863	C08CA01	25/05/2011
1185872	C08CA01	28/09/2007
20551807	C08CA01	20/03/2007
14859861	C08CA01	11/04/2011
1515940	C08CA01	28/03/2006
21153444	C08CA01	21/07/2006
9311828	C08CA01	24/05/2006
6760798	C08CA01	09/12/2005
11661386	C08CA01	22/03/2011
3289024	C08CA01	18/12/2007
21152371	C08CA01	01/04/2009
9311429	C08CA01	25/04/2007
5867449	C08CA01	06/08/2008
9376813	C08CA01	18/05/2011
206194	C08CA01	02/12/2010
12779663	C08CA01	23/02/2011
8699154	C08CA01	04/04/2011
9268220	C08CA01	07/06/2005
15667860	C08CA01	20/07/2009
12831552	C08CA01	29/05/2011
9177319	C08CA01	06/05/2011
9346624	C08CA01	18/05/2011
5814184	C08CA01	01/06/2011
10713520	C08CA01	06/05/2011
16978376	C08CA01	01/06/2011
9176414	C08CA01	07/04/2006
5031417	C08CA01	11/04/2011
6745780	C08CA01	09/05/2011
8786041	C08CA01	18/01/2006
9341638	C08CA01	03/07/2003
9556003	C08CA01	01/04/2011
7351316	C08CA01	25/04/2011
5867088	C08CA01	11/01/2011
8784331	C08CA01	30/10/2006
20549743	C08CA01	27/05/2011
3120889	C08CA01	13/04/2011
1123313	C08CA01	12/05/2011
608864	C08CA01	18/05/2011
1069182	C08CA01	02/02/2009
9311044	C08CA01	10/05/2011
8654391	C08CA01	24/01/2008
7152290	C08CA01	31/05/2011
3303598	C08CA01	04/08/2010
9375334	C08CA01	05/05/2011
1163371	C08CA01	16/05/2011
10247171	C08CA01	27/04/2011
9209479	C08CA01	26/01/2009
1069020	C08CA01	18/11/2008
701963	C08CA01	10/05/2011
9180128	C08CA01	28/07/2000
6748095	C08CA01	08/01/2008
3288866	C08CA01	08/04/2010
23442823	C08CA01	22/12/2007
1301453	C08CA01	30/03/2010
14807613	C08CA01	05/08/2009
9996121	C08CA01	18/02/2009
5022237	C08CA01	11/05/2011
7405626	C08CA01	01/06/2011
8978915	C08CA01	20/05/2008
23454613	C08CA01	16/04/2007
12182584	C08CA01	08/02/2011
7336149	C08CA01	03/05/2011
9299339	C08CA01	25/05/2011
12174179	C08CA01	20/10/2006
10268993	C08CA01	13/12/2010
12688464	C08CA01	25/05/2011
6759421	C08CA01	13/05/2011
23472293	C08CA01	28/03/2011
1731389	C08CA01	14/05/2011
3334345	C08CA01	13/05/2011
3333511	C08CA01	19/01/2011
17361649	C08CA01	04/04/2011
9298966	C08CA01	28/04/2011
12730840	C08CA01	31/01/2011
948613	C08CA01	05/05/2008
1063691	C08CA01	08/06/2004
22537806	C08CA01	24/05/2011
20549659	C08CA01	26/03/2007
3328652	C08CA01	23/09/2004
23443048	C08CA01	23/06/2006
24887993	C08CA01	21/02/2007
21870725	C08CA01	27/05/2011
12171465	C08CA01	15/06/2009
20528913	C08CA01	05/04/2010
6415196	C08CA01	11/05/2011
12831650	C08CA01	24/02/2010
3123136	C08CA01	21/04/2010
6745501	C08CA01	30/03/2011
3292667	C08CA01	25/04/2011
5028278	C08CA01	03/11/2010
24765071	C08CA01	23/01/2009
6888668	C08CA01	17/09/2008
1433332	C08CA01	05/10/2009
9231512	C08CA01	25/01/2005
7160936	C08CA01	14/04/2011
8699018	C08CA01	13/12/2007
25041721	C08CA01	27/04/2011
9300107	C08CA01	03/05/2011
8700027	C08CA01	30/05/2011
940917	C08CA01	01/06/2005
173267	C08CA01	15/05/2011
944746	C08CA01	23/08/2006
1330095	C08CA01	02/11/2010
12857039	C08CA01	24/11/2005
23442733	C08CA01	03/05/2011
608337	C08CA01	12/04/2008
292904	C08CA01	13/10/2010
11661262	C08CA01	19/04/2011
16114491	C08CA01	14/03/2011
2768422	C08CA01	17/09/2009
16927754	C08CA01	27/03/2009
6759067	C08CA01	05/05/2011
25052219	C08CA01	26/05/2011
21369799	C08CA01	26/05/2011
17172482	C08CA01	25/08/2008
209933	C08CA01	17/05/2011
2768042	C08CA01	21/10/2008
7244041	C08CA01	10/08/2009
20565596	C08CA01	06/05/2011
12800078	C08CA01	29/12/2010
3333134	C08CA01	30/05/2011
23471643	C08CA01	17/05/2011
15900346	C08CA01	03/01/2008
949680	C08CA01	25/05/2011
16559866	C08CA01	16/04/2004
9377350	C08CA01	24/05/2011
17170104	C08CA01	28/05/2011
8783486	C08CA01	13/05/2011
3323277	C08CA01	01/02/2008
25062071	C08CA01	11/03/2011
9214936	C08CA01	05/05/2011
1608454	C08CA01	11/05/2010
9392962	C08CA01	27/04/2010
6079237	C08CA01	25/05/2011
20564355	C08CA01	01/06/2011
5026941	C08CA01	23/03/2011
16979178	C08CA01	17/08/2010
16979253	C08CA01	28/05/2011
63636	C08CA01	14/07/2000
9302747	C08CA01	13/05/2011
6235148	C08CA01	02/01/2006
21152212	C08CA01	12/05/2011
6178382	C08CA01	17/05/2011
8777089	C08CA01	27/09/2010
5024803	C08CA01	13/05/2011
209206	C08CA01	09/10/2007
8700627	C08CA01	04/10/2006
8784295	C08CA01	03/05/2011
6035529	C08CA01	18/08/2008
12790404	C08CA01	17/05/2011
1516973	C08CA01	04/07/2006
21371533	C08CA01	13/04/2011
1162239	C08CA01	05/05/2011
23996759	C08CA01	29/03/2005
10331626	C08CA01	19/05/2010
641170	C08CA01	16/06/2010
564746	C08CA01	16/05/2011
1090730	C08CA01	24/03/2006
6597437	C08CA01	04/06/2010
1263318	C08CA01	03/12/2008
1261742	C08CA01	30/05/2011
6423594	C08CA01	04/05/2011
1665784	C08CA01	08/07/2009
641127	C08CA01	13/05/2011
1444339	C08CA01	28/02/2011
1296516	C08CA01	12/05/2011
1853226	C08CA01	26/05/2011
26145674	C08CA01	18/04/2011
7848911	C08CA01	18/03/2010
7964359	C08CA01	17/05/2011
12615776	C08CA01	17/05/2011
1206496	C08CA01	06/05/2011
7800389	C08CA01	06/10/2010
12189908	C08CA01	29/04/2004
6842062	C08CA01	01/02/2008
6595352	C08CA01	25/05/2011
1262874	C08CA01	04/05/2011
7777409	C08CA01	26/11/2010
1443071	C08CA01	26/04/2011
1321721	C08CA01	17/04/2009
26144152	C08CA01	09/10/2009
13984960	C08CA01	07/11/2001
8063672	C08CA01	10/05/2011
516372	C08CA01	18/05/2011
26144622	C08CA01	11/05/2011
1443647	C08CA01	18/02/2011
6595079	C08CA01	27/05/2011
1547420	C08CA01	19/03/2010
6602655	C08CA01	06/09/2005
6594887	C08CA01	30/05/2011
8063488	C08CA01	07/02/2003
7800679	C08CA01	10/03/2011
1202553	C08CA01	22/03/2011
1670222	C08CA01	26/05/2011
1295941	C08CA01	16/05/2011
6212365	C08CA01	03/02/2010
526051	C08CA01	23/04/2002
674212	C08CA01	14/01/2004
24718581	C08CA01	22/04/2010
1297372	C08CA01	03/01/2008
4363537	C08CA01	24/04/2009
641313	C08CA01	19/04/2006
6841316	C08CA01	26/04/2011
525534	C08CA01	29/08/2008
5727446	C08CA01	04/08/2006
8956432	C08CA01	10/06/2008
1667186	C08CA01	27/05/2011
12189158	C08CA01	27/05/2011
7850480	C08CA01	04/05/2011
1208195	C08CA01	17/10/2002
6842461	C08CA01	03/05/2011
11286075	C08CA01	02/12/2010
6592623	C08CA01	25/08/2010
12605907	C08CA01	17/07/2008
7833349	C08CA01	20/04/2005
7848344	C08CA01	04/05/2011
6592750	C08CA01	09/04/2007
1209204	C08CA01	25/04/2011
7769677	C08CA01	09/05/2011
7956042	C08CA01	14/03/2011
7964660	C08CA01	25/05/2011
6603579	C08CA01	17/05/2011
1090765	C08CA01	25/05/2011
6602253	C08CA01	30/05/2011
6593460	C08CA01	09/08/2005
7801913	C08CA01	25/09/2009
7769413	C08CA01	05/04/2011
8956746	C08CA01	09/05/2011
639355	C08CA01	22/03/2011
12613860	C08CA01	03/05/2011
525618	C08CA01	11/08/2005
1424080	C08CA01	24/05/2011
26145718	C08CA01	19/05/2011
8955143	C08CA01	15/04/2011
1545327	C08CA01	05/09/2000
4376919	C08CA01	18/03/2009
7967921	C08CA01	15/12/2010
1351713	C08CA01	25/05/2011
538729	C08CA01	25/07/2007
1443624	C08CA01	05/05/2011
640253	C08CA01	14/04/2011
564726	C08CA01	15/04/2011
639310	C08CA01	27/04/2011
6951044	C08CA01	09/05/2011
1647457	C08CA01	30/05/2011
1099425	C08CA01	14/04/2004
1638216	C08CA01	26/04/2010
1648751	C08CA01	23/05/2011
1638786	C08CA01	31/05/2011
25894698	C08CA01	05/05/2011
2202053	C08CA01	25/08/2008
998259	C08CA01	08/10/2010
1135310	C08CA01	06/05/2011
1099959	C08CA01	12/01/2010
1104695	C08CA01	20/04/2011
1641868	C08CA01	11/05/2011
1638220	C08CA01	07/05/2009
1134288	C08CA01	14/03/2011
25750805	C08CA01	20/07/2006
1648154	C08CA01	16/05/2011
1648875	C08CA01	16/01/2008
486308	C08CA01	20/04/2010
1640524	C08CA01	10/05/2011
25860190	C08CA01	25/05/2011
716180	C08CA01	31/05/2011
1641017	C08CA01	18/04/2011
1103040	C08CA01	18/07/2008
1102488	C08CA01	07/09/2010
1580741	C08CA01	31/05/2011
1134421	C08CA01	18/05/2011
25818249	C08CA01	27/06/2008
715906	C08CA01	24/02/2011
194090	C08CA01	07/03/2011
1132627	C08CA01	04/11/2006
1131938	C08CA01	11/03/2010
1135681	C08CA01	26/05/2011
2040796	C08CA01	29/03/2011
2068697	C08CA01	23/07/2010
2059817	C08CA01	26/04/2011
2112759	C08CA01	30/05/2011
2040077	C08CA01	15/05/2011
2070225	C08CA01	28/03/2011
2114052	C08CA01	19/12/2008
2133429	C08CA01	27/08/2009
2042982	C08CA01	09/04/2008
2043310	C08CA01	13/05/2011
2043315	C08CA01	03/05/2011
2067684	C08CA01	29/07/2008
2216620	C08CA01	18/04/2011
875727	C08CA01	27/05/2011
1767215	C08CA01	02/12/2010
2034262	C08CA01	01/06/2011
2034532	C08CA01	03/05/2011
2038044	C08CA01	26/05/2011
875499	C08CA01	25/02/2003
2109458	C08CA01	24/05/2011
2043588	C08CA01	01/06/2011
1755920	C08CA01	24/08/2007
903543	C08CA01	16/04/2003
878296	C08CA01	05/05/2011
877708	C08CA01	24/03/2011
904562	C08CA01	10/05/2011
859454	C08CA01	13/12/2002
2038121	C08CA01	11/05/2011
1752991	C08CA01	29/01/2010
2041726	C08CA01	26/10/2009
1765422	C08CA01	28/04/2011
1683150	C08CA01	04/04/2008
1753241	C08CA01	09/11/2007
904017	C08CA01	21/12/2005
874253	C08CA01	19/05/2010
1763515	C08CA01	02/07/2007
2038256	C08CA01	16/05/2011
5930292	C08CA01	13/05/2011
1755227	C08CA01	28/10/2004
7134993	C08CA01	24/11/2009
1754624	C08CA01	06/05/2011
2034405	C08CA01	26/03/2009
876211	C08CA01	16/05/2011
1755991	C08CA01	12/05/2011
1762017	C08CA01	30/01/2008
2038567	C08CA01	28/02/2011
7043275	C08CA01	19/06/2006
2775987	C08CA01	12/04/2011
2762462	C08CA01	19/04/2011
2764924	C08CA01	06/05/2011
2763918	C08CA01	13/04/2011
3052996	C08CA01	12/05/2011
2759631	C08CA01	26/07/2010
2778183	C08CA01	19/05/2011
2811730	C08CA01	18/05/2011
2778447	C08CA01	08/09/2010
7043389	C08CA01	03/05/2006
2778754	C08CA01	30/03/2011
2573025	C08CA01	01/04/2011
2408020	C08CA01	14/04/2011
2520367	C08CA01	10/05/2011
2520376	C08CA01	30/05/2011
2520416	C08CA01	28/03/2011
2408299	C08CA01	29/04/2011
2519252	C08CA01	29/12/2010
2525914	C08CA01	13/10/2009
9848198	C08CA01	05/05/2011
26465782	C08CA01	03/05/2011
26488037	C08CA01	09/05/2011
28050537	C08CA01	03/05/2011
28066338	C08CA01	21/05/2011
26529186	C08CA01	25/05/2011
26456181	C08CA01	24/05/2011
28044970	C08CA01	05/10/2007
26564907	C08CA01	17/08/2008
26260875	C08CA01	11/09/2010
23678237	C08CA01	27/05/2011
7134474	C08CA01	30/07/2009
17041460	C08CA01	26/05/2011
26243685	C08CA01	31/03/2011
17747156	C08CA01	14/05/2011
20673717	C08CA01	24/09/2009
10455373	C08CA01	04/05/2011
26336640	C08CA01	23/08/2010
7136698	C08CA01	16/12/2010
26196199	C08CA01	29/08/2007
10085916	C08CA01	25/05/2011
7229425	C08CA01	07/03/2011
26235532	C08CA01	19/05/2011
18223290	C08CA01	29/06/2004
26338101	C08CA01	26/04/2011
20147230	C08CA01	02/06/2005
26244401	C08CA01	04/07/2008
26456732	C08CA01	16/04/2005
26258038	C08CA01	17/06/2010
26464502	C08CA01	25/10/2008
28042198	C08CA01	24/03/2011
26579927	C08CA01	05/08/2010
26488369	C08CA01	01/03/2010
26338153	C08CA01	12/05/2011
26235928	C08CA01	30/11/2009
7814017	C08CA01	11/04/2011
13049153	C08CA01	17/05/2011
17323744	C08CA01	12/01/2004
14347072	C08CA01	05/05/2009
7229505	C08CA01	23/03/2007
1899459	C08CA01	01/03/2005
424570	C08CA01	27/05/2011
2960514	C08CA01	19/08/2009
185473	C08CA01	27/07/2009
2962363	C08CA01	16/05/2011
425076	C08CA01	09/03/2011
2959751	C08CA01	26/05/2011
2215741	C08CA01	01/06/2011
28085205	C08CA01	19/01/2011
28083670	C08CA01	28/06/2010
28091864	C08CA01	05/05/2011
6993888	C08CA01	05/04/2011
28091078	C08CA01	20/01/2010
28091105	C08CA01	12/12/2008
3049347	C08CA01	24/05/2011
2040821	C08CA01	23/05/2011
1754737	C08CA01	13/05/2011
28078083	C08CA01	01/06/2011
184353	C08CA01	09/05/2011
304345	C08CA01	01/06/2011
186579	C08CA01	28/07/2004
184640	C08CA01	26/05/2011
16829627	C08CA01	15/11/2010
7142837	C08CA01	18/11/2009
423166	C08CA01	09/02/2004
301074	C08CA01	25/05/2011
427580	C08CA01	19/01/2009
265392	C08CA01	30/08/2010
648818	C08CA01	21/05/2011
28070991	C08CA01	12/04/2006
28088132	C08CA01	23/05/2011
876220	C08CA01	06/05/2011
28044312	C08CA01	09/02/2007
28072361	C08CA01	17/05/2011
28072320	C08CA01	07/11/2008
28078798	C08CA01	23/07/2008
28085935	C08CA01	22/09/2005
28043285	C08CA01	21/01/2009
28044315	C08CA01	12/02/2008
28046187	C08CA01	19/05/2009
24666302	C08CA01	25/04/2006
25743561	C08CA01	27/05/2011
24657685	C08CA01	04/11/2003
25535638	C08CA01	30/05/2011
24656694	C08CA01	06/05/2011
25742680	C08CA01	16/05/2011
25743607	C08CA01	17/03/2009
24658487	C08CA01	19/07/2006
24659420	C08CA01	24/05/2011
421960	C08CA01	31/08/2007
18190165	C08CA01	08/05/2009
927467	C08CA01	30/03/2011
421990	C08CA01	22/01/2002
1020473	C08CA01	21/05/2011
1017188	C08CA01	24/05/2011
1030137	C08CA01	08/10/2008
40180	C08CA01	02/02/2011
18981170	C08CA01	04/05/2011
1371015	C08CA01	13/05/2011
41017	C08CA01	22/03/2011
19801995	C08CA01	29/08/2005
19423453	C08CA01	12/05/2011
20070622	C08CA01	28/04/2011
19800570	C08CA01	13/08/2010
18187685	C08CA01	11/05/2011
18186972	C08CA01	27/05/2011
18187430	C08CA01	14/04/2011
18193951	C08CA01	19/07/2008
16841573	C08CA01	02/01/2008
2251536	C08CA01	22/09/2009
2962765	C08CA01	08/05/2011
1365137	C08CA01	04/05/2004
420454	C08CA01	29/03/2011
1899552	C08CA01	11/09/2003
2249434	C08CA01	21/05/2011
422072	C08CA01	21/05/2011
1015995	C08CA01	20/03/2011
1366720	C08CA01	21/05/2010
26851371	C08CA01	24/05/2011
26833971	C08CA01	11/05/2011
26707359	C08CA01	13/05/2011
26790332	C08CA01	09/02/2009
26628935	C08CA01	20/09/2010
26792577	C08CA01	26/05/2011
26628351	C08CA01	16/08/2010
26803235	C08CA01	26/08/2007
26858878	C08CA01	27/05/2011
16105363	C08CA01	14/05/2011
2988172	C08CA01	27/05/2011
2989757	C08CA01	14/05/2011
12981514	C08CA01	10/07/2010
2989626	C08CA01	12/05/2011
13871949	C08CA01	12/06/2006
26722846	C08CA01	09/07/2010
26700857	C08CA01	20/11/2008
14310089	C08CA01	04/05/2011
26719166	C08CA01	12/05/2011
24655486	C08CA01	14/02/2003
22882065	C08CA01	04/05/2011
24667198	C08CA01	29/05/2008
24666854	C08CA01	24/09/2008
21552734	C08CA01	25/02/2009
24659698	C08CA01	17/05/2011
21065021	C08CA01	23/02/2009
22922696	C08CA01	12/01/2006
23484979	C08CA01	12/01/2007
21651387	C08CA01	12/05/2011
22512676	C08CA01	28/04/2011
26894950	C08CA01	06/10/2009
26945400	C08CA01	23/04/2011
26897230	C08CA01	12/08/2010
26958880	C08CA01	06/04/2011
26958891	C08CA01	31/05/2011
26895844	C08CA01	31/05/2011
26729787	C08CA01	19/04/2011
26879235	C08CA01	09/06/2007
26854601	C08CA01	22/10/2004
26857096	C08CA01	26/05/2011
26864665	C08CA01	20/04/2011
26717570	C08CA01	29/05/2011
26742475	C08CA01	21/08/2007
26888927	C08CA01	19/04/2011
26845358	C08CA01	03/04/2009
26847529	C08CA01	23/05/2011
26882035	C08CA01	12/01/2006
26846652	C08CA01	03/08/2004
26873940	C08CA01	15/10/2003
26847638	C08CA01	21/04/2008
26851758	C08CA01	24/04/2010
26851800	C08CA01	28/05/2011
26824254	C08CA01	16/05/2011
26793342	C08CA01	17/10/2008
26776303	C08CA01	19/05/2011
26829352	C08CA01	16/05/2011
26768700	C08CA01	01/10/2008
26768866	C08CA01	16/05/2011
26715319	C08CA01	30/05/2011
26830866	C08CA01	12/05/2011
26715346	C08CA01	07/11/2006
26980937	C08CA01	29/09/2009
26989053	C08CA01	25/09/2009
26998473	C08CA01	25/05/2011
26946040	C08CA01	18/05/2011
27133104	C08CA01	06/05/2011
27149748	C08CA01	02/08/2007
27086485	C08CA01	29/05/2009
27087864	C08CA01	29/06/2009
27086889	C08CA01	03/06/2010
27114640	C08CA01	24/02/2009
27111940	C08CA01	01/10/2003
27153004	C08CA01	06/05/2011
27104236	C08CA01	16/07/2010
27129852	C08CA01	31/05/2011
27078255	C08CA01	18/05/2011
27086548	C08CA01	10/05/2011
27033025	C08CA01	10/05/2011
27065167	C08CA01	27/10/2004
27043827	C08CA01	05/05/2011
27106068	C08CA01	21/05/2007
27062802	C08CA01	27/05/2006
26994757	C08CA01	28/10/2009
26996974	C08CA01	13/07/2010
26997004	C08CA01	25/05/2010
26993048	C08CA01	22/05/2011
27042092	C08CA01	03/03/2005
27041511	C08CA01	11/05/2011
26998758	C08CA01	28/05/2011
27325120	C08CA01	15/05/2011
27159946	C08CA01	24/03/2006
27383534	C08CA01	09/07/2009
27219870	C08CA01	15/10/2009
27218364	C08CA01	05/11/2007
27358985	C08CA01	12/05/2011
27199886	C08CA01	21/06/2006
27365421	C08CA01	30/11/2010
27254123	C08CA01	30/05/2011
27198744	C08CA01	24/05/2011
27352971	C08CA01	27/02/2007
27358246	C08CA01	12/05/2011
27383112	C08CA01	25/04/2005
27326530	C08CA01	22/03/2009
27369903	C08CA01	15/03/2011
27352425	C08CA01	31/05/2011
27313810	C08CA01	20/05/2011
27314586	C08CA01	11/09/2009
27214799	C08CA01	16/05/2011
27362286	C08CA01	29/11/2008
27308399	C08CA01	12/05/2011
27308798	C08CA01	05/05/2011
27238217	C08CA01	24/01/2007
26954095	C08CA01	03/05/2011
26995530	C08CA01	26/05/2011
26988505	C08CA01	15/04/2011
26989612	C08CA01	03/05/2011
27573153	C08CA01	28/12/2007
27578349	C08CA01	17/06/2010
27643016	C08CA01	26/05/2009
27661153	C08CA01	27/08/2008
27657894	C08CA01	09/11/2008
27645514	C08CA01	14/03/2011
27420591	C08CA01	13/11/2004
27477775	C08CA01	18/02/2011
27456887	C08CA01	21/05/2011
27474528	C08CA01	29/05/2009
27458955	C08CA01	09/03/2005
27475730	C08CA01	11/04/2008
27469881	C08CA01	20/05/2011
27659581	C08CA01	27/08/2009
27564766	C08CA01	09/05/2011
27756348	C08CA01	06/05/2011
27752383	C08CA01	03/04/2010
27543445	C08CA01	01/12/2010
27756732	C08CA01	19/05/2011
27621512	C08CA01	27/05/2011
27623442	C08CA01	21/10/2010
27761440	C08CA01	09/03/2004
27153665	C08CA01	29/10/2009
27163320	C08CA01	30/05/2011
27143971	C08CA01	31/05/2011
27242158	C08CA01	05/08/2010
27160809	C08CA01	09/05/2011
27148314	C08CA01	22/05/2011
27159650	C08CA01	25/05/2011
27167731	C08CA01	31/07/2009
27167758	C08CA01	28/04/2011
27147928	C08CA01	14/05/2011
27153250	C08CA01	19/05/2011
27160272	C08CA01	07/03/2008
27153595	C08CA01	16/05/2011
27146606	C08CA01	31/03/2006
27469950	C08CA01	20/05/2011
26998989	C08CA01	08/06/2009
27000618	C08CA01	08/05/2011
26720527	C08CA01	10/03/2009
26975914	C08CA01	22/05/2009
26833079	C08CA01	23/05/2007
27099718	C08CA01	03/11/2010
305044	C08CA01	07/05/2010
27716439	C08CA01	12/01/2009
27773698	C08CA01	31/05/2011
27683287	C08CA01	07/05/2009
27684839	C08CA01	30/09/2003
27539683	C08CA01	11/05/2011
27460023	C08CA01	11/05/2011
27458555	C08CA01	30/01/2007
27459230	C08CA01	21/05/2011
27779766	C08CA01	19/09/2005
27496435	C08CA01	24/08/2009
27477136	C08CA01	29/10/2010
27784418	C08CA01	30/05/2011
27771032	C08CA01	05/05/2011
27783400	C08CA01	10/04/2005
27674365	C08CA01	24/05/2011
27784619	C08CA01	10/09/2003
421835	C08CA01	23/05/2011
27684000	C08CA01	07/05/2011
27674082	C08CA01	19/11/2010
27771463	C08CA01	16/05/2011
26761997	C08CA01	26/05/2011
27608043	C08CA01	04/05/2011
27449803	C08CA01	11/05/2011
27527681	C08CA01	21/05/2011
27512143	C08CA01	18/05/2011
27530452	C08CA01	21/05/2011
27459099	C08CA01	29/11/2004
27449985	C08CA01	25/05/2011
27535521	C08CA01	05/04/2008
26933407	C08CA01	19/09/2005
24655178	C08CA01	19/05/2010
27796602	C08CA01	04/05/2010
26619933	C08CA01	06/09/2010
27667744	C08CA01	18/05/2011
27657567	C08CA01	30/03/2011
27657600	C08CA01	29/05/2011
27764992	C08CA01	06/11/2009
27154246	C08CA01	01/02/2010
27132526	C08CA01	05/05/2011
18186896	C08CA01	31/05/2011
27783945	C08CA01	31/01/2003
27720128	C08CA01	10/01/2008
27695073	C08CA01	23/05/2011
27804721	C08CA01	25/03/2009
27758954	C08CA01	28/04/2011
27760549	C08CA01	29/11/2010
27760934	C08CA01	11/05/2011
27718674	C08CA01	20/05/2008
27764235	C08CA01	26/12/2010
27707178	C08CA01	25/05/2011
27669763	C08CA01	20/05/2011
27804984	C08CA01	25/06/2007
27665005	C08CA01	26/11/2010
27662240	C08CA01	13/05/2011
27160253	C08CA01	28/05/2011
18195479	C08CA01	03/08/2008
26974970	C08CA01	09/05/2011
1030390	C08CA01	27/05/2011
27768740	C08CA01	10/05/2011
27786075	C08CA01	28/05/2011
27716323	C08CA01	19/06/2007
27246927	C08CA01	13/05/2011
27572773	C08CA01	15/02/2008
27796173	C08CA01	19/03/2010
27767563	C08CA01	01/07/2006
26858332	C08CA01	20/07/2004
27670442	C08CA01	24/05/2011
33080420	C08CA01	31/03/2011
33049981	C08CA01	03/08/2005
33100103	C08CA01	24/05/2011
33065341	C08CA01	17/05/2011
33072082	C08CA01	10/05/2011
33031759	C08CA01	27/12/2006
33101389	C08CA01	14/08/2009
33092896	C08CA01	29/10/2009
33094244	C08CA01	26/05/2011
33026329	C08CA01	25/04/2008
33030987	C08CA01	04/07/2007
33032891	C08CA01	21/05/2011
33019657	C08CA01	27/05/2011
33051991	C08CA01	01/09/2008
33081368	C08CA01	04/11/2009
33086083	C08CA01	05/12/2009
33050069	C08CA01	07/03/2011
33016797	C08CA01	28/01/2008
33056431	C08CA01	07/07/2008
33002793	C08CA01	19/05/2005
33027943	C08CA01	24/11/2010
33018138	C08CA01	19/01/2007
33072672	C08CA01	01/12/2010
33013406	C08CA01	26/05/2011
33024115	C08CA01	03/05/2011
33035790	C08CA01	08/04/2011
33048279	C08CA01	13/05/2011
33050773	C08CA01	23/05/2011
33087600	C08CA01	07/05/2011
33073315	C08CA01	08/09/2005
33049435	C08CA01	13/01/2010
33104669	C08CA01	30/05/2011
33064809	C08CA01	18/05/2011
33107313	C08CA01	16/07/2008
33051529	C08CA01	04/05/2009
33056259	C08CA01	20/04/2011
33111158	C08CA01	15/03/2004
33083974	C08CA01	11/05/2011
33016075	C08CA01	29/01/2009
33065816	C08CA01	09/02/2004
33067653	C08CA01	29/12/2008
33050206	C08CA01	23/05/2011
33015203	C08CA01	20/05/2011
33028180	C08CA01	16/05/2011
33012303	C08CA01	31/03/2011
33032821	C08CA01	07/05/2011
33026145	C08CA01	15/02/2011
421387	C08CA01	14/09/2001
27507107	C08CA01	04/03/2008
24668930	C08CA01	31/05/2011
2958097	C08CA01	30/06/2007
21554553	C08CA01	12/12/2008
33008240	C08CA01	19/11/2001
21114796	C08CA01	27/04/2010
14187440	C08CA01	04/05/2011
33306049	C08CA01	03/06/2010
20981877	C08CA01	10/11/2010
27832314	C08CA01	11/05/2011
33113958	C08CA01	29/09/2009
33004522	C08CA01	30/05/2011
33065144	C08CA01	08/03/2011
33088193	C08CA01	08/05/2011
33112492	C08CA01	16/05/2011
33046061	C08CA01	22/01/2002
33106625	C08CA01	12/07/2005
33091566	C08CA01	14/04/2011
33007224	C08CA01	25/01/2010
33063789	C08CA01	15/05/2011
33000591	C08CA01	29/10/2004
33053146	C08CA01	25/09/2007
33037440	C08CA01	28/05/2008
33112202	C08CA01	08/12/2009
33098972	C08CA01	17/11/2004
33097532	C08CA01	16/03/2011
33019050	C08CA01	27/02/2009
33023069	C08CA01	18/05/2011
33058715	C08CA01	20/11/2001
33057611	C08CA01	29/08/2006
33008358	C08CA01	21/07/2009
33029780	C08CA01	24/05/2011
33050260	C08CA01	04/05/2011
33093762	C08CA01	16/05/2011
33024570	C08CA01	25/05/2011
16616764	C08CA01	03/05/2011
27856629	C08CA01	28/04/2011
33201120	C08CA01	29/04/2011
16611190	C08CA01	11/05/2006
23343181	C08CA01	06/05/2011
16625249	C08CA01	04/05/2004
28024706	C08CA01	30/03/2010
16616536	C08CA01	03/05/2006
33313140	C08CA01	21/03/2011
16181789	C08CA01	18/03/2011
18757479	C08CA01	02/11/2010
33265198	C08CA01	18/05/2011
33233293	C08CA01	19/05/2011
16706065	C08CA01	16/06/2009
18758883	C08CA01	13/05/2011
16610599	C08CA01	26/04/2011
28016187	C08CA01	19/05/2011
16181636	C08CA01	07/04/2011
33238335	C08CA01	18/06/2003
23408435	C08CA01	10/05/2011
16596474	C08CA01	20/12/2007
16611242	C08CA01	30/05/2011
33245853	C08CA01	06/03/2008
16705925	C08CA01	15/04/2011
33208331	C08CA01	18/05/2011
28026151	C08CA01	19/05/2011
33308527	C08CA01	15/09/2010
21109099	C08CA01	28/10/2010
23364475	C08CA01	27/04/2011
16630616	C08CA01	26/04/2006
33235478	C08CA01	29/04/2011
21110022	C08CA01	22/01/2009
16619951	C08CA01	28/04/2011
16636488	C08CA01	01/04/2011
16600704	C08CA01	05/11/2007
16705254	C08CA01	05/04/2011
28017377	C08CA01	12/11/2010
21106897	C08CA01	04/04/2011
23326770	C08CA01	27/05/2011
23401443	C08CA01	08/02/2008
23334057	C08CA01	05/05/2011
23340392	C08CA01	09/05/2011
23339422	C08CA01	26/06/2009
23367450	C08CA01	30/03/2007
16130043	C08CA01	04/09/2003
18768769	C08CA01	25/04/2011
33306177	C08CA01	26/04/2011
16639783	C08CA01	05/06/2006
16654742	C08CA01	24/05/2011
18757155	C08CA01	18/11/2008
14188146	C08CA01	18/01/2001
28018842	C08CA01	19/05/2011
33288442	C08CA01	17/05/2011
23326417	C08CA01	24/05/2011
16609724	C08CA01	17/05/2007
23368347	C08CA01	21/02/2011
16186327	C08CA01	26/04/2011
16631291	C08CA01	13/05/2011
23366898	C08CA01	25/02/2009
16124869	C08CA01	23/05/2011
23354037	C08CA01	06/05/2011
16180694	C08CA01	01/09/2008
23340625	C08CA01	13/12/2005
23326017	C08CA01	15/09/2010
16187183	C08CA01	28/02/2007
28029066	C08CA01	12/01/2009
23412051	C08CA01	29/04/2011
23325461	C08CA01	03/03/2009
16684088	C08CA01	25/05/2011
33244922	C08CA01	13/05/2009
16708965	C08CA01	14/07/2005
16607575	C08CA01	05/05/2011
16607817	C08CA01	12/05/2011
33253882	C08CA01	26/05/2011
16615324	C08CA01	18/05/2011
27975673	C08CA01	06/05/2011
18757709	C08CA01	05/05/2011
31049364	C08CA01	24/08/2009
31487753	C08CA01	05/01/2011
31219404	C08CA01	08/10/2009
21102466	C08CA01	29/04/2011
33315565	C08CA01	24/05/2011
23333467	C08CA01	10/03/2010
16630904	C08CA01	08/06/2005
23367381	C08CA01	19/04/2011
21107467	C08CA01	25/03/2011
16168690	C08CA01	30/05/2011
16130514	C08CA01	07/09/2005
28032528	C08CA01	16/02/2011
16127130	C08CA01	18/09/2007
16598795	C08CA01	11/05/2011
16602630	C08CA01	20/05/2011
21116848	C08CA01	21/01/2009
16631824	C08CA01	24/03/2011
23316314	C08CA01	27/05/2011
23366976	C08CA01	26/05/2011
23368559	C08CA01	25/05/2011
16606426	C08CA01	18/02/2011
23413421	C08CA01	20/03/2006
21102991	C08CA01	24/05/2011
20981736	C08CA01	15/03/2011
23401605	C08CA01	10/05/2010
23315414	C08CA01	29/10/2010
27880957	C08CA01	05/07/2006
21011417	C08CA01	17/02/2009
23353743	C08CA01	30/01/2008
23350638	C08CA01	11/02/2011
23353918	C08CA01	08/11/2005
16655019	C08CA01	06/04/2011
23361762	C08CA01	14/04/2011
16621754	C08CA01	14/04/2011
23367113	C08CA01	11/05/2011
31271011	C08CA01	18/12/2008
31590499	C08CA01	11/04/2006
31915433	C08CA01	15/09/2010
31530846	C08CA01	22/03/2011
31969796	C08CA01	24/06/2004
31638063	C08CA01	20/04/2006
31409038	C08CA01	03/03/2011
31977625	C08CA01	08/06/2007
31079772	C08CA01	14/05/2010
31687391	C08CA01	29/10/2010
31123402	C08CA01	09/02/2006
32164001	C08CA01	29/03/2010
31435208	C08CA01	29/05/2008
31313850	C08CA01	04/05/2010
31202352	C08CA01	27/10/2010
31451455	C08CA01	05/01/2011
31298093	C08CA01	31/07/2008
31945730	C08CA01	06/10/2010
31756111	C08CA01	29/06/2006
31915703	C08CA01	26/04/2004
31053990	C08CA01	29/12/2010
31194005	C08CA01	08/04/2011
31164904	C08CA01	03/09/2009
32125350	C08CA01	21/04/2009
31889230	C08CA01	13/12/2007
32088102	C08CA01	21/05/2010
31067594	C08CA01	08/02/2011
31288990	C08CA01	24/02/2011
31634372	C08CA01	08/06/2005
31759063	C08CA01	03/03/2010
32246611	C08CA01	11/09/2007
31931500	C08CA01	27/11/2009
31595727	C08CA01	14/12/2007
31109498	C08CA01	30/11/2007
31494769	C08CA01	18/02/2011
31810817	C08CA01	22/02/2011
31607158	C08CA01	21/12/2010
31511644	C08CA01	31/01/2011
31238053	C08CA01	02/05/2011
31257756	C08CA01	22/10/2009
31767728	C08CA01	20/08/2007
31799718	C08CA01	27/08/2010
31034602	C08CA01	13/10/2010
31091370	C08CA01	04/09/2008
31963319	C08CA01	27/07/2009
31925529	C08CA01	30/11/2007
31948985	C08CA01	09/01/2003
31100891	C08CA01	17/05/2010
31771133	C08CA01	03/12/2008
31642302	C08CA01	08/09/2008
31599277	C08CA01	12/01/2011
31343025	C08CA01	20/11/2001
31627593	C08CA01	16/06/2010
31459109	C08CA01	21/12/2007
31533750	C08CA01	01/06/2011
32114786	C08CA01	27/11/2009
31201487	C08CA01	26/01/2011
31039899	C08CA01	26/10/2010
31835091	C08CA01	14/03/2011
31265418	C08CA01	17/02/2011
31343850	C08CA01	12/12/2007
32078134	C08CA01	23/05/2006
31197084	C08CA01	07/01/2009
31558121	C08CA01	20/07/2006
31493727	C08CA01	05/07/2010
31848325	C08CA01	23/11/2009
31839721	C08CA01	14/05/2010
31999224	C08CA01	25/10/2010
31381296	C08CA01	10/08/2006
31425633	C08CA01	27/01/2009
31060960	C08CA01	22/03/2010
31914183	C08CA01	27/11/2008
31455126	C08CA01	23/04/2011
32228106	C08CA01	09/03/2011
31394939	C08CA01	12/11/2008
31694445	C08CA01	21/12/2005
32200966	C08CA01	16/11/2010
31282041	C08CA01	16/09/2009
31811269	C08CA01	28/05/2004
32195861	C08CA01	23/12/2010
31170404	C08CA01	01/12/2010
32168735	C08CA01	14/08/2008
31877612	C08CA01	09/09/2010
31999320	C08CA01	14/01/2009
32256864	C08CA01	13/12/2006
31560788	C08CA01	04/01/2011
32041685	C08CA01	24/09/2009
32280643	C08CA01	24/05/2006
32214444	C08CA01	11/03/2008
31675988	C08CA01	03/12/2008
31184648	C08CA01	23/01/2006
31738398	C08CA01	16/03/2007
31362262	C08CA01	11/10/2007
31505016	C08CA01	28/09/2007
31565972	C08CA01	18/06/2009
31471872	C08CA01	14/03/2011
31150657	C08CA01	13/04/2011
31787423	C08CA01	23/10/2006
32140070	C08CA01	09/05/2010
31070304	C08CA01	12/05/2005
31136755	C08CA01	01/01/2011
31852758	C08CA01	18/03/2009
31655762	C08CA01	04/11/2010
31812100	C08CA01	13/08/2010
31163272	C08CA01	04/12/2009
31259853	C08CA01	18/03/2010
31129202	C08CA01	12/12/2010
31676118	C08CA01	03/12/2008
31071923	C08CA01	26/01/2011
31821410	C08CA01	16/12/2009
31236940	C08CA01	09/02/2011
31307737	C08CA01	15/12/2009
31389119	C08CA01	26/11/2007
31813415	C08CA01	10/12/2010
32044149	C08CA01	27/04/2007
31585879	C08CA01	16/12/2008
31707609	C08CA01	13/07/2009
31328200	C08CA01	05/12/2009
31352566	C08CA01	20/08/2010
32231333	C08CA01	23/12/2008
31203374	C08CA01	08/10/2008
32074407	C08CA01	02/09/2009
31136366	C08CA01	10/08/2005
31745915	C08CA01	06/11/2007
31119407	C08CA01	14/11/2007
31722183	C08CA01	21/03/2007
31057423	C08CA01	04/10/1999
31109594	C08CA01	04/12/2009
32269218	C08CA01	25/11/2008
31222949	C08CA01	19/04/2005
31418145	C08CA01	04/08/2010
31997788	C08CA01	24/11/2009
31756033	C08CA01	21/02/2011
31150559	C08CA01	30/08/2007
32107866	C08CA01	03/09/2007
31633993	C08CA01	10/03/2011
31214763	C08CA01	21/06/2006
31977064	C08CA01	29/12/2008
32176414	C08CA01	28/03/2007
31664650	C08CA01	29/12/2010
32199208	C08CA01	28/02/2011
31576458	C08CA01	02/12/2010
31102850	C08CA01	15/12/2008
31156229	C08CA01	16/12/2009
32065893	C08CA01	07/04/2010
32271367	C08CA01	02/10/2008
32178350	C08CA01	14/12/2010
31270706	C08CA01	20/03/2002
31652847	C08CA01	15/04/2011
31701050	C08CA01	13/02/2009
31742492	C08CA01	13/05/2004
31172421	C08CA01	03/03/2011
31585946	C08CA01	31/03/2010
31046930	C08CA01	30/10/2009
31923655	C08CA01	21/01/2011
32228081	C08CA01	09/12/2010
32018491	C08CA01	15/01/2007
32100813	C08CA01	21/05/2008
31796675	C08CA01	16/05/2006
31669828	C08CA01	26/04/2006
31318102	C08CA01	13/08/2010
31656190	C08CA01	03/12/2010
31977828	C08CA01	15/05/2011
31919378	C08CA01	17/12/2010
31089828	C08CA01	08/11/2010
31087709	C08CA01	13/05/2003
31560828	C08CA01	30/11/2010
32059302	C08CA01	13/02/2002
32119254	C08CA01	13/02/2004
32037940	C08CA01	23/08/2006
31270106	C08CA01	27/10/2008
32119020	C08CA01	23/06/2010
31708256	C08CA01	11/10/2007
32189808	C08CA01	16/12/2010
31139449	C08CA01	26/05/2004
31825612	C08CA01	21/01/2011
32002259	C08CA01	16/01/2006
31548186	C08CA01	07/05/2008
32089318	C08CA01	15/06/2006
31514428	C08CA01	09/11/2009
31682435	C08CA01	25/04/2011
31828310	C08CA01	15/12/2010
31568634	C08CA01	27/06/2005
32173766	C08CA01	07/12/2009
32106380	C08CA01	18/05/2006
31538662	C08CA01	30/11/2009
32084233	C08CA01	06/07/2005
31340688	C08CA01	10/12/2008
31543145	C08CA01	10/12/2010
31390850	C08CA01	28/12/2009
31165913	C08CA01	06/04/2011
31895165	C08CA01	05/02/2007
32027830	C08CA01	22/05/2011
31162395	C08CA01	27/01/2011
32247232	C08CA01	10/12/2009
32083468	C08CA01	25/01/2011
31263556	C08CA01	24/06/2010
31369925	C08CA01	15/03/2011
31527057	C08CA01	14/12/2007
31564173	C08CA01	06/04/2011
31186394	C08CA01	09/12/2009
31832522	C08CA01	09/12/2008
31696885	C08CA01	12/12/2010
31526446	C08CA01	22/10/2009
31354097	C08CA01	21/10/2008
31282883	C08CA01	10/10/2006
31336193	C08CA01	30/12/2009
32004312	C08CA01	31/12/2010
31812269	C08CA01	28/07/2005
31913180	C08CA01	29/08/2006
31394212	C08CA01	05/03/2007
32119810	C08CA01	30/03/2009
31081419	C08CA01	24/07/2009
31687550	C08CA01	02/07/2008
32173642	C08CA01	30/06/2009
31071290	C08CA01	20/11/2007
31569317	C08CA01	11/02/2011
31836144	C08CA01	03/01/2011
31492215	C08CA01	26/01/2007
31793361	C08CA01	15/11/2010
31234634	C08CA01	19/10/2010
31986948	C08CA01	21/03/2011
31714507	C08CA01	24/10/2010
31345749	C08CA01	30/11/2009
32168690	C08CA01	18/02/2011
31151527	C08CA01	21/07/2006
31720751	C08CA01	19/10/2009
31907081	C08CA01	15/12/2009
31524254	C08CA01	06/11/2008
31757888	C08CA01	23/04/2007
31051214	C08CA01	12/04/2011
31766763	C08CA01	29/05/2007
31226791	C08CA01	07/12/2009
31305958	C08CA01	07/10/2009
31935766	C08CA01	24/02/2010
31356177	C08CA01	16/05/2006
32200367	C08CA01	12/05/2010
32184569	C08CA01	30/09/2008
31184316	C08CA01	15/03/2005
31879064	C08CA01	23/08/2010
32072356	C08CA01	12/12/2008
32204959	C08CA01	23/06/2006
31701057	C08CA01	17/11/2010
32111753	C08CA01	19/12/2006
31248296	C08CA01	11/04/2005
31677585	C08CA01	30/12/2008
31239463	C08CA01	16/12/2009
31916030	C08CA01	09/12/2009
31742774	C08CA01	15/01/2011
31958844	C08CA01	08/03/2011
31377253	C08CA01	17/12/2010
31653793	C08CA01	08/10/2008
31974787	C08CA01	01/07/2005
31144301	C08CA01	17/04/2007
31765504	C08CA01	25/02/2008
31440741	C08CA01	24/01/2010
31471199	C08CA01	04/08/2003
31822746	C08CA01	06/04/2011
31048154	C08CA01	23/02/2010
31710392	C08CA01	15/12/2009
31746215	C08CA01	15/08/2010
31997411	C08CA01	16/12/2009
32194499	C08CA01	30/05/2011
31066162	C08CA01	22/11/2006
31570301	C08CA01	12/11/2010
32080813	C08CA01	11/06/2010
31638746	C08CA01	14/12/2010
32253318	C08CA01	29/11/2007
31474717	C08CA01	21/12/2004
31766001	C08CA01	14/03/2011
32273088	C08CA01	27/10/2008
32200321	C08CA01	27/06/2008
31782680	C08CA01	05/12/2008
31042165	C08CA01	26/01/2011
31251686	C08CA01	07/02/2011
31159808	C08CA01	02/12/2009
31041581	C08CA01	29/01/2009
31744116	C08CA01	25/05/2010
31113304	C08CA01	28/04/2008
31330729	C08CA01	11/03/2011
31761935	C08CA01	01/12/2009
32110892	C08CA01	14/12/2004
32147698	C08CA01	20/11/2009
31068246	C08CA01	16/11/2009
31984866	C08CA01	17/04/2008
31082208	C08CA01	25/12/2010
32030873	C08CA01	14/08/2008
31479774	C08CA01	22/12/2010
32006368	C08CA01	09/03/2011
31652283	C08CA01	27/09/2007
31577402	C08CA01	04/04/2011
31148525	C08CA01	07/09/2009
31273101	C08CA01	03/12/2007
31606344	C08CA01	02/11/2010
31660557	C08CA01	13/07/2008
31091924	C08CA01	16/11/2010
31490483	C08CA01	12/04/2011
31417692	C08CA01	13/04/2007
31652501	C08CA01	09/12/2008
31279289	C08CA01	01/03/2011
32236449	C08CA01	09/03/2004
31586866	C08CA01	12/07/2004
31275887	C08CA01	15/02/2006
32236750	C08CA01	17/09/2009
31258244	C08CA01	16/05/2003
31812892	C08CA01	20/12/2010
32121891	C08CA01	30/09/2009
31523862	C08CA01	29/10/2007
31162260	C08CA01	13/07/2010
32014902	C08CA01	27/08/2007
31111108	C08CA01	24/01/2011
32148445	C08CA01	16/11/2010
31637166	C08CA01	08/04/2011
31270547	C08CA01	07/01/2011
31290625	C08CA01	18/03/2004
32250443	C08CA01	07/01/2003
31565758	C08CA01	16/07/2010
32065117	C08CA01	26/02/2010
31748071	C08CA01	06/02/2006
31565705	C08CA01	13/06/2007
31555309	C08CA01	17/12/2009
31937265	C08CA01	09/05/2011
31931558	C08CA01	18/09/2008
31253964	C08CA01	03/11/2010
32081758	C08CA01	11/04/2011
32227760	C08CA01	24/01/2011
31539806	C08CA01	01/12/2010
31991627	C08CA01	09/05/2011
31506933	C08CA01	10/12/2010
31373433	C08CA01	26/06/2008
31729599	C08CA01	22/05/2011
31826783	C08CA01	26/03/2011
31430347	C08CA01	26/10/2009
31948150	C08CA01	26/01/2011
31700874	C08CA01	24/04/2007
31534749	C08CA01	29/06/2010
31909126	C08CA01	07/02/2011
31890800	C08CA01	22/12/2009
32156190	C08CA01	30/08/2010
32189793	C08CA01	19/11/2007
31857639	C08CA01	11/05/2011
31077067	C08CA01	19/05/2011
32085839	C08CA01	21/01/2011
31444267	C08CA01	05/05/2011
31300579	C08CA01	03/03/2008
31161794	C08CA01	30/12/2009
31970294	C08CA01	21/05/2011
31814832	C08CA01	16/03/2005
31391949	C08CA01	03/05/2004
31355037	C08CA01	22/09/2004
31693651	C08CA01	18/04/2006
31927125	C08CA01	25/03/2008
31228560	C08CA01	02/03/2011
31561636	C08CA01	22/04/2009
31080219	C08CA01	01/09/2010
31865644	C08CA01	11/01/2011
31720979	C08CA01	28/12/2007
31310306	C08CA01	26/11/2009
31470090	C08CA01	24/11/2009
31884055	C08CA01	05/02/2011
31256796	C08CA01	05/12/2008
31595286	C08CA01	28/11/2008
31946499	C08CA01	25/11/2009
32087021	C08CA01	20/01/2011
32168370	C08CA01	21/04/2010
31311199	C08CA01	21/11/2007
32182006	C08CA01	08/12/2007
31184345	C08CA01	22/09/2010
32015901	C08CA01	03/06/2005
31901197	C08CA01	21/12/2007
32209127	C08CA01	22/10/2003
31682927	C08CA01	24/11/2009
32162855	C08CA01	15/12/2008
31662360	C08CA01	10/06/2009
32274409	C08CA01	07/04/2011
31429454	C08CA01	23/12/2009
32027826	C08CA01	24/11/2009
32232823	C08CA01	16/11/2010
32136461	C08CA01	28/12/2001
31936735	C08CA01	03/11/2006
32250083	C08CA01	02/11/2010
31925806	C08CA01	17/12/2008
31822693	C08CA01	06/08/2010
32217404	C08CA01	21/06/2005
32019169	C08CA01	02/12/2010
31264025	C08CA01	31/10/2005
31159337	C08CA01	20/10/2009
31205054	C08CA01	18/11/2009
31189577	C08CA01	12/07/2010
31217806	C08CA01	30/09/2008
31493704	C08CA01	15/12/2010
31604848	C08CA01	13/12/2005
31724163	C08CA01	07/10/2009
31949691	C08CA01	22/11/2010
32280196	C08CA01	08/06/2006
32173526	C08CA01	04/11/2010
31095601	C08CA01	30/12/2010
31456279	C08CA01	25/11/2009
32073892	C08CA01	16/09/2009
31095519	C08CA01	30/11/2006
31813066	C08CA01	15/09/2009
32115248	C08CA01	22/09/2010
32108396	C08CA01	23/08/2010
31216309	C08CA01	16/09/2009
31602075	C08CA01	27/03/2007
31882525	C08CA01	01/03/2011
31579343	C08CA01	30/12/2010
32090626	C08CA01	12/02/2011
31886776	C08CA01	02/11/2010
31341516	C08CA01	30/05/2011
32042810	C08CA01	10/12/2009
32141437	C08CA01	15/09/2006
31944943	C08CA01	12/12/2010
31192898	C08CA01	22/02/2011
31283245	C08CA01	26/11/2010
31767577	C08CA01	04/01/2010
32165848	C08CA01	23/12/2009
31032144	C08CA01	13/04/2011
31064693	C08CA01	23/07/2010
31969496	C08CA01	01/02/2007
31682966	C08CA01	06/04/2011
31457699	C08CA01	07/05/2008
31115224	C08CA01	03/05/2011
31125609	C08CA01	22/03/2011
32242741	C08CA01	16/06/2009
31101310	C08CA01	09/03/2011
31428290	C08CA01	18/02/2010
31845001	C08CA01	28/10/2010
31474582	C08CA01	02/03/2011
31960354	C08CA01	15/12/2004
31549250	C08CA01	15/12/2009
31529542	C08CA01	02/02/2006
31822263	C08CA01	27/09/2010
31237625	C08CA01	04/05/2005
31759943	C08CA01	23/03/2011
32158955	C08CA01	23/11/2010
31080678	C08CA01	18/12/2009
32267988	C08CA01	22/11/2006
31515814	C08CA01	21/10/2010
31756049	C08CA01	26/12/2008
31199814	C08CA01	09/05/2011
31637853	C08CA01	12/12/2010
31061564	C08CA01	16/03/2009
32050605	C08CA01	19/12/2007
31344355	C08CA01	15/02/2006
32206935	C08CA01	10/10/2005
31424400	C08CA01	08/03/2005
32008833	C08CA01	14/05/2010
31703364	C08CA01	24/06/2004
31324057	C08CA01	19/11/2008
31506905	C08CA01	04/09/2009
31517608	C08CA01	20/04/2007
31878709	C08CA01	22/12/2010
31030230	C08CA01	14/03/2007
32271150	C08CA01	25/07/2007
31610930	C08CA01	13/02/2007
31420857	C08CA01	11/11/2010
32236174	C08CA01	17/12/2008
31523134	C08CA01	18/04/2008
31092882	C08CA01	19/12/2010
31409972	C08CA01	27/10/2008
32078125	C08CA01	27/11/2008
31746758	C08CA01	15/12/2010
31206444	C08CA01	18/05/2009
31696583	C08CA01	09/01/2011
32251619	C08CA01	09/05/2006
32242783	C08CA01	19/01/2011
31426144	C08CA01	07/02/2007
32264804	C08CA01	09/03/2010
31928343	C08CA01	19/12/2007
31449353	C08CA01	23/05/2011
31937147	C08CA01	03/02/2005
31854529	C08CA01	25/08/2010
31847489	C08CA01	30/12/2010
31929829	C08CA01	12/12/2005
31423402	C08CA01	26/12/2009
31169643	C08CA01	21/09/2009
31805543	C08CA01	09/06/2008
31948103	C08CA01	30/04/2011
31052600	C08CA01	10/12/2008
31374121	C08CA01	22/03/2011
31944420	C08CA01	02/12/2008
32197657	C08CA01	09/04/2010
31921601	C08CA01	06/04/2011
31330113	C08CA01	19/10/2006
31714304	C08CA01	08/10/2010
31368880	C08CA01	03/06/2009
32257105	C08CA01	25/11/2010
32154430	C08CA01	21/05/2007
31449578	C08CA01	17/04/2006
31372528	C08CA01	23/12/2009
31100716	C08CA01	06/08/2001
31480321	C08CA01	21/01/2011
31477553	C08CA01	30/10/2008
31688375	C08CA01	11/03/2009
31722392	C08CA01	24/01/2011
31053931	C08CA01	29/03/2011
32155393	C08CA01	06/07/2010
31458992	C08CA01	13/02/2009
31148510	C08CA01	15/12/2010
31951386	C08CA01	14/10/2010
31668372	C08CA01	23/06/2008
32120883	C08CA01	02/03/2007
31317319	C08CA01	07/10/2010
31486375	C08CA01	12/12/2008
32192670	C08CA01	17/12/2010
31948792	C08CA01	29/10/2009
31905651	C08CA01	04/12/2008
31600212	C08CA01	29/12/2009
31173827	C08CA01	10/11/2010
32255955	C08CA01	20/12/2005
31733685	C08CA01	05/06/2007
31585275	C08CA01	05/12/2010
32072112	C08CA01	13/09/2007
31222269	C08CA01	02/03/2011
31561607	C08CA01	21/03/2007
31820747	C08CA01	26/02/2010
31725531	C08CA01	12/04/2004
31657716	C08CA01	18/10/2004
31593910	C08CA01	19/12/2007
31696446	C08CA01	13/10/2010
31947491	C08CA01	13/10/2006
32097531	C08CA01	01/06/2007
31607730	C08CA01	01/09/2008
32257433	C08CA01	20/04/2011
31564686	C08CA01	19/11/2007
31967668	C08CA01	24/01/2011
31333245	C08CA01	08/10/2009
31932978	C08CA01	25/01/2005
31157330	C08CA01	15/12/2009
31555376	C08CA01	07/10/2008
