patient_id	covar_name	date
12782183	C10AA03	06/04/2011
7244070	C10AA03	23/03/2006
8641990	C10AA03	19/01/2006
9230914	C10AA03	30/03/2011
1731330	C10AA03	19/05/2011
5812917	C10AA03	31/05/2004
24950727	C10AA03	24/05/2011
15899105	C10AA03	11/02/2009
9306838	C10AA03	26/01/2004
9340914	C10AA03	29/01/2007
12186471	C10AA03	18/03/2011
9284420	C10AA03	19/05/2008
9214995	C10AA03	18/03/2010
12731034	C10AA03	28/01/2011
3938112	C10AA03	10/05/2011
21370124	C10AA03	23/05/2011
9300494	C10AA03	09/01/2004
6747268	C10AA03	12/05/2011
9231971	C10AA03	09/03/2005
10004067	C10AA03	26/09/2008
21370276	C10AA03	09/02/2011
702533	C10AA03	07/05/2008
60762	C10AA03	08/05/2011
9323502	C10AA03	12/05/2011
8960480	C10AA03	25/02/2011
12696447	C10AA03	15/03/2005
9311828	C10AA03	16/05/2011
6760798	C10AA03	04/05/2011
10245464	C10AA03	04/04/2007
206194	C10AA03	18/05/2011
12779663	C10AA03	19/05/2011
9213970	C10AA03	16/03/2011
13223810	C10AA03	24/02/2004
8277865	C10AA03	31/01/2007
9371920	C10AA03	02/02/2007
12780206	C10AA03	27/05/2011
16558782	C10AA03	04/05/2011
5867543	C10AA03	24/01/2008
8976564	C10AA03	08/07/1999
25060595	C10AA03	02/07/2001
7351316	C10AA03	03/01/2011
15914106	C10AA03	16/05/2011
5031929	C10AA03	04/09/2008
1123313	C10AA03	12/05/2011
12739874	C10AA03	15/04/2011
12479267	C10AA03	01/06/2011
3117787	C10AA03	28/03/2007
12767263	C10AA03	21/04/2009
9310772	C10AA03	21/09/2009
9231987	C10AA03	31/10/2006
9294013	C10AA03	31/05/2011
16101181	C10AA03	16/03/2006
10268936	C10AA03	31/05/2011
9996304	C10AA03	16/04/2007
1069020	C10AA03	22/06/2010
10003048	C10AA03	18/04/2007
10004388	C10AA03	13/12/2010
9311118	C10AA03	12/05/2011
1515199	C10AA03	24/11/2009
6749370	C10AA03	26/08/2005
16926879	C10AA03	22/02/2011
5029306	C10AA03	25/02/2011
16557846	C10AA03	04/11/2010
7336149	C10AA03	13/11/2009
12689672	C10AA03	13/10/2006
12688464	C10AA03	13/03/2008
3323225	C10AA03	08/04/2011
9214840	C10AA03	01/02/2011
16559495	C10AA03	25/10/2007
1941438	C10AA03	27/10/2006
1517271	C10AA03	10/12/2001
12764876	C10AA03	01/12/2005
3330955	C10AA03	30/10/2008
9983430	C10AA03	27/04/2005
20351368	C10AA03	19/11/2010
23471645	C10AA03	20/06/2007
8556700	C10AA03	01/07/2008
12790596	C10AA03	17/04/2008
1069126	C10AA03	01/09/2009
12774766	C10AA03	31/05/2011
25051689	C10AA03	07/01/2011
6236203	C10AA03	12/06/2009
21370517	C10AA03	30/03/2011
9231512	C10AA03	26/04/2011
9375496	C10AA03	01/06/2011
9324479	C10AA03	23/02/2006
21558754	C10AA03	20/08/2007
21371389	C10AA03	29/04/2011
8988978	C10AA03	07/07/2009
7094856	C10AA03	08/04/2011
12730973	C10AA03	27/04/2011
1434347	C10AA03	16/04/2007
19228281	C10AA03	26/10/2007
5023903	C10AA03	16/03/2011
24764465	C10AA03	09/05/2011
16977675	C10AA03	15/04/2011
8408523	C10AA03	12/05/2011
3333134	C10AA03	01/06/2011
24721216	C10AA03	04/11/2003
12187177	C10AA03	23/05/2011
24765903	C10AA03	29/12/2007
6079237	C10AA03	25/05/2011
12689058	C10AA03	14/04/2009
3332798	C10AA03	24/10/2000
12737779	C10AA03	04/08/2010
9371812	C10AA03	26/07/2010
9383229	C10AA03	11/02/2010
6707615	C10AA03	08/02/2005
63243	C10AA03	03/08/2005
7160942	C10AA03	23/04/2009
12767247	C10AA03	23/04/2008
3122199	C10AA03	09/04/2010
21152754	C10AA03	03/05/2011
24864967	C10AA03	12/12/2007
24730055	C10AA03	12/03/2008
5024803	C10AA03	19/02/2009
8643505	C10AA03	13/07/2010
9249839	C10AA03	05/10/2009
24765014	C10AA03	19/05/2011
10002429	C10AA03	28/05/2007
9375873	C10AA03	07/07/2010
641170	C10AA03	12/05/2011
1320092	C10AA03	14/12/2009
8955922	C10AA03	04/05/2011
1546390	C10AA03	04/03/2008
7776172	C10AA03	26/01/2007
1296516	C10AA03	17/04/2008
1853226	C10AA03	26/05/2011
7848911	C10AA03	25/05/2011
1417904	C10AA03	20/04/2004
1665322	C10AA03	08/05/2011
7777348	C10AA03	24/05/2011
1276830	C10AA03	18/05/2011
8933270	C10AA03	16/07/2010
645794	C10AA03	01/06/2011
1853230	C10AA03	21/03/2007
6842062	C10AA03	25/01/2007
640828	C10AA03	16/06/2005
1200082	C10AA03	14/03/2005
26144152	C10AA03	22/01/2010
8063672	C10AA03	10/05/2011
1445979	C10AA03	24/05/2011
7801996	C10AA03	18/06/2010
525724	C10AA03	06/03/2009
1547420	C10AA03	01/06/2011
1296791	C10AA03	05/02/2003
26139421	C10AA03	29/04/2010
1212499	C10AA03	09/10/2008
641313	C10AA03	23/05/2011
7771619	C10AA03	17/05/2011
525534	C10AA03	21/05/2007
26139303	C10AA03	13/01/2010
12605907	C10AA03	17/07/2008
6841591	C10AA03	15/03/2011
565283	C10AA03	05/09/2005
26139839	C10AA03	23/01/2008
639203	C10AA03	06/05/2011
7770079	C10AA03	17/05/2011
1850960	C10AA03	28/10/1999
525368	C10AA03	01/06/2011
8063389	C10AA03	03/07/2009
5992383	C10AA03	30/06/2004
14695835	C10AA03	18/05/2011
26145718	C10AA03	14/10/2008
6603214	C10AA03	10/05/2011
1850488	C10AA03	21/12/2009
25768738	C10AA03	27/05/2011
15798351	C10AA03	18/05/2011
1648751	C10AA03	23/05/2011
1855443	C10AA03	06/08/2007
1638786	C10AA03	18/05/2011
25768791	C10AA03	23/05/2011
1557815	C10AA03	11/05/2011
4688914	C10AA03	17/03/2005
1066140	C10AA03	07/09/2009
998259	C10AA03	01/06/2011
25914977	C10AA03	13/04/2010
25889094	C10AA03	24/07/2009
1006203	C10AA03	29/11/2005
1647271	C10AA03	08/05/2006
1135359	C10AA03	16/11/2004
1102009	C10AA03	15/04/2009
1639056	C10AA03	05/02/2007
1581133	C10AA03	25/11/2002
25860190	C10AA03	06/02/2003
1855343	C10AA03	19/02/2007
1641017	C10AA03	28/01/2011
1103040	C10AA03	24/05/2010
25818249	C10AA03	22/05/2007
1135038	C10AA03	28/03/2007
1134812	C10AA03	19/04/2010
2059817	C10AA03	23/08/2001
2144575	C10AA03	12/01/2005
2045279	C10AA03	09/05/2011
2133531	C10AA03	13/05/2011
2214358	C10AA03	18/03/2011
878003	C10AA03	13/01/2005
2109458	C10AA03	21/04/2011
2068620	C10AA03	19/11/2009
902237	C10AA03	21/02/2001
1767520	C10AA03	25/04/2011
1753241	C10AA03	21/07/2004
1767503	C10AA03	27/02/2004
6024859	C10AA03	13/05/2011
1765218	C10AA03	14/05/2009
875564	C10AA03	13/05/2008
2037991	C10AA03	01/06/2011
2778285	C10AA03	13/07/2009
7047010	C10AA03	26/04/2010
2755178	C10AA03	03/05/2011
2756025	C10AA03	24/05/2011
2755318	C10AA03	17/02/2011
11351339	C10AA03	18/05/2011
2407008	C10AA03	05/02/2004
16979732	C10AA03	02/10/2006
16066735	C10AA03	26/04/2011
26489080	C10AA03	01/04/2009
26409464	C10AA03	15/02/2011
26461925	C10AA03	31/05/2010
28044970	C10AA03	16/08/2007
28062499	C10AA03	06/09/2005
17746453	C10AA03	09/11/2010
17746470	C10AA03	27/09/2007
18471502	C10AA03	16/05/2011
7128484	C10AA03	12/06/2009
20673831	C10AA03	26/05/2009
20146495	C10AA03	29/12/2003
17744958	C10AA03	08/05/2009
17041146	C10AA03	10/09/2008
26243506	C10AA03	10/12/2002
6990280	C10AA03	13/04/2005
7029283	C10AA03	12/07/2005
17747103	C10AA03	23/06/2007
26456732	C10AA03	21/06/2005
26518448	C10AA03	30/03/2011
26454075	C10AA03	20/07/2010
17041018	C10AA03	14/04/2011
7531415	C10AA03	18/09/2009
1903409	C10AA03	31/05/2011
183671	C10AA03	11/04/2003
1903000	C10AA03	16/05/2011
419475	C10AA03	27/06/2007
12979856	C10AA03	04/03/2011
464564	C10AA03	15/12/2008
902885	C10AA03	20/05/2011
28083095	C10AA03	21/05/2011
16979323	C10AA03	31/03/2011
20147927	C10AA03	13/12/2004
20673531	C10AA03	27/12/2010
902851	C10AA03	21/09/2007
2055267	C10AA03	05/11/2009
2755660	C10AA03	16/12/2003
424750	C10AA03	21/09/1998
304345	C10AA03	18/05/2011
187189	C10AA03	03/01/2008
28069809	C10AA03	26/05/2011
7029377	C10AA03	09/06/2008
28055845	C10AA03	25/05/2011
28080784	C10AA03	23/05/2011
28045636	C10AA03	01/06/2011
28079208	C10AA03	02/09/2008
26477700	C10AA03	15/03/2005
28069718	C10AA03	02/11/2009
28078798	C10AA03	23/05/2011
28054205	C10AA03	01/06/2011
28085935	C10AA03	03/09/2009
28078808	C10AA03	28/05/2011
28056641	C10AA03	29/05/2011
28043342	C10AA03	01/06/2011
26487643	C10AA03	25/05/2011
24661814	C10AA03	07/08/2007
25742932	C10AA03	31/08/2007
24664009	C10AA03	27/05/2011
24666868	C10AA03	01/06/2007
25742680	C10AA03	16/05/2011
25743009	C10AA03	05/05/2011
24656988	C10AA03	17/05/2011
24669225	C10AA03	15/10/2009
25740455	C10AA03	19/05/2011
24657011	C10AA03	30/05/2011
24663987	C10AA03	07/05/2009
1364557	C10AA03	10/05/2011
1903907	C10AA03	25/01/2011
1371178	C10AA03	25/02/2009
1361493	C10AA03	18/04/2011
1905426	C10AA03	18/04/2011
1906965	C10AA03	14/08/2008
18542686	C10AA03	11/05/2011
18187579	C10AA03	26/03/2004
18197591	C10AA03	28/04/2011
21063993	C10AA03	19/02/2006
2965411	C10AA03	13/05/2011
2989739	C10AA03	06/05/2011
26833971	C10AA03	11/05/2011
26621036	C10AA03	02/05/2011
26792577	C10AA03	01/02/2011
26777501	C10AA03	07/06/2007
2986866	C10AA03	05/11/2008
24663343	C10AA03	29/08/2005
21064366	C10AA03	29/05/2011
16567893	C10AA03	26/08/2002
16842692	C10AA03	25/05/2011
12995215	C10AA03	18/05/2011
26642042	C10AA03	12/05/2011
24657567	C10AA03	31/05/2007
21065021	C10AA03	09/05/2011
23484674	C10AA03	26/05/2011
22922696	C10AA03	12/05/2011
26897795	C10AA03	15/02/2006
26939278	C10AA03	01/06/2011
26958880	C10AA03	18/09/2001
27041155	C10AA03	04/04/2011
26729083	C10AA03	01/06/2009
26729787	C10AA03	07/04/2010
26900241	C10AA03	19/04/2011
26900257	C10AA03	26/04/2007
26730135	C10AA03	10/05/2011
26871823	C10AA03	29/10/2010
26847529	C10AA03	29/05/2011
26900308	C10AA03	27/05/2011
26900451	C10AA03	08/05/2011
26899835	C10AA03	28/05/2011
26794775	C10AA03	28/06/2010
26728879	C10AA03	18/06/2009
26831105	C10AA03	07/03/2007
26760283	C10AA03	15/02/2008
26962098	C10AA03	25/05/2004
26973935	C10AA03	20/05/2011
26995669	C10AA03	25/05/2011
26972816	C10AA03	08/05/2011
26973247	C10AA03	13/05/2011
27061513	C10AA03	23/12/2008
27052004	C10AA03	05/05/2005
26973183	C10AA03	07/04/2009
26972063	C10AA03	20/04/2009
27110583	C10AA03	27/05/2011
27061992	C10AA03	08/09/2010
27105146	C10AA03	07/03/2007
27033025	C10AA03	10/05/2011
27042887	C10AA03	26/07/2005
27127109	C10AA03	17/08/2010
27104209	C10AA03	18/05/2011
27032133	C10AA03	18/04/2011
27037502	C10AA03	23/12/2010
27041316	C10AA03	29/04/2011
27039385	C10AA03	04/04/2008
26978733	C10AA03	16/05/2011
27042121	C10AA03	11/05/2011
27023735	C10AA03	03/10/2008
27022026	C10AA03	26/05/2011
27039199	C10AA03	16/05/2011
26996642	C10AA03	29/05/2011
27039849	C10AA03	15/04/2011
27368500	C10AA03	06/05/2011
27152048	C10AA03	12/04/2010
27362443	C10AA03	23/08/2009
27213386	C10AA03	17/06/2008
27369270	C10AA03	27/05/2011
27284737	C10AA03	01/06/2011
27218931	C10AA03	25/05/2011
27246351	C10AA03	14/05/2011
27215330	C10AA03	19/05/2011
27316072	C10AA03	12/05/2011
27326530	C10AA03	01/12/2004
27360856	C10AA03	22/05/2011
27220409	C10AA03	27/04/2011
27353939	C10AA03	27/04/2011
27217738	C10AA03	10/05/2011
27169844	C10AA03	14/09/2007
27247374	C10AA03	16/05/2011
27389186	C10AA03	10/05/2011
27242588	C10AA03	22/03/2007
27243072	C10AA03	21/02/2002
27246011	C10AA03	12/11/2003
27216063	C10AA03	18/06/2010
27248861	C10AA03	24/09/2002
26967667	C10AA03	23/05/2011
27171400	C10AA03	27/04/2004
27595836	C10AA03	09/05/2006
27640833	C10AA03	17/05/2011
27475730	C10AA03	08/01/2009
27415090	C10AA03	18/04/2008
27717389	C10AA03	23/04/2007
27707969	C10AA03	30/11/2006
27758847	C10AA03	10/03/2004
27763523	C10AA03	17/05/2011
27716087	C10AA03	26/08/2009
27128882	C10AA03	29/11/2004
27247057	C10AA03	23/09/2002
27167758	C10AA03	27/04/2007
27127605	C10AA03	07/07/2008
27250456	C10AA03	21/03/2011
27151886	C10AA03	05/12/2009
27284600	C10AA03	10/05/2011
27128117	C10AA03	29/09/2008
27477645	C10AA03	18/11/2007
26900477	C10AA03	12/05/2011
27659684	C10AA03	19/05/2011
26959831	C10AA03	29/05/2011
27219474	C10AA03	10/05/2011
27244772	C10AA03	23/05/2011
27533964	C10AA03	07/05/2011
27508487	C10AA03	15/01/2002
27665250	C10AA03	11/04/2003
27538875	C10AA03	25/05/2011
27782453	C10AA03	10/05/2011
27532981	C10AA03	13/05/2011
27475521	C10AA03	07/03/2011
27664085	C10AA03	24/11/2004
27783400	C10AA03	14/05/2011
27533492	C10AA03	11/08/2003
27529159	C10AA03	12/04/2010
27496273	C10AA03	16/05/2011
27459099	C10AA03	11/05/2011
26895421	C10AA03	11/04/2011
27074097	C10AA03	27/05/2011
27074467	C10AA03	12/04/2011
26854951	C10AA03	18/05/2011
25542610	C10AA03	18/04/2011
27475135	C10AA03	16/04/2007
1904202	C10AA03	17/06/2010
27154246	C10AA03	19/07/2010
27132526	C10AA03	09/06/2009
26760653	C10AA03	25/05/2011
27220336	C10AA03	19/05/2011
27718674	C10AA03	25/11/2004
27804349	C10AA03	14/05/2011
27707178	C10AA03	01/06/2005
27764267	C10AA03	19/10/2005
183848	C10AA03	19/06/2008
27795914	C10AA03	11/05/2011
27588768	C10AA03	20/11/2006
27768740	C10AA03	12/05/2011
27087757	C10AA03	15/04/2009
18194111	C10AA03	29/06/2004
26887104	C10AA03	15/02/2008
27366636	C10AA03	24/02/2010
27778527	C10AA03	19/06/2009
33032536	C10AA03	31/05/2011
33018984	C10AA03	27/06/2003
33023244	C10AA03	20/05/2011
33011602	C10AA03	13/05/2011
33030987	C10AA03	04/04/2005
33045042	C10AA03	13/10/2010
33071109	C10AA03	12/09/2006
33095116	C10AA03	21/09/2009
33093712	C10AA03	24/01/2011
33003004	C10AA03	29/11/2010
33099866	C10AA03	31/05/2010
33019290	C10AA03	12/03/2002
33024920	C10AA03	10/06/2005
33039975	C10AA03	09/01/2008
33029738	C10AA03	03/12/2009
33002826	C10AA03	26/11/2009
33107313	C10AA03	14/05/2010
33054043	C10AA03	16/05/2011
33016075	C10AA03	29/10/2007
33096415	C10AA03	07/01/2011
33012294	C10AA03	17/05/2011
33072776	C10AA03	02/02/2004
33005008	C10AA03	01/06/2011
33064728	C10AA03	12/04/2011
33081991	C10AA03	25/03/2003
33032821	C10AA03	27/05/2011
33008240	C10AA03	10/08/2001
265805	C10AA03	21/08/2008
26720883	C10AA03	12/05/2005
23407522	C10AA03	26/05/2011
33033317	C10AA03	27/05/2011
33011151	C10AA03	30/07/2010
33048233	C10AA03	20/01/2010
33105746	C10AA03	08/09/2005
33031905	C10AA03	17/11/2006
33039979	C10AA03	09/11/2009
33015324	C10AA03	10/09/2007
33063405	C10AA03	24/10/2005
33024229	C10AA03	01/02/2006
33104781	C10AA03	23/04/2008
33112492	C10AA03	29/11/2004
33063789	C10AA03	30/06/2006
33005415	C10AA03	13/10/2003
33048842	C10AA03	27/05/2011
33018657	C10AA03	23/08/2007
33097532	C10AA03	07/01/2009
33050859	C10AA03	10/03/2011
33005144	C10AA03	15/12/2010
33099087	C10AA03	06/08/2010
33049767	C10AA03	11/01/2010
33030474	C10AA03	18/06/2001
33044430	C10AA03	15/05/2011
33040043	C10AA03	23/05/2005
33008928	C10AA03	09/05/2011
33112092	C10AA03	18/10/2007
33003742	C10AA03	05/04/2011
33064084	C10AA03	24/05/2002
28036242	C10AA03	05/10/2010
27983775	C10AA03	09/05/2011
21117452	C10AA03	25/05/2011
28024706	C10AA03	25/04/2011
33313140	C10AA03	28/03/2011
16655186	C10AA03	07/09/2006
18762930	C10AA03	27/04/2011
27934625	C10AA03	27/10/2010
18771218	C10AA03	06/02/2009
27878671	C10AA03	20/09/2004
14187401	C10AA03	16/05/2011
18743061	C10AA03	03/08/2010
14188303	C10AA03	30/04/2002
23279589	C10AA03	26/10/2009
33245853	C10AA03	20/05/2011
33253139	C10AA03	26/05/2011
28024724	C10AA03	03/02/2004
28013389	C10AA03	15/03/2010
18765717	C10AA03	05/08/2009
28020948	C10AA03	15/04/2011
33313715	C10AA03	25/08/2010
23320103	C10AA03	14/09/2006
16610132	C10AA03	17/05/2011
23407448	C10AA03	19/04/2011
16705254	C10AA03	11/01/2011
23401531	C10AA03	18/05/2011
23340392	C10AA03	09/05/2011
16773412	C10AA03	04/11/2009
16599304	C10AA03	17/10/2009
21011848	C10AA03	17/03/2009
16184071	C10AA03	04/05/2011
27849394	C10AA03	04/05/2011
16655300	C10AA03	16/08/2005
27914060	C10AA03	29/12/2009
23342956	C10AA03	29/08/2005
23200353	C10AA03	14/10/2010
16599143	C10AA03	09/05/2011
23410797	C10AA03	19/05/2011
23406127	C10AA03	01/06/2011
23397000	C10AA03	09/05/2011
23349723	C10AA03	05/01/2010
23346962	C10AA03	12/02/2009
23405805	C10AA03	31/05/2011
23326929	C10AA03	29/04/2011
23412017	C10AA03	11/02/2008
16183345	C10AA03	11/04/2011
23364191	C10AA03	17/03/2011
27975673	C10AA03	27/02/2008
31487753	C10AA03	18/01/2011
31418563	C10AA03	22/09/2010
16598677	C10AA03	01/10/2001
23354151	C10AA03	31/07/2007
33314139	C10AA03	21/09/2010
21101114	C10AA03	27/04/2011
23362487	C10AA03	07/02/2005
33224201	C10AA03	14/04/2011
16598795	C10AA03	11/05/2011
23315594	C10AA03	26/08/2008
18762967	C10AA03	10/05/2007
23332688	C10AA03	29/09/2004
20985501	C10AA03	29/04/2008
23354017	C10AA03	05/05/2006
18767647	C10AA03	16/05/2011
23354527	C10AA03	04/05/2011
31119558	C10AA03	16/03/2010
31353235	C10AA03	25/10/2010
32157770	C10AA03	13/10/2009
31047161	C10AA03	16/10/2001
31638063	C10AA03	10/02/2011
32013324	C10AA03	26/10/2009
32052757	C10AA03	15/11/2006
31802366	C10AA03	12/05/2003
32100781	C10AA03	29/06/2006
32056911	C10AA03	10/01/2011
31219084	C10AA03	19/11/2009
31463497	C10AA03	05/10/2010
31565973	C10AA03	23/05/2006
31383807	C10AA03	14/03/2007
31338026	C10AA03	21/12/2009
31948525	C10AA03	27/02/2004
31642740	C10AA03	31/08/2010
31282373	C10AA03	17/08/2005
31273280	C10AA03	16/02/2007
32181675	C10AA03	16/11/2010
31531265	C10AA03	07/04/2011
31211155	C10AA03	26/03/2004
32030521	C10AA03	04/11/2010
31714298	C10AA03	03/08/2009
31655820	C10AA03	14/12/2010
32233519	C10AA03	17/02/2009
31314921	C10AA03	16/03/2010
31245615	C10AA03	18/11/2008
31449000	C10AA03	19/06/2010
31907885	C10AA03	23/09/2009
31461480	C10AA03	21/06/2006
31262382	C10AA03	04/03/2008
31043915	C10AA03	16/12/2008
31842253	C10AA03	11/04/2011
31472076	C10AA03	12/07/2010
31480886	C10AA03	11/06/2010
31596585	C10AA03	04/01/2007
31093440	C10AA03	09/09/2010
31909900	C10AA03	24/01/2011
31931778	C10AA03	20/03/2007
31236375	C10AA03	22/03/2004
32158065	C10AA03	22/04/2009
31564150	C10AA03	04/02/2011
31055874	C10AA03	16/04/2008
31848325	C10AA03	11/04/2003
31497406	C10AA03	16/12/2009
31407519	C10AA03	16/10/2007
31440386	C10AA03	19/03/2009
32283239	C10AA03	21/12/2009
32064148	C10AA03	10/12/2010
32018104	C10AA03	06/02/2006
31370288	C10AA03	29/09/2010
31128975	C10AA03	21/06/2004
31689770	C10AA03	07/10/2009
31496213	C10AA03	19/01/2011
31674817	C10AA03	20/09/2005
31812100	C10AA03	05/11/2008
32201488	C10AA03	07/02/2011
31255436	C10AA03	03/11/2009
31255539	C10AA03	22/08/2007
31473113	C10AA03	29/11/2004
32079219	C10AA03	28/06/2010
31417367	C10AA03	01/03/2010
31406492	C10AA03	26/10/2009
31380125	C10AA03	25/09/2008
31328924	C10AA03	22/07/2003
32001413	C10AA03	20/01/2011
32044425	C10AA03	10/11/2009
32262053	C10AA03	25/05/2010
31878001	C10AA03	20/08/2009
32226413	C10AA03	13/10/2009
31862996	C10AA03	20/02/2008
32083356	C10AA03	11/11/2009
31368672	C10AA03	26/02/2002
31124913	C10AA03	12/08/2008
31904758	C10AA03	07/09/2006
32121144	C10AA03	26/06/2006
31119174	C10AA03	23/05/2006
31447535	C10AA03	02/02/2011
31054626	C10AA03	15/04/2008
31296128	C10AA03	06/07/2006
31638942	C10AA03	28/04/2011
32139283	C10AA03	17/06/2010
32185161	C10AA03	14/01/2004
31089828	C10AA03	10/05/2006
31350321	C10AA03	04/07/2006
32201222	C10AA03	19/12/2008
31763125	C10AA03	10/12/2009
31373620	C10AA03	04/06/2008
31098655	C10AA03	21/12/2010
31384670	C10AA03	05/11/2010
31824870	C10AA03	19/10/2010
31683144	C10AA03	06/07/2006
32178986	C10AA03	21/09/2009
31363328	C10AA03	12/03/2011
32247232	C10AA03	18/06/2003
32132555	C10AA03	27/04/2009
32083468	C10AA03	23/02/2011
31735927	C10AA03	30/09/2008
31904860	C10AA03	15/12/2009
32181336	C10AA03	20/08/2009
31048661	C10AA03	08/05/2006
31116223	C10AA03	21/03/2002
31149940	C10AA03	01/08/2006
31335672	C10AA03	11/08/2006
31231208	C10AA03	18/07/2008
31307903	C10AA03	15/03/2011
31569317	C10AA03	16/09/2008
31099227	C10AA03	08/01/2004
31793361	C10AA03	15/11/2010
31831196	C10AA03	13/07/2010
32181577	C10AA03	20/06/2005
31636822	C10AA03	23/11/2009
31628762	C10AA03	05/12/2008
31447010	C10AA03	14/03/2007
31172170	C10AA03	10/01/2011
31298297	C10AA03	20/03/2003
32227466	C10AA03	09/08/2006
31248296	C10AA03	01/06/2009
31907664	C10AA03	21/12/2009
32081844	C10AA03	28/03/2006
31981150	C10AA03	29/10/2008
31052771	C10AA03	09/12/2010
31843748	C10AA03	02/06/2008
31550481	C10AA03	21/01/2011
31426233	C10AA03	22/10/2009
32099327	C10AA03	10/09/2008
31938829	C10AA03	06/11/2007
32080813	C10AA03	05/12/2008
31731106	C10AA03	22/09/2010
32182901	C10AA03	07/03/2006
31638966	C10AA03	28/12/2010
31467050	C10AA03	18/12/2009
31577402	C10AA03	21/07/2008
31326912	C10AA03	22/02/2010
31490483	C10AA03	12/04/2011
31419290	C10AA03	30/04/2004
32120270	C10AA03	24/05/2006
31794135	C10AA03	09/09/2005
31258244	C10AA03	09/12/2010
31764206	C10AA03	11/12/2009
31830078	C10AA03	29/09/2003
31169763	C10AA03	22/04/2004
31748071	C10AA03	06/09/2010
32226916	C10AA03	23/04/2010
32187886	C10AA03	10/12/2010
32076621	C10AA03	14/09/2004
31221513	C10AA03	10/06/2010
31452657	C10AA03	23/12/2010
31738105	C10AA03	02/11/2005
31725638	C10AA03	04/11/2010
31711216	C10AA03	24/05/2005
31577491	C10AA03	25/03/2004
31075273	C10AA03	13/02/2007
31611337	C10AA03	23/12/2009
31890800	C10AA03	22/12/2009
31536297	C10AA03	10/01/2006
32038162	C10AA03	24/02/2006
32213586	C10AA03	01/09/2010
31161794	C10AA03	15/04/2011
31819996	C10AA03	05/05/2011
31528641	C10AA03	04/12/2006
31962312	C10AA03	02/12/2008
31704514	C10AA03	19/09/2008
31375081	C10AA03	14/03/2006
31948454	C10AA03	29/04/2008
31938524	C10AA03	10/06/2004
31069508	C10AA03	29/09/2010
31592928	C10AA03	03/08/2004
31357506	C10AA03	27/03/2008
31084479	C10AA03	02/04/2002
31311199	C10AA03	17/12/2009
32015901	C10AA03	18/12/2008
31317920	C10AA03	19/09/2003
32113542	C10AA03	16/12/2008
31782180	C10AA03	28/12/2009
31238998	C10AA03	29/12/2008
31573918	C10AA03	04/05/2005
31973568	C10AA03	23/01/2008
31264025	C10AA03	05/02/2007
31218691	C10AA03	16/03/2010
31051598	C10AA03	06/11/2006
31539521	C10AA03	02/11/2007
31217806	C10AA03	14/06/2010
32048927	C10AA03	26/01/2010
31184461	C10AA03	01/07/2003
31724163	C10AA03	05/08/2009
31614550	C10AA03	02/10/2003
31076403	C10AA03	06/09/2010
31873722	C10AA03	06/06/2007
31487065	C10AA03	12/11/2004
31813066	C10AA03	28/12/2009
31442077	C10AA03	11/11/2010
32045804	C10AA03	29/12/2006
31221010	C10AA03	25/10/2010
31315620	C10AA03	05/01/2009
31150601	C10AA03	09/03/2011
32079324	C10AA03	16/01/2007
32249380	C10AA03	28/05/2004
31141558	C10AA03	20/10/2008
31304698	C10AA03	19/05/2009
31887827	C10AA03	21/04/2009
31356763	C10AA03	29/12/2009
31907199	C10AA03	31/05/2011
31608962	C10AA03	04/12/2009
31474582	C10AA03	02/01/2003
31787887	C10AA03	24/11/2005
31417912	C10AA03	25/11/2009
32163177	C10AA03	23/08/2007
31486513	C10AA03	18/11/2010
31230333	C10AA03	28/01/2005
31088663	C10AA03	22/12/2008
31110042	C10AA03	31/03/2010
31083464	C10AA03	01/06/2004
31085609	C10AA03	22/11/2010
31600813	C10AA03	14/08/2008
31556912	C10AA03	19/12/2008
32122555	C10AA03	02/01/2004
31720780	C10AA03	03/11/2010
31506905	C10AA03	18/07/2006
31701260	C10AA03	15/10/2009
31556807	C10AA03	20/10/2010
31427802	C10AA03	11/09/2008
31559291	C10AA03	31/03/2006
31997273	C10AA03	25/06/2007
31788106	C10AA03	29/07/2008
32204347	C10AA03	05/05/2009
32023313	C10AA03	17/06/2008
32242783	C10AA03	04/03/2009
32090185	C10AA03	08/02/2006
31937147	C10AA03	17/03/2005
32152072	C10AA03	25/11/2010
31623353	C10AA03	26/10/2004
32062791	C10AA03	22/03/2011
31603013	C10AA03	08/05/2011
31819062	C10AA03	21/09/2010
31790134	C10AA03	20/09/2006
31362191	C10AA03	21/12/2010
31914115	C10AA03	18/11/2010
31566066	C10AA03	16/03/2011
31225861	C10AA03	17/05/2007
31107785	C10AA03	27/12/2002
32198029	C10AA03	09/03/2011
32252061	C10AA03	03/07/2008
31566932	C10AA03	17/11/2009
31452431	C10AA03	15/12/2008
32218115	C10AA03	16/09/2004
32048175	C10AA03	10/11/2008
31793463	C10AA03	18/12/2009
31370295	C10AA03	01/09/2010
31733685	C10AA03	06/04/2006
32072112	C10AA03	08/04/2011
31820747	C10AA03	19/05/2011
31217504	C10AA03	05/07/2005
31165916	C10AA03	04/01/2007
32205678	C10AA03	10/11/2010
32029903	C10AA03	04/02/2011
32158039	C10AA03	15/12/2009
32176704	C10AA03	18/03/2009
31730157	C10AA03	08/09/2009
31421066	C10AA03	24/04/2007
31649595	C10AA03	26/08/2003
31133575	C10AA03	23/10/2008
31703712	C10AA03	02/09/2004
