patient_id	covar_name	date
8786306	CAPIEL	20/11/2001
7349356	CAPIEL	02/09/2005
9284420	CAPIEL	30/03/2007
8977394	CAPIEL	25/03/2009
9250103	CAPIEL	23/02/2005
10457154	CAPIEL	18/04/2008
5028776	CAPIEL	30/12/2009
608864	CAPIEL	22/04/2009
9339219	CAPIEL	28/07/2000
8975906	CAPIEL	21/08/2007
7160662	CAPIEL	24/02/2010
1334775	CAPIEL	30/09/2002
12778373	CAPIEL	10/10/2008
540436	CAPIEL	08/07/2010
1320533	CAPIEL	07/01/2010
1276830	CAPIEL	16/10/2003
6227493	CAPIEL	12/01/2010
7968624	CAPIEL	08/01/2004
1277329	CAPIEL	04/06/2002
645626	CAPIEL	06/09/2005
645474	CAPIEL	21/01/2002
15667199	CAPIEL	05/04/2011
1090765	CAPIEL	15/02/2010
638706	CAPIEL	17/04/2011
7849021	CAPIEL	11/08/2005
539674	CAPIEL	22/11/2007
1276627	CAPIEL	08/06/2004
25860190	CAPIEL	09/08/2001
716180	CAPIEL	22/05/2001
135306	CAPIEL	13/04/2010
2139418	CAPIEL	13/04/1926
2038044	CAPIEL	10/08/1999
757643	CAPIEL	26/11/1999
2773726	CAPIEL	29/11/2010
2408020	CAPIEL	24/01/1987
2755270	CAPIEL	17/05/2011
26425486	CAPIEL	18/04/2001
26235824	CAPIEL	31/08/2002
17742348	CAPIEL	27/09/2005
20147574	CAPIEL	03/03/2010
26454330	CAPIEL	20/07/2010
10926333	CAPIEL	05/12/2004
1910433	CAPIEL	15/12/2010
420981	CAPIEL	05/03/2001
25742955	CAPIEL	18/07/2006
1361493	CAPIEL	05/04/2002
21063152	CAPIEL	23/06/2005
2961578	CAPIEL	22/11/1955
26776993	CAPIEL	19/10/2010
26835533	CAPIEL	15/06/2009
26829529	CAPIEL	01/01/1999
12993861	CAPIEL	05/08/2004
16842013	CAPIEL	11/03/1995
14309820	CAPIEL	09/07/2010
22921551	CAPIEL	20/07/2010
26959942	CAPIEL	11/04/2011
26894950	CAPIEL	02/11/2009
26759120	CAPIEL	04/11/2009
26877295	CAPIEL	17/10/2006
26715346	CAPIEL	06/04/2004
26999393	CAPIEL	03/07/2004
27113158	CAPIEL	05/05/2008
27128238	CAPIEL	26/10/2007
27105146	CAPIEL	23/08/2004
27079522	CAPIEL	07/02/2008
27056963	CAPIEL	01/07/2002
27056356	CAPIEL	16/03/2010
26997004	CAPIEL	20/09/2007
27025920	CAPIEL	22/07/2000
26991119	CAPIEL	02/07/2009
27358673	CAPIEL	01/08/2008
27233913	CAPIEL	13/12/2010
27325553	CAPIEL	23/04/2007
27308809	CAPIEL	26/08/2003
27535072	CAPIEL	05/11/2010
27241974	CAPIEL	29/05/2008
27249682	CAPIEL	01/03/2006
27657965	CAPIEL	07/07/1991
27477369	CAPIEL	02/09/2004
27659873	CAPIEL	03/11/2010
27147888	CAPIEL	01/01/1992
27000618	CAPIEL	20/06/2008
27314117	CAPIEL	20/06/2005
26825289	CAPIEL	20/08/2006
26833867	CAPIEL	01/07/1927
27597325	CAPIEL	01/01/1999
27527929	CAPIEL	26/01/2010
26833671	CAPIEL	06/03/2008
12975841	CAPIEL	23/05/2011
27716869	CAPIEL	31/08/2007
24665010	CAPIEL	03/02/2004
463787	CAPIEL	31/08/2010
21553613	CAPIEL	21/04/2009
33057047	CAPIEL	07/01/2009
33007764	CAPIEL	05/03/2003
33035111	CAPIEL	17/12/2009
33008270	CAPIEL	23/11/2004
26637123	CAPIEL	17/01/2003
26972182	CAPIEL	31/03/2006
26625913	CAPIEL	19/04/2010
27796986	CAPIEL	12/08/2008
27084170	CAPIEL	11/10/2006
33091289	CAPIEL	01/07/2009
23396737	CAPIEL	12/12/2006
16706065	CAPIEL	05/09/2008
18768005	CAPIEL	14/01/2003
16653454	CAPIEL	21/10/2010
16610132	CAPIEL	05/04/2006
20985576	CAPIEL	04/06/2008
33244635	CAPIEL	21/09/2001
23366435	CAPIEL	15/05/2006
21108146	CAPIEL	30/12/2008
27984029	CAPIEL	17/01/2007
31604165	CAPIEL	26/09/2007
32226719	CAPIEL	26/11/2009
31461480	CAPIEL	29/04/2004
31180184	CAPIEL	06/06/2001
31764799	CAPIEL	25/07/2007
31573434	CAPIEL	10/10/2008
32049760	CAPIEL	27/04/2011
32123269	CAPIEL	22/06/2005
31892951	CAPIEL	01/12/2004
31150559	CAPIEL	12/03/2006
31734298	CAPIEL	19/12/2007
31227877	CAPIEL	28/01/2003
31308549	CAPIEL	18/06/1999
31107119	CAPIEL	12/04/2010
32255643	CAPIEL	13/10/2005
31927982	CAPIEL	03/11/2003
31139449	CAPIEL	26/09/2008
31502961	CAPIEL	03/02/2009
31340688	CAPIEL	07/10/2009
31701788	CAPIEL	20/01/2006
31460267	CAPIEL	11/09/2008
31804458	CAPIEL	14/02/2005
31998738	CAPIEL	01/01/2001
32190370	CAPIEL	14/04/2009
31656483	CAPIEL	06/10/2010
31838091	CAPIEL	20/04/2005
31278260	CAPIEL	15/11/2006
31878078	CAPIEL	23/02/2010
31522740	CAPIEL	06/08/2003
31577402	CAPIEL	07/01/1933
31381826	CAPIEL	04/05/2004
31419290	CAPIEL	16/04/2002
31652501	CAPIEL	15/03/2011
31062380	CAPIEL	13/02/2008
31657959	CAPIEL	02/12/2010
31761481	CAPIEL	28/05/2009
31221320	CAPIEL	18/05/2011
31503301	CAPIEL	07/04/2009
31033021	CAPIEL	01/01/2000
31741546	CAPIEL	28/11/1938
32133761	CAPIEL	17/03/2010
32192563	CAPIEL	14/05/1999
31646476	CAPIEL	01/09/2007
31679146	CAPIEL	25/09/2002
31563177	CAPIEL	28/09/2005
31412458	CAPIEL	28/09/2006
31702764	CAPIEL	18/02/2004
31250490	CAPIEL	27/01/2002
32197317	CAPIEL	31/07/2000
31109355	CAPIEL	18/02/2006
31229693	CAPIEL	29/05/2008
31080678	CAPIEL	24/05/2008
31674612	CAPIEL	11/08/2006
32129185	CAPIEL	25/04/2003
31788566	CAPIEL	04/08/2006
31473263	CAPIEL	27/07/2000
31422127	CAPIEL	02/01/2007
31805286	CAPIEL	27/09/2001
32218115	CAPIEL	28/08/2003
31820747	CAPIEL	02/08/2010
31101483	CAPIEL	18/11/2009
