patient_id	covar_name	date
6757586	C04AE54	30/01/2009
12683966	C04AE54	01/10/2010
16559058	C04AE54	27/10/2010
8786041	C04AE54	02/03/2004
7219461	C04AE54	10/07/2009
3323225	C04AE54	25/05/2011
16978129	C04AE54	16/05/2007
8567599	C04AE54	02/06/2006
8785338	C04AE54	25/05/2011
9214769	C04AE54	21/04/2004
23471965	C04AE54	27/11/2002
3333134	C04AE54	03/10/2006
10266866	C04AE54	18/12/2007
10331912	C04AE54	24/03/2011
6415215	C04AE54	29/06/2010
1162980	C04AE54	09/05/2003
11661691	C04AE54	27/10/2008
8292120	C04AE54	21/02/2008
21152754	C04AE54	17/05/2011
24721601	C04AE54	05/06/2008
7968770	C04AE54	05/08/2009
1210575	C04AE54	18/03/2011
641170	C04AE54	11/12/2003
641127	C04AE54	23/08/2004
7780208	C04AE54	13/09/2010
13986597	C04AE54	14/11/2002
1356229	C04AE54	28/05/2007
1349650	C04AE54	21/06/2000
638967	C04AE54	26/10/2005
1262874	C04AE54	25/06/2009
6842130	C04AE54	26/05/2005
1276765	C04AE54	04/05/2001
13984759	C04AE54	23/02/2002
1353807	C04AE54	01/03/2011
641614	C04AE54	11/01/2005
1419936	C04AE54	19/04/2004
7970589	C04AE54	14/03/2006
1265194	C04AE54	20/09/2005
1667186	C04AE54	27/04/2011
8240201	C04AE54	31/01/2011
12189158	C04AE54	26/06/2007
6599963	C04AE54	11/10/2007
5992267	C04AE54	30/05/2011
1172012	C04AE54	30/08/2010
1264828	C04AE54	04/03/2002
1091772	C04AE54	18/10/2010
4447846	C04AE54	02/08/2006
6598268	C04AE54	01/07/2004
4699503	C04AE54	30/05/2011
1415968	C04AE54	27/07/2001
7801913	C04AE54	03/09/2003
1209005	C04AE54	05/05/2011
639310	C04AE54	03/01/2006
6951044	C04AE54	22/05/2007
1132387	C04AE54	17/11/2000
1638786	C04AE54	04/05/2011
1102247	C04AE54	17/11/2005
1638565	C04AE54	26/09/2006
134966	C04AE54	11/06/2009
1552431	C04AE54	16/10/2006
716180	C04AE54	24/02/2006
890201	C04AE54	25/07/2001
1581260	C04AE54	24/11/2003
1135406	C04AE54	11/11/2004
25908066	C04AE54	23/03/2009
717108	C04AE54	19/06/2001
2070080	C04AE54	16/04/2009
2043843	C04AE54	09/07/2004
1764780	C04AE54	19/05/2011
874596	C04AE54	08/06/2007
859956	C04AE54	06/11/2006
2038044	C04AE54	26/08/2008
1755826	C04AE54	24/05/2006
2041709	C04AE54	23/09/2008
2140421	C04AE54	18/01/2010
875499	C04AE54	26/08/2004
1755667	C04AE54	31/05/2007
2109145	C04AE54	06/02/2004
903902	C04AE54	14/07/2005
876284	C04AE54	04/05/2011
1766049	C04AE54	25/04/2006
904406	C04AE54	25/04/2008
1768450	C04AE54	03/02/2004
3055168	C04AE54	06/11/2002
2762385	C04AE54	21/03/2011
2762396	C04AE54	01/06/2011
3048483	C04AE54	09/08/2006
7043389	C04AE54	18/05/2011
2525973	C04AE54	18/06/2008
16835317	C04AE54	05/06/2007
28063099	C04AE54	20/05/2011
28044970	C04AE54	17/03/2008
28063102	C04AE54	02/12/2010
7027238	C04AE54	03/03/2009
26260880	C04AE54	09/05/2011
7142660	C04AE54	01/07/2009
26459796	C04AE54	11/06/2003
26306610	C04AE54	16/11/2004
14347072	C04AE54	05/05/2009
183510	C04AE54	02/03/2004
28044182	C04AE54	16/01/2009
28083015	C04AE54	07/10/2008
2055267	C04AE54	18/07/2002
306134	C04AE54	21/08/2010
28088132	C04AE54	23/07/2007
28044312	C04AE54	08/10/2001
28072320	C04AE54	20/07/2005
28072225	C04AE54	16/05/2007
28049523	C04AE54	20/02/2008
28043285	C04AE54	17/05/2007
24662063	C04AE54	28/11/2001
24666922	C04AE54	04/04/2011
25706995	C04AE54	08/09/2010
1359321	C04AE54	16/12/2002
2957533	C04AE54	20/09/2006
1015435	C04AE54	28/05/2011
26776969	C04AE54	25/03/2011
2987121	C04AE54	06/02/2009
2990019	C04AE54	09/12/2010
26890259	C04AE54	26/02/2010
26730017	C04AE54	28/01/2004
26850810	C04AE54	20/08/2007
26857716	C04AE54	25/03/2011
26916444	C04AE54	02/07/2003
26792107	C04AE54	16/07/2007
26802468	C04AE54	02/05/2011
26812447	C04AE54	06/05/2010
26784491	C04AE54	05/05/2011
26988800	C04AE54	15/01/2009
26966264	C04AE54	26/09/2008
26956977	C04AE54	23/11/2005
27100098	C04AE54	06/10/2009
27099890	C04AE54	07/01/2009
27133601	C04AE54	16/07/2008
27033265	C04AE54	12/11/2008
27039817	C04AE54	28/02/2005
27170731	C04AE54	16/02/2010
27170821	C04AE54	03/06/2005
27589314	C04AE54	06/10/2006
27647922	C04AE54	30/04/2010
27624082	C04AE54	24/02/2011
27475636	C04AE54	01/06/2011
27153665	C04AE54	14/08/2009
27132227	C04AE54	17/07/2003
26981785	C04AE54	28/05/2011
27674208	C04AE54	17/08/2010
27539930	C04AE54	16/12/2003
27591699	C04AE54	27/08/2008
27475366	C04AE54	14/03/2006
27538271	C04AE54	05/02/2010
27665005	C04AE54	23/05/2003
33018984	C04AE54	23/06/2004
33111336	C04AE54	19/10/2004
33074802	C04AE54	04/01/2011
33098852	C04AE54	09/10/2009
33001039	C04AE54	09/08/2007
33001626	C04AE54	02/02/2010
33029033	C04AE54	16/11/2009
33106608	C04AE54	18/06/2008
33019290	C04AE54	20/02/2008
33128557	C04AE54	26/03/2009
33112822	C04AE54	09/10/2009
33051529	C04AE54	23/08/2004
33019653	C04AE54	18/04/2006
33098168	C04AE54	06/10/2004
33019197	C04AE54	06/02/2006
33012294	C04AE54	11/03/2004
33012303	C04AE54	20/11/2009
33008270	C04AE54	13/05/2008
27112593	C04AE54	27/04/2010
183728	C04AE54	23/04/2008
26851696	C04AE54	20/09/2010
27812522	C04AE54	07/10/2003
16178210	C04AE54	01/12/2003
33067273	C04AE54	25/04/2007
33041177	C04AE54	07/09/2010
33049405	C04AE54	12/04/2011
33099116	C04AE54	07/06/2002
33093137	C04AE54	16/08/2010
33066033	C04AE54	27/10/2009
33061838	C04AE54	26/01/2007
33029780	C04AE54	05/02/2010
16713420	C04AE54	07/12/2010
23315706	C04AE54	18/06/2009
16135123	C04AE54	17/05/2011
16165958	C04AE54	06/05/2011
23397390	C04AE54	05/11/2009
16616536	C04AE54	03/04/2006
16138404	C04AE54	10/12/2001
16165687	C04AE54	02/04/2004
33313071	C04AE54	06/07/2010
21115290	C04AE54	05/01/2009
33208741	C04AE54	16/02/2011
16636746	C04AE54	26/07/2007
27847497	C04AE54	05/05/2011
23366991	C04AE54	14/04/2010
23402038	C04AE54	22/12/2006
23412389	C04AE54	10/05/2011
23366446	C04AE54	07/03/2011
16774792	C04AE54	15/06/2005
23327992	C04AE54	07/11/2006
16186400	C04AE54	14/08/2009
23368347	C04AE54	02/07/2008
23354037	C04AE54	12/05/2011
16125165	C04AE54	05/10/2001
16178359	C04AE54	02/10/2003
23326017	C04AE54	26/05/2011
23367236	C04AE54	07/05/2009
16634388	C04AE54	13/05/2011
16607575	C04AE54	05/05/2011
23366114	C04AE54	11/03/2011
23406038	C04AE54	23/05/2011
23369532	C04AE54	01/02/2011
23367381	C04AE54	21/01/2011
20988305	C04AE54	27/05/2011
23413392	C04AE54	19/06/2007
23401464	C04AE54	15/09/2005
27848565	C04AE54	24/02/2005
23351379	C04AE54	26/01/2009
23401236	C04AE54	27/05/2011
23408437	C04AE54	30/03/2010
23367113	C04AE54	01/06/2011
31386591	C04AE54	09/12/2004
31083013	C04AE54	03/11/2010
31445246	C04AE54	22/07/2008
31171332	C04AE54	26/01/2009
31344263	C04AE54	05/05/2006
31629368	C04AE54	30/06/2004
31961243	C04AE54	04/08/2003
32194913	C04AE54	27/12/2006
32099105	C04AE54	10/12/2007
32078134	C04AE54	20/05/2009
31987098	C04AE54	08/03/2005
31704433	C04AE54	20/12/2010
31274972	C04AE54	11/01/2006
31445619	C04AE54	12/07/2010
32029860	C04AE54	11/12/2007
31846245	C04AE54	13/03/2003
32018491	C04AE54	02/07/2010
31851612	C04AE54	06/08/2002
31165913	C04AE54	05/10/2005
31482800	C04AE54	11/01/2007
31135332	C04AE54	25/10/2010
31953204	C04AE54	11/08/2000
31984866	C04AE54	22/06/2006
31055196	C04AE54	30/12/2008
32044352	C04AE54	12/04/2007
31220650	C04AE54	09/05/2007
31791803	C04AE54	14/12/2010
32232978	C04AE54	20/09/2007
31737920	C04AE54	02/02/2007
31970294	C04AE54	22/01/2002
31504927	C04AE54	08/11/2007
31264025	C04AE54	13/06/2003
32049524	C04AE54	15/10/2007
32178097	C04AE54	30/04/2008
31600813	C04AE54	05/10/2000
31687887	C04AE54	02/12/2002
31933305	C04AE54	10/06/2004
32253685	C04AE54	22/09/2006
31259283	C04AE54	24/04/2009
31494792	C04AE54	22/12/2010
