patient_id	covar_name	date
10332522	C04AD03	30/05/2005
20546697	C04AD03	26/08/2010
9328250	C04AD03	02/02/2005
9295830	C04AD03	22/06/2010
61642	C04AD03	10/04/2011
8521498	C04AD03	17/08/2010
11661106	C04AD03	13/05/2011
21370773	C04AD03	14/12/2010
15384882	C04AD03	12/04/2006
701693	C04AD03	17/07/2008
9371955	C04AD03	22/05/2007
10006386	C04AD03	10/02/2009
21370276	C04AD03	30/11/2010
15900660	C04AD03	23/05/2011
7353267	C04AD03	22/05/2011
14804427	C04AD03	29/12/2010
5867449	C04AD03	06/07/2010
12779663	C04AD03	20/01/2009
20578860	C04AD03	17/06/2005
19184383	C04AD03	03/05/2011
15380445	C04AD03	24/08/2005
8655391	C04AD03	06/05/2009
8555496	C04AD03	23/05/2011
7351316	C04AD03	26/07/2010
20549743	C04AD03	26/04/2011
1069182	C04AD03	02/02/2009
25058851	C04AD03	11/07/2006
6153914	C04AD03	13/06/2007
13222335	C04AD03	12/06/2009
9294013	C04AD03	10/10/2008
7151632	C04AD03	01/05/2011
9285061	C04AD03	19/06/2007
7244033	C04AD03	24/01/2011
8639376	C04AD03	15/09/2009
1515199	C04AD03	17/06/2003
9386317	C04AD03	18/09/2007
21152676	C04AD03	18/08/2008
9328263	C04AD03	19/07/2004
13222276	C04AD03	14/02/2011
20549727	C04AD03	27/02/2008
12688464	C04AD03	18/04/2011
21974194	C04AD03	19/05/2011
21152434	C04AD03	09/05/2007
9214840	C04AD03	06/07/2006
17361649	C04AD03	26/07/2010
1517271	C04AD03	30/01/2009
1063691	C04AD03	02/12/2009
9388668	C04AD03	18/06/2005
6183820	C04AD03	13/07/2009
12690514	C04AD03	09/02/2011
21370283	C04AD03	14/01/2011
6888668	C04AD03	20/03/2009
9293857	C04AD03	19/10/2009
23442777	C04AD03	23/09/2008
19153840	C04AD03	28/05/2011
292904	C04AD03	04/02/2010
10003982	C04AD03	15/07/2003
21369799	C04AD03	17/03/2011
9134282	C04AD03	19/07/2001
1517390	C04AD03	08/05/2011
16530949	C04AD03	24/05/2006
23471643	C04AD03	27/08/2009
16559078	C04AD03	03/11/2006
9370823	C04AD03	13/05/2005
21152643	C04AD03	03/02/2010
8511391	C04AD03	01/12/2010
12790379	C04AD03	31/05/2007
21856470	C04AD03	16/12/2009
6415215	C04AD03	11/06/2001
4805	C04AD03	24/08/2007
17172555	C04AD03	06/07/2009
20529579	C04AD03	15/06/2007
6757580	C04AD03	17/02/2005
9309579	C04AD03	17/12/2004
12790404	C04AD03	15/04/2011
1418232	C04AD03	31/01/2006
6598367	C04AD03	12/01/2004
7770511	C04AD03	17/03/2006
8989051	C04AD03	28/04/2010
23441979	C04AD03	15/11/2010
21644622	C04AD03	18/03/2011
10002746	C04AD03	27/08/2008
524925	C04AD03	29/11/2006
1852203	C04AD03	15/06/2007
7776172	C04AD03	03/01/2003
6423942	C04AD03	16/05/2011
1172020	C04AD03	25/02/2004
647177	C04AD03	28/02/2011
1349650	C04AD03	21/12/2009
1848778	C04AD03	11/05/2011
24940368	C04AD03	19/12/2001
6842062	C04AD03	14/06/2006
6604048	C04AD03	08/04/2002
6593866	C04AD03	12/05/2011
7801996	C04AD03	08/02/2010
26144622	C04AD03	17/03/2010
8933284	C04AD03	14/09/2009
7966545	C04AD03	07/02/2008
515787	C04AD03	27/07/2010
7771619	C04AD03	14/03/2003
14695879	C04AD03	16/09/2009
525534	C04AD03	10/06/2008
8240201	C04AD03	31/01/2011
12189158	C04AD03	05/08/2003
6842058	C04AD03	16/05/2011
1207086	C04AD03	01/11/2006
12188674	C04AD03	26/04/2011
6425342	C04AD03	26/04/2011
525263	C04AD03	05/03/2004
1276321	C04AD03	28/05/2011
7771861	C04AD03	15/07/2005
7770079	C04AD03	17/05/2011
1664951	C04AD03	26/03/2004
1349681	C04AD03	18/12/2008
4700540	C04AD03	11/03/2011
6594999	C04AD03	26/07/2007
1443910	C04AD03	03/08/2010
1204177	C04AD03	14/04/2011
1349840	C04AD03	08/03/2005
7966778	C04AD03	31/05/2011
997369	C04AD03	04/01/2011
25768738	C04AD03	13/01/2009
25883724	C04AD03	07/09/2009
1638747	C04AD03	26/04/2011
1132387	C04AD03	17/01/2008
1128976	C04AD03	21/12/2009
25768791	C04AD03	10/06/2004
1102247	C04AD03	14/02/2003
1110970	C04AD03	01/02/2007
890075	C04AD03	11/11/2010
995675	C04AD03	11/09/2007
1135310	C04AD03	15/09/2009
994239	C04AD03	27/02/2003
25884231	C04AD03	15/02/2011
25750805	C04AD03	31/07/2007
189189	C04AD03	09/07/2007
25776127	C04AD03	22/05/2011
486308	C04AD03	19/11/2009
716545	C04AD03	16/08/2002
1102009	C04AD03	17/12/2006
996909	C04AD03	29/04/2010
716180	C04AD03	07/05/2011
1133430	C04AD03	05/05/2011
135815	C04AD03	22/05/2011
1641017	C04AD03	11/05/2011
1103040	C04AD03	12/01/2011
6951023	C04AD03	15/06/2009
135306	C04AD03	26/02/2007
1647977	C04AD03	23/09/2002
2218563	C04AD03	17/12/2010
2218596	C04AD03	19/05/2011
2133822	C04AD03	18/11/2010
2137012	C04AD03	14/05/2010
904606	C04AD03	23/05/2011
904793	C04AD03	02/09/2009
2140421	C04AD03	15/01/2007
1814709	C04AD03	18/10/2006
876747	C04AD03	12/08/2010
1682987	C04AD03	06/05/2010
902142	C04AD03	19/09/2003
1755227	C04AD03	12/12/2008
3050342	C04AD03	05/11/2002
1765218	C04AD03	12/05/2011
1755991	C04AD03	12/05/2011
859012	C04AD03	04/07/2001
902391	C04AD03	03/10/2007
860142	C04AD03	17/06/2010
3055184	C04AD03	21/06/2001
4894255	C04AD03	23/01/2007
2759026	C04AD03	01/06/2011
2777436	C04AD03	23/05/2011
2813159	C04AD03	28/03/2007
7037683	C04AD03	03/11/2009
2525787	C04AD03	07/11/2005
2524518	C04AD03	30/09/2009
2575070	C04AD03	23/05/2011
11351339	C04AD03	18/05/2011
2407047	C04AD03	03/04/2008
26460058	C04AD03	02/05/2006
26410716	C04AD03	23/12/2005
28053920	C04AD03	14/04/2011
26442238	C04AD03	10/05/2011
26426041	C04AD03	13/09/2006
28072967	C04AD03	22/06/2009
26478282	C04AD03	26/01/2011
28044970	C04AD03	14/05/2011
17746453	C04AD03	16/05/2011
23678237	C04AD03	15/03/2005
17323361	C04AD03	30/01/2007
17323964	C04AD03	04/03/2009
17741284	C04AD03	28/08/2006
17041146	C04AD03	01/09/2006
26336640	C04AD03	25/06/2010
28040298	C04AD03	19/04/2011
26425372	C04AD03	11/05/2011
24847695	C04AD03	19/04/2010
26460224	C04AD03	22/06/2005
26338190	C04AD03	12/11/2009
26566119	C04AD03	05/05/2008
7007687	C04AD03	13/04/2011
17323744	C04AD03	13/08/2009
425076	C04AD03	10/12/2009
19127470	C04AD03	24/09/2008
874346	C04AD03	11/01/2008
2035462	C04AD03	01/10/2010
28044182	C04AD03	03/05/2011
184640	C04AD03	26/02/2008
427511	C04AD03	29/05/2011
17741653	C04AD03	26/07/2005
28080744	C04AD03	10/11/2010
859404	C04AD03	15/04/2009
28043285	C04AD03	28/03/2008
25744043	C04AD03	19/04/2011
24657685	C04AD03	18/05/2011
19964901	C04AD03	01/02/2010
1015611	C04AD03	25/05/2011
19970002	C04AD03	01/08/2007
1013937	C04AD03	25/08/2005
1372631	C04AD03	28/01/2002
19801995	C04AD03	05/05/2011
21553830	C04AD03	27/04/2011
18189318	C04AD03	24/05/2011
18194120	C04AD03	31/05/2011
18187564	C04AD03	16/02/2005
2988749	C04AD03	18/05/2007
8049938	C04AD03	19/10/2007
1015918	C04AD03	07/11/2006
26703633	C04AD03	20/09/2010
26639040	C04AD03	31/12/2005
16105363	C04AD03	12/03/2008
3254435	C04AD03	26/09/2006
16104648	C04AD03	18/05/2011
26701106	C04AD03	13/04/2010
26642021	C04AD03	13/01/2010
24583039	C04AD03	24/05/2011
24655486	C04AD03	30/01/2002
21066126	C04AD03	13/01/2009
19968378	C04AD03	22/01/2004
24581631	C04AD03	31/05/2011
24582056	C04AD03	17/04/2011
26912985	C04AD03	08/04/2011
26897795	C04AD03	10/11/2008
26958880	C04AD03	18/09/2001
26949733	C04AD03	07/05/2011
26745307	C04AD03	05/01/2009
26760881	C04AD03	15/06/2007
26857096	C04AD03	11/04/2011
26717587	C04AD03	05/05/2011
26782340	C04AD03	21/02/2006
26714735	C04AD03	05/04/2005
26881042	C04AD03	28/05/2011
26859766	C04AD03	06/05/2011
26833703	C04AD03	30/05/2011
26804665	C04AD03	28/07/2008
26777422	C04AD03	21/12/2006
26999711	C04AD03	17/05/2011
26990015	C04AD03	29/04/2011
26995388	C04AD03	08/05/2006
26980893	C04AD03	10/05/2011
26976896	C04AD03	05/07/2007
27133198	C04AD03	16/05/2011
27151273	C04AD03	01/06/2011
27128177	C04AD03	20/05/2010
27112272	C04AD03	03/03/2006
27151056	C04AD03	11/08/2009
27130228	C04AD03	29/10/2003
27064483	C04AD03	14/04/2011
26998494	C04AD03	25/04/2011
26997004	C04AD03	31/01/2011
27042033	C04AD03	28/12/2006
27025237	C04AD03	15/05/2011
27029067	C04AD03	07/10/2004
26996377	C04AD03	25/01/2011
27041680	C04AD03	23/12/2009
27022688	C04AD03	08/04/2003
26998758	C04AD03	28/05/2011
27000807	C04AD03	11/05/2011
27039817	C04AD03	16/06/2003
27170731	C04AD03	02/04/2011
27152048	C04AD03	05/12/2010
27245557	C04AD03	28/12/2004
27209966	C04AD03	08/07/2009
27143681	C04AD03	25/05/2011
27399991	C04AD03	31/12/2007
27383923	C04AD03	19/01/2006
27148073	C04AD03	04/05/2011
27385174	C04AD03	13/05/2011
27173275	C04AD03	20/05/2011
27254123	C04AD03	04/10/2009
27215330	C04AD03	19/05/2011
27367102	C04AD03	03/05/2011
27211899	C04AD03	21/06/2007
27361885	C04AD03	03/09/2008
27173410	C04AD03	14/01/2011
27389179	C04AD03	14/07/2009
27389186	C04AD03	08/05/2011
27249682	C04AD03	09/05/2011
27589187	C04AD03	04/05/2007
27660974	C04AD03	23/04/2011
27648485	C04AD03	01/05/2011
27493925	C04AD03	03/05/2011
27471719	C04AD03	26/05/2011
27475636	C04AD03	01/06/2011
27660599	C04AD03	13/04/2011
27453870	C04AD03	26/12/2010
27459000	C04AD03	11/05/2011
27545803	C04AD03	30/10/2009
27166399	C04AD03	22/05/2011
27145025	C04AD03	16/08/2010
27166322	C04AD03	13/05/2009
24576547	C04AD03	26/03/2007
27066420	C04AD03	27/04/2011
24579212	C04AD03	01/09/2009
27211092	C04AD03	03/02/2005
27781891	C04AD03	03/08/2010
27459230	C04AD03	24/07/2008
27531095	C04AD03	23/01/2007
27664085	C04AD03	07/03/2002
27668157	C04AD03	31/05/2011
418255	C04AD03	12/05/2011
27459328	C04AD03	17/10/2005
27456174	C04AD03	06/04/2006
27540244	C04AD03	21/05/2011
27453474	C04AD03	02/10/2006
26895421	C04AD03	20/02/2007
24655178	C04AD03	16/12/2003
2958933	C04AD03	11/02/2003
27799100	C04AD03	05/03/2009
27760549	C04AD03	03/10/2003
27804349	C04AD03	10/05/2011
27797674	C04AD03	06/08/2003
27720814	C04AD03	30/08/2006
27665005	C04AD03	03/05/2011
27758584	C04AD03	29/01/2008
26777332	C04AD03	07/06/2004
27459636	C04AD03	15/05/2011
27658340	C04AD03	18/12/2001
26800573	C04AD03	05/09/2009
1910949	C04AD03	19/12/2006
27775707	C04AD03	20/01/2003
27084228	C04AD03	23/03/2007
27799572	C04AD03	14/12/2000
27795964	C04AD03	04/05/2007
27029353	C04AD03	11/03/2009
33086104	C04AD03	07/04/2009
33022477	C04AD03	10/07/2008
33018984	C04AD03	04/05/2000
33100103	C04AD03	29/07/2010
33031759	C04AD03	06/03/2006
33092896	C04AD03	29/10/2009
33041016	C04AD03	05/11/2010
33084200	C04AD03	19/11/2003
33050607	C04AD03	05/11/2007
33098852	C04AD03	01/08/2001
33003086	C04AD03	27/06/2007
33008912	C04AD03	15/01/2010
33083502	C04AD03	25/11/2008
33040236	C04AD03	02/02/2009
33023079	C04AD03	08/02/2011
33018738	C04AD03	05/06/2010
33080281	C04AD03	29/06/2010
33018895	C04AD03	25/05/2005
33016621	C04AD03	24/05/2007
33045539	C04AD03	05/10/2000
33025068	C04AD03	31/07/2009
33097641	C04AD03	31/05/2011
33047339	C04AD03	27/01/2004
33050773	C04AD03	27/09/2007
33104669	C04AD03	12/05/2011
33064888	C04AD03	20/05/2011
33006134	C04AD03	27/05/2011
33123534	C04AD03	25/08/2010
33073771	C04AD03	30/04/2003
33015655	C04AD03	21/12/2005
33098168	C04AD03	07/10/2008
33012294	C04AD03	02/09/2008
33066001	C04AD03	27/08/2010
33026145	C04AD03	20/05/2011
27796872	C04AD03	20/05/2011
27507107	C04AD03	03/09/2005
24661802	C04AD03	02/06/2009
2958097	C04AD03	10/05/2011
26720883	C04AD03	20/02/2009
21109297	C04AD03	17/12/2008
16185833	C04AD03	16/01/2009
33046012	C04AD03	20/03/2002
16135369	C04AD03	19/05/2011
33046870	C04AD03	27/03/2003
33031799	C04AD03	29/01/2007
33006191	C04AD03	11/05/2011
33041177	C04AD03	31/08/2009
33024104	C04AD03	19/12/2003
33020265	C04AD03	16/01/2007
33052133	C04AD03	19/07/2006
33033679	C04AD03	15/02/2005
33088193	C04AD03	20/12/2006
33112492	C04AD03	31/03/2008
33083224	C04AD03	24/11/2010
33090933	C04AD03	20/10/2010
33007224	C04AD03	12/05/2011
33107252	C04AD03	14/02/2011
33053637	C04AD03	16/09/2009
33089997	C04AD03	12/07/2010
33043674	C04AD03	01/02/2011
33101385	C04AD03	15/02/2011
33061115	C04AD03	04/04/2008
33030998	C04AD03	12/01/2004
33087055	C04AD03	02/04/2001
33060722	C04AD03	03/08/2009
33055038	C04AD03	30/04/2008
33115874	C04AD03	28/07/2010
33004431	C04AD03	05/06/2006
33063691	C04AD03	27/05/2005
33112092	C04AD03	01/06/2009
33084215	C04AD03	22/04/2009
28005105	C04AD03	13/05/2011
18765887	C04AD03	16/05/2011
16183222	C04AD03	30/01/2001
16616536	C04AD03	03/05/2006
14187882	C04AD03	26/05/2011
33313140	C04AD03	21/03/2011
18762551	C04AD03	03/05/2011
33311924	C04AD03	03/02/2011
23396603	C04AD03	09/10/2006
33297139	C04AD03	04/04/2011
18768957	C04AD03	06/04/2010
28026007	C04AD03	18/05/2011
18743061	C04AD03	01/06/2011
27914431	C04AD03	05/08/2010
16165687	C04AD03	06/03/2006
33253139	C04AD03	29/04/2011
16184117	C04AD03	12/04/2011
16652659	C04AD03	04/04/2011
16183158	C04AD03	20/07/2004
33232471	C04AD03	16/02/2011
27849109	C04AD03	31/03/2011
20985633	C04AD03	21/03/2007
23339422	C04AD03	26/06/2009
21011098	C04AD03	21/04/2008
23369406	C04AD03	20/08/2010
33209870	C04AD03	30/09/2008
23353462	C04AD03	25/05/2011
23353839	C04AD03	13/05/2009
23402116	C04AD03	02/04/2011
16124869	C04AD03	23/05/2011
23381263	C04AD03	23/05/2011
23343668	C04AD03	26/12/2006
27849764	C04AD03	18/11/2005
23381566	C04AD03	28/12/2007
18757709	C04AD03	19/09/2006
16602618	C04AD03	23/05/2011
16639460	C04AD03	13/06/2006
31487753	C04AD03	23/08/2006
31260586	C04AD03	21/05/2004
23346656	C04AD03	23/08/2006
23366435	C04AD03	07/12/2010
16649316	C04AD03	25/05/2011
33220514	C04AD03	03/02/2011
27948668	C04AD03	17/02/2009
33306337	C04AD03	28/04/2011
23369532	C04AD03	20/07/2010
23397045	C04AD03	23/11/2009
16639689	C04AD03	12/01/2011
23315594	C04AD03	28/03/2011
21116848	C04AD03	08/11/2010
23347331	C04AD03	14/03/2006
16712077	C04AD03	27/04/2011
31651515	C04AD03	28/05/2010
32269071	C04AD03	20/12/2009
31311295	C04AD03	21/09/2007
31551569	C04AD03	02/01/2006
31638063	C04AD03	25/07/2007
31977625	C04AD03	29/07/2005
31281157	C04AD03	28/11/2008
31451455	C04AD03	09/07/2007
31958251	C04AD03	15/07/2010
31055959	C04AD03	17/06/2004
31991899	C04AD03	17/01/2007
31664461	C04AD03	30/10/2009
31589693	C04AD03	27/02/2006
31557290	C04AD03	04/06/2003
31591091	C04AD03	28/01/2011
31494769	C04AD03	03/12/2009
31507970	C04AD03	06/04/2011
31799718	C04AD03	17/03/2008
31160878	C04AD03	06/02/2006
31728526	C04AD03	13/12/2009
31461480	C04AD03	25/08/2005
31207975	C04AD03	06/07/2004
31800025	C04AD03	02/10/2007
31841569	C04AD03	08/01/2004
31140970	C04AD03	27/10/2006
31390699	C04AD03	16/01/2006
31530350	C04AD03	27/02/2006
32242515	C04AD03	25/09/2007
31648495	C04AD03	02/10/2008
31783175	C04AD03	02/10/2006
31184648	C04AD03	22/12/2010
31974767	C04AD03	07/12/2009
31629878	C04AD03	01/06/2011
32221033	C04AD03	25/06/2008
31872942	C04AD03	12/12/2005
31373344	C04AD03	05/06/2008
31352577	C04AD03	28/06/2006
31917785	C04AD03	03/10/2007
32233279	C04AD03	20/09/2006
31627297	C04AD03	15/01/2009
32074407	C04AD03	09/11/2010
31790846	C04AD03	19/04/2006
31394725	C04AD03	18/08/2008
31440365	C04AD03	12/05/2005
31664650	C04AD03	05/08/2009
32083356	C04AD03	11/11/2009
31701050	C04AD03	13/07/2009
31539765	C04AD03	29/10/2004
31296692	C04AD03	11/09/2003
32176087	C04AD03	18/11/2010
31617584	C04AD03	04/07/2005
31089828	C04AD03	15/12/2009
31267257	C04AD03	08/01/2004
32119254	C04AD03	05/02/2007
31508328	C04AD03	26/02/2003
31340688	C04AD03	27/12/2007
32194037	C04AD03	22/03/2007
32098560	C04AD03	18/09/2007
31804458	C04AD03	15/11/2010
31914323	C04AD03	06/03/2011
31862985	C04AD03	23/06/2005
31907081	C04AD03	25/07/2007
31589311	C04AD03	11/07/2006
31226791	C04AD03	30/06/2010
32227466	C04AD03	10/09/2004
31474377	C04AD03	28/03/2008
32250007	C04AD03	11/10/2007
31820931	C04AD03	22/09/2008
31890406	C04AD03	10/08/2006
31712543	C04AD03	28/06/2004
32247095	C04AD03	12/06/2009
31985435	C04AD03	13/06/2008
31984866	C04AD03	19/05/2008
32263974	C04AD03	12/12/2008
32125428	C04AD03	30/06/2005
31904766	C04AD03	03/12/2007
32141776	C04AD03	16/10/2006
31759736	C04AD03	09/11/2004
31672769	C04AD03	09/02/2010
32265236	C04AD03	21/10/2009
32222821	C04AD03	30/12/2005
32264668	C04AD03	01/02/2006
31415742	C04AD03	24/01/2007
31227615	C04AD03	07/09/2010
31230558	C04AD03	08/07/2010
31460995	C04AD03	23/04/2010
31370565	C04AD03	19/11/2007
32084841	C04AD03	15/10/2010
31244492	C04AD03	22/09/2009
31405567	C04AD03	07/02/2007
31657959	C04AD03	18/12/2007
32277020	C04AD03	22/05/2003
31307160	C04AD03	18/11/2009
31536297	C04AD03	23/12/2008
32118462	C04AD03	23/01/2008
31858880	C04AD03	04/05/2004
32073876	C04AD03	10/01/2006
31375081	C04AD03	15/04/2005
31952723	C04AD03	26/02/2003
31470090	C04AD03	02/04/2007
32143143	C04AD03	21/04/2006
31783462	C04AD03	22/12/2008
32147924	C04AD03	31/05/2005
31184719	C04AD03	12/12/2008
31734758	C04AD03	14/07/2004
32271038	C04AD03	01/07/2004
31282685	C04AD03	29/05/2009
31184541	C04AD03	29/09/2008
31666392	C04AD03	29/06/2005
31449889	C04AD03	10/09/2007
32045804	C04AD03	29/12/2006
31213814	C04AD03	18/09/2003
32179438	C04AD03	29/11/2010
31324107	C04AD03	18/12/2009
32070053	C04AD03	26/06/2001
32133944	C04AD03	09/03/2004
31938730	C04AD03	01/08/2006
31486840	C04AD03	24/05/2005
31716429	C04AD03	29/06/2010
31960354	C04AD03	26/01/2007
31268162	C04AD03	27/01/2011
31526498	C04AD03	29/09/2004
32247234	C04AD03	11/05/2006
31506905	C04AD03	01/06/2009
32279180	C04AD03	06/06/2005
31532333	C04AD03	02/04/2008
31686145	C04AD03	21/12/2009
32106904	C04AD03	04/03/2010
32129489	C04AD03	24/04/2006
31177288	C04AD03	14/02/2011
31342309	C04AD03	17/09/2009
31126735	C04AD03	29/12/2008
32088394	C04AD03	29/10/2010
31948103	C04AD03	25/07/2007
31259283	C04AD03	29/04/2011
31144302	C04AD03	27/07/2005
31625738	C04AD03	02/12/2008
31757147	C04AD03	11/12/2006
31449858	C04AD03	20/07/2010
31209541	C04AD03	02/07/2010
32120883	C04AD03	11/10/2010
31421108	C04AD03	15/01/2002
31657716	C04AD03	24/11/2005
31768146	C04AD03	30/04/2004
31698117	C04AD03	04/07/2008
31133575	C04AD03	03/05/2007
