patient_id	covar_name	date
9311739	C01BC04	26/04/2011
8556396	C01BC04	29/03/2011
12774896	C01BC04	09/09/2005
8784088	C01BC04	01/04/2011
12774885	C01BC04	20/07/2006
610072	C01BC04	19/04/2011
6747268	C01BC04	07/07/2009
19538613	C01BC04	14/01/2011
20528864	C01BC04	22/12/2010
24930795	C01BC04	25/01/2011
20547221	C01BC04	10/11/2010
5028400	C01BC04	15/01/2007
8277775	C01BC04	03/03/2006
5022361	C01BC04	09/03/2011
8973282	C01BC04	24/04/2010
20528913	C01BC04	19/05/2011
5028278	C01BC04	15/11/2006
6888668	C01BC04	16/02/2011
24930409	C01BC04	21/05/2011
9376288	C01BC04	03/03/2011
12688652	C01BC04	24/05/2011
24865037	C01BC04	23/04/2009
7094703	C01BC04	25/08/2010
20564355	C01BC04	09/08/2006
1336786	C01BC04	05/11/2009
9309579	C01BC04	28/03/2006
1261185	C01BC04	10/10/2002
26144430	C01BC04	28/10/2009
7848911	C01BC04	25/05/2011
7770599	C01BC04	15/04/2011
565093	C01BC04	19/04/2011
6594059	C01BC04	26/05/2011
8063672	C01BC04	10/05/2011
6599454	C01BC04	17/02/2008
648591	C01BC04	12/01/2009
7776144	C01BC04	02/07/2007
7801714	C01BC04	11/01/2007
1102451	C01BC04	26/05/2011
21283186	C01BC04	12/07/2002
890380	C01BC04	31/03/2011
2140399	C01BC04	25/11/2003
758125	C01BC04	28/02/2011
759135	C01BC04	24/05/2011
2777770	C01BC04	17/05/2011
26461705	C01BC04	05/05/2011
26460364	C01BC04	05/04/2011
26350464	C01BC04	18/05/2011
7229505	C01BC04	19/04/2011
2958619	C01BC04	06/05/2011
303884	C01BC04	17/04/2011
434457	C01BC04	13/01/2004
648987	C01BC04	25/12/2009
24665274	C01BC04	18/07/2006
19770701	C01BC04	20/11/2007
1363788	C01BC04	16/05/2007
24659456	C01BC04	19/05/2011
1899523	C01BC04	23/05/2006
26830314	C01BC04	06/05/2011
26776918	C01BC04	26/04/2005
16105651	C01BC04	19/05/2011
26945400	C01BC04	23/04/2011
26878871	C01BC04	27/10/2009
26865577	C01BC04	01/02/2008
26959476	C01BC04	08/07/2007
27133198	C01BC04	20/05/2011
27151169	C01BC04	30/04/2011
27100098	C01BC04	17/11/2010
27000123	C01BC04	27/05/2011
27325553	C01BC04	28/09/2005
27146909	C01BC04	30/05/2011
27357965	C01BC04	05/12/2010
27366113	C01BC04	09/05/2011
27247374	C01BC04	04/04/2007
27657965	C01BC04	24/01/2011
27779761	C01BC04	23/05/2011
27785751	C01BC04	30/04/2011
27454435	C01BC04	04/05/2011
27456825	C01BC04	08/04/2008
27675953	C01BC04	12/11/2007
27591900	C01BC04	01/02/2010
26831340	C01BC04	28/09/2010
33016797	C01BC04	29/03/2006
33084411	C01BC04	24/11/2010
33099866	C01BC04	02/08/2006
33086713	C01BC04	24/05/2011
33020434	C01BC04	26/02/2010
33072898	C01BC04	26/05/2009
33033729	C01BC04	11/12/2001
33011985	C01BC04	04/04/2011
21109661	C01BC04	09/09/2009
21101207	C01BC04	16/12/2008
16165687	C01BC04	16/05/2011
33313715	C01BC04	24/05/2011
16183158	C01BC04	03/08/2006
16708704	C01BC04	09/02/2009
23327992	C01BC04	07/04/2011
31996547	C01BC04	24/03/2006
33220514	C01BC04	04/05/2005
20987392	C01BC04	19/04/2011
16713421	C01BC04	09/05/2011
33244556	C01BC04	05/09/2005
33224929	C01BC04	04/05/2011
31435208	C01BC04	19/05/2011
32250001	C01BC04	31/01/2003
31550961	C01BC04	02/12/2010
31450299	C01BC04	20/12/2006
32046442	C01BC04	20/12/2010
31588614	C01BC04	10/11/2006
31403261	C01BC04	17/04/2011
31605404	C01BC04	22/09/2003
31728526	C01BC04	27/01/2011
32006258	C01BC04	25/04/2011
32261660	C01BC04	12/07/2006
31803487	C01BC04	27/03/2003
31548392	C01BC04	01/10/2008
31745915	C01BC04	11/10/2006
32059302	C01BC04	08/02/2006
32199258	C01BC04	28/02/2011
31588162	C01BC04	12/11/2009
31843748	C01BC04	20/04/2010
31525970	C01BC04	13/12/2006
32030873	C01BC04	22/01/2011
31352687	C01BC04	30/04/2004
31375145	C01BC04	11/12/2006
31611337	C01BC04	14/10/2009
31194705	C01BC04	25/04/2011
31488671	C01BC04	01/04/2011
31644023	C01BC04	28/10/2010
32227582	C01BC04	19/06/2007
31622158	C01BC04	14/12/2010
31083826	C01BC04	25/10/2005
32223111	C01BC04	20/01/2011
31805286	C01BC04	28/11/2005
31402203	C01BC04	11/12/2009
