patient_id	covar_name	date
10284307	D01AC52	20/02/2008
24721664	D01AC52	03/03/2011
10270713	D01AC52	03/12/2010
10271032	D01AC52	21/07/2006
10333557	D01AC52	11/02/2005
8672710	D01AC52	19/12/2005
16109980	D01AC52	24/03/2011
21859577	D01AC52	15/04/2009
13949301	D01AC52	01/12/2010
16929778	D01AC52	13/11/2007
8521498	D01AC52	19/03/2011
733774	D01AC52	02/09/2005
5032092	D01AC52	18/04/2007
12774510	D01AC52	21/08/2007
12774896	D01AC52	26/04/2011
12237800	D01AC52	29/10/2009
24004970	D01AC52	29/06/2010
9230914	D01AC52	23/10/2009
5812917	D01AC52	12/09/2005
8568002	D01AC52	25/03/2009
15899105	D01AC52	11/02/2009
14990478	D01AC52	01/02/2005
9984973	D01AC52	30/05/2011
702188	D01AC52	04/12/2009
5566098	D01AC52	12/11/2007
9215041	D01AC52	08/05/2006
7094806	D01AC52	23/11/2007
15854322	D01AC52	01/07/2010
18146144	D01AC52	01/07/2010
17673164	D01AC52	28/06/2010
10394066	D01AC52	10/03/2011
10006386	D01AC52	21/01/2011
12479828	D01AC52	10/08/2006
948728	D01AC52	29/05/2008
12729740	D01AC52	31/03/2010
949778	D01AC52	09/05/2011
9250506	D01AC52	31/03/2011
6759224	D01AC52	11/05/2004
16977223	D01AC52	24/06/2008
12783208	D01AC52	20/10/2004
10245464	D01AC52	26/02/2009
3550672	D01AC52	24/11/2004
6752622	D01AC52	04/02/2010
9250922	D01AC52	07/07/2010
7094054	D01AC52	01/12/2006
25043628	D01AC52	15/01/2008
9268220	D01AC52	17/05/2011
19290727	D01AC52	31/05/2011
5814358	D01AC52	24/06/2005
16926949	D01AC52	14/04/2005
6746216	D01AC52	02/06/2010
25060140	D01AC52	10/07/2009
17174432	D01AC52	22/10/2009
25067815	D01AC52	20/01/2009
15136810	D01AC52	01/10/2010
10002416	D01AC52	09/09/2010
12857056	D01AC52	28/04/2009
608864	D01AC52	24/03/2011
3117787	D01AC52	14/03/2011
18654616	D01AC52	01/12/2010
6746616	D01AC52	18/05/2004
5026215	D01AC52	17/09/2010
16531906	D01AC52	27/04/2004
9373053	D01AC52	25/02/2011
9996090	D01AC52	22/07/2003
610374	D01AC52	15/03/2011
24006497	D01AC52	13/05/2009
10266394	D01AC52	12/06/2007
21152123	D01AC52	09/09/2009
10393861	D01AC52	07/03/2011
25048565	D01AC52	31/03/2009
9299339	D01AC52	01/03/2011
9285417	D01AC52	01/03/2005
9250225	D01AC52	16/08/2006
9374294	D01AC52	02/10/2007
9274459	D01AC52	10/01/2011
7383099	D01AC52	17/05/2007
17174585	D01AC52	14/10/2009
13375645	D01AC52	06/04/2009
12762299	D01AC52	04/03/2008
7023767	D01AC52	16/12/2010
15273153	D01AC52	18/02/2011
1516892	D01AC52	02/01/2007
12737954	D01AC52	28/01/2010
11993430	D01AC52	08/04/2010
25047568	D01AC52	09/03/2010
1936084	D01AC52	20/10/2010
12790408	D01AC52	22/12/2010
10004315	D01AC52	02/09/2002
2622526	D01AC52	30/09/2010
941531	D01AC52	20/09/2006
11578588	D01AC52	01/04/2009
8292672	D01AC52	21/07/2009
7220377	D01AC52	20/11/2007
9319288	D01AC52	21/12/2004
12690989	D01AC52	02/10/2007
15900996	D01AC52	04/05/2011
6236514	D01AC52	12/06/2006
1124806	D01AC52	24/08/2010
740820	D01AC52	10/02/2004
9984803	D01AC52	14/04/2003
10002637	D01AC52	22/08/2008
5031618	D01AC52	12/05/2011
25041721	D01AC52	18/11/2008
8975417	D01AC52	09/09/2009
6756901	D01AC52	15/02/2011
8987413	D01AC52	26/11/2004
25065956	D01AC52	03/09/2009
9386360	D01AC52	08/04/2011
24721686	D01AC52	21/06/2010
25054416	D01AC52	26/04/2004
16922088	D01AC52	26/04/2010
17171508	D01AC52	24/08/2010
11661262	D01AC52	19/01/2005
21871587	D01AC52	14/12/2010
17184357	D01AC52	02/03/2011
12691458	D01AC52	06/09/2004
16929923	D01AC52	28/06/2007
8988435	D01AC52	25/11/2008
10604423	D01AC52	03/08/2009
6759067	D01AC52	05/04/2011
8960215	D01AC52	01/02/2010
940401	D01AC52	01/02/2011
12790508	D01AC52	05/07/2010
10270807	D01AC52	03/05/2011
25066044	D01AC52	03/03/2011
12782238	D01AC52	25/08/2009
6184310	D01AC52	20/09/2006
8273132	D01AC52	21/07/2008
18714967	D01AC52	11/04/2008
23471965	D01AC52	22/10/2002
12772844	D01AC52	02/12/2010
3301222	D01AC52	18/07/2007
3304316	D01AC52	21/12/2004
19153820	D01AC52	12/07/2010
10331126	D01AC52	09/03/2011
12770935	D01AC52	26/05/2008
25041845	D01AC52	15/06/2007
6752418	D01AC52	17/04/2009
10395240	D01AC52	28/04/2011
8559033	D01AC52	24/01/2011
12790379	D01AC52	08/04/2011
5467749	D01AC52	28/04/2009
16929664	D01AC52	26/04/2007
17170528	D01AC52	25/11/2008
3285563	D01AC52	18/02/2005
9349186	D01AC52	24/05/2011
12738517	D01AC52	14/03/2011
16556701	D01AC52	10/09/2010
9995583	D01AC52	30/09/2009
1334775	D01AC52	21/11/2007
6707615	D01AC52	23/06/2008
9302747	D01AC52	04/01/2008
12766668	D01AC52	13/02/2006
9296109	D01AC52	14/01/2011
16557300	D01AC52	13/06/2006
17216732	D01AC52	17/06/2009
3332130	D01AC52	22/04/1999
24721456	D01AC52	06/04/2011
12783426	D01AC52	29/08/2006
9385061	D01AC52	04/10/2010
17618962	D01AC52	10/05/2011
9385419	D01AC52	10/05/2011
21806208	D01AC52	13/07/2010
9378237	D01AC52	21/09/2004
24721032	D01AC52	19/05/2010
10331626	D01AC52	20/04/2004
640357	D01AC52	06/11/2010
1546365	D01AC52	26/08/2005
7967014	D01AC52	07/02/2011
1474251	D01AC52	12/05/2005
9889795	D01AC52	10/03/2010
1169516	D01AC52	29/03/2004
6598452	D01AC52	23/03/2006
4846869	D01AC52	16/02/2006
1191344	D01AC52	19/08/2004
1671137	D01AC52	25/03/2009
12605703	D01AC52	21/11/2008
6597973	D01AC52	03/04/2008
1320533	D01AC52	07/12/2010
1474100	D01AC52	18/07/2002
7654868	D01AC52	16/06/2010
1848778	D01AC52	26/05/2010
7963931	D01AC52	26/05/2011
15885679	D01AC52	03/05/2011
12189908	D01AC52	17/05/2011
6591734	D01AC52	26/10/2005
1665529	D01AC52	27/01/2011
1546096	D01AC52	23/03/2011
25177752	D01AC52	24/06/2010
6598214	D01AC52	26/03/2008
25177389	D01AC52	20/06/2007
1547420	D01AC52	26/03/2009
1354968	D01AC52	24/03/2011
4846913	D01AC52	16/02/2006
1352915	D01AC52	25/04/2000
26139483	D01AC52	14/12/2009
2723839	D01AC52	02/10/2006
7776735	D01AC52	23/08/2010
18039002	D01AC52	13/04/2005
1445809	D01AC52	21/07/2010
7657311	D01AC52	20/04/2010
1545551	D01AC52	17/07/2005
525114	D01AC52	08/03/2001
1852867	D01AC52	17/11/2004
1443689	D01AC52	17/12/2007
8066044	D01AC52	06/05/2008
24718990	D01AC52	24/09/2009
8453856	D01AC52	09/03/2011
8956059	D01AC52	10/01/2011
1444156	D01AC52	19/01/2005
1665602	D01AC52	19/05/2011
17783992	D01AC52	21/12/2010
1446069	D01AC52	26/07/2006
7968475	D01AC52	18/05/2006
6598203	D01AC52	18/05/2006
16405782	D01AC52	21/12/2007
1545722	D01AC52	10/04/2008
404542	D01AC52	21/09/2007
6592750	D01AC52	10/12/2007
1262786	D01AC52	05/05/2011
1208178	D01AC52	11/03/2010
1320212	D01AC52	03/05/2006
15696603	D01AC52	30/11/2010
1262678	D01AC52	11/05/2011
525368	D01AC52	18/02/2003
20242430	D01AC52	11/04/2011
1295868	D01AC52	28/01/2011
6597292	D01AC52	16/10/2006
8063389	D01AC52	24/01/2011
8063147	D01AC52	17/03/2011
6842492	D01AC52	13/01/2009
1091283	D01AC52	18/03/2008
525618	D01AC52	04/03/2011
516181	D01AC52	29/05/2007
5899636	D01AC52	28/11/2007
539445	D01AC52	05/03/2004
1545846	D01AC52	05/02/2009
7966778	D01AC52	03/05/2011
6603214	D01AC52	02/12/2009
7697001	D01AC52	28/12/2009
25884256	D01AC52	31/03/2009
25904492	D01AC52	21/12/2005
6951044	D01AC52	30/07/2007
1129404	D01AC52	30/03/2009
1566989	D01AC52	20/05/2003
25902808	D01AC52	14/02/2011
25883724	D01AC52	05/10/2006
25909916	D01AC52	04/02/2011
1131878	D01AC52	04/03/2003
1132264	D01AC52	22/03/2010
1578102	D01AC52	11/11/2004
135900	D01AC52	10/12/2003
1639524	D01AC52	05/04/2010
1638747	D01AC52	05/08/2010
25904628	D01AC52	08/03/2011
1107235	D01AC52	08/06/2004
1101869	D01AC52	18/05/2006
1102090	D01AC52	13/09/2007
12640327	D01AC52	17/05/2011
889830	D01AC52	11/11/2010
890075	D01AC52	16/10/2008
1101747	D01AC52	13/01/2011
1108078	D01AC52	23/05/2011
1274912	D01AC52	12/09/2005
1638850	D01AC52	08/03/2011
1134288	D01AC52	03/07/2008
25750805	D01AC52	10/05/2011
189189	D01AC52	07/06/2010
3656508	D01AC52	04/08/2005
25766651	D01AC52	20/01/2011
12788129	D01AC52	21/01/2011
1274932	D01AC52	07/09/2006
25894711	D01AC52	15/04/2011
1855343	D01AC52	18/01/2006
1552120	D01AC52	01/10/2003
25883547	D01AC52	05/09/2005
25892496	D01AC52	06/06/2008
1065365	D01AC52	23/08/2006
1134812	D01AC52	23/12/2009
12659932	D01AC52	14/07/2008
25909722	D01AC52	14/01/2010
12705280	D01AC52	08/06/2009
25884543	D01AC52	14/04/2009
2132832	D01AC52	20/05/2009
2088659	D01AC52	17/06/2002
2143723	D01AC52	23/09/2009
2110391	D01AC52	17/05/2011
2088442	D01AC52	10/03/2004
1763042	D01AC52	23/05/2011
859956	D01AC52	03/01/2010
901797	D01AC52	15/01/2003
1755172	D01AC52	30/05/2008
1763629	D01AC52	26/08/2005
249238	D01AC52	15/11/2007
901845	D01AC52	22/06/2005
756971	D01AC52	02/03/2009
905655	D01AC52	12/05/2011
757643	D01AC52	17/04/2007
904532	D01AC52	24/10/2007
1682671	D01AC52	26/04/2010
877611	D01AC52	11/02/2009
860479	D01AC52	03/07/2008
874253	D01AC52	26/07/2007
2864271	D01AC52	14/09/2004
2811902	D01AC52	31/05/2011
5471303	D01AC52	27/05/2010
5930292	D01AC52	10/06/2010
879101	D01AC52	26/05/2006
903298	D01AC52	03/09/2009
7127964	D01AC52	11/10/2001
2777495	D01AC52	18/03/2011
7045933	D01AC52	17/01/2007
2757482	D01AC52	27/12/2004
2778447	D01AC52	08/02/2010
4150681	D01AC52	08/09/2005
2365677	D01AC52	06/09/2004
2755769	D01AC52	12/05/2011
2407695	D01AC52	30/01/2008
17323216	D01AC52	13/08/2009
16835810	D01AC52	03/02/2010
16962173	D01AC52	27/10/2010
26465782	D01AC52	25/04/2007
18224910	D01AC52	09/03/2009
26243685	D01AC52	02/10/2006
18222850	D01AC52	15/02/2008
26244722	D01AC52	19/07/2010
17041146	D01AC52	11/02/2011
7084913	D01AC52	02/03/2007
26235503	D01AC52	17/02/2010
26244401	D01AC52	05/06/2007
26258038	D01AC52	13/04/2011
26207800	D01AC52	29/06/2009
26181576	D01AC52	09/11/2005
26436536	D01AC52	16/01/2009
16961631	D01AC52	07/05/2004
14508033	D01AC52	16/12/2009
15656498	D01AC52	31/01/2011
17041018	D01AC52	18/11/2009
16961859	D01AC52	19/01/2011
17040205	D01AC52	08/09/2006
13085502	D01AC52	22/10/2010
7765104	D01AC52	05/01/2009
16980576	D01AC52	08/04/2005
7139990	D01AC52	20/09/2010
7140005	D01AC52	09/05/2005
14347072	D01AC52	21/03/2011
8055952	D01AC52	22/09/2008
1899459	D01AC52	05/05/2011
424570	D01AC52	27/04/2009
1913318	D01AC52	26/12/2008
1913335	D01AC52	19/07/2005
1911118	D01AC52	01/06/2009
4470990	D01AC52	25/01/2011
184887	D01AC52	23/06/2008
419475	D01AC52	10/07/2007
185473	D01AC52	28/05/2011
180748	D01AC52	13/11/2008
6570339	D01AC52	06/09/2002
425076	D01AC52	23/05/2011
8045081	D01AC52	27/10/2009
423879	D01AC52	15/04/2008
12971265	D01AC52	02/03/2011
874500	D01AC52	28/10/2008
874875	D01AC52	23/04/2010
28076346	D01AC52	11/06/2010
28075046	D01AC52	11/01/2007
183838	D01AC52	10/05/2004
28090121	D01AC52	10/11/2010
2113791	D01AC52	15/12/2010
304345	D01AC52	20/01/2010
304372	D01AC52	14/09/2006
184746	D01AC52	07/01/2005
305474	D01AC52	24/05/2007
418234	D01AC52	10/08/1999
186944	D01AC52	02/06/2008
179341	D01AC52	20/11/2006
874613	D01AC52	08/10/2010
425756	D01AC52	04/11/2009
185927	D01AC52	13/05/2005
28086732	D01AC52	16/10/2008
28072376	D01AC52	08/04/2010
28053589	D01AC52	07/08/2008
28042849	D01AC52	03/06/2008
26477734	D01AC52	04/04/2011
7765065	D01AC52	07/01/2008
21581705	D01AC52	24/05/2005
24662189	D01AC52	15/09/2003
25535638	D01AC52	24/08/2005
24661880	D01AC52	12/03/2003
25738235	D01AC52	15/03/2011
24664523	D01AC52	30/06/2008
24670187	D01AC52	13/10/2009
25537185	D01AC52	14/06/2010
24745649	D01AC52	04/03/2010
25558732	D01AC52	23/05/2003
25641440	D01AC52	15/02/2008
25743054	D01AC52	28/11/2007
25740545	D01AC52	18/03/2011
25739946	D01AC52	25/09/2009
21063690	D01AC52	03/11/2008
1361493	D01AC52	16/05/2011
620281	D01AC52	31/01/2005
1371652	D01AC52	10/06/2010
1029992	D01AC52	27/06/2005
1906965	D01AC52	21/08/2006
1913183	D01AC52	27/10/2005
41128	D01AC52	23/05/2011
1367175	D01AC52	21/05/2008
1016238	D01AC52	16/07/2008
1373981	D01AC52	10/01/2008
1366526	D01AC52	02/03/2011
1372631	D01AC52	12/02/2008
1366141	D01AC52	13/05/2011
24659456	D01AC52	21/09/2010
21065700	D01AC52	01/08/2002
18199623	D01AC52	26/11/2008
18190082	D01AC52	03/11/2008
19803915	D01AC52	06/06/2007
18551274	D01AC52	31/08/2010
18556316	D01AC52	24/05/2010
18191861	D01AC52	15/10/2004
16721167	D01AC52	07/04/2011
18189831	D01AC52	07/09/2006
18187174	D01AC52	05/02/2010
19279949	D01AC52	16/04/2007
18197591	D01AC52	20/12/2007
22757992	D01AC52	10/05/2011
18187020	D01AC52	21/08/2009
21063993	D01AC52	22/02/2010
20330930	D01AC52	01/05/2009
18200412	D01AC52	27/10/2004
25742893	D01AC52	09/07/2007
2986529	D01AC52	20/06/2007
1359437	D01AC52	04/07/2001
1912671	D01AC52	17/05/2005
2961784	D01AC52	06/08/2009
1909946	D01AC52	19/05/2011
8044845	D01AC52	12/11/2008
1899552	D01AC52	13/01/2010
8212153	D01AC52	07/10/2009
2961375	D01AC52	22/07/2005
2250638	D01AC52	13/05/2009
1903064	D01AC52	25/08/1999
12980321	D01AC52	07/01/2005
2961421	D01AC52	01/08/2002
1910693	D01AC52	03/11/2005
2961511	D01AC52	23/02/2004
6563463	D01AC52	14/09/2009
1015435	D01AC52	23/03/2011
26801937	D01AC52	14/10/2008
26776927	D01AC52	23/05/2005
26637068	D01AC52	31/05/2011
26831939	D01AC52	06/07/2007
26835954	D01AC52	30/07/2007
13497799	D01AC52	23/01/2008
16104775	D01AC52	13/07/2002
2988700	D01AC52	28/07/2006
13872249	D01AC52	06/09/2010
2992747	D01AC52	12/07/2005
16105363	D01AC52	11/09/2009
9064126	D01AC52	04/05/2001
2987979	D01AC52	19/01/2010
13497668	D01AC52	14/12/2007
12984126	D01AC52	14/02/2007
24485185	D01AC52	16/11/2006
11749296	D01AC52	21/11/2007
11443475	D01AC52	24/11/2008
12975544	D01AC52	22/09/2008
12951467	D01AC52	11/06/2008
14528746	D01AC52	09/04/2011
13788822	D01AC52	29/12/2008
12952674	D01AC52	22/01/2009
13497950	D01AC52	14/04/2009
12952779	D01AC52	08/06/2009
17160177	D01AC52	25/10/2007
2990019	D01AC52	23/06/2005
12975971	D01AC52	21/04/2009
26722558	D01AC52	15/10/2008
12975538	D01AC52	06/05/2009
26620827	D01AC52	01/06/2009
25740918	D01AC52	07/02/2011
14528786	D01AC52	28/09/2010
26643138	D01AC52	21/12/2007
26635277	D01AC52	10/01/2011
26641801	D01AC52	06/04/2007
24655486	D01AC52	28/11/2003
24667198	D01AC52	28/10/2002
21581847	D01AC52	27/10/2005
20148473	D01AC52	25/05/2011
24582582	D01AC52	17/07/2006
20760970	D01AC52	16/11/2010
20761001	D01AC52	20/01/2011
24577204	D01AC52	06/04/2011
21651799	D01AC52	10/09/2003
22883329	D01AC52	29/02/2008
24656409	D01AC52	03/09/2010
22629527	D01AC52	17/03/2011
24520378	D01AC52	04/01/2005
27026991	D01AC52	15/12/2006
26901110	D01AC52	21/11/2008
26943034	D01AC52	05/12/2005
26917635	D01AC52	18/04/2008
26960916	D01AC52	23/10/2008
26944377	D01AC52	15/02/2008
26938864	D01AC52	13/09/2002
26938303	D01AC52	13/09/2004
26901476	D01AC52	27/12/2005
27023951	D01AC52	17/03/2005
26728428	D01AC52	03/04/2008
26858061	D01AC52	21/12/2005
26716003	D01AC52	07/04/2008
26742016	D01AC52	06/05/2011
26853284	D01AC52	02/09/2008
26703743	D01AC52	20/01/2006
26779481	D01AC52	24/08/2010
26714948	D01AC52	09/06/2008
26710863	D01AC52	14/03/2007
26876249	D01AC52	18/12/2009
26849323	D01AC52	04/04/2011
26879959	D01AC52	17/01/2007
26848752	D01AC52	26/05/2011
26887343	D01AC52	08/04/2008
26874543	D01AC52	24/09/2007
26853342	D01AC52	23/04/2010
26877329	D01AC52	26/09/2006
26948825	D01AC52	17/06/2004
26881042	D01AC52	02/07/2007
26947752	D01AC52	30/04/2009
26876915	D01AC52	20/09/2007
26856303	D01AC52	02/02/2006
26845956	D01AC52	22/08/2005
26850877	D01AC52	27/03/2007
26880467	D01AC52	10/04/2009
26943502	D01AC52	08/02/2008
26864810	D01AC52	28/07/2009
26802136	D01AC52	04/02/2009
26780754	D01AC52	16/03/2011
26835382	D01AC52	22/05/2006
26789113	D01AC52	08/09/2009
26776735	D01AC52	01/03/2011
26792107	D01AC52	12/06/2006
26776452	D01AC52	05/09/2007
26804888	D01AC52	20/09/2008
26768866	D01AC52	10/09/2004
26768872	D01AC52	28/03/2006
26742253	D01AC52	20/05/2008
26852978	D01AC52	16/07/2008
26855405	D01AC52	30/08/2010
26726929	D01AC52	01/02/2006
26832939	D01AC52	20/12/2007
26815899	D01AC52	29/05/2003
26711151	D01AC52	19/06/2009
26726090	D01AC52	01/08/2009
26833689	D01AC52	13/05/2011
26770232	D01AC52	15/12/2009
27072138	D01AC52	13/08/2009
26960792	D01AC52	20/12/2001
26960799	D01AC52	11/03/2004
27002739	D01AC52	16/11/2009
27073339	D01AC52	03/04/2009
26954470	D01AC52	08/10/2008
26955339	D01AC52	17/06/2009
26969129	D01AC52	20/06/2005
26989053	D01AC52	30/04/2009
26982772	D01AC52	23/03/2007
26988906	D01AC52	03/09/2008
27048515	D01AC52	12/06/2009
27087271	D01AC52	24/04/2008
27085859	D01AC52	19/01/2009
27084686	D01AC52	09/08/2006
27112337	D01AC52	07/01/2005
27111606	D01AC52	08/02/2006
27037601	D01AC52	29/03/2006
27086286	D01AC52	26/12/2007
27055689	D01AC52	16/03/2005
27054520	D01AC52	23/03/2006
27075643	D01AC52	01/10/2008
27033178	D01AC52	20/10/2008
27033023	D01AC52	12/07/2007
27079948	D01AC52	11/10/2010
27042887	D01AC52	01/06/2007
27029722	D01AC52	03/01/2007
27033644	D01AC52	20/05/2011
27043845	D01AC52	10/11/2009
27065702	D01AC52	26/01/2011
27074929	D01AC52	12/07/2006
27031269	D01AC52	14/12/2006
27072046	D01AC52	19/05/2009
27047536	D01AC52	26/02/2010
27065487	D01AC52	22/02/2010
27066800	D01AC52	17/05/2011
27037293	D01AC52	12/01/2009
27036441	D01AC52	12/05/2006
27021541	D01AC52	26/09/2008
27036527	D01AC52	29/12/2005
27010404	D01AC52	19/02/2007
26979025	D01AC52	19/12/2007
27012009	D01AC52	11/11/2008
27012024	D01AC52	30/09/2008
27000273	D01AC52	28/01/2008
26978590	D01AC52	29/11/2001
27021767	D01AC52	08/11/2006
27023838	D01AC52	29/06/2005
27000732	D01AC52	31/03/2008
27022688	D01AC52	22/07/2009
27346535	D01AC52	16/08/2007
27379761	D01AC52	23/11/2010
27362443	D01AC52	24/11/2008
27327578	D01AC52	12/07/2006
27357376	D01AC52	16/08/2005
27162490	D01AC52	29/01/2008
27347134	D01AC52	07/02/2008
27286033	D01AC52	28/10/2008
27387977	D01AC52	21/03/2011
27219884	D01AC52	03/03/2011
27286965	D01AC52	05/05/2009
27307620	D01AC52	26/11/2009
27211089	D01AC52	13/07/2006
27314686	D01AC52	05/07/2005
27232670	D01AC52	14/11/2005
27218594	D01AC52	19/04/2011
27356518	D01AC52	24/11/2010
27361241	D01AC52	16/01/2008
27196362	D01AC52	09/03/2007
27198647	D01AC52	28/04/2011
27295991	D01AC52	20/05/2004
27319635	D01AC52	15/11/2010
27387678	D01AC52	29/10/2010
27346633	D01AC52	14/01/2008
27353083	D01AC52	19/01/2010
27360858	D01AC52	07/09/2009
27360872	D01AC52	16/11/2009
27168973	D01AC52	04/05/2007
27362286	D01AC52	22/03/2005
27326007	D01AC52	28/04/2006
27308559	D01AC52	02/07/2009
27384187	D01AC52	03/02/2005
27199256	D01AC52	12/11/2004
27389100	D01AC52	21/11/2006
26975982	D01AC52	22/06/2004
27222310	D01AC52	21/02/2011
26988666	D01AC52	07/06/2006
27169637	D01AC52	30/12/2010
27169775	D01AC52	17/05/2011
26954926	D01AC52	05/02/2010
27198202	D01AC52	10/11/2005
27604346	D01AC52	30/12/2010
27575771	D01AC52	10/11/2006
27646258	D01AC52	10/06/2005
27575307	D01AC52	17/09/2010
27575329	D01AC52	28/08/2009
27640410	D01AC52	24/05/2011
27600652	D01AC52	10/05/2007
27595644	D01AC52	17/07/2009
27574834	D01AC52	15/10/2008
27596947	D01AC52	11/08/2005
27739364	D01AC52	09/04/2008
27601592	D01AC52	30/08/2007
27574917	D01AC52	17/02/2011
27574941	D01AC52	19/02/2009
27414483	D01AC52	22/10/2001
27481247	D01AC52	10/12/2009
27478398	D01AC52	16/04/2007
27493267	D01AC52	30/12/2009
27427591	D01AC52	30/06/2004
27477467	D01AC52	26/08/2010
27414394	D01AC52	23/12/2005
27415090	D01AC52	16/03/2007
27571463	D01AC52	24/09/2008
27757050	D01AC52	18/07/2006
27717219	D01AC52	11/11/2009
27569585	D01AC52	13/06/2008
27572767	D01AC52	07/02/2011
27569066	D01AC52	20/02/2007
27564070	D01AC52	24/08/2006
27707997	D01AC52	24/05/2006
27759030	D01AC52	09/02/2011
27568261	D01AC52	30/10/2009
27544065	D01AC52	18/03/2011
27553342	D01AC52	24/06/2005
27558029	D01AC52	21/05/2008
27614612	D01AC52	24/10/2005
27565194	D01AC52	27/01/2006
27694922	D01AC52	26/02/2010
27570342	D01AC52	11/03/2008
27546307	D01AC52	17/06/2005
27621339	D01AC52	21/11/2007
27568394	D01AC52	05/05/2011
27570004	D01AC52	09/05/2011
27708618	D01AC52	07/07/2009
27151908	D01AC52	24/09/2007
27283905	D01AC52	19/11/2009
27235616	D01AC52	10/05/2006
27146121	D01AC52	21/04/2010
27284131	D01AC52	22/04/2009
27285688	D01AC52	12/05/2004
27284148	D01AC52	21/01/2010
27621750	D01AC52	18/01/2005
26900477	D01AC52	06/04/2011
26720527	D01AC52	29/08/2006
27604464	D01AC52	08/01/2007
24745593	D01AC52	21/05/2010
27025269	D01AC52	06/02/2008
25741964	D01AC52	22/08/2008
27164268	D01AC52	08/05/2009
26622330	D01AC52	28/03/2011
26625750	D01AC52	21/09/2007
16085199	D01AC52	18/11/2009
27108137	D01AC52	29/12/2010
1016318	D01AC52	13/04/2005
266530	D01AC52	13/11/2009
26968518	D01AC52	22/03/2007
17423124	D01AC52	21/05/2008
27773698	D01AC52	20/02/2009
27570138	D01AC52	14/12/2010
27772597	D01AC52	18/06/2004
27454341	D01AC52	02/03/2011
27460023	D01AC52	28/04/2010
27480464	D01AC52	29/06/2010
27475520	D01AC52	24/11/2004
27679944	D01AC52	15/10/2007
27514984	D01AC52	07/09/2009
27678491	D01AC52	22/05/2006
27570288	D01AC52	30/10/2009
26775834	D01AC52	29/08/2005
25742146	D01AC52	12/08/2009
26989614	D01AC52	26/02/2010
418255	D01AC52	24/01/2001
27674089	D01AC52	26/12/2007
27682379	D01AC52	07/01/2008
27082259	D01AC52	07/02/2011
26709865	D01AC52	28/11/2005
27367916	D01AC52	25/05/2006
27301086	D01AC52	07/08/2008
27541582	D01AC52	18/03/2009
27456109	D01AC52	18/05/2011
27597325	D01AC52	06/05/2010
27456098	D01AC52	15/09/2009
27602941	D01AC52	20/05/2008
27478713	D01AC52	21/06/2010
27631227	D01AC52	18/04/2011
1028687	D01AC52	10/10/2007
27668046	D01AC52	11/09/2009
27074467	D01AC52	26/01/2011
27802903	D01AC52	18/10/2010
26777286	D01AC52	04/05/2011
10824991	D01AC52	06/04/2009
27568939	D01AC52	28/10/2005
19280206	D01AC52	26/03/2010
27196928	D01AC52	03/06/2010
27319324	D01AC52	05/12/2008
27048619	D01AC52	16/12/2009
1912943	D01AC52	06/02/2007
27708064	D01AC52	16/06/2005
27708099	D01AC52	20/11/2009
27719296	D01AC52	06/03/2007
27797246	D01AC52	31/08/2009
27695081	D01AC52	11/08/2006
27809327	D01AC52	18/08/2004
27760886	D01AC52	07/04/2010
27802788	D01AC52	31/03/2011
27667247	D01AC52	16/11/2009
27709451	D01AC52	18/02/2005
27668986	D01AC52	15/02/2010
27665005	D01AC52	04/07/2006
27717578	D01AC52	15/04/2011
27662240	D01AC52	19/11/2010
18192670	D01AC52	10/12/2007
26727867	D01AC52	20/01/2011
26730671	D01AC52	07/08/2009
27667214	D01AC52	16/07/2004
1912654	D01AC52	02/10/2002
27567762	D01AC52	04/12/2008
18951056	D01AC52	08/11/2010
27565622	D01AC52	27/05/2004
27170744	D01AC52	14/10/2008
1018488	D01AC52	13/07/2006
27614092	D01AC52	15/04/2009
27508461	D01AC52	05/12/2008
26852782	D01AC52	05/09/2005
26933091	D01AC52	27/01/2004
1030390	D01AC52	04/05/2005
27782172	D01AC52	13/01/2010
27668760	D01AC52	16/04/2009
27794205	D01AC52	21/01/2004
27047804	D01AC52	03/10/2008
27765473	D01AC52	23/09/2005
27552644	D01AC52	26/05/2009
18198960	D01AC52	02/12/2003
27283919	D01AC52	04/09/2009
27366514	D01AC52	03/02/2011
33040260	D01AC52	07/04/2011
33018984	D01AC52	16/06/2009
33078559	D01AC52	25/11/2010
33037105	D01AC52	25/06/2010
33041016	D01AC52	13/07/2009
33050061	D01AC52	02/10/2003
33067601	D01AC52	18/03/2011
33078853	D01AC52	17/09/2007
33134765	D01AC52	13/01/2011
33027806	D01AC52	28/02/2011
33001039	D01AC52	17/05/2011
33125119	D01AC52	14/02/2011
33008912	D01AC52	24/01/2011
33025640	D01AC52	05/05/2010
33040236	D01AC52	02/02/2009
33049687	D01AC52	22/04/2002
33106608	D01AC52	20/11/2009
33130706	D01AC52	12/06/2009
33110326	D01AC52	30/06/2010
33056431	D01AC52	01/03/2011
33109340	D01AC52	11/11/2010
33093304	D01AC52	06/09/2005
33084411	D01AC52	26/05/2011
33003004	D01AC52	08/06/2010
33098869	D01AC52	12/01/2011
33057839	D01AC52	12/05/2011
33025068	D01AC52	13/11/2007
33004433	D01AC52	30/10/2007
33104669	D01AC52	07/09/2010
33007386	D01AC52	07/04/2008
33098553	D01AC52	12/06/2008
33123534	D01AC52	01/09/2009
33051529	D01AC52	27/04/2007
33011503	D01AC52	04/02/2011
33080535	D01AC52	27/08/2010
33033051	D01AC52	21/05/2010
180412	D01AC52	21/07/2008
2987278	D01AC52	04/04/2006
428067	D01AC52	03/06/2005
27801842	D01AC52	27/05/2008
27805265	D01AC52	13/01/2009
23382045	D01AC52	30/03/2010
23380888	D01AC52	16/12/2010
20983764	D01AC52	19/03/2010
33312211	D01AC52	18/10/2010
27994059	D01AC52	21/01/2009
16647769	D01AC52	13/01/2009
27874229	D01AC52	18/05/2011
24465654	D01AC52	16/04/2009
33126990	D01AC52	10/11/2008
33050233	D01AC52	26/06/2003
33024229	D01AC52	20/01/2011
33079595	D01AC52	01/06/2007
33129211	D01AC52	25/09/2008
33090788	D01AC52	25/10/2005
33033729	D01AC52	04/08/2010
33032465	D01AC52	14/04/2009
33085777	D01AC52	03/08/2010
33086443	D01AC52	21/05/2009
33050169	D01AC52	10/07/2003
33053146	D01AC52	26/05/2011
33135283	D01AC52	21/12/2010
33061115	D01AC52	25/01/2010
33109468	D01AC52	23/10/2006
33072029	D01AC52	31/05/2011
33021593	D01AC52	19/01/2009
33110291	D01AC52	30/01/2010
33003742	D01AC52	17/05/2011
33001520	D01AC52	01/09/2010
33117877	D01AC52	02/08/2007
33024570	D01AC52	02/06/2004
16646444	D01AC52	25/10/2010
18730630	D01AC52	02/03/2011
33304646	D01AC52	11/05/2011
23360399	D01AC52	21/09/2010
27999273	D01AC52	03/12/2008
28003393	D01AC52	05/01/2010
16645912	D01AC52	03/10/2005
27984436	D01AC52	31/08/2010
33235295	D01AC52	25/03/2002
16138756	D01AC52	21/07/2010
16138404	D01AC52	06/11/2002
27857820	D01AC52	23/02/2010
16629078	D01AC52	22/04/2008
16181789	D01AC52	18/10/2005
28003252	D01AC52	14/12/2010
16173716	D01AC52	15/04/2005
33297088	D01AC52	27/05/2011
27999910	D01AC52	01/07/2008
18743061	D01AC52	22/08/2006
16679741	D01AC52	23/11/2006
14188303	D01AC52	02/03/2011
16680317	D01AC52	25/06/2009
33299589	D01AC52	08/03/2011
16596474	D01AC52	20/04/2011
23279589	D01AC52	31/01/2011
16138978	D01AC52	06/05/2010
28023165	D01AC52	24/05/2011
23381959	D01AC52	04/11/2010
16629237	D01AC52	13/12/2006
27968713	D01AC52	19/08/2010
21001195	D01AC52	28/08/2008
33213110	D01AC52	07/04/2010
33228189	D01AC52	19/11/2008
33232816	D01AC52	01/10/2008
27913765	D01AC52	27/02/2004
16138565	D01AC52	04/01/2010
16606979	D01AC52	26/05/2011
18758326	D01AC52	20/08/2009
16652153	D01AC52	18/05/2007
33227607	D01AC52	20/04/2010
16647269	D01AC52	18/10/2005
27848097	D01AC52	25/05/2010
28016723	D01AC52	17/06/2009
16636746	D01AC52	06/11/2008
16636488	D01AC52	12/02/2010
27867470	D01AC52	31/03/2011
33249205	D01AC52	25/11/2005
24465658	D01AC52	05/07/2010
16139405	D01AC52	16/05/2011
16628644	D01AC52	04/11/2008
16184377	D01AC52	06/06/2007
23366881	D01AC52	25/05/2011
16647759	D01AC52	07/05/2010
18770821	D01AC52	08/01/2010
23367395	D01AC52	12/08/2009
23381315	D01AC52	28/12/2010
18754266	D01AC52	05/01/2009
33251264	D01AC52	08/11/2007
23383661	D01AC52	16/08/2005
23362640	D01AC52	20/11/2009
33224587	D01AC52	01/08/2006
16657864	D01AC52	06/07/2001
18769100	D01AC52	10/07/2009
27954341	D01AC52	17/02/2004
16653716	D01AC52	31/01/2011
16629051	D01AC52	26/02/2008
16636819	D01AC52	04/12/2007
27837120	D01AC52	24/08/2006
20985728	D01AC52	25/04/2007
23470708	D01AC52	01/02/2011
33226577	D01AC52	09/03/2010
33302236	D01AC52	17/11/2009
21112078	D01AC52	18/02/2011
23353502	D01AC52	16/06/2005
23333342	D01AC52	29/05/2009
33315064	D01AC52	10/10/2008
33243444	D01AC52	06/04/2006
16628028	D01AC52	05/05/2009
20990975	D01AC52	23/11/2004
23327123	D01AC52	08/02/2010
23412776	D01AC52	02/12/2009
27846161	D01AC52	05/04/2008
33201445	D01AC52	10/01/2008
16653816	D01AC52	12/01/2011
33246306	D01AC52	06/10/2010
23381566	D01AC52	07/10/2010
16636548	D01AC52	07/02/2007
16606808	D01AC52	23/03/2011
27984060	D01AC52	17/12/2010
33302039	D01AC52	01/02/2011
18757709	D01AC52	20/09/2010
16646273	D01AC52	21/12/2001
16166372	D01AC52	23/09/2008
29934778	D01AC52	01/12/2010
29569718	D01AC52	18/05/2011
30627646	D01AC52	01/12/2010
29536234	D01AC52	03/05/2011
29889124	D01AC52	09/11/2010
30604900	D01AC52	30/03/2011
30826245	D01AC52	16/02/2011
30838715	D01AC52	25/01/2011
23346656	D01AC52	18/03/2011
23406762	D01AC52	25/07/2005
27989647	D01AC52	04/08/2009
16186292	D01AC52	26/10/2005
21117548	D01AC52	13/12/2010
20990624	D01AC52	11/10/2006
21106150	D01AC52	30/09/2010
16623961	D01AC52	26/04/2011
16648224	D01AC52	06/09/2007
33315149	D01AC52	23/05/2007
33316316	D01AC52	04/03/2011
23368746	D01AC52	30/07/2009
33244259	D01AC52	10/07/2003
23346655	D01AC52	25/11/2010
23470370	D01AC52	29/05/2009
27847320	D01AC52	25/11/2005
28168569	D01AC52	29/03/2011
16647731	D01AC52	04/12/2010
30348574	D01AC52	25/10/2010
29441219	D01AC52	22/02/2011
16173873	D01AC52	03/04/2001
29733703	D01AC52	21/03/2011
30491453	D01AC52	01/02/2011
27999787	D01AC52	31/12/2009
30842458	D01AC52	13/10/2010
30101802	D01AC52	09/02/2011
30642219	D01AC52	25/04/2011
29830441	D01AC52	20/12/2010
16654459	D01AC52	18/12/2007
30474614	D01AC52	09/03/2011
30500697	D01AC52	25/03/2011
23354686	D01AC52	14/07/2006
16130884	D01AC52	24/06/2003
23385786	D01AC52	13/03/2007
16124689	D01AC52	07/04/2011
33245160	D01AC52	11/09/2008
24105038	D01AC52	15/01/2011
21011417	D01AC52	14/04/2011
33314832	D01AC52	11/05/2010
23360494	D01AC52	21/09/2010
33299957	D01AC52	10/03/2005
16646378	D01AC52	04/12/2003
23343500	D01AC52	12/05/2008
23371494	D01AC52	03/11/2009
31119558	D01AC52	09/03/2007
31884529	D01AC52	21/06/2006
31322340	D01AC52	02/02/2009
31891552	D01AC52	07/12/2007
32237341	D01AC52	09/01/2007
32128014	D01AC52	26/06/2002
31590290	D01AC52	28/12/2007
31541778	D01AC52	25/08/2009
31856871	D01AC52	04/03/2011
31655296	D01AC52	09/07/2008
31598154	D01AC52	02/07/2010
31107103	D01AC52	23/10/2006
32015261	D01AC52	20/12/2007
31529676	D01AC52	29/09/2006
31693160	D01AC52	21/09/2005
31288795	D01AC52	09/03/2011
31272340	D01AC52	07/07/2009
31588614	D01AC52	11/07/2006
31344263	D01AC52	29/10/2004
32246611	D01AC52	20/01/2011
31104610	D01AC52	28/09/2006
31494232	D01AC52	07/10/2005
31160878	D01AC52	21/04/2009
32194913	D01AC52	02/02/2006
32100272	D01AC52	20/04/2009
31573454	D01AC52	04/04/2005
32226618	D01AC52	28/12/2004
31140970	D01AC52	22/03/2007
31442947	D01AC52	16/05/2005
32144155	D01AC52	09/08/2005
31302598	D01AC52	22/09/2004
31846828	D01AC52	12/04/2010
31384501	D01AC52	25/05/2005
31175603	D01AC52	18/11/2009
31913299	D01AC52	10/09/2009
31885376	D01AC52	05/01/2005
31862515	D01AC52	29/08/2007
31444593	D01AC52	06/10/2008
31735518	D01AC52	13/06/2006
32010167	D01AC52	26/11/2008
31702493	D01AC52	23/11/2005
32092335	D01AC52	17/09/2009
31479727	D01AC52	29/10/2008
31834959	D01AC52	18/11/2008
31780608	D01AC52	22/09/2010
31040135	D01AC52	12/09/2007
31592347	D01AC52	18/10/2005
32280643	D01AC52	12/08/2008
31374961	D01AC52	19/04/2006
32214444	D01AC52	07/10/2002
32122906	D01AC52	03/04/2007
32269774	D01AC52	16/01/2008
31884872	D01AC52	19/05/2010
31640826	D01AC52	11/12/2007
31918450	D01AC52	08/03/2010
31085353	D01AC52	05/04/2011
31372288	D01AC52	13/02/2006
31580241	D01AC52	13/03/2008
31488584	D01AC52	18/12/2007
31807985	D01AC52	13/04/2005
32216487	D01AC52	07/03/2006
31244163	D01AC52	20/12/2010
31129093	D01AC52	09/06/2008
31548326	D01AC52	17/05/2010
31927823	D01AC52	31/03/2009
31713716	D01AC52	21/02/2008
31163272	D01AC52	21/02/2008
31505588	D01AC52	11/01/2005
31416932	D01AC52	30/06/2008
31365988	D01AC52	02/10/2006
31462358	D01AC52	07/11/2008
31641342	D01AC52	28/05/2008
31343858	D01AC52	07/06/2001
31398449	D01AC52	22/02/2010
31038591	D01AC52	04/03/2009
32108763	D01AC52	26/08/2004
31798008	D01AC52	05/03/2007
31949535	D01AC52	13/05/2008
31781231	D01AC52	18/08/2008
32044425	D01AC52	28/04/2009
32066170	D01AC52	06/05/2009
31227090	D01AC52	29/10/2010
32125980	D01AC52	11/06/2008
31847227	D01AC52	16/02/2005
32137021	D01AC52	13/04/2010
31528243	D01AC52	10/03/2009
31216186	D01AC52	09/08/2006
31227877	D01AC52	23/08/2006
31259396	D01AC52	18/04/2006
31441332	D01AC52	19/10/2006
32260664	D01AC52	17/07/2006
32068502	D01AC52	11/09/2006
31270706	D01AC52	01/04/2009
31904957	D01AC52	17/02/2004
31924171	D01AC52	14/09/2006
31446789	D01AC52	01/02/2011
31488907	D01AC52	27/10/2009
32084821	D01AC52	05/05/2010
31875001	D01AC52	20/12/2005
31630960	D01AC52	25/02/2009
32018491	D01AC52	25/06/2010
32258424	D01AC52	09/10/2009
32188596	D01AC52	11/12/2009
32249865	D01AC52	30/10/2008
31245074	D01AC52	27/10/2008
32245709	D01AC52	15/10/2010
31450325	D01AC52	29/01/2010
31939535	D01AC52	20/09/2007
31044557	D01AC52	17/06/2002
31246565	D01AC52	02/09/2008
31905656	D01AC52	10/12/2010
32238575	D01AC52	28/12/2007
31568595	D01AC52	07/03/2006
31517124	D01AC52	11/08/2009
31049817	D01AC52	11/09/2006
31753548	D01AC52	09/09/2009
31239046	D01AC52	18/02/2010
32042526	D01AC52	12/03/2010
31157137	D01AC52	25/03/2009
31694669	D01AC52	03/12/2009
32167052	D01AC52	16/11/2009
32118034	D01AC52	09/05/2007
31709931	D01AC52	30/04/2008
31573066	D01AC52	14/01/2008
31844771	D01AC52	08/03/2006
31959694	D01AC52	06/11/2009
31779664	D01AC52	27/06/2008
31061037	D01AC52	05/08/2009
32264291	D01AC52	12/04/2011
32156100	D01AC52	12/07/2007
31307903	D01AC52	20/01/2011
32069540	D01AC52	09/06/2005
31281320	D01AC52	18/06/2007
31066404	D01AC52	11/01/2007
31682261	D01AC52	26/10/2004
31774996	D01AC52	07/03/2006
31441426	D01AC52	04/11/2009
31568286	D01AC52	08/07/2008
31464764	D01AC52	29/07/2008
31786243	D01AC52	15/11/2010
31242520	D01AC52	13/07/2007
31329977	D01AC52	19/10/2009
31632041	D01AC52	21/01/2004
31888707	D01AC52	29/12/2008
32200367	D01AC52	26/12/2006
31233054	D01AC52	31/08/2010
31195235	D01AC52	26/08/2009
31979328	D01AC52	04/02/2009
31793297	D01AC52	14/11/2006
32111753	D01AC52	27/03/2007
31357342	D01AC52	15/12/2006
31990571	D01AC52	12/02/2007
31916030	D01AC52	13/03/2008
32060833	D01AC52	21/07/2006
31166024	D01AC52	23/06/2005
31377253	D01AC52	05/02/2008
32159112	D01AC52	06/09/2010
31974787	D01AC52	24/08/2009
31103893	D01AC52	28/09/2006
31280498	D01AC52	09/01/2007
31086133	D01AC52	16/08/2007
31471199	D01AC52	20/07/2010
31488109	D01AC52	13/12/2010
31420378	D01AC52	04/05/2007
31086081	D01AC52	24/11/2010
31167229	D01AC52	19/05/2008
32281205	D01AC52	08/05/2008
31638746	D01AC52	19/10/2009
31274163	D01AC52	15/07/2009
31354855	D01AC52	21/10/2005
31251686	D01AC52	31/01/2002
32179849	D01AC52	25/11/2009
32022345	D01AC52	25/01/2006
32095769	D01AC52	27/03/2006
31481613	D01AC52	08/04/2011
31923874	D01AC52	24/09/2008
31070465	D01AC52	26/10/2009
31903707	D01AC52	23/05/2005
31045073	D01AC52	24/04/2006
31049770	D01AC52	11/02/2009
31346856	D01AC52	01/08/2007
31591787	D01AC52	12/12/2008
31560355	D01AC52	09/03/2007
31117819	D01AC52	26/11/2009
31333815	D01AC52	07/05/2008
31096236	D01AC52	28/12/2009
31447714	D01AC52	15/10/2003
31883127	D01AC52	02/11/2009
32275147	D01AC52	06/09/2002
31727410	D01AC52	11/12/2006
32084009	D01AC52	17/11/2003
32090511	D01AC52	06/11/2008
31145629	D01AC52	20/12/2006
31513965	D01AC52	12/12/2008
31793155	D01AC52	11/08/2004
32065793	D01AC52	17/03/2004
31356332	D01AC52	26/05/2005
32184457	D01AC52	27/11/2008
31275321	D01AC52	31/08/2007
31619024	D01AC52	21/10/2008
31329371	D01AC52	20/02/2007
32081758	D01AC52	03/10/2006
32193941	D01AC52	27/11/2009
31405567	D01AC52	14/06/2010
31644488	D01AC52	14/02/2005
32274759	D01AC52	27/10/2010
31445349	D01AC52	05/08/2009
31245381	D01AC52	05/11/2007
31303621	D01AC52	07/07/2003
32151602	D01AC52	18/06/2008
32269608	D01AC52	27/07/2009
31964232	D01AC52	06/11/2006
31923732	D01AC52	13/03/2008
31291954	D01AC52	18/10/2002
31528429	D01AC52	20/05/2004
32077011	D01AC52	02/03/2006
31403286	D01AC52	07/12/2009
31037982	D01AC52	25/07/2002
31840678	D01AC52	28/03/2007
32201838	D01AC52	21/11/2003
31080832	D01AC52	31/01/2005
31468640	D01AC52	31/08/2010
31850345	D01AC52	07/02/2011
31300579	D01AC52	09/06/2009
32250024	D01AC52	25/09/2008
32267751	D01AC52	01/09/2005
31434219	D01AC52	28/04/2008
31194218	D01AC52	11/12/2009
31641614	D01AC52	28/04/2009
31653453	D01AC52	28/09/2010
31214599	D01AC52	30/01/2004
31409039	D01AC52	05/08/2008
32111220	D01AC52	18/01/2007
32267286	D01AC52	18/05/2010
32173948	D01AC52	20/11/2007
31172355	D01AC52	05/11/2004
31566072	D01AC52	13/01/2009
31391353	D01AC52	12/08/2008
31054169	D01AC52	20/02/2006
31061178	D01AC52	02/11/2005
31745891	D01AC52	30/04/2009
32106690	D01AC52	31/05/2006
32115664	D01AC52	02/03/2009
32239025	D01AC52	09/03/2011
32232823	D01AC52	11/08/2009
31305916	D01AC52	29/05/2007
32078676	D01AC52	02/09/2009
31511466	D01AC52	27/08/2007
32141661	D01AC52	07/04/2006
31901938	D01AC52	21/01/2003
31720251	D01AC52	17/03/2005
31717321	D01AC52	08/06/2006
31246026	D01AC52	05/01/2011
31724163	D01AC52	01/06/2011
32213023	D01AC52	27/04/2009
31172111	D01AC52	18/04/2005
31449889	D01AC52	30/01/2007
32233869	D01AC52	02/01/2006
31410815	D01AC52	30/08/2007
31140112	D01AC52	05/02/2009
31412353	D01AC52	15/04/2010
31825044	D01AC52	24/03/2011
32179438	D01AC52	16/03/2004
31579117	D01AC52	13/10/2006
31944943	D01AC52	29/09/2010
31141558	D01AC52	03/07/2008
31709955	D01AC52	05/02/2004
31767577	D01AC52	11/12/2001
31696385	D01AC52	06/07/2007
31636464	D01AC52	26/06/2008
31804296	D01AC52	12/06/2006
31195672	D01AC52	25/09/2006
31955177	D01AC52	19/01/2006
32152276	D01AC52	14/07/2010
31649946	D01AC52	10/09/2002
32073087	D01AC52	11/06/2004
31980666	D01AC52	16/08/2010
32267988	D01AC52	10/11/2009
31830506	D01AC52	18/11/2008
31436600	D01AC52	13/07/2007
32268071	D01AC52	14/03/2005
32149816	D01AC52	29/06/2007
31580473	D01AC52	15/06/2005
31735125	D01AC52	02/03/2011
31532333	D01AC52	13/10/2009
32206134	D01AC52	03/04/2007
32281526	D01AC52	30/06/2008
31352690	D01AC52	28/06/2007
31234245	D01AC52	25/11/2009
31150444	D01AC52	13/10/2004
31465012	D01AC52	29/08/2005
31244900	D01AC52	01/06/2010
32279388	D01AC52	06/02/2006
31247401	D01AC52	08/02/2007
31347384	D01AC52	28/12/2006
32090185	D01AC52	04/12/2008
31670926	D01AC52	15/07/2009
32203416	D01AC52	30/01/2008
31310846	D01AC52	21/12/2009
31453749	D01AC52	09/06/2006
31636008	D01AC52	20/11/2009
32090487	D01AC52	15/01/2009
31995626	D01AC52	20/09/2006
31267955	D01AC52	01/07/2008
31572849	D01AC52	07/10/2009
31480321	D01AC52	28/12/2009
32253149	D01AC52	17/12/2002
31137728	D01AC52	29/09/2004
31789025	D01AC52	29/11/2005
31623108	D01AC52	23/06/2004
32029614	D01AC52	22/06/2007
32071031	D01AC52	21/04/2009
31452945	D01AC52	21/08/2008
32023639	D01AC52	19/05/2009
31759307	D01AC52	26/05/2005
32198029	D01AC52	02/09/2008
31601651	D01AC52	31/01/2006
31421108	D01AC52	27/02/2008
31057360	D01AC52	16/02/2005
31370315	D01AC52	01/07/2010
31895078	D01AC52	02/09/2005
31561607	D01AC52	31/03/2009
31963367	D01AC52	07/11/2006
32205678	D01AC52	10/11/2010
31675341	D01AC52	04/10/2006
32011511	D01AC52	11/01/2011
