patient_id	covar_name	date
2140698	GBARRE	01/01/1986
26714270	GBARRE	12/11/2007
27234368	GBARRE	13/01/1997
27631973	GBARRE	27/07/1984
27520969	GBARRE	05/01/1972
31343858	GBARRE	29/08/2008
31875789	GBARRE	01/01/1992
