patient_id	covar_name	date
8556396	G04BD04	29/03/2011
8568002	G04BD04	08/01/2007
8976564	G04BD04	12/05/2011
25054684	G04BD04	26/04/2011
9179706	G04BD04	18/02/2009
23471965	G04BD04	24/07/2007
6168387	G04BD04	01/02/2007
16556701	G04BD04	31/07/2009
1069508	G04BD04	05/06/2006
1378695	G04BD04	01/02/2007
6841591	G04BD04	09/07/2007
6592750	G04BD04	01/03/2011
6424945	G04BD04	10/08/2007
4675807	G04BD04	01/08/2007
1109004	G04BD04	13/02/2007
874441	G04BD04	27/05/2011
2520816	G04BD04	04/10/2010
26177790	G04BD04	04/01/2005
20147230	G04BD04	15/03/2011
26392599	G04BD04	06/05/2010
184887	G04BD04	31/05/2011
18189831	G04BD04	24/08/2009
1366720	G04BD04	03/05/2011
24582582	G04BD04	27/05/2010
26754710	G04BD04	12/06/2009
27106068	G04BD04	12/08/2010
27032533	G04BD04	31/01/2010
27168097	G04BD04	14/05/2008
27396771	G04BD04	27/03/2008
27285445	G04BD04	15/02/2008
27708419	G04BD04	06/05/2011
26777286	G04BD04	13/06/2005
27003832	G04BD04	04/05/2011
27811936	G04BD04	08/01/2008
33127565	G04BD04	07/01/2010
33061115	G04BD04	19/01/2007
33087055	G04BD04	07/10/2005
23318945	G04BD04	07/05/2009
33288621	G04BD04	23/01/2009
33209711	G04BD04	06/04/2006
23288974	G04BD04	12/11/2004
16652192	G04BD04	23/11/2009
31104610	G04BD04	06/07/2007
31208375	G04BD04	26/04/2006
31577829	G04BD04	29/10/2009
31519231	G04BD04	15/09/2010
31943180	G04BD04	09/03/2009
31639610	G04BD04	16/12/2003
31101370	G04BD04	07/11/2006
31624511	G04BD04	18/03/2009
32245155	G04BD04	26/01/2011
32135678	G04BD04	02/01/2004
32235679	G04BD04	01/12/2009
