patient_id	covar_name	date
8983248	G04BC91	06/05/2011
16531906	G04BC91	07/05/2004
8989666	G04BC91	02/03/2011
3939234	G04BC91	25/03/2002
14771572	G04BC91	21/09/2010
2144575	G04BC91	01/02/2011
2034262	G04BC91	05/12/2005
2053406	G04BC91	15/06/2007
859429	G04BC91	14/07/2010
902525	G04BC91	19/04/2011
3049571	G04BC91	29/04/2010
7048927	G04BC91	23/01/2007
26425762	G04BC91	16/08/2002
26582425	G04BC91	19/01/2011
18224910	G04BC91	02/02/2011
28080811	G04BC91	27/07/2009
2765586	G04BC91	11/05/2011
1905306	G04BC91	09/02/2003
18189318	G04BC91	03/03/2005
18194358	G04BC91	08/02/2011
16812743	G04BC91	05/04/2011
26711402	G04BC91	14/09/2006
26716663	G04BC91	24/05/2011
26939724	G04BC91	08/03/2011
26999393	G04BC91	08/05/2008
27109494	G04BC91	13/04/2011
27229767	G04BC91	22/06/2010
26967647	G04BC91	16/01/2004
27596311	G04BC91	09/09/2009
27000618	G04BC91	28/05/2011
27321829	G04BC91	13/05/2009
27757222	G04BC91	30/05/2003
183811	G04BC91	11/04/2006
33011602	G04BC91	22/06/2007
33013033	G04BC91	14/10/2009
23362937	G04BC91	29/04/2011
23362211	G04BC91	20/01/2011
18767773	G04BC91	04/05/2011
16705254	G04BC91	05/04/2011
16631824	G04BC91	23/06/2006
31257471	G04BC91	09/02/2007
31591152	G04BC91	01/12/2008
31712443	G04BC91	11/04/2007
31755973	G04BC91	11/05/2006
31896290	G04BC91	16/10/2003
31055874	G04BC91	07/04/2011
31178595	G04BC91	19/03/2008
32147855	G04BC91	08/06/2004
31553653	G04BC91	26/06/2008
31057423	G04BC91	07/12/2010
31585717	G04BC91	30/12/2008
31264991	G04BC91	28/12/2004
31336193	G04BC91	02/03/2009
31147486	G04BC91	20/07/2006
31970873	G04BC91	28/11/2001
31830669	G04BC91	15/03/2005
31420452	G04BC91	29/04/2005
31806014	G04BC91	13/11/2002
31078458	G04BC91	11/11/2004
31204965	G04BC91	10/02/2006
31245381	G04BC91	07/06/2007
32246429	G04BC91	23/09/2008
31552724	G04BC91	21/04/2004
31225795	G04BC91	05/07/2006
31250490	G04BC91	07/03/2011
31045417	G04BC91	27/05/2009
31475471	G04BC91	03/07/2007
