patient_id	covar_name	date
10332522	H05BA01	17/06/2005
10333557	H05BA01	19/02/2008
9339940	H05BA01	08/02/2011
8438743	H05BA01	17/08/2010
12760945	H05BA01	13/02/2006
12774896	H05BA01	29/05/2006
9176899	H05BA01	08/04/2003
9984797	H05BA01	20/04/2004
7335727	H05BA01	17/01/2005
12779663	H05BA01	09/10/2006
17170094	H05BA01	27/12/2006
3288866	H05BA01	14/12/2010
12689672	H05BA01	08/08/2008
6748533	H05BA01	09/05/2011
1069126	H05BA01	16/06/2003
1941220	H05BA01	08/04/2008
6759171	H05BA01	04/12/2001
9378502	H05BA01	09/07/2009
7770511	H05BA01	29/03/2004
23996759	H05BA01	08/04/2010
21644622	H05BA01	18/02/2005
564746	H05BA01	29/09/2009
1669821	H05BA01	10/07/2003
1444948	H05BA01	18/12/2006
645707	H05BA01	31/05/2006
7848911	H05BA01	13/08/2010
6212219	H05BA01	18/08/2010
1852422	H05BA01	29/05/2009
1276902	H05BA01	19/10/2007
6842062	H05BA01	26/04/2006
8175392	H05BA01	09/02/2009
1276765	H05BA01	21/10/2005
1443647	H05BA01	24/01/2005
524498	H05BA01	12/08/2005
6598467	H05BA01	06/08/2002
6841766	H05BA01	09/06/2006
1211454	H05BA01	11/02/2011
639892	H05BA01	19/02/2008
1352039	H05BA01	03/04/2002
1446022	H05BA01	23/01/2006
1349535	H05BA01	19/09/2001
1200860	H05BA01	31/03/2005
6841591	H05BA01	26/03/2008
7771093	H05BA01	26/07/2010
7966714	H05BA01	17/12/2010
7966509	H05BA01	08/05/2008
1091772	H05BA01	03/09/2003
1320212	H05BA01	27/09/2007
1443505	H05BA01	13/04/2005
6212704	H05BA01	22/03/2011
1849702	H05BA01	05/05/2006
525618	H05BA01	23/08/2002
7967921	H05BA01	05/04/2010
8956639	H05BA01	12/04/2011
6951044	H05BA01	26/05/2011
1425870	H05BA01	10/09/2009
1135144	H05BA01	20/05/2011
1006059	H05BA01	16/02/2001
1100552	H05BA01	10/11/2006
1855343	H05BA01	02/12/2008
1006885	H05BA01	16/05/2002
1641017	H05BA01	11/09/2008
2109145	H05BA01	20/02/2002
3050342	H05BA01	21/04/2008
7038290	H05BA01	04/11/2009
16835317	H05BA01	26/04/2006
28063102	H05BA01	02/10/2006
26338968	H05BA01	30/12/2008
421458	H05BA01	11/07/2001
2958887	H05BA01	10/05/2011
187884	H05BA01	21/05/2011
3054239	H05BA01	06/06/2006
184353	H05BA01	22/01/2008
25742981	H05BA01	03/07/2007
24667282	H05BA01	06/09/2002
1020472	H05BA01	11/06/2010
21386520	H05BA01	16/03/2009
19802014	H05BA01	31/05/2010
18187564	H05BA01	08/09/2003
16568733	H05BA01	28/06/2001
2961421	H05BA01	27/10/2004
1910693	H05BA01	07/11/2006
26710646	H05BA01	29/06/2006
26824819	H05BA01	03/07/2001
26776913	H05BA01	05/12/2008
26618354	H05BA01	25/12/2010
26803235	H05BA01	31/10/2006
14311205	H05BA01	05/01/2007
16567893	H05BA01	14/06/2010
16567909	H05BA01	28/04/2006
24577953	H05BA01	20/03/2002
26916169	H05BA01	09/12/2005
26941906	H05BA01	09/11/2005
26760220	H05BA01	11/06/2007
26741963	H05BA01	13/10/2005
26760377	H05BA01	02/10/2008
26781607	H05BA01	08/04/2011
26995682	H05BA01	26/07/2007
26977158	H05BA01	06/01/2004
27099123	H05BA01	01/06/2006
27133317	H05BA01	06/07/2004
27116163	H05BA01	21/07/2006
27052734	H05BA01	30/05/2001
27082854	H05BA01	24/02/2007
27037293	H05BA01	08/08/2007
26978733	H05BA01	05/11/2003
27389916	H05BA01	18/04/2008
27138466	H05BA01	11/12/2001
27214263	H05BA01	17/05/2007
27363193	H05BA01	25/01/2002
27369910	H05BA01	29/06/2006
27352425	H05BA01	25/05/2005
27220409	H05BA01	27/04/2011
27308399	H05BA01	11/08/2006
27389179	H05BA01	11/06/2007
27589231	H05BA01	14/08/2003
27647339	H05BA01	23/07/2010
27756348	H05BA01	27/02/2003
27707973	H05BA01	08/02/2007
27623442	H05BA01	20/02/2008
27761440	H05BA01	19/09/2003
27132575	H05BA01	17/07/2003
27785549	H05BA01	30/07/2005
27783605	H05BA01	18/01/2010
26778477	H05BA01	19/08/2010
17423124	H05BA01	08/01/2007
27538570	H05BA01	18/08/2004
27458555	H05BA01	25/01/2008
27614649	H05BA01	14/02/2007
24657411	H05BA01	30/04/2008
27449900	H05BA01	26/02/2002
21651701	H05BA01	14/04/2005
21705761	H05BA01	29/03/2011
27359351	H05BA01	17/12/2008
27765654	H05BA01	19/12/2006
27756194	H05BA01	11/05/2011
27686175	H05BA01	04/11/2009
27384357	H05BA01	30/03/2004
27459636	H05BA01	26/04/2008
24581757	H05BA01	10/02/2006
27326047	H05BA01	26/12/2009
27806522	H05BA01	29/03/2005
27663382	H05BA01	13/04/2011
33050624	H05BA01	11/06/2008
33101389	H05BA01	11/02/2002
33061832	H05BA01	01/10/2010
33016797	H05BA01	25/06/2008
33070878	H05BA01	23/03/2006
33027943	H05BA01	17/08/2006
33111017	H05BA01	22/07/2009
33005022	H05BA01	29/01/2009
33015969	H05BA01	21/01/2009
33108978	H05BA01	17/11/2009
33003806	H05BA01	12/12/2002
33020581	H05BA01	22/03/2010
33030108	H05BA01	24/10/2008
33052953	H05BA01	15/02/2001
33056441	H05BA01	03/11/2004
33056259	H05BA01	03/03/2005
33047656	H05BA01	27/09/2004
33084983	H05BA01	04/02/2003
33012294	H05BA01	13/03/2006
33056194	H05BA01	20/02/2006
33081991	H05BA01	12/05/2006
421387	H05BA01	26/10/2000
183728	H05BA01	14/11/2002
16184008	H05BA01	17/10/2008
33022459	H05BA01	29/12/2006
33041177	H05BA01	23/08/2010
33049911	H05BA01	19/07/2010
33021411	H05BA01	10/01/2011
33027037	H05BA01	28/11/2008
33043124	H05BA01	25/09/2008
33097532	H05BA01	11/03/2009
33030474	H05BA01	26/02/2009
33055038	H05BA01	13/10/2010
33109860	H05BA01	26/05/2009
14186599	H05BA01	31/05/2011
16607101	H05BA01	19/12/2007
18743061	H05BA01	20/07/2009
16613519	H05BA01	30/06/2009
27915318	H05BA01	25/10/2007
16177787	H05BA01	04/05/2011
23339422	H05BA01	02/02/2005
23401564	H05BA01	22/12/2006
23347944	H05BA01	30/12/2008
14187360	H05BA01	12/09/2001
23346872	H05BA01	31/05/2011
23402116	H05BA01	26/06/2008
23350072	H05BA01	05/05/2004
18757709	H05BA01	14/02/2006
23317066	H05BA01	06/05/2009
16712169	H05BA01	03/08/2009
28032528	H05BA01	17/01/2005
23470370	H05BA01	29/09/2010
23349661	H05BA01	04/05/2006
31791183	H05BA01	25/03/2008
31386591	H05BA01	24/07/2009
31934644	H05BA01	17/01/2006
31938606	H05BA01	21/05/2004
32169186	H05BA01	13/05/2010
31842253	H05BA01	10/12/2001
31269381	H05BA01	07/01/2009
31988348	H05BA01	14/11/2001
31694151	H05BA01	14/03/2008
31655762	H05BA01	28/03/2007
31343858	H05BA01	06/11/2000
31538580	H05BA01	25/12/2007
32044149	H05BA01	17/01/2006
31922721	H05BA01	26/10/2009
31537958	H05BA01	03/07/2007
31878203	H05BA01	19/01/2011
31224124	H05BA01	30/07/2010
31735765	H05BA01	18/04/2006
32084821	H05BA01	25/12/2010
32055695	H05BA01	21/10/2004
31521720	H05BA01	02/04/2007
31844771	H05BA01	15/12/2009
31725001	H05BA01	15/04/2011
31175582	H05BA01	18/04/2007
31841508	H05BA01	29/03/2007
32232838	H05BA01	19/02/2007
31750115	H05BA01	18/04/2005
31785047	H05BA01	02/09/2009
31540780	H05BA01	15/11/2004
31406581	H05BA01	04/02/2003
31374650	H05BA01	19/11/2008
31991627	H05BA01	29/05/2006
31091322	H05BA01	08/11/2007
31487303	H05BA01	22/05/2008
32228144	H05BA01	13/07/2005
32223263	H05BA01	02/11/2009
31639593	H05BA01	27/07/2005
31198323	H05BA01	13/03/2006
31439367	H05BA01	16/05/2003
31992839	H05BA01	21/01/2011
31705386	H05BA01	29/12/2008
31929235	H05BA01	22/05/2009
31614550	H05BA01	06/04/2011
31343949	H05BA01	14/06/2007
31669496	H05BA01	12/11/2003
31266701	H05BA01	12/09/2005
31848757	H05BA01	10/11/2010
31518348	H05BA01	01/04/2003
31515814	H05BA01	17/03/2011
31199814	H05BA01	21/12/2009
31576739	H05BA01	16/06/2004
31933305	H05BA01	08/09/2005
31455286	H05BA01	17/06/2004
32194941	H05BA01	22/11/2007
32093133	H05BA01	27/10/2005
31851205	H05BA01	27/10/2006
32011511	H05BA01	31/08/2004
