patient_id	covar_name	date
7220106	H02AB07	17/01/2011
1163347	H02AB07	19/02/2008
9319410	H02AB07	24/04/2009
13932680	H02AB07	24/02/2009
10268549	H02AB07	17/08/2007
10270337	H02AB07	17/05/2011
5034754	H02AB07	02/06/2010
8784390	H02AB07	19/12/2002
16109980	H02AB07	10/01/2011
8582729	H02AB07	10/05/2005
25066998	H02AB07	03/11/2010
8276701	H02AB07	26/01/2009
3302830	H02AB07	22/01/2007
3323175	H02AB07	30/03/2011
9999776	H02AB07	13/06/2007
7220933	H02AB07	07/12/2009
1515934	H02AB07	03/05/2010
21859577	H02AB07	03/07/2009
20558745	H02AB07	04/08/2010
12771754	H02AB07	21/01/2010
7244070	H02AB07	03/10/2007
5026737	H02AB07	24/09/2010
9283222	H02AB07	19/04/2011
1827885	H02AB07	13/01/2005
733774	H02AB07	02/06/2004
1516960	H02AB07	16/07/2007
8558268	H02AB07	17/11/2010
6756330	H02AB07	04/09/2006
7735971	H02AB07	02/12/2008
21871359	H02AB07	08/04/2005
12761176	H02AB07	12/01/2009
8784088	H02AB07	12/01/2007
1731330	H02AB07	15/11/2000
9135794	H02AB07	27/05/2002
1732204	H02AB07	28/05/2009
14232774	H02AB07	22/10/2009
5030705	H02AB07	10/02/2011
9372370	H02AB07	24/05/2010
9214995	H02AB07	09/05/2011
11407938	H02AB07	19/12/2002
16977385	H02AB07	11/05/2010
11995010	H02AB07	05/05/2011
17175397	H02AB07	18/01/2010
10003781	H02AB07	03/05/2011
3124388	H02AB07	14/08/2001
14816698	H02AB07	21/08/2008
6417861	H02AB07	03/09/2007
3937820	H02AB07	06/05/2011
5022326	H02AB07	31/08/2007
12778095	H02AB07	01/06/2010
8980074	H02AB07	01/03/2010
16977131	H02AB07	09/11/2009
24729230	H02AB07	21/04/2004
12783062	H02AB07	29/09/2008
7405502	H02AB07	30/03/2006
9215041	H02AB07	16/12/2008
15899935	H02AB07	17/03/2004
610072	H02AB07	02/10/2003
8979056	H02AB07	27/03/2002
3940545	H02AB07	19/02/2009
1069599	H02AB07	14/02/2008
7094993	H02AB07	23/03/2006
6298556	H02AB07	25/05/2010
704170	H02AB07	06/02/2003
701693	H02AB07	12/09/2007
23472297	H02AB07	20/04/2011
7407178	H02AB07	27/03/2006
3124330	H02AB07	22/11/2007
8571389	H02AB07	15/04/2009
24951607	H02AB07	10/10/2006
13951696	H02AB07	30/03/2010
9402460	H02AB07	03/03/2009
3332699	H02AB07	19/12/2002
17216328	H02AB07	25/11/2010
9212611	H02AB07	30/03/2010
9995113	H02AB07	03/09/2010
3288904	H02AB07	12/03/2010
9310935	H02AB07	03/07/2008
3124502	H02AB07	04/09/2008
7407067	H02AB07	06/07/2005
949778	H02AB07	22/10/2004
11994028	H02AB07	26/12/2008
5026155	H02AB07	10/07/2006
702533	H02AB07	03/02/2010
613057	H02AB07	11/09/2008
8975154	H02AB07	02/03/2011
23454844	H02AB07	09/02/2010
6748364	H02AB07	09/04/2010
24938151	H02AB07	06/05/2009
20545914	H02AB07	17/03/2011
9299562	H02AB07	11/02/2011
17169608	H02AB07	30/06/2010
948323	H02AB07	07/08/2003
8511428	H02AB07	02/02/2009
9386691	H02AB07	16/09/2010
7353549	H02AB07	31/05/2011
11814443	H02AB07	15/10/2008
8292513	H02AB07	17/04/2007
704332	H02AB07	24/10/2008
9250922	H02AB07	24/01/2011
6756037	H02AB07	31/01/2007
3322587	H02AB07	27/10/2005
9383919	H02AB07	16/03/2009
20530770	H02AB07	17/09/2007
8784987	H02AB07	06/05/2005
21152856	H02AB07	25/11/2009
12857769	H02AB07	07/01/2004
18582444	H02AB07	05/07/2010
61852	H02AB07	01/06/2010
8788155	H02AB07	09/05/2006
7340423	H02AB07	09/07/2008
7245484	H02AB07	17/06/2005
9268220	H02AB07	13/04/2010
15667860	H02AB07	03/05/2011
9209618	H02AB07	11/08/2010
8572419	H02AB07	12/05/2009
611635	H02AB07	17/12/2007
9346624	H02AB07	20/08/2003
734248	H02AB07	02/02/2007
18712955	H02AB07	23/07/2010
23442330	H02AB07	09/05/2011
21805762	H02AB07	30/06/2010
12764766	H02AB07	26/12/2007
16243068	H02AB07	08/11/2010
8558909	H02AB07	18/11/2003
740565	H02AB07	08/01/2010
1941590	H02AB07	29/01/2007
13539084	H02AB07	02/01/2009
9376231	H02AB07	01/08/2007
8975251	H02AB07	06/05/2011
1067567	H02AB07	09/11/2007
609031	H02AB07	11/04/2008
8653002	H02AB07	23/03/2011
7094087	H02AB07	15/03/2007
24951792	H02AB07	27/09/2005
2815615	H02AB07	23/05/2007
941795	H02AB07	25/09/2009
9372898	H02AB07	19/11/2008
209647	H02AB07	19/04/2011
9372257	H02AB07	18/03/2008
12739874	H02AB07	21/11/2008
23472073	H02AB07	09/02/2011
8181409	H02AB07	28/05/2007
12479267	H02AB07	16/06/2008
8652236	H02AB07	02/06/2009
23472450	H02AB07	09/06/2010
7221490	H02AB07	13/07/2010
13222335	H02AB07	19/09/2005
3120764	H02AB07	01/02/2011
9296064	H02AB07	27/03/2009
962384	H02AB07	18/04/2005
612341	H02AB07	22/10/2009
3303598	H02AB07	10/01/2011
3789443	H02AB07	14/10/2009
9209479	H02AB07	30/09/2009
9997250	H02AB07	13/04/2011
5029698	H02AB07	26/10/2010
1125167	H02AB07	05/06/2007
10004388	H02AB07	18/01/2011
7245600	H02AB07	07/03/2006
14807613	H02AB07	23/07/2009
612234	H02AB07	25/01/2010
5021563	H02AB07	07/12/2009
13861443	H02AB07	17/12/2009
8569203	H02AB07	16/05/2011
16557846	H02AB07	26/04/2004
13222862	H02AB07	22/01/2009
7219461	H02AB07	29/10/2009
12182584	H02AB07	15/04/2010
11957639	H02AB07	27/07/2010
3304800	H02AB07	14/08/2007
12689672	H02AB07	06/05/2011
3938143	H02AB07	25/03/2011
1938542	H02AB07	03/03/2008
8975474	H02AB07	03/03/2008
3318713	H02AB07	07/02/2011
12186603	H02AB07	04/12/2006
15394464	H02AB07	08/11/2010
12760574	H02AB07	19/12/2007
12764781	H02AB07	22/11/2005
1937181	H02AB07	04/07/2008
12857478	H02AB07	27/12/2004
7219726	H02AB07	02/04/2009
3502435	H02AB07	09/08/2010
16920398	H02AB07	20/12/2010
12766239	H02AB07	07/01/2011
1068919	H02AB07	20/11/2009
16914726	H02AB07	20/08/2009
702098	H02AB07	02/01/2009
12782081	H02AB07	05/10/2009
12767000	H02AB07	04/01/2008
25052298	H02AB07	15/02/2011
3550817	H02AB07	10/09/2009
3330955	H02AB07	13/09/2010
9983422	H02AB07	14/02/2006
600299	H02AB07	09/02/2005
8557367	H02AB07	11/11/2009
603045	H02AB07	26/06/2008
5021335	H02AB07	24/03/2006
731887	H02AB07	08/04/2011
17382370	H02AB07	11/05/2010
1936084	H02AB07	20/05/2011
12690514	H02AB07	06/02/2009
25043031	H02AB07	29/03/2006
17173324	H02AB07	15/01/2009
21871204	H02AB07	04/10/2002
10198644	H02AB07	18/10/2010
24929910	H02AB07	29/12/2010
6745727	H02AB07	09/10/2009
9315447	H02AB07	16/02/2007
6745501	H02AB07	27/11/2008
20546716	H02AB07	12/01/2010
3501410	H02AB07	11/01/2005
9371601	H02AB07	02/11/2010
23994781	H02AB07	17/12/2004
7220038	H02AB07	14/01/2008
8639773	H02AB07	02/08/2010
7353457	H02AB07	03/12/2007
15749375	H02AB07	25/11/2009
7220377	H02AB07	22/01/2009
1432627	H02AB07	21/06/2000
1069126	H02AB07	05/11/2007
1433332	H02AB07	20/09/2007
611347	H02AB07	12/12/2005
10331385	H02AB07	24/06/2004
7221375	H02AB07	02/09/2010
15237928	H02AB07	22/05/2009
9372795	H02AB07	14/07/2010
6236203	H02AB07	13/04/2010
8982768	H02AB07	12/01/2010
17171700	H02AB07	22/06/2009
9250324	H02AB07	07/05/2009
8651224	H02AB07	12/03/2008
9293857	H02AB07	03/06/2008
8699018	H02AB07	03/04/2008
12730785	H02AB07	26/07/2010
25041721	H02AB07	27/04/2011
9210774	H02AB07	01/07/2010
8555305	H02AB07	11/10/2010
697976	H02AB07	18/11/2010
10246462	H02AB07	04/05/2011
6749295	H02AB07	27/04/2010
22780091	H02AB07	14/11/2006
1938824	H02AB07	29/12/2005
6243560	H02AB07	28/08/2007
9285180	H02AB07	05/09/2005
10270830	H02AB07	16/05/2007
10394089	H02AB07	19/05/2011
10605339	H02AB07	10/10/2006
21871587	H02AB07	14/09/2004
8979107	H02AB07	14/01/2011
12766653	H02AB07	28/10/2005
8651304	H02AB07	21/10/2008
17170471	H02AB07	22/05/2007
2768422	H02AB07	30/10/2009
10003982	H02AB07	24/02/2010
9220165	H02AB07	03/10/2005
19228281	H02AB07	18/10/2006
24764394	H02AB07	23/01/2008
21806470	H02AB07	06/06/2007
3331547	H02AB07	11/04/2011
16559356	H02AB07	25/03/2011
3328431	H02AB07	09/01/2004
745191	H02AB07	10/01/2006
3501905	H02AB07	12/06/2006
12772844	H02AB07	18/01/2005
3333455	H02AB07	08/09/2008
3333134	H02AB07	16/06/2009
19153820	H02AB07	29/07/2010
8582021	H02AB07	21/06/2010
13191158	H02AB07	28/04/2009
23471643	H02AB07	10/03/2008
18163097	H02AB07	18/02/2009
15900346	H02AB07	05/03/2008
10265993	H02AB07	13/10/2008
1069269	H02AB07	09/04/2010
8570485	H02AB07	18/10/2004
12771133	H02AB07	07/03/2006
8652385	H02AB07	27/01/2011
8559033	H02AB07	11/03/2003
11992885	H02AB07	09/09/2010
949299	H02AB07	09/12/2005
16530229	H02AB07	23/06/2009
1433271	H02AB07	28/05/2001
5024259	H02AB07	10/05/2010
5467749	H02AB07	21/03/2007
10331912	H02AB07	01/04/2009
7352975	H02AB07	13/09/2010
8654379	H02AB07	16/08/2005
731004	H02AB07	04/06/2010
601254	H02AB07	21/12/2006
12738517	H02AB07	12/05/2008
9387076	H02AB07	23/01/2007
12788985	H02AB07	24/05/2006
16979253	H02AB07	26/02/2008
14857979	H02AB07	21/11/2005
62094	H02AB07	22/05/2009
63243	H02AB07	30/05/2008
12173275	H02AB07	31/01/2008
17172555	H02AB07	12/04/2011
7160942	H02AB07	11/05/2011
21871084	H02AB07	13/08/2010
6417619	H02AB07	27/04/2011
16923045	H02AB07	11/05/2011
13223792	H02AB07	10/07/2008
12766668	H02AB07	14/05/2009
6761142	H02AB07	19/10/2009
3334915	H02AB07	01/12/2010
731670	H02AB07	26/08/2003
1517273	H02AB07	27/10/2008
751585	H02AB07	20/07/2007
1069508	H02AB07	17/11/2010
1069550	H02AB07	13/02/2008
3331483	H02AB07	19/07/2005
7094074	H02AB07	30/12/2005
24763564	H02AB07	17/10/2007
15035742	H02AB07	26/02/2010
15669345	H02AB07	23/05/2008
19299305	H02AB07	23/04/2010
24714483	H02AB07	09/05/2005
6035529	H02AB07	19/06/2008
12790404	H02AB07	05/08/2008
293616	H02AB07	30/06/2009
9211278	H02AB07	16/01/2004
6080399	H02AB07	18/06/2007
17175863	H02AB07	17/11/2009
6841194	H02AB07	26/02/2008
21806208	H02AB07	16/08/2010
17216843	H02AB07	17/05/2011
12758910	H02AB07	17/05/2006
9378237	H02AB07	23/11/2010
603794	H02AB07	25/11/2005
12778373	H02AB07	29/06/2009
24721032	H02AB07	30/05/2011
8278371	H02AB07	01/02/2002
10331626	H02AB07	13/11/2009
24941969	H02AB07	11/03/2011
6424891	H02AB07	03/05/2011
1445557	H02AB07	03/07/2009
1424358	H02AB07	19/01/2011
1320092	H02AB07	22/07/2010
1203819	H02AB07	11/11/2010
6599595	H02AB07	01/12/2006
1090730	H02AB07	02/01/2007
1054683	H02AB07	20/12/2004
1379001	H02AB07	30/12/2010
7797621	H02AB07	16/12/2006
1352974	H02AB07	06/04/2004
8923087	H02AB07	29/06/2010
25335939	H02AB07	09/05/2011
1198682	H02AB07	06/05/2011
25960621	H02AB07	20/07/2007
6603276	H02AB07	04/04/2011
26144430	H02AB07	26/05/2010
1445893	H02AB07	18/03/2011
7800178	H02AB07	03/09/2008
1054373	H02AB07	24/08/2007
565091	H02AB07	25/04/2011
1666001	H02AB07	29/11/2005
7848911	H02AB07	03/01/2003
1353177	H02AB07	28/01/2004
1320533	H02AB07	25/07/2005
1852451	H02AB07	14/11/2000
13391727	H02AB07	24/06/2008
7771238	H02AB07	30/08/2010
1356229	H02AB07	29/04/2009
1848778	H02AB07	15/09/2008
1200673	H02AB07	24/11/2003
6596593	H02AB07	30/05/2011
12187658	H02AB07	12/01/2011
1054440	H02AB07	09/12/2005
1203945	H02AB07	20/04/2010
26143659	H02AB07	27/08/2007
1200640	H02AB07	30/03/2005
18038827	H02AB07	24/05/2011
1199932	H02AB07	04/03/2010
1170363	H02AB07	22/11/2010
6595352	H02AB07	19/04/2005
6842229	H02AB07	20/01/2009
1201480	H02AB07	04/04/2011
1445904	H02AB07	28/03/2011
24940853	H02AB07	02/11/2001
6842063	H02AB07	21/04/2011
7898529	H02AB07	20/01/2011
1417003	H02AB07	15/04/2002
13984759	H02AB07	09/10/2009
7848224	H02AB07	31/01/2005
648760	H02AB07	11/01/2005
24925938	H02AB07	27/01/2008
2934862	H02AB07	06/01/2008
1850465	H02AB07	27/01/2004
1417278	H02AB07	07/03/2009
6211809	H02AB07	23/01/2006
6602655	H02AB07	18/01/2011
1091342	H02AB07	14/03/2005
6841766	H02AB07	14/01/2009
1276998	H02AB07	11/01/2010
1669715	H02AB07	18/02/2011
6841404	H02AB07	09/05/2011
516414	H02AB07	21/01/2010
24719988	H02AB07	12/05/2011
6596868	H02AB07	28/11/2005
1379688	H02AB07	15/05/2011
24921631	H02AB07	13/10/2010
638786	H02AB07	28/04/2011
6594944	H02AB07	02/07/2007
1204129	H02AB07	08/05/2009
5489882	H02AB07	09/02/2004
515787	H02AB07	14/03/2011
24719646	H02AB07	27/10/2003
526051	H02AB07	04/10/2007
26139493	H02AB07	01/12/2010
1171240	H02AB07	16/06/2007
26139613	H02AB07	07/08/2007
7966834	H02AB07	02/07/2010
7848502	H02AB07	24/09/2010
648336	H02AB07	26/04/2011
4699921	H02AB07	18/03/2008
1350929	H02AB07	09/03/2011
1353538	H02AB07	05/04/2002
13273125	H02AB07	07/11/2010
26139303	H02AB07	20/04/2011
1420732	H02AB07	29/03/2011
1265194	H02AB07	09/05/2002
6592127	H02AB07	10/02/2011
1054563	H02AB07	06/03/2008
1204023	H02AB07	01/12/2006
6591104	H02AB07	02/06/2009
5696688	H02AB07	03/12/2009
1264298	H02AB07	19/08/2010
6592623	H02AB07	22/04/2010
24719087	H02AB07	29/08/2002
6842058	H02AB07	07/12/2010
1211186	H02AB07	19/09/2003
6841591	H02AB07	26/07/2007
1658853	H02AB07	04/09/2009
1420467	H02AB07	21/05/2009
1665483	H02AB07	06/08/2004
1206456	H02AB07	11/06/2010
1295728	H02AB07	28/06/2010
2934516	H02AB07	28/01/2008
6597726	H02AB07	03/09/2007
12613417	H02AB07	23/05/2011
1202819	H02AB07	21/12/2010
1262707	H02AB07	28/10/2010
1200884	H02AB07	10/06/2003
1378713	H02AB07	12/05/2010
1545722	H02AB07	03/12/2009
1353504	H02AB07	07/09/2010
1665187	H02AB07	24/01/2007
1262786	H02AB07	30/05/2011
13066377	H02AB07	02/08/2010
26138922	H02AB07	27/11/2007
7777513	H02AB07	14/11/2008
6212060	H02AB07	27/10/2004
6596858	H02AB07	20/11/2008
5991774	H02AB07	14/01/2009
1320212	H02AB07	05/03/2009
1417023	H02AB07	31/01/2010
6211340	H02AB07	17/03/2011
6597391	H02AB07	04/04/2009
1211063	H02AB07	11/06/2003
1425954	H02AB07	30/11/2010
24940303	H02AB07	05/07/2010
8955985	H02AB07	10/03/2011
1202324	H02AB07	18/03/2010
13578262	H02AB07	11/04/2009
1054690	H02AB07	18/01/2011
24719652	H02AB07	17/02/2006
6602253	H02AB07	29/01/2008
1415968	H02AB07	29/03/2006
1276566	H02AB07	18/04/2011
1204719	H02AB07	17/02/2010
6592990	H02AB07	14/01/2011
6842492	H02AB07	07/01/2011
13264943	H02AB07	18/02/2011
1850819	H02AB07	24/06/2003
1353317	H02AB07	12/03/2009
1262130	H02AB07	03/06/2005
1418661	H02AB07	23/12/2010
525618	H02AB07	16/09/2005
1424080	H02AB07	23/02/2002
4700304	H02AB07	13/03/2008
26145718	H02AB07	05/11/2009
7777716	H02AB07	23/02/2011
641620	H02AB07	03/12/2008
6600999	H02AB07	20/04/2010
26138784	H02AB07	26/11/2008
405368	H02AB07	19/11/2004
1425106	H02AB07	18/10/2002
1200208	H02AB07	19/02/2006
641962	H02AB07	30/05/2008
1204177	H02AB07	27/12/2010
13987268	H02AB07	19/02/2007
6423378	H02AB07	14/01/2011
4700277	H02AB07	13/07/2009
5992669	H02AB07	08/03/2004
6592662	H02AB07	15/04/2008
1055033	H02AB07	09/06/2009
6603214	H02AB07	03/03/2011
1263912	H02AB07	08/08/2007
18998981	H02AB07	27/04/2006
1647457	H02AB07	23/12/2009
25908150	H02AB07	03/03/2011
15798351	H02AB07	14/04/2011
716273	H02AB07	20/09/2006
716983	H02AB07	01/04/2004
1425870	H02AB07	13/11/2003
1638747	H02AB07	26/04/2011
1638708	H02AB07	29/04/2010
4678867	H02AB07	13/09/2010
1581159	H02AB07	14/01/2009
1855787	H02AB07	22/11/2007
6914096	H02AB07	31/01/2008
1641072	H02AB07	26/07/2007
1099959	H02AB07	13/12/2000
1638850	H02AB07	14/04/2005
715968	H02AB07	30/03/2011
1641868	H02AB07	28/02/2007
1134288	H02AB07	27/12/2006
1639147	H02AB07	16/03/2007
25750805	H02AB07	30/06/2010
190343	H02AB07	13/04/2011
1646970	H02AB07	26/04/2007
1552431	H02AB07	29/03/2010
1578839	H02AB07	30/05/2002
1101989	H02AB07	07/04/2009
1855343	H02AB07	31/05/2011
2799344	H02AB07	21/10/2004
1855296	H02AB07	25/02/2011
1103040	H02AB07	03/10/2005
1580741	H02AB07	27/09/2005
3656051	H02AB07	16/01/2009
1640729	H02AB07	09/09/2009
1135567	H02AB07	02/03/2006
1550040	H02AB07	17/01/2006
1557371	H02AB07	14/04/2011
1641240	H02AB07	02/02/2011
1135681	H02AB07	22/11/2005
135306	H02AB07	18/05/2011
2068697	H02AB07	01/08/2005
2072811	H02AB07	07/10/2010
2089867	H02AB07	15/12/2003
2109579	H02AB07	15/10/2004
2133068	H02AB07	04/10/2009
2217778	H02AB07	17/04/2006
2239654	H02AB07	19/05/2011
2133498	H02AB07	15/03/2011
2110088	H02AB07	24/02/2011
2144575	H02AB07	29/04/2008
2068106	H02AB07	22/12/2010
2068118	H02AB07	27/03/2007
1647977	H02AB07	17/07/2006
3807369	H02AB07	22/03/2010
2068045	H02AB07	01/08/2006
2068080	H02AB07	25/04/2004
2109210	H02AB07	16/12/2010
2218050	H02AB07	10/10/2008
2219403	H02AB07	23/12/2002
2068934	H02AB07	20/04/2004
2216845	H02AB07	09/05/2008
2133822	H02AB07	15/04/2008
2138590	H02AB07	29/04/2008
904793	H02AB07	12/09/2008
873905	H02AB07	26/02/2009
2140421	H02AB07	16/11/2009
2041465	H02AB07	22/04/2002
901293	H02AB07	19/09/2003
878003	H02AB07	12/01/2011
2041685	H02AB07	05/01/2004
2109458	H02AB07	20/04/2011
2140245	H02AB07	16/08/2010
2143938	H02AB07	03/01/2006
2216323	H02AB07	04/10/2010
902237	H02AB07	21/04/2004
859110	H02AB07	04/06/2001
903553	H02AB07	04/12/2006
904650	H02AB07	12/02/2009
1763227	H02AB07	06/03/2007
876284	H02AB07	05/06/2006
1642496	H02AB07	05/08/2009
1762768	H02AB07	11/01/2008
1753997	H02AB07	17/11/2003
904017	H02AB07	11/02/2005
877611	H02AB07	11/03/2011
860479	H02AB07	29/04/2009
860168	H02AB07	14/08/2001
2035821	H02AB07	22/01/2007
2864271	H02AB07	16/09/2010
3053306	H02AB07	04/03/2002
7134077	H02AB07	17/08/2006
877365	H02AB07	18/12/2003
858961	H02AB07	06/08/2010
858702	H02AB07	09/05/2008
879101	H02AB07	14/12/2009
873998	H02AB07	12/01/2010
7037468	H02AB07	04/03/2008
2774471	H02AB07	20/05/2011
3055190	H02AB07	15/12/2003
2777495	H02AB07	14/01/2005
3053055	H02AB07	29/08/2006
2778683	H02AB07	16/05/2011
2780167	H02AB07	20/03/2006
2813592	H02AB07	13/01/2010
7128867	H02AB07	03/05/2005
3054956	H02AB07	02/12/2009
2777314	H02AB07	27/04/2005
2774313	H02AB07	12/08/2005
2774334	H02AB07	30/06/2009
2779963	H02AB07	25/01/2008
2763799	H02AB07	10/03/2005
2512738	H02AB07	28/10/2009
2574919	H02AB07	16/01/2007
2714643	H02AB07	04/10/2006
2573816	H02AB07	18/06/2010
2521846	H02AB07	15/01/2003
2572935	H02AB07	13/10/2010
2410150	H02AB07	06/08/2008
2573239	H02AB07	25/11/2009
2755318	H02AB07	17/12/2010
2756309	H02AB07	21/05/2003
2521654	H02AB07	23/10/2008
17741954	H02AB07	22/03/2011
15643872	H02AB07	25/10/2010
2574203	H02AB07	13/11/2007
2574244	H02AB07	10/09/2008
2521933	H02AB07	01/10/2003
15659579	H02AB07	02/02/2004
16962328	H02AB07	19/10/2009
16835317	H02AB07	30/05/2011
26459880	H02AB07	13/12/2006
26425486	H02AB07	25/05/2007
26350464	H02AB07	12/11/2010
26461826	H02AB07	29/04/2007
28051262	H02AB07	13/04/2009
26566168	H02AB07	25/02/2010
26424856	H02AB07	21/07/2008
26462684	H02AB07	05/08/2010
26462699	H02AB07	31/03/2010
26384050	H02AB07	26/08/2004
26385141	H02AB07	12/08/2009
26425755	H02AB07	15/03/2011
26442555	H02AB07	24/10/2010
28044455	H02AB07	24/01/2005
26349371	H02AB07	11/10/2010
26570717	H02AB07	25/10/2006
28049312	H02AB07	09/12/2008
26565210	H02AB07	02/03/2010
26392037	H02AB07	05/03/2008
26516379	H02AB07	02/05/2011
26436485	H02AB07	25/09/2009
17747332	H02AB07	28/10/2004
17325080	H02AB07	05/05/2010
20673495	H02AB07	06/05/2011
7228407	H02AB07	21/12/2009
20673832	H02AB07	31/07/2009
7035689	H02AB07	04/02/2010
26244722	H02AB07	26/05/2011
17744951	H02AB07	09/01/2004
26336640	H02AB07	17/06/2002
7229284	H02AB07	16/12/2010
6990280	H02AB07	18/05/2011
17747103	H02AB07	17/04/2008
26425372	H02AB07	08/08/2010
26425083	H02AB07	15/03/2010
26217958	H02AB07	15/01/2009
26464502	H02AB07	19/08/2005
26243565	H02AB07	28/05/2007
26425992	H02AB07	15/05/2001
26392599	H02AB07	24/05/2011
23890725	H02AB07	01/05/2011
20673960	H02AB07	29/04/2011
26244463	H02AB07	25/03/2009
16824519	H02AB07	29/09/2008
11035768	H02AB07	26/04/2011
16829333	H02AB07	30/09/2008
16836110	H02AB07	23/08/2006
18068223	H02AB07	26/05/2009
16945852	H02AB07	02/12/2004
16959538	H02AB07	23/01/2009
7144123	H02AB07	04/08/2003
17219101	H02AB07	19/07/2005
186158	H02AB07	26/02/2008
1912146	H02AB07	11/02/2011
464363	H02AB07	09/05/2011
433263	H02AB07	14/07/2003
1910433	H02AB07	08/06/2009
2693885	H02AB07	25/06/2007
2963067	H02AB07	02/07/2010
1899459	H02AB07	26/07/2008
1902966	H02AB07	08/08/2008
5759433	H02AB07	24/11/2010
2958619	H02AB07	17/11/2003
302849	H02AB07	09/02/2009
1018396	H02AB07	03/03/2009
2249529	H02AB07	18/01/2008
184942	H02AB07	06/05/2011
180654	H02AB07	18/03/2010
185473	H02AB07	19/02/2008
2962363	H02AB07	07/01/2004
1900723	H02AB07	14/10/2008
185633	H02AB07	28/05/2009
12994706	H02AB07	10/05/2010
26466017	H02AB07	17/10/2009
28077381	H02AB07	20/05/2011
28091051	H02AB07	30/05/2005
28083644	H02AB07	29/09/2010
2133621	H02AB07	19/01/2011
28078449	H02AB07	12/07/2006
875817	H02AB07	28/01/2011
28080882	H02AB07	03/03/2005
16979323	H02AB07	24/05/2005
2778926	H02AB07	15/01/2011
20147226	H02AB07	16/10/2009
17324445	H02AB07	01/03/2007
28079828	H02AB07	20/03/2000
904007	H02AB07	14/09/2007
28090235	H02AB07	24/09/2008
903103	H02AB07	05/11/2001
421052	H02AB07	28/04/2011
424750	H02AB07	07/03/2010
428741	H02AB07	04/05/2011
16824592	H02AB07	28/09/2010
266554	H02AB07	04/08/2008
26488354	H02AB07	06/05/2011
26321742	H02AB07	05/02/2009
423385	H02AB07	12/08/2003
421846	H02AB07	14/01/2004
2068739	H02AB07	12/02/2004
437604	H02AB07	30/11/1998
305474	H02AB07	20/01/2009
187861	H02AB07	30/10/2007
428157	H02AB07	12/01/2009
423166	H02AB07	27/02/2008
437195	H02AB07	27/10/2010
418315	H02AB07	01/07/1998
434457	H02AB07	11/03/2004
186064	H02AB07	31/01/2008
184271	H02AB07	13/07/2010
433666	H02AB07	13/09/2002
420934	H02AB07	02/08/2001
185927	H02AB07	14/03/2011
28063046	H02AB07	24/10/2008
28055834	H02AB07	05/10/2010
28043427	H02AB07	12/01/2011
28072561	H02AB07	07/12/2004
28066154	H02AB07	16/05/2006
28079208	H02AB07	03/02/2009
28055638	H02AB07	15/07/2010
28090048	H02AB07	08/11/2010
28080549	H02AB07	04/01/2007
28069830	H02AB07	03/05/2007
28054208	H02AB07	10/05/2005
28043643	H02AB07	03/01/2011
28074969	H02AB07	16/03/2009
28061439	H02AB07	13/08/2009
28056412	H02AB07	25/01/2011
28045890	H02AB07	22/08/2007
26488758	H02AB07	01/09/2010
24666302	H02AB07	17/06/2010
25742932	H02AB07	19/04/2011
24657144	H02AB07	30/09/2010
24655753	H02AB07	08/04/2009
25743561	H02AB07	11/03/2009
25738686	H02AB07	26/05/2011
24666868	H02AB07	02/12/2008
24663127	H02AB07	21/02/2009
24668092	H02AB07	11/03/2008
24661878	H02AB07	21/02/2006
25743607	H02AB07	21/07/2010
24666922	H02AB07	06/05/2009
25641792	H02AB07	09/01/2008
25739910	H02AB07	04/03/2010
25558732	H02AB07	25/05/2009
25641440	H02AB07	30/09/2009
25743018	H02AB07	19/09/2009
25738827	H02AB07	26/03/2010
24666997	H02AB07	05/01/2009
24669225	H02AB07	11/04/2011
24667282	H02AB07	01/03/2011
24670725	H02AB07	15/04/2011
25739933	H02AB07	10/10/2006
25741338	H02AB07	14/10/2010
421960	H02AB07	10/08/2001
420694	H02AB07	27/05/2011
1903907	H02AB07	22/06/2006
18190173	H02AB07	24/09/2009
1020237	H02AB07	13/12/2007
178647	H02AB07	21/05/2007
178500	H02AB07	09/02/2004
1020566	H02AB07	31/12/2002
620949	H02AB07	31/03/2004
1374270	H02AB07	20/01/2011
1368600	H02AB07	31/08/2007
421990	H02AB07	03/05/2011
39843	H02AB07	26/12/2007
1371652	H02AB07	23/02/2006
1371686	H02AB07	12/07/2010
1013085	H02AB07	21/04/2008
18187789	H02AB07	19/08/2002
1342869	H02AB07	24/12/2008
1342891	H02AB07	09/05/2011
40240	H02AB07	14/02/2008
926264	H02AB07	04/01/2010
422231	H02AB07	26/01/2009
18189167	H02AB07	29/04/2005
16812198	H02AB07	03/03/2003
18189318	H02AB07	19/07/2009
18542686	H02AB07	27/10/2010
21650477	H02AB07	21/07/2010
18194829	H02AB07	21/06/2005
16840841	H02AB07	21/12/2004
18197953	H02AB07	02/09/2010
19803915	H02AB07	29/01/2007
18196791	H02AB07	23/04/2011
16841220	H02AB07	12/07/2008
18191207	H02AB07	10/05/2001
18187564	H02AB07	27/09/2004
19788236	H02AB07	24/03/2009
18197591	H02AB07	24/05/2010
18195242	H02AB07	29/10/2004
19801596	H02AB07	30/05/2011
18197767	H02AB07	17/03/2011
18195492	H02AB07	11/05/2011
2987559	H02AB07	18/01/2010
1904935	H02AB07	01/04/2004
2251536	H02AB07	23/03/2005
2986752	H02AB07	16/03/2011
2968063	H02AB07	12/08/2010
3230752	H02AB07	27/11/2008
1906568	H02AB07	08/09/2006
2251076	H02AB07	05/07/2007
1904082	H02AB07	24/12/1999
1907662	H02AB07	04/07/2008
2960011	H02AB07	21/02/2007
2988326	H02AB07	15/08/2007
1904472	H02AB07	13/09/2000
1904262	H02AB07	18/08/2010
6890554	H02AB07	30/09/2009
2958123	H02AB07	09/10/2008
926529	H02AB07	26/12/2008
5703647	H02AB07	09/04/2011
1042407	H02AB07	26/10/2004
1368382	H02AB07	27/02/2007
1905107	H02AB07	23/02/2009
1371577	H02AB07	10/09/2009
23484225	H02AB07	18/08/2008
26638791	H02AB07	17/08/2004
26618662	H02AB07	23/04/2007
26710646	H02AB07	01/07/2005
26710784	H02AB07	04/09/2008
26793934	H02AB07	23/02/2005
26629598	H02AB07	16/03/2007
26704019	H02AB07	20/02/2011
26700714	H02AB07	02/01/2009
26830552	H02AB07	25/01/2011
26629943	H02AB07	03/01/2008
26833435	H02AB07	10/12/2009
26625877	H02AB07	28/02/2006
26702598	H02AB07	14/07/2010
26630135	H02AB07	11/06/2010
26801033	H02AB07	26/12/2009
26830675	H02AB07	23/12/2010
26638407	H02AB07	13/11/2007
26630262	H02AB07	27/03/2008
26789709	H02AB07	31/07/2009
26700114	H02AB07	19/12/2008
25739094	H02AB07	09/12/2008
14063337	H02AB07	18/11/2008
10754719	H02AB07	06/05/2010
24576450	H02AB07	25/05/2007
16105997	H02AB07	01/06/2009
16842013	H02AB07	17/10/2006
16104648	H02AB07	22/01/2004
2988862	H02AB07	18/10/2007
2988267	H02AB07	21/03/2005
12975801	H02AB07	20/12/2006
16844451	H02AB07	17/10/2007
16844351	H02AB07	16/11/2006
24654531	H02AB07	16/02/2011
16105286	H02AB07	04/09/2009
14309539	H02AB07	26/02/2007
13874041	H02AB07	17/08/2009
2990019	H02AB07	04/06/2007
26717944	H02AB07	28/06/2007
26707001	H02AB07	19/08/2005
26701991	H02AB07	04/01/2005
26618324	H02AB07	02/12/2007
26617524	H02AB07	10/03/2011
25740918	H02AB07	09/08/2010
26616690	H02AB07	24/11/2006
26617547	H02AB07	25/11/2010
26720613	H02AB07	13/07/2009
26642021	H02AB07	26/12/2008
14310873	H02AB07	29/12/2006
26642712	H02AB07	27/03/2009
26642042	H02AB07	01/10/2010
2989932	H02AB07	13/10/2008
14310647	H02AB07	15/09/2006
14310735	H02AB07	02/10/2008
26706433	H02AB07	18/10/2004
14309906	H02AB07	31/10/2005
26719166	H02AB07	25/11/2009
15810961	H02AB07	18/04/2005
26642904	H02AB07	24/11/2010
26703240	H02AB07	27/09/2010
26640331	H02AB07	17/10/2006
26618242	H02AB07	31/08/2010
22922486	H02AB07	30/12/2010
21065118	H02AB07	06/03/2002
21651512	H02AB07	11/06/2009
24666066	H02AB07	17/05/2011
24655596	H02AB07	13/07/2009
24581066	H02AB07	20/07/2006
24577577	H02AB07	15/09/2010
21553632	H02AB07	16/02/2011
21552734	H02AB07	20/04/2011
22621949	H02AB07	20/07/2006
24668853	H02AB07	21/01/2008
24581631	H02AB07	20/05/2011
24581986	H02AB07	09/10/2005
22922696	H02AB07	24/02/2006
22512767	H02AB07	11/10/2006
22921551	H02AB07	10/01/2008
24656393	H02AB07	26/03/2008
24579453	H02AB07	17/11/2009
25740714	H02AB07	03/07/2009
24582283	H02AB07	29/01/2011
24578434	H02AB07	16/12/2008
22922309	H02AB07	12/10/2006
26948438	H02AB07	08/03/2010
27037437	H02AB07	08/11/2005
26948478	H02AB07	02/11/2004
26894950	H02AB07	09/10/2010
26938768	H02AB07	20/10/2005
26913891	H02AB07	13/04/2011
26887747	H02AB07	06/02/2008
26945367	H02AB07	02/06/2008
26917163	H02AB07	06/04/2006
26946963	H02AB07	19/10/2010
26890905	H02AB07	14/12/2009
27023951	H02AB07	04/06/2007
26915129	H02AB07	24/12/2003
26900097	H02AB07	31/12/2008
26711269	H02AB07	28/12/2009
26779381	H02AB07	18/01/2011
26715577	H02AB07	11/03/2010
26742016	H02AB07	24/11/2010
26712544	H02AB07	12/06/2003
26703743	H02AB07	22/09/2010
26857091	H02AB07	11/03/2009
26742445	H02AB07	27/12/2004
26779554	H02AB07	19/11/2010
26776105	H02AB07	15/02/2011
26871932	H02AB07	03/08/2005
26780527	H02AB07	31/05/2010
26720081	H02AB07	13/05/2009
26887048	H02AB07	18/01/2011
26721990	H02AB07	20/06/2010
26845358	H02AB07	10/05/2010
26848752	H02AB07	02/01/2010
26887343	H02AB07	25/10/2006
26881361	H02AB07	10/08/2004
26888411	H02AB07	06/11/2009
26877329	H02AB07	06/07/2009
26876915	H02AB07	03/08/2010
26848422	H02AB07	17/03/2007
26850877	H02AB07	18/08/2009
26846652	H02AB07	12/07/2010
26847234	H02AB07	15/02/2005
26864451	H02AB07	13/05/2009
26866462	H02AB07	21/05/2009
26942306	H02AB07	27/11/2006
26888601	H02AB07	27/12/2007
26851758	H02AB07	29/11/2010
26824314	H02AB07	31/08/2010
26790479	H02AB07	25/06/2007
26789113	H02AB07	16/03/2006
26804060	H02AB07	27/09/2010
26776303	H02AB07	11/03/2008
26793746	H02AB07	06/05/2005
26773622	H02AB07	16/07/2008
26770174	H02AB07	11/06/2008
26717132	H02AB07	19/02/2008
26777422	H02AB07	10/08/2004
27072138	H02AB07	24/06/2008
26969569	H02AB07	25/02/2011
27079131	H02AB07	10/05/2010
27074190	H02AB07	30/04/2009
26977641	H02AB07	26/01/2010
26947330	H02AB07	18/09/2007
27057487	H02AB07	23/09/2005
26955339	H02AB07	19/07/2005
26972922	H02AB07	23/05/2010
26947651	H02AB07	17/02/2010
26977323	H02AB07	23/04/2009
26962034	H02AB07	30/10/2006
26939494	H02AB07	15/06/2007
26968144	H02AB07	27/05/2009
27055003	H02AB07	25/10/2006
26972708	H02AB07	29/09/2003
27067247	H02AB07	16/05/2011
26966264	H02AB07	13/07/2010
26998473	H02AB07	14/06/2010
26989770	H02AB07	10/12/2010
26973247	H02AB07	09/12/2010
26974337	H02AB07	30/07/2010
27034735	H02AB07	05/03/2011
27066870	H02AB07	12/05/2008
26973183	H02AB07	26/01/2009
27071926	H02AB07	06/10/2008
26972063	H02AB07	28/01/2005
27103339	H02AB07	17/02/2006
27106289	H02AB07	30/12/2004
27086485	H02AB07	23/11/2009
27087864	H02AB07	31/08/2009
27080149	H02AB07	16/10/2009
27101595	H02AB07	18/06/2008
27113773	H02AB07	25/05/2006
27132865	H02AB07	06/06/2008
27149654	H02AB07	01/04/2005
27085859	H02AB07	19/01/2009
27115927	H02AB07	13/07/2009
27109348	H02AB07	14/09/2006
27149827	H02AB07	21/06/2010
27105146	H02AB07	09/01/2007
27100788	H02AB07	26/10/2010
27133523	H02AB07	14/08/2001
27116096	H02AB07	16/11/2009
27085041	H02AB07	26/04/2010
27072992	H02AB07	19/04/2010
27033023	H02AB07	07/12/2006
27067204	H02AB07	13/05/2009
27043981	H02AB07	17/03/2005
27054696	H02AB07	11/12/2007
27127065	H02AB07	12/01/2009
27061753	H02AB07	06/04/2011
27035249	H02AB07	01/12/2005
27074929	H02AB07	18/12/2007
27085882	H02AB07	21/11/2006
27106068	H02AB07	17/01/2008
27065487	H02AB07	21/09/2010
27062753	H02AB07	25/12/2010
27036480	H02AB07	11/10/2010
26994757	H02AB07	17/06/2010
27042326	H02AB07	24/03/2006
27038965	H02AB07	11/05/2010
27039739	H02AB07	30/01/2007
27014607	H02AB07	29/05/2011
26996597	H02AB07	21/02/2011
26996603	H02AB07	27/10/2010
26978753	H02AB07	26/03/2008
27004289	H02AB07	14/04/2011
27012526	H02AB07	18/05/2011
26996261	H02AB07	10/03/2008
27014753	H02AB07	22/10/2010
26994837	H02AB07	23/11/2006
27022714	H02AB07	17/09/2009
27000812	H02AB07	09/03/2009
27041217	H02AB07	19/05/2008
27032118	H02AB07	27/03/2009
27383273	H02AB07	08/12/2005
27211585	H02AB07	21/04/2011
27168812	H02AB07	25/01/2006
27216549	H02AB07	02/11/2009
27348961	H02AB07	15/02/2010
27148666	H02AB07	10/02/2006
27171122	H02AB07	09/03/2011
27248566	H02AB07	13/07/2007
27390384	H02AB07	27/11/2006
27348565	H02AB07	07/04/2010
27211634	H02AB07	20/11/2008
27154213	H02AB07	03/03/2006
27383412	H02AB07	06/05/2011
27211457	H02AB07	13/05/2011
27153422	H02AB07	22/02/2002
27368490	H02AB07	06/11/2009
27216974	H02AB07	29/11/2010
27316566	H02AB07	13/04/2011
27244696	H02AB07	13/06/2008
27313900	H02AB07	28/12/2010
27304467	H02AB07	08/01/2008
27324136	H02AB07	28/10/2009
27215927	H02AB07	30/06/2009
27396771	H02AB07	25/03/2011
27251650	H02AB07	07/02/2006
27371161	H02AB07	01/06/2011
27358392	H02AB07	24/11/2006
27358246	H02AB07	17/05/2006
27246882	H02AB07	15/03/2006
27212466	H02AB07	30/01/2009
27316412	H02AB07	29/08/2008
27386232	H02AB07	10/01/2006
27316455	H02AB07	29/07/2008
27366089	H02AB07	03/06/2008
27316194	H02AB07	04/12/2008
27350662	H02AB07	20/08/2010
27361574	H02AB07	03/05/2011
27389275	H02AB07	22/11/2005
27386320	H02AB07	18/11/2008
27350930	H02AB07	14/01/2005
27362240	H02AB07	05/10/2009
27317311	H02AB07	13/02/2011
27296141	H02AB07	05/04/2011
27296189	H02AB07	06/04/2010
27370248	H02AB07	12/01/2011
27302542	H02AB07	12/06/2008
27314340	H02AB07	19/06/2009
27359307	H02AB07	04/05/2011
27363057	H02AB07	14/07/2008
27308559	H02AB07	26/08/2008
27355276	H02AB07	13/01/2011
26981482	H02AB07	27/05/2008
27384224	H02AB07	07/04/2011
27236800	H02AB07	20/03/2010
27246715	H02AB07	29/01/2009
27246754	H02AB07	11/04/2011
26992485	H02AB07	04/01/2011
27241974	H02AB07	13/10/2008
27169844	H02AB07	28/03/2011
26957165	H02AB07	01/11/2007
27201149	H02AB07	09/12/2005
27242949	H02AB07	17/07/2007
26975095	H02AB07	05/05/2010
26995546	H02AB07	01/08/2009
26976761	H02AB07	10/12/2009
27252105	H02AB07	23/06/2006
26979659	H02AB07	14/10/2010
27169775	H02AB07	30/04/2011
27251497	H02AB07	06/05/2011
26990376	H02AB07	02/03/2009
27171327	H02AB07	14/12/2010
27215818	H02AB07	06/10/2009
27198146	H02AB07	08/04/2011
26989196	H02AB07	13/09/2010
27579610	H02AB07	19/01/2005
27633922	H02AB07	26/04/2011
27571525	H02AB07	28/12/2007
27595400	H02AB07	20/08/2008
27546225	H02AB07	16/07/2007
27593063	H02AB07	06/06/2005
27546031	H02AB07	05/12/2009
27640466	H02AB07	18/06/2008
27642131	H02AB07	11/01/2010
27643227	H02AB07	02/05/2011
27606288	H02AB07	06/10/2010
27623958	H02AB07	15/05/2009
27632159	H02AB07	17/08/2005
27643016	H02AB07	09/02/2010
27596970	H02AB07	12/04/2011
27596352	H02AB07	24/08/2010
27631973	H02AB07	01/06/2011
27660756	H02AB07	14/04/2011
27592171	H02AB07	23/01/2009
27574600	H02AB07	16/05/2008
27614105	H02AB07	30/03/2008
27624058	H02AB07	19/04/2010
27624082	H02AB07	14/10/2010
27591987	H02AB07	05/01/2011
27592232	H02AB07	22/06/2010
27578159	H02AB07	11/09/2007
27601166	H02AB07	22/03/2011
27481258	H02AB07	24/02/2010
27476407	H02AB07	05/05/2009
27419668	H02AB07	01/02/2002
27427357	H02AB07	19/01/2007
27658577	H02AB07	03/07/2009
27453809	H02AB07	14/09/2010
27472835	H02AB07	21/07/2010
27647466	H02AB07	09/10/2008
27474892	H02AB07	24/12/2009
27414394	H02AB07	24/09/1999
27646021	H02AB07	12/08/2006
27639550	H02AB07	18/08/2008
27459008	H02AB07	23/05/2011
27460599	H02AB07	12/09/2006
27469904	H02AB07	15/01/2011
27647203	H02AB07	19/07/2010
27415090	H02AB07	03/01/2011
27659581	H02AB07	02/04/2009
27647710	H02AB07	24/09/2007
27694171	H02AB07	10/07/2009
27616208	H02AB07	12/09/2010
27720513	H02AB07	27/05/2011
27764749	H02AB07	06/05/2008
27765512	H02AB07	10/12/2010
27759030	H02AB07	05/08/2005
27761731	H02AB07	30/07/2010
27564567	H02AB07	27/11/2008
27564586	H02AB07	22/02/2008
27544065	H02AB07	18/02/2011
27562978	H02AB07	02/03/2011
27763489	H02AB07	07/04/2005
27758847	H02AB07	02/01/2009
27570581	H02AB07	12/01/2010
27716697	H02AB07	18/08/2010
27621512	H02AB07	19/03/2011
27552047	H02AB07	07/05/2007
27614866	H02AB07	20/01/2010
27570840	H02AB07	21/01/2011
27563178	H02AB07	04/04/2010
27614490	H02AB07	30/10/2008
27566493	H02AB07	10/06/2009
27567785	H02AB07	13/02/2009
27571594	H02AB07	25/07/2007
27621566	H02AB07	08/06/2004
27546338	H02AB07	01/12/2006
27719042	H02AB07	05/12/2007
27153326	H02AB07	15/12/2010
27153665	H02AB07	23/05/2011
27151908	H02AB07	26/01/2009
27153476	H02AB07	10/09/2007
27153527	H02AB07	29/12/2003
27247133	H02AB07	02/05/2011
27167758	H02AB07	17/03/2008
27147928	H02AB07	30/03/2009
27286600	H02AB07	24/12/2008
27165699	H02AB07	07/04/2011
27413979	H02AB07	04/04/2006
27476329	H02AB07	02/01/2011
27287115	H02AB07	10/03/2009
27623618	H02AB07	24/12/2008
26872280	H02AB07	14/12/2009
26900477	H02AB07	27/05/2011
27675236	H02AB07	29/04/2011
26718290	H02AB07	04/11/2008
27217239	H02AB07	18/01/2010
26975914	H02AB07	26/05/2010
26643040	H02AB07	23/06/2008
1905637	H02AB07	29/01/2002
26707572	H02AB07	09/05/2011
27252613	H02AB07	15/10/2004
266530	H02AB07	25/08/2010
305044	H02AB07	12/12/2008
27533964	H02AB07	30/11/2007
27665197	H02AB07	19/12/2007
27683287	H02AB07	22/06/2001
27533892	H02AB07	09/05/2011
27665250	H02AB07	07/04/2003
27531352	H02AB07	05/07/2010
27535611	H02AB07	04/09/2006
27785654	H02AB07	24/09/2008
27662017	H02AB07	25/08/2009
27680128	H02AB07	16/12/2009
27475077	H02AB07	19/07/2010
27455860	H02AB07	13/04/2010
27473835	H02AB07	25/05/2011
27663578	H02AB07	02/05/2011
27679944	H02AB07	25/02/2011
27778129	H02AB07	29/10/2008
27674475	H02AB07	04/08/2008
27686452	H02AB07	22/12/2010
27779259	H02AB07	16/02/2011
27530889	H02AB07	08/05/2007
27531090	H02AB07	08/10/2007
27314117	H02AB07	24/05/2011
27772297	H02AB07	11/01/2011
26636698	H02AB07	28/04/2008
27783400	H02AB07	08/04/2011
27686657	H02AB07	10/12/2007
27680700	H02AB07	07/08/2008
27664133	H02AB07	27/07/2004
27614649	H02AB07	17/09/2010
27662883	H02AB07	28/09/2005
27785793	H02AB07	15/03/2011
27680041	H02AB07	23/09/2004
27680050	H02AB07	22/12/2008
27666599	H02AB07	16/10/2000
26876647	H02AB07	13/06/2006
27543143	H02AB07	18/03/2008
1359353	H02AB07	27/05/2004
27663724	H02AB07	21/07/2009
27785173	H02AB07	22/01/2007
27771906	H02AB07	11/01/2008
27674082	H02AB07	27/12/2010
27671191	H02AB07	20/02/2008
26781149	H02AB07	03/05/2005
27718021	H02AB07	27/01/2004
2250916	H02AB07	29/06/2005
26881455	H02AB07	23/07/2009
27540587	H02AB07	15/06/2010
27646430	H02AB07	16/02/2011
27648259	H02AB07	20/05/2011
27512339	H02AB07	12/02/2008
27480242	H02AB07	24/05/2010
27302745	H02AB07	30/05/2011
27321107	H02AB07	03/03/2011
27449148	H02AB07	12/01/2004
27471833	H02AB07	16/04/2005
27449518	H02AB07	08/03/2007
27597325	H02AB07	17/03/2011
27615908	H02AB07	24/11/2009
27477049	H02AB07	11/04/2011
27515394	H02AB07	23/12/2009
27459099	H02AB07	14/07/2006
27449985	H02AB07	20/05/2011
27589537	H02AB07	24/11/2006
27529026	H02AB07	14/01/2011
27799332	H02AB07	26/11/2009
41170	H02AB07	22/10/2007
27244108	H02AB07	27/03/2008
21553339	H02AB07	08/05/2008
27576785	H02AB07	27/10/2010
27764992	H02AB07	05/05/2008
1374096	H02AB07	08/04/2011
27647973	H02AB07	31/01/2011
27171129	H02AB07	26/04/2011
27003832	H02AB07	04/02/2010
27596468	H02AB07	13/02/2008
12981829	H02AB07	10/05/2011
27805384	H02AB07	10/03/2009
27086174	H02AB07	28/04/2006
27138460	H02AB07	08/03/2011
26948107	H02AB07	29/09/2010
27809277	H02AB07	13/04/2011
27673749	H02AB07	28/01/2002
27783945	H02AB07	24/01/2008
27718525	H02AB07	21/05/2009
27720128	H02AB07	27/04/2011
27169816	H02AB07	26/07/2005
27663903	H02AB07	16/10/2006
27670305	H02AB07	12/01/2011
27668939	H02AB07	24/06/2010
27758964	H02AB07	11/05/2011
27676260	H02AB07	16/07/2008
27667263	H02AB07	06/03/2008
27804349	H02AB07	01/12/2009
27795873	H02AB07	22/06/2007
27794444	H02AB07	01/03/2007
27669794	H02AB07	19/11/2008
27670711	H02AB07	11/10/2000
27668986	H02AB07	26/01/2010
27764267	H02AB07	07/04/2011
27684475	H02AB07	29/11/2010
27662240	H02AB07	05/10/2010
26824518	H02AB07	28/05/2011
27666876	H02AB07	14/10/2009
27667214	H02AB07	09/03/2009
27384357	H02AB07	17/02/2011
26642896	H02AB07	09/10/2008
26770406	H02AB07	15/05/2006
27170744	H02AB07	15/01/2009
27000149	H02AB07	26/05/2006
27037231	H02AB07	13/10/2003
27658340	H02AB07	07/11/2007
27644928	H02AB07	28/03/2009
27564429	H02AB07	02/07/2010
27508461	H02AB07	30/06/2005
26852782	H02AB07	31/08/2007
27563021	H02AB07	13/11/2006
305932	H02AB07	07/05/2011
26974970	H02AB07	17/04/2009
26974298	H02AB07	10/11/2004
12993325	H02AB07	06/04/2006
26834550	H02AB07	18/04/2011
21554527	H02AB07	05/10/2010
26805701	H02AB07	21/02/2007
180734	H02AB07	20/11/2008
27716985	H02AB07	11/04/2011
26711256	H02AB07	02/04/2010
27382238	H02AB07	22/06/2009
27718898	H02AB07	08/01/2009
27600262	H02AB07	26/06/2008
27761679	H02AB07	16/04/2010
27782050	H02AB07	03/10/2007
27783769	H02AB07	10/11/2009
27799362	H02AB07	05/06/2006
27795964	H02AB07	25/04/2007
26776955	H02AB07	07/04/2009
26887104	H02AB07	21/10/2008
27366636	H02AB07	15/12/2010
27806522	H02AB07	18/04/2011
27663382	H02AB07	29/02/2008
33073383	H02AB07	04/08/2006
33100103	H02AB07	24/05/2011
33106412	H02AB07	21/11/2005
33025269	H02AB07	25/06/2007
33027621	H02AB07	21/09/2006
33101389	H02AB07	13/04/2009
33086839	H02AB07	03/07/2001
33092896	H02AB07	24/01/2005
33099564	H02AB07	13/10/2004
33083573	H02AB07	28/04/2010
33067601	H02AB07	07/02/2011
33026002	H02AB07	26/11/2008
33030476	H02AB07	21/05/2001
33075095	H02AB07	02/02/2007
33005974	H02AB07	28/04/2009
33086157	H02AB07	20/05/2010
33099353	H02AB07	10/07/2009
33110595	H02AB07	19/08/2008
33036483	H02AB07	15/09/2009
33097374	H02AB07	30/12/2008
33086083	H02AB07	19/01/2005
33106608	H02AB07	15/02/2011
33019235	H02AB07	27/04/2000
33099318	H02AB07	01/04/2011
33051958	H02AB07	15/06/2007
33016797	H02AB07	05/04/2011
33071188	H02AB07	07/05/2010
33080281	H02AB07	18/05/2010
33018895	H02AB07	22/08/2008
33080218	H02AB07	08/10/2010
33028018	H02AB07	04/02/2009
33057047	H02AB07	11/05/2009
33028747	H02AB07	09/11/2010
33088312	H02AB07	04/01/2008
33111481	H02AB07	12/03/2005
33108978	H02AB07	15/09/2010
33073315	H02AB07	09/11/2009
33112822	H02AB07	31/07/2007
33064809	H02AB07	21/04/2010
33030108	H02AB07	22/04/2011
33001814	H02AB07	24/11/2010
33107313	H02AB07	19/05/2011
33056441	H02AB07	13/04/2010
33013033	H02AB07	31/05/2011
33114614	H02AB07	23/11/2007
33000142	H02AB07	29/09/2010
33071618	H02AB07	03/07/2008
33045184	H02AB07	10/08/2009
33067653	H02AB07	11/05/2006
33026468	H02AB07	29/11/2002
33045248	H02AB07	07/01/2010
33026288	H02AB07	19/01/2005
33034168	H02AB07	03/03/2006
33079596	H02AB07	29/03/2011
33034999	H02AB07	05/05/2011
33033051	H02AB07	01/04/2002
33066419	H02AB07	22/01/2002
27812281	H02AB07	09/03/2006
27661862	H02AB07	12/06/2008
27647888	H02AB07	20/09/2010
27764867	H02AB07	30/04/2011
27720541	H02AB07	12/09/2007
27680372	H02AB07	07/03/2011
27796540	H02AB07	31/07/2006
19422878	H02AB07	08/07/2010
187834	H02AB07	14/02/2011
27800265	H02AB07	04/11/2010
24658196	H02AB07	05/05/2009
27805346	H02AB07	08/10/2005
26638174	H02AB07	20/03/2006
2966560	H02AB07	25/11/2010
33019222	H02AB07	02/04/2009
23408153	H02AB07	19/09/2007
16658162	H02AB07	25/01/2011
28019239	H02AB07	26/05/2011
33219101	H02AB07	28/12/2006
16707900	H02AB07	06/06/2008
27977666	H02AB07	21/04/2009
28017369	H02AB07	03/05/2011
16135277	H02AB07	03/11/2004
16618574	H02AB07	30/03/2011
23320348	H02AB07	17/08/2010
33095352	H02AB07	13/01/2010
33228680	H02AB07	03/12/2009
20983764	H02AB07	06/09/2010
33026564	H02AB07	17/01/2011
27915598	H02AB07	05/01/2007
33077626	H02AB07	16/09/2010
16655774	H02AB07	06/02/2009
33241195	H02AB07	20/06/2005
33252437	H02AB07	28/11/2007
27914330	H02AB07	18/07/2005
33021214	H02AB07	17/01/2011
33104458	H02AB07	02/01/2009
33086631	H02AB07	03/05/2007
33091861	H02AB07	14/05/2009
33058319	H02AB07	09/02/2011
33012908	H02AB07	09/05/2011
33025614	H02AB07	15/06/2009
33084361	H02AB07	17/12/2009
33025298	H02AB07	21/12/2007
33039979	H02AB07	25/08/2009
33096376	H02AB07	08/06/2009
33050233	H02AB07	03/10/2006
33106564	H02AB07	04/10/2010
33063405	H02AB07	17/05/2011
33060956	H02AB07	09/02/2009
33001090	H02AB07	17/09/2010
33000877	H02AB07	02/07/2009
33078447	H02AB07	05/06/2007
33025768	H02AB07	21/11/2007
33012104	H02AB07	09/05/2006
33081770	H02AB07	15/12/2009
33066417	H02AB07	08/04/2008
33050169	H02AB07	16/04/2010
33053845	H02AB07	23/02/2009
33112202	H02AB07	03/05/2011
33112464	H02AB07	02/04/2007
33080540	H02AB07	08/11/2010
33057639	H02AB07	14/03/2011
33056714	H02AB07	09/01/2008
33049967	H02AB07	31/05/2007
33034268	H02AB07	10/05/2011
33049767	H02AB07	08/01/2008
33091322	H02AB07	13/01/2009
33060722	H02AB07	18/06/2008
33057611	H02AB07	30/11/2009
33105170	H02AB07	09/02/2010
33053309	H02AB07	24/01/2006
33085337	H02AB07	10/06/2010
33073595	H02AB07	03/06/2010
33069491	H02AB07	08/07/2009
33058122	H02AB07	26/08/2005
33040010	H02AB07	09/03/2009
16616691	H02AB07	25/05/2007
23319805	H02AB07	04/07/2008
23342582	H02AB07	22/03/2011
16600381	H02AB07	03/06/2003
28036242	H02AB07	26/04/2011
16774206	H02AB07	22/12/2008
23343181	H02AB07	03/06/2008
18770764	H02AB07	06/05/2010
16616189	H02AB07	03/01/2010
16705121	H02AB07	19/08/2010
16706289	H02AB07	14/12/2010
16135123	H02AB07	26/01/2011
23343236	H02AB07	25/05/2007
18768448	H02AB07	11/04/2011
16600146	H02AB07	19/10/2004
16612851	H02AB07	04/05/2011
14187021	H02AB07	09/03/2005
16138756	H02AB07	23/01/2005
33313140	H02AB07	28/08/2008
16134911	H02AB07	06/05/2009
18762952	H02AB07	08/04/2011
33219113	H02AB07	21/01/2010
33239076	H02AB07	11/06/2007
16181789	H02AB07	18/12/2007
28018064	H02AB07	05/05/2011
33288807	H02AB07	25/05/2009
23329332	H02AB07	23/09/2008
16133833	H02AB07	02/10/2008
27828645	H02AB07	11/12/2006
33233293	H02AB07	22/03/2007
33204352	H02AB07	24/09/2010
33200115	H02AB07	20/10/2010
21114663	H02AB07	04/12/2009
16607145	H02AB07	26/03/2010
23315590	H02AB07	15/12/2003
16178584	H02AB07	23/09/2009
16628703	H02AB07	22/10/2010
23316381	H02AB07	02/03/2011
14188303	H02AB07	21/05/2008
33242352	H02AB07	01/10/2010
28021098	H02AB07	13/01/2011
18768005	H02AB07	20/01/2009
23381575	H02AB07	02/03/2011
16181498	H02AB07	07/08/2007
33288621	H02AB07	16/07/2008
16652243	H02AB07	27/06/2007
33293731	H02AB07	05/12/2007
20982215	H02AB07	18/08/2009
28023165	H02AB07	05/11/2010
16184117	H02AB07	22/11/2010
33293602	H02AB07	16/04/2009
33235163	H02AB07	30/12/2010
16680141	H02AB07	27/01/2011
16652568	H02AB07	06/07/2010
23382344	H02AB07	28/01/2005
16708134	H02AB07	04/08/2008
33204424	H02AB07	04/12/2009
18770843	H02AB07	18/09/2006
16652659	H02AB07	27/10/2008
33306067	H02AB07	07/05/2008
23344028	H02AB07	25/09/2006
18769057	H02AB07	14/01/2008
28005534	H02AB07	12/03/2009
33243775	H02AB07	27/10/2009
33232471	H02AB07	16/07/2010
16601620	H02AB07	19/09/2008
16184630	H02AB07	11/02/2009
27849109	H02AB07	01/07/2010
16600525	H02AB07	07/07/2010
23296371	H02AB07	22/05/2009
16136024	H02AB07	30/03/2010
27934525	H02AB07	23/12/2010
16610132	H02AB07	17/03/2011
20982073	H02AB07	14/11/2005
16138984	H02AB07	20/12/2006
16177787	H02AB07	26/07/2006
23412927	H02AB07	07/07/2006
23370714	H02AB07	23/03/2010
23341131	H02AB07	17/04/2007
23334037	H02AB07	13/12/2010
16773412	H02AB07	05/03/2010
23410318	H02AB07	10/01/2011
21110120	H02AB07	10/03/2006
23381315	H02AB07	25/03/2011
20991039	H02AB07	06/05/2010
23367450	H02AB07	17/09/2007
23354563	H02AB07	17/05/2007
16124521	H02AB07	07/02/2011
23369212	H02AB07	23/06/2010
28014562	H02AB07	19/01/2011
21106425	H02AB07	24/05/2010
18769370	H02AB07	12/09/2007
16626226	H02AB07	25/02/2011
33255099	H02AB07	05/10/2009
18771367	H02AB07	15/07/2008
16684605	H02AB07	28/11/2009
16596274	H02AB07	22/07/2004
18771064	H02AB07	15/03/2006
18768290	H02AB07	31/08/2006
27856112	H02AB07	31/12/2010
28038777	H02AB07	04/08/2010
33254309	H02AB07	23/11/2010
23408423	H02AB07	13/05/2011
27954341	H02AB07	17/10/2003
27934474	H02AB07	18/04/2011
33240335	H02AB07	26/11/2009
23326417	H02AB07	22/10/2010
23367637	H02AB07	02/06/2009
20983964	H02AB07	05/08/2009
16172349	H02AB07	01/12/2010
16631291	H02AB07	22/03/2005
33202082	H02AB07	19/11/2010
33290109	H02AB07	16/11/2009
16124919	H02AB07	28/04/2006
23401641	H02AB07	02/02/2009
16604459	H02AB07	08/10/2008
23414018	H02AB07	02/07/2007
23333330	H02AB07	09/06/2003
23367236	H02AB07	12/05/2010
23381263	H02AB07	14/07/2006
16679831	H02AB07	05/10/2010
21107800	H02AB07	23/03/2009
16652097	H02AB07	03/10/2007
14189326	H02AB07	23/12/2009
16181468	H02AB07	19/10/2009
33246285	H02AB07	12/01/2004
23408701	H02AB07	16/08/2006
16684088	H02AB07	11/02/2008
16651439	H02AB07	16/09/2008
20982124	H02AB07	29/04/2011
33301411	H02AB07	17/03/2006
33201602	H02AB07	06/07/2006
33235211	H02AB07	19/05/2011
33314253	H02AB07	24/01/2011
18761680	H02AB07	11/04/2011
21114031	H02AB07	12/09/2006
16138964	H02AB07	17/03/2011
27998853	H02AB07	22/05/2006
16134659	H02AB07	09/10/2007
16652192	H02AB07	29/12/2006
16607575	H02AB07	14/04/2009
14187576	H02AB07	11/09/2002
21117653	H02AB07	16/03/2009
33262851	H02AB07	29/06/2007
33264852	H02AB07	07/10/2010
23362182	H02AB07	11/05/2011
16178450	H02AB07	16/07/2009
16178544	H02AB07	31/03/2011
24463513	H02AB07	11/02/2011
28026267	H02AB07	25/05/2011
16611332	H02AB07	23/11/2009
33291290	H02AB07	17/05/2011
23381223	H02AB07	28/08/2010
20984336	H02AB07	09/06/2010
21114699	H02AB07	22/03/2010
16603648	H02AB07	03/10/2005
33253822	H02AB07	05/04/2010
16166372	H02AB07	22/02/2007
16705838	H02AB07	26/07/2006
31130941	H02AB07	08/07/2009
31234056	H02AB07	29/04/2005
31754311	H02AB07	09/10/2002
31430057	H02AB07	12/04/2005
31908206	H02AB07	04/02/2008
21110134	H02AB07	20/05/2010
23401612	H02AB07	03/02/2010
16124564	H02AB07	01/07/2010
16658003	H02AB07	24/11/2006
33220514	H02AB07	12/08/2005
16640430	H02AB07	08/05/2007
21117548	H02AB07	16/01/2011
33307676	H02AB07	05/04/2009
16705297	H02AB07	22/12/2005
28019061	H02AB07	07/09/2010
16613468	H02AB07	31/03/2008
23406106	H02AB07	23/09/2010
16630904	H02AB07	11/05/2007
16171700	H02AB07	24/10/2009
23366114	H02AB07	27/05/2011
28013056	H02AB07	26/03/2010
16645647	H02AB07	11/11/2008
23349644	H02AB07	18/05/2006
23176421	H02AB07	18/05/2004
20990980	H02AB07	04/10/2007
27847320	H02AB07	29/04/2010
16652685	H02AB07	30/10/2006
23362487	H02AB07	10/05/2011
33312738	H02AB07	08/02/2011
16597283	H02AB07	30/07/2004
33288276	H02AB07	08/01/2011
23368818	H02AB07	04/02/2010
16184392	H02AB07	02/06/2006
16602556	H02AB07	06/10/2006
33253232	H02AB07	04/10/2010
14187106	H02AB07	10/02/2010
33313527	H02AB07	02/07/2009
16612694	H02AB07	04/10/2007
16646357	H02AB07	26/05/2011
14188121	H02AB07	01/06/2011
18771704	H02AB07	22/11/2002
16774153	H02AB07	30/12/2007
24064926	H02AB07	17/09/2008
21110084	H02AB07	18/12/2006
23354686	H02AB07	09/01/2008
16186784	H02AB07	09/11/2004
33245160	H02AB07	22/08/2008
16598711	H02AB07	14/02/2011
23354453	H02AB07	27/10/2010
23353743	H02AB07	17/01/2011
23353940	H02AB07	01/07/2009
16610867	H02AB07	28/12/2010
23354017	H02AB07	22/11/2005
23402322	H02AB07	18/10/2007
33224929	H02AB07	24/01/2011
16127046	H02AB07	18/02/2005
23401244	H02AB07	20/02/2008
23371485	H02AB07	18/03/2010
23387032	H02AB07	17/02/2011
23353983	H02AB07	07/02/2007
33200239	H02AB07	07/04/2011
23371494	H02AB07	26/02/2010
31157971	H02AB07	24/01/2008
31038557	H02AB07	01/07/2008
31568357	H02AB07	23/11/2004
31366887	H02AB07	29/10/2009
32270245	H02AB07	11/01/2008
31598977	H02AB07	24/09/2001
31178102	H02AB07	16/06/2009
31117673	H02AB07	29/01/2007
31891552	H02AB07	07/12/2007
31062826	H02AB07	07/07/2003
31652602	H02AB07	10/11/2009
31654348	H02AB07	18/09/2006
31253940	H02AB07	30/05/2007
31279774	H02AB07	07/10/2009
31427737	H02AB07	07/12/2009
31760268	H02AB07	19/12/2006
31043924	H02AB07	28/04/2008
31638051	H02AB07	25/09/2003
31554019	H02AB07	09/03/2007
31641080	H02AB07	24/03/2008
32137222	H02AB07	19/10/2009
31217091	H02AB07	07/01/2003
31359861	H02AB07	17/06/2008
31435208	H02AB07	25/11/2010
31954771	H02AB07	13/08/2003
31353977	H02AB07	26/02/2007
31298093	H02AB07	15/02/2002
32150921	H02AB07	02/03/2009
31340724	H02AB07	15/09/2004
31547137	H02AB07	28/10/2008
31808278	H02AB07	07/02/2011
32067501	H02AB07	22/12/2003
31693160	H02AB07	24/10/2005
31573567	H02AB07	05/01/2007
32279478	H02AB07	30/06/2010
32175738	H02AB07	23/11/2009
31105620	H02AB07	29/03/2010
31534993	H02AB07	27/01/2003
31267839	H02AB07	05/07/2005
31107684	H02AB07	11/02/2008
31282373	H02AB07	27/03/2009
31544193	H02AB07	31/08/2007
31446823	H02AB07	09/06/2008
31589693	H02AB07	10/07/2007
32101746	H02AB07	26/05/2006
32246611	H02AB07	28/10/2010
32273248	H02AB07	22/12/2009
31278640	H02AB07	25/10/2006
31037188	H02AB07	23/04/2007
31992684	H02AB07	05/09/2003
31979808	H02AB07	31/03/2005
31749706	H02AB07	13/01/2011
31126630	H02AB07	17/06/2008
31511644	H02AB07	13/04/2011
31758571	H02AB07	12/11/2003
31510794	H02AB07	23/01/2006
31324569	H02AB07	23/08/2007
31767728	H02AB07	14/12/2007
31314921	H02AB07	04/01/2008
31267881	H02AB07	26/07/2007
31135888	H02AB07	28/05/2008
31333086	H02AB07	18/12/2007
32246675	H02AB07	14/05/2004
31160878	H02AB07	05/05/2009
31953094	H02AB07	23/07/2008
31728526	H02AB07	15/05/2009
31148239	H02AB07	22/06/2005
32118132	H02AB07	16/03/2009
32031617	H02AB07	10/07/2006
31091370	H02AB07	05/11/2008
31634919	H02AB07	19/10/2007
31469680	H02AB07	07/01/2005
31404679	H02AB07	25/09/2009
32241182	H02AB07	01/02/2008
31444517	H02AB07	28/08/2007
31707489	H02AB07	23/02/2010
31642302	H02AB07	04/10/1999
31955515	H02AB07	27/02/2002
31265732	H02AB07	08/02/2007
31850766	H02AB07	18/10/2007
31527690	H02AB07	21/12/2006
32142904	H02AB07	31/10/2006
31285717	H02AB07	26/03/2004
31170706	H02AB07	30/09/2009
31940790	H02AB07	18/01/2010
31829061	H02AB07	15/04/2009
31345157	H02AB07	14/11/2008
32263475	H02AB07	02/07/2010
31071593	H02AB07	14/01/2005
31894356	H02AB07	16/03/2006
31931778	H02AB07	07/04/2005
31236375	H02AB07	09/01/2009
32117832	H02AB07	30/03/2007
31265418	H02AB07	06/09/2010
31374627	H02AB07	02/09/2010
31710530	H02AB07	03/10/2007
31623714	H02AB07	08/07/2005
31278219	H02AB07	10/01/2008
31722801	H02AB07	16/10/2008
31826019	H02AB07	09/05/2007
31982595	H02AB07	14/05/2007
31492015	H02AB07	12/06/2008
31154365	H02AB07	25/02/2003
31493727	H02AB07	05/07/2010
31924013	H02AB07	08/04/2011
31859918	H02AB07	13/10/2003
31267473	H02AB07	13/01/2006
32261722	H02AB07	29/06/2005
31494299	H02AB07	20/11/2009
31444611	H02AB07	16/07/2007
32200966	H02AB07	14/01/2003
31648495	H02AB07	04/01/2007
32191616	H02AB07	15/06/2007
31292908	H02AB07	28/10/2002
31347909	H02AB07	30/05/2007
31322543	H02AB07	16/01/2004
31346081	H02AB07	14/05/2007
31995509	H02AB07	21/10/2004
31559866	H02AB07	02/11/2005
31345651	H02AB07	22/07/2005
31850691	H02AB07	19/10/2006
31592347	H02AB07	31/07/2006
32206140	H02AB07	04/08/2009
31183723	H02AB07	08/10/2009
31560788	H02AB07	20/03/2003
32041685	H02AB07	05/03/2009
31184648	H02AB07	22/12/2010
31443846	H02AB07	06/07/2009
31362262	H02AB07	22/12/2010
32123084	H02AB07	21/02/2008
32269774	H02AB07	21/10/2010
31884872	H02AB07	19/12/2007
32078709	H02AB07	12/08/2009
31974767	H02AB07	31/08/2006
31332969	H02AB07	12/01/2004
31118995	H02AB07	13/09/2006
31267220	H02AB07	12/01/2009
31580241	H02AB07	06/10/2008
31260657	H02AB07	04/05/2009
32156110	H02AB07	26/10/2010
31545829	H02AB07	26/01/2006
31666781	H02AB07	09/06/2010
31703414	H02AB07	30/05/2006
32216487	H02AB07	04/08/2005
32278847	H02AB07	06/05/2008
31850878	H02AB07	19/09/2005
31746464	H02AB07	04/05/2009
31290105	H02AB07	16/11/2010
31582998	H02AB07	06/04/2006
31141007	H02AB07	23/12/2005
31374114	H02AB07	08/01/2007
32148086	H02AB07	05/09/2006
31852758	H02AB07	04/12/2009
32020581	H02AB07	26/09/2006
31163272	H02AB07	06/02/2007
31604924	H02AB07	03/10/2007
31352952	H02AB07	27/09/2006
31294985	H02AB07	03/11/2009
32135703	H02AB07	17/12/2010
31279498	H02AB07	26/09/2007
31176294	H02AB07	27/07/2006
31796678	H02AB07	07/06/2010
31065752	H02AB07	09/11/2006
31815983	H02AB07	14/05/2007
31121524	H02AB07	17/07/2008
31612836	H02AB07	29/08/2007
32250577	H02AB07	05/01/2007
31324227	H02AB07	17/12/2010
31160405	H02AB07	28/12/2007
31993230	H02AB07	22/12/2004
32106342	H02AB07	28/05/2001
31851762	H02AB07	25/11/2002
32174861	H02AB07	05/03/2008
31916522	H02AB07	01/09/2008
31510201	H02AB07	24/08/2010
31035939	H02AB07	24/10/2006
31736075	H02AB07	30/03/2005
31835509	H02AB07	14/01/2005
32080851	H02AB07	10/03/2011
31368472	H02AB07	24/01/2005
31099804	H02AB07	22/01/2007
32229971	H02AB07	06/07/2005
31420909	H02AB07	31/08/2010
32056059	H02AB07	05/03/2007
31768805	H02AB07	11/08/2008
31141016	H02AB07	14/01/2009
31204427	H02AB07	25/04/2007
32262053	H02AB07	25/05/2010
31177127	H02AB07	25/05/2009
32153313	H02AB07	09/02/2009
32105750	H02AB07	14/05/2004
32251012	H02AB07	27/03/2008
31774623	H02AB07	18/05/2006
31967570	H02AB07	10/03/2009
31664650	H02AB07	18/07/2007
31941625	H02AB07	06/02/2007
31423684	H02AB07	01/10/2008
32266134	H02AB07	03/06/2009
31670593	H02AB07	28/01/2009
31482204	H02AB07	25/02/2005
31516496	H02AB07	04/02/2008
31775471	H02AB07	18/01/2006
31486264	H02AB07	21/03/2003
31614559	H02AB07	29/12/2009
31088621	H02AB07	10/11/2005
31712701	H02AB07	14/12/2006
31286316	H02AB07	09/05/2006
31896359	H02AB07	18/05/2005
32056262	H02AB07	17/10/2008
31738064	H02AB07	15/11/2007
31270706	H02AB07	20/05/2011
31297746	H02AB07	11/11/2005
31547706	H02AB07	14/07/2005
31097143	H02AB07	22/10/2010
31814987	H02AB07	27/03/2009
31698052	H02AB07	09/12/2009
31488907	H02AB07	17/05/2004
31289568	H02AB07	09/07/2004
31728182	H02AB07	05/03/2008
31698320	H02AB07	11/04/2005
31823875	H02AB07	02/04/2007
31927982	H02AB07	29/11/2007
31529146	H02AB07	06/06/2008
31584781	H02AB07	22/02/2007
32166018	H02AB07	30/12/2004
31298030	H02AB07	22/12/2004
31193496	H02AB07	22/11/2010
31723265	H02AB07	05/11/2008
32030891	H02AB07	17/05/2006
31032904	H02AB07	24/08/2004
31349019	H02AB07	21/03/2007
31767484	H02AB07	11/04/2011
31310284	H02AB07	28/11/2005
31283139	H02AB07	11/11/2008
31697264	H02AB07	30/04/2008
32100813	H02AB07	03/04/2008
31279921	H02AB07	05/09/2008
31480749	H02AB07	17/04/2007
32278996	H02AB07	18/04/2005
31638235	H02AB07	03/12/2002
31248417	H02AB07	13/01/2005
31560828	H02AB07	28/04/2008
32059302	H02AB07	29/11/2007
32119254	H02AB07	06/12/2010
31689766	H02AB07	25/04/2003
31440348	H02AB07	28/10/2003
31053170	H02AB07	24/07/2006
32160779	H02AB07	21/03/2007
31127513	H02AB07	27/11/2009
32189808	H02AB07	17/06/2004
31568595	H02AB07	26/03/2007
31517124	H02AB07	09/03/2011
31514428	H02AB07	28/08/2009
32172203	H02AB07	03/11/2010
31319783	H02AB07	21/10/2008
31392273	H02AB07	07/03/2007
31058308	H02AB07	04/04/2011
32222342	H02AB07	19/05/2006
31875631	H02AB07	12/03/2004
32194037	H02AB07	27/02/2007
32042526	H02AB07	21/06/2010
31701788	H02AB07	27/02/2006
32100016	H02AB07	11/05/2006
32101252	H02AB07	07/10/2008
31911477	H02AB07	07/10/2008
31824870	H02AB07	20/12/2004
32077072	H02AB07	21/05/2007
31616655	H02AB07	30/04/2009
31694669	H02AB07	06/04/2011
31847089	H02AB07	23/04/2007
31545636	H02AB07	13/04/2010
32189899	H02AB07	21/05/2004
31740844	H02AB07	10/12/2004
31037681	H02AB07	06/05/2010
31696885	H02AB07	14/12/2006
31741824	H02AB07	12/03/2009
31712570	H02AB07	21/05/2007
31666600	H02AB07	29/09/2008
31383318	H02AB07	05/01/2005
31444214	H02AB07	26/03/2009
31354097	H02AB07	21/10/2008
31482800	H02AB07	12/12/2006
31779664	H02AB07	20/12/2005
31901912	H02AB07	04/05/2009
31923754	H02AB07	19/06/2003
32115409	H02AB07	15/10/2009
31335672	H02AB07	04/06/2007
31401399	H02AB07	31/03/2006
31046464	H02AB07	04/11/2010
31077344	H02AB07	09/01/2006
32017201	H02AB07	08/04/2011
31815136	H02AB07	27/02/2003
31038595	H02AB07	01/03/2011
31541366	H02AB07	28/07/2006
31550841	H02AB07	13/01/2005
31121214	H02AB07	28/09/2006
31722562	H02AB07	15/06/2005
31696573	H02AB07	10/01/2006
32249145	H02AB07	25/06/2009
31280844	H02AB07	15/11/2010
32208126	H02AB07	28/01/2008
31441426	H02AB07	14/01/2008
31187014	H02AB07	30/12/2008
32032672	H02AB07	16/04/2001
31137946	H02AB07	22/08/2008
31464764	H02AB07	09/10/2007
32195284	H02AB07	23/12/2005
31277861	H02AB07	03/01/2003
31728384	H02AB07	31/10/2003
32248443	H02AB07	17/12/2007
31989659	H02AB07	25/09/2008
31811676	H02AB07	27/08/2004
31396735	H02AB07	08/10/2008
31973333	H02AB07	30/05/2006
32216839	H02AB07	12/12/2006
32053549	H02AB07	21/11/2008
31620017	H02AB07	11/12/2006
31352150	H02AB07	15/12/2008
31569370	H02AB07	07/04/2009
31068681	H02AB07	22/06/2009
32128378	H02AB07	20/11/2008
31128087	H02AB07	14/08/2003
32182197	H02AB07	20/08/2008
31108098	H02AB07	26/12/2008
31519740	H02AB07	24/09/2009
31120459	H02AB07	21/01/2004
31126185	H02AB07	19/01/2010
32115818	H02AB07	07/05/2007
31554121	H02AB07	28/06/2004
31439920	H02AB07	01/06/2006
32083284	H02AB07	18/02/2002
32215450	H02AB07	04/06/2007
32071256	H02AB07	28/04/2009
31774796	H02AB07	11/03/2002
31597129	H02AB07	28/01/2009
31916030	H02AB07	24/03/2008
31717025	H02AB07	31/01/2005
32033587	H02AB07	19/08/2005
31298190	H02AB07	30/03/2009
32096106	H02AB07	05/10/2004
31377253	H02AB07	24/06/2004
31702154	H02AB07	29/07/2005
31566153	H02AB07	01/12/2010
31863698	H02AB07	20/10/2009
31981150	H02AB07	09/03/2011
31144301	H02AB07	20/08/2003
31843748	H02AB07	11/12/2008
31928477	H02AB07	24/08/2009
31961565	H02AB07	08/11/2010
31888462	H02AB07	13/06/2007
31461892	H02AB07	13/08/2007
31837765	H02AB07	16/11/2009
31049991	H02AB07	01/08/2007
31537932	H02AB07	20/05/2010
31167229	H02AB07	26/02/2008
32099327	H02AB07	25/08/2006
31951124	H02AB07	05/06/2009
32215294	H02AB07	10/11/2010
31854539	H02AB07	21/06/2004
32253318	H02AB07	30/12/2009
31855970	H02AB07	05/12/2008
31538537	H02AB07	03/01/2005
31714795	H02AB07	29/10/2007
32024922	H02AB07	14/05/2009
31159808	H02AB07	23/02/2004
31948074	H02AB07	28/12/2009
31866069	H02AB07	27/08/2010
31532514	H02AB07	31/07/2008
31549253	H02AB07	05/12/2008
31328114	H02AB07	08/03/2010
31732708	H02AB07	12/09/2007
31235002	H02AB07	21/02/2007
31243831	H02AB07	24/11/2008
32187498	H02AB07	06/03/2003
31059217	H02AB07	17/07/2009
31669980	H02AB07	16/02/2011
31984866	H02AB07	14/01/2010
31395813	H02AB07	03/12/2009
31564399	H02AB07	09/06/2009
32198464	H02AB07	11/05/2009
31384269	H02AB07	14/12/2009
31608216	H02AB07	01/07/2010
32154438	H02AB07	16/11/2006
31291554	H02AB07	25/06/2008
31866208	H02AB07	17/07/2008
31273101	H02AB07	17/07/2008
31597078	H02AB07	26/08/2005
31606344	H02AB07	20/01/2011
31564476	H02AB07	08/07/2008
32159037	H02AB07	24/04/2008
32049606	H02AB07	26/12/2005
31853461	H02AB07	21/12/2004
31569281	H02AB07	12/11/1999
31965165	H02AB07	28/02/2005
31429199	H02AB07	26/10/2007
32152162	H02AB07	08/11/2007
31696946	H02AB07	12/03/2007
31538414	H02AB07	13/09/2007
31652501	H02AB07	09/12/2008
32147351	H02AB07	19/05/2006
32275147	H02AB07	22/03/2007
31055196	H02AB07	03/01/2007
31596789	H02AB07	18/09/2007
31165941	H02AB07	16/06/2004
31325610	H02AB07	28/03/2008
31415742	H02AB07	07/02/2006
31134548	H02AB07	23/12/2008
31721371	H02AB07	13/06/2005
31793155	H02AB07	15/06/1999
31365364	H02AB07	04/02/2010
31732643	H02AB07	06/03/2009
31720062	H02AB07	27/10/2005
32051952	H02AB07	10/11/2009
31565758	H02AB07	16/02/2006
31485027	H02AB07	01/06/2009
31964079	H02AB07	16/01/2008
31230558	H02AB07	20/02/2007
32065117	H02AB07	11/04/2005
32011305	H02AB07	18/12/2007
32238209	H02AB07	29/09/2006
32226916	H02AB07	28/12/2010
32258288	H02AB07	14/06/2007
31686887	H02AB07	21/06/2010
32193941	H02AB07	30/10/2008
31405567	H02AB07	02/08/2007
32227760	H02AB07	24/01/2011
31918158	H02AB07	11/09/2007
31451439	H02AB07	08/03/2004
31926216	H02AB07	25/01/2010
31247441	H02AB07	08/04/2008
31514901	H02AB07	22/05/2008
31087836	H02AB07	29/07/2004
31304320	H02AB07	03/04/2009
31543232	H02AB07	02/06/2008
31445953	H02AB07	31/10/2007
31310294	H02AB07	17/04/2008
32276647	H02AB07	04/10/2004
31268190	H02AB07	10/02/2006
31183052	H02AB07	30/01/2008
31891996	H02AB07	14/07/2010
31902600	H02AB07	26/10/2007
31500856	H02AB07	07/02/2006
31168935	H02AB07	26/04/2006
32231943	H02AB07	14/12/2004
32204421	H02AB07	06/08/2008
31303440	H02AB07	29/11/2007
31197159	H02AB07	08/03/2007
31629176	H02AB07	13/03/2007
31191195	H02AB07	12/05/2008
31526759	H02AB07	21/07/2008
31487291	H02AB07	27/04/2001
31191209	H02AB07	02/06/2005
31843751	H02AB07	24/01/2011
31652044	H02AB07	23/06/2006
32103625	H02AB07	14/06/2004
31031831	H02AB07	10/06/2004
31076207	H02AB07	05/12/2006
31451508	H02AB07	26/10/2009
31930370	H02AB07	08/01/2008
31682992	H02AB07	11/05/2005
31807086	H02AB07	29/08/2007
31618220	H02AB07	01/06/2009
31283871	H02AB07	24/03/2009
31477325	H02AB07	19/08/2008
32172715	H02AB07	25/07/2003
32185239	H02AB07	06/05/2011
31970294	H02AB07	08/09/2010
32213176	H02AB07	17/01/2008
31639593	H02AB07	25/02/2008
32263249	H02AB07	31/08/2006
32016578	H02AB07	13/07/2007
31951116	H02AB07	20/10/2010
31524096	H02AB07	28/11/2006
31228560	H02AB07	16/02/2005
31147617	H02AB07	09/02/2004
31339785	H02AB07	13/09/2005
31265348	H02AB07	26/06/2009
31434437	H02AB07	10/02/2003
31406432	H02AB07	31/03/2006
31439367	H02AB07	14/05/2007
31375081	H02AB07	04/12/2006
31490573	H02AB07	20/03/2009
31382749	H02AB07	08/05/2006
31506437	H02AB07	07/06/2010
31767218	H02AB07	07/11/2008
31422698	H02AB07	07/09/2009
31969341	H02AB07	23/11/2009
31679146	H02AB07	10/08/2009
32111220	H02AB07	02/02/2009
31574532	H02AB07	07/09/2005
31947419	H02AB07	08/11/2007
31527789	H02AB07	07/06/2010
32187085	H02AB07	20/03/2007
32139036	H02AB07	23/10/2003
31416750	H02AB07	28/05/2010
32182006	H02AB07	08/11/2007
31081722	H02AB07	14/05/2009
32063147	H02AB07	07/06/2007
31563177	H02AB07	15/12/2008
32014336	H02AB07	28/09/2006
31946065	H02AB07	14/05/2003
32211928	H02AB07	21/01/2011
31338208	H02AB07	02/08/2004
31696751	H02AB07	06/06/2006
31692146	H02AB07	19/06/2009
31111879	H02AB07	16/01/2007
31142653	H02AB07	15/09/2008
31645480	H02AB07	28/02/2006
31429454	H02AB07	18/05/2009
32232823	H02AB07	31/01/2008
32234699	H02AB07	22/12/2010
31449811	H02AB07	14/12/2010
31774644	H02AB07	27/10/2008
32136461	H02AB07	04/07/2007
31777213	H02AB07	04/01/2006
31117424	H02AB07	21/01/2011
31145470	H02AB07	16/04/2009
31514533	H02AB07	17/05/2011
31973568	H02AB07	02/12/2010
31264025	H02AB07	09/10/2007
31318646	H02AB07	19/12/2006
32127700	H02AB07	16/01/2007
31051598	H02AB07	16/09/2003
31756582	H02AB07	11/11/2008
31234645	H02AB07	14/03/2005
31921033	H02AB07	10/11/2010
32118990	H02AB07	01/12/2009
32170610	H02AB07	02/10/2006
31073316	H02AB07	18/03/2009
31184461	H02AB07	24/10/2005
31812581	H02AB07	08/11/2010
31435158	H02AB07	15/03/2006
31364804	H02AB07	19/10/2007
32109384	H02AB07	25/04/2006
31579287	H02AB07	27/12/2005
32164020	H02AB07	27/08/2009
31925538	H02AB07	12/07/2007
31102134	H02AB07	10/10/2007
31233103	H02AB07	08/08/2005
31705615	H02AB07	06/07/2007
32274765	H02AB07	02/04/2009
31540148	H02AB07	20/06/2007
31478038	H02AB07	14/12/2007
31421158	H02AB07	09/06/2006
31393998	H02AB07	20/04/2006
31616921	H02AB07	08/04/2009
31618175	H02AB07	03/03/2011
32265630	H02AB07	02/10/2007
31523713	H02AB07	14/05/2007
32197317	H02AB07	28/04/2008
32006225	H02AB07	22/07/2008
32109768	H02AB07	05/05/2004
31323296	H02AB07	23/12/2010
31445382	H02AB07	22/01/2008
31758759	H02AB07	17/09/2007
32141437	H02AB07	29/12/2004
31127249	H02AB07	18/06/2007
31545196	H02AB07	26/03/2009
31230504	H02AB07	14/11/2007
31536588	H02AB07	04/12/2008
31625423	H02AB07	23/12/2010
31767577	H02AB07	20/11/2008
32205231	H02AB07	21/02/2007
32195611	H02AB07	09/02/2006
31229693	H02AB07	03/01/2011
31177574	H02AB07	17/07/2006
31576373	H02AB07	26/07/2005
31882211	H02AB07	08/06/2007
31748673	H02AB07	30/08/2004
31068631	H02AB07	17/10/2008
31847445	H02AB07	12/11/2007
31622189	H02AB07	08/10/2004
31848757	H02AB07	27/11/2008
31189775	H02AB07	25/01/2010
31711147	H02AB07	20/04/2007
31385542	H02AB07	06/11/2006
31080402	H02AB07	09/12/2003
31474582	H02AB07	01/02/2010
31918858	H02AB07	26/03/2004
32273927	H02AB07	14/04/2008
31215447	H02AB07	03/03/2011
32091657	H02AB07	07/08/2006
31943993	H02AB07	03/03/2008
31110042	H02AB07	07/02/2007
32210034	H02AB07	02/07/2010
32135678	H02AB07	22/06/2004
32050605	H02AB07	27/05/2011
32142008	H02AB07	13/04/2009
31600813	H02AB07	21/03/2001
31627198	H02AB07	26/05/2008
31605696	H02AB07	18/10/2006
31609117	H02AB07	22/12/2010
32172086	H02AB07	24/07/2006
31659751	H02AB07	02/11/2010
32263832	H02AB07	26/03/2007
31556912	H02AB07	13/12/2004
32125738	H02AB07	08/10/2007
31151143	H02AB07	13/10/2009
31751005	H02AB07	06/03/2003
31209696	H02AB07	10/06/2002
32199492	H02AB07	24/07/2009
31506905	H02AB07	29/12/2006
32028704	H02AB07	19/11/2008
31359498	H02AB07	08/09/2010
31190425	H02AB07	30/12/2009
32279180	H02AB07	23/05/2005
31916430	H02AB07	18/12/2009
31052515	H02AB07	07/09/2007
32207420	H02AB07	20/01/2009
32271150	H02AB07	30/11/2006
31396970	H02AB07	16/02/2011
31200246	H02AB07	20/09/2005
31556807	H02AB07	14/07/2010
32150934	H02AB07	13/03/2009
31092882	H02AB07	30/04/2004
31639229	H02AB07	03/08/2010
31318653	H02AB07	10/12/2008
31177288	H02AB07	14/06/2010
31234732	H02AB07	26/06/2009
31549675	H02AB07	23/05/2007
31964287	H02AB07	03/05/2004
32138458	H02AB07	07/03/2006
32028980	H02AB07	02/12/2009
32264804	H02AB07	11/11/2010
31601005	H02AB07	14/03/2005
31347384	H02AB07	22/11/2007
31814249	H02AB07	17/11/2009
32090185	H02AB07	26/05/2008
31937147	H02AB07	20/11/2009
31900197	H02AB07	20/03/2007
32152072	H02AB07	25/04/2006
31663150	H02AB07	03/11/2010
31829829	H02AB07	18/08/2010
32197657	H02AB07	04/12/2006
31330113	H02AB07	14/06/2010
32057478	H02AB07	21/10/2010
32045046	H02AB07	10/08/2005
31995626	H02AB07	07/04/2010
31449578	H02AB07	20/07/2006
32006611	H02AB07	03/09/2007
31267955	H02AB07	15/02/2007
31790134	H02AB07	19/05/2009
32253149	H02AB07	10/04/2006
31767352	H02AB07	04/08/2006
31695133	H02AB07	20/05/2011
31148510	H02AB07	13/07/2009
32120883	H02AB07	11/03/2008
31089113	H02AB07	22/05/2007
31556846	H02AB07	09/12/2005
31532462	H02AB07	19/06/2007
31797705	H02AB07	11/02/2011
31282511	H02AB07	22/09/2005
32122599	H02AB07	11/04/2011
32178811	H02AB07	31/05/2006
32200995	H02AB07	23/03/2009
31897426	H02AB07	06/05/2008
31589835	H02AB07	11/05/2006
31394041	H02AB07	04/01/2011
31575149	H02AB07	18/05/2006
31380118	H02AB07	26/07/2005
31099545	H02AB07	10/01/2005
31768014	H02AB07	18/11/2003
31585275	H02AB07	20/11/2006
32072112	H02AB07	23/12/2005
31561607	H02AB07	04/11/2009
31333007	H02AB07	14/10/2009
31655593	H02AB07	12/02/2004
31947491	H02AB07	11/02/2008
31566843	H02AB07	02/10/2009
31675341	H02AB07	29/05/2008
31804469	H02AB07	18/03/2008
32114983	H02AB07	10/08/2004
32011511	H02AB07	06/07/2005
32238133	H02AB07	08/06/2009
31649595	H02AB07	22/08/2002
31495063	H02AB07	15/02/2008
