patient_id	covar_name	date
10006506	HEMORR	02/04/2007
3940306	HEMORR	03/11/2005
12694596	HEMORR	03/10/2006
9230338	HEMORR	12/03/2002
21372644	HEMORR	21/01/2008
10270337	HEMORR	30/09/2008
8960142	HEMORR	11/07/2006
12779140	HEMORR	22/05/2009
12779214	HEMORR	27/05/2009
5030597	HEMORR	04/10/2007
733283	HEMORR	14/12/2006
10333557	HEMORR	29/05/1945
8784390	HEMORR	02/06/2000
16109980	HEMORR	24/11/2009
9328250	HEMORR	03/05/2011
12774625	HEMORR	06/09/2010
6040714	HEMORR	01/04/2003
1515934	HEMORR	20/10/2009
1524837	HEMORR	18/02/2011
5812962	HEMORR	17/06/1991
8559182	HEMORR	04/03/2011
23471437	HEMORR	25/09/2007
12760945	HEMORR	21/07/2004
12689003	HEMORR	08/02/2005
3293005	HEMORR	04/10/2010
1942265	HEMORR	29/11/2002
5813986	HEMORR	11/02/2004
10002116	HEMORR	04/10/2005
753097	HEMORR	18/04/2007
9226810	HEMORR	20/11/2008
5031451	HEMORR	31/08/2010
1940839	HEMORR	29/10/2009
7494821	HEMORR	13/08/2010
8784088	HEMORR	12/02/2010
1731330	HEMORR	22/07/2003
10395800	HEMORR	28/05/2008
12691690	HEMORR	16/11/2007
5812917	HEMORR	29/03/2004
24950727	HEMORR	05/05/1939
9293874	HEMORR	19/04/2002
1941548	HEMORR	07/04/2006
12691489	HEMORR	14/02/2007
9340428	HEMORR	15/07/2008
3335943	HEMORR	18/10/2010
9284414	HEMORR	08/01/2007
9284420	HEMORR	13/03/2006
12731034	HEMORR	14/07/2010
9377069	HEMORR	16/08/2010
11992876	HEMORR	08/09/2004
6417861	HEMORR	05/04/2011
208451	HEMORR	10/03/2010
21061514	HEMORR	25/03/2009
3939492	HEMORR	02/01/2004
9300271	HEMORR	07/02/2003
5022326	HEMORR	14/10/2008
24951836	HEMORR	18/11/2003
21370773	HEMORR	23/10/2001
9325258	HEMORR	13/01/2005
12760749	HEMORR	09/07/2010
7405502	HEMORR	01/02/2005
1162872	HEMORR	06/07/2005
609367	HEMORR	22/11/2005
13222266	HEMORR	13/11/2006
12173681	HEMORR	20/01/2010
610072	HEMORR	27/12/2001
732151	HEMORR	03/05/2004
9982943	HEMORR	25/10/2006
12766278	HEMORR	31/08/2006
7094993	HEMORR	17/12/2009
6298556	HEMORR	13/05/2008
701693	HEMORR	29/12/2006
12689052	HEMORR	10/11/2005
17169326	HEMORR	13/05/2011
8973286	HEMORR	15/01/2004
8698921	HEMORR	26/11/2010
10393855	HEMORR	15/05/2008
3122250	HEMORR	15/11/2000
9283435	HEMORR	24/11/2009
10001720	HEMORR	08/07/2009
948941	HEMORR	16/12/2003
9983468	HEMORR	04/04/2011
10270387	HEMORR	25/05/2006
20545842	HEMORR	16/05/2007
949778	HEMORR	05/04/2005
9319944	HEMORR	20/08/2009
16977223	HEMORR	15/01/2008
8699270	HEMORR	06/05/2009
5423335	HEMORR	22/02/2010
6235632	HEMORR	16/11/2010
6887580	HEMORR	20/11/2009
10604585	HEMORR	19/09/2007
13940459	HEMORR	04/08/2010
1930429	HEMORR	15/12/2009
12899348	HEMORR	24/07/2008
12779549	HEMORR	25/07/2007
9327237	HEMORR	27/09/2004
948323	HEMORR	22/02/2002
9773469	HEMORR	18/04/2011
10267667	HEMORR	30/09/2008
1122381	HEMORR	13/01/2006
9212274	HEMORR	23/04/2004
8979424	HEMORR	13/10/2000
12695635	HEMORR	11/01/2011
63668	HEMORR	04/03/2009
1515940	HEMORR	14/02/2007
7353549	HEMORR	21/04/2006
8641180	HEMORR	25/11/2008
3289024	HEMORR	13/05/2009
12779563	HEMORR	10/01/2007
10332940	HEMORR	31/05/2006
10245464	HEMORR	20/05/2008
9311429	HEMORR	17/01/2005
1936765	HEMORR	01/04/2005
6752622	HEMORR	06/09/2010
6748141	HEMORR	10/10/2003
23443312	HEMORR	07/04/2010
12767057	HEMORR	13/08/2010
1936284	HEMORR	22/08/2005
60876	HEMORR	23/03/2007
3322587	HEMORR	01/06/2010
3300716	HEMORR	24/06/2010
9213437	HEMORR	22/09/2006
12200003	HEMORR	19/08/2008
21370724	HEMORR	11/08/2003
939591	HEMORR	09/05/2005
3287396	HEMORR	19/02/2009
12789429	HEMORR	15/10/2010
8558181	HEMORR	03/06/2003
9389769	HEMORR	13/08/2010
9268220	HEMORR	31/05/2007
8277865	HEMORR	24/01/2005
19184383	HEMORR	10/05/2010
20529358	HEMORR	09/07/2009
9177319	HEMORR	01/03/2005
9231202	HEMORR	05/06/2000
11660918	HEMORR	09/02/2011
960978	HEMORR	11/09/2002
5028400	HEMORR	23/08/2005
12780206	HEMORR	25/02/2011
9319097	HEMORR	24/07/2003
8555496	HEMORR	22/10/2010
16558782	HEMORR	21/05/2003
12739753	HEMORR	20/12/2004
3330205	HEMORR	15/03/2003
12765942	HEMORR	10/05/2011
740565	HEMORR	29/12/2010
5026712	HEMORR	04/06/2007
3122083	HEMORR	26/05/2011
20569667	HEMORR	07/02/2003
10270239	HEMORR	20/05/2005
6745780	HEMORR	24/06/1944
3303111	HEMORR	07/12/2004
23472056	HEMORR	21/02/2006
5029514	HEMORR	01/08/2006
5031929	HEMORR	22/03/2011
5028754	HEMORR	09/02/2007
941795	HEMORR	22/05/2008
1937110	HEMORR	18/06/1951
25051417	HEMORR	05/06/2003
11993793	HEMORR	11/02/2005
948258	HEMORR	24/06/2010
3303688	HEMORR	21/04/2009
8294054	HEMORR	16/01/2003
7220579	HEMORR	27/02/2006
6746616	HEMORR	27/09/2004
1331277	HEMORR	02/07/2008
9309602	HEMORR	05/02/2009
3120764	HEMORR	18/04/2001
6757710	HEMORR	24/02/2009
24764654	HEMORR	19/10/2004
25047653	HEMORR	27/04/2011
9996518	HEMORR	30/11/2005
612357	HEMORR	05/04/2002
8277262	HEMORR	21/07/2008
9373053	HEMORR	25/03/2008
16529657	HEMORR	06/08/2008
23997583	HEMORR	23/12/2010
24448171	HEMORR	11/05/2011
62859	HEMORR	25/04/2007
14110578	HEMORR	05/05/2009
3303598	HEMORR	07/05/2008
9339219	HEMORR	18/08/2010
6178042	HEMORR	16/08/2010
9996304	HEMORR	16/04/2007
9211842	HEMORR	24/10/2007
12558256	HEMORR	22/05/2007
9209479	HEMORR	28/09/2010
5029698	HEMORR	30/08/2010
8561394	HEMORR	03/11/2010
9250646	HEMORR	12/07/2005
3334058	HEMORR	11/11/2003
3333355	HEMORR	17/01/2007
7152251	HEMORR	30/05/1934
1607463	HEMORR	04/12/2008
1515199	HEMORR	25/06/2010
9864962	HEMORR	21/12/2005
3126312	HEMORR	04/01/2007
733955	HEMORR	13/03/2003
12185767	HEMORR	30/03/2010
6745205	HEMORR	01/06/2010
16532021	HEMORR	25/08/2006
16559168	HEMORR	29/10/2004
21152123	HEMORR	19/07/2004
15468331	HEMORR	15/10/2009
10840180	HEMORR	16/06/2010
7349020	HEMORR	26/11/2008
12767427	HEMORR	29/10/2010
1163865	HEMORR	28/06/2010
7336149	HEMORR	14/03/2011
1062835	HEMORR	01/01/2000
16927439	HEMORR	12/05/1958
9376034	HEMORR	01/09/2009
7405489	HEMORR	05/10/2010
3939956	HEMORR	10/05/2010
7246999	HEMORR	18/10/2010
9274459	HEMORR	13/12/2010
8975827	HEMORR	06/02/2001
8975474	HEMORR	09/02/2011
25071403	HEMORR	19/11/2007
3124058	HEMORR	05/11/1940
1067416	HEMORR	18/02/2003
3323225	HEMORR	08/02/1993
21371617	HEMORR	08/03/2011
21974194	HEMORR	08/11/2007
15667731	HEMORR	13/05/2003
20566164	HEMORR	28/10/2008
944325	HEMORR	29/08/2002
15668417	HEMORR	27/01/2009
8278748	HEMORR	30/08/2000
25071721	HEMORR	24/09/2008
16920398	HEMORR	10/07/2009
947879	HEMORR	29/11/2007
1517271	HEMORR	26/10/2006
5868034	HEMORR	04/09/2006
702098	HEMORR	13/01/2009
732157	HEMORR	18/06/2003
16544705	HEMORR	16/04/2008
3122759	HEMORR	24/11/2009
3330955	HEMORR	14/11/2005
9983430	HEMORR	27/04/2005
3331417	HEMORR	03/11/2006
8642427	HEMORR	07/08/2007
600299	HEMORR	31/03/2005
23454243	HEMORR	01/01/1995
15755091	HEMORR	26/07/2010
731887	HEMORR	04/11/2003
16929993	HEMORR	06/05/2011
8973282	HEMORR	30/01/2009
16977211	HEMORR	29/05/2007
12185700	HEMORR	03/05/2011
12690514	HEMORR	09/03/2007
15901751	HEMORR	03/08/2007
20549659	HEMORR	18/02/2005
23454853	HEMORR	16/01/2003
19299516	HEMORR	23/09/2010
12183551	HEMORR	19/08/2004
13100491	HEMORR	03/07/2006
9386308	HEMORR	09/05/2005
1433662	HEMORR	23/12/2009
609301	HEMORR	28/12/2005
8975906	HEMORR	19/01/2010
8786254	HEMORR	22/02/2005
9389876	HEMORR	17/02/2004
15402656	HEMORR	15/04/2009
23994781	HEMORR	09/09/2002
3018181	HEMORR	30/09/2009
15383965	HEMORR	30/07/2007
8639773	HEMORR	24/11/2008
609389	HEMORR	03/04/2006
8569306	HEMORR	16/02/2011
6745473	HEMORR	11/04/2006
611347	HEMORR	24/09/2004
15900996	HEMORR	08/11/2002
16557695	HEMORR	01/10/2010
5865734	HEMORR	10/01/2005
8982102	HEMORR	23/11/2005
611175	HEMORR	05/11/2010
64824	HEMORR	19/01/2007
12688847	HEMORR	22/04/2008
9387065	HEMORR	25/10/2010
1607075	HEMORR	04/10/2006
9339322	HEMORR	19/07/2005
10846228	HEMORR	27/05/2008
8784712	HEMORR	20/09/2006
9984803	HEMORR	14/04/2003
20546500	HEMORR	11/03/2002
3940176	HEMORR	04/11/2009
3303065	HEMORR	11/07/2006
21152999	HEMORR	05/10/2007
9327526	HEMORR	10/10/2007
9135492	HEMORR	28/02/2007
5031618	HEMORR	17/04/2008
5029473	HEMORR	04/01/2005
25041721	HEMORR	03/11/2008
9375496	HEMORR	20/01/2004
19232845	HEMORR	17/04/2008
8555305	HEMORR	27/04/2007
703443	HEMORR	03/04/2006
697976	HEMORR	27/12/2010
25052021	HEMORR	05/01/2010
23442777	HEMORR	20/01/2004
12173022	HEMORR	23/10/2008
14983661	HEMORR	06/06/2003
12830700	HEMORR	06/09/2010
6747893	HEMORR	19/07/2007
3119036	HEMORR	17/07/2008
1731987	HEMORR	13/01/2006
14651558	HEMORR	08/09/2009
1330175	HEMORR	18/02/2010
16671540	HEMORR	28/04/2010
610477	HEMORR	08/09/2006
14225483	HEMORR	05/11/2009
16097957	HEMORR	04/10/2007
12767267	HEMORR	23/01/2009
736944	HEMORR	09/11/2009
20549723	HEMORR	10/11/2008
7220614	HEMORR	09/01/2008
9212813	HEMORR	25/03/2008
16927754	HEMORR	25/01/2008
8980948	HEMORR	05/10/2007
21804692	HEMORR	15/07/2005
12764774	HEMORR	21/07/2008
940401	HEMORR	22/02/2007
8570996	HEMORR	08/11/2004
10266053	HEMORR	31/01/2005
137620	HEMORR	20/11/2007
8556635	HEMORR	02/08/2007
24764394	HEMORR	27/03/2008
6080455	HEMORR	04/08/2010
1535079	HEMORR	23/09/2003
10840019	HEMORR	20/02/2008
23442839	HEMORR	07/06/2004
21805914	HEMORR	12/05/2009
6236871	HEMORR	10/04/2007
5813348	HEMORR	19/10/2009
5813363	HEMORR	27/10/2010
2768042	HEMORR	17/06/2009
9134282	HEMORR	03/03/2010
25047741	HEMORR	20/11/2002
9219009	HEMORR	12/01/2006
7348647	HEMORR	26/09/2008
734194	HEMORR	28/06/2010
612979	HEMORR	09/10/2006
12772844	HEMORR	13/03/2007
12800078	HEMORR	05/12/2003
9338781	HEMORR	18/02/2003
5024381	HEMORR	02/12/2008
23471643	HEMORR	24/10/2003
24930008	HEMORR	26/03/2010
12182966	HEMORR	07/06/2002
5866196	HEMORR	26/08/2010
15468281	HEMORR	19/08/2010
8570485	HEMORR	08/05/2007
3332462	HEMORR	05/03/1961
16530907	HEMORR	13/01/2003
5031089	HEMORR	27/11/2007
949299	HEMORR	14/07/2005
12760449	HEMORR	15/09/2008
8572398	HEMORR	04/01/2006
7523391	HEMORR	01/10/2008
12790379	HEMORR	23/10/2008
16530229	HEMORR	24/05/2005
12858122	HEMORR	28/11/2003
9304423	HEMORR	22/03/2006
9299373	HEMORR	05/09/2005
20557073	HEMORR	15/06/2009
1162980	HEMORR	03/04/2006
8291408	HEMORR	12/03/1965
15900288	HEMORR	13/05/2005
173433	HEMORR	16/10/2007
12689058	HEMORR	14/04/2009
10003227	HEMORR	03/06/2002
12694679	HEMORR	30/09/2009
5023568	HEMORR	30/09/2008
21370365	HEMORR	12/11/2007
936659	HEMORR	16/04/2008
23455056	HEMORR	06/02/2003
12738517	HEMORR	01/09/2010
16100399	HEMORR	16/09/2009
23454398	HEMORR	13/06/2005
9231009	HEMORR	09/06/2005
25043038	HEMORR	12/03/2010
3328926	HEMORR	18/03/2009
6417619	HEMORR	01/12/1991
10333295	HEMORR	04/07/2008
15141536	HEMORR	14/12/2010
14982937	HEMORR	09/10/2008
9994923	HEMORR	18/10/2006
19179650	HEMORR	24/03/2010
12739708	HEMORR	28/12/2005
8568029	HEMORR	26/04/2010
6178653	HEMORR	10/02/2006
10271589	HEMORR	21/05/2007
8277782	HEMORR	11/04/2008
3301140	HEMORR	17/03/2003
17217433	HEMORR	19/09/2008
5036098	HEMORR	06/02/2007
25062059	HEMORR	24/02/2010
10331347	HEMORR	17/06/2005
949230	HEMORR	13/09/2007
10267886	HEMORR	04/02/2011
10270612	HEMORR	06/02/2008
8277071	HEMORR	25/11/2008
9309579	HEMORR	03/03/2010
1069550	HEMORR	31/10/2005
10004179	HEMORR	26/06/2006
15667822	HEMORR	06/04/2004
7406249	HEMORR	04/10/2006
6035529	HEMORR	11/05/2007
3303038	HEMORR	10/02/2009
1515178	HEMORR	17/03/2009
24765014	HEMORR	01/06/2006
7967901	HEMORR	08/01/2010
15899941	HEMORR	01/04/2011
10002429	HEMORR	29/06/2005
21369952	HEMORR	03/03/2004
12696117	HEMORR	13/05/2011
21372834	HEMORR	22/02/2011
1067775	HEMORR	30/11/2007
23441979	HEMORR	24/08/2004
16977110	HEMORR	30/07/2010
8655494	HEMORR	11/11/2009
24721032	HEMORR	10/05/2007
12799896	HEMORR	10/03/2010
9373480	HEMORR	14/09/2005
1416899	HEMORR	19/06/2006
24941969	HEMORR	03/12/2000
564988	HEMORR	31/10/2002
6603505	HEMORR	19/02/2001
1204392	HEMORR	28/01/2005
641170	HEMORR	31/05/2002
24718616	HEMORR	23/08/2007
1206063	HEMORR	07/03/2003
4700229	HEMORR	14/05/2004
1090730	HEMORR	10/08/2004
646195	HEMORR	21/06/2007
26145000	HEMORR	29/08/2005
1415991	HEMORR	13/06/2007
8066182	HEMORR	28/05/2004
1444548	HEMORR	28/12/2004
1445071	HEMORR	25/04/2006
6603958	HEMORR	05/02/2009
1352974	HEMORR	10/10/2008
4376912	HEMORR	12/02/2009
525156	HEMORR	05/08/2006
1201565	HEMORR	13/11/2005
1419222	HEMORR	12/05/2005
7780208	HEMORR	15/05/2003
1171992	HEMORR	02/05/2006
7964982	HEMORR	24/01/1980
640418	HEMORR	01/04/2003
4700332	HEMORR	12/05/2010
6593022	HEMORR	01/06/1940
1212426	HEMORR	30/12/2002
1209293	HEMORR	29/12/2005
647177	HEMORR	31/05/2002
12189329	HEMORR	22/01/2004
6212955	HEMORR	31/05/2011
1198552	HEMORR	28/01/1932
6603667	HEMORR	21/04/1956
1297038	HEMORR	26/12/2006
1320533	HEMORR	25/06/2003
1417904	HEMORR	26/09/2000
25365111	HEMORR	26/05/2006
565093	HEMORR	02/01/1995
1850615	HEMORR	08/10/2008
647834	HEMORR	30/09/2009
5076581	HEMORR	15/06/2004
1351403	HEMORR	04/01/2002
13263525	HEMORR	03/07/2007
1200673	HEMORR	28/06/2005
5992700	HEMORR	23/06/2003
540441	HEMORR	21/09/2009
1350474	HEMORR	15/11/2000
7966882	HEMORR	12/05/2005
564634	HEMORR	06/07/2009
12189908	HEMORR	19/10/2009
7969130	HEMORR	18/04/2000
7770911	HEMORR	04/10/2005
6227493	HEMORR	11/10/2006
1200808	HEMORR	09/08/2002
7971640	HEMORR	11/11/2003
1853552	HEMORR	16/06/2008
1853230	HEMORR	22/03/2004
6842062	HEMORR	27/06/2006
1415985	HEMORR	25/02/2009
1207356	HEMORR	18/06/2003
7846169	HEMORR	20/05/2005
6595841	HEMORR	09/07/2008
1445530	HEMORR	07/08/2008
24941069	HEMORR	09/08/2005
6842130	HEMORR	31/01/1934
1546096	HEMORR	21/10/2004
1321721	HEMORR	31/08/2004
1263785	HEMORR	04/03/2011
1416316	HEMORR	14/06/2001
7966732	HEMORR	17/12/2004
1417003	HEMORR	30/09/1947
1426317	HEMORR	08/08/2000
6600753	HEMORR	22/03/2006
1353807	HEMORR	05/08/2008
24941221	HEMORR	21/09/2009
8063672	HEMORR	20/08/2002
5992233	HEMORR	18/11/2009
7849372	HEMORR	30/12/2004
7964334	HEMORR	07/03/2008
641933	HEMORR	27/12/2007
1545758	HEMORR	14/05/2007
1207309	HEMORR	18/10/2004
1418023	HEMORR	04/04/2005
1199482	HEMORR	08/05/2003
6213299	HEMORR	01/06/2008
1443647	HEMORR	08/04/2008
7838720	HEMORR	13/03/2011
1203312	HEMORR	18/02/2003
8933284	HEMORR	12/01/2004
525724	HEMORR	14/03/2000
1547420	HEMORR	30/05/2001
7781305	HEMORR	10/05/2011
1211241	HEMORR	18/12/2007
6593220	HEMORR	05/04/2005
1353271	HEMORR	24/06/2008
1669715	HEMORR	08/01/2008
1419936	HEMORR	22/09/2006
516414	HEMORR	08/01/2009
1417619	HEMORR	04/04/2005
7800815	HEMORR	24/09/2007
1205547	HEMORR	05/12/2008
1349490	HEMORR	17/01/2001
1545729	HEMORR	28/07/2009
18142516	HEMORR	30/06/2010
13985993	HEMORR	09/02/2004
1416039	HEMORR	27/01/2003
7771352	HEMORR	23/03/2001
6603802	HEMORR	14/02/2011
7970589	HEMORR	12/04/1921
629522	HEMORR	26/05/2003
7966834	HEMORR	22/11/2005
4363537	HEMORR	16/03/2007
5991623	HEMORR	24/05/2004
7964309	HEMORR	13/03/2009
13986535	HEMORR	31/05/2011
648336	HEMORR	09/10/2003
641313	HEMORR	06/04/2005
7771619	HEMORR	23/11/2006
7966461	HEMORR	05/05/2006
15738137	HEMORR	12/11/1977
647222	HEMORR	04/11/2010
8067082	HEMORR	04/07/2005
1420732	HEMORR	05/09/2005
6600716	HEMORR	07/08/2000
524687	HEMORR	09/10/2001
1424903	HEMORR	12/01/2010
5723212	HEMORR	09/06/2008
7850480	HEMORR	23/06/2005
1208195	HEMORR	17/09/2003
8956059	HEMORR	10/01/2011
15703747	HEMORR	19/10/2010
1419030	HEMORR	12/11/1995
12613095	HEMORR	21/12/2010
8932929	HEMORR	23/07/2008
651385	HEMORR	20/01/2003
1349470	HEMORR	27/04/2007
8935141	HEMORR	29/01/2004
6598203	HEMORR	25/08/2010
1426345	HEMORR	21/02/2002
1172012	HEMORR	28/07/2008
673927	HEMORR	14/09/2004
525263	HEMORR	23/08/2002
6601213	HEMORR	02/09/2010
1852461	HEMORR	11/09/2009
539531	HEMORR	26/03/2003
1418461	HEMORR	02/06/2006
1277189	HEMORR	05/06/2008
6594016	HEMORR	25/07/1932
6333747	HEMORR	23/10/2007
6378838	HEMORR	25/06/2008
6222446	HEMORR	30/08/2007
1208178	HEMORR	04/05/2011
5076967	HEMORR	05/08/2007
8956359	HEMORR	01/12/2004
6597391	HEMORR	21/02/2001
7769677	HEMORR	18/09/2002
14841961	HEMORR	26/08/2010
1090765	HEMORR	15/02/2010
651890	HEMORR	09/01/2006
1201126	HEMORR	07/12/2004
652358	HEMORR	26/11/2010
6425452	HEMORR	23/03/2011
7801133	HEMORR	01/11/2004
1171735	HEMORR	10/03/2004
640203	HEMORR	07/07/2009
7965464	HEMORR	25/02/2009
18365866	HEMORR	01/06/2010
6592990	HEMORR	02/12/1955
1349681	HEMORR	30/01/2003
17606613	HEMORR	03/07/2010
1850819	HEMORR	26/03/1999
25248948	HEMORR	30/01/2009
1849702	HEMORR	23/05/2001
1420230	HEMORR	11/12/2003
16272859	HEMORR	16/01/2008
674587	HEMORR	03/06/2003
1417328	HEMORR	23/07/1970
1278011	HEMORR	31/10/2006
4363403	HEMORR	06/03/1997
6375936	HEMORR	24/01/2011
1354771	HEMORR	27/07/2009
7966257	HEMORR	11/01/2008
26139195	HEMORR	01/03/2006
648547	HEMORR	27/06/2002
6594333	HEMORR	30/11/2009
1090623	HEMORR	13/11/2003
629517	HEMORR	28/02/2007
6595126	HEMORR	04/01/2006
1261139	HEMORR	02/07/2007
1443910	HEMORR	26/03/2004
1545624	HEMORR	03/12/2007
15038335	HEMORR	06/08/2010
405420	HEMORR	01/03/2011
7776254	HEMORR	25/06/2002
1351713	HEMORR	03/02/2010
7783154	HEMORR	03/11/2006
4700277	HEMORR	20/07/2010
8956639	HEMORR	09/02/2010
1209171	HEMORR	10/09/2008
13986679	HEMORR	06/09/2010
6598234	HEMORR	02/04/2003
5991520	HEMORR	30/01/2008
24940355	HEMORR	10/10/2007
6603214	HEMORR	20/03/2002
7849206	HEMORR	24/02/2005
646416	HEMORR	23/05/2002
25904492	HEMORR	11/05/1990
1855692	HEMORR	27/06/2000
1133473	HEMORR	06/05/2004
25919170	HEMORR	25/10/2010
997369	HEMORR	07/02/2007
2642757	HEMORR	31/08/2005
1855492	HEMORR	28/02/2001
1855659	HEMORR	06/03/2003
1851693	HEMORR	04/10/2010
1132264	HEMORR	15/05/2009
890842	HEMORR	28/10/2009
5977340	HEMORR	21/01/2010
717208	HEMORR	27/12/2000
1425870	HEMORR	05/07/1963
13733143	HEMORR	11/03/2005
1353013	HEMORR	11/05/2010
5989041	HEMORR	31/07/2009
1640425	HEMORR	01/03/2007
1638022	HEMORR	27/06/2007
1855443	HEMORR	10/12/2003
1638708	HEMORR	29/05/2009
1642032	HEMORR	15/11/2005
716480	HEMORR	02/06/2003
25893365	HEMORR	23/12/2008
1101869	HEMORR	10/10/2003
1132237	HEMORR	18/10/2001
1557815	HEMORR	29/08/2006
1578995	HEMORR	08/08/2002
1102247	HEMORR	26/10/2006
25913591	HEMORR	15/04/2009
1111431	HEMORR	18/08/2000
1133112	HEMORR	27/06/2007
1638137	HEMORR	19/10/2010
25915017	HEMORR	09/12/2009
1640617	HEMORR	22/05/2007
25884446	HEMORR	23/02/2007
1066140	HEMORR	24/01/1960
1027312	HEMORR	12/09/2003
6914096	HEMORR	07/04/2009
1101747	HEMORR	18/11/2008
6514597	HEMORR	28/05/2010
1131198	HEMORR	14/06/2000
12162776	HEMORR	21/05/2003
486875	HEMORR	05/05/2005
1134702	HEMORR	01/07/2008
25889094	HEMORR	09/08/2010
134659	HEMORR	19/01/2004
1648154	HEMORR	07/08/2008
21282892	HEMORR	18/06/2008
1110477	HEMORR	14/04/2011
1130822	HEMORR	18/08/2000
1102919	HEMORR	03/10/2006
12788129	HEMORR	11/11/2002
1101335	HEMORR	14/11/2002
1102009	HEMORR	14/01/2005
1100552	HEMORR	28/02/2008
996909	HEMORR	29/09/2003
717762	HEMORR	02/04/2004
25882952	HEMORR	21/04/2010
25891404	HEMORR	02/07/2009
715906	HEMORR	26/10/2001
717026	HEMORR	09/01/2004
717746	HEMORR	12/08/2005
25776775	HEMORR	23/06/2006
1648548	HEMORR	20/01/2004
891330	HEMORR	17/03/2005
1558068	HEMORR	17/07/2006
2112751	HEMORR	13/08/2002
2040796	HEMORR	28/01/2002
2040077	HEMORR	20/11/2001
2072067	HEMORR	10/05/2004
2144824	HEMORR	09/02/2006
2377359	HEMORR	06/04/2009
2216586	HEMORR	24/06/2008
2071528	HEMORR	30/09/2010
2070225	HEMORR	30/10/2005
2238624	HEMORR	27/04/1952
2238908	HEMORR	30/01/2007
2239654	HEMORR	21/08/2010
2070964	HEMORR	29/04/2004
2067962	HEMORR	13/10/2004
2110088	HEMORR	08/05/2003
2214782	HEMORR	27/04/2005
2058996	HEMORR	18/02/2009
2058265	HEMORR	14/12/2007
2132863	HEMORR	11/10/2010
2133045	HEMORR	11/04/2006
2043894	HEMORR	15/06/2005
2049241	HEMORR	21/01/2003
2109593	HEMORR	01/12/2003
2069472	HEMORR	03/05/2011
2068934	HEMORR	08/04/2011
2045608	HEMORR	02/10/2001
2145231	HEMORR	26/12/2006
2110391	HEMORR	30/08/2010
2045327	HEMORR	13/11/2009
2041105	HEMORR	11/04/2003
2041106	HEMORR	17/02/2009
2109237	HEMORR	12/07/2004
2069915	HEMORR	10/07/1934
2139418	HEMORR	13/04/1926
2217822	HEMORR	16/07/2009
903326	HEMORR	13/04/2005
858856	HEMORR	28/12/2004
905358	HEMORR	21/05/2009
877592	HEMORR	26/06/2001
874596	HEMORR	22/12/2007
2035400	HEMORR	15/03/2008
875533	HEMORR	14/04/2004
873706	HEMORR	23/08/2001
904929	HEMORR	12/08/2007
2109655	HEMORR	03/05/2007
2218788	HEMORR	27/10/2003
2037381	HEMORR	18/10/2010
902453	HEMORR	18/05/2005
1755667	HEMORR	16/03/2005
905063	HEMORR	31/03/2006
2055176	HEMORR	14/05/2005
2044581	HEMORR	22/04/2003
2040264	HEMORR	12/02/2008
2038338	HEMORR	13/11/2007
2053602	HEMORR	06/01/1959
903553	HEMORR	21/05/2009
904362	HEMORR	17/05/2007
1765141	HEMORR	02/07/2003
874724	HEMORR	07/07/2005
859429	HEMORR	20/03/2009
1682692	HEMORR	03/11/2003
875365	HEMORR	10/12/2008
875375	HEMORR	26/09/2006
2038762	HEMORR	28/06/2005
2038784	HEMORR	17/12/2007
2038787	HEMORR	18/02/2008
859041	HEMORR	29/07/2006
859050	HEMORR	02/09/2002
1682671	HEMORR	26/09/2001
1753216	HEMORR	10/08/2010
904017	HEMORR	18/09/2009
902142	HEMORR	06/04/2010
877611	HEMORR	02/07/2003
874441	HEMORR	26/12/2000
2765113	HEMORR	02/04/2009
2777014	HEMORR	11/06/2010
2759226	HEMORR	29/09/2004
5471303	HEMORR	18/10/2007
5853157	HEMORR	11/05/2009
2042889	HEMORR	17/07/1935
904069	HEMORR	12/11/2005
2778819	HEMORR	12/05/2010
7036914	HEMORR	13/06/2003
2034398	HEMORR	25/10/2007
758250	HEMORR	18/01/2003
858961	HEMORR	04/01/2006
1762017	HEMORR	04/02/2008
877499	HEMORR	25/03/2009
1679643	HEMORR	07/02/2005
1767597	HEMORR	21/10/2003
3054914	HEMORR	03/08/2007
4088311	HEMORR	14/09/2006
3052719	HEMORR	11/07/2002
3055184	HEMORR	30/04/2002
3055190	HEMORR	14/11/2000
7045432	HEMORR	01/01/1988
2773905	HEMORR	27/10/2009
2765977	HEMORR	19/11/2010
3055375	HEMORR	16/08/2001
3053901	HEMORR	02/07/2009
3055168	HEMORR	19/09/2002
2763148	HEMORR	24/08/2007
2774863	HEMORR	22/07/2005
6434327	HEMORR	09/05/1991
3052992	HEMORR	19/11/2007
2777436	HEMORR	12/09/2003
2777636	HEMORR	03/01/2011
3054967	HEMORR	10/03/2009
3048795	HEMORR	07/02/2010
3054486	HEMORR	05/12/2006
2778447	HEMORR	24/03/2006
3052617	HEMORR	09/12/2005
2574813	HEMORR	28/04/2009
2773960	HEMORR	09/02/2011
3048613	HEMORR	22/12/2003
2524518	HEMORR	23/11/2008
2753144	HEMORR	27/06/2006
2573816	HEMORR	03/10/2006
2755855	HEMORR	17/12/2002
2522530	HEMORR	13/02/2009
2773004	HEMORR	12/10/2010
2573239	HEMORR	28/05/2007
2755318	HEMORR	28/10/2010
2522313	HEMORR	24/02/2004
2408292	HEMORR	18/02/2004
2407651	HEMORR	11/06/1996
2407695	HEMORR	11/03/2011
16979593	HEMORR	10/07/2009
17818675	HEMORR	12/07/2009
17742027	HEMORR	12/06/2008
17040745	HEMORR	21/07/2008
2522124	HEMORR	05/05/2011
2522658	HEMORR	22/04/2003
15660220	HEMORR	13/05/2008
2574986	HEMORR	17/07/2006
2523575	HEMORR	11/12/2009
7462311	HEMORR	19/05/2011
2407170	HEMORR	03/08/2005
12970363	HEMORR	28/04/2008
2755386	HEMORR	21/09/2004
2239113	HEMORR	21/01/1950
16835317	HEMORR	25/03/2008
26459880	HEMORR	17/02/2005
28065993	HEMORR	01/08/2005
26461804	HEMORR	28/09/2007
26424856	HEMORR	15/07/2005
26423834	HEMORR	11/10/2005
26458657	HEMORR	05/01/2006
28047608	HEMORR	28/03/1922
26409755	HEMORR	14/09/2010
26442555	HEMORR	09/11/2007
26351975	HEMORR	03/01/2011
26351849	HEMORR	18/05/1968
26392356	HEMORR	11/06/2003
28053614	HEMORR	27/08/2007
26461925	HEMORR	11/05/2006
28063102	HEMORR	26/02/2008
26461456	HEMORR	04/04/2006
26338306	HEMORR	10/12/2009
9737100	HEMORR	16/04/2008
9654426	HEMORR	12/07/2003
8118515	HEMORR	25/11/1950
7027238	HEMORR	25/04/2008
7144208	HEMORR	17/07/2002
7134431	HEMORR	05/05/2003
7142660	HEMORR	23/08/2004
9635311	HEMORR	01/04/2011
18223470	HEMORR	16/12/2008
18471931	HEMORR	30/06/2003
7228531	HEMORR	15/11/2004
20673717	HEMORR	09/03/2009
26230873	HEMORR	23/01/2010
7137270	HEMORR	04/02/2010
7139941	HEMORR	29/06/2007
10455373	HEMORR	01/09/2008
7048780	HEMORR	31/03/2009
7136116	HEMORR	17/05/2007
7980061	HEMORR	26/07/2007
7142486	HEMORR	25/05/2001
7143108	HEMORR	07/02/2003
17744958	HEMORR	02/05/2008
7137260	HEMORR	31/03/2006
26243093	HEMORR	01/06/1945
26176201	HEMORR	22/07/2010
18222956	HEMORR	01/04/1948
26243303	HEMORR	23/02/2009
18223286	HEMORR	18/05/2005
26462082	HEMORR	07/01/2005
26425415	HEMORR	06/12/2006
17747103	HEMORR	29/05/2001
20147230	HEMORR	19/06/2006
26409825	HEMORR	26/08/2004
26269258	HEMORR	13/05/2004
26243853	HEMORR	25/08/2010
23889578	HEMORR	08/04/2011
26338626	HEMORR	18/08/2010
28042198	HEMORR	08/02/2005
26242942	HEMORR	03/10/2009
26566119	HEMORR	15/03/2007
26425992	HEMORR	25/09/2009
17041239	HEMORR	23/01/2006
26384722	HEMORR	13/01/2009
26384460	HEMORR	31/03/2010
26255901	HEMORR	18/03/2004
23890725	HEMORR	19/10/2004
26459796	HEMORR	24/05/2006
26236453	HEMORR	02/02/2009
26384436	HEMORR	07/10/2009
26454075	HEMORR	05/05/2010
15732511	HEMORR	31/10/2006
15732553	HEMORR	27/01/2010
12967061	HEMORR	26/02/2003
17040830	HEMORR	10/02/1968
7135727	HEMORR	01/01/2000
8116839	HEMORR	30/01/2004
17040205	HEMORR	22/02/2005
14009360	HEMORR	18/05/2009
7229770	HEMORR	09/08/2005
7136999	HEMORR	01/01/1993
7140005	HEMORR	08/08/2007
7130045	HEMORR	27/06/2002
16835971	HEMORR	01/08/2006
16867929	HEMORR	05/01/2010
13031336	HEMORR	07/07/2007
422530	HEMORR	15/03/2010
185783	HEMORR	03/09/2009
2968002	HEMORR	11/07/2008
2965216	HEMORR	14/06/2007
1910209	HEMORR	20/09/2005
421458	HEMORR	11/03/2010
1910382	HEMORR	14/05/2008
302093	HEMORR	16/11/2007
1903409	HEMORR	20/04/2004
1912188	HEMORR	28/05/2007
423010	HEMORR	02/05/2001
2964612	HEMORR	09/01/2004
2959597	HEMORR	07/03/2008
2964235	HEMORR	19/01/2011
425420	HEMORR	30/05/2003
418178	HEMORR	28/05/2002
2960150	HEMORR	05/12/2003
1911118	HEMORR	10/03/2006
649048	HEMORR	07/05/2007
2958619	HEMORR	12/02/2002
302849	HEMORR	13/05/2003
305334	HEMORR	06/11/1950
2963540	HEMORR	23/08/2007
185473	HEMORR	03/06/2003
463789	HEMORR	16/05/2007
4262552	HEMORR	13/01/2006
421262	HEMORR	03/01/2007
185633	HEMORR	17/02/2009
419797	HEMORR	19/07/2004
183998	HEMORR	21/08/2006
184043	HEMORR	06/04/2010
874346	HEMORR	13/05/2008
874500	HEMORR	19/03/2008
3055456	HEMORR	14/10/2009
3054505	HEMORR	08/11/2005
2753836	HEMORR	07/02/2003
2133621	HEMORR	27/01/2009
2525880	HEMORR	10/10/2001
28083670	HEMORR	15/02/2005
26459466	HEMORR	03/02/2010
28080875	HEMORR	19/01/2011
1753843	HEMORR	03/03/2008
2040830	HEMORR	04/07/2002
28082470	HEMORR	27/06/2001
2777779	HEMORR	28/03/2001
20147197	HEMORR	24/08/2009
28086673	HEMORR	19/05/2010
28093758	HEMORR	08/04/2009
28087603	HEMORR	13/01/2009
28079828	HEMORR	24/05/2007
2040821	HEMORR	01/01/2001
2043165	HEMORR	11/06/1963
2045428	HEMORR	06/04/2005
7134485	HEMORR	27/03/2006
435889	HEMORR	31/05/2011
428569	HEMORR	02/10/2001
428577	HEMORR	09/07/2009
424822	HEMORR	01/10/2008
303041	HEMORR	14/02/2005
184353	HEMORR	17/12/2009
2113791	HEMORR	20/11/2009
426906	HEMORR	15/08/2006
7136014	HEMORR	09/05/2007
26201016	HEMORR	19/11/2009
181481	HEMORR	06/11/2002
425921	HEMORR	26/01/2006
2068739	HEMORR	03/06/2009
28080808	HEMORR	05/03/2007
305499	HEMORR	20/10/2006
463185	HEMORR	13/02/2008
418421	HEMORR	16/10/1978
179817	HEMORR	02/10/2007
186865	HEMORR	19/10/2009
423811	HEMORR	01/11/1998
427053	HEMORR	24/09/2002
184252	HEMORR	09/06/2004
649912	HEMORR	08/06/2001
423586	HEMORR	19/10/1998
186944	HEMORR	15/04/2011
184271	HEMORR	27/12/2005
265148	HEMORR	10/02/2004
17741653	HEMORR	02/09/2005
433666	HEMORR	23/09/2003
28052365	HEMORR	17/09/2004
28053822	HEMORR	09/09/1953
28063602	HEMORR	12/07/2002
28072352	HEMORR	21/04/2006
28063631	HEMORR	19/12/2006
28072507	HEMORR	06/05/2009
28072376	HEMORR	02/10/2009
28053779	HEMORR	16/07/2010
28053782	HEMORR	02/12/2008
28047186	HEMORR	17/03/2000
28080549	HEMORR	18/05/1976
28051851	HEMORR	29/12/2009
28093204	HEMORR	11/10/2010
28069830	HEMORR	03/05/2006
28086778	HEMORR	07/11/2007
875829	HEMORR	13/11/2003
28049523	HEMORR	11/09/2006
28058671	HEMORR	08/03/2011
28045890	HEMORR	13/11/2006
28043342	HEMORR	29/09/2009
20804145	HEMORR	05/06/2005
24669451	HEMORR	10/12/2004
25554977	HEMORR	17/07/2009
25648817	HEMORR	09/04/2003
24669031	HEMORR	22/12/2005
24665617	HEMORR	04/02/2011
21553720	HEMORR	11/08/2008
25649322	HEMORR	31/05/2010
24665274	HEMORR	15/01/2002
24669789	HEMORR	27/05/2010
24666863	HEMORR	24/05/2004
24670871	HEMORR	10/05/2011
24661880	HEMORR	01/01/2009
24658515	HEMORR	09/09/2002
24664127	HEMORR	11/10/2010
24655998	HEMORR	03/03/2011
25742981	HEMORR	18/09/2008
24655248	HEMORR	26/04/2006
24666170	HEMORR	20/10/2007
25540029	HEMORR	05/04/2011
25744065	HEMORR	14/01/2011
25742512	HEMORR	13/12/2004
24659548	HEMORR	11/10/2001
25739910	HEMORR	01/09/2010
24664443	HEMORR	14/12/2006
24668665	HEMORR	03/08/2006
24664366	HEMORR	21/08/2009
24668940	HEMORR	09/03/2005
25746656	HEMORR	08/04/2009
25743054	HEMORR	20/05/2008
25740455	HEMORR	14/08/2008
24663987	HEMORR	31/01/2005
421960	HEMORR	15/02/2006
1903907	HEMORR	10/06/1999
1016457	HEMORR	13/12/2004
1362871	HEMORR	10/05/2006
1372823	HEMORR	03/01/1997
1374276	HEMORR	09/06/2009
927483	HEMORR	17/05/2011
18194939	HEMORR	25/02/2009
1014507	HEMORR	25/09/2003
1909795	HEMORR	16/09/2008
1905306	HEMORR	22/02/2010
1363712	HEMORR	13/06/2007
1361706	HEMORR	14/11/2000
1374923	HEMORR	25/11/2002
1030033	HEMORR	25/04/2006
1363047	HEMORR	05/12/2000
1913183	HEMORR	13/04/2004
1030976	HEMORR	09/03/2009
422093	HEMORR	13/05/2008
1373981	HEMORR	12/08/2002
1373277	HEMORR	01/08/2001
1029577	HEMORR	04/10/2005
1363957	HEMORR	18/10/2004
1372573	HEMORR	18/09/1998
1372631	HEMORR	23/07/2009
1360957	HEMORR	12/06/2008
422231	HEMORR	03/03/2009
1359659	HEMORR	02/02/1999
21063153	HEMORR	18/09/2006
16840863	HEMORR	15/10/2008
18196870	HEMORR	21/09/2009
18189507	HEMORR	29/01/2010
20070622	HEMORR	15/05/2003
24670235	HEMORR	19/01/2009
18196791	HEMORR	02/07/2004
21063541	HEMORR	09/10/2003
18186791	HEMORR	31/05/2002
18190820	HEMORR	03/08/2004
21063008	HEMORR	12/04/2006
16841220	HEMORR	17/05/2008
16840985	HEMORR	28/02/2006
18197085	HEMORR	25/09/2009
19280219	HEMORR	06/11/2002
17410706	HEMORR	01/03/2004
18186683	HEMORR	20/07/2004
18187594	HEMORR	04/05/2011
18197591	HEMORR	17/03/2008
18188014	HEMORR	18/06/2007
25740582	HEMORR	15/05/2006
18187685	HEMORR	10/01/2010
18187706	HEMORR	04/09/2009
18196454	HEMORR	22/11/2005
18191100	HEMORR	02/08/2005
21063093	HEMORR	19/11/1995
16568445	HEMORR	15/06/2009
24669397	HEMORR	23/02/2006
18190979	HEMORR	15/07/2009
19424318	HEMORR	04/03/1929
16568733	HEMORR	13/11/2001
2964554	HEMORR	23/08/2004
2987559	HEMORR	11/01/2008
2962403	HEMORR	28/08/2006
2962449	HEMORR	14/11/2008
2961611	HEMORR	06/02/2003
4312803	HEMORR	30/10/2006
2675323	HEMORR	13/06/2006
2988776	HEMORR	11/06/2007
10219552	HEMORR	15/02/2007
1365137	HEMORR	06/03/2003
1370391	HEMORR	26/04/2002
1910115	HEMORR	01/04/2005
2251143	HEMORR	09/12/2010
420427	HEMORR	29/10/2003
1030188	HEMORR	13/08/2004
2988326	HEMORR	26/04/2010
12994266	HEMORR	20/07/2010
1899549	HEMORR	29/09/2006
1015918	HEMORR	16/12/2002
1361752	HEMORR	12/07/2002
418928	HEMORR	10/10/2005
1910285	HEMORR	19/01/2005
1903064	HEMORR	01/07/2003
2249434	HEMORR	14/04/2008
2958123	HEMORR	18/01/2008
1016697	HEMORR	21/09/2005
1910693	HEMORR	29/06/2006
8432364	HEMORR	10/07/2006
12994440	HEMORR	07/01/2010
12994441	HEMORR	12/12/2006
1018757	HEMORR	05/08/2003
1015995	HEMORR	15/07/2009
12994685	HEMORR	15/10/2008
1363174	HEMORR	14/01/2000
1909227	HEMORR	29/12/2008
1371577	HEMORR	18/08/2000
3055681	HEMORR	21/06/2005
26676597	HEMORR	09/03/2007
26824685	HEMORR	26/01/2005
26823255	HEMORR	08/01/2002
26710784	HEMORR	08/01/2010
26621036	HEMORR	20/07/2006
26701873	HEMORR	15/03/2004
26719797	HEMORR	03/08/2009
26719457	HEMORR	24/12/2010
26776913	HEMORR	05/04/2005
26834429	HEMORR	18/01/2005
26776969	HEMORR	03/02/2011
26707630	HEMORR	01/01/2007
26790332	HEMORR	14/12/2005
26776993	HEMORR	26/11/2004
26703830	HEMORR	22/11/2010
26834696	HEMORR	19/11/2009
26625877	HEMORR	10/06/2009
26718272	HEMORR	11/03/2003
26720825	HEMORR	04/05/2010
26804225	HEMORR	20/04/2009
26792630	HEMORR	29/03/2010
26777501	HEMORR	13/12/2006
26700107	HEMORR	14/05/2010
26620101	HEMORR	22/10/2009
26832319	HEMORR	27/06/2007
26804285	HEMORR	08/07/2003
12975498	HEMORR	31/12/1999
16105363	HEMORR	16/09/2003
2987979	HEMORR	16/02/2004
10769974	HEMORR	17/03/2008
16105993	HEMORR	29/05/2003
16104640	HEMORR	01/09/2001
22921808	HEMORR	18/05/2010
12975544	HEMORR	05/06/2006
12976693	HEMORR	30/08/2010
15823375	HEMORR	19/02/2010
14309684	HEMORR	12/05/2010
24579196	HEMORR	30/07/2004
13873963	HEMORR	09/01/2008
24655434	HEMORR	28/09/2004
12977939	HEMORR	01/06/2005
16567893	HEMORR	28/01/2011
12977815	HEMORR	27/08/2003
17165199	HEMORR	14/06/2005
26619245	HEMORR	07/11/2005
26619415	HEMORR	05/08/2009
26635661	HEMORR	18/02/2010
12994993	HEMORR	31/12/2002
26630888	HEMORR	23/12/2005
26720593	HEMORR	18/03/2010
26723126	HEMORR	17/04/2007
16843464	HEMORR	30/01/2006
25740777	HEMORR	18/04/2011
26721016	HEMORR	16/06/2005
26642712	HEMORR	10/06/2008
14310647	HEMORR	10/11/2010
14310735	HEMORR	02/06/2010
26706433	HEMORR	11/01/2011
26701326	HEMORR	22/05/2009
9072498	HEMORR	03/08/2009
16844683	HEMORR	03/11/2010
26626137	HEMORR	18/05/2006
26705536	HEMORR	26/06/2007
14309906	HEMORR	09/04/2001
26701387	HEMORR	04/01/2008
12995300	HEMORR	10/03/2005
26643138	HEMORR	26/01/2007
26710728	HEMORR	30/09/2010
26616636	HEMORR	31/05/2008
26618242	HEMORR	11/02/2008
21650891	HEMORR	18/11/2010
24581788	HEMORR	15/06/2004
24667198	HEMORR	08/01/2005
24654931	HEMORR	21/12/2007
19968378	HEMORR	17/08/2010
21062954	HEMORR	29/05/2003
22922696	HEMORR	14/09/2007
23484979	HEMORR	02/05/2011
24656355	HEMORR	06/04/2011
21651858	HEMORR	24/01/2005
22512676	HEMORR	24/03/2011
24654773	HEMORR	23/03/2010
22882688	HEMORR	05/09/2003
24581513	HEMORR	15/07/1962
24520378	HEMORR	03/11/2005
21651440	HEMORR	28/02/2008
26946205	HEMORR	15/03/2010
26917078	HEMORR	09/12/2002
26934988	HEMORR	13/10/2004
26938768	HEMORR	04/05/2007
26936348	HEMORR	03/04/2002
26934241	HEMORR	06/06/2002
26946237	HEMORR	20/10/2004
26896402	HEMORR	15/04/2009
26946278	HEMORR	07/10/2008
26891000	HEMORR	05/06/2006
26950826	HEMORR	15/01/2003
26933127	HEMORR	02/04/2007
26915565	HEMORR	05/09/2005
26944861	HEMORR	10/07/2003
26941906	HEMORR	03/04/2001
26916199	HEMORR	13/03/1927
26950428	HEMORR	25/01/1968
26938643	HEMORR	04/01/2010
26937963	HEMORR	22/11/2006
26879225	HEMORR	09/12/2009
26706620	HEMORR	08/02/2011
26745307	HEMORR	21/03/2011
26880912	HEMORR	11/12/2003
26880913	HEMORR	19/04/2011
26858061	HEMORR	09/05/2006
26762365	HEMORR	19/06/2007
26716000	HEMORR	08/09/2008
26782134	HEMORR	23/01/2008
26723523	HEMORR	23/10/2006
26712625	HEMORR	09/07/2009
26730108	HEMORR	24/05/2006
26730135	HEMORR	17/05/2010
26742445	HEMORR	22/02/2007
26864238	HEMORR	12/03/2009
26721927	HEMORR	26/01/2008
26846087	HEMORR	24/04/2008
26780127	HEMORR	26/04/2006
26714083	HEMORR	27/06/2006
26711402	HEMORR	01/12/2006
26758983	HEMORR	02/11/2009
26779554	HEMORR	05/12/2008
26875179	HEMORR	24/07/2003
26871724	HEMORR	08/01/2007
26867867	HEMORR	19/04/2000
26871932	HEMORR	25/05/2004
26714825	HEMORR	07/04/2009
26876249	HEMORR	11/04/2011
26887048	HEMORR	14/01/1925
26754414	HEMORR	09/12/2008
26867268	HEMORR	22/07/2009
26711798	HEMORR	26/04/2004
26857465	HEMORR	07/09/1999
26845358	HEMORR	28/10/2008
26863480	HEMORR	11/03/2008
26864578	HEMORR	04/06/2010
26887343	HEMORR	05/01/2007
26888222	HEMORR	03/09/2007
26874108	HEMORR	18/10/2000
26896679	HEMORR	07/03/2005
26873733	HEMORR	01/06/2011
26932135	HEMORR	22/12/2003
26936159	HEMORR	06/11/2001
26877189	HEMORR	24/05/2006
26864451	HEMORR	28/09/2005
26859561	HEMORR	01/05/2010
26874201	HEMORR	19/06/2008
26847638	HEMORR	08/04/2005
26942306	HEMORR	13/01/2010
26845241	HEMORR	13/05/2011
26872947	HEMORR	15/04/2011
26888607	HEMORR	31/07/2007
26802136	HEMORR	27/10/2008
26824314	HEMORR	19/02/2007
26855158	HEMORR	23/03/2009
26805409	HEMORR	11/11/2010
26762243	HEMORR	12/09/2005
26792107	HEMORR	12/09/2007
26789735	HEMORR	25/04/2007
26776452	HEMORR	15/02/2006
26794903	HEMORR	20/10/2009
26776303	HEMORR	24/05/2011
26760950	HEMORR	24/11/2007
26712779	HEMORR	19/03/2003
26789993	HEMORR	07/11/2007
26717001	HEMORR	18/09/2007
26717132	HEMORR	06/03/2006
26711151	HEMORR	26/06/1937
26825165	HEMORR	21/12/2009
26824728	HEMORR	22/12/2004
26804665	HEMORR	08/03/2010
26833689	HEMORR	19/05/2010
26712316	HEMORR	29/08/2006
26995682	HEMORR	19/06/2009
26953449	HEMORR	10/06/1997
26966714	HEMORR	13/11/2006
26976959	HEMORR	10/08/2006
26999711	HEMORR	17/05/2011
27051381	HEMORR	11/11/2009
26957990	HEMORR	25/10/2006
26990024	HEMORR	07/11/2008
27055138	HEMORR	04/11/2008
26988800	HEMORR	15/10/1979
27067241	HEMORR	17/08/2007
26990483	HEMORR	26/05/2008
26956977	HEMORR	06/10/2010
26973247	HEMORR	16/09/2005
26939961	HEMORR	25/04/2006
26992176	HEMORR	01/10/2007
26975257	HEMORR	06/08/2008
26945995	HEMORR	20/01/2005
27106289	HEMORR	01/12/2008
27126956	HEMORR	27/06/2008
27086485	HEMORR	21/04/2005
27151224	HEMORR	29/04/2011
27101571	HEMORR	16/01/2006
27104040	HEMORR	28/05/2008
27077499	HEMORR	23/07/2009
27113773	HEMORR	28/03/2007
27132865	HEMORR	03/05/1978
27111422	HEMORR	23/12/2009
27085859	HEMORR	13/09/2010
27082944	HEMORR	24/05/2006
27112272	HEMORR	04/07/2005
27086224	HEMORR	06/03/2009
27149827	HEMORR	31/08/2009
27116096	HEMORR	27/05/2006
27133476	HEMORR	17/01/2006
27133477	HEMORR	09/02/2006
27151096	HEMORR	09/05/2005
27100098	HEMORR	23/03/2011
27130162	HEMORR	15/06/2004
27154320	HEMORR	09/02/2009
27115263	HEMORR	28/07/2004
27055690	HEMORR	10/09/2007
27033025	HEMORR	22/10/1925
27031641	HEMORR	27/08/2008
27043480	HEMORR	08/08/2006
27065167	HEMORR	26/01/2005
27061447	HEMORR	04/03/2009
27031739	HEMORR	07/02/2003
27043267	HEMORR	21/02/2006
27046890	HEMORR	09/10/2008
27042887	HEMORR	16/05/2007
27029722	HEMORR	13/01/2011
27127065	HEMORR	03/06/2003
27061753	HEMORR	24/05/2006
27072298	HEMORR	26/11/2008
27104742	HEMORR	09/02/2010
27033644	HEMORR	12/12/2005
27082854	HEMORR	21/09/2010
27074929	HEMORR	24/11/2005
27106068	HEMORR	27/02/2009
27073977	HEMORR	30/06/2010
27042973	HEMORR	31/01/2009
27078801	HEMORR	24/11/2004
27072046	HEMORR	22/07/2010
27033531	HEMORR	01/02/2010
27035138	HEMORR	29/05/2009
27055068	HEMORR	27/10/2009
27054638	HEMORR	09/11/2010
27051821	HEMORR	18/06/2009
27046535	HEMORR	07/06/2007
27116340	HEMORR	05/05/1960
27037293	HEMORR	16/06/2007
27038308	HEMORR	13/02/2006
26992138	HEMORR	13/02/2008
26994757	HEMORR	03/04/2009
27040570	HEMORR	25/01/2005
27042033	HEMORR	06/06/2007
26994454	HEMORR	17/08/2007
27024244	HEMORR	16/07/2003
26998280	HEMORR	18/11/2005
26978032	HEMORR	19/04/2007
27041316	HEMORR	26/07/2007
27005694	HEMORR	05/10/2010
27039385	HEMORR	13/10/2010
27038352	HEMORR	20/05/2008
26978263	HEMORR	23/05/2007
26978534	HEMORR	05/11/2007
26994966	HEMORR	26/05/2011
27036864	HEMORR	11/09/2008
27014363	HEMORR	20/05/1988
27029269	HEMORR	30/07/2010
26991142	HEMORR	11/06/2010
26994692	HEMORR	21/07/2009
27000566	HEMORR	19/09/2006
26993286	HEMORR	06/03/2006
27039199	HEMORR	29/05/2008
26996651	HEMORR	21/12/2007
27024702	HEMORR	18/09/2009
27039849	HEMORR	27/05/2004
27359134	HEMORR	11/05/2001
27400146	HEMORR	26/07/2010
27233913	HEMORR	14/01/2008
27348961	HEMORR	24/11/2008
27169345	HEMORR	25/01/2006
27325553	HEMORR	27/09/2005
27325566	HEMORR	15/07/2005
27286384	HEMORR	18/09/2007
27170821	HEMORR	14/01/2009
27153865	HEMORR	02/06/2003
27150434	HEMORR	07/10/2009
27396446	HEMORR	16/01/2009
27169373	HEMORR	13/01/2002
27248578	HEMORR	14/12/2004
27245557	HEMORR	28/12/2004
27138511	HEMORR	25/05/2009
27389472	HEMORR	05/11/2007
27168097	HEMORR	13/06/2005
27138466	HEMORR	20/01/2006
27399841	HEMORR	16/07/2009
27388795	HEMORR	02/12/2008
27171067	HEMORR	31/03/2009
27364127	HEMORR	08/01/2003
27286965	HEMORR	07/10/2004
27372468	HEMORR	26/03/2008
27253612	HEMORR	15/06/2009
27244538	HEMORR	20/10/2005
27314992	HEMORR	23/05/2008
27198682	HEMORR	20/04/2011
27313900	HEMORR	10/05/1936
27243228	HEMORR	17/06/2003
27233596	HEMORR	29/01/2003
27323721	HEMORR	03/02/2011
27247303	HEMORR	26/01/2006
27351291	HEMORR	03/03/2005
27220475	HEMORR	02/05/2011
27304954	HEMORR	23/12/2010
27219432	HEMORR	09/06/2006
27308809	HEMORR	04/02/2008
27247846	HEMORR	14/07/1942
27355027	HEMORR	15/09/2006
27315277	HEMORR	24/11/1949
27369449	HEMORR	25/01/1958
27371161	HEMORR	30/06/2009
27358392	HEMORR	21/10/2004
27306463	HEMORR	05/05/2010
27198647	HEMORR	20/03/2007
27349595	HEMORR	10/11/2004
27316072	HEMORR	01/12/2004
27369910	HEMORR	20/04/2005
27366918	HEMORR	10/12/2004
27308294	HEMORR	01/01/1982
27352037	HEMORR	21/02/2011
27349758	HEMORR	04/03/2005
27351539	HEMORR	30/05/2011
27348027	HEMORR	04/05/1939
27168989	HEMORR	21/03/2006
27296141	HEMORR	22/12/2008
27370248	HEMORR	07/09/2003
27320475	HEMORR	24/11/2003
27347663	HEMORR	25/03/1938
27359307	HEMORR	28/02/2006
27172066	HEMORR	31/07/2008
27325485	HEMORR	14/09/1959
27319826	HEMORR	29/07/2008
27317716	HEMORR	26/10/2010
27326487	HEMORR	21/04/2008
27308559	HEMORR	06/06/1991
27306621	HEMORR	04/02/2005
27390498	HEMORR	14/01/2010
27253823	HEMORR	18/05/2001
27217716	HEMORR	28/02/2011
26970494	HEMORR	04/11/2003
26967253	HEMORR	05/05/2004
27249549	HEMORR	18/08/2004
26999501	HEMORR	17/10/2007
27173291	HEMORR	21/12/2009
27217481	HEMORR	02/09/2005
26967092	HEMORR	07/08/2003
26957779	HEMORR	05/02/2009
26999943	HEMORR	16/03/2006
27389179	HEMORR	19/03/1933
26957279	HEMORR	11/03/2008
27242588	HEMORR	20/11/2003
26955105	HEMORR	11/02/2004
26957237	HEMORR	28/01/2010
27252810	HEMORR	25/05/1937
27252188	HEMORR	20/04/2006
27247445	HEMORR	30/10/2006
27241952	HEMORR	23/10/2009
27579610	HEMORR	30/08/2005
27605675	HEMORR	24/10/2006
27557859	HEMORR	29/07/2009
27571413	HEMORR	13/06/2006
27632436	HEMORR	16/02/2006
27596914	HEMORR	22/08/2005
27659256	HEMORR	27/06/2006
27579016	HEMORR	19/07/2005
27592658	HEMORR	03/06/2004
27642131	HEMORR	04/12/2008
27571038	HEMORR	26/07/2004
27576845	HEMORR	09/02/2010
27592604	HEMORR	11/03/2011
27589371	HEMORR	08/01/2008
27622754	HEMORR	20/12/2005
27596947	HEMORR	16/03/2005
27579512	HEMORR	03/04/2007
27647784	HEMORR	06/08/2004
27596970	HEMORR	16/08/1948
27600750	HEMORR	24/09/2010
27601592	HEMORR	11/03/2009
27595836	HEMORR	09/06/2006
27601651	HEMORR	27/02/2010
27614105	HEMORR	27/10/2008
27645042	HEMORR	14/10/2005
27624082	HEMORR	03/08/2006
27606372	HEMORR	04/10/2008
27592232	HEMORR	08/01/2009
27641749	HEMORR	25/06/2007
27647983	HEMORR	27/08/2010
27578704	HEMORR	16/02/2005
27709192	HEMORR	13/09/2007
27442320	HEMORR	16/03/2006
27661768	HEMORR	02/08/2007
27481247	HEMORR	15/11/2007
27414554	HEMORR	27/01/2006
27481161	HEMORR	23/08/2008
27578871	HEMORR	03/11/2010
27420591	HEMORR	14/05/2004
27481175	HEMORR	27/07/2006
27476748	HEMORR	18/01/2005
27452290	HEMORR	18/03/2004
27639633	HEMORR	12/01/2005
27443986	HEMORR	12/11/2005
27426126	HEMORR	21/06/2010
27427591	HEMORR	13/05/2004
27471371	HEMORR	21/09/2005
27476227	HEMORR	10/10/2008
27414845	HEMORR	25/05/2009
27475707	HEMORR	31/08/2007
27415193	HEMORR	28/06/2002
27474892	HEMORR	08/07/2009
27460445	HEMORR	11/10/2004
27645599	HEMORR	30/10/2003
27477467	HEMORR	26/08/2010
27472715	HEMORR	27/11/2009
27414394	HEMORR	23/12/2005
27448710	HEMORR	26/02/2010
27460599	HEMORR	02/12/2009
27573896	HEMORR	16/07/2008
27414013	HEMORR	02/11/2006
27445319	HEMORR	23/11/2007
27695585	HEMORR	17/06/2010
27757050	HEMORR	01/09/2004
27717185	HEMORR	07/01/2011
27759030	HEMORR	21/06/2006
27452389	HEMORR	16/07/2009
27719211	HEMORR	10/03/2006
27614528	HEMORR	21/11/2006
27765553	HEMORR	17/01/2003
27621282	HEMORR	02/10/1951
27553803	HEMORR	26/10/2004
27607215	HEMORR	18/04/2008
27621512	HEMORR	10/10/2005
27621743	HEMORR	27/02/2007
27605030	HEMORR	16/11/2005
27545610	HEMORR	21/01/2009
27631405	HEMORR	22/02/2002
27614612	HEMORR	19/01/2007
27614614	HEMORR	01/01/1960
27614866	HEMORR	29/05/2008
27614461	HEMORR	28/03/2008
27614490	HEMORR	01/08/2002
27544017	HEMORR	24/08/2005
27757330	HEMORR	08/07/2009
27633086	HEMORR	26/08/2005
27719035	HEMORR	31/05/2007
27708618	HEMORR	11/04/2005
27167709	HEMORR	23/06/2010
27151909	HEMORR	26/01/2007
27132575	HEMORR	03/11/2004
27658878	HEMORR	14/01/2002
27153968	HEMORR	30/03/2005
27129607	HEMORR	13/05/2010
27148141	HEMORR	19/05/2006
27148314	HEMORR	16/07/2007
27153690	HEMORR	08/09/2005
27247057	HEMORR	23/09/2003
27159650	HEMORR	29/12/2008
27147888	HEMORR	15/12/2003
27130060	HEMORR	05/01/2010
27167758	HEMORR	06/09/2005
27153800	HEMORR	14/01/2008
27138370	HEMORR	20/12/2009
27164172	HEMORR	08/02/2009
27250372	HEMORR	17/10/2001
27285919	HEMORR	05/11/2003
27165699	HEMORR	24/08/2004
27413979	HEMORR	26/01/2005
27165781	HEMORR	28/02/2008
27143273	HEMORR	04/09/2009
27127843	HEMORR	25/09/1994
27476329	HEMORR	13/09/2005
27782634	HEMORR	06/02/2009
27055053	HEMORR	22/11/2010
27217239	HEMORR	28/10/2008
27246258	HEMORR	22/04/2010
26899689	HEMORR	07/04/2009
26976144	HEMORR	21/03/2005
26833079	HEMORR	19/09/1935
27072081	HEMORR	22/02/2011
27126591	HEMORR	04/06/2009
26857035	HEMORR	21/06/2007
26829603	HEMORR	01/01/2005
27248683	HEMORR	17/01/1990
27237301	HEMORR	02/10/2010
27244772	HEMORR	23/02/2009
27597550	HEMORR	26/05/2006
27783016	HEMORR	29/12/2005
26846863	HEMORR	21/09/2006
27780235	HEMORR	28/03/2006
463450	HEMORR	22/07/2009
27035691	HEMORR	15/10/2002
27038840	HEMORR	19/08/2004
27538564	HEMORR	21/04/2010
27772101	HEMORR	23/07/2009
27683129	HEMORR	15/10/2007
27773248	HEMORR	26/08/2004
27779059	HEMORR	09/08/2007
27669827	HEMORR	30/08/2005
27782467	HEMORR	03/01/2007
27676122	HEMORR	08/03/2010
27530707	HEMORR	30/08/1993
27459362	HEMORR	11/11/1999
27475521	HEMORR	10/07/2008
27317365	HEMORR	19/10/2006
27687182	HEMORR	30/08/2010
27531095	HEMORR	20/11/2008
27669980	HEMORR	30/01/2007
27767142	HEMORR	18/02/2005
27666079	HEMORR	09/12/2003
1359153	HEMORR	10/01/2005
27767877	HEMORR	30/04/2007
27774399	HEMORR	30/06/2010
27784619	HEMORR	11/09/2003
25742146	HEMORR	12/08/2009
27531259	HEMORR	11/09/2006
27780388	HEMORR	22/07/2003
26888348	HEMORR	23/05/2006
27533492	HEMORR	11/11/2003
24661879	HEMORR	01/01/2000
27675773	HEMORR	30/03/2007
301444	HEMORR	22/03/2002
27369999	HEMORR	19/12/1946
19423467	HEMORR	11/04/2007
26992037	HEMORR	12/07/2010
26997885	HEMORR	22/04/2005
27780623	HEMORR	02/12/2005
421835	HEMORR	27/12/2001
27680743	HEMORR	02/04/1957
1017321	HEMORR	31/01/2003
27708482	HEMORR	17/08/2004
27682379	HEMORR	29/09/2008
26761997	HEMORR	21/09/2009
27681780	HEMORR	27/06/2007
27682306	HEMORR	29/01/2004
428160	HEMORR	18/12/2006
16104431	HEMORR	06/10/2006
26879411	HEMORR	15/01/2010
27648562	HEMORR	26/05/2009
27540587	HEMORR	01/08/2005
27539930	HEMORR	31/01/2005
27633578	HEMORR	30/05/2011
27471936	HEMORR	08/08/2007
27496720	HEMORR	14/12/2009
27473750	HEMORR	06/06/2006
27661056	HEMORR	15/05/2010
27480242	HEMORR	01/12/2007
27540653	HEMORR	27/01/2010
27644736	HEMORR	26/09/2006
27659077	HEMORR	03/06/2005
27321099	HEMORR	17/05/2010
27454480	HEMORR	11/12/2010
27443440	HEMORR	28/11/2007
27597325	HEMORR	13/08/2007
27459762	HEMORR	13/12/2006
27539523	HEMORR	10/06/2006
27540250	HEMORR	05/02/2010
27623685	HEMORR	22/12/2005
27302855	HEMORR	03/07/2009
27444508	HEMORR	16/03/2006
27450011	HEMORR	22/03/2004
27529553	HEMORR	07/08/2000
27301070	HEMORR	12/08/2005
26895421	HEMORR	09/01/2006
27673521	HEMORR	05/07/2010
27553310	HEMORR	17/12/2007
27074467	HEMORR	04/05/2010
26628258	HEMORR	16/06/2010
26830544	HEMORR	03/04/2006
6050147	HEMORR	08/05/2008
27620824	HEMORR	20/05/2009
26791181	HEMORR	28/04/2009
24668612	HEMORR	28/10/2008
21651701	HEMORR	10/02/2006
27683064	HEMORR	17/06/2008
27764992	HEMORR	07/05/2003
19799771	HEMORR	21/03/2006
27796621	HEMORR	02/12/2004
21705761	HEMORR	25/08/2008
2963966	HEMORR	31/07/2002
26946173	HEMORR	20/01/2005
26619290	HEMORR	20/10/2007
27799844	HEMORR	08/08/2010
26878586	HEMORR	10/12/1999
26779066	HEMORR	18/09/2009
27808521	HEMORR	30/04/2009
27803448	HEMORR	30/03/2004
26971047	HEMORR	31/01/2006
26760247	HEMORR	21/06/2006
26742398	HEMORR	10/12/2004
428085	HEMORR	20/06/2008
27763744	HEMORR	18/05/2009
27663903	HEMORR	10/06/2010
27707583	HEMORR	03/06/2010
27759244	HEMORR	03/07/1966
27668920	HEMORR	08/02/2006
27686953	HEMORR	31/10/2005
27797371	HEMORR	11/10/2010
27668942	HEMORR	04/02/2008
27799100	HEMORR	10/02/2010
27718674	HEMORR	02/07/2010
27762253	HEMORR	17/02/2005
27716815	HEMORR	09/06/2008
27682864	HEMORR	30/04/2009
27686175	HEMORR	19/08/2005
27668986	HEMORR	25/09/2008
27764267	HEMORR	28/09/2004
27795442	HEMORR	01/07/2003
27797699	HEMORR	24/08/2005
26730671	HEMORR	21/10/2003
40446	HEMORR	20/09/2006
1373348	HEMORR	13/03/2007
27325643	HEMORR	23/09/2008
26980891	HEMORR	11/11/2005
27474579	HEMORR	03/03/2006
18188132	HEMORR	01/01/2000
26804065	HEMORR	05/06/1999
27565622	HEMORR	09/01/2007
27470938	HEMORR	18/04/1932
26895907	HEMORR	01/10/2009
27025860	HEMORR	12/06/2007
27773732	HEMORR	02/12/2010
423194	HEMORR	07/01/2008
23484255	HEMORR	01/04/2005
26768870	HEMORR	20/02/2009
27455370	HEMORR	21/01/2008
27797057	HEMORR	21/09/2009
27539994	HEMORR	14/01/2011
27614816	HEMORR	08/09/2005
26802254	HEMORR	28/06/2010
27707309	HEMORR	24/07/2006
26834550	HEMORR	14/06/1971
26848080	HEMORR	18/08/2003
27780895	HEMORR	28/04/2009
27782172	HEMORR	10/03/2003
27213663	HEMORR	18/11/2010
27785454	HEMORR	08/04/2009
27794220	HEMORR	29/01/2009
26866438	HEMORR	27/04/2007
27759993	HEMORR	22/05/2007
2957951	HEMORR	05/09/2008
26711256	HEMORR	01/04/2009
27245530	HEMORR	04/06/2010
27809266	HEMORR	24/11/2008
27037506	HEMORR	09/08/2005
27756485	HEMORR	14/09/1972
27608037	HEMORR	01/02/2005
27084228	HEMORR	08/02/2008
27761679	HEMORR	14/05/2009
27796173	HEMORR	10/04/2006
27767563	HEMORR	02/06/2010
27168190	HEMORR	05/10/2010
27811520	HEMORR	05/05/2004
27666811	HEMORR	12/08/2009
26873786	HEMORR	07/11/2006
33024650	HEMORR	15/03/2011
33056882	HEMORR	02/05/2006
33103102	HEMORR	09/03/2006
33020018	HEMORR	16/10/2007
33008475	HEMORR	05/11/2009
33035460	HEMORR	19/04/2004
33106412	HEMORR	22/12/2008
33027621	HEMORR	04/03/2010
33005769	HEMORR	26/08/2008
33023460	HEMORR	22/07/2008
33086922	HEMORR	08/08/2003
33055424	HEMORR	16/04/2009
33092896	HEMORR	07/02/2002
33076772	HEMORR	17/11/2009
33011602	HEMORR	27/11/2007
33058109	HEMORR	26/10/2000
33007275	HEMORR	08/12/1943
33044335	HEMORR	04/04/2001
33055329	HEMORR	01/09/2010
33067601	HEMORR	16/11/2005
33089459	HEMORR	25/10/2010
33033863	HEMORR	06/08/2007
33069210	HEMORR	16/12/2004
33015149	HEMORR	01/03/2005
33051968	HEMORR	20/01/2011
33129205	HEMORR	03/06/2009
33005974	HEMORR	25/08/2001
33051991	HEMORR	07/04/2010
33105346	HEMORR	05/06/2006
33071273	HEMORR	13/01/2006
33069367	HEMORR	18/03/2010
33003988	HEMORR	18/02/2010
33081354	HEMORR	13/04/2010
33029033	HEMORR	26/11/2007
33106608	HEMORR	16/04/1936
33113036	HEMORR	25/02/2011
33072290	HEMORR	10/03/2004
33000739	HEMORR	20/04/2005
33056431	HEMORR	10/08/2004
33081884	HEMORR	08/10/2010
33070878	HEMORR	04/06/2001
33068754	HEMORR	14/04/2011
33111017	HEMORR	30/10/2006
33012705	HEMORR	01/10/2007
33070190	HEMORR	13/10/2004
33052130	HEMORR	28/02/2005
33018999	HEMORR	14/07/2010
33106108	HEMORR	01/08/2008
33117202	HEMORR	01/08/2006
33079850	HEMORR	25/09/2008
33018342	HEMORR	29/01/2009
33072464	HEMORR	26/10/2010
33005386	HEMORR	30/11/2005
33098674	HEMORR	25/01/2002
33020581	HEMORR	16/11/2005
33043614	HEMORR	11/03/2008
33107313	HEMORR	02/12/2002
33050983	HEMORR	17/07/1940
33012828	HEMORR	20/09/2005
33038806	HEMORR	24/01/2011
33008971	HEMORR	16/10/2006
33118796	HEMORR	13/11/2007
33093456	HEMORR	21/01/2011
33011503	HEMORR	10/09/2004
33106201	HEMORR	05/08/1969
33084983	HEMORR	24/01/2011
33065816	HEMORR	12/09/2002
33096415	HEMORR	17/09/2004
33005410	HEMORR	23/06/2009
33071989	HEMORR	22/02/2011
33005008	HEMORR	14/03/1955
33004416	HEMORR	04/07/2007
33068552	HEMORR	13/09/2000
33011692	HEMORR	09/11/2009
33005545	HEMORR	28/05/2010
33037551	HEMORR	20/02/2009
26636182	HEMORR	25/06/2009
1368092	HEMORR	19/08/2009
19967442	HEMORR	02/01/2011
1912842	HEMORR	10/12/2003
26866280	HEMORR	28/05/2007
420958	HEMORR	21/12/1998
26972182	HEMORR	24/03/2011
418915	HEMORR	01/06/2009
19422878	HEMORR	27/08/2009
2251569	HEMORR	23/05/2007
26881208	HEMORR	23/09/2004
27321282	HEMORR	08/01/2007
33042521	HEMORR	24/09/2008
183728	HEMORR	11/02/2004
26720873	HEMORR	10/09/2004
1905033	HEMORR	31/12/2010
27800569	HEMORR	12/09/2007
3057080	HEMORR	19/05/2009
27805346	HEMORR	14/06/2005
13873657	HEMORR	05/09/2007
24669077	HEMORR	13/05/2005
1373130	HEMORR	21/06/2006
2958097	HEMORR	05/11/2001
27801947	HEMORR	23/09/2003
33002823	HEMORR	23/09/2010
27199922	HEMORR	16/11/2009
27086613	HEMORR	20/12/2006
16840498	HEMORR	01/01/1995
33020523	HEMORR	02/01/2001
28018387	HEMORR	02/06/2010
28013502	HEMORR	06/07/2006
27912198	HEMORR	29/06/2009
28019253	HEMORR	26/01/2007
21114673	HEMORR	29/06/2007
16774501	HEMORR	08/08/2005
16600736	HEMORR	03/09/2001
33034636	HEMORR	11/09/2001
28017369	HEMORR	03/08/2009
16135206	HEMORR	27/05/2008
16184008	HEMORR	31/03/2008
33046012	HEMORR	16/12/2004
16633713	HEMORR	24/08/2004
23329126	HEMORR	12/07/2009
16619763	HEMORR	16/11/2009
16601297	HEMORR	03/12/1969
16612746	HEMORR	30/08/2005
16614031	HEMORR	12/04/2007
33234595	HEMORR	02/09/2008
33007194	HEMORR	25/10/2001
33104458	HEMORR	28/11/2007
33030964	HEMORR	16/11/2005
33012908	HEMORR	26/10/2010
33089746	HEMORR	08/02/2002
33024104	HEMORR	19/12/2003
33134827	HEMORR	29/03/2010
33033258	HEMORR	05/02/2010
33101479	HEMORR	14/12/2009
33099079	HEMORR	18/02/2003
33030487	HEMORR	14/07/2003
33106850	HEMORR	11/11/2008
33026712	HEMORR	05/12/2001
33015324	HEMORR	29/05/2008
33056325	HEMORR	02/11/2006
33089297	HEMORR	27/09/2007
33051621	HEMORR	24/03/2008
33030460	HEMORR	11/12/2002
33035010	HEMORR	21/12/2005
33050233	HEMORR	03/11/2005
33089370	HEMORR	29/08/2008
33069704	HEMORR	15/01/2007
33063405	HEMORR	29/10/2008
33005736	HEMORR	21/08/2001
33116651	HEMORR	03/06/2008
33099541	HEMORR	29/01/2007
33073451	HEMORR	15/06/2006
33091178	HEMORR	19/12/2006
33103405	HEMORR	13/07/2010
33074992	HEMORR	11/11/2008
33026699	HEMORR	07/04/2006
33017410	HEMORR	22/11/2005
33090933	HEMORR	02/02/2011
33106615	HEMORR	16/03/2010
33025768	HEMORR	22/11/2002
33056972	HEMORR	16/05/2008
33033729	HEMORR	28/02/2006
33007224	HEMORR	13/12/2007
33111035	HEMORR	30/08/2006
33044431	HEMORR	10/12/2008
33085777	HEMORR	20/04/2011
33005415	HEMORR	18/06/2009
33086557	HEMORR	23/11/2005
33060239	HEMORR	07/12/2001
33050169	HEMORR	13/04/2002
33115156	HEMORR	13/10/2010
33107252	HEMORR	02/04/2007
33089997	HEMORR	22/09/2010
33045445	HEMORR	28/01/1956
33088645	HEMORR	15/01/2010
33088209	HEMORR	14/10/2008
33022447	HEMORR	04/04/2011
33061115	HEMORR	06/08/2009
33049697	HEMORR	23/10/2009
33072029	HEMORR	11/02/2010
33073628	HEMORR	28/09/2010
33055038	HEMORR	17/01/2007
33011514	HEMORR	21/07/2000
33109860	HEMORR	22/02/2011
33007891	HEMORR	10/11/2009
33007317	HEMORR	17/11/2001
33044430	HEMORR	09/10/2002
33086595	HEMORR	27/10/2004
33073437	HEMORR	03/07/2007
33069023	HEMORR	05/10/2006
33098351	HEMORR	16/06/2003
33073480	HEMORR	03/10/2001
33100135	HEMORR	29/01/2007
33058347	HEMORR	11/10/2005
33073595	HEMORR	27/05/2009
33044074	HEMORR	10/04/2007
33060706	HEMORR	06/03/2009
33058122	HEMORR	24/08/2004
33116126	HEMORR	11/03/2002
33012988	HEMORR	16/05/2006
33034248	HEMORR	13/04/2011
18769476	HEMORR	24/03/1961
16713420	HEMORR	06/11/2007
16166333	HEMORR	28/12/2004
16169338	HEMORR	02/05/2006
27834131	HEMORR	28/05/2009
16639146	HEMORR	26/05/2010
23381646	HEMORR	01/07/2008
23328848	HEMORR	04/11/1952
16684319	HEMORR	14/05/2003
16596794	HEMORR	25/10/2006
16626011	HEMORR	01/04/1981
16138756	HEMORR	19/12/2003
14187882	HEMORR	01/08/2006
21109661	HEMORR	18/11/2003
16683944	HEMORR	08/07/2009
27848563	HEMORR	16/11/2009
16607333	HEMORR	16/10/2006
33219167	HEMORR	22/10/2002
33244530	HEMORR	15/05/2002
20983485	HEMORR	30/04/2010
16601456	HEMORR	29/11/2005
21114621	HEMORR	20/03/2007
33233059	HEMORR	25/04/2005
28021554	HEMORR	30/11/2007
33200808	HEMORR	22/09/2008
16608295	HEMORR	12/04/2004
33308377	HEMORR	14/10/2008
16652525	HEMORR	02/07/2009
16595962	HEMORR	20/08/2004
16596009	HEMORR	17/05/2005
16615306	HEMORR	01/01/1987
18769506	HEMORR	26/12/2002
16713326	HEMORR	15/12/2006
21115010	HEMORR	04/04/2011
33304384	HEMORR	15/04/2004
33293731	HEMORR	15/04/2005
16597365	HEMORR	03/10/2007
16640222	HEMORR	12/03/2009
21114264	HEMORR	24/01/2007
21113911	HEMORR	21/06/2007
23362937	HEMORR	28/06/2010
21001195	HEMORR	28/09/2005
16601498	HEMORR	23/07/2002
28013389	HEMORR	25/11/1986
16712995	HEMORR	16/12/2010
16596125	HEMORR	07/03/2008
33315700	HEMORR	12/01/2009
16684438	HEMORR	14/02/2008
16171684	HEMORR	29/10/2010
16653595	HEMORR	16/06/2008
28022811	HEMORR	20/11/2008
23362211	HEMORR	17/10/2010
18762263	HEMORR	14/09/2009
23329499	HEMORR	11/07/2005
16596222	HEMORR	30/03/2005
33305599	HEMORR	21/01/2011
16596957	HEMORR	20/10/2009
33305060	HEMORR	06/04/2009
18756396	HEMORR	01/05/2003
16184630	HEMORR	18/06/2010
21116473	HEMORR	13/04/2011
16640685	HEMORR	01/06/2010
16713884	HEMORR	15/03/2011
16636874	HEMORR	24/06/2005
16653497	HEMORR	06/02/1961
33210334	HEMORR	03/05/2011
16601120	HEMORR	27/05/2002
20982073	HEMORR	13/05/2010
16619366	HEMORR	18/02/2004
33200178	HEMORR	20/10/2009
16168527	HEMORR	30/09/2002
16648298	HEMORR	24/08/2005
23354990	HEMORR	03/08/2009
21010991	HEMORR	03/01/2003
18769407	HEMORR	13/01/2003
23366881	HEMORR	24/02/2010
23402038	HEMORR	03/10/2005
23370714	HEMORR	25/03/2011
20986036	HEMORR	30/03/2009
16649374	HEMORR	20/10/2008
16649380	HEMORR	17/08/2005
16128229	HEMORR	22/11/2000
16130322	HEMORR	29/06/2002
16186342	HEMORR	19/04/2003
16124945	HEMORR	28/01/2011
16648550	HEMORR	20/05/2009
33308519	HEMORR	07/05/1952
16621458	HEMORR	15/01/2008
23411989	HEMORR	20/12/2004
23336596	HEMORR	22/03/2005
16610026	HEMORR	25/06/2007
33305856	HEMORR	30/08/2005
16623056	HEMORR	20/05/2004
16625092	HEMORR	08/08/2007
23401982	HEMORR	27/12/2006
16684728	HEMORR	29/08/2003
16602684	HEMORR	16/02/2004
18762901	HEMORR	12/01/2011
23362640	HEMORR	18/09/2008
33202818	HEMORR	29/12/1931
16169664	HEMORR	05/12/2000
33232371	HEMORR	12/02/1970
33232451	HEMORR	03/09/1969
27914103	HEMORR	18/11/2009
27913205	HEMORR	09/05/2005
23409483	HEMORR	27/05/2005
14187360	HEMORR	06/05/2002
23396615	HEMORR	29/12/2003
16177936	HEMORR	10/07/2009
27954341	HEMORR	30/04/2003
33293319	HEMORR	28/05/2002
16653716	HEMORR	03/05/2010
28000766	HEMORR	09/01/2009
33235681	HEMORR	16/10/2008
16774588	HEMORR	26/08/2005
16639203	HEMORR	21/04/2008
28022506	HEMORR	22/07/2008
23364075	HEMORR	31/03/2011
16181604	HEMORR	13/11/2008
23350624	HEMORR	12/03/2010
23353839	HEMORR	08/09/2006
23333345	HEMORR	16/04/2010
16621667	HEMORR	10/01/2007
16631801	HEMORR	22/06/2010
16178121	HEMORR	10/03/2008
23410738	HEMORR	16/03/2010
16607104	HEMORR	24/05/2010
23353502	HEMORR	19/01/2011
16634389	HEMORR	01/06/2006
23333342	HEMORR	29/05/2009
23412762	HEMORR	11/02/2005
16597957	HEMORR	05/09/2006
20987632	HEMORR	28/04/2005
16607281	HEMORR	06/06/2005
16602899	HEMORR	28/04/2010
23327123	HEMORR	08/05/2009
23366586	HEMORR	15/06/1999
23350072	HEMORR	11/09/2008
27927780	HEMORR	15/02/2006
23405406	HEMORR	28/04/2011
16607017	HEMORR	26/04/2010
14189326	HEMORR	14/07/2010
16709056	HEMORR	01/03/2007
21030733	HEMORR	09/10/2008
20982124	HEMORR	12/02/2004
33201602	HEMORR	09/10/2002
33234709	HEMORR	12/11/2001
33225982	HEMORR	02/05/2008
16634388	HEMORR	21/03/2006
16139599	HEMORR	15/05/2000
14187326	HEMORR	31/07/2003
16775145	HEMORR	13/06/2008
28019289	HEMORR	10/10/2008
16636548	HEMORR	15/03/2007
24462602	HEMORR	11/09/2010
16684190	HEMORR	11/10/2004
24463513	HEMORR	21/07/2010
16606808	HEMORR	18/01/2006
27984060	HEMORR	15/01/2008
23381223	HEMORR	16/03/2006
23362153	HEMORR	16/08/2007
33266891	HEMORR	30/06/2008
16166372	HEMORR	07/11/2005
31325788	HEMORR	18/04/2011
31310309	HEMORR	01/04/2005
32140932	HEMORR	15/10/2008
31865293	HEMORR	16/04/2004
31954021	HEMORR	03/12/2004
31434046	HEMORR	11/05/2011
32069685	HEMORR	17/03/2009
31364482	HEMORR	14/09/2005
31465264	HEMORR	13/05/2008
31429184	HEMORR	08/10/2010
32156704	HEMORR	14/10/2009
31697111	HEMORR	14/10/2004
31592972	HEMORR	10/04/2011
23317066	HEMORR	12/01/2004
33287335	HEMORR	28/08/2008
23398109	HEMORR	20/04/2004
16623961	HEMORR	25/02/2009
23350352	HEMORR	01/06/2009
33233536	HEMORR	14/07/1961
23291864	HEMORR	29/03/2006
16630904	HEMORR	02/12/2003
23337374	HEMORR	15/12/2006
16652601	HEMORR	01/12/2006
27847320	HEMORR	19/01/2005
18761634	HEMORR	23/05/2011
16712464	HEMORR	26/08/2007
16625422	HEMORR	20/10/2006
33293830	HEMORR	03/12/2009
23319191	HEMORR	29/06/2007
33316112	HEMORR	03/03/2010
33288276	HEMORR	01/03/2011
16608455	HEMORR	15/04/2011
16598340	HEMORR	20/12/2002
18762967	HEMORR	26/06/2007
23401789	HEMORR	15/06/2005
33246892	HEMORR	17/10/2006
27946149	HEMORR	13/04/1999
16639640	HEMORR	15/01/2008
16654459	HEMORR	23/03/2007
16631824	HEMORR	05/11/2004
28020061	HEMORR	11/02/2009
23404775	HEMORR	11/07/2005
23367389	HEMORR	01/01/2000
23367589	HEMORR	30/06/2006
16124689	HEMORR	06/07/2005
23326983	HEMORR	30/03/2007
20987135	HEMORR	15/11/2010
20989863	HEMORR	05/04/2010
33245160	HEMORR	09/05/2006
16599262	HEMORR	30/11/1958
16124541	HEMORR	15/07/2003
16598711	HEMORR	19/11/2007
20987399	HEMORR	15/03/2005
23315414	HEMORR	29/04/2008
16603132	HEMORR	20/10/2010
16166274	HEMORR	04/10/2001
16598025	HEMORR	29/03/2006
33309439	HEMORR	28/08/2007
16602756	HEMORR	05/09/2006
16621754	HEMORR	02/07/2004
16708802	HEMORR	02/02/2006
23354527	HEMORR	09/11/2010
31779027	HEMORR	11/02/2004
31280293	HEMORR	17/06/2009
31119558	HEMORR	19/07/2006
31164152	HEMORR	16/06/2009
31228694	HEMORR	04/05/2010
31767304	HEMORR	18/04/2007
31431373	HEMORR	17/03/2009
32128014	HEMORR	16/10/2000
31520986	HEMORR	15/07/2009
31856871	HEMORR	14/05/2002
31701716	HEMORR	25/01/2005
32074089	HEMORR	12/08/2008
31368284	HEMORR	14/05/2007
31589291	HEMORR	18/09/2003
32196437	HEMORR	17/02/2010
31983188	HEMORR	29/12/2003
31898892	HEMORR	22/06/1959
31835524	HEMORR	08/08/1966
31642355	HEMORR	30/01/2003
31159532	HEMORR	19/10/2009
31675939	HEMORR	05/10/2005
31954565	HEMORR	31/07/2007
31946667	HEMORR	06/02/2003
31157305	HEMORR	15/01/2010
31669449	HEMORR	22/02/2006
31641080	HEMORR	06/11/2001
31643953	HEMORR	08/05/2007
32164001	HEMORR	01/04/2011
31435208	HEMORR	05/03/2009
31682199	HEMORR	01/07/2008
32058318	HEMORR	12/01/2004
31235805	HEMORR	11/01/2010
31370194	HEMORR	07/07/2008
31429077	HEMORR	11/12/2003
32025408	HEMORR	12/05/2006
31590512	HEMORR	27/01/2006
31802366	HEMORR	10/06/2005
31451455	HEMORR	02/04/2007
31954771	HEMORR	17/02/2005
31537604	HEMORR	30/10/2006
31353977	HEMORR	12/07/2007
32005224	HEMORR	11/04/2008
31909577	HEMORR	05/08/2010
32264049	HEMORR	16/12/2004
31130015	HEMORR	28/10/1943
31818244	HEMORR	17/11/2010
32150921	HEMORR	05/10/2005
31920995	HEMORR	19/10/2005
31547137	HEMORR	04/02/2010
31246115	HEMORR	21/02/2011
32233594	HEMORR	07/11/2008
31431418	HEMORR	30/03/2006
31908448	HEMORR	29/06/2010
31573567	HEMORR	08/11/2005
31364257	HEMORR	23/11/2006
31405444	HEMORR	12/05/2003
31934885	HEMORR	09/06/2009
32175738	HEMORR	13/06/1930
32277713	HEMORR	22/06/2005
31210288	HEMORR	05/03/2004
31131718	HEMORR	20/12/2010
31664461	HEMORR	01/12/1933
31214480	HEMORR	21/10/2004
32117440	HEMORR	27/06/2003
31924162	HEMORR	31/08/2009
31344263	HEMORR	14/12/2004
31785802	HEMORR	16/04/2008
31341912	HEMORR	18/06/2006
31634372	HEMORR	07/10/2004
32246611	HEMORR	02/06/2010
31044569	HEMORR	21/01/2005
31750446	HEMORR	16/03/2005
31921252	HEMORR	19/01/2011
31591091	HEMORR	12/02/2009
31330137	HEMORR	17/01/2007
31285255	HEMORR	23/03/2010
31639847	HEMORR	13/07/2006
31112152	HEMORR	02/11/2005
31880916	HEMORR	23/01/1950
31071465	HEMORR	15/09/2005
32007060	HEMORR	14/02/2001
31491072	HEMORR	11/10/2010
31211155	HEMORR	16/11/2006
31260823	HEMORR	30/09/2009
31786755	HEMORR	04/08/2008
31104610	HEMORR	18/04/2007
31441663	HEMORR	13/12/2007
31756119	HEMORR	01/12/2008
31035346	HEMORR	09/10/2007
31796372	HEMORR	20/10/2006
31934644	HEMORR	22/02/2011
32109045	HEMORR	20/12/2010
31507970	HEMORR	13/10/2010
31067713	HEMORR	03/04/2009
31557548	HEMORR	28/05/2004
32082591	HEMORR	10/05/2005
31938606	HEMORR	02/02/2009
31175667	HEMORR	25/03/2011
31802104	HEMORR	26/11/2004
31153623	HEMORR	23/08/2004
31542289	HEMORR	22/01/2009
31034602	HEMORR	28/03/1983
31148239	HEMORR	18/01/2006
32262825	HEMORR	23/04/2009
31476879	HEMORR	11/11/2010
31709531	HEMORR	07/04/2009
32190436	HEMORR	09/07/2008
32065784	HEMORR	14/06/2010
31160581	HEMORR	30/04/1992
31969864	HEMORR	09/03/2009
31444295	HEMORR	11/12/2009
31496042	HEMORR	15/03/2011
32007801	HEMORR	08/08/2007
31692601	HEMORR	19/04/2002
31770933	HEMORR	10/05/2011
31119347	HEMORR	24/07/2006
31817965	HEMORR	29/01/2007
31979189	HEMORR	10/02/2009
31779355	HEMORR	27/09/2007
31444517	HEMORR	05/06/2007
31833062	HEMORR	31/01/2007
31642302	HEMORR	04/02/2011
32099939	HEMORR	13/09/1965
31280316	HEMORR	25/10/2007
32276693	HEMORR	14/02/2005
32250774	HEMORR	06/05/2008
31766536	HEMORR	09/03/2004
31189536	HEMORR	12/04/2010
31141532	HEMORR	07/04/2009
31451599	HEMORR	31/03/2000
31448565	HEMORR	06/03/2007
31400525	HEMORR	09/08/2004
31627593	HEMORR	30/12/2009
31879546	HEMORR	31/07/2004
31259910	HEMORR	02/11/2009
31093440	HEMORR	30/11/2005
31140970	HEMORR	06/06/2007
31412833	HEMORR	07/04/2011
32142904	HEMORR	16/11/2009
31285717	HEMORR	14/03/1947
31792698	HEMORR	16/02/2011
31198881	HEMORR	02/06/2009
31997179	HEMORR	15/04/2004
31345157	HEMORR	11/12/2009
32224890	HEMORR	06/10/1996
31884944	HEMORR	01/09/2004
31636579	HEMORR	08/11/2000
31097075	HEMORR	25/10/2007
31406972	HEMORR	22/02/2002
32008715	HEMORR	19/01/2010
32148032	HEMORR	22/12/2009
32279522	HEMORR	28/11/2008
31744955	HEMORR	29/07/2003
31346765	HEMORR	26/04/2011
31234749	HEMORR	10/06/2010
32114786	HEMORR	24/09/2007
31892616	HEMORR	18/11/2003
32221171	HEMORR	24/03/2003
31562450	HEMORR	21/03/2003
31835091	HEMORR	04/08/2005
32254883	HEMORR	01/06/2004
31455675	HEMORR	17/05/2007
31611686	HEMORR	09/05/2005
31710696	HEMORR	17/10/2006
31775845	HEMORR	11/10/2005
31324576	HEMORR	13/09/2006
31319121	HEMORR	01/07/2010
31180184	HEMORR	24/10/2006
31623714	HEMORR	08/04/2009
31722801	HEMORR	24/05/2006
31557995	HEMORR	06/10/2010
31751181	HEMORR	17/05/2005
31042312	HEMORR	18/01/2011
32038003	HEMORR	16/08/1989
31352468	HEMORR	21/01/2010
32250326	HEMORR	16/04/2010
31981392	HEMORR	22/10/2010
31207841	HEMORR	01/01/1999
31735518	HEMORR	13/09/2005
31549046	HEMORR	04/12/2008
31179422	HEMORR	08/02/2010
31062360	HEMORR	07/02/2005
31470278	HEMORR	17/08/2006
32189208	HEMORR	19/09/2007
31427154	HEMORR	06/05/2002
32276110	HEMORR	03/10/2001
32164475	HEMORR	06/10/2010
31672279	HEMORR	11/03/2005
31859918	HEMORR	25/11/2004
31406542	HEMORR	23/02/2005
31765716	HEMORR	30/08/1950
32098176	HEMORR	17/03/2009
31796127	HEMORR	28/03/2003
31702493	HEMORR	09/06/2009
32118467	HEMORR	28/06/2007
32059128	HEMORR	04/01/2010
31959179	HEMORR	07/09/2009
32092335	HEMORR	01/07/2008
31842658	HEMORR	03/09/2002
31574558	HEMORR	20/09/2005
31930108	HEMORR	17/11/2009
31792660	HEMORR	15/02/2010
31479727	HEMORR	05/01/2004
31577686	HEMORR	30/09/2008
31988348	HEMORR	22/02/2011
31770667	HEMORR	03/01/2011
31796610	HEMORR	24/02/2009
31658349	HEMORR	27/02/2007
31170404	HEMORR	24/02/2010
31346081	HEMORR	23/03/2010
31780608	HEMORR	19/01/2010
32167454	HEMORR	27/07/2004
31782142	HEMORR	19/10/2000
31299460	HEMORR	13/10/1989
31199652	HEMORR	09/10/2006
31619135	HEMORR	14/07/2006
31057853	HEMORR	01/02/2005
31097740	HEMORR	08/10/2007
32166665	HEMORR	23/09/2009
31619803	HEMORR	04/09/2001
32036567	HEMORR	23/01/2007
31038837	HEMORR	20/06/2005
31149799	HEMORR	30/03/2009
31165239	HEMORR	10/08/2010
31205880	HEMORR	02/02/2005
31587279	HEMORR	26/05/2004
32247820	HEMORR	18/05/2007
31246303	HEMORR	05/06/2008
31694151	HEMORR	19/06/2007
32248059	HEMORR	05/12/2007
31110768	HEMORR	02/01/2006
31627787	HEMORR	14/09/2010
31546033	HEMORR	27/06/2005
31578989	HEMORR	16/02/2011
31836921	HEMORR	16/04/2009
31059184	HEMORR	04/12/2003
32170951	HEMORR	28/08/2009
31362262	HEMORR	20/10/1974
31876624	HEMORR	19/11/2010
31919351	HEMORR	06/07/2004
31241477	HEMORR	19/05/2006
32269774	HEMORR	21/10/2010
31402775	HEMORR	20/07/2005
31928758	HEMORR	17/06/2003
31859246	HEMORR	30/09/2005
31054817	HEMORR	24/11/2005
31085353	HEMORR	29/09/2005
31491434	HEMORR	25/09/2008
31988055	HEMORR	03/02/2011
31488584	HEMORR	15/10/2008
31753932	HEMORR	18/12/2009
31274972	HEMORR	15/10/2002
32252581	HEMORR	22/04/2010
31545829	HEMORR	12/11/2003
32187756	HEMORR	28/06/2010
31805127	HEMORR	05/08/2009
32216487	HEMORR	28/01/2011
31330070	HEMORR	23/01/2007
32090008	HEMORR	26/02/2009
32029860	HEMORR	27/10/1940
31813998	HEMORR	09/07/2007
31892066	HEMORR	21/12/2006
32097844	HEMORR	03/02/2000
31138705	HEMORR	13/10/2006
31316016	HEMORR	16/11/2004
31290105	HEMORR	06/06/2007
31262461	HEMORR	19/11/2008
31915254	HEMORR	09/09/2004
31669063	HEMORR	26/12/2008
31358766	HEMORR	05/01/2010
31926008	HEMORR	22/12/2000
31044730	HEMORR	01/10/2004
31135234	HEMORR	02/06/2010
31405719	HEMORR	29/05/2008
31374114	HEMORR	13/02/2006
31136755	HEMORR	14/07/2004
31252636	HEMORR	08/04/2009
31655762	HEMORR	11/09/2009
32093110	HEMORR	02/12/2005
31757950	HEMORR	30/08/2006
31597009	HEMORR	22/11/2010
31547356	HEMORR	29/06/2005
31109819	HEMORR	19/01/2004
31825046	HEMORR	30/04/2008
32114975	HEMORR	02/09/2005
31505588	HEMORR	17/10/2008
31078140	HEMORR	20/04/2010
31294985	HEMORR	19/05/2006
31214199	HEMORR	25/11/2008
31302647	HEMORR	25/06/2002
31728108	HEMORR	01/01/2000
31416932	HEMORR	22/10/2010
32271701	HEMORR	08/01/2009
31054792	HEMORR	27/10/2006
31641342	HEMORR	28/06/2007
31579814	HEMORR	01/12/2003
32195023	HEMORR	01/06/2011
31172551	HEMORR	23/03/2004
31447807	HEMORR	21/01/2009
31903549	HEMORR	18/10/2006
31713969	HEMORR	06/08/2004
31612836	HEMORR	01/03/2011
31324227	HEMORR	10/06/2010
31235701	HEMORR	09/06/2003
31160405	HEMORR	29/05/2002
31301351	HEMORR	27/09/2010
31731345	HEMORR	13/10/2009
31987045	HEMORR	17/09/2010
31917785	HEMORR	08/11/2010
31767663	HEMORR	06/07/2009
32013323	HEMORR	20/05/2005
32155570	HEMORR	07/11/2007
31684611	HEMORR	09/10/2002
31887602	HEMORR	29/06/2009
31707609	HEMORR	16/12/2006
31809785	HEMORR	18/05/2006
31437513	HEMORR	21/11/2008
31917687	HEMORR	03/02/2004
31510201	HEMORR	10/09/2007
32067496	HEMORR	05/05/2008
31553653	HEMORR	20/07/2005
31436034	HEMORR	23/08/2007
31053631	HEMORR	17/06/2010
31716553	HEMORR	10/10/2003
31397010	HEMORR	14/05/2007
31853239	HEMORR	20/11/1945
31598954	HEMORR	26/04/2010
32064089	HEMORR	13/12/2004
31937062	HEMORR	05/11/2010
31473574	HEMORR	03/03/2010
32058271	HEMORR	27/07/2007
31520729	HEMORR	04/04/2007
31950974	HEMORR	06/05/2010
31722183	HEMORR	10/06/2010
31420909	HEMORR	17/10/2003
31895605	HEMORR	21/02/2007
31957892	HEMORR	01/09/2005
32141500	HEMORR	28/01/2011
31108705	HEMORR	08/06/2007
31788679	HEMORR	05/01/2011
31166710	HEMORR	20/07/2009
32192909	HEMORR	14/03/2005
31704498	HEMORR	23/10/2007
31418145	HEMORR	23/01/2007
32176325	HEMORR	15/10/2007
31633993	HEMORR	19/04/2005
31685282	HEMORR	14/09/2007
31808778	HEMORR	05/05/2010
31533378	HEMORR	02/11/2007
31790846	HEMORR	25/04/2007
32054357	HEMORR	17/10/2003
31224124	HEMORR	12/04/2005
32218651	HEMORR	04/02/2010
32199208	HEMORR	18/09/2006
31904721	HEMORR	08/03/2010
31216186	HEMORR	30/11/2006
31299767	HEMORR	21/04/2003
31227877	HEMORR	03/05/2001
31290665	HEMORR	17/01/2007
31482204	HEMORR	11/03/2011
31461611	HEMORR	18/07/2008
32243083	HEMORR	27/09/1999
31225219	HEMORR	06/11/2007
31455117	HEMORR	27/02/2008
31711266	HEMORR	09/01/2008
32005669	HEMORR	18/05/2011
31766885	HEMORR	23/08/1955
31339909	HEMORR	31/03/2008
32246352	HEMORR	07/10/2005
31259396	HEMORR	18/04/2006
31985233	HEMORR	14/01/2005
31720052	HEMORR	21/07/2008
31652547	HEMORR	11/09/2008
32005875	HEMORR	15/05/2007
31113175	HEMORR	20/12/2007
31924919	HEMORR	05/05/2011
31689803	HEMORR	06/07/2005
31627822	HEMORR	24/09/2003
31097143	HEMORR	24/08/2006
31562164	HEMORR	11/03/2004
31814987	HEMORR	13/08/2007
31357100	HEMORR	26/01/2011
31689607	HEMORR	30/03/2006
31698052	HEMORR	30/12/2003
31176048	HEMORR	09/05/2006
31357715	HEMORR	03/05/2007
32113531	HEMORR	05/01/2009
31054626	HEMORR	25/02/2008
31311414	HEMORR	02/01/2006
31407204	HEMORR	30/04/1999
31046930	HEMORR	10/10/2010
31744642	HEMORR	13/11/2006
31584781	HEMORR	26/10/2010
31112466	HEMORR	25/03/2010
31533827	HEMORR	22/03/2004
31127183	HEMORR	17/03/2010
31428795	HEMORR	25/06/2009
31296696	HEMORR	14/01/2010
31235668	HEMORR	27/05/2009
32190555	HEMORR	28/01/2010
31283139	HEMORR	29/06/2005
31188568	HEMORR	20/07/2010
31614153	HEMORR	11/03/2002
31420792	HEMORR	26/11/2003
32238911	HEMORR	23/04/2008
31264436	HEMORR	02/07/2006
32009136	HEMORR	27/10/2009
32100813	HEMORR	16/11/2004
31111466	HEMORR	12/12/2007
31824660	HEMORR	17/09/2010
32188596	HEMORR	16/09/2010
31897252	HEMORR	19/06/2008
31956953	HEMORR	19/07/2005
31617584	HEMORR	12/03/2010
31087709	HEMORR	14/01/2010
32256089	HEMORR	26/01/2005
31105400	HEMORR	23/03/2011
31350321	HEMORR	10/01/2006
32218906	HEMORR	30/03/2010
31651640	HEMORR	09/07/2009
31651246	HEMORR	18/09/2008
32087742	HEMORR	06/06/2006
32159590	HEMORR	08/06/2005
31120090	HEMORR	21/12/2007
31074151	HEMORR	18/06/2009
32252030	HEMORR	22/08/1951
32199258	HEMORR	17/04/2008
31489390	HEMORR	11/05/2007
31568595	HEMORR	25/03/2010
31267665	HEMORR	07/02/2006
32006163	HEMORR	06/05/2011
31200904	HEMORR	24/07/2007
31629184	HEMORR	09/01/2008
32013154	HEMORR	12/03/2010
31169488	HEMORR	25/02/2010
31831547	HEMORR	15/07/2005
31319783	HEMORR	02/08/2002
31392273	HEMORR	19/04/1939
31470909	HEMORR	11/07/2007
31447253	HEMORR	03/04/1949
31440390	HEMORR	08/09/2009
31502961	HEMORR	16/11/2007
31087989	HEMORR	19/01/2010
32206045	HEMORR	23/07/2004
32094502	HEMORR	21/02/2002
32182514	HEMORR	06/02/2007
31422036	HEMORR	01/01/2001
31875631	HEMORR	16/07/2004
31753548	HEMORR	25/05/2006
31091242	HEMORR	13/10/2005
31956316	HEMORR	27/06/2007
31270762	HEMORR	22/04/2010
31581244	HEMORR	14/04/2009
31614272	HEMORR	19/05/2011
31339883	HEMORR	13/05/2010
31803702	HEMORR	23/11/2009
31568378	HEMORR	21/12/2010
31461549	HEMORR	22/10/2003
32063475	HEMORR	13/12/2002
32101252	HEMORR	12/01/2011
31940782	HEMORR	28/10/2010
32112901	HEMORR	30/08/2006
31054420	HEMORR	19/02/2010
31058744	HEMORR	16/12/2008
32098560	HEMORR	19/11/2003
31226248	HEMORR	11/03/2005
31325124	HEMORR	17/10/2005
31356717	HEMORR	15/05/2006
31895214	HEMORR	30/07/2004
31467001	HEMORR	12/05/2004
31157137	HEMORR	20/01/2010
32269409	HEMORR	05/11/2007
31965808	HEMORR	10/09/2009
31258197	HEMORR	30/03/2004
31521720	HEMORR	14/05/2007
32146037	HEMORR	23/08/2010
32230729	HEMORR	01/02/2011
32250639	HEMORR	21/03/2011
31750787	HEMORR	17/02/2010
31904860	HEMORR	02/12/2009
32087044	HEMORR	01/06/2000
31444214	HEMORR	10/04/1963
31048661	HEMORR	06/11/1942
31613115	HEMORR	15/03/2010
32034832	HEMORR	04/11/2008
31779664	HEMORR	23/12/2010
31448523	HEMORR	13/12/2005
31912937	HEMORR	23/02/2006
31939976	HEMORR	11/10/2004
32195275	HEMORR	18/05/2001
31854929	HEMORR	03/09/2008
31267614	HEMORR	31/08/2005
31774903	HEMORR	14/02/2011
31308618	HEMORR	31/01/2005
32002925	HEMORR	05/05/2008
31293265	HEMORR	22/10/2007
31274384	HEMORR	26/08/2009
32117454	HEMORR	11/08/2008
32141296	HEMORR	25/06/2010
31718146	HEMORR	13/07/2009
31739653	HEMORR	16/03/2011
31927028	HEMORR	24/07/2006
31584372	HEMORR	22/07/2008
31607286	HEMORR	30/08/2006
31608346	HEMORR	27/02/2002
32051470	HEMORR	13/07/2009
31414275	HEMORR	22/08/2007
32129855	HEMORR	29/03/2011
31319812	HEMORR	27/02/2002
31369545	HEMORR	09/12/2008
31697525	HEMORR	23/09/2008
31736977	HEMORR	05/10/2005
31441426	HEMORR	22/02/2002
31920979	HEMORR	13/09/2005
31187014	HEMORR	11/04/2011
31443115	HEMORR	05/04/2010
31044179	HEMORR	11/03/2004
32199644	HEMORR	27/02/2007
32282398	HEMORR	05/09/2006
31793330	HEMORR	10/12/2009
32017757	HEMORR	05/01/2004
31925535	HEMORR	29/11/2001
31240579	HEMORR	31/03/2009
31706644	HEMORR	09/03/2011
31808103	HEMORR	31/10/2000
31523575	HEMORR	16/05/2011
31808591	HEMORR	14/05/2004
31980687	HEMORR	25/08/2003
31785529	HEMORR	26/10/2010
31401453	HEMORR	09/11/2005
32090695	HEMORR	31/03/2004
31989659	HEMORR	30/12/2008
32201736	HEMORR	25/03/2003
31860679	HEMORR	08/05/2000
31342478	HEMORR	31/01/2007
31550054	HEMORR	07/10/2008
31195218	HEMORR	27/07/2004
32018111	HEMORR	10/05/2007
31777932	HEMORR	16/11/2004
32154694	HEMORR	09/04/2002
32135145	HEMORR	24/07/2006
31293266	HEMORR	10/03/2011
31338511	HEMORR	23/02/2009
31884951	HEMORR	12/04/2005
31620017	HEMORR	25/10/2006
31122046	HEMORR	06/06/2008
31172170	HEMORR	05/02/2009
32119517	HEMORR	10/10/2002
31389301	HEMORR	29/11/2002
31298297	HEMORR	04/03/2004
31121059	HEMORR	05/09/2006
31648346	HEMORR	09/08/2004
31084179	HEMORR	17/05/2007
31217447	HEMORR	25/11/2010
31435241	HEMORR	07/02/2006
32128378	HEMORR	28/08/2000
32127126	HEMORR	12/04/2005
31128087	HEMORR	26/05/2009
32173897	HEMORR	31/05/2011
31701057	HEMORR	05/11/2004
32111753	HEMORR	24/07/2006
32099339	HEMORR	13/01/2011
32083284	HEMORR	22/01/2004
31201150	HEMORR	16/10/2007
32116733	HEMORR	06/09/2004
31990571	HEMORR	13/07/2004
31677585	HEMORR	25/02/2010
31181842	HEMORR	04/06/1993
31654266	HEMORR	11/02/2008
31671963	HEMORR	05/07/2004
31782918	HEMORR	11/03/2003
31421234	HEMORR	07/07/2008
32020101	HEMORR	05/07/2007
32159112	HEMORR	20/05/2002
32246604	HEMORR	28/07/2006
31273682	HEMORR	10/05/2006
31974787	HEMORR	22/05/2007
31974242	HEMORR	14/01/2009
31863698	HEMORR	13/02/2004
31444748	HEMORR	27/05/2002
31846454	HEMORR	09/10/2006
31981150	HEMORR	12/03/2009
31224315	HEMORR	03/04/2007
31235731	HEMORR	22/01/2007
31865494	HEMORR	23/11/2007
31843748	HEMORR	23/02/2004
31471199	HEMORR	27/02/2006
32237041	HEMORR	02/12/2008
31770096	HEMORR	13/03/2007
31888462	HEMORR	26/02/1923
31461892	HEMORR	10/10/2007
31695492	HEMORR	05/09/2005
31822746	HEMORR	13/09/2006
32135246	HEMORR	18/07/2008
32244933	HEMORR	01/02/2007
32258866	HEMORR	22/01/2008
31926149	HEMORR	22/10/2007
31231096	HEMORR	28/02/2011
32083170	HEMORR	13/09/2002
32149516	HEMORR	02/10/2006
32159787	HEMORR	05/10/2007
32133025	HEMORR	26/03/2008
31053467	HEMORR	02/12/2004
32115951	HEMORR	12/07/2004
31175169	HEMORR	06/05/2010
31536161	HEMORR	09/03/2005
31609110	HEMORR	19/07/2005
32121375	HEMORR	19/04/2004
31274163	HEMORR	27/04/2005
31855970	HEMORR	09/03/2005
31163795	HEMORR	09/03/2010
32200321	HEMORR	23/02/2004
31245288	HEMORR	03/02/2005
31354855	HEMORR	30/08/2005
31282676	HEMORR	27/10/2009
31985435	HEMORR	08/11/2007
31953204	HEMORR	22/01/2008
31143643	HEMORR	03/09/2010
32179849	HEMORR	28/12/2009
31963858	HEMORR	22/06/2007
31704197	HEMORR	20/05/2009
31328114	HEMORR	14/02/2005
32022345	HEMORR	07/10/2010
31761935	HEMORR	12/08/2005
31685632	HEMORR	28/01/2002
31924972	HEMORR	10/06/2008
31243831	HEMORR	11/06/2004
31867997	HEMORR	29/10/2007
32104033	HEMORR	13/01/2010
31473022	HEMORR	26/02/2011
32187498	HEMORR	15/03/2011
31636607	HEMORR	05/04/2010
32209303	HEMORR	12/03/2004
32263974	HEMORR	29/04/2011
31245311	HEMORR	02/01/2002
32198464	HEMORR	26/10/2005
31082208	HEMORR	01/01/2000
32147367	HEMORR	11/02/2009
31326494	HEMORR	12/05/2009
31672189	HEMORR	20/06/2007
31204461	HEMORR	13/03/2007
31730481	HEMORR	24/08/2005
31148525	HEMORR	25/08/2006
31273101	HEMORR	12/03/2008
31560503	HEMORR	18/10/2007
31185646	HEMORR	18/06/2010
31070465	HEMORR	23/04/2008
32240511	HEMORR	26/02/2008
32268898	HEMORR	03/03/2004
31638449	HEMORR	15/11/2006
31568185	HEMORR	15/03/2010
31174190	HEMORR	07/02/2005
32236017	HEMORR	29/07/2004
31516751	HEMORR	01/02/2007
32188259	HEMORR	25/10/2005
32092229	HEMORR	29/07/2004
31652501	HEMORR	01/07/2009
31275887	HEMORR	04/01/2011
32024247	HEMORR	15/03/2006
31096236	HEMORR	29/06/1921
31447714	HEMORR	13/10/2009
31528759	HEMORR	30/01/2008
31100094	HEMORR	16/05/2006
32031229	HEMORR	07/08/2003
31372929	HEMORR	21/01/2011
31221832	HEMORR	24/09/2008
32036049	HEMORR	06/03/2006
31596789	HEMORR	10/05/2010
31459814	HEMORR	20/12/2005
31054768	HEMORR	01/06/2005
31759736	HEMORR	09/11/2004
32084009	HEMORR	30/04/2008
32264668	HEMORR	27/11/2009
31997670	HEMORR	10/09/2004
32056016	HEMORR	24/05/2010
31899083	HEMORR	01/11/2006
32122282	HEMORR	13/11/2006
31797949	HEMORR	23/02/2006
32182116	HEMORR	31/10/2005
31730497	HEMORR	11/12/2008
31665383	HEMORR	07/05/2007
31426278	HEMORR	25/08/2006
31173830	HEMORR	14/02/2007
31840770	HEMORR	21/01/2011
31227615	HEMORR	26/05/2004
31401177	HEMORR	12/03/2008
31291246	HEMORR	09/05/2008
32282399	HEMORR	29/11/2002
31148437	HEMORR	22/12/2010
31633490	HEMORR	15/03/2006
31135885	HEMORR	15/03/2010
31160551	HEMORR	02/09/2009
31050240	HEMORR	11/03/2009
31637090	HEMORR	18/02/2004
31049143	HEMORR	22/08/2007
31375145	HEMORR	30/06/2005
32067365	HEMORR	02/06/2004
32076621	HEMORR	30/03/2006
31901788	HEMORR	30/11/2010
31808743	HEMORR	02/06/2005
31101370	HEMORR	04/01/2000
31784711	HEMORR	08/07/2003
31741891	HEMORR	17/02/2005
31918158	HEMORR	29/08/2002
31451439	HEMORR	16/03/2009
31247441	HEMORR	09/12/2009
32143458	HEMORR	12/08/2009
31087836	HEMORR	18/08/2004
31202274	HEMORR	19/04/2006
31039433	HEMORR	28/02/2006
31933062	HEMORR	31/03/2011
31445349	HEMORR	06/03/2009
32031342	HEMORR	03/09/2009
31201536	HEMORR	14/12/2009
31054507	HEMORR	09/02/2010
32260035	HEMORR	14/04/2010
31991627	HEMORR	25/06/2008
31171608	HEMORR	18/03/2004
31667872	HEMORR	09/04/2001
31430532	HEMORR	19/01/2009
31738105	HEMORR	04/12/2001
31098580	HEMORR	19/05/2009
32041939	HEMORR	01/08/2005
31268190	HEMORR	04/05/2004
31994929	HEMORR	25/04/2011
31826945	HEMORR	09/08/2007
31467903	HEMORR	30/11/2005
31138152	HEMORR	23/07/2001
31315657	HEMORR	24/05/2006
32058972	HEMORR	20/11/2007
32202227	HEMORR	17/08/2009
32246429	HEMORR	28/06/2010
31254441	HEMORR	06/07/2004
32187626	HEMORR	11/02/2005
31107495	HEMORR	13/12/2002
31439969	HEMORR	07/04/2011
31186854	HEMORR	04/12/2009
31114409	HEMORR	17/06/2005
31057692	HEMORR	03/03/2010
31989638	HEMORR	01/12/2006
31527672	HEMORR	07/05/2008
31791129	HEMORR	04/03/2010
31942616	HEMORR	29/06/2009
31924312	HEMORR	03/04/2007
31115636	HEMORR	14/10/1957
31369547	HEMORR	15/10/2010
31333700	HEMORR	30/03/2008
31909126	HEMORR	31/10/2006
32187156	HEMORR	12/04/2010
31033021	HEMORR	20/10/2006
31321280	HEMORR	03/03/2006
32141842	HEMORR	16/08/2006
31217067	HEMORR	29/08/2006
31723393	HEMORR	05/12/2006
32191042	HEMORR	29/12/2010
31992970	HEMORR	12/03/2009
31850345	HEMORR	03/08/2006
31500194	HEMORR	24/07/2008
31795089	HEMORR	14/12/2004
31657686	HEMORR	04/04/2006
31167941	HEMORR	28/02/2007
31807086	HEMORR	02/12/2003
32185963	HEMORR	08/07/2009
32279238	HEMORR	22/07/2005
31209907	HEMORR	20/04/2005
31424056	HEMORR	17/12/2004
31458857	HEMORR	03/02/2005
32177047	HEMORR	31/01/2006
31660413	HEMORR	29/12/2010
31268299	HEMORR	19/05/1934
31970294	HEMORR	27/03/2009
31224475	HEMORR	10/05/2004
31302635	HEMORR	23/06/2009
31506294	HEMORR	16/09/2009
31757328	HEMORR	29/05/2003
31624140	HEMORR	19/01/2005
31919328	HEMORR	13/03/2007
31184684	HEMORR	03/04/2001
31321525	HEMORR	16/10/2009
31951116	HEMORR	30/08/2006
32007468	HEMORR	23/04/2004
31927125	HEMORR	11/08/2006
31723824	HEMORR	20/10/2006
32089790	HEMORR	15/01/2008
31237702	HEMORR	09/08/2006
31434437	HEMORR	02/02/2010
31520312	HEMORR	03/07/2006
32011072	HEMORR	12/11/2001
31375081	HEMORR	22/02/2011
31571787	HEMORR	16/05/2001
31222579	HEMORR	16/11/2010
32200227	HEMORR	20/01/2010
32168006	HEMORR	09/06/2002
32081369	HEMORR	17/12/2008
32018151	HEMORR	03/08/2007
31939727	HEMORR	15/12/2008
31987476	HEMORR	04/01/2011
31062629	HEMORR	05/01/1998
31653453	HEMORR	04/11/2009
32143143	HEMORR	11/11/2005
31186532	HEMORR	21/09/2009
31436287	HEMORR	07/12/2009
31159489	HEMORR	17/12/2009
31220867	HEMORR	31/07/2000
31969341	HEMORR	03/01/2002
31974825	HEMORR	05/12/2008
31821069	HEMORR	04/06/2010
31247946	HEMORR	25/03/2008
31073956	HEMORR	24/06/2010
32173948	HEMORR	18/01/2007
31249592	HEMORR	29/10/2010
31947419	HEMORR	16/05/1948
31131974	HEMORR	02/04/2008
31172355	HEMORR	10/08/2009
31949286	HEMORR	02/01/2006
31825346	HEMORR	26/10/1997
31563177	HEMORR	18/01/2008
31783462	HEMORR	22/12/2004
31752845	HEMORR	11/08/2010
31306794	HEMORR	17/07/1945
32228473	HEMORR	17/03/2011
31711982	HEMORR	18/04/2008
32280072	HEMORR	07/07/2008
31515862	HEMORR	04/04/2008
32209127	HEMORR	30/10/2008
31133307	HEMORR	15/02/2007
31937040	HEMORR	28/01/2008
31747520	HEMORR	20/02/2009
31805527	HEMORR	03/04/2008
31131105	HEMORR	06/05/2008
31140877	HEMORR	08/04/2005
31662360	HEMORR	19/04/2010
31675069	HEMORR	07/05/2010
32037670	HEMORR	13/05/2011
32032305	HEMORR	06/11/2003
31111879	HEMORR	12/07/2007
31297268	HEMORR	31/08/2004
31340398	HEMORR	28/10/2003
31556402	HEMORR	23/02/2006
32043107	HEMORR	20/07/2004
31449811	HEMORR	05/05/2004
31399244	HEMORR	02/02/2011
31636987	HEMORR	14/05/2007
31515742	HEMORR	01/08/2006
31670973	HEMORR	28/09/2005
32276889	HEMORR	26/02/2008
31632144	HEMORR	06/07/1990
31613901	HEMORR	16/06/2005
31129878	HEMORR	04/07/2005
31306717	HEMORR	14/10/2008
32250083	HEMORR	21/02/2011
31514533	HEMORR	29/11/2005
31301336	HEMORR	17/02/2011
31476713	HEMORR	08/04/2011
31158629	HEMORR	11/02/2010
32140434	HEMORR	06/09/2005
31363147	HEMORR	25/03/2004
31065272	HEMORR	17/04/2009
31330377	HEMORR	02/02/2007
32127700	HEMORR	29/01/2007
31445281	HEMORR	09/12/2004
32042838	HEMORR	30/01/2003
31134484	HEMORR	31/01/2007
32256945	HEMORR	24/07/2009
32091415	HEMORR	20/06/2002
31539521	HEMORR	22/03/2001
31167001	HEMORR	17/08/2004
31583665	HEMORR	26/09/2007
31859778	HEMORR	04/01/1999
32235458	HEMORR	20/06/2008
31612837	HEMORR	24/07/2001
31493704	HEMORR	21/12/2007
31570017	HEMORR	07/05/2008
31604848	HEMORR	26/12/2005
32118990	HEMORR	10/02/2004
31246026	HEMORR	27/06/2006
31754369	HEMORR	01/07/2008
31038807	HEMORR	18/04/2011
31435158	HEMORR	01/10/2002
31586196	HEMORR	17/05/2002
32213023	HEMORR	18/12/2003
32109384	HEMORR	29/10/2001
31399039	HEMORR	13/11/2003
31079780	HEMORR	31/03/2004
32163015	HEMORR	27/06/2002
32175759	HEMORR	18/01/2010
31102134	HEMORR	18/02/2009
32031559	HEMORR	01/09/2006
32252857	HEMORR	18/08/2007
32093512	HEMORR	26/06/2003
32173526	HEMORR	21/07/2003
31095601	HEMORR	26/12/2000
31496367	HEMORR	24/01/2007
31512021	HEMORR	20/11/1950
31178202	HEMORR	09/02/2009
31657268	HEMORR	22/01/2007
31305570	HEMORR	21/02/2003
32248313	HEMORR	16/01/2004
31445105	HEMORR	18/08/1966
31225795	HEMORR	02/12/2009
31784135	HEMORR	26/12/2008
32108396	HEMORR	02/11/2006
31811710	HEMORR	04/07/2007
31393998	HEMORR	12/02/2008
32081424	HEMORR	18/08/2008
31224768	HEMORR	30/06/2009
32131019	HEMORR	15/07/2003
31786453	HEMORR	26/09/2007
31478530	HEMORR	26/08/1953
32099799	HEMORR	14/06/2006
31412353	HEMORR	19/01/2010
31484227	HEMORR	26/02/2010
31523713	HEMORR	29/12/1926
32023838	HEMORR	21/02/2011
31833135	HEMORR	31/01/2008
32179438	HEMORR	16/09/2002
32091735	HEMORR	10/08/2007
31071396	HEMORR	07/06/2006
31824276	HEMORR	20/11/2000
31323296	HEMORR	27/12/2001
32105904	HEMORR	27/08/1919
31445382	HEMORR	30/08/1981
31758759	HEMORR	17/07/2008
32079324	HEMORR	21/03/2007
32141437	HEMORR	08/10/2002
31944943	HEMORR	09/01/2007
32249380	HEMORR	25/04/2007
31406506	HEMORR	03/12/2010
32239114	HEMORR	11/12/2006
31453269	HEMORR	29/11/2010
31625423	HEMORR	20/07/2006
31495372	HEMORR	14/01/2004
31938730	HEMORR	01/08/2006
32236166	HEMORR	16/04/2009
32205231	HEMORR	03/09/2010
31229693	HEMORR	28/12/2004
31944965	HEMORR	11/06/2008
31031117	HEMORR	01/06/2006
31333013	HEMORR	05/03/2004
31486840	HEMORR	26/08/1953
31847445	HEMORR	26/11/2004
31622189	HEMORR	12/11/2007
32118813	HEMORR	23/10/2009
31682966	HEMORR	03/12/2003
31636464	HEMORR	01/03/2010
31486343	HEMORR	08/06/2005
31071531	HEMORR	30/08/2004
31465993	HEMORR	21/09/2001
31842822	HEMORR	20/12/1984
31641763	HEMORR	17/03/2011
31602541	HEMORR	23/12/2010
31639191	HEMORR	30/09/2009
31473719	HEMORR	06/04/2009
31907199	HEMORR	03/09/2004
31513128	HEMORR	27/10/2000
31960354	HEMORR	15/10/2002
31787887	HEMORR	19/12/2002
31593317	HEMORR	18/02/2009
32152276	HEMORR	26/01/2010
31079164	HEMORR	05/11/2007
32127265	HEMORR	17/04/2007
32264460	HEMORR	29/04/2004
31237625	HEMORR	28/02/2007
31320303	HEMORR	04/05/2004
31277264	HEMORR	21/10/2009
31475408	HEMORR	29/09/2009
31805078	HEMORR	15/05/1993
32249569	HEMORR	16/03/2011
31904314	HEMORR	06/02/2004
31081987	HEMORR	16/11/2010
31791006	HEMORR	22/08/2006
31830506	HEMORR	26/02/2002
31126739	HEMORR	04/02/2010
32210034	HEMORR	01/01/1998
31754789	HEMORR	31/05/2010
31519051	HEMORR	10/05/2004
31436600	HEMORR	14/02/2007
31704034	HEMORR	24/05/2005
31600813	HEMORR	16/10/2002
31605696	HEMORR	06/11/2007
31258827	HEMORR	21/06/2005
31779593	HEMORR	19/07/2005
31659751	HEMORR	11/01/2006
31246810	HEMORR	19/12/2003
32263832	HEMORR	22/04/2010
31512718	HEMORR	03/09/2009
31438708	HEMORR	17/10/2005
31819179	HEMORR	30/12/2010
31929700	HEMORR	15/09/2009
32254414	HEMORR	06/05/2008
31770506	HEMORR	10/12/2009
31940363	HEMORR	20/04/2009
31497420	HEMORR	22/06/2010
31088685	HEMORR	15/07/2008
31848909	HEMORR	25/03/1947
31756059	HEMORR	01/02/2006
31292135	HEMORR	17/11/2004
31048151	HEMORR	10/12/2004
32055179	HEMORR	11/02/2009
32130196	HEMORR	23/11/2010
32189767	HEMORR	24/01/2011
32279180	HEMORR	03/02/2005
31537746	HEMORR	03/04/2003
31878709	HEMORR	04/05/2005
31053935	HEMORR	26/04/2007
31312056	HEMORR	15/01/2007
31538206	HEMORR	24/11/2010
31143108	HEMORR	17/12/2010
32130615	HEMORR	12/07/2010
31476527	HEMORR	26/11/2002
32129489	HEMORR	24/04/2006
31234721	HEMORR	15/01/1972
31714393	HEMORR	09/06/2005
31495297	HEMORR	29/09/2004
31983907	HEMORR	06/02/1961
31359480	HEMORR	30/01/2008
31109287	HEMORR	07/12/2010
31202980	HEMORR	05/10/2004
31517413	HEMORR	21/09/2006
31693814	HEMORR	25/01/2011
32206495	HEMORR	06/03/2002
31520533	HEMORR	01/06/2011
31788566	HEMORR	10/11/2009
31700564	HEMORR	29/07/2010
31812494	HEMORR	29/02/2008
31062455	HEMORR	23/01/2006
31538518	HEMORR	07/06/2010
31979452	HEMORR	20/10/2004
31980436	HEMORR	19/07/2000
31284012	HEMORR	25/08/2005
31997273	HEMORR	14/01/2008
32132810	HEMORR	14/04/2004
32078602	HEMORR	14/11/2008
31462224	HEMORR	07/02/2007
31563701	HEMORR	01/01/1998
32121090	HEMORR	18/02/2011
32023313	HEMORR	12/01/2006
31735196	HEMORR	23/01/2008
31561491	HEMORR	14/08/2008
32242783	HEMORR	20/02/2009
31151033	HEMORR	01/04/2009
31228702	HEMORR	22/03/2006
31473693	HEMORR	18/08/2003
32028980	HEMORR	02/04/2009
31166106	HEMORR	27/09/2005
32011658	HEMORR	13/03/2000
31847652	HEMORR	12/03/1955
32113174	HEMORR	27/02/2007
31593757	HEMORR	23/03/2011
31347384	HEMORR	19/04/2011
31081424	HEMORR	18/09/2009
31462287	HEMORR	05/05/2009
31152275	HEMORR	14/07/2009
31053475	HEMORR	14/11/2006
32088394	HEMORR	19/10/2007
32266454	HEMORR	13/01/2005
31235505	HEMORR	02/01/2009
31694665	HEMORR	09/12/2010
31829829	HEMORR	17/02/2006
31030485	HEMORR	20/03/2007
31821619	HEMORR	20/05/2004
31052457	HEMORR	31/03/2009
31636008	HEMORR	06/11/2009
31741509	HEMORR	07/01/2004
32197657	HEMORR	05/05/2009
31921601	HEMORR	01/12/2008
31846675	HEMORR	25/02/2002
31991894	HEMORR	13/02/2009
32028322	HEMORR	27/02/2008
31740236	HEMORR	12/06/2006
31740407	HEMORR	19/01/2010
31449578	HEMORR	18/05/2005
31267955	HEMORR	28/10/2005
31436135	HEMORR	01/03/1955
31528004	HEMORR	20/05/2003
31629422	HEMORR	09/03/2010
32014035	HEMORR	13/11/2008
31324786	HEMORR	23/11/2006
31480321	HEMORR	05/08/2009
32053362	HEMORR	16/07/2009
31227385	HEMORR	07/02/2011
31098225	HEMORR	08/11/2007
32253149	HEMORR	08/03/2007
31805286	HEMORR	27/09/2004
31162466	HEMORR	21/05/2004
31515830	HEMORR	27/12/2010
31893641	HEMORR	04/05/2009
32174472	HEMORR	18/05/2006
31789025	HEMORR	25/10/2010
32095940	HEMORR	25/11/2010
31932164	HEMORR	30/04/2008
32155393	HEMORR	15/12/2006
31521174	HEMORR	26/04/2007
31390684	HEMORR	19/08/2003
32086103	HEMORR	26/11/2003
31466903	HEMORR	24/03/2009
31442581	HEMORR	24/04/2003
31510088	HEMORR	03/05/2011
31991026	HEMORR	10/06/2010
31777453	HEMORR	02/03/2010
31107785	HEMORR	11/05/2010
31332823	HEMORR	04/06/2010
31220264	HEMORR	15/09/2006
31638728	HEMORR	22/08/2006
31907204	HEMORR	20/09/2002
31291105	HEMORR	04/11/2003
31306205	HEMORR	03/07/2000
32198029	HEMORR	09/05/2008
31844494	HEMORR	19/09/2005
31532642	HEMORR	20/12/2006
31564531	HEMORR	17/02/1990
31948792	HEMORR	11/08/2005
31566932	HEMORR	07/12/2006
31188883	HEMORR	28/07/2006
31855887	HEMORR	27/06/2007
32218115	HEMORR	10/02/2010
31546409	HEMORR	28/06/2005
32100837	HEMORR	27/05/2003
31889107	HEMORR	03/09/2010
32178811	HEMORR	23/06/2004
32248305	HEMORR	20/10/2009
32255955	HEMORR	04/05/2004
32064941	HEMORR	19/12/2006
32072112	HEMORR	19/07/1986
31606543	HEMORR	30/10/2007
32220436	HEMORR	02/01/2007
31482847	HEMORR	29/01/2010
31731125	HEMORR	07/04/2005
31786081	HEMORR	09/03/2009
31963367	HEMORR	01/07/2004
31534241	HEMORR	12/02/2009
32205678	HEMORR	16/01/2007
31333007	HEMORR	11/01/2007
31062948	HEMORR	21/02/2007
31448577	HEMORR	17/02/2009
31675341	HEMORR	19/06/2003
31564838	HEMORR	10/05/2007
31211215	HEMORR	11/11/2008
31075048	HEMORR	24/06/2010
31398669	HEMORR	16/11/2002
31360930	HEMORR	20/02/2008
32097832	HEMORR	02/11/2005
31687405	HEMORR	30/07/2004
32097531	HEMORR	07/01/2010
32020763	HEMORR	05/01/2010
31421066	HEMORR	01/07/2010
31309238	HEMORR	29/01/2008
31555376	HEMORR	26/10/2010
32094975	HEMORR	28/06/2001
31080214	HEMORR	11/08/2003
32083607	HEMORR	02/10/2006
31373906	HEMORR	15/06/2010
32040910	HEMORR	11/09/2000
31577300	HEMORR	29/06/2006
31370614	HEMORR	18/11/2002
