patient_id	covar_name	date
9384077	J06BB01	01/12/2009
11994827	J06BB01	10/09/2010
3503101	J06BB01	27/07/2010
21856467	J06BB01	05/03/2010
6182135	J06BB01	01/06/2010
6746737	J06BB01	03/02/2010
5201865	J06BB01	06/08/2009
12739599	J06BB01	29/01/2008
9347891	J06BB01	25/01/2010
8975417	J06BB01	30/09/2008
10331410	J06BB01	19/10/2007
9926472	J06BB01	25/03/2011
9231009	J06BB01	13/06/2007
7248494	J06BB01	07/04/2005
9299616	J06BB01	06/05/2008
6596931	J06BB01	07/09/2006
1135117	J06BB01	22/06/2010
1132837	J06BB01	27/08/2010
2136921	J06BB01	27/01/2010
876765	J06BB01	30/03/2010
878818	J06BB01	27/04/2007
3055259	J06BB01	10/12/2008
876900	J06BB01	29/07/2010
3052719	J06BB01	23/12/2008
3055385	J06BB01	10/09/2007
2778679	J06BB01	11/06/2007
2755886	J06BB01	23/03/2005
28063219	J06BB01	15/10/2009
17746473	J06BB01	07/09/2009
26243769	J06BB01	01/06/2011
7128475	J06BB01	21/06/2002
18472363	J06BB01	15/10/2008
7139941	J06BB01	04/01/2011
17742404	J06BB01	14/04/2005
13032210	J06BB01	18/04/2011
10490976	J06BB01	14/12/2009
6672515	J06BB01	05/02/2009
16836110	J06BB01	15/04/2010
28083517	J06BB01	27/01/2010
20146685	J06BB01	17/01/2006
28080662	J06BB01	24/04/2007
14309906	J06BB01	14/02/2006
27046397	J06BB01	27/03/2003
27127983	J06BB01	28/02/2009
33125646	J06BB01	16/06/2010
33081354	J06BB01	04/08/2009
33107082	J06BB01	28/07/2010
33113036	J06BB01	10/11/2010
33016875	J06BB01	10/03/2011
33095119	J06BB01	11/02/2008
16685032	J06BB01	08/10/2007
33046012	J06BB01	24/11/2004
33070916	J06BB01	14/03/2007
33061656	J06BB01	24/08/2004
33110773	J06BB01	24/02/2011
33200178	J06BB01	09/09/2004
32136251	J06BB01	23/02/2006
31439300	J06BB01	11/03/2005
31260823	J06BB01	29/05/2007
31786755	J06BB01	05/05/2008
31051853	J06BB01	08/11/2006
31801114	J06BB01	26/09/2007
32232461	J06BB01	16/12/2004
32123084	J06BB01	30/04/2007
31979610	J06BB01	18/11/2009
31604091	J06BB01	06/03/2009
31907879	J06BB01	25/10/2006
31179750	J06BB01	05/10/2007
31718178	J06BB01	22/02/2008
32050669	J06BB01	12/06/2008
31857606	J06BB01	12/04/2004
31261624	J06BB01	09/09/2005
32215450	J06BB01	24/05/2010
32208244	J06BB01	18/06/2008
31328945	J06BB01	20/09/2005
31154147	J06BB01	29/09/2005
31635920	J06BB01	12/08/2004
31168017	J06BB01	22/06/2007
31867069	J06BB01	22/09/2003
32063339	J06BB01	10/08/2007
32038308	J06BB01	02/09/2010
31956354	J06BB01	12/06/2003
31297112	J06BB01	25/04/2007
31443552	J06BB01	04/06/2008
32040996	J06BB01	19/11/2010
31352416	J06BB01	18/09/2006
32259542	J06BB01	04/06/2003
