patient_id	covar_name	date
10340384	J02AC02	12/02/2008
1062782	J02AC02	05/02/2004
960050	J02AC02	04/09/2006
9251250	J02AC02	04/06/2007
5028478	J02AC02	07/03/2005
12774510	J02AC02	11/09/2003
1068210	J02AC02	14/02/2008
10002116	J02AC02	10/05/2007
6178601	J02AC02	29/08/2007
10392127	J02AC02	18/07/2005
5031451	J02AC02	05/10/2010
5812917	J02AC02	18/01/2005
61487	J02AC02	16/06/2008
3321592	J02AC02	11/06/2010
10245976	J02AC02	19/05/2011
955784	J02AC02	24/05/2004
8960463	J02AC02	12/01/2009
1941527	J02AC02	14/11/2006
21372510	J02AC02	23/05/2006
62921	J02AC02	19/08/2002
3940545	J02AC02	23/03/2009
17175516	J02AC02	17/09/2010
1069599	J02AC02	18/10/2010
8979038	J02AC02	28/06/2005
5029028	J02AC02	04/09/2009
6298556	J02AC02	13/05/2008
701693	J02AC02	15/07/2003
9390097	J02AC02	03/02/2010
3123986	J02AC02	27/04/2011
13538926	J02AC02	06/04/2011
9284564	J02AC02	07/06/2007
210163	J02AC02	18/10/2004
10270387	J02AC02	24/03/2006
9325329	J02AC02	07/04/2010
954970	J02AC02	22/06/2000
11994028	J02AC02	14/02/2011
729812	J02AC02	23/02/2011
12779549	J02AC02	28/07/2009
12694740	J02AC02	26/11/2009
12778315	J02AC02	14/10/2009
600971	J02AC02	25/11/2004
12779350	J02AC02	13/05/2008
6752622	J02AC02	29/07/2004
14981481	J02AC02	30/08/2007
9383919	J02AC02	01/04/2009
13223810	J02AC02	24/10/2005
17049862	J02AC02	07/03/2011
20529358	J02AC02	10/11/2010
1939034	J02AC02	05/02/2007
18712955	J02AC02	29/01/2009
8976554	J02AC02	09/05/2005
15667816	J02AC02	02/12/2005
8556820	J02AC02	16/07/2007
17174935	J02AC02	03/03/2010
9385396	J02AC02	16/06/2009
17508306	J02AC02	08/03/2010
11993405	J02AC02	21/05/2009
9377737	J02AC02	23/12/2003
8181409	J02AC02	21/12/2010
11993793	J02AC02	30/03/2005
13222335	J02AC02	18/05/2010
9296064	J02AC02	20/09/2006
14981860	J02AC02	02/06/2009
3332633	J02AC02	06/11/2008
17369684	J02AC02	06/04/2010
1069020	J02AC02	22/06/2010
11994782	J02AC02	12/08/2008
6184040	J02AC02	24/08/2010
1007962	J02AC02	18/02/2008
1069578	J02AC02	23/02/2011
3334201	J02AC02	12/08/2003
15468331	J02AC02	15/10/2009
9328263	J02AC02	25/05/2009
13222276	J02AC02	19/10/2009
7095604	J02AC02	27/01/2009
8973277	J02AC02	27/08/2009
12478677	J02AC02	26/04/2011
21373789	J02AC02	26/09/2005
16530003	J02AC02	19/08/2009
731313	J02AC02	22/04/2003
1725994	J02AC02	04/02/2004
16529815	J02AC02	31/03/2006
12772955	J02AC02	07/06/2007
7219676	J02AC02	21/09/2010
11993430	J02AC02	15/07/2008
12779686	J02AC02	20/01/2009
12767162	J02AC02	22/10/2007
3330955	J02AC02	20/12/2010
8557367	J02AC02	25/11/2005
1936084	J02AC02	09/02/2010
5812490	J02AC02	04/04/2011
16977211	J02AC02	26/07/2005
18374730	J02AC02	09/05/2011
2622526	J02AC02	08/05/2008
6745501	J02AC02	03/09/2007
25058612	J02AC02	20/09/2006
23994781	J02AC02	05/09/2003
8292672	J02AC02	05/09/2003
17050997	J02AC02	30/04/2010
7221375	J02AC02	03/05/2010
12395903	J02AC02	30/11/2004
732722	J02AC02	11/08/2004
8651651	J02AC02	22/07/2009
21871212	J02AC02	26/01/2011
9386324	J02AC02	29/10/2009
9219029	J02AC02	08/03/2006
9327526	J02AC02	08/08/2005
16530712	J02AC02	30/12/2005
7246149	J02AC02	03/07/2007
8654015	J02AC02	21/05/2007
8640427	J02AC02	23/05/2011
8972670	J02AC02	13/05/2009
12782238	J02AC02	09/07/2009
6183311	J02AC02	25/11/2008
23442839	J02AC02	23/09/2004
24930692	J02AC02	27/09/2010
12688374	J02AC02	27/08/2010
12765626	J02AC02	10/10/2005
7162015	J02AC02	02/02/2011
1069269	J02AC02	10/08/2004
16554513	J02AC02	10/12/2010
12185915	J02AC02	31/08/2009
207178	J02AC02	31/08/2010
10003050	J02AC02	07/07/2008
702007	J02AC02	19/02/2008
10331912	J02AC02	05/01/2010
8959073	J02AC02	21/01/2008
12766507	J02AC02	05/09/2005
12763994	J02AC02	07/11/2007
12738517	J02AC02	01/09/2010
23454398	J02AC02	13/07/2009
9995583	J02AC02	10/05/2011
12730771	J02AC02	11/04/2005
6417619	J02AC02	27/03/2003
16098498	J02AC02	24/09/2010
12765089	J02AC02	12/09/2006
9296109	J02AC02	27/12/2005
8988574	J02AC02	03/03/2003
9320282	J02AC02	22/06/2004
8293752	J02AC02	20/05/2005
12777882	J02AC02	14/06/2004
8276978	J02AC02	11/05/2009
10333445	J02AC02	14/05/2007
5022239	J02AC02	22/12/2008
8989051	J02AC02	25/07/2001
12696117	J02AC02	14/02/2005
1067775	J02AC02	07/11/2008
11188249	J02AC02	17/03/2009
10394362	J02AC02	10/12/2010
12188310	J02AC02	19/06/2002
9808379	J02AC02	20/06/2008
1206063	J02AC02	14/12/2005
6601109	J02AC02	27/10/2009
7445525	J02AC02	25/07/2007
6601589	J02AC02	14/07/2009
7780208	J02AC02	15/05/2006
6598452	J02AC02	28/06/2002
640790	J02AC02	28/09/2005
7800178	J02AC02	05/09/2008
565091	J02AC02	29/10/2010
1353177	J02AC02	30/10/2000
1211343	J02AC02	31/10/2003
1351403	J02AC02	17/12/2008
1426241	J02AC02	29/09/2004
1444332	J02AC02	18/02/2010
514774	J02AC02	10/03/2009
7770971	J02AC02	12/09/2005
7777409	J02AC02	24/02/2010
1670590	J02AC02	30/05/2011
13984960	J02AC02	01/06/2000
1209207	J02AC02	13/09/2005
1205262	J02AC02	01/04/2008
1545758	J02AC02	09/03/2001
640398	J02AC02	15/12/2003
1419572	J02AC02	19/03/2008
6599648	J02AC02	13/05/2011
7966734	J02AC02	10/03/2006
565116	J02AC02	08/02/2008
11208457	J02AC02	25/06/2007
1547134	J02AC02	20/09/2001
1205544	J02AC02	07/05/2007
7848502	J02AC02	30/09/2010
438081	J02AC02	13/10/2006
1206490	J02AC02	07/12/2006
525534	J02AC02	02/04/2007
11649056	J02AC02	14/12/2009
13273125	J02AC02	15/02/2011
7817572	J02AC02	22/07/2010
1264156	J02AC02	28/06/2004
7781275	J02AC02	02/07/2007
6593822	J02AC02	11/02/2011
8453856	J02AC02	29/03/2011
1850140	J02AC02	24/06/2003
1546769	J02AC02	17/08/2000
6596437	J02AC02	07/03/2008
7802108	J02AC02	28/09/2006
6598274	J02AC02	10/03/2008
525429	J02AC02	30/07/2002
515933	J02AC02	29/09/2010
1210283	J02AC02	19/11/2010
639203	J02AC02	28/04/2000
1206395	J02AC02	27/08/2008
1351123	J02AC02	30/06/2004
539576	J02AC02	26/01/2007
1200913	J02AC02	14/05/2007
8956359	J02AC02	07/07/2008
1090765	J02AC02	15/02/2010
525368	J02AC02	28/10/2009
24719652	J02AC02	29/10/2007
1199974	J02AC02	03/04/2002
1664951	J02AC02	25/10/2002
7770805	J02AC02	05/11/2007
8063147	J02AC02	25/04/2006
1091373	J02AC02	22/10/2010
12189179	J02AC02	18/04/2002
641443	J02AC02	11/02/2011
1320228	J02AC02	28/08/2002
6602094	J02AC02	25/07/2005
6597674	J02AC02	29/01/2003
12614346	J02AC02	30/03/2010
5991520	J02AC02	19/07/2007
639310	J02AC02	09/07/2002
7849206	J02AC02	25/02/2005
6951044	J02AC02	26/09/2007
1855843	J02AC02	02/11/2001
1067175	J02AC02	26/01/2009
996288	J02AC02	19/02/2001
716428	J02AC02	16/02/2007
717570	J02AC02	05/02/2010
2734675	J02AC02	29/04/2011
13733143	J02AC02	18/06/2003
1639524	J02AC02	21/04/2009
1638022	J02AC02	08/10/2002
1638747	J02AC02	31/03/2006
891027	J02AC02	25/01/2011
1135144	J02AC02	16/10/2001
1066253	J02AC02	17/11/2005
1638786	J02AC02	09/09/2005
1130755	J02AC02	31/05/2011
1134735	J02AC02	17/02/2004
25882333	J02AC02	20/10/2004
1006571	J02AC02	11/04/2006
25891334	J02AC02	11/06/2010
1102090	J02AC02	31/07/2003
12162729	J02AC02	25/09/2002
1133112	J02AC02	24/11/2004
195582	J02AC02	04/08/2009
1640838	J02AC02	13/03/2003
1066140	J02AC02	21/10/2002
6914096	J02AC02	28/01/2003
889830	J02AC02	26/03/2007
716114	J02AC02	23/08/2005
25767981	J02AC02	31/03/2010
25891366	J02AC02	13/11/2007
192085	J02AC02	26/10/2006
891085	J02AC02	14/04/2010
25914977	J02AC02	17/05/2011
1104695	J02AC02	28/02/2002
2200948	J02AC02	02/01/2007
1134702	J02AC02	04/10/2007
25775652	J02AC02	06/10/2008
25776562	J02AC02	03/08/2009
1131941	J02AC02	21/05/2007
4861068	J02AC02	01/12/2006
1101335	J02AC02	19/02/2008
1105844	J02AC02	23/01/2007
716180	J02AC02	17/08/2009
717762	J02AC02	25/09/2008
1855343	J02AC02	28/09/2006
1552120	J02AC02	20/04/2004
717768	J02AC02	17/01/2011
996393	J02AC02	05/08/2009
996350	J02AC02	07/10/2004
1135038	J02AC02	11/12/2008
1132627	J02AC02	07/02/2008
1130372	J02AC02	23/10/2008
1856073	J02AC02	27/04/2005
889933	J02AC02	16/09/2009
2059817	J02AC02	25/06/2007
2133129	J02AC02	01/06/2011
2143593	J02AC02	13/01/2004
2045167	J02AC02	03/03/2008
2112935	J02AC02	09/08/2002
2136554	J02AC02	10/06/2010
3807369	J02AC02	10/06/2010
2058963	J02AC02	13/11/2007
2133258	J02AC02	22/07/2005
2144214	J02AC02	18/04/2007
2142935	J02AC02	20/08/2009
2112529	J02AC02	03/04/2003
2216145	J02AC02	30/09/2009
2067684	J02AC02	26/05/2009
2041106	J02AC02	17/11/2003
858856	J02AC02	25/02/2009
859949	J02AC02	15/07/2008
1764608	J02AC02	26/05/2004
2110888	J02AC02	21/11/2006
2136703	J02AC02	11/12/2006
2041465	J02AC02	24/01/2011
2139279	J02AC02	23/11/2004
2143938	J02AC02	27/10/2003
859110	J02AC02	28/06/2010
904650	J02AC02	29/01/2007
1682692	J02AC02	26/02/2007
2038784	J02AC02	06/10/2004
903206	J02AC02	25/05/2001
1683150	J02AC02	22/09/2010
878785	J02AC02	14/05/2003
859374	J02AC02	10/05/2010
1753828	J02AC02	24/03/2003
2041325	J02AC02	04/06/2003
2760233	J02AC02	13/01/2004
5471303	J02AC02	27/05/2010
876918	J02AC02	01/03/2002
2034398	J02AC02	27/02/2007
757694	J02AC02	26/07/2001
860142	J02AC02	27/10/2006
2038567	J02AC02	08/07/2003
2759303	J02AC02	10/01/2011
5471148	J02AC02	14/10/2010
3055190	J02AC02	15/02/2007
2774660	J02AC02	04/09/2003
4088261	J02AC02	08/05/2006
2778683	J02AC02	29/04/2003
2774879	J02AC02	21/09/2007
2521789	J02AC02	25/11/2005
3054956	J02AC02	02/05/2007
7135180	J02AC02	26/03/2009
2755898	J02AC02	15/06/2006
2525185	J02AC02	01/12/2003
2573816	J02AC02	08/06/2007
2763382	J02AC02	05/12/2008
2773004	J02AC02	10/04/2003
2522313	J02AC02	16/02/2005
2756961	J02AC02	22/01/2009
17741955	J02AC02	08/02/2011
16836379	J02AC02	06/04/2010
2408152	J02AC02	09/03/2005
2764508	J02AC02	15/07/2004
28062649	J02AC02	27/09/2000
28065993	J02AC02	13/04/2010
26463572	J02AC02	12/07/2010
28072130	J02AC02	17/03/2009
26565598	J02AC02	27/07/2009
28053614	J02AC02	16/02/2005
26480772	J02AC02	28/04/2006
26336806	J02AC02	25/11/2010
18224910	J02AC02	09/02/2010
7142660	J02AC02	06/07/2005
17041289	J02AC02	09/02/2011
20147370	J02AC02	14/01/2008
7136210	J02AC02	03/10/2005
7048780	J02AC02	15/04/2009
7229328	J02AC02	27/10/2004
7142308	J02AC02	13/12/2010
26462371	J02AC02	17/01/2007
26217958	J02AC02	13/03/2006
28042210	J02AC02	17/05/2004
18472156	J02AC02	21/03/2006
26235928	J02AC02	13/04/2004
26518448	J02AC02	09/09/2010
14545747	J02AC02	15/04/2008
10490976	J02AC02	02/08/2006
16980703	J02AC02	21/04/2009
7228900	J02AC02	24/02/2003
16980576	J02AC02	19/12/2007
1910163	J02AC02	21/05/2004
434967	J02AC02	04/03/2011
186183	J02AC02	24/06/2010
428347	J02AC02	26/05/2003
5074918	J02AC02	29/10/2008
184942	J02AC02	23/07/2003
464446	J02AC02	12/09/2003
185452	J02AC02	24/03/2010
423906	J02AC02	18/11/2009
2069213	J02AC02	18/09/2003
28065857	J02AC02	03/12/2003
18222373	J02AC02	07/07/2003
28083517	J02AC02	11/07/2007
20146685	J02AC02	22/03/2004
28082108	J02AC02	05/03/2009
28085720	J02AC02	01/07/2010
28084179	J02AC02	25/07/2001
28078299	J02AC02	06/10/2010
28063999	J02AC02	17/01/2008
2773937	J02AC02	19/02/2004
2777326	J02AC02	25/02/2011
304372	J02AC02	07/05/2008
425921	J02AC02	02/10/2006
2068739	J02AC02	27/06/2007
7142837	J02AC02	15/05/2008
187861	J02AC02	14/07/2009
649804	J02AC02	11/02/2009
648818	J02AC02	19/10/2006
425756	J02AC02	20/12/2006
433666	J02AC02	09/01/2004
28064242	J02AC02	03/12/2010
28079050	J02AC02	28/12/2009
28080732	J02AC02	21/10/2009
28049554	J02AC02	19/11/2010
28071181	J02AC02	22/07/2002
28051668	J02AC02	29/09/2003
26474538	J02AC02	27/05/2008
26590655	J02AC02	03/08/2004
876593	J02AC02	13/01/2006
26481277	J02AC02	04/07/2003
28056690	J02AC02	29/12/2009
24657144	J02AC02	04/06/2008
25738686	J02AC02	10/06/2009
24670517	J02AC02	07/01/2010
24661880	J02AC02	28/03/2003
24664772	J02AC02	04/07/2006
25715917	J02AC02	20/06/2008
24657004	J02AC02	15/09/2008
24663007	J02AC02	29/10/2008
24664661	J02AC02	16/06/2004
1021057	J02AC02	08/04/2010
925785	J02AC02	15/02/2007
1016457	J02AC02	09/03/2010
21063690	J02AC02	27/07/2001
1020736	J02AC02	11/03/2005
1368600	J02AC02	02/11/2009
1371126	J02AC02	10/01/2008
1028978	J02AC02	15/09/2009
1906965	J02AC02	24/11/2005
1028917	J02AC02	10/07/2010
1361853	J02AC02	04/09/2002
1366853	J02AC02	20/01/2003
1019133	J02AC02	09/03/2010
1020390	J02AC02	26/09/2003
18188728	J02AC02	24/06/2009
24670235	J02AC02	29/08/2008
18191987	J02AC02	20/12/2006
16840957	J02AC02	12/01/2009
16566924	J02AC02	20/10/2008
16568500	J02AC02	09/03/2011
19968525	J02AC02	31/03/2005
18195212	J02AC02	11/09/2006
18190504	J02AC02	30/03/2011
18198495	J02AC02	08/05/2003
19804975	J02AC02	08/11/2004
21063572	J02AC02	15/12/2006
2248310	J02AC02	25/09/2008
1370051	J02AC02	22/02/2008
2250911	J02AC02	22/02/2007
1912671	J02AC02	17/05/2005
2249815	J02AC02	09/08/2001
2964841	J02AC02	19/07/2001
1910693	J02AC02	24/10/2005
1370205	J02AC02	06/05/2009
1015995	J02AC02	03/07/2006
26767941	J02AC02	30/03/2009
26856517	J02AC02	28/04/2005
26636683	J02AC02	05/08/2005
26718272	J02AC02	08/07/2008
26835954	J02AC02	04/06/2010
2994355	J02AC02	01/07/2004
12974156	J02AC02	09/09/2002
12993757	J02AC02	28/09/2010
14310311	J02AC02	09/06/2010
26718859	J02AC02	29/11/2010
12975675	J02AC02	28/03/2008
16809413	J02AC02	14/03/2008
12994970	J02AC02	03/10/2002
26720613	J02AC02	12/08/2003
16842391	J02AC02	19/07/2005
26719166	J02AC02	14/08/2009
26618242	J02AC02	19/09/2006
21552621	J02AC02	28/09/2006
24656355	J02AC02	22/12/2004
21650926	J02AC02	29/07/2010
24577909	J02AC02	21/09/2009
24577346	J02AC02	05/05/2006
21651898	J02AC02	19/08/2009
26937774	J02AC02	12/12/2006
26917426	J02AC02	02/01/2009
26934598	J02AC02	16/11/2005
26897532	J02AC02	13/01/2010
26712083	J02AC02	14/12/2009
26716000	J02AC02	04/03/2011
26715077	J02AC02	13/04/2011
26715786	J02AC02	18/06/2007
26776005	J02AC02	14/12/2010
26714083	J02AC02	20/07/2006
26720081	J02AC02	03/03/2006
26721990	J02AC02	23/06/2008
26888411	J02AC02	09/08/2010
26876370	J02AC02	18/08/2005
26887815	J02AC02	01/07/2008
26864172	J02AC02	02/03/2009
26849091	J02AC02	23/06/2008
26882202	J02AC02	31/07/2008
26857803	J02AC02	12/05/2010
26916444	J02AC02	19/09/2003
26859472	J02AC02	30/01/2009
26868482	J02AC02	06/05/2010
26881213	J02AC02	16/12/2003
26874201	J02AC02	10/10/2005
26872935	J02AC02	18/08/2003
26848149	J02AC02	23/02/2007
26872947	J02AC02	04/09/2007
26802136	J02AC02	16/12/2005
26824327	J02AC02	18/04/2006
26713687	J02AC02	27/09/2006
26811727	J02AC02	17/02/2006
26970788	J02AC02	20/03/2007
26977323	J02AC02	03/04/2006
26962034	J02AC02	18/01/2006
26981147	J02AC02	25/06/2009
26989063	J02AC02	10/02/2009
26958269	J02AC02	21/06/2010
26963689	J02AC02	30/07/2003
27105324	J02AC02	06/06/2005
27086095	J02AC02	24/05/2011
27086102	J02AC02	14/04/2008
27037601	J02AC02	31/10/2005
27137844	J02AC02	27/12/2002
27105050	J02AC02	13/05/2009
27029722	J02AC02	28/11/2006
27061759	J02AC02	07/01/2010
27054915	J02AC02	04/01/2011
27051392	J02AC02	15/06/2006
27074537	J02AC02	17/07/2008
27056314	J02AC02	12/09/2008
27037293	J02AC02	31/01/2007
27040517	J02AC02	27/05/2005
27000273	J02AC02	28/01/2008
26978753	J02AC02	22/12/2006
27348961	J02AC02	22/08/2007
27383412	J02AC02	26/05/2010
27389505	J02AC02	02/05/2007
27385189	J02AC02	19/01/2011
27316566	J02AC02	27/03/2009
27314992	J02AC02	13/12/2007
27233440	J02AC02	30/03/2011
27314715	J02AC02	24/03/2006
27304771	J02AC02	21/11/2003
27533448	J02AC02	18/10/2010
27251223	J02AC02	19/12/2001
27316455	J02AC02	11/01/2006
27349595	J02AC02	26/01/2007
27383112	J02AC02	14/01/2009
27365164	J02AC02	08/01/2009
27361358	J02AC02	14/12/2010
27366113	J02AC02	26/06/2006
27358516	J02AC02	15/10/2004
27316036	J02AC02	21/10/2003
27170141	J02AC02	29/07/2005
26981468	J02AC02	04/04/2011
27173410	J02AC02	17/10/2008
27201413	J02AC02	26/05/2010
26968021	J02AC02	20/05/2008
26955105	J02AC02	16/07/2004
26952329	J02AC02	16/07/2010
27246011	J02AC02	17/01/2006
27709400	J02AC02	28/07/2006
27752282	J02AC02	15/05/2009
27571525	J02AC02	27/09/2004
27592604	J02AC02	04/08/2006
27646502	J02AC02	28/12/2010
27419668	J02AC02	09/06/2003
27493258	J02AC02	23/11/2009
27641246	J02AC02	01/12/2005
27427591	J02AC02	15/09/2009
27474528	J02AC02	14/10/2009
27470979	J02AC02	29/11/2005
27453600	J02AC02	02/06/2010
27606533	J02AC02	26/05/2010
27764531	J02AC02	30/06/2003
27551559	J02AC02	16/12/2004
27596385	J02AC02	08/02/2006
27614809	J02AC02	07/08/2008
27707997	J02AC02	18/03/2005
27765512	J02AC02	28/04/2003
27719211	J02AC02	22/04/2010
27614533	J02AC02	07/01/2008
27570774	J02AC02	07/04/2010
27756696	J02AC02	17/06/2009
27563858	J02AC02	14/03/2007
27764421	J02AC02	17/02/2005
27565661	J02AC02	17/05/2007
27614461	J02AC02	23/06/2008
27719042	J02AC02	14/05/2004
27147564	J02AC02	20/10/2009
27242214	J02AC02	14/02/2001
27160905	J02AC02	24/01/2008
27144885	J02AC02	23/01/2002
27144708	J02AC02	22/05/2007
27163873	J02AC02	18/02/2005
27456923	J02AC02	01/07/2010
27160080	J02AC02	11/11/2003
26718290	J02AC02	09/10/2006
26720527	J02AC02	16/01/2004
27023429	J02AC02	14/09/2009
26719792	J02AC02	21/10/2009
27780235	J02AC02	02/08/2006
27301418	J02AC02	16/05/2007
27674350	J02AC02	25/06/2008
27458870	J02AC02	02/10/2008
27684664	J02AC02	13/07/2007
27533668	J02AC02	19/07/2005
27673317	J02AC02	11/12/2003
27686843	J02AC02	28/11/2002
27533227	J02AC02	04/08/2009
27563279	J02AC02	25/03/2010
27532946	J02AC02	04/02/2009
27532981	J02AC02	20/07/2006
27317365	J02AC02	07/11/2008
27460403	J02AC02	14/07/2008
27682366	J02AC02	18/05/2009
27668538	J02AC02	27/05/2009
27684240	J02AC02	26/12/2002
24661879	J02AC02	22/03/2006
27512074	J02AC02	24/12/2008
26974258	J02AC02	16/01/2009
27667494	J02AC02	01/02/2005
26709865	J02AC02	25/08/2006
26761997	J02AC02	10/09/2009
27681780	J02AC02	09/10/2007
27682344	J02AC02	16/01/2009
27513049	J02AC02	30/04/2004
27515481	J02AC02	05/09/2003
27457939	J02AC02	25/01/2004
27321099	J02AC02	11/05/2007
27315736	J02AC02	19/08/2003
27315810	J02AC02	15/12/2006
27449105	J02AC02	21/09/2010
27454520	J02AC02	30/03/2011
27459207	J02AC02	19/08/2005
27633791	J02AC02	09/09/2005
27533143	J02AC02	21/04/2009
27496273	J02AC02	16/07/2008
27449985	J02AC02	15/03/2007
27565496	J02AC02	10/02/2009
27074467	J02AC02	09/02/2011
27799963	J02AC02	05/01/2010
27597806	J02AC02	03/06/2008
26916917	J02AC02	29/09/2004
27759577	J02AC02	04/07/2007
27718525	J02AC02	07/04/2006
27136982	J02AC02	19/10/2005
27809780	J02AC02	27/07/2004
27797533	J02AC02	22/03/2010
27797548	J02AC02	22/03/2010
1903664	J02AC02	19/04/2010
25641634	J02AC02	07/09/2007
27667214	J02AC02	15/11/2006
27459670	J02AC02	19/08/2005
428276	J02AC02	24/05/2005
27115901	J02AC02	08/10/2009
27565622	J02AC02	03/06/2004
27670314	J02AC02	23/01/2002
27657576	J02AC02	21/11/2008
27597341	J02AC02	25/08/2010
27356544	J02AC02	04/06/2009
26874199	J02AC02	04/03/2009
19800473	J02AC02	03/05/2006
26944919	J02AC02	19/07/2005
27669704	J02AC02	28/07/2003
27720183	J02AC02	11/08/2006
33105144	J02AC02	24/10/2002
33125816	J02AC02	07/05/2009
33028364	J02AC02	17/07/2008
33051320	J02AC02	30/08/2010
33037939	J02AC02	18/04/2011
33073806	J02AC02	17/10/2006
33061630	J02AC02	18/05/2006
33025269	J02AC02	17/04/2007
33000047	J02AC02	24/04/2001
33129697	J02AC02	02/11/2010
33086922	J02AC02	31/03/2009
33080368	J02AC02	03/02/2011
33068127	J02AC02	20/05/2004
33077958	J02AC02	24/03/2010
33043935	J02AC02	09/02/2010
33099563	J02AC02	06/10/2008
33000627	J02AC02	05/03/2003
33007275	J02AC02	19/05/2011
33061791	J02AC02	15/11/2005
33033944	J02AC02	06/05/2008
33055329	J02AC02	07/01/2010
33026002	J02AC02	26/04/2011
33075788	J02AC02	30/07/2001
33011078	J02AC02	02/11/2009
33029258	J02AC02	08/11/2010
33068451	J02AC02	02/05/2008
33026854	J02AC02	27/12/2005
33023977	J02AC02	20/12/2005
33086157	J02AC02	04/01/2011
33083502	J02AC02	17/02/2011
33088577	J02AC02	24/07/2006
33099318	J02AC02	31/08/2009
33084784	J02AC02	16/09/2010
33050069	J02AC02	26/03/2009
33074340	J02AC02	13/08/2010
33002793	J02AC02	27/10/2003
33006461	J02AC02	17/01/2002
33076026	J02AC02	24/06/2009
33060643	J02AC02	15/04/2008
33098127	J02AC02	25/09/2008
33034793	J02AC02	10/06/2010
33072253	J02AC02	27/12/2006
33096768	J02AC02	14/10/2009
33060086	J02AC02	21/01/2011
33106661	J02AC02	09/10/2009
33043614	J02AC02	27/10/2009
33063559	J02AC02	01/04/2008
33030108	J02AC02	26/11/2009
33092389	J02AC02	24/01/2002
33061955	J02AC02	07/11/2002
33058796	J02AC02	02/03/2006
33013033	J02AC02	05/05/2010
33038806	J02AC02	18/09/2008
33103479	J02AC02	13/08/2003
33046246	J02AC02	22/09/2009
33024491	J02AC02	14/06/2007
33106201	J02AC02	26/07/2002
33085372	J02AC02	07/11/2006
33065816	J02AC02	25/01/2010
33034999	J02AC02	27/07/2006
33117108	J02AC02	28/10/2008
180412	J02AC02	26/11/2007
27812316	J02AC02	14/11/2007
33014006	J02AC02	05/11/2009
12994297	J02AC02	03/09/2007
27798354	J02AC02	28/02/2005
33079470	J02AC02	18/07/2000
6636104	J02AC02	27/01/2011
27115918	J02AC02	30/03/2010
26881208	J02AC02	21/08/2009
27812494	J02AC02	15/09/2004
19423345	J02AC02	29/11/2007
16567941	J02AC02	25/08/2005
33072648	J02AC02	13/09/2010
33011062	J02AC02	19/08/2010
33058549	J02AC02	14/02/2005
18759143	J02AC02	01/03/2006
21109297	J02AC02	25/01/2008
23382045	J02AC02	20/10/2009
33016130	J02AC02	27/05/2010
33005936	J02AC02	21/07/2006
33004171	J02AC02	05/08/2009
33114304	J02AC02	11/05/2009
33006191	J02AC02	08/04/2011
33041177	J02AC02	28/11/2007
33024104	J02AC02	13/02/2004
33020265	J02AC02	30/08/2005
33084361	J02AC02	10/09/2009
33025298	J02AC02	01/10/2010
33106850	J02AC02	30/01/2003
33039979	J02AC02	09/07/2001
33025341	J02AC02	21/01/2003
33056325	J02AC02	10/10/2002
33050690	J02AC02	29/07/2008
33043769	J02AC02	07/12/2004
33033679	J02AC02	24/03/2004
33091831	J02AC02	02/07/2001
33099541	J02AC02	20/10/2010
33024855	J02AC02	29/10/2003
33006816	J02AC02	03/02/2009
33083224	J02AC02	26/03/2010
33046023	J02AC02	02/11/2007
33066079	J02AC02	12/03/2003
33078447	J02AC02	18/09/2007
33106615	J02AC02	22/07/2009
33066270	J02AC02	15/07/2002
33004082	J02AC02	13/05/2011
33002545	J02AC02	14/04/2010
33086443	J02AC02	29/01/2010
33020543	J02AC02	14/07/2008
33066417	J02AC02	27/08/2002
33103900	J02AC02	12/03/2007
33043124	J02AC02	17/10/2007
33065950	J02AC02	22/04/2005
33043674	J02AC02	17/06/2010
33030873	J02AC02	31/08/2006
33034268	J02AC02	14/04/2009
33017279	J02AC02	23/06/2010
33091322	J02AC02	22/12/2008
33046881	J02AC02	30/01/2001
33093016	J02AC02	11/03/2009
33014264	J02AC02	23/10/2002
33117877	J02AC02	16/01/2007
33060706	J02AC02	03/09/2009
33116126	J02AC02	01/07/2009
28005517	J02AC02	20/08/2010
23315573	J02AC02	07/06/2007
16596794	J02AC02	01/10/2002
21115127	J02AC02	01/10/2007
16711951	J02AC02	13/07/2005
28022571	J02AC02	04/04/2011
33313597	J02AC02	05/11/2009
33308377	J02AC02	22/09/2010
16596211	J02AC02	04/03/2011
16713326	J02AC02	18/01/2008
16637147	J02AC02	09/12/2010
16597365	J02AC02	10/10/2008
33228189	J02AC02	16/11/2010
16654147	J02AC02	19/01/2009
21115002	J02AC02	09/07/2008
27934525	J02AC02	16/08/2010
16610132	J02AC02	29/07/2009
16606962	J02AC02	11/01/2011
27817266	J02AC02	21/09/2010
23336805	J02AC02	02/11/2007
18770821	J02AC02	17/05/2001
23402181	J02AC02	24/05/2011
16125510	J02AC02	13/11/2006
23347570	J02AC02	14/04/2011
23332327	J02AC02	16/03/2007
16135365	J02AC02	20/02/2004
16640367	J02AC02	28/05/2010
16621293	J02AC02	03/07/2009
23353839	J02AC02	07/03/2006
33200743	J02AC02	11/09/2001
16186250	J02AC02	26/06/2002
23346962	J02AC02	09/05/2011
18728304	J02AC02	01/12/2009
20981566	J02AC02	20/01/2011
20981572	J02AC02	18/05/2007
33201602	J02AC02	17/08/2007
23381566	J02AC02	13/12/2004
16606808	J02AC02	03/09/2004
31699700	J02AC02	29/09/2006
23398442	J02AC02	08/04/2008
23381215	J02AC02	19/11/2007
16186410	J02AC02	03/04/2008
23366114	J02AC02	01/10/2007
16636987	J02AC02	07/09/2009
33207227	J02AC02	03/09/2009
28013549	J02AC02	16/06/2010
33225084	J02AC02	19/03/2007
23353918	J02AC02	25/10/2007
16598445	J02AC02	26/01/2004
32139954	J02AC02	09/01/2008
31451455	J02AC02	13/09/2005
31880331	J02AC02	10/10/2005
31480737	J02AC02	04/08/2009
31973084	J02AC02	30/11/2009
31353664	J02AC02	27/01/2006
31391321	J02AC02	18/10/2005
31720754	J02AC02	28/11/2006
31839678	J02AC02	03/08/2010
32103440	J02AC02	09/02/2007
31606160	J02AC02	29/03/2005
31438930	J02AC02	26/03/2008
31880944	J02AC02	09/01/2008
32057338	J02AC02	11/05/2007
31979808	J02AC02	09/07/2007
31749706	J02AC02	15/04/2009
31805950	J02AC02	25/01/2008
32030521	J02AC02	18/06/2002
31510794	J02AC02	16/11/2006
32121191	J02AC02	17/06/2003
31792571	J02AC02	19/05/2008
32169204	J02AC02	23/03/2007
31469680	J02AC02	06/11/2007
31955515	J02AC02	10/07/2007
31765237	J02AC02	19/12/2002
31230585	J02AC02	02/04/2007
31521873	J02AC02	25/09/2009
31543142	J02AC02	03/01/2008
32084052	J02AC02	12/04/2007
31832331	J02AC02	16/06/2008
31422263	J02AC02	20/02/2007
31259515	J02AC02	28/03/2007
31846828	J02AC02	03/07/2001
32240562	J02AC02	13/10/2004
31557995	J02AC02	26/02/2008
31530350	J02AC02	24/03/2006
31077319	J02AC02	11/09/2008
31864267	J02AC02	29/09/2010
31535186	J02AC02	15/02/2005
32218312	J02AC02	18/06/2010
31702493	J02AC02	29/01/2002
32059128	J02AC02	02/07/2008
31914183	J02AC02	17/10/2000
31292908	J02AC02	27/12/2007
31690851	J02AC02	01/04/2009
31045629	J02AC02	12/02/2004
32231437	J02AC02	29/12/2008
31670186	J02AC02	02/04/2009
31388760	J02AC02	28/03/2008
31238552	J02AC02	03/11/2006
31468633	J02AC02	04/06/2008
31217153	J02AC02	18/11/2003
31620318	J02AC02	03/04/2001
31184648	J02AC02	26/04/2007
32044812	J02AC02	23/01/2004
31471872	J02AC02	13/11/2008
31545829	J02AC02	17/10/2007
31703414	J02AC02	05/12/2008
32221033	J02AC02	16/09/2004
31138705	J02AC02	03/10/2008
32243196	J02AC02	17/12/2009
31892114	J02AC02	28/04/2008
31893494	J02AC02	26/08/2005
31903099	J02AC02	20/09/2005
31416932	J02AC02	09/11/2000
31673616	J02AC02	18/10/2006
31109367	J02AC02	23/11/2006
31324227	J02AC02	17/12/2002
31179796	J02AC02	07/04/2006
31950974	J02AC02	04/11/2004
31892951	J02AC02	19/05/2006
31878001	J02AC02	20/02/2006
31533378	J02AC02	09/06/2009
31299767	J02AC02	25/08/2009
31044215	J02AC02	11/09/2008
32243083	J02AC02	19/08/2005
31124913	J02AC02	04/03/2004
32246352	J02AC02	23/07/2007
31259396	J02AC02	21/04/2004
32202990	J02AC02	04/11/2005
32068502	J02AC02	17/05/2005
31035837	J02AC02	09/03/2004
32136199	J02AC02	08/10/2008
31575261	J02AC02	15/06/2004
31349019	J02AC02	16/07/2009
31767484	J02AC02	15/04/2009
31450548	J02AC02	10/12/2007
31245074	J02AC02	15/11/2007
32083376	J02AC02	03/10/2008
31847576	J02AC02	27/06/2007
31851612	J02AC02	21/04/2004
31053818	J02AC02	08/03/2001
32160779	J02AC02	29/10/2008
31246565	J02AC02	02/09/2008
32049967	J02AC02	11/11/2004
31278238	J02AC02	14/09/2004
31286041	J02AC02	31/07/2006
31998758	J02AC02	17/11/2008
31223261	J02AC02	24/02/2009
31591559	J02AC02	06/03/2007
31165906	J02AC02	13/02/2009
32244255	J02AC02	15/01/2003
31218008	J02AC02	06/09/2002
31263033	J02AC02	23/06/2004
31489688	J02AC02	24/08/2009
32097709	J02AC02	15/06/2006
31258197	J02AC02	30/04/2007
32196475	J02AC02	24/04/2000
31864099	J02AC02	08/01/2007
31263929	J02AC02	12/12/2007
31070106	J02AC02	28/04/2004
31521974	J02AC02	25/08/2009
31378249	J02AC02	19/10/2001
31307903	J02AC02	20/04/2007
31550841	J02AC02	25/02/2005
31714507	J02AC02	14/08/2007
31925535	J02AC02	31/10/2006
32181577	J02AC02	24/11/2004
31138935	J02AC02	31/07/2002
31632041	J02AC02	28/08/2009
32018111	J02AC02	15/10/2007
31333447	J02AC02	27/07/2006
31598763	J02AC02	14/07/2000
31108098	J02AC02	03/08/2009
32105527	J02AC02	20/01/2006
32277528	J02AC02	13/08/2009
31522507	J02AC02	27/04/2010
31607561	J02AC02	10/10/2005
31500300	J02AC02	23/01/2003
31388004	J02AC02	26/02/2009
31916030	J02AC02	14/07/2005
31782918	J02AC02	03/03/2009
31848997	J02AC02	31/01/2005
31974242	J02AC02	23/04/2003
31810642	J02AC02	30/10/2009
31437543	J02AC02	07/06/2006
31195889	J02AC02	06/02/2007
31128122	J02AC02	29/03/2007
31957512	J02AC02	11/12/2009
31417608	J02AC02	06/07/2010
31109895	J02AC02	26/04/2001
32174906	J02AC02	10/09/2007
31176608	J02AC02	26/05/2011
32077523	J02AC02	19/05/2006
32161288	J02AC02	17/12/2007
32198464	J02AC02	29/03/2005
31458645	J02AC02	26/08/2004
31876637	J02AC02	16/11/2009
31272920	J02AC02	22/10/2003
31921945	J02AC02	25/11/2002
31872945	J02AC02	25/06/2008
31682830	J02AC02	28/02/2005
31064899	J02AC02	03/07/2007
32090511	J02AC02	13/11/2009
31077682	J02AC02	16/02/2005
31920467	J02AC02	23/06/2004
31901788	J02AC02	02/03/2005
31928242	J02AC02	27/07/2004
32088000	J02AC02	28/07/2005
31510398	J02AC02	06/04/2011
31841895	J02AC02	20/01/2010
31916613	J02AC02	07/07/2006
32246429	J02AC02	16/01/2006
31856153	J02AC02	27/04/2004
31942616	J02AC02	07/05/2008
32123344	J02AC02	25/05/2009
31327890	J02AC02	25/11/2005
31896648	J02AC02	22/07/2004
31519781	J02AC02	13/02/2004
31919328	J02AC02	03/06/2002
31220528	J02AC02	03/08/2010
31898173	J02AC02	27/04/2005
31439367	J02AC02	08/02/2006
31255794	J02AC02	05/05/2008
31427055	J02AC02	05/03/2007
31485682	J02AC02	05/08/2008
31942162	J02AC02	14/02/2002
31771079	J02AC02	08/11/2005
31949780	J02AC02	14/06/2004
31240257	J02AC02	29/07/2008
31462204	J02AC02	23/08/2004
32092391	J02AC02	07/03/2008
31903971	J02AC02	17/07/2008
32127700	J02AC02	19/11/2008
31445281	J02AC02	07/11/2006
31210996	J02AC02	05/11/2004
31847191	J02AC02	10/10/2005
31099021	J02AC02	15/02/2005
31610267	J02AC02	18/07/2006
31353393	J02AC02	02/04/2003
31309161	J02AC02	16/01/2009
31188039	J02AC02	26/11/2007
31245180	J02AC02	19/08/2008
31201230	J02AC02	28/12/2006
31431642	J02AC02	16/01/2002
31703705	J02AC02	07/11/2003
31073086	J02AC02	10/09/2008
32232871	J02AC02	05/10/2005
31323296	J02AC02	17/09/2002
31445382	J02AC02	25/05/2007
31125472	J02AC02	22/02/2010
31944943	J02AC02	25/01/2007
32239114	J02AC02	20/12/2001
32190489	J02AC02	02/08/2010
32112814	J02AC02	10/02/2005
31171012	J02AC02	07/03/2003
31852625	J02AC02	09/10/2008
31115224	J02AC02	10/04/2001
31269908	J02AC02	29/11/2006
31322169	J02AC02	06/10/2009
31943993	J02AC02	21/10/2010
31574647	J02AC02	17/06/2008
31577314	J02AC02	08/01/2003
32010772	J02AC02	13/11/2007
31195123	J02AC02	09/07/2007
32172086	J02AC02	07/05/2007
31649659	J02AC02	08/07/2008
31942979	J02AC02	19/12/2005
31970673	J02AC02	15/07/2003
31182961	J02AC02	05/08/2009
32140948	J02AC02	09/12/2009
31626804	J02AC02	23/09/2002
31202980	J02AC02	05/10/2004
32005750	J02AC02	21/08/2008
32279388	J02AC02	28/08/2006
31829829	J02AC02	09/12/2009
31776317	J02AC02	16/12/2009
31741509	J02AC02	01/10/2009
31740407	J02AC02	28/03/2007
32132667	J02AC02	16/06/2008
31416360	J02AC02	22/05/2008
31861365	J02AC02	20/10/2005
31084995	J02AC02	26/07/2006
31790134	J02AC02	03/06/2003
32190434	J02AC02	19/02/2004
31988487	J02AC02	05/03/2004
31282511	J02AC02	27/06/2005
32095305	J02AC02	28/09/2006
31608836	J02AC02	05/10/2004
32168756	J02AC02	07/08/2007
31257145	J02AC02	14/05/2010
32070505	J02AC02	12/11/2004
31227723	J02AC02	29/12/2009
32247123	J02AC02	10/07/2007
32158039	J02AC02	20/07/2010
31446226	J02AC02	28/09/2004
32178757	J02AC02	15/03/2007
31036635	J02AC02	26/09/2007
31730577	J02AC02	07/11/2008
31640321	J02AC02	30/11/2006
