patient_id	covar_name	date
5026147	J01DD16	03/02/2010
9311739	J01DD16	14/02/2011
16109980	J01DD16	02/02/2010
9209336	J01DD16	01/02/2007
8521498	J01DD16	08/07/2008
8640108	J01DD16	20/06/2007
15899105	J01DD16	11/06/2008
702188	J01DD16	05/06/2008
12761824	J01DD16	24/04/2009
8652950	J01DD16	11/05/2011
22918279	J01DD16	11/12/2008
9388796	J01DD16	02/07/2009
1069599	J01DD16	23/01/2008
12696424	J01DD16	01/12/2009
20529245	J01DD16	29/04/2011
23454844	J01DD16	09/02/2010
12762015	J01DD16	22/01/2008
10332940	J01DD16	27/09/2007
11814443	J01DD16	15/10/2008
9383919	J01DD16	11/03/2009
7372257	J01DD16	29/01/2009
12193173	J01DD16	22/03/2010
6749753	J01DD16	10/01/2007
5867543	J01DD16	09/04/2007
8651581	J01DD16	22/09/2010
21871509	J01DD16	28/10/2010
9209479	J01DD16	24/07/2009
9285061	J01DD16	24/02/2009
24930719	J01DD16	02/10/2009
18628876	J01DD16	14/02/2011
13735550	J01DD16	08/03/2011
6835861	J01DD16	19/10/2010
10270238	J01DD16	23/05/2011
12182868	J01DD16	24/05/2010
12767000	J01DD16	17/02/2006
12730840	J01DD16	21/12/2007
9388668	J01DD16	08/01/2009
9375773	J01DD16	13/07/2010
8643113	J01DD16	31/01/2007
10395603	J01DD16	27/08/2007
732722	J01DD16	24/04/2007
9387065	J01DD16	13/03/2007
940917	J01DD16	05/01/2009
6749295	J01DD16	24/11/2009
21871587	J01DD16	13/04/2007
8651304	J01DD16	15/12/2009
6040773	J01DD16	19/08/2008
8702733	J01DD16	24/06/2008
18163097	J01DD16	13/02/2009
9383142	J01DD16	16/06/2006
9349186	J01DD16	27/04/2009
12730771	J01DD16	14/01/2008
9284806	J01DD16	31/01/2008
1334775	J01DD16	15/06/2005
12766668	J01DD16	12/05/2009
19184721	J01DD16	02/02/2010
1069550	J01DD16	13/02/2008
24763564	J01DD16	17/10/2007
24721032	J01DD16	19/01/2011
3074338	J01DD16	20/06/2010
26139680	J01DD16	01/10/2010
1172020	J01DD16	29/10/2010
7967084	J01DD16	11/01/2011
5992700	J01DD16	18/09/2008
26144152	J01DD16	30/12/2010
648760	J01DD16	09/08/2010
10081530	J01DD16	21/07/2008
639892	J01DD16	30/03/2011
8956630	J01DD16	19/01/2006
648336	J01DD16	03/01/2011
7966461	J01DD16	19/04/2011
26139303	J01DD16	05/10/2009
5992373	J01DD16	13/04/2007
565283	J01DD16	15/12/2008
1172012	J01DD16	10/10/2006
5992369	J01DD16	31/10/2008
13066377	J01DD16	07/02/2010
15623737	J01DD16	01/10/2010
7966633	J01DD16	13/05/2010
6592990	J01DD16	08/03/2010
641672	J01DD16	03/11/2010
7777716	J01DD16	13/07/2010
7966257	J01DD16	29/09/2009
26145606	J01DD16	14/09/2010
7697001	J01DD16	21/03/2011
1135215	J01DD16	08/02/2011
1133221	J01DD16	14/01/2011
15798351	J01DD16	21/10/2010
1110947	J01DD16	05/05/2009
1638022	J01DD16	07/04/2009
1855368	J01DD16	25/10/2007
1006749	J01DD16	08/09/2008
1130304	J01DD16	11/06/2007
1110970	J01DD16	05/07/2005
1638137	J01DD16	11/03/2009
486570	J01DD16	20/12/2006
2800314	J01DD16	20/10/2010
1641072	J01DD16	16/05/2008
1638220	J01DD16	09/01/2007
189189	J01DD16	16/07/2008
190343	J01DD16	07/04/2009
1638528	J01DD16	20/12/2006
1578839	J01DD16	30/03/2009
25860190	J01DD16	23/05/2011
1855343	J01DD16	22/11/2010
1103040	J01DD16	12/01/2011
1134693	J01DD16	25/02/2008
1134812	J01DD16	26/04/2005
716836	J01DD16	14/10/2009
25908066	J01DD16	05/09/2007
889933	J01DD16	05/11/2008
2164170	J01DD16	05/04/2011
2216845	J01DD16	09/05/2008
1761601	J01DD16	19/02/2007
7037584	J01DD16	19/01/2010
2766244	J01DD16	19/05/2008
3054486	J01DD16	21/05/2009
2238871	J01DD16	02/09/2010
16980510	J01DD16	25/02/2011
2525520	J01DD16	10/01/2006
28045594	J01DD16	22/12/2006
26462819	J01DD16	10/02/2011
26351975	J01DD16	30/11/2006
26461925	J01DD16	29/04/2011
17041146	J01DD16	09/03/2007
26261422	J01DD16	09/12/2008
26350257	J01DD16	20/06/2006
17041018	J01DD16	20/02/2007
185772	J01DD16	23/10/2006
186158	J01DD16	06/02/2008
6577193	J01DD16	06/11/2007
302849	J01DD16	17/07/2007
2958823	J01DD16	13/10/2008
303161	J01DD16	17/02/2011
187884	J01DD16	18/10/2006
464564	J01DD16	27/12/2008
28046063	J01DD16	16/01/2009
435889	J01DD16	26/02/2009
186579	J01DD16	06/02/2008
187189	J01DD16	03/01/2007
265635	J01DD16	05/06/2009
187998	J01DD16	13/06/2007
185854	J01DD16	15/10/2007
648824	J01DD16	06/09/2010
185927	J01DD16	30/01/2006
28062996	J01DD16	09/06/2008
26477700	J01DD16	13/11/2009
24666302	J01DD16	17/05/2010
24669056	J01DD16	22/03/2011
25743607	J01DD16	29/04/2008
25743054	J01DD16	18/12/2006
1019290	J01DD16	01/02/2011
1019300	J01DD16	25/01/2010
1015551	J01DD16	27/03/2006
1020473	J01DD16	06/10/2010
1363712	J01DD16	09/02/2010
1030772	J01DD16	20/01/2009
1013085	J01DD16	02/02/2009
1363221	J01DD16	05/06/2006
1342869	J01DD16	20/02/2006
1020390	J01DD16	23/12/2010
19423453	J01DD16	27/10/2008
18193999	J01DD16	04/06/2007
18194455	J01DD16	22/01/2010
25739625	J01DD16	27/11/2008
18193244	J01DD16	11/10/2010
19801160	J01DD16	15/12/2006
18197591	J01DD16	01/12/2008
19765489	J01DD16	18/09/2007
2249815	J01DD16	14/04/2009
2250579	J01DD16	11/04/2011
1017307	J01DD16	27/03/2009
26778674	J01DD16	19/07/2010
26621036	J01DD16	11/07/2007
26852285	J01DD16	06/11/2008
26778526	J01DD16	02/01/2011
26625877	J01DD16	16/06/2010
26619130	J01DD16	06/11/2009
26801033	J01DD16	04/11/2010
21552949	J01DD16	11/02/2010
13872249	J01DD16	08/06/2009
17165387	J01DD16	01/06/2011
2988267	J01DD16	29/04/2005
2987010	J01DD16	05/10/2007
11674892	J01DD16	02/03/2011
17165199	J01DD16	05/06/2009
26707001	J01DD16	21/09/2009
26701991	J01DD16	02/10/2007
26724456	J01DD16	05/05/2008
26617547	J01DD16	14/02/2008
26720613	J01DD16	16/01/2009
26626137	J01DD16	23/11/2009
26630386	J01DD16	01/07/2008
26718324	J01DD16	19/08/2010
21552734	J01DD16	05/01/2009
22921553	J01DD16	27/01/2010
23463234	J01DD16	29/12/2009
22922286	J01DD16	06/11/2007
26944866	J01DD16	25/01/2006
26946963	J01DD16	13/05/2010
26946970	J01DD16	07/04/2009
26995117	J01DD16	25/09/2009
26729083	J01DD16	24/11/2008
26742016	J01DD16	13/01/2006
26871932	J01DD16	18/02/2011
26718350	J01DD16	05/11/2007
26851612	J01DD16	20/11/2007
26872947	J01DD16	14/04/2011
26800799	J01DD16	28/10/2008
26801423	J01DD16	03/03/2005
26730666	J01DD16	17/01/2008
26728879	J01DD16	15/10/2007
26805018	J01DD16	27/01/2011
26729217	J01DD16	05/09/2006
26710960	J01DD16	08/08/2007
26717001	J01DD16	19/05/2009
26711151	J01DD16	26/12/2008
27079131	J01DD16	09/12/2008
27073378	J01DD16	01/09/2010
26992609	J01DD16	22/01/2007
26956977	J01DD16	11/01/2008
26994023	J01DD16	31/12/2009
27086068	J01DD16	22/01/2007
27085746	J01DD16	26/01/2006
27086102	J01DD16	29/12/2008
27113158	J01DD16	20/03/2009
27085859	J01DD16	17/11/2006
27086147	J01DD16	11/01/2007
27086224	J01DD16	06/06/2008
27100214	J01DD16	25/09/2006
27084312	J01DD16	08/02/2008
27085041	J01DD16	17/11/2008
27061141	J01DD16	17/02/2011
27064483	J01DD16	01/12/2010
27061186	J01DD16	22/02/2011
27127029	J01DD16	14/12/2009
27066373	J01DD16	06/08/2010
27062156	J01DD16	17/11/2008
27061753	J01DD16	08/01/2011
27073169	J01DD16	31/05/2011
27034376	J01DD16	12/12/2008
27032133	J01DD16	02/12/2008
26998320	J01DD16	17/06/2009
26996261	J01DD16	18/11/2008
27039270	J01DD16	13/11/2009
27000812	J01DD16	09/02/2009
27169345	J01DD16	21/10/2008
27285954	J01DD16	29/11/2006
27169570	J01DD16	29/04/2009
27347868	J01DD16	01/03/2010
27168097	J01DD16	07/07/2010
27168136	J01DD16	22/03/2008
27284737	J01DD16	26/03/2007
27366710	J01DD16	04/02/2008
27220677	J01DD16	25/11/2008
27365164	J01DD16	07/03/2007
27364746	J01DD16	08/03/2007
27347786	J01DD16	24/04/2009
27305099	J01DD16	06/02/2006
27361358	J01DD16	05/07/2010
27305367	J01DD16	31/05/2010
27296189	J01DD16	28/02/2011
26967221	J01DD16	11/05/2010
26992485	J01DD16	14/04/2008
26992519	J01DD16	20/05/2008
26994284	J01DD16	10/10/2008
27246020	J01DD16	19/06/2007
27171327	J01DD16	03/01/2011
27571525	J01DD16	12/01/2010
27640466	J01DD16	24/04/2008
27642131	J01DD16	07/12/2010
27646878	J01DD16	23/03/2011
27600175	J01DD16	10/01/2010
27574591	J01DD16	18/05/2005
27578159	J01DD16	31/03/2010
27648016	J01DD16	24/07/2009
27414554	J01DD16	12/11/2009
27645505	J01DD16	18/05/2010
27493376	J01DD16	25/03/2010
27493387	J01DD16	27/11/2009
27472835	J01DD16	11/01/2011
27639379	J01DD16	23/03/2010
27640833	J01DD16	04/01/2011
27492867	J01DD16	01/04/2011
27647710	J01DD16	27/04/2011
27764749	J01DD16	30/12/2009
27765512	J01DD16	14/02/2011
27563858	J01DD16	11/10/2010
27571594	J01DD16	04/02/2008
27716033	J01DD16	18/01/2011
27568025	J01DD16	03/01/2011
27283840	J01DD16	11/01/2011
27247076	J01DD16	05/08/2009
27159650	J01DD16	20/09/2007
27147928	J01DD16	30/03/2009
27167911	J01DD16	14/05/2008
27476329	J01DD16	14/04/2010
27782669	J01DD16	03/05/2010
27012639	J01DD16	16/10/2007
27169167	J01DD16	02/03/2011
27530515	J01DD16	29/12/2007
27476788	J01DD16	15/04/2011
27538570	J01DD16	13/01/2011
27533855	J01DD16	23/02/2011
27785654	J01DD16	09/06/2005
27719839	J01DD16	12/11/2007
27457636	J01DD16	06/02/2009
27614649	J01DD16	26/04/2011
27531259	J01DD16	27/10/2007
27010455	J01DD16	12/12/2008
26992037	J01DD16	29/08/2006
26709865	J01DD16	18/04/2008
27530591	J01DD16	26/09/2009
27471936	J01DD16	23/04/2008
27473750	J01DD16	28/01/2011
27528690	J01DD16	04/03/2011
27529287	J01DD16	02/08/2010
27496273	J01DD16	25/10/2008
27445305	J01DD16	18/01/2011
26933407	J01DD16	17/12/2007
27799332	J01DD16	04/08/2009
41170	J01DD16	23/12/2008
27074467	J01DD16	31/12/2008
27640778	J01DD16	23/10/2008
27160154	J01DD16	13/07/2010
26805773	J01DD16	25/02/2011
27683168	J01DD16	09/04/2011
27796621	J01DD16	30/01/2006
21705761	J01DD16	24/11/2008
26992651	J01DD16	08/08/2006
27805960	J01DD16	08/01/2010
27764267	J01DD16	06/10/2010
26730671	J01DD16	02/01/2006
187456	J01DD16	13/11/2006
27170744	J01DD16	29/12/2008
27564429	J01DD16	14/05/2010
27492432	J01DD16	13/05/2008
27452134	J01DD16	26/05/2005
26848389	J01DD16	26/03/2011
27679236	J01DD16	09/08/2010
26834550	J01DD16	11/03/2009
26711256	J01DD16	26/01/2005
27413880	J01DD16	13/04/2010
27796212	J01DD16	01/02/2006
26776955	J01DD16	14/09/2005
27366514	J01DD16	19/02/2009
27366636	J01DD16	23/11/2007
27806522	J01DD16	19/01/2010
21553613	J01DD16	07/04/2009
33005211	J01DD16	11/02/2009
33131186	J01DD16	07/10/2009
33058109	J01DD16	30/01/2007
33065445	J01DD16	21/03/2007
33019657	J01DD16	07/01/2008
33068637	J01DD16	26/01/2009
33086083	J01DD16	03/10/2005
33058461	J01DD16	11/05/2005
33016797	J01DD16	25/01/2005
33074340	J01DD16	17/07/2009
33016621	J01DD16	20/12/2006
33074872	J01DD16	01/12/2005
33105550	J01DD16	16/08/2010
33071918	J01DD16	30/01/2009
33024115	J01DD16	18/05/2006
33072303	J01DD16	15/12/2006
33045539	J01DD16	03/12/2008
33025068	J01DD16	23/01/2009
33112822	J01DD16	20/06/2008
33006134	J01DD16	27/02/2008
33112374	J01DD16	25/09/2008
33114614	J01DD16	28/06/2010
33094979	J01DD16	04/08/2009
33065393	J01DD16	23/12/2010
33065816	J01DD16	15/05/2008
33067653	J01DD16	26/12/2005
33072776	J01DD16	29/12/2005
33005008	J01DD16	29/04/2009
33066001	J01DD16	29/03/2006
33034168	J01DD16	06/02/2009
33079596	J01DD16	12/04/2011
33032821	J01DD16	05/06/2006
6636104	J01DD16	07/12/2010
33043382	J01DD16	12/01/2007
26625913	J01DD16	04/01/2010
183728	J01DD16	05/07/2007
33054276	J01DD16	09/08/2010
27798156	J01DD16	31/01/2011
27798157	J01DD16	13/01/2011
26707330	J01DD16	15/03/2011
27914451	J01DD16	02/03/2011
20982153	J01DD16	13/05/2007
33058773	J01DD16	04/09/2007
33085861	J01DD16	06/11/2008
33025298	J01DD16	16/01/2008
33050690	J01DD16	01/10/2009
33013638	J01DD16	03/01/2008
33024229	J01DD16	12/07/2010
33044433	J01DD16	19/08/2009
33025702	J01DD16	04/08/2009
33106625	J01DD16	20/11/2009
33044348	J01DD16	25/11/2008
33083224	J01DD16	17/07/2007
33086301	J01DD16	15/05/2006
33054822	J01DD16	18/12/2008
33066270	J01DD16	13/04/2009
33124927	J01DD16	24/06/2010
33008461	J01DD16	29/04/2011
33007224	J01DD16	08/02/2010
33052051	J01DD16	19/05/2010
33050169	J01DD16	29/11/2010
33112009	J01DD16	10/02/2011
33080540	J01DD16	08/11/2010
33065950	J01DD16	16/04/2007
33033727	J01DD16	24/06/2005
33011953	J01DD16	22/11/2006
33026483	J01DD16	10/09/2010
33082095	J01DD16	26/01/2009
33113513	J01DD16	24/07/2006
33005144	J01DD16	21/11/2007
33017279	J01DD16	12/06/2008
33091322	J01DD16	06/10/2010
33019967	J01DD16	09/03/2009
33053309	J01DD16	05/02/2010
33061838	J01DD16	21/04/2010
33044074	J01DD16	14/03/2011
16625249	J01DD16	04/03/2011
27984436	J01DD16	21/04/2009
23407899	J01DD16	06/10/2010
16639844	J01DD16	23/07/2007
28021031	J01DD16	09/02/2009
16181789	J01DD16	18/12/2007
16708223	J01DD16	14/02/2006
27984290	J01DD16	23/10/2010
21109195	J01DD16	21/01/2010
27983244	J01DD16	09/11/2007
28020243	J01DD16	19/10/2007
20982073	J01DD16	19/09/2007
16165721	J01DD16	16/02/2011
23354990	J01DD16	23/05/2011
23400888	J01DD16	07/04/2010
23401470	J01DD16	19/03/2009
23367450	J01DD16	30/07/2007
33245266	J01DD16	17/12/2009
16684643	J01DD16	13/03/2009
27983174	J01DD16	03/12/2010
16634522	J01DD16	17/01/2008
23396411	J01DD16	16/10/2006
23410797	J01DD16	30/12/2010
16631291	J01DD16	11/01/2010
23402116	J01DD16	10/02/2009
23354037	J01DD16	26/12/2008
23410738	J01DD16	25/03/2011
24463058	J01DD16	03/04/2007
32156704	J01DD16	26/10/2007
23401248	J01DD16	20/08/2008
16181768	J01DD16	12/12/2007
33245848	J01DD16	02/03/2010
23406106	J01DD16	04/08/2010
23349644	J01DD16	28/12/2010
33315070	J01DD16	05/03/2010
33312738	J01DD16	16/12/2009
16637204	J01DD16	02/02/2007
33290165	J01DD16	09/03/2010
23406293	J01DD16	28/05/2008
23406273	J01DD16	12/03/2008
33224968	J01DD16	16/04/2010
23401244	J01DD16	27/11/2008
31159532	J01DD16	11/12/2008
31524449	J01DD16	27/03/2008
32175738	J01DD16	26/11/2007
31243230	J01DD16	05/09/2006
31039571	J01DD16	12/05/2008
31634372	J01DD16	13/07/2009
31037188	J01DD16	09/01/2009
31147797	J01DD16	26/01/2006
31213209	J01DD16	09/05/2007
32282437	J01DD16	08/07/2009
31467850	J01DD16	15/01/2008
31444611	J01DD16	12/05/2008
31670186	J01DD16	24/03/2008
31851354	J01DD16	07/09/2007
31085239	J01DD16	17/10/2007
31136755	J01DD16	26/02/2007
32079219	J01DD16	26/03/2007
31612836	J01DD16	28/08/2008
31090531	J01DD16	29/03/2010
31537958	J01DD16	30/10/2009
31509351	J01DD16	10/01/2011
31235867	J01DD16	08/06/2007
31646804	J01DD16	02/10/2007
31054626	J01DD16	20/10/2008
31927982	J01DD16	29/11/2007
32030891	J01DD16	13/03/2007
31241434	J01DD16	13/07/2010
32067477	J01DD16	14/01/2008
31379436	J01DD16	03/09/2008
31904860	J01DD16	16/08/2007
32006865	J01DD16	02/04/2007
31126185	J01DD16	25/10/2010
31273175	J01DD16	11/02/2008
31237604	J01DD16	05/05/2011
32238831	J01DD16	25/07/2007
32016419	J01DD16	06/02/2008
31235731	J01DD16	28/06/2006
31966120	J01DD16	18/01/2007
31822746	J01DD16	28/12/2009
31501864	J01DD16	22/12/2009
31726651	J01DD16	27/02/2006
31825880	J01DD16	04/10/2006
31055196	J01DD16	05/05/2009
31230558	J01DD16	05/07/2007
31446397	J01DD16	19/02/2009
31405567	J01DD16	29/12/2006
31708797	J01DD16	25/09/2007
31626969	J01DD16	27/05/2008
31187646	J01DD16	18/05/2007
31219593	J01DD16	11/11/2010
32278817	J01DD16	03/05/2011
31752653	J01DD16	21/02/2007
31714524	J01DD16	23/03/2007
31647102	J01DD16	30/06/2008
31349160	J01DD16	12/11/2009
32271038	J01DD16	24/03/2009
31051598	J01DD16	30/04/2009
31657268	J01DD16	17/11/2006
31616921	J01DD16	24/01/2011
31307812	J01DD16	16/05/2006
31335773	J01DD16	20/03/2007
31393751	J01DD16	25/04/2005
31513020	J01DD16	01/12/2008
31918740	J01DD16	28/02/2008
32199492	J01DD16	11/05/2011
31312010	J01DD16	28/01/2008
31854529	J01DD16	26/06/2007
32154430	J01DD16	14/04/2009
31228659	J01DD16	11/03/2009
31897426	J01DD16	30/12/2008
31144994	J01DD16	01/06/2009
31329818	J01DD16	24/06/2009
31390372	J01DD16	08/06/2009
