patient_id	covar_name	date
949712	J05AB11	26/07/2002
8581315	J05AB11	05/05/2011
21859577	J05AB11	05/09/2006
3304084	J05AB11	10/05/2005
10002116	J05AB11	04/05/2005
8568002	J05AB11	21/05/2007
12185515	J05AB11	15/12/2008
23442395	J05AB11	28/04/2008
6236546	J05AB11	30/09/2008
3122629	J05AB11	12/03/2008
19184498	J05AB11	19/05/2010
20549671	J05AB11	02/11/2009
11660918	J05AB11	30/07/2010
3501435	J05AB11	07/04/2011
5867995	J05AB11	30/07/2009
5034385	J05AB11	03/02/2005
21152857	J05AB11	06/06/2008
9311044	J05AB11	08/01/2008
9310772	J05AB11	06/07/2007
9370792	J05AB11	10/05/2010
9386927	J05AB11	22/06/2005
11661551	J05AB11	03/08/2007
10246840	J05AB11	05/03/2009
7095604	J05AB11	29/09/2004
1331502	J05AB11	14/10/2004
9388668	J05AB11	02/11/2004
20351368	J05AB11	18/04/2001
17174978	J05AB11	23/03/2006
1303002	J05AB11	23/08/2004
6759252	J05AB11	13/02/2008
3303065	J05AB11	19/10/2009
292904	J05AB11	02/03/2005
9374971	J05AB11	25/02/2011
12185318	J05AB11	13/10/2009
293300	J05AB11	09/05/2011
3289948	J05AB11	21/06/2007
613278	J05AB11	27/10/2004
16530087	J05AB11	28/02/2011
8409503	J05AB11	18/03/2009
16100898	J05AB11	04/07/2005
25062059	J05AB11	03/01/2008
9983309	J05AB11	03/06/2004
21369815	J05AB11	28/04/2011
10270612	J05AB11	02/11/2006
3303810	J05AB11	04/08/2010
9375873	J05AB11	18/05/2011
8981317	J05AB11	22/09/2010
6594789	J05AB11	13/12/2010
641127	J05AB11	12/02/2009
1445893	J05AB11	16/08/2008
1321262	J05AB11	27/08/2010
1349650	J05AB11	12/11/2005
1276830	J05AB11	13/02/2006
8934911	J05AB11	15/12/2008
1203945	J05AB11	26/05/2011
6591734	J05AB11	15/05/2009
1349300	J05AB11	08/09/2000
7770097	J05AB11	01/07/2004
7966734	J05AB11	14/12/2004
5991623	J05AB11	30/04/2007
7848502	J05AB11	23/04/2007
539256	J05AB11	17/01/2011
1204770	J05AB11	10/07/2005
12626771	J05AB11	28/12/2010
7076246	J05AB11	28/09/2006
1198913	J05AB11	22/05/2006
7780697	J05AB11	26/12/2005
1545722	J05AB11	22/05/2008
515988	J05AB11	30/08/2004
6592990	J05AB11	02/09/2008
6602975	J05AB11	15/02/2001
1851260	J05AB11	04/07/2007
1107488	J05AB11	13/08/2008
1647737	J05AB11	19/06/2006
1353013	J05AB11	23/04/2004
1639039	J05AB11	18/05/2011
1638565	J05AB11	28/12/2009
1101989	J05AB11	06/05/2005
194827	J05AB11	09/09/2004
889933	J05AB11	25/09/2007
2133498	J05AB11	31/07/2006
2070277	J05AB11	10/06/2004
859215	J05AB11	25/04/2006
1755826	J05AB11	01/09/2009
26481067	J05AB11	07/06/2005
7136827	J05AB11	13/11/2004
26565304	J05AB11	18/09/2005
423010	J05AB11	09/08/1999
434740	J05AB11	24/11/2006
1019947	J05AB11	21/02/2011
464558	J05AB11	19/05/2008
2960079	J05AB11	17/04/2004
28063839	J05AB11	06/03/2008
427372	J05AB11	01/01/2007
423385	J05AB11	22/05/2001
2068739	J05AB11	07/09/2005
24663041	J05AB11	26/11/2002
24661671	J05AB11	14/08/2004
24668234	J05AB11	05/09/2006
25641784	J05AB11	02/01/2006
1365424	J05AB11	04/01/2007
1903907	J05AB11	03/02/2005
1369115	J05AB11	14/09/2002
1020566	J05AB11	09/02/2006
40584	J05AB11	20/06/2005
1366896	J05AB11	07/09/2005
18186683	J05AB11	17/03/2003
17596151	J05AB11	21/02/2008
1903630	J05AB11	22/12/2004
1910115	J05AB11	20/09/2004
1904262	J05AB11	02/01/2008
2961349	J05AB11	01/12/2008
2967127	J05AB11	30/07/2009
26784206	J05AB11	18/05/2006
26833892	J05AB11	13/06/2008
26835603	J05AB11	31/10/2005
26628519	J05AB11	12/11/2009
26830352	J05AB11	16/07/2007
26637149	J05AB11	10/07/2008
26803235	J05AB11	18/12/2003
14063337	J05AB11	31/01/2008
15810332	J05AB11	20/12/2004
13873909	J05AB11	10/02/2005
16844100	J05AB11	08/07/2004
12976422	J05AB11	15/01/2002
24654583	J05AB11	27/12/2001
14311227	J05AB11	18/12/2004
26640542	J05AB11	19/11/2002
26706433	J05AB11	23/02/2005
2990113	J05AB11	26/01/2009
24582540	J05AB11	11/05/2005
26931533	J05AB11	17/01/2007
26781478	J05AB11	26/07/2006
26879235	J05AB11	15/04/2008
26879299	J05AB11	05/04/2010
26741963	J05AB11	28/11/2008
26730135	J05AB11	11/06/2010
26858359	J05AB11	18/05/2009
26847639	J05AB11	30/01/2006
26835238	J05AB11	15/10/2010
26793083	J05AB11	27/11/2008
26776357	J05AB11	29/04/2011
26831366	J05AB11	02/12/2010
26770789	J05AB11	09/09/2008
26989770	J05AB11	11/03/2011
27110520	J05AB11	08/11/2007
27128238	J05AB11	23/06/2004
27108993	J05AB11	03/02/2009
27115263	J05AB11	14/04/2003
27104284	J05AB11	22/08/2005
27043656	J05AB11	02/02/2007
27033025	J05AB11	15/02/2006
27085882	J05AB11	17/01/2005
27025150	J05AB11	21/09/2010
27026334	J05AB11	14/06/2004
27014607	J05AB11	04/01/2007
27024702	J05AB11	16/12/2008
27379761	J05AB11	22/02/2008
27379843	J05AB11	01/08/2008
27349891	J05AB11	19/05/2008
27362286	J05AB11	23/07/2009
27359705	J05AB11	10/05/2007
27230962	J05AB11	15/04/2008
26950673	J05AB11	09/12/2010
26976774	J05AB11	11/04/2010
27169738	J05AB11	19/04/2011
27596311	J05AB11	12/06/2007
27471719	J05AB11	23/02/2010
27644250	J05AB11	04/10/2008
27647339	J05AB11	14/02/2007
27647477	J05AB11	25/02/2009
27639481	J05AB11	01/12/2007
27645639	J05AB11	10/11/2010
27414013	J05AB11	05/11/2010
27644214	J05AB11	13/12/2010
27765512	J05AB11	31/01/2004
27764873	J05AB11	13/08/2007
27743940	J05AB11	09/10/2006
27544017	J05AB11	25/04/2005
27167709	J05AB11	02/08/2005
27153476	J05AB11	31/05/2007
27167758	J05AB11	22/10/2001
27469950	J05AB11	06/10/2006
27621750	J05AB11	02/08/2006
27456675	J05AB11	30/03/2005
27458310	J05AB11	18/05/2007
27449339	J05AB11	07/08/2007
27530889	J05AB11	19/07/2005
27460403	J05AB11	08/10/2009
301444	J05AB11	23/04/2009
421835	J05AB11	19/08/2007
27671191	J05AB11	02/04/2007
27459919	J05AB11	28/06/2010
24655178	J05AB11	29/03/2004
27154246	J05AB11	31/03/2010
12974648	J05AB11	12/09/2005
27676239	J05AB11	27/08/2003
27761994	J05AB11	07/02/2007
27765080	J05AB11	12/06/2007
26937752	J05AB11	04/04/2007
27764778	J05AB11	31/05/2004
27326047	J05AB11	19/04/2007
27797598	J05AB11	01/04/2005
33085261	J05AB11	19/11/2003
33088898	J05AB11	13/10/2005
33047788	J05AB11	27/01/2011
33017359	J05AB11	17/02/2006
33056325	J05AB11	10/10/2002
33073451	J05AB11	23/11/2009
33066941	J05AB11	14/07/2006
33083224	J05AB11	30/11/2010
33049405	J05AB11	25/09/2007
33063691	J05AB11	17/06/2008
33008358	J05AB11	09/05/2006
33239076	J05AB11	25/05/2004
33219167	J05AB11	28/01/2004
28012829	J05AB11	25/08/2003
16184117	J05AB11	25/03/2008
27913765	J05AB11	17/09/2007
33232471	J05AB11	10/11/2010
28020243	J05AB11	09/09/2009
23354036	J05AB11	29/05/2007
33289128	J05AB11	27/01/2010
16621293	J05AB11	08/04/2009
23406100	J05AB11	24/06/2005
33244922	J05AB11	22/02/2006
16625109	J05AB11	02/03/2007
21102153	J05AB11	21/11/2007
23406762	J05AB11	14/10/2005
23381215	J05AB11	21/12/2005
33227872	J05AB11	22/04/2008
28032528	J05AB11	04/03/2004
16598501	J05AB11	16/04/2002
23408437	J05AB11	07/12/2004
31505988	J05AB11	28/12/2004
31638051	J05AB11	27/07/2006
31339338	J05AB11	15/11/2006
31451455	J05AB11	08/10/2007
31147661	J05AB11	29/12/2003
32041896	J05AB11	12/03/2003
32117440	J05AB11	18/10/2005
31109498	J05AB11	30/09/2009
31511644	J05AB11	28/10/2008
31777066	J05AB11	01/04/2008
32275753	J05AB11	03/03/2008
31404679	J05AB11	27/01/2009
31841569	J05AB11	05/01/2009
32224890	J05AB11	31/10/2003
31993693	J05AB11	30/12/2005
31931778	J05AB11	16/04/2004
31775845	J05AB11	09/01/2007
31949372	J05AB11	20/01/2006
31492015	J05AB11	06/06/2008
32013445	J05AB11	05/07/2006
31352468	J05AB11	29/04/2004
31744065	J05AB11	08/02/2006
31088712	J05AB11	11/02/2003
31745304	J05AB11	15/02/2005
32245283	J05AB11	02/08/2006
31813848	J05AB11	12/11/2009
31715140	J05AB11	19/02/2010
31478904	J05AB11	30/12/2009
31904200	J05AB11	27/12/2006
31627787	J05AB11	29/09/2005
31738398	J05AB11	02/06/2009
31603345	J05AB11	13/05/2008
32078709	J05AB11	24/04/2007
31063689	J05AB11	30/08/2004
31498856	J05AB11	10/01/2007
32018104	J05AB11	06/02/2006
31070304	J05AB11	17/11/2003
31309876	J05AB11	27/04/2005
32097844	J05AB11	01/10/2002
31066431	J05AB11	23/06/2003
31463764	J05AB11	13/02/2009
31061135	J05AB11	17/11/2003
31505588	J05AB11	16/01/2008
31366961	J05AB11	05/06/2007
31873767	J05AB11	24/03/2009
31128238	J05AB11	19/12/2007
31625929	J05AB11	17/06/2003
32239528	J05AB11	03/03/2008
31178001	J05AB11	27/08/2001
31824232	J05AB11	15/07/2010
31108801	J05AB11	10/06/2004
31745772	J05AB11	14/12/2007
32278996	J05AB11	18/11/2005
31651246	J05AB11	19/10/2004
31710286	J05AB11	19/07/2005
31441666	J05AB11	04/05/2006
32015095	J05AB11	22/02/2010
31148284	J05AB11	10/12/2008
32222342	J05AB11	28/04/2003
31205576	J05AB11	02/03/2005
31134432	J05AB11	21/07/2010
31038595	J05AB11	02/10/2002
31542332	J05AB11	14/10/2002
31761466	J05AB11	23/06/2004
32272111	J05AB11	08/10/2007
31678786	J05AB11	27/07/2006
31869071	J05AB11	25/08/2006
31736918	J05AB11	24/05/2006
31673604	J05AB11	25/03/2008
31046210	J05AB11	11/06/2004
31075242	J05AB11	02/01/2008
31415468	J05AB11	29/10/2004
32198464	J05AB11	23/06/2004
31313052	J05AB11	28/02/2006
32049606	J05AB11	19/01/2007
31825030	J05AB11	15/02/2006
31636109	J05AB11	03/07/2006
31096236	J05AB11	24/11/2008
31371311	J05AB11	08/09/2004
32192268	J05AB11	03/05/2006
31293194	J05AB11	09/05/2006
32224769	J05AB11	11/10/2004
31650418	J05AB11	08/09/2005
32119166	J05AB11	17/05/2004
31220968	J05AB11	03/03/2005
32163814	J05AB11	24/05/2006
31667872	J05AB11	13/06/2003
31532897	J05AB11	27/06/2006
31711216	J05AB11	29/08/2007
31335344	J05AB11	13/05/2005
31942616	J05AB11	13/11/2006
32260224	J05AB11	01/08/2006
31259020	J05AB11	13/08/2008
31401986	J05AB11	23/08/2005
31679146	J05AB11	15/01/2003
31379072	J05AB11	25/09/2006
31159337	J05AB11	21/04/2006
31207874	J05AB11	13/06/2007
31579287	J05AB11	27/12/2005
31966757	J05AB11	31/10/2006
31213814	J05AB11	31/01/2007
32202397	J05AB11	04/09/2009
31123485	J05AB11	22/10/2009
31080402	J05AB11	09/12/2003
32135678	J05AB11	02/12/2005
31820547	J05AB11	10/09/2002
31344355	J05AB11	20/05/2003
31751005	J05AB11	26/03/2008
31707970	J05AB11	05/06/2006
31523134	J05AB11	04/07/2003
31397778	J05AB11	06/09/2007
31746758	J05AB11	26/06/2009
32090185	J05AB11	14/01/2008
31147863	J05AB11	17/10/2007
31084995	J05AB11	27/10/2009
32057163	J05AB11	09/05/2008
31771015	J05AB11	04/07/2008
31974156	J05AB11	10/11/2009
32267215	J05AB11	11/11/2005
32229934	J05AB11	17/06/2003
