patient_id	covar_name	date
22799556	J01FA01	06/04/2011
21859577	J01FA01	05/11/2010
25054487	J01FA01	31/07/2007
9134959	J01FA01	21/04/2003
8558268	J01FA01	17/10/2005
947960	J01FA01	08/05/2002
1942265	J01FA01	09/11/2010
12774510	J01FA01	24/10/2003
24729276	J01FA01	29/05/2008
944651	J01FA01	07/06/2006
701674	J01FA01	07/07/2009
3333113	J01FA01	01/02/1999
8640108	J01FA01	20/06/2007
8654454	J01FA01	11/01/2008
6756598	J01FA01	15/06/2007
5030705	J01FA01	13/01/2005
11407938	J01FA01	27/01/2010
12182795	J01FA01	11/04/2006
9320856	J01FA01	21/12/2004
8984546	J01FA01	18/07/2000
13222266	J01FA01	24/11/2006
12789284	J01FA01	05/02/2009
16249525	J01FA01	20/04/2010
5034863	J01FA01	23/01/2007
9231971	J01FA01	09/03/2005
10004067	J01FA01	07/12/2010
210163	J01FA01	10/08/2005
25062174	J01FA01	20/06/2006
9983468	J01FA01	26/02/2007
6747469	J01FA01	18/08/2005
6236546	J01FA01	25/05/2009
5035573	J01FA01	11/02/2005
949778	J01FA01	28/11/2007
11994028	J01FA01	25/02/2011
9323502	J01FA01	18/02/2010
5866605	J01FA01	07/05/2008
9384775	J01FA01	17/11/2004
8977128	J01FA01	16/04/2003
9134539	J01FA01	25/06/2008
946865	J01FA01	11/01/2002
9386259	J01FA01	02/06/2008
6752622	J01FA01	09/07/2002
5029442	J01FA01	28/01/2005
744948	J01FA01	28/03/2011
12770781	J01FA01	19/07/2010
8784987	J01FA01	29/01/2009
25043628	J01FA01	01/10/2007
608929	J01FA01	06/08/2010
12789429	J01FA01	15/12/2005
9268428	J01FA01	17/12/2009
6187767	J01FA01	25/09/2007
20549438	J01FA01	15/06/2006
12830085	J01FA01	26/07/2007
10268044	J01FA01	08/08/2006
12478033	J01FA01	18/05/2011
5028776	J01FA01	12/01/2010
7094087	J01FA01	05/02/2009
175811	J01FA01	24/01/2003
20573202	J01FA01	10/04/2007
610570	J01FA01	21/03/2011
948258	J01FA01	15/02/2001
13009432	J01FA01	13/11/2003
9136395	J01FA01	07/06/2000
25042137	J01FA01	23/05/2001
25062482	J01FA01	19/05/2006
12171881	J01FA01	13/10/2004
19089604	J01FA01	27/01/2011
1517537	J01FA01	09/09/2010
9386927	J01FA01	22/06/2005
209616	J01FA01	27/09/2004
612341	J01FA01	25/05/2006
5029698	J01FA01	08/06/2010
9285061	J01FA01	16/09/2008
6760601	J01FA01	28/08/2009
5865752	J01FA01	18/01/2005
14807613	J01FA01	01/10/2009
10266390	J01FA01	07/10/2010
6744255	J01FA01	20/12/2005
23471462	J01FA01	16/05/2011
21152431	J01FA01	17/05/2010
9376034	J01FA01	29/05/2007
6746487	J01FA01	29/02/2008
21806340	J01FA01	05/01/2010
5031259	J01FA01	11/12/2006
24774072	J01FA01	18/09/2001
25041900	J01FA01	17/11/2008
3936886	J01FA01	26/02/2010
8978074	J01FA01	07/04/2010
13825656	J01FA01	07/05/2010
946832	J01FA01	08/08/2008
177542	J01FA01	14/05/2001
24005878	J01FA01	19/10/2005
24722227	J01FA01	27/11/2007
52711	J01FA01	30/04/2001
5021335	J01FA01	24/03/2006
2768365	J01FA01	31/05/2005
22537806	J01FA01	19/12/2003
16531620	J01FA01	11/02/2008
12171465	J01FA01	06/03/2008
13994050	J01FA01	27/07/2009
8975906	J01FA01	19/04/2011
13951349	J01FA01	16/08/2005
21870782	J01FA01	09/12/2000
20564135	J01FA01	14/08/2001
5865734	J01FA01	04/05/2005
6752008	J01FA01	30/01/2007
9219029	J01FA01	08/06/2009
7160936	J01FA01	15/11/2007
3292306	J01FA01	02/01/2009
8987413	J01FA01	01/12/2003
25071580	J01FA01	23/08/2003
6756205	J01FA01	21/03/2007
9386360	J01FA01	30/01/2008
9382397	J01FA01	02/10/2009
12770831	J01FA01	26/12/2006
24729376	J01FA01	03/03/2006
6040773	J01FA01	23/02/2006
8784119	J01FA01	22/10/2007
3333455	J01FA01	20/11/2001
12765626	J01FA01	18/05/2009
8582021	J01FA01	08/09/2008
15900346	J01FA01	26/03/2008
10266866	J01FA01	17/11/2008
9377350	J01FA01	04/05/2011
6752418	J01FA01	19/12/2001
21372254	J01FA01	20/04/2009
9386723	J01FA01	23/12/2010
10395240	J01FA01	17/08/2009
5031089	J01FA01	13/11/2007
3246611	J01FA01	10/08/2010
753709	J01FA01	28/10/2003
1467007	J01FA01	26/06/2001
6750309	J01FA01	21/02/2007
16556701	J01FA01	30/11/2007
12692769	J01FA01	26/03/2009
23454398	J01FA01	15/12/2008
12782079	J01FA01	31/05/2011
7160942	J01FA01	22/06/2010
7489604	J01FA01	11/12/2008
19184721	J01FA01	10/12/2009
3122199	J01FA01	04/04/2003
8559573	J01FA01	07/07/2008
21152754	J01FA01	05/11/2009
1517273	J01FA01	22/02/2005
12790687	J01FA01	13/03/2007
8784100	J01FA01	29/05/2003
8567858	J01FA01	01/06/2007
4988916	J01FA01	20/09/2004
20570345	J01FA01	09/05/2003
7781621	J01FA01	03/09/2003
6841194	J01FA01	06/11/2007
21369952	J01FA01	20/10/2004
21782270	J01FA01	23/02/2011
10331626	J01FA01	11/03/2010
1474251	J01FA01	02/11/2006
1851166	J01FA01	04/06/2001
8066781	J01FA01	01/10/2003
641127	J01FA01	22/02/2008
1261923	J01FA01	21/12/2005
12614422	J01FA01	17/07/2007
1296787	J01FA01	14/10/2003
1851865	J01FA01	19/05/2000
7848911	J01FA01	27/08/2009
18264434	J01FA01	24/01/2003
1208256	J01FA01	14/09/2006
1198401	J01FA01	13/03/2003
404904	J01FA01	06/05/2004
6603955	J01FA01	25/05/2006
1276830	J01FA01	08/11/2004
1206496	J01FA01	15/12/2008
18038985	J01FA01	20/09/2007
7824048	J01FA01	12/02/2004
1262655	J01FA01	23/09/2010
18038827	J01FA01	19/03/2004
1090583	J01FA01	26/09/2007
1276765	J01FA01	28/05/2008
648760	J01FA01	11/12/2007
917707	J01FA01	26/04/2005
1849882	J01FA01	27/04/2001
1192135	J01FA01	09/10/2003
1851758	J01FA01	26/02/2007
6597538	J01FA01	17/03/2009
1547420	J01FA01	17/10/2002
8933362	J01FA01	30/09/2009
7231745	J01FA01	13/11/2007
7771521	J01FA01	09/10/2006
1297372	J01FA01	16/09/2003
25178227	J01FA01	14/10/2003
8315209	J01FA01	26/03/2011
7820053	J01FA01	04/12/2001
1415843	J01FA01	03/04/2001
404498	J01FA01	19/04/2004
6591104	J01FA01	03/01/2009
1850140	J01FA01	10/10/2006
1546769	J01FA01	08/01/2002
25176560	J01FA01	13/11/2003
1355892	J01FA01	12/08/2008
1378713	J01FA01	20/11/2003
648621	J01FA01	03/01/2003
24719575	J01FA01	08/03/2011
13986458	J01FA01	26/11/2009
674486	J01FA01	23/11/2004
8066983	J01FA01	29/01/2008
5991761	J01FA01	03/05/2005
405341	J01FA01	27/05/2004
525368	J01FA01	05/05/2011
6842492	J01FA01	11/05/2010
1849702	J01FA01	15/11/2002
1202919	J01FA01	16/12/2004
648547	J01FA01	30/04/2002
405368	J01FA01	30/04/2001
1379065	J01FA01	29/05/2003
1851260	J01FA01	11/01/2011
1055033	J01FA01	14/09/2010
1852196	J01FA01	22/10/2003
1852962	J01FA01	22/03/2011
6951044	J01FA01	22/02/2008
1099425	J01FA01	23/11/2000
997043	J01FA01	06/02/2002
12665128	J01FA01	22/02/2001
1006725	J01FA01	06/04/2000
1133221	J01FA01	15/04/2003
1566989	J01FA01	24/04/2003
1855843	J01FA01	09/01/2001
135026	J01FA01	20/01/2000
1101869	J01FA01	03/12/2002
134966	J01FA01	20/06/2006
4688914	J01FA01	05/04/2004
1027312	J01FA01	21/04/2005
1641058	J01FA01	14/01/2002
1641072	J01FA01	15/07/2005
1102009	J01FA01	22/01/2004
995398	J01FA01	14/11/2001
1577851	J01FA01	13/03/2003
1856037	J01FA01	02/09/2005
25818249	J01FA01	29/01/2002
3656051	J01FA01	18/03/2011
1065329	J01FA01	04/03/2011
1555573	J01FA01	25/05/2001
1855622	J01FA01	06/08/2007
717746	J01FA01	17/11/2005
1557371	J01FA01	13/12/2001
890380	J01FA01	18/05/2006
2045167	J01FA01	21/04/2008
2366671	J01FA01	27/11/2007
2366680	J01FA01	13/03/2007
2088659	J01FA01	16/07/2003
2143165	J01FA01	29/07/2004
2087739	J01FA01	08/11/2002
2238417	J01FA01	04/11/2010
2218970	J01FA01	07/11/2005
2134010	J01FA01	05/03/2008
758544	J01FA01	04/10/2006
875533	J01FA01	29/05/2002
2035752	J01FA01	09/11/2004
2037558	J01FA01	02/01/2007
904770	J01FA01	11/03/2003
2216323	J01FA01	04/10/2010
878296	J01FA01	26/01/2007
1682937	J01FA01	23/02/2004
873649	J01FA01	07/09/2007
874441	J01FA01	18/02/2010
1765218	J01FA01	23/08/2006
1767597	J01FA01	06/02/2007
2863684	J01FA01	21/09/2004
4894255	J01FA01	08/04/2004
2813159	J01FA01	23/11/2007
2757182	J01FA01	01/12/2010
2366066	J01FA01	02/08/2006
2754760	J01FA01	31/10/2005
2410150	J01FA01	28/01/2009
2408292	J01FA01	30/09/2008
2772820	J01FA01	22/09/2008
2523049	J01FA01	13/01/2009
2525759	J01FA01	28/09/2004
2756684	J01FA01	07/08/2006
2522731	J01FA01	16/04/2009
2408550	J01FA01	16/09/2004
2366168	J01FA01	23/03/2007
17742027	J01FA01	04/10/2000
26385291	J01FA01	16/09/2005
28073766	J01FA01	10/12/2009
28041472	J01FA01	27/11/2006
26477540	J01FA01	13/06/2005
26383425	J01FA01	06/07/2009
26392078	J01FA01	02/07/2008
26170763	J01FA01	10/05/2002
18223470	J01FA01	16/12/2003
26181280	J01FA01	04/01/2006
26336640	J01FA01	02/05/2006
7149053	J01FA01	26/04/2010
26392479	J01FA01	04/06/2007
26410820	J01FA01	19/04/2011
17741693	J01FA01	20/01/2010
28041817	J01FA01	29/05/2007
22092867	J01FA01	27/05/2008
26384648	J01FA01	14/02/2011
7148916	J01FA01	25/11/2009
17219158	J01FA01	12/01/2010
13085502	J01FA01	07/07/2010
421437	J01FA01	21/06/2000
2968002	J01FA01	21/06/2005
1908398	J01FA01	04/02/2004
304750	J01FA01	26/09/2003
437419	J01FA01	02/02/2005
301267	J01FA01	18/02/2003
464504	J01FA01	09/05/2003
437377	J01FA01	04/09/2002
425076	J01FA01	22/01/2003
435593	J01FA01	26/02/1999
28073308	J01FA01	05/12/2007
28074768	J01FA01	12/09/2001
28083670	J01FA01	10/05/2010
28089768	J01FA01	07/03/2005
28075070	J01FA01	09/12/2008
16951061	J01FA01	12/01/2009
16962291	J01FA01	26/11/2009
28085405	J01FA01	03/08/2010
28074760	J01FA01	20/01/2004
28073342	J01FA01	17/12/2003
421052	J01FA01	14/11/2003
28090121	J01FA01	19/03/2011
435889	J01FA01	26/01/1999
425192	J01FA01	03/08/2007
420815	J01FA01	27/11/2006
436857	J01FA01	26/12/2008
26321742	J01FA01	10/12/2004
437584	J01FA01	19/07/2010
419430	J01FA01	06/03/2007
186409	J01FA01	15/03/2011
427244	J01FA01	14/05/2003
184252	J01FA01	29/03/2011
301783	J01FA01	12/02/2008
28055769	J01FA01	02/07/2009
7029377	J01FA01	07/02/2011
28044311	J01FA01	02/05/2007
28073346	J01FA01	20/05/2010
28073409	J01FA01	29/12/2005
28086771	J01FA01	18/01/2006
28058919	J01FA01	22/03/2003
26488758	J01FA01	20/01/2011
7765065	J01FA01	13/06/2007
24669944	J01FA01	17/02/2000
24664725	J01FA01	28/03/2003
24659548	J01FA01	16/02/2011
25600261	J01FA01	24/12/2003
25740490	J01FA01	21/12/2007
1343858	J01FA01	05/01/1999
1343864	J01FA01	17/04/1999
1359146	J01FA01	14/10/1999
1369115	J01FA01	29/04/1999
1020566	J01FA01	20/01/2009
620949	J01FA01	17/11/2000
1372823	J01FA01	08/07/2003
1374270	J01FA01	15/07/1998
1368600	J01FA01	03/04/2000
1370131	J01FA01	09/10/1998
1360800	J01FA01	04/02/2006
1372371	J01FA01	17/03/2000
1030033	J01FA01	09/02/2004
1369224	J01FA01	09/02/1998
1366687	J01FA01	07/02/2011
1908296	J01FA01	17/01/2003
1900235	J01FA01	26/05/2010
619297	J01FA01	02/12/2004
1368854	J01FA01	30/04/2007
1359005	J01FA01	18/05/2006
19280666	J01FA01	19/05/2006
18189351	J01FA01	26/03/2008
17410688	J01FA01	18/01/2000
18196979	J01FA01	10/02/2011
19765489	J01FA01	12/09/2009
21063993	J01FA01	22/03/2006
18198848	J01FA01	07/11/2008
1022535	J01FA01	13/07/2007
1369301	J01FA01	21/09/1998
1369305	J01FA01	19/04/1999
2249019	J01FA01	15/12/2004
1910308	J01FA01	17/09/2002
619210	J01FA01	18/10/2002
10221219	J01FA01	04/10/2010
1909946	J01FA01	02/12/2009
1366406	J01FA01	18/05/2000
1371577	J01FA01	31/05/1999
1019222	J01FA01	13/03/2006
26722780	J01FA01	25/09/2006
26703633	J01FA01	04/09/2008
26636241	J01FA01	13/01/2010
26719797	J01FA01	03/01/2009
26707649	J01FA01	09/11/2010
26639040	J01FA01	12/08/2003
26704034	J01FA01	04/09/2008
13812224	J01FA01	01/08/2008
2988700	J01FA01	18/11/2004
12952403	J01FA01	04/05/2007
16105363	J01FA01	05/11/2001
12975544	J01FA01	10/06/2009
16104460	J01FA01	04/07/2006
13788822	J01FA01	07/04/2011
12952767	J01FA01	04/05/2010
16841940	J01FA01	21/02/2005
22882349	J01FA01	04/02/2009
26722414	J01FA01	11/02/2009
26620846	J01FA01	07/03/2008
26621448	J01FA01	25/03/2008
3264626	J01FA01	20/02/2006
21553016	J01FA01	05/10/2005
21062954	J01FA01	10/02/2005
25740714	J01FA01	14/08/2007
24580970	J01FA01	14/09/2009
22922309	J01FA01	13/01/2008
24577346	J01FA01	18/11/2005
26945367	J01FA01	06/09/2010
26917769	J01FA01	28/02/2011
26959827	J01FA01	08/01/2008
26712544	J01FA01	28/06/2004
26774802	J01FA01	05/01/2009
26714083	J01FA01	07/11/2005
26714937	J01FA01	29/01/2007
26880289	J01FA01	03/11/2004
26900308	J01FA01	13/07/2009
26951590	J01FA01	30/05/2007
26846238	J01FA01	03/09/2004
26888309	J01FA01	22/12/2008
26864810	J01FA01	22/09/2006
26803581	J01FA01	19/10/2010
26779962	J01FA01	11/10/2007
26776452	J01FA01	30/11/2009
26812125	J01FA01	10/06/2008
26716935	J01FA01	20/11/2006
26939739	J01FA01	11/08/2010
26977641	J01FA01	25/05/2006
26983022	J01FA01	30/09/2009
27047584	J01FA01	14/06/2006
27043420	J01FA01	31/05/2005
27134502	J01FA01	04/05/2005
27136912	J01FA01	04/05/2010
27134721	J01FA01	16/06/2005
27046890	J01FA01	22/10/2009
27042326	J01FA01	10/04/2006
27000418	J01FA01	04/03/2010
27026487	J01FA01	08/02/2007
26997215	J01FA01	18/11/2010
27000566	J01FA01	06/04/2005
27233913	J01FA01	13/04/2011
27248920	J01FA01	05/11/2001
27384510	J01FA01	13/12/2010
27307620	J01FA01	04/05/2006
27365421	J01FA01	12/01/2009
27309287	J01FA01	15/05/2006
27316412	J01FA01	10/02/2004
27316281	J01FA01	25/03/2004
27295913	J01FA01	30/01/2003
27295928	J01FA01	29/01/2003
27383808	J01FA01	01/09/2006
27365639	J01FA01	16/09/2009
27323850	J01FA01	14/08/2003
27306529	J01FA01	04/02/2011
27348533	J01FA01	24/09/2004
27168989	J01FA01	30/11/2009
27317716	J01FA01	30/10/2006
27236800	J01FA01	03/02/2011
27588724	J01FA01	03/01/2006
27587763	J01FA01	14/04/2006
27451920	J01FA01	13/06/2006
27660624	J01FA01	05/09/2008
27452366	J01FA01	02/02/2004
27601331	J01FA01	20/07/2010
27639550	J01FA01	11/02/2008
27566318	J01FA01	02/08/2005
27707973	J01FA01	03/01/2007
27759720	J01FA01	18/05/2004
27764873	J01FA01	12/03/2004
27151908	J01FA01	03/03/2006
27287526	J01FA01	11/04/2008
27283981	J01FA01	19/03/2006
27294754	J01FA01	06/02/2007
27145826	J01FA01	18/06/2010
27148219	J01FA01	15/06/2010
27125723	J01FA01	06/11/1999
27321829	J01FA01	02/10/2008
27025269	J01FA01	23/12/2008
27041607	J01FA01	16/06/2004
27056605	J01FA01	19/04/2001
26783819	J01FA01	03/04/2009
26944232	J01FA01	05/10/2010
1343933	J01FA01	16/11/1998
23087147	J01FA01	26/10/2005
27030561	J01FA01	18/10/2005
26868486	J01FA01	22/12/2008
27538570	J01FA01	07/05/2004
27534467	J01FA01	10/11/2005
27689081	J01FA01	20/10/2006
27678332	J01FA01	14/03/2003
27683524	J01FA01	18/09/2001
27667453	J01FA01	05/10/2005
27685025	J01FA01	24/05/2001
27673496	J01FA01	20/11/2007
27296616	J01FA01	14/12/2004
26636698	J01FA01	20/02/2004
27673504	J01FA01	18/01/2003
27767877	J01FA01	26/10/2007
27680050	J01FA01	23/04/2004
27674208	J01FA01	12/05/2008
20331239	J01FA01	29/12/2003
27666515	J01FA01	26/03/2004
25728108	J01FA01	10/01/2002
26825289	J01FA01	30/03/2005
27662569	J01FA01	31/05/2001
27661016	J01FA01	29/09/2003
27512714	J01FA01	02/12/2009
27540219	J01FA01	19/06/2009
27618797	J01FA01	15/02/2005
27617503	J01FA01	04/10/2007
27450119	J01FA01	07/02/2004
27530445	J01FA01	06/02/2008
27244108	J01FA01	23/01/2009
428949	J01FA01	27/07/1999
21553339	J01FA01	23/11/2004
21651315	J01FA01	28/02/2008
26916917	J01FA01	29/09/2004
27248290	J01FA01	18/12/2000
9072497	J01FA01	10/02/2011
27809277	J01FA01	06/02/2006
27689311	J01FA01	27/04/2010
27759574	J01FA01	14/12/2006
27169816	J01FA01	24/07/2009
27707606	J01FA01	28/09/2010
27800920	J01FA01	08/03/2005
27802651	J01FA01	10/10/2006
27804341	J01FA01	08/02/2000
27808311	J01FA01	31/01/2009
27667214	J01FA01	15/06/2001
27773938	J01FA01	06/03/2007
17160983	J01FA01	27/11/2006
27623043	J01FA01	13/11/2010
437061	J01FA01	30/12/2002
26973008	J01FA01	30/08/2010
27326126	J01FA01	13/04/2004
27385748	J01FA01	30/05/2005
27233694	J01FA01	23/02/2004
26856560	J01FA01	21/01/2008
26955317	J01FA01	20/03/2009
26883848	J01FA01	28/05/2008
27802966	J01FA01	10/10/2007
33106412	J01FA01	23/12/2002
33094544	J01FA01	09/07/2008
33058109	J01FA01	27/01/2009
33065951	J01FA01	16/11/2004
33028516	J01FA01	03/03/2009
33045042	J01FA01	25/04/2002
33112020	J01FA01	04/03/2003
33008158	J01FA01	09/12/2005
33029033	J01FA01	28/03/2011
33080053	J01FA01	31/10/2000
33072306	J01FA01	13/12/2001
33113624	J01FA01	10/10/2000
33004433	J01FA01	12/02/2004
33072464	J01FA01	07/06/2010
33072905	J01FA01	20/03/2001
33012415	J01FA01	06/06/2006
33067653	J01FA01	12/11/2010
33005410	J01FA01	07/05/2007
33044028	J01FA01	15/11/2000
33012303	J01FA01	05/12/2006
26943592	J01FA01	10/01/2005
26636182	J01FA01	28/03/2006
436249	J01FA01	21/09/1999
187834	J01FA01	16/01/2004
33042521	J01FA01	24/01/2005
27805194	J01FA01	16/12/2005
33054276	J01FA01	26/03/2004
27801842	J01FA01	20/03/2006
33086713	J01FA01	18/09/2001
23408153	J01FA01	28/03/2011
28035812	J01FA01	17/12/2007
28019253	J01FA01	18/01/2005
16712757	J01FA01	07/02/2006
16640292	J01FA01	20/07/2007
27994570	J01FA01	26/10/2009
23320348	J01FA01	16/11/2004
16647181	J01FA01	20/12/2004
16645939	J01FA01	20/11/2008
33316391	J01FA01	03/12/2008
33020434	J01FA01	31/10/2006
33016132	J01FA01	21/02/2011
33128935	J01FA01	14/04/2011
33041177	J01FA01	27/12/2010
33084361	J01FA01	09/01/2002
33105648	J01FA01	14/02/2003
33048116	J01FA01	18/09/2003
33044433	J01FA01	11/05/2006
33084973	J01FA01	25/08/2003
33092247	J01FA01	09/03/2005
33000591	J01FA01	22/07/2008
33086432	J01FA01	07/09/2000
33004559	J01FA01	15/07/2005
33111959	J01FA01	16/03/2011
33092804	J01FA01	24/11/2010
16774206	J01FA01	08/09/2008
23343371	J01FA01	26/01/2007
33209315	J01FA01	06/10/2008
16166019	J01FA01	13/04/2009
16640297	J01FA01	12/11/2008
23407899	J01FA01	03/07/2003
33317150	J01FA01	15/05/2006
33219113	J01FA01	23/12/2009
33239076	J01FA01	07/09/2005
16680302	J01FA01	31/05/2010
16133833	J01FA01	09/08/2006
18768957	J01FA01	02/05/2009
16596211	J01FA01	30/04/2007
16657725	J01FA01	19/11/2008
16680141	J01FA01	10/01/2007
18770704	J01FA01	19/08/2008
33317259	J01FA01	21/03/2011
16647269	J01FA01	17/03/2011
33208319	J01FA01	11/05/2010
23293211	J01FA01	06/02/2008
28025840	J01FA01	11/02/2010
16640685	J01FA01	03/03/2011
18770481	J01FA01	06/05/2008
16600704	J01FA01	09/12/2004
16705277	J01FA01	14/06/2005
16628644	J01FA01	27/11/2008
23402038	J01FA01	06/03/2008
23401470	J01FA01	04/05/2009
20991039	J01FA01	30/04/2010
21105223	J01FA01	06/11/2009
21011548	J01FA01	10/06/2004
24293061	J01FA01	04/08/2005
33302455	J01FA01	15/10/2010
33232371	J01FA01	02/03/2007
21114196	J01FA01	07/01/2009
33311593	J01FA01	17/04/2009
27856112	J01FA01	14/09/2004
16647105	J01FA01	05/11/2010
28023306	J01FA01	24/02/2010
28004671	J01FA01	16/09/2009
16616604	J01FA01	03/03/2008
33294335	J01FA01	20/10/2006
23402359	J01FA01	31/03/2011
20985728	J01FA01	10/09/2009
20986175	J01FA01	14/05/2010
21105903	J01FA01	14/09/2009
16186250	J01FA01	10/11/2009
23332710	J01FA01	23/03/2010
16125129	J01FA01	20/01/2011
21116766	J01FA01	05/10/2009
16602899	J01FA01	13/12/2004
21107862	J01FA01	20/09/2010
21105473	J01FA01	17/06/2009
21105491	J01FA01	09/07/2009
16679831	J01FA01	09/02/2006
27846161	J01FA01	02/09/2005
28003580	J01FA01	24/11/2008
16683552	J01FA01	29/11/2006
18757638	J01FA01	26/01/2009
33225982	J01FA01	04/03/2009
16652192	J01FA01	23/11/2005
23381566	J01FA01	22/12/2004
33239342	J01FA01	21/06/2010
28004575	J01FA01	16/09/2010
23380736	J01FA01	14/12/2005
28034778	J01FA01	25/01/2008
33302039	J01FA01	25/01/2010
33248808	J01FA01	23/10/2008
21114699	J01FA01	13/12/2010
31085181	J01FA01	22/06/2001
31038883	J01FA01	11/10/2007
21110134	J01FA01	31/03/2006
20991338	J01FA01	29/04/2011
33306337	J01FA01	24/06/2006
20989409	J01FA01	03/03/2011
28023888	J01FA01	27/04/2010
16774998	J01FA01	12/08/2008
33302431	J01FA01	20/12/2010
20991536	J01FA01	19/05/2009
23275767	J01FA01	10/03/2006
16173873	J01FA01	05/12/2001
23401789	J01FA01	15/05/2008
33298106	J01FA01	08/11/2007
16639640	J01FA01	10/01/2011
16598700	J01FA01	23/12/2003
30147346	J01FA01	05/05/2011
21116848	J01FA01	30/11/2010
23354686	J01FA01	28/03/2011
20987458	J01FA01	12/08/2009
16598711	J01FA01	19/12/2005
20987322	J01FA01	02/08/2005
27994631	J01FA01	12/05/2009
16133358	J01FA01	03/07/2001
16181240	J01FA01	02/04/2008
31119558	J01FA01	19/11/2008
31505988	J01FA01	03/01/2008
31077992	J01FA01	10/02/2003
31844179	J01FA01	17/02/2005
32244890	J01FA01	05/06/2008
31431373	J01FA01	03/11/2008
32073305	J01FA01	26/12/2005
31341379	J01FA01	05/01/2009
31638063	J01FA01	11/04/2011
32013324	J01FA01	24/01/2005
31236939	J01FA01	02/11/2006
31554019	J01FA01	17/07/2001
31641080	J01FA01	27/10/2010
31045693	J01FA01	22/06/2009
31551857	J01FA01	12/09/2007
31742073	J01FA01	14/05/2007
32179538	J01FA01	21/04/2004
32278529	J01FA01	21/04/2005
31087796	J01FA01	24/02/2003
32277407	J01FA01	09/10/2003
32018024	J01FA01	28/12/2006
31210288	J01FA01	30/01/2007
31728092	J01FA01	23/03/2005
31117278	J01FA01	28/11/2005
31590399	J01FA01	17/11/2009
31698148	J01FA01	28/04/2005
31786755	J01FA01	25/11/2009
31131919	J01FA01	07/12/2006
31218840	J01FA01	10/11/2006
31334279	J01FA01	10/12/2002
31176341	J01FA01	08/05/2007
31663405	J01FA01	23/02/2007
32118132	J01FA01	22/12/2009
31403634	J01FA01	03/01/2007
31260334	J01FA01	04/01/2008
32194913	J01FA01	17/01/2007
32127822	J01FA01	05/12/2006
31119347	J01FA01	07/11/2005
31207975	J01FA01	19/06/2006
31479979	J01FA01	30/01/2003
31480886	J01FA01	20/01/2010
31657778	J01FA01	25/06/2001
31168565	J01FA01	14/02/2002
31846979	J01FA01	10/10/2002
32224890	J01FA01	15/07/2004
31033353	J01FA01	20/12/2004
32043160	J01FA01	08/01/2009
32076096	J01FA01	13/03/2006
32232461	J01FA01	13/01/2009
31410312	J01FA01	12/04/2007
31121620	J01FA01	31/10/2002
32078134	J01FA01	05/06/2006
31450205	J01FA01	13/06/2006
32276946	J01FA01	26/11/2007
32019477	J01FA01	30/01/2009
31440386	J01FA01	04/05/2004
31299460	J01FA01	08/09/2009
31605756	J01FA01	08/11/2002
31278758	J01FA01	28/07/2008
31217153	J01FA01	15/11/2010
31560788	J01FA01	08/10/2008
32218783	J01FA01	21/03/2005
32038458	J01FA01	20/01/2005
31313735	J01FA01	11/07/2003
31901343	J01FA01	28/12/2009
31954840	J01FA01	16/12/2002
31114979	J01FA01	27/08/2004
31274972	J01FA01	16/10/2003
31309876	J01FA01	17/03/2003
31105428	J01FA01	16/01/2008
31975004	J01FA01	27/03/2001
31871540	J01FA01	16/07/2004
32026658	J01FA01	17/07/2009
31135234	J01FA01	18/05/2009
31136755	J01FA01	09/02/2007
31926336	J01FA01	15/06/2010
31852758	J01FA01	06/02/2002
32119977	J01FA01	24/04/2007
32078521	J01FA01	29/05/2006
31544310	J01FA01	07/12/2007
31846245	J01FA01	22/04/2008
31686702	J01FA01	23/04/2007
32133208	J01FA01	15/12/2005
31389119	J01FA01	31/07/2003
31713969	J01FA01	12/06/2007
31538580	J01FA01	28/12/2004
32180656	J01FA01	07/04/2003
31993230	J01FA01	21/12/2005
31851762	J01FA01	29/11/2002
31150111	J01FA01	08/08/2003
32040874	J01FA01	17/09/2003
31372829	J01FA01	29/12/2003
31040522	J01FA01	26/10/2004
31339297	J01FA01	27/03/2007
32192909	J01FA01	28/09/2006
32035320	J01FA01	24/06/2008
32055493	J01FA01	02/07/2007
32032935	J01FA01	26/11/2004
31445214	J01FA01	14/07/2008
32153547	J01FA01	16/08/2006
32199911	J01FA01	13/02/2004
31369355	J01FA01	31/01/2006
32276553	J01FA01	11/02/2008
31543742	J01FA01	05/06/2002
31092206	J01FA01	29/01/2008
32081702	J01FA01	13/01/2004
31311414	J01FA01	19/11/2007
31533827	J01FA01	22/12/2008
32038507	J01FA01	05/03/2007
31767484	J01FA01	18/05/2006
31089388	J01FA01	18/07/2007
31931296	J01FA01	20/04/2009
31539967	J01FA01	20/04/2005
32153978	J01FA01	11/11/2008
32059302	J01FA01	02/12/2009
32119254	J01FA01	27/02/2004
32189808	J01FA01	28/04/2010
31146334	J01FA01	20/10/2004
31954043	J01FA01	26/11/2008
31258154	J01FA01	17/02/2005
31148626	J01FA01	30/05/2006
31585717	J01FA01	09/11/2006
31218008	J01FA01	28/02/2005
31774180	J01FA01	11/12/2000
31177245	J01FA01	21/04/2009
31694669	J01FA01	06/04/2011
32132555	J01FA01	03/07/2008
31348219	J01FA01	17/06/2004
32002948	J01FA01	19/05/2006
31297860	J01FA01	26/12/2001
31493892	J01FA01	19/05/2006
31673640	J01FA01	12/02/2002
31768821	J01FA01	27/12/2001
31308618	J01FA01	24/08/2007
31307903	J01FA01	18/12/2006
31815136	J01FA01	27/06/2000
32225503	J01FA01	02/01/2007
31241422	J01FA01	05/04/2006
31418483	J01FA01	22/06/2007
31774996	J01FA01	15/05/2003
31794924	J01FA01	19/06/2006
31345749	J01FA01	21/11/2003
31464764	J01FA01	07/08/2007
31518477	J01FA01	19/04/2004
31119403	J01FA01	12/07/2007
31993988	J01FA01	10/02/2004
31151917	J01FA01	23/11/2007
32106251	J01FA01	07/06/2007
32212869	J01FA01	08/03/2011
31298297	J01FA01	08/08/2006
31429286	J01FA01	14/03/2003
31543125	J01FA01	09/09/2010
31468457	J01FA01	31/01/2008
31246615	J01FA01	08/06/2010
31794873	J01FA01	01/03/2005
31580444	J01FA01	11/10/2000
31167775	J01FA01	29/10/2004
31502915	J01FA01	15/09/2008
32221835	J01FA01	13/06/2003
31654266	J01FA01	27/11/2006
31717025	J01FA01	19/04/2005
31638813	J01FA01	02/11/2004
31965887	J01FA01	18/05/2009
31166024	J01FA01	17/10/2003
31110420	J01FA01	16/09/2009
31981150	J01FA01	10/05/2005
31372248	J01FA01	02/08/2000
31494692	J01FA01	04/06/2004
31481556	J01FA01	11/05/2009
31837765	J01FA01	18/01/2005
31537932	J01FA01	28/10/2005
31046210	J01FA01	07/07/2004
32046813	J01FA01	09/03/2009
31474717	J01FA01	17/03/2009
31251686	J01FA01	27/03/2009
32278374	J01FA01	07/04/2010
31766221	J01FA01	08/04/2010
31886871	J01FA01	31/03/2008
31462700	J01FA01	09/02/2005
31669980	J01FA01	06/10/2005
31390222	J01FA01	05/06/2008
32237294	J01FA01	23/10/2002
31577402	J01FA01	02/06/2008
31070465	J01FA01	28/08/2006
31038907	J01FA01	14/07/2008
31989785	J01FA01	12/03/2010
31241823	J01FA01	24/05/2005
32127892	J01FA01	23/12/2009
32092229	J01FA01	07/12/2004
32239080	J01FA01	10/09/2009
31883127	J01FA01	16/11/2006
31932560	J01FA01	21/04/2008
31542939	J01FA01	11/05/2007
31624444	J01FA01	02/01/2007
32171369	J01FA01	15/04/2010
31053200	J01FA01	08/03/2010
32093674	J01FA01	19/10/2007
31396958	J01FA01	03/05/1999
31689865	J01FA01	02/04/2007
32192108	J01FA01	31/05/2007
31230558	J01FA01	28/05/2004
31703573	J01FA01	24/07/2000
31265739	J01FA01	26/08/2008
31209417	J01FA01	02/10/2008
31370565	J01FA01	15/04/2009
31987562	J01FA01	20/12/2004
31405567	J01FA01	19/06/2009
31741891	J01FA01	19/10/2007
31039433	J01FA01	20/08/2010
31371712	J01FA01	07/04/2009
32083539	J01FA01	22/01/2010
31060856	J01FA01	05/10/2005
32269608	J01FA01	30/12/2003
31626969	J01FA01	19/06/2009
31500856	J01FA01	07/12/2009
31495497	J01FA01	13/07/2005
31891028	J01FA01	22/02/2005
31967869	J01FA01	25/02/2004
31539125	J01FA01	11/09/2006
32103625	J01FA01	02/08/2004
31291853	J01FA01	07/02/2005
32260224	J01FA01	29/11/2004
31723393	J01FA01	18/09/2007
31047317	J01FA01	21/10/2004
31924861	J01FA01	21/06/2005
31380703	J01FA01	15/12/2003
31067422	J01FA01	10/02/2006
31795089	J01FA01	25/11/2009
31192528	J01FA01	16/11/2007
31204192	J01FA01	17/01/2011
31704514	J01FA01	03/04/2008
31952723	J01FA01	18/01/2005
31128162	J01FA01	18/04/2006
31290982	J01FA01	03/05/2000
31382749	J01FA01	24/04/2009
32135671	J01FA01	19/07/2004
31412940	J01FA01	12/06/2006
31184463	J01FA01	12/12/2007
31969341	J01FA01	04/02/2002
31530134	J01FA01	22/05/2002
32111220	J01FA01	03/05/2001
31713126	J01FA01	28/09/2005
31869024	J01FA01	10/11/2003
31391353	J01FA01	24/01/2008
31949780	J01FA01	14/11/2007
31240257	J01FA01	11/09/2009
31622937	J01FA01	13/08/2007
32051643	J01FA01	22/02/2010
31920712	J01FA01	12/12/2005
32274565	J01FA01	12/02/2003
31584028	J01FA01	03/07/2009
31717108	J01FA01	18/09/2008
31254302	J01FA01	28/05/2010
31056361	J01FA01	19/01/2006
32042762	J01FA01	02/12/2005
31095396	J01FA01	01/04/2009
31217806	J01FA01	13/05/2004
31901938	J01FA01	24/10/2002
31869856	J01FA01	28/11/2005
31604848	J01FA01	01/10/2009
31819648	J01FA01	03/05/2004
31055737	J01FA01	01/02/2006
31780018	J01FA01	22/06/2006
32178711	J01FA01	16/10/2007
32173526	J01FA01	22/04/2004
32073892	J01FA01	19/05/2009
31657268	J01FA01	09/09/2008
31261675	J01FA01	04/05/2006
31225795	J01FA01	19/10/2007
32081424	J01FA01	26/12/2006
31926445	J01FA01	21/05/2007
31054097	J01FA01	13/01/2004
31523713	J01FA01	01/03/2005
31930476	J01FA01	14/02/2006
31944943	J01FA01	26/10/2007
31266701	J01FA01	06/05/2002
32205231	J01FA01	27/05/2004
31281875	J01FA01	07/10/2003
31360029	J01FA01	07/10/2008
31520527	J01FA01	31/08/2007
31068921	J01FA01	18/12/2006
31368596	J01FA01	25/01/2008
32046836	J01FA01	26/05/2006
31071531	J01FA01	20/12/2000
31068258	J01FA01	23/04/2008
31848757	J01FA01	17/02/2010
31033598	J01FA01	07/09/2009
31804296	J01FA01	30/12/2002
31840483	J01FA01	08/01/2008
31357996	J01FA01	06/05/2008
31901024	J01FA01	02/11/2001
31484727	J01FA01	30/06/2008
31822263	J01FA01	31/05/2006
31574647	J01FA01	22/10/2008
31585198	J01FA01	10/03/2005
31061564	J01FA01	29/07/2009
31526498	J01FA01	29/09/2004
32259010	J01FA01	23/01/2006
32016456	J01FA01	03/07/2007
31687887	J01FA01	18/01/2002
32148343	J01FA01	05/05/1999
31614016	J01FA01	22/02/2008
31644707	J01FA01	18/03/2010
32129515	J01FA01	09/06/2006
31686391	J01FA01	25/11/2005
31190425	J01FA01	20/04/2009
31042576	J01FA01	27/09/2004
31893484	J01FA01	19/02/2002
31332263	J01FA01	22/06/2001
31858333	J01FA01	27/08/2003
31030230	J01FA01	16/07/2007
31396970	J01FA01	01/09/2008
31556807	J01FA01	09/07/2010
31092882	J01FA01	28/02/2005
32253685	J01FA01	24/05/2007
31067211	J01FA01	13/03/2007
31549675	J01FA01	12/06/2003
31318794	J01FA01	25/06/2003
31342309	J01FA01	08/05/2002
31045796	J01FA01	19/09/2007
31488430	J01FA01	28/12/2006
31685580	J01FA01	08/11/2007
32120117	J01FA01	07/11/2005
32249853	J01FA01	08/01/2008
31045114	J01FA01	24/11/2009
32154430	J01FA01	22/09/2004
31285170	J01FA01	01/08/2008
31084995	J01FA01	30/12/2005
31910903	J01FA01	12/11/2008
31354769	J01FA01	05/01/2006
31515830	J01FA01	23/04/2001
31479508	J01FA01	03/05/2007
31586618	J01FA01	26/01/2007
31165938	J01FA01	28/02/2008
31111424	J01FA01	05/09/2006
31566767	J01FA01	22/02/2000
31896157	J01FA01	27/03/2007
31410826	J01FA01	19/05/2003
31733685	J01FA01	25/05/2004
32163968	J01FA01	21/03/2006
31223206	J01FA01	29/03/2005
31448870	J01FA01	16/08/2001
31115712	J01FA01	17/10/2008
31779362	J01FA01	17/08/2007
32087928	J01FA01	24/05/2005
31889065	J01FA01	27/05/2005
