patient_id	covar_name	date
9303849	LEUCEM	07/12/2005
9319589	LEUCEM	08/06/2000
16531942	LEUCEM	04/01/2003
1062835	LEUCEM	07/08/1996
8700529	LEUCEM	19/10/2001
1852422	LEUCEM	31/08/2006
1295728	LEUCEM	17/07/2008
2068739	LEUCEM	12/02/2004
28087133	LEUCEM	19/03/2001
1015435	LEUCEM	01/01/1997
25740921	LEUCEM	19/11/2001
27400146	LEUCEM	21/12/1989
27152030	LEUCEM	14/08/2007
27640778	LEUCEM	07/11/2003
27597806	LEUCEM	03/03/2011
27695068	LEUCEM	01/08/2002
12993325	LEUCEM	29/10/2010
33105811	LEUCEM	25/06/1985
33028018	LEUCEM	13/09/2007
33079795	LEUCEM	21/07/2009
33015558	LEUCEM	22/06/2009
21100819	LEUCEM	26/10/1996
23410714	LEUCEM	01/06/1993
31253812	LEUCEM	05/10/2002
32057338	LEUCEM	03/07/1966
31163272	LEUCEM	03/01/2011
32091134	LEUCEM	17/11/2003
32103218	LEUCEM	20/11/2007
32260330	LEUCEM	04/07/2008
31362439	LEUCEM	09/06/1988
31941810	LEUCEM	15/04/2011
31858657	LEUCEM	01/02/2010
31346856	LEUCEM	06/05/2002
31253360	LEUCEM	18/02/2011
31805814	LEUCEM	15/02/2005
31348815	LEUCEM	19/01/2011
31422127	LEUCEM	20/09/2007
31709125	LEUCEM	10/02/2011
