patient_id	covar_name	date
16099901	L02BG04	28/02/2011
9312637	L02BG04	04/04/2011
944975	L02BG04	09/05/2011
3334201	L02BG04	09/05/2011
12173193	L02BG04	03/01/2007
5866711	L02BG04	17/05/2011
10331126	L02BG04	04/09/2008
9302300	L02BG04	02/10/2007
9203860	L02BG04	25/04/2011
6751810	L02BG04	07/01/2004
1850827	L02BG04	09/12/2008
1208200	L02BG04	29/08/2007
5992383	L02BG04	04/05/2011
2216630	L02BG04	03/05/2011
2038460	L02BG04	13/12/2007
2775552	L02BG04	04/04/2011
17742312	L02BG04	28/04/2009
421458	L02BG04	24/05/2011
3054239	L02BG04	03/02/2010
28078102	L02BG04	11/04/2011
26624375	L02BG04	20/07/2007
26718656	L02BG04	03/05/2011
26711568	L02BG04	26/05/2011
26714270	L02BG04	08/05/2011
27137973	L02BG04	03/05/2011
27045550	L02BG04	20/12/2010
27042033	L02BG04	08/06/2010
26996574	L02BG04	24/07/2010
27215513	L02BG04	11/02/2011
27170681	L02BG04	30/09/2010
27460403	L02BG04	20/11/2010
27369999	L02BG04	09/05/2011
26992037	L02BG04	23/03/2011
27602941	L02BG04	19/01/2011
27667247	L02BG04	06/03/2011
27309041	L02BG04	02/11/2008
27760726	L02BG04	24/06/2010
33034590	L02BG04	24/05/2011
28023165	L02BG04	17/05/2011
33245848	L02BG04	17/05/2011
32133889	L02BG04	22/04/2011
31987098	L02BG04	18/09/2006
31107699	L02BG04	27/10/2009
31606765	L02BG04	21/10/2010
31704498	L02BG04	19/10/2009
32087742	L02BG04	11/11/2008
31297988	L02BG04	03/09/2008
32240004	L02BG04	24/08/2008
32119517	L02BG04	11/12/2008
31280947	L02BG04	31/12/2010
31189205	L02BG04	30/11/2009
32114832	L02BG04	13/07/2010
31326494	L02BG04	04/11/2008
31513965	L02BG04	14/10/2010
31336062	L02BG04	17/12/2008
31050391	L02BG04	14/07/2010
31042576	L02BG04	27/05/2011
31700564	L02BG04	17/11/2009
