patient_id	covar_name	date
17170094	M01AC02	01/06/2005
9210924	M01AC02	20/10/2008
7968770	M01AC02	29/01/2009
7968503	M01AC02	07/09/2010
1445809	M01AC02	18/03/2009
718128	M01AC02	05/01/2010
135815	M01AC02	10/05/2002
2219403	M01AC02	27/11/2002
2216323	M01AC02	24/10/2002
26384059	M01AC02	08/10/2010
7229425	M01AC02	12/03/2008
2753836	M01AC02	29/01/2008
28044182	M01AC02	05/11/2001
303884	M01AC02	27/01/2004
427053	M01AC02	25/01/1999
1903682	M01AC02	08/06/2001
1360745	M01AC02	14/02/2003
1367186	M01AC02	20/01/2011
1359388	M01AC02	26/12/2000
18195830	M01AC02	20/12/2010
18196791	M01AC02	18/01/2002
26790332	M01AC02	15/11/2005
16105363	M01AC02	18/07/2002
12993757	M01AC02	30/07/2002
12993397	M01AC02	30/09/2004
25740918	M01AC02	26/11/2004
27023212	M01AC02	21/10/2009
26859334	M01AC02	05/08/2008
26792107	M01AC02	21/04/2006
27087727	M01AC02	14/07/2007
27042240	M01AC02	13/04/2011
27213348	M01AC02	29/12/2006
27305570	M01AC02	24/05/2011
27317311	M01AC02	11/01/2006
27230962	M01AC02	23/07/2001
27241512	M01AC02	21/12/2005
27639633	M01AC02	28/10/2005
27420519	M01AC02	13/10/2009
27153665	M01AC02	20/03/2005
27153968	M01AC02	10/01/2003
27252613	M01AC02	21/07/2008
27237186	M01AC02	15/02/2005
27670711	M01AC02	03/07/1998
33104669	M01AC02	15/04/2002
33068552	M01AC02	15/09/2004
24666775	M01AC02	04/03/2009
33201120	M01AC02	12/05/2010
16774206	M01AC02	05/04/2005
23402116	M01AC02	28/07/2004
23402638	M01AC02	19/12/2006
23402611	M01AC02	22/02/2005
31702684	M01AC02	13/01/2005
31086081	M01AC02	04/12/2001
31569281	M01AC02	15/06/2001
