patient_id	covar_name	date
8977394	MELANO	25/03/2009
9250103	MELANO	23/02/2005
10457154	MELANO	18/04/2008
5028776	MELANO	30/12/2009
9339219	MELANO	28/07/2000
8975906	MELANO	21/08/2007
7160662	MELANO	24/02/2010
12778373	MELANO	10/10/2008
1320533	MELANO	07/01/2010
7968624	MELANO	08/01/2004
1277329	MELANO	04/06/2002
645626	MELANO	06/09/2005
15667199	MELANO	05/04/2011
135306	MELANO	13/04/2010
2038044	MELANO	10/08/1999
2773726	MELANO	29/11/2010
2408020	MELANO	24/01/1987
2755270	MELANO	17/05/2011
17742348	MELANO	27/09/2005
10926333	MELANO	05/12/2004
1910433	MELANO	15/12/2010
420981	MELANO	05/03/2001
25742955	MELANO	18/07/2006
21063152	MELANO	23/06/2005
2961578	MELANO	22/11/1955
12993861	MELANO	05/08/2004
16842013	MELANO	11/03/1995
26759120	MELANO	04/11/2009
26877295	MELANO	17/10/2006
26715346	MELANO	06/04/2004
26999393	MELANO	03/07/2004
27113158	MELANO	05/05/2008
27056963	MELANO	01/07/2002
27025920	MELANO	22/07/2000
26991119	MELANO	02/07/2009
27233913	MELANO	13/12/2010
27325553	MELANO	23/04/2007
27535072	MELANO	05/11/2010
27477369	MELANO	02/09/2004
27000618	MELANO	20/06/2008
27314117	MELANO	20/06/2005
26833867	MELANO	01/07/1927
27597325	MELANO	01/01/1999
27527929	MELANO	26/01/2010
12975841	MELANO	23/05/2011
27716869	MELANO	31/08/2007
24665010	MELANO	03/02/2004
33008270	MELANO	23/11/2004
26637123	MELANO	17/01/2003
26972182	MELANO	31/03/2006
26625913	MELANO	19/04/2010
27796986	MELANO	12/08/2008
33091289	MELANO	01/07/2009
18768005	MELANO	14/01/2003
20985576	MELANO	04/06/2008
21108146	MELANO	30/12/2008
27984029	MELANO	17/01/2007
31180184	MELANO	06/06/2001
31573434	MELANO	10/10/2008
32049760	MELANO	27/04/2011
31734298	MELANO	19/12/2007
31308549	MELANO	18/06/1999
32255643	MELANO	13/10/2005
31927982	MELANO	03/11/2003
31502961	MELANO	03/02/2009
31701788	MELANO	20/01/2006
31460267	MELANO	11/09/2008
31804458	MELANO	14/02/2005
31998738	MELANO	01/01/2001
32190370	MELANO	14/04/2009
31838091	MELANO	20/04/2005
31878078	MELANO	23/02/2010
31522740	MELANO	06/08/2003
31577402	MELANO	07/01/1933
31381826	MELANO	04/05/2004
31062380	MELANO	13/02/2008
31657959	MELANO	02/12/2010
31761481	MELANO	28/05/2009
31503301	MELANO	07/04/2009
31741546	MELANO	28/11/1938
32192563	MELANO	14/05/1999
31646476	MELANO	01/09/2007
31679146	MELANO	25/09/2002
31702764	MELANO	18/02/2004
31250490	MELANO	27/01/2002
32197317	MELANO	31/07/2000
31080678	MELANO	24/05/2008
31674612	MELANO	11/08/2006
32218115	MELANO	28/08/2003
31820747	MELANO	02/08/2010
31101483	MELANO	18/11/2009
