patient_id	covar_name	date
9133843	N01BX04	27/10/2008
960050	N01BX04	24/05/2010
8559182	N01BX04	05/02/2009
9371686	N01BX04	20/09/2010
18774365	N01BX04	29/09/2010
10269870	N01BX04	06/10/2010
8568002	N01BX04	19/01/2010
6749491	N01BX04	10/12/2004
12791129	N01BX04	03/02/2005
9370774	N01BX04	29/06/2006
701693	N01BX04	10/03/2011
10603970	N01BX04	03/06/2009
11994028	N01BX04	05/05/2005
7094120	N01BX04	24/05/2011
1938644	N01BX04	09/04/2010
9213970	N01BX04	22/03/2007
10270319	N01BX04	30/12/2005
1434172	N01BX04	04/05/2011
11660918	N01BX04	17/03/2010
960978	N01BX04	23/06/2010
12694616	N01BX04	01/10/2010
13993262	N01BX04	08/01/2010
24448171	N01BX04	19/02/2010
19185008	N01BX04	23/04/2010
8639376	N01BX04	17/12/2008
9274459	N01BX04	27/10/2008
21870755	N01BX04	13/01/2011
1940935	N01BX04	14/08/2009
25062892	N01BX04	04/03/2010
8654983	N01BX04	14/04/2008
25052298	N01BX04	14/10/2010
9983430	N01BX04	23/03/2004
9388668	N01BX04	21/06/2005
21871204	N01BX04	11/02/2008
20528913	N01BX04	14/11/2008
9135448	N01BX04	01/09/2010
15402656	N01BX04	23/01/2008
8561782	N01BX04	05/12/2006
16671617	N01BX04	25/04/2011
12184885	N01BX04	30/09/2009
11879071	N01BX04	11/09/2009
12789665	N01BX04	01/12/2005
6749295	N01BX04	07/07/2008
1936960	N01BX04	05/05/2011
6143196	N01BX04	31/05/2011
6746455	N01BX04	15/12/2010
8570996	N01BX04	19/05/2011
12780138	N01BX04	06/06/2008
3331547	N01BX04	23/05/2011
9134282	N01BX04	01/10/2009
16530949	N01BX04	21/06/2007
957878	N01BX04	03/12/2009
23471643	N01BX04	23/12/2010
9285503	N01BX04	14/08/2007
730718	N01BX04	05/12/2008
944486	N01BX04	03/09/2009
945163	N01BX04	03/09/2009
8556597	N01BX04	06/08/2010
9384479	N01BX04	14/01/2005
1068743	N01BX04	26/06/2009
12790404	N01BX04	17/02/2005
7160922	N01BX04	21/01/2011
15899941	N01BX04	12/09/2007
1067775	N01BX04	25/04/2008
10002746	N01BX04	02/02/2006
1446082	N01BX04	28/03/2011
7967014	N01BX04	11/05/2011
1445557	N01BX04	04/03/2011
8067544	N01BX04	26/05/2009
640926	N01BX04	19/10/2004
1417651	N01BX04	06/02/2009
7781504	N01BX04	20/12/2007
7971655	N01BX04	27/03/2007
18366191	N01BX04	18/10/2010
24718852	N01BX04	20/09/2006
6594059	N01BX04	06/11/2006
1415985	N01BX04	24/08/2010
8175392	N01BX04	01/06/2011
514845	N01BX04	20/05/2009
516372	N01BX04	20/01/2010
1203525	N01BX04	21/05/2009
524498	N01BX04	04/06/2002
525724	N01BX04	04/05/2006
515787	N01BX04	11/02/2005
6212365	N01BX04	17/11/2004
7848502	N01BX04	13/03/2009
1353307	N01BX04	06/09/2010
1204770	N01BX04	12/01/2009
12189158	N01BX04	05/09/2007
1204023	N01BX04	19/05/2009
1545607	N01BX04	04/05/2011
7781663	N01BX04	17/05/2010
1206818	N01BX04	05/11/2008
1210849	N01BX04	25/06/2007
1665032	N01BX04	18/03/2010
525429	N01BX04	27/03/2007
564652	N01BX04	27/02/2008
6375893	N01BX04	27/05/2011
15667199	N01BX04	31/03/2009
6593294	N01BX04	12/02/2009
7780404	N01BX04	12/12/2007
15696603	N01BX04	08/03/2010
13985332	N01BX04	26/04/2011
7801913	N01BX04	26/02/2008
6423585	N01BX04	14/06/2008
1203732	N01BX04	11/06/2009
13986237	N01BX04	27/07/2010
1204015	N01BX04	16/10/2007
1090924	N01BX04	22/09/2009
7777716	N01BX04	30/05/2011
7848835	N01BX04	03/03/2009
1006725	N01BX04	09/08/2010
1640758	N01BX04	10/03/2011
1132264	N01BX04	03/11/2008
718128	N01BX04	27/09/2010
1638708	N01BX04	30/06/2010
1130755	N01BX04	30/07/2007
716480	N01BX04	19/05/2009
1102247	N01BX04	08/07/2008
1111431	N01BX04	11/09/2009
195582	N01BX04	08/01/2008
6899947	N01BX04	27/05/2010
716254	N01BX04	28/07/2009
1027312	N01BX04	22/10/2010
715994	N01BX04	19/05/2008
1135310	N01BX04	14/11/2008
25750805	N01BX04	20/03/2009
1101335	N01BX04	01/04/2005
25894286	N01BX04	29/09/2010
717762	N01BX04	14/02/2006
1133430	N01BX04	16/09/2010
1131424	N01BX04	17/02/2009
12664468	N01BX04	23/01/2009
25751393	N01BX04	05/04/2011
717026	N01BX04	26/05/2008
1135406	N01BX04	30/08/2010
1557371	N01BX04	05/03/2010
715866	N01BX04	06/03/2006
890380	N01BX04	08/09/2009
2217407	N01BX04	29/04/2003
2143580	N01BX04	27/03/2008
2214933	N01BX04	11/01/2011
2139967	N01BX04	17/03/2009
2068118	N01BX04	31/10/2008
2109593	N01BX04	11/07/2007
2139418	N01BX04	05/04/2004
2134010	N01BX04	08/07/2010
2110204	N01BX04	21/12/2010
902957	N01BX04	24/01/2005
902982	N01BX04	24/07/2009
1764780	N01BX04	26/09/2005
1767215	N01BX04	28/04/2008
2053434	N01BX04	25/04/2007
2109655	N01BX04	02/06/2008
2035752	N01BX04	07/02/2011
902321	N01BX04	06/08/2004
1755667	N01BX04	22/10/2008
2043588	N01BX04	23/02/2009
1755920	N01BX04	19/11/2007
859110	N01BX04	03/08/2006
1765141	N01BX04	22/01/2009
859041	N01BX04	14/12/2005
903206	N01BX04	13/05/2011
6335061	N01BX04	17/09/2007
3050342	N01BX04	15/12/2003
7037584	N01BX04	15/01/2008
2041614	N01BX04	30/01/2009
1768450	N01BX04	14/08/2008
902525	N01BX04	09/06/2010
7038536	N01BX04	01/08/2007
3055375	N01BX04	13/05/2009
2779249	N01BX04	24/05/2011
2521779	N01BX04	21/02/2008
3054506	N01BX04	30/10/2010
3055002	N01BX04	06/11/2008
7043389	N01BX04	21/12/2010
3052614	N01BX04	02/03/2011
2759125	N01BX04	04/09/2010
2522313	N01BX04	04/06/2009
2408299	N01BX04	12/02/2007
2756861	N01BX04	27/10/2008
15660220	N01BX04	03/05/2007
9848198	N01BX04	11/04/2011
28054168	N01BX04	10/04/2006
26424856	N01BX04	23/07/2010
26351975	N01BX04	16/04/2003
26351849	N01BX04	04/04/2007
26349371	N01BX04	05/01/2005
28072967	N01BX04	03/03/2006
28053602	N01BX04	23/03/2011
26460462	N01BX04	25/05/2011
18471742	N01BX04	16/04/2008
17747528	N01BX04	28/02/2008
7144208	N01BX04	27/11/2008
26263281	N01BX04	09/06/2010
7137229	N01BX04	21/04/2009
7137260	N01BX04	24/01/2006
18222956	N01BX04	14/07/2010
26244401	N01BX04	08/04/2008
26244408	N01BX04	18/10/2006
26236453	N01BX04	20/05/2010
14363466	N01BX04	03/04/2007
184942	N01BX04	10/05/2010
419475	N01BX04	04/04/2011
302260	N01BX04	27/10/2005
8045081	N01BX04	20/12/2006
2217125	N01BX04	04/12/2009
28081504	N01BX04	29/11/2010
28083670	N01BX04	03/07/2006
7128685	N01BX04	08/05/2008
1754240	N01BX04	18/09/2009
2777704	N01BX04	12/05/2011
2778926	N01BX04	28/12/2010
28078871	N01BX04	24/11/2010
184353	N01BX04	27/04/2009
424846	N01BX04	02/05/2006
301183	N01BX04	20/05/2010
302593	N01BX04	12/11/2008
427372	N01BX04	16/01/2007
421022	N01BX04	13/11/2004
28070991	N01BX04	26/02/2010
28054417	N01BX04	21/01/2009
28053822	N01BX04	14/03/2006
28053640	N01BX04	30/07/2007
28072320	N01BX04	10/10/2006
28087444	N01BX04	04/11/2005
28093204	N01BX04	24/05/2011
28071032	N01BX04	10/03/2009
24665617	N01BX04	20/10/2005
24670887	N01BX04	03/10/2008
24661681	N01BX04	06/05/2011
25727387	N01BX04	15/01/2009
1905426	N01BX04	16/05/2007
18195981	N01BX04	20/12/2010
18186766	N01BX04	02/11/2007
18186949	N01BX04	30/09/2008
18190504	N01BX04	13/10/2008
1899482	N01BX04	14/04/2011
2988326	N01BX04	14/07/2009
2988353	N01BX04	21/08/2008
2963493	N01BX04	13/11/2007
1906106	N01BX04	28/03/2008
3055681	N01BX04	23/03/2011
26642443	N01BX04	27/10/2006
26700714	N01BX04	19/05/2009
26638407	N01BX04	23/08/2002
2988172	N01BX04	09/07/2009
12976348	N01BX04	30/06/2010
15810332	N01BX04	12/02/2007
24663291	N01BX04	30/05/2008
12993757	N01BX04	08/02/2008
2988492	N01BX04	07/04/2011
16810184	N01BX04	03/02/2011
26617524	N01BX04	27/01/2010
26701119	N01BX04	05/01/2007
26626604	N01BX04	14/02/2011
26720626	N01BX04	10/01/2006
26722266	N01BX04	27/05/2010
14309906	N01BX04	13/02/2011
26621448	N01BX04	19/05/2009
26719166	N01BX04	12/05/2011
24654451	N01BX04	30/09/2010
22922696	N01BX04	28/02/2011
21552854	N01BX04	13/05/2005
24655094	N01BX04	22/11/2010
26894979	N01BX04	29/04/2010
26934241	N01BX04	13/01/2009
26894366	N01BX04	27/01/2011
26916174	N01BX04	18/11/2009
26941116	N01BX04	28/02/2007
26958880	N01BX04	20/05/2010
26933236	N01BX04	18/05/2007
26949733	N01BX04	15/01/2008
26932452	N01BX04	16/07/2010
26745325	N01BX04	30/09/2010
26723523	N01BX04	28/08/2007
26715111	N01BX04	05/05/2008
26703766	N01BX04	10/11/2010
26864238	N01BX04	07/04/2006
26846087	N01BX04	10/09/2010
26717570	N01BX04	12/12/2008
26948825	N01BX04	04/04/2011
26859472	N01BX04	31/08/2004
26848880	N01BX04	29/03/2011
26847638	N01BX04	28/01/2009
26716663	N01BX04	19/12/2003
26792107	N01BX04	09/05/2011
26743725	N01BX04	04/09/2009
26966681	N01BX04	28/02/2006
26974551	N01BX04	16/05/2006
26989053	N01BX04	25/05/2007
26956977	N01BX04	02/12/2008
27151528	N01BX04	20/07/2007
27113158	N01BX04	22/09/2010
27085859	N01BX04	16/05/2005
27112272	N01BX04	09/04/2010
27024643	N01BX04	02/03/2010
27055689	N01BX04	09/03/2011
27046614	N01BX04	08/06/2004
27033531	N01BX04	04/02/2008
27052581	N01BX04	13/04/2010
27026349	N01BX04	06/03/2007
27039739	N01BX04	11/02/2010
27025901	N01BX04	01/06/2009
27026487	N01BX04	20/08/2010
27024702	N01BX04	04/02/2010
27379761	N01BX04	05/01/2011
27170821	N01BX04	05/12/2008
27150434	N01BX04	11/05/2009
27152048	N01BX04	06/08/2007
27362443	N01BX04	27/03/2008
27389916	N01BX04	17/08/2010
27388816	N01BX04	23/02/2006
27388635	N01BX04	20/08/2010
27383412	N01BX04	09/07/2008
27365421	N01BX04	20/01/2011
27198906	N01BX04	16/06/2010
27243228	N01BX04	10/08/2009
27383112	N01BX04	27/03/2007
27320895	N01BX04	22/04/2010
27220409	N01BX04	13/03/2007
27302542	N01BX04	28/04/2006
27348103	N01BX04	29/04/2010
26952301	N01BX04	28/10/2009
27252838	N01BX04	21/05/2008
27250690	N01BX04	11/03/2011
27643610	N01BX04	25/01/2011
27647922	N01BX04	20/09/2010
27660829	N01BX04	01/02/2011
27623983	N01BX04	25/02/2009
27624058	N01BX04	20/03/2009
27578704	N01BX04	31/08/2006
27644250	N01BX04	16/09/2004
27453809	N01BX04	03/08/2007
27640833	N01BX04	17/01/2008
27716105	N01BX04	03/04/2007
27717220	N01BX04	11/04/2008
27571995	N01BX04	26/05/2011
27623095	N01BX04	09/01/2008
27759030	N01BX04	24/05/2004
27546344	N01BX04	04/06/2009
27543445	N01BX04	12/05/2010
27151688	N01BX04	13/11/2007
26976144	N01BX04	22/02/2008
27025269	N01BX04	18/09/2006
27707441	N01BX04	28/03/2007
27028201	N01BX04	30/05/2006
27718156	N01BX04	17/03/2011
27533855	N01BX04	22/11/2007
27533892	N01BX04	18/04/2011
27533227	N01BX04	20/01/2010
27680128	N01BX04	14/09/2006
27480464	N01BX04	20/04/2011
27532981	N01BX04	25/08/2004
27314117	N01BX04	02/07/2004
27684912	N01BX04	05/06/2008
27326644	N01BX04	16/10/2006
27674208	N01BX04	04/12/2008
27785751	N01BX04	09/10/2009
27785173	N01BX04	09/05/2011
27708482	N01BX04	01/03/2010
27029757	N01BX04	16/04/2008
27771463	N01BX04	23/03/2011
27024856	N01BX04	11/02/2008
27600860	N01BX04	07/10/2010
27477242	N01BX04	11/04/2008
27459762	N01BX04	11/09/2008
27644980	N01BX04	04/02/2011
26933407	N01BX04	17/03/2008
27709553	N01BX04	15/03/2010
27796621	N01BX04	17/02/2010
27810792	N01BX04	19/01/2010
1912943	N01BX04	18/11/2010
27797221	N01BX04	19/04/2011
27716276	N01BX04	05/10/2010
27797246	N01BX04	04/03/2010
27679383	N01BX04	17/11/2006
27762253	N01BX04	01/07/2008
27797674	N01BX04	01/09/2010
27716806	N01BX04	14/02/2008
27716826	N01BX04	13/12/2007
27686175	N01BX04	06/04/2006
27797094	N01BX04	22/01/2010
27797699	N01BX04	22/07/2010
27623151	N01BX04	04/05/2009
27716869	N01BX04	27/03/2009
27686096	N01BX04	17/03/2006
27667214	N01BX04	03/03/2006
27666278	N01BX04	08/05/2006
27708196	N01BX04	21/08/2006
27797057	N01BX04	18/02/2010
27532824	N01BX04	24/05/2010
27786075	N01BX04	07/04/2008
27716323	N01BX04	23/05/2007
27087757	N01BX04	10/06/2010
27670442	N01BX04	08/05/2006
33112774	N01BX04	07/04/2010
33033879	N01BX04	28/11/2008
33033701	N01BX04	18/12/2007
33086922	N01BX04	12/05/2005
33026002	N01BX04	17/04/2008
33045066	N01BX04	29/01/2008
33098852	N01BX04	23/03/2006
33103468	N01BX04	29/01/2008
33019657	N01BX04	30/04/2007
33008987	N01BX04	22/03/2010
33074340	N01BX04	06/05/2011
33007817	N01BX04	07/08/2008
33109340	N01BX04	06/11/2008
33080281	N01BX04	17/12/2008
33091555	N01BX04	13/02/2008
33058394	N01BX04	04/11/2009
33064809	N01BX04	16/01/2008
33100593	N01BX04	04/05/2011
33085372	N01BX04	02/05/2008
33019197	N01BX04	11/01/2006
33068552	N01BX04	10/09/2010
33054849	N01BX04	11/06/2009
27679588	N01BX04	28/02/2006
27796565	N01BX04	27/08/2010
33072648	N01BX04	04/03/2010
26720883	N01BX04	08/02/2011
33058549	N01BX04	01/10/2009
16640292	N01BX04	02/10/2008
16618574	N01BX04	12/09/2008
33097958	N01BX04	16/03/2006
33041177	N01BX04	04/08/2009
33005091	N01BX04	10/12/2010
33082496	N01BX04	24/04/2009
33112492	N01BX04	29/01/2008
33006775	N01BX04	02/11/2010
33049405	N01BX04	26/10/2007
33104544	N01BX04	20/05/2008
33043124	N01BX04	21/01/2008
33055487	N01BX04	19/02/2009
33065950	N01BX04	25/05/2011
33114619	N01BX04	23/02/2011
33099087	N01BX04	22/01/2008
33045315	N01BX04	04/11/2008
33128792	N01BX04	08/02/2010
33073628	N01BX04	20/03/2007
33055038	N01BX04	18/02/2009
33093016	N01BX04	11/05/2011
33083819	N01BX04	23/04/2010
23343181	N01BX04	19/10/2010
16625746	N01BX04	14/07/2008
33309896	N01BX04	27/02/2008
16708223	N01BX04	02/08/2005
33254214	N01BX04	04/03/2011
21114621	N01BX04	18/04/2011
18768315	N01BX04	27/05/2010
14188303	N01BX04	04/08/2009
21117274	N01BX04	07/04/2010
33308590	N01BX04	29/03/2011
24463703	N01BX04	14/01/2008
18755921	N01BX04	23/09/2010
16138565	N01BX04	26/12/2002
16612949	N01BX04	01/03/2011
33208695	N01BX04	28/06/2010
16636746	N01BX04	06/06/2005
16649149	N01BX04	19/03/2010
33312262	N01BX04	12/08/2009
18761895	N01BX04	19/02/2010
28038777	N01BX04	04/12/2009
33254309	N01BX04	17/05/2010
14188147	N01BX04	30/04/2009
33201412	N01BX04	20/10/2006
33309872	N01BX04	05/05/2011
23326929	N01BX04	23/06/2006
33309143	N01BX04	21/12/2010
16684088	N01BX04	12/06/2009
18769218	N01BX04	11/01/2008
28019289	N01BX04	31/10/2007
16607817	N01BX04	24/02/2010
16606808	N01BX04	10/05/2010
21114699	N01BX04	23/03/2011
16705838	N01BX04	04/07/2007
31473020	N01BX04	03/09/2009
16622928	N01BX04	08/09/2005
23367296	N01BX04	06/04/2011
16773532	N01BX04	17/06/2010
16630904	N01BX04	20/06/2006
20988305	N01BX04	26/05/2011
23406223	N01BX04	28/10/2009
23351379	N01BX04	25/11/2009
23353743	N01BX04	06/10/2004
16621754	N01BX04	06/10/2004
31353235	N01BX04	12/07/2007
31687391	N01BX04	10/02/2009
31638051	N01BX04	09/12/2009
31338329	N01BX04	22/05/2008
31451455	N01BX04	12/03/2008
31817892	N01BX04	17/06/2010
31810040	N01BX04	25/09/2009
31589693	N01BX04	31/01/2007
31749706	N01BX04	17/03/2009
31837481	N01BX04	01/07/2008
31925365	N01BX04	17/04/2009
31461480	N01BX04	26/09/2005
31119347	N01BX04	02/10/2008
31841569	N01BX04	17/03/2005
31093440	N01BX04	05/02/2010
31787535	N01BX04	31/01/2007
31642952	N01BX04	16/10/2009
32279522	N01BX04	04/02/2011
32043160	N01BX04	13/05/2004
32268623	N01BX04	17/03/2006
31779430	N01BX04	30/03/2007
31722801	N01BX04	10/03/2008
31559608	N01BX04	20/02/2008
31752788	N01BX04	20/12/2005
31061000	N01BX04	27/12/2007
32168735	N01BX04	20/09/2005
31394744	N01BX04	03/07/2003
32206140	N01BX04	07/07/2005
31694151	N01BX04	06/10/2009
32248059	N01BX04	21/01/2011
32170951	N01BX04	21/08/2007
31070304	N01BX04	15/12/2004
31341768	N01BX04	17/05/2007
31136755	N01BX04	16/10/2009
31672960	N01BX04	14/04/2003
32074407	N01BX04	02/08/2010
32013329	N01BX04	13/02/2003
32003853	N01BX04	08/03/2004
31222949	N01BX04	28/11/2002
31473550	N01BX04	24/06/2009
31886657	N01BX04	16/07/2004
31585946	N01BX04	24/03/2009
31337843	N01BX04	02/03/2007
31615395	N01BX04	10/03/2008
32087742	N01BX04	30/04/2007
32141113	N01BX04	16/06/2006
32002259	N01BX04	09/03/2006
31634806	N01BX04	20/02/2006
31753548	N01BX04	01/06/2007
31993122	N01BX04	08/01/2008
31849643	N01BX04	25/11/2005
32042526	N01BX04	29/01/2010
31741186	N01BX04	19/11/2007
32230729	N01BX04	10/03/2009
31232500	N01BX04	20/08/2004
31664270	N01BX04	31/10/2008
31542332	N01BX04	23/06/2004
32227466	N01BX04	12/07/2005
31822050	N01BX04	04/04/2003
31715788	N01BX04	13/04/2004
31837765	N01BX04	05/03/2007
31957036	N01BX04	20/04/2004
31415468	N01BX04	10/11/2004
31669980	N01BX04	09/07/2007
31660557	N01BX04	03/01/2008
32000334	N01BX04	19/12/2007
31105230	N01BX04	04/09/2008
32224769	N01BX04	19/11/2004
31747041	N01BX04	22/05/2007
31504030	N01BX04	01/06/2009
32132565	N01BX04	25/06/2007
31414209	N01BX04	10/06/2008
31942616	N01BX04	10/02/2010
31369547	N01BX04	11/02/2010
32172413	N01BX04	18/10/2007
32083953	N01BX04	21/06/2005
31807086	N01BX04	06/05/2004
31084479	N01BX04	06/11/2006
31416750	N01BX04	17/11/2008
31054169	N01BX04	12/03/2007
31571646	N01BX04	06/04/2010
32115664	N01BX04	31/03/2006
32113542	N01BX04	15/09/2004
31378201	N01BX04	19/11/2004
31306717	N01BX04	07/05/2009
31604884	N01BX04	01/07/2010
31848507	N01BX04	26/04/2010
31445105	N01BX04	16/11/2009
31579343	N01BX04	19/05/2004
31735092	N01BX04	14/06/2010
31312698	N01BX04	23/01/2008
31758759	N01BX04	03/08/2007
31944943	N01BX04	26/11/2010
31732736	N01BX04	31/08/2010
31847445	N01BX04	27/07/2005
31417912	N01BX04	25/11/2009
31217427	N01BX04	08/07/2009
31627198	N01BX04	29/03/2010
31176367	N01BX04	18/04/2007
31734230	N01BX04	11/02/2010
31970673	N01BX04	23/07/2008
31870354	N01BX04	11/04/2011
31174405	N01BX04	19/01/2009
31490502	N01BX04	27/09/2010
31543308	N01BX04	13/07/2007
32253685	N01BX04	06/06/2006
32008903	N01BX04	04/03/2011
31872910	N01BX04	04/12/2006
31488430	N01BX04	21/02/2008
32194941	N01BX04	14/01/2005
31685580	N01BX04	05/08/2010
31449578	N01BX04	28/02/2006
31689849	N01BX04	26/09/2007
31861365	N01BX04	07/10/2005
31789025	N01BX04	10/06/2008
31421108	N01BX04	17/04/2007
31100972	N01BX04	09/10/2009
31550436	N01BX04	01/06/2007
