patient_id	covar_name	date
12186603	N07AX01	17/07/2009
6177197	N07AX01	11/05/2006
25041721	N07AX01	06/11/2007
20548457	N07AX01	31/05/2011
7777348	N07AX01	15/01/2007
2133822	N07AX01	31/08/2007
2140421	N07AX01	18/10/2010
1014507	N07AX01	27/05/2011
1366141	N07AX01	02/11/2009
16105473	N07AX01	31/05/2007
27169743	N07AX01	25/04/2006
26981785	N07AX01	19/02/2007
27783016	N07AX01	25/05/2011
33092896	N07AX01	29/10/2009
31283139	N07AX01	11/03/2008
31767601	N07AX01	21/01/2010
31209907	N07AX01	01/02/2005
31087698	N07AX01	10/10/2008
31333055	N07AX01	08/12/2010
31148510	N07AX01	26/10/2009
