patient_id	covar_name	date
6757349	N05BA05	03/05/2011
6758571	N05BA05	15/11/2007
9135592	N05BA05	30/03/2005
960050	N05BA05	13/01/2010
6040714	N05BA05	12/02/2004
9311487	N05BA05	24/05/2011
1937760	N05BA05	17/07/2009
12774533	N05BA05	12/07/2010
8654401	N05BA05	07/04/2008
9347565	N05BA05	06/09/2002
6756847	N05BA05	11/04/2008
18774365	N05BA05	01/12/2006
5031451	N05BA05	02/02/2005
132608	N05BA05	04/04/2005
1731330	N05BA05	08/05/2011
8959653	N05BA05	07/10/2008
7095550	N05BA05	11/01/2011
25062697	N05BA05	20/07/2006
9984973	N05BA05	10/05/2007
9383747	N05BA05	04/05/2011
16977385	N05BA05	29/05/2007
15901180	N05BA05	26/02/2010
733642	N05BA05	13/04/2007
1162872	N05BA05	09/05/2006
8293370	N05BA05	04/08/2006
1302984	N05BA05	16/07/2010
6887463	N05BA05	07/10/2009
24730115	N05BA05	20/09/2010
6079907	N05BA05	24/07/2008
6757275	N05BA05	21/08/2003
23442780	N05BA05	19/05/2011
1547786	N05BA05	05/07/2010
3332699	N05BA05	24/01/2011
10001746	N05BA05	20/11/2002
3124502	N05BA05	07/03/2008
8983512	N05BA05	19/07/2007
6235632	N05BA05	23/04/2009
21152552	N05BA05	15/02/2007
7242799	N05BA05	03/03/2009
6746752	N05BA05	30/11/2009
17216721	N05BA05	15/05/2011
6749700	N05BA05	02/07/2007
2768779	N05BA05	23/06/2010
6080444	N05BA05	22/09/2009
8700313	N05BA05	15/02/2010
6746216	N05BA05	25/05/2011
1301839	N05BA05	08/11/2010
6746940	N05BA05	19/02/2009
8567614	N05BA05	26/04/2010
8277792	N05BA05	11/11/2008
18513368	N05BA05	28/07/2006
6745780	N05BA05	09/05/2011
8784331	N05BA05	08/02/2011
6170847	N05BA05	17/03/2003
6079800	N05BA05	16/01/2004
3117910	N05BA05	12/12/2002
16529657	N05BA05	06/06/2005
6887925	N05BA05	05/10/2010
1125167	N05BA05	28/12/2010
10004388	N05BA05	29/03/2005
9180128	N05BA05	17/01/2008
9295112	N05BA05	27/12/2010
1606515	N05BA05	15/07/2010
5865752	N05BA05	15/03/2011
6746935	N05BA05	29/10/2003
12690487	N05BA05	17/04/2007
21152676	N05BA05	05/10/2010
6747003	N05BA05	27/09/2006
8960580	N05BA05	09/07/2009
9374294	N05BA05	31/08/2010
6745282	N05BA05	18/01/2011
8785120	N05BA05	09/06/2009
12186603	N05BA05	07/06/2006
12760574	N05BA05	13/06/2008
20566164	N05BA05	23/03/2001
3333511	N05BA05	29/12/2003
21153412	N05BA05	11/03/2009
9215265	N05BA05	29/09/2008
20546197	N05BA05	23/09/2009
25047330	N05BA05	02/09/2010
3330955	N05BA05	11/05/2009
6748533	N05BA05	04/02/2009
24887993	N05BA05	19/04/2010
18774349	N05BA05	15/02/2010
9389876	N05BA05	22/06/2009
15402656	N05BA05	18/04/2011
3328694	N05BA05	20/08/2003
8292672	N05BA05	07/04/2008
6745473	N05BA05	27/12/2010
21805636	N05BA05	31/05/2011
24764733	N05BA05	24/09/2008
703443	N05BA05	18/03/2003
25042627	N05BA05	26/08/2009
25071236	N05BA05	08/02/2011
8569369	N05BA05	14/02/2008
5813370	N05BA05	13/08/2003
19228281	N05BA05	25/06/2009
24764394	N05BA05	31/05/2011
17172482	N05BA05	29/12/2005
9328308	N05BA05	26/04/2011
24930692	N05BA05	19/05/2011
1064683	N05BA05	07/02/2005
207629	N05BA05	11/12/2006
10605420	N05BA05	30/04/2009
11993925	N05BA05	13/10/2005
15929648	N05BA05	15/10/2010
9997453	N05BA05	18/04/2011
15517602	N05BA05	05/04/2011
21856470	N05BA05	07/04/2011
9388819	N05BA05	19/10/2006
21374644	N05BA05	15/01/2008
11660574	N05BA05	22/07/2009
12738650	N05BA05	24/08/2006
16100399	N05BA05	28/08/2009
20548457	N05BA05	31/05/2011
12695490	N05BA05	19/04/2011
24730586	N05BA05	23/03/2011
16557300	N05BA05	01/04/2009
9311223	N05BA05	21/11/2007
1336786	N05BA05	25/04/2011
5864959	N05BA05	10/05/2011
1515178	N05BA05	05/06/2006
1516973	N05BA05	04/05/2005
1418232	N05BA05	18/10/2001
13986519	N05BA05	19/09/2003
24730539	N05BA05	07/12/2006
12774422	N05BA05	27/05/2011
4700861	N05BA05	24/01/2006
524925	N05BA05	26/09/2005
10808671	N05BA05	04/08/2010
7776172	N05BA05	25/02/2008
18056114	N05BA05	15/05/2006
1351154	N05BA05	19/01/2004
1199978	N05BA05	21/06/2005
6603276	N05BA05	04/12/2009
1261356	N05BA05	17/11/2009
1208462	N05BA05	21/10/2003
1206466	N05BA05	09/02/2006
1850904	N05BA05	23/05/2011
24719453	N05BA05	21/08/2009
1850827	N05BA05	04/10/2004
1211343	N05BA05	28/11/2005
7801727	N05BA05	28/04/2011
7966101	N05BA05	11/03/2011
1276395	N05BA05	08/05/2011
1203945	N05BA05	12/12/2005
6602371	N05BA05	24/05/2011
15548901	N05BA05	27/04/2011
1665529	N05BA05	11/01/2005
1263670	N05BA05	18/12/2003
13984900	N05BA05	25/01/2006
24720128	N05BA05	11/09/2008
1546096	N05BA05	24/05/2005
1418084	N05BA05	23/04/2007
1417003	N05BA05	05/11/2003
1849882	N05BA05	13/01/2004
1850465	N05BA05	03/07/2006
1545758	N05BA05	14/07/2004
1203525	N05BA05	29/11/2004
7770097	N05BA05	18/11/2003
6212006	N05BA05	29/03/2006
1295645	N05BA05	20/09/2005
516414	N05BA05	30/05/2011
25361152	N05BA05	14/07/2009
6603802	N05BA05	08/08/2006
7970589	N05BA05	13/01/2009
24718581	N05BA05	31/05/2011
7848502	N05BA05	29/11/2010
8956630	N05BA05	07/12/2006
7971319	N05BA05	01/06/2011
5716926	N05BA05	20/05/2011
1204023	N05BA05	26/05/2005
540075	N05BA05	01/09/2008
12188674	N05BA05	28/06/2002
1426345	N05BA05	25/01/2002
1426251	N05BA05	21/10/2005
5991855	N05BA05	15/05/2011
6594016	N05BA05	16/10/2008
1850960	N05BA05	25/04/2011
1199974	N05BA05	05/03/2008
1353316	N05BA05	20/10/2004
648003	N05BA05	09/11/2010
1415854	N05BA05	03/05/2011
5992383	N05BA05	09/05/2011
14695835	N05BA05	16/03/2011
12615435	N05BA05	15/04/2008
1091704	N05BA05	18/02/2005
1261894	N05BA05	17/01/2011
1850819	N05BA05	06/05/2008
1849702	N05BA05	14/06/2007
1211624	N05BA05	10/11/2005
1850423	N05BA05	29/03/2007
7776373	N05BA05	28/09/2004
26138784	N05BA05	21/03/2011
1203166	N05BA05	15/05/2011
7706534	N05BA05	20/04/2011
1851260	N05BA05	21/03/2011
13985374	N05BA05	26/10/2006
6602862	N05BA05	15/12/2010
1351713	N05BA05	16/05/2011
4700277	N05BA05	30/03/2010
6212361	N05BA05	13/11/2009
8066338	N05BA05	04/01/2008
1205740	N05BA05	19/10/2006
404486	N05BA05	15/12/2009
1852196	N05BA05	04/04/2001
1850488	N05BA05	19/03/2007
1851549	N05BA05	30/03/2004
1566989	N05BA05	03/09/2002
1855843	N05BA05	06/11/2006
1851693	N05BA05	17/12/2009
135900	N05BA05	27/05/2011
5977340	N05BA05	02/02/2011
1638261	N05BA05	23/07/2008
1170644	N05BA05	26/08/2002
25888400	N05BA05	06/04/2011
1102247	N05BA05	23/04/2007
1109481	N05BA05	26/09/2007
195582	N05BA05	18/05/2011
1640859	N05BA05	19/09/2003
1108078	N05BA05	10/01/2006
25891366	N05BA05	16/05/2011
1131283	N05BA05	31/08/2009
1638220	N05BA05	26/01/2011
25751512	N05BA05	11/01/2011
1130822	N05BA05	17/05/2011
25886838	N05BA05	05/05/2011
1639675	N05BA05	14/12/2006
1109593	N05BA05	10/10/2002
1640729	N05BA05	25/06/2001
1134812	N05BA05	24/05/2011
1566887	N05BA05	01/10/2007
1558068	N05BA05	25/08/2008
25886823	N05BA05	10/05/2011
2133314	N05BA05	04/05/2009
2133429	N05BA05	22/01/2008
2216145	N05BA05	25/05/2011
2162696	N05BA05	27/05/2011
904929	N05BA05	10/11/2005
2110888	N05BA05	12/03/2003
1683248	N05BA05	22/07/2009
1682828	N05BA05	26/04/2011
2044424	N05BA05	04/08/2003
2058510	N05BA05	17/12/2010
1791892	N05BA05	19/02/2004
1764848	N05BA05	05/11/2004
1765747	N05BA05	13/11/2008
1683305	N05BA05	27/04/2007
1683307	N05BA05	08/04/2011
1753216	N05BA05	24/06/2008
874441	N05BA05	28/08/2008
1753828	N05BA05	09/11/2010
2777014	N05BA05	25/05/2011
3055265	N05BA05	29/10/2001
1755991	N05BA05	27/12/2007
860142	N05BA05	01/10/2003
7036786	N05BA05	12/11/2008
3053603	N05BA05	14/06/2001
3054324	N05BA05	11/04/2011
2760072	N05BA05	26/05/2011
3053366	N05BA05	28/10/2010
2812110	N05BA05	09/02/2009
2779188	N05BA05	20/12/2010
2764852	N05BA05	27/01/2011
3055444	N05BA05	09/07/2009
2520047	N05BA05	17/03/2011
2525213	N05BA05	21/05/2011
2524518	N05BA05	17/11/2009
2519961	N05BA05	25/03/2010
2525077	N05BA05	16/02/2005
2754970	N05BA05	02/06/2009
26461782	N05BA05	13/05/2011
28055991	N05BA05	08/02/2005
26425709	N05BA05	11/11/2010
26424992	N05BA05	14/02/2006
28063531	N05BA05	13/05/2011
28053976	N05BA05	21/02/2011
26564907	N05BA05	17/05/2011
17747156	N05BA05	31/05/2001
20673831	N05BA05	03/02/2010
20452613	N05BA05	20/01/2011
24847569	N05BA05	15/01/2009
26441491	N05BA05	31/01/2011
26425372	N05BA05	31/08/2005
17325261	N05BA05	12/01/2006
26462364	N05BA05	26/02/2009
28042198	N05BA05	20/04/2011
26425992	N05BA05	24/07/2001
20147574	N05BA05	13/05/2009
26458743	N05BA05	08/04/2010
18472135	N05BA05	09/09/2003
26235974	N05BA05	23/12/2009
26244453	N05BA05	18/05/2011
7492715	N05BA05	30/03/2010
7135727	N05BA05	05/05/2011
8117960	N05BA05	22/05/2007
304879	N05BA05	07/06/2004
304932	N05BA05	05/11/2001
1912188	N05BA05	03/10/2003
423010	N05BA05	02/08/2002
1910929	N05BA05	02/07/2004
1911118	N05BA05	16/05/2005
422491	N05BA05	29/07/2002
1021651	N05BA05	19/11/2010
6577042	N05BA05	14/12/2006
12994706	N05BA05	27/07/2005
28081504	N05BA05	09/05/2008
26426004	N05BA05	12/03/2004
28084213	N05BA05	05/04/2011
11524756	N05BA05	12/09/2008
2525880	N05BA05	04/02/2005
28092534	N05BA05	08/08/2003
18472302	N05BA05	18/05/2011
28083211	N05BA05	09/10/2002
28084179	N05BA05	02/02/2011
2108998	N05BA05	14/04/2011
20147240	N05BA05	12/05/2009
28051376	N05BA05	04/11/2004
186094	N05BA05	19/09/2008
2053990	N05BA05	26/07/2002
271966	N05BA05	22/11/2010
421846	N05BA05	23/01/2001
26410164	N05BA05	12/04/2010
28064907	N05BA05	01/04/2003
427580	N05BA05	31/03/1999
300557	N05BA05	04/04/2008
436079	N05BA05	11/06/2010
420934	N05BA05	01/07/2009
28047186	N05BA05	29/12/2005
28072320	N05BA05	20/07/2005
28066682	N05BA05	27/06/2008
28090048	N05BA05	18/09/2009
28074969	N05BA05	27/04/2011
28071262	N05BA05	07/12/2004
28056661	N05BA05	19/08/2004
28049523	N05BA05	09/08/2010
25742932	N05BA05	02/05/2005
24665617	N05BA05	23/12/2008
25743561	N05BA05	17/05/2005
24661681	N05BA05	16/04/2008
25742981	N05BA05	05/08/2005
25743593	N05BA05	30/05/2008
25539451	N05BA05	17/11/2008
25739910	N05BA05	08/02/2007
25746656	N05BA05	17/09/2004
1911410	N05BA05	10/12/2002
1372836	N05BA05	10/09/2008
1903682	N05BA05	17/07/2007
1360745	N05BA05	23/01/2004
421963	N05BA05	01/10/2001
1905306	N05BA05	11/02/2004
1028230	N05BA05	24/06/2008
1372207	N05BA05	09/09/2010
1361706	N05BA05	05/12/2000
1360903	N05BA05	02/06/1999
1366853	N05BA05	19/09/2007
1366896	N05BA05	04/05/2000
1366141	N05BA05	11/10/2001
24657871	N05BA05	11/05/2007
16841294	N05BA05	18/08/2006
17831080	N05BA05	23/11/2006
18193999	N05BA05	04/10/2004
18195356	N05BA05	13/08/2002
18187564	N05BA05	27/01/2011
18189831	N05BA05	01/06/2001
18187594	N05BA05	14/09/2005
18197591	N05BA05	08/08/2010
16812882	N05BA05	24/05/2011
22757992	N05BA05	13/07/2005
21063993	N05BA05	29/06/2005
18193951	N05BA05	19/09/2003
2957748	N05BA05	10/07/2006
1369305	N05BA05	12/11/2010
8426968	N05BA05	10/11/2008
1365137	N05BA05	18/05/2010
1912671	N05BA05	23/08/2009
1899552	N05BA05	25/05/2011
2963493	N05BA05	01/04/2009
1910693	N05BA05	07/12/2005
1363174	N05BA05	23/01/2006
26642443	N05BA05	14/05/2010
26703633	N05BA05	28/03/2006
26701530	N05BA05	23/05/2011
26628537	N05BA05	14/03/2011
26700714	N05BA05	14/01/2009
26802233	N05BA05	18/11/2009
26794658	N05BA05	18/04/2011
26626574	N05BA05	18/05/2011
16567752	N05BA05	27/07/2005
2988700	N05BA05	19/05/2011
17128641	N05BA05	08/03/2011
12974196	N05BA05	26/05/2003
22923362	N05BA05	23/07/2008
12994047	N05BA05	12/01/2007
14309295	N05BA05	06/10/2008
13788822	N05BA05	26/09/2006
12950966	N05BA05	23/09/2010
26717944	N05BA05	31/12/2008
26621503	N05BA05	22/05/2011
15823494	N05BA05	05/10/2004
26707413	N05BA05	24/06/2010
26701314	N05BA05	25/02/2011
26702810	N05BA05	12/07/2004
26701326	N05BA05	27/04/2011
26643138	N05BA05	26/06/2008
22882021	N05BA05	01/01/2008
22882001	N05BA05	20/04/2007
21064114	N05BA05	25/11/2004
24579550	N05BA05	04/03/2009
26894948	N05BA05	20/04/2007
26945123	N05BA05	15/09/2008
26890259	N05BA05	30/01/2008
26916065	N05BA05	19/05/2011
26936433	N05BA05	24/07/2002
26946963	N05BA05	07/09/2004
26938632	N05BA05	11/01/2011
26720306	N05BA05	05/04/2011
26714154	N05BA05	18/06/2007
26877945	N05BA05	25/02/2010
26776105	N05BA05	07/04/2005
26710859	N05BA05	03/05/2011
26713577	N05BA05	12/12/2002
26868669	N05BA05	11/04/2011
26716873	N05BA05	24/03/2011
26848752	N05BA05	30/08/2010
26887343	N05BA05	13/03/2009
26877329	N05BA05	13/09/2006
26854943	N05BA05	26/05/2004
26848628	N05BA05	30/01/2006
26877066	N05BA05	13/05/2010
26812125	N05BA05	18/11/2008
26770174	N05BA05	20/04/2005
26714270	N05BA05	17/01/2006
26716935	N05BA05	04/07/2006
26791890	N05BA05	04/02/2008
26851485	N05BA05	29/05/2011
26715350	N05BA05	31/01/2011
26716376	N05BA05	02/05/2007
26815899	N05BA05	16/08/2005
26717132	N05BA05	17/08/2006
26995682	N05BA05	19/06/2009
27057310	N05BA05	14/06/2005
27034735	N05BA05	07/09/2006
27031524	N05BA05	19/05/2011
26939942	N05BA05	03/03/2010
26998098	N05BA05	29/05/2006
27066870	N05BA05	04/10/2007
27066915	N05BA05	29/07/2008
27065374	N05BA05	13/10/2010
26972749	N05BA05	26/01/2011
26976896	N05BA05	12/09/2006
27133198	N05BA05	01/06/2011
27106289	N05BA05	22/04/2008
27151224	N05BA05	03/06/2004
27151243	N05BA05	22/07/2002
27114769	N05BA05	14/03/2006
27084486	N05BA05	25/01/2006
27106791	N05BA05	21/10/2005
27133462	N05BA05	01/03/2006
27114640	N05BA05	16/11/2006
27151096	N05BA05	29/01/2009
27100098	N05BA05	20/10/2010
27105050	N05BA05	23/08/2010
27115263	N05BA05	19/01/2010
27104284	N05BA05	12/04/2011
27137973	N05BA05	03/05/2011
27064483	N05BA05	30/01/2009
27126993	N05BA05	17/06/2010
27043480	N05BA05	26/12/2005
27056829	N05BA05	26/09/2007
27061753	N05BA05	18/04/2011
27104742	N05BA05	24/03/2010
27065487	N05BA05	03/11/2005
27035138	N05BA05	02/12/2003
27042189	N05BA05	30/04/2003
26994454	N05BA05	27/02/2008
26994966	N05BA05	29/10/2010
26996597	N05BA05	30/03/2011
26996603	N05BA05	28/01/2011
26991921	N05BA05	23/03/2011
27026228	N05BA05	24/02/2010
27390255	N05BA05	19/04/2011
27152044	N05BA05	23/10/2003
27362443	N05BA05	09/12/2005
27389472	N05BA05	07/10/2007
27217926	N05BA05	05/05/2011
27369270	N05BA05	21/05/2009
27388635	N05BA05	03/01/2011
27130080	N05BA05	13/10/2004
27383432	N05BA05	04/03/2008
27315067	N05BA05	01/03/2010
27211077	N05BA05	22/05/2010
27249436	N05BA05	22/05/2011
27246351	N05BA05	18/08/2008
27254152	N05BA05	04/08/2006
27314737	N05BA05	22/05/2011
27315277	N05BA05	08/04/2009
27252743	N05BA05	07/01/2008
27301727	N05BA05	09/05/2011
27369903	N05BA05	30/12/2009
27358040	N05BA05	22/04/2011
27324365	N05BA05	09/05/2000
27364443	N05BA05	28/04/2004
27348533	N05BA05	10/10/2007
27320470	N05BA05	11/03/2011
27352654	N05BA05	01/06/2011
27379107	N05BA05	16/02/2009
26989957	N05BA05	07/07/2010
27252267	N05BA05	30/09/2005
26967220	N05BA05	08/09/2009
27251820	N05BA05	01/10/2007
27199347	N05BA05	19/02/2002
27230962	N05BA05	02/12/2005
27229767	N05BA05	18/04/2001
27389179	N05BA05	10/04/2007
26975874	N05BA05	11/11/2004
26990836	N05BA05	02/08/2010
27248861	N05BA05	18/01/2001
27241952	N05BA05	11/08/2004
26989612	N05BA05	17/02/2009
27632310	N05BA05	04/01/2007
27607371	N05BA05	29/09/2010
27593063	N05BA05	16/03/2011
27600652	N05BA05	14/05/2011
27642131	N05BA05	16/02/2009
27643227	N05BA05	04/09/2007
27592604	N05BA05	29/12/2005
27596955	N05BA05	26/01/2010
27607290	N05BA05	10/08/2009
27613638	N05BA05	23/05/2011
27648485	N05BA05	05/12/2001
27623983	N05BA05	01/10/2009
27707330	N05BA05	09/09/2008
27649999	N05BA05	26/05/2008
27633300	N05BA05	03/03/2010
27476407	N05BA05	09/03/2007
27481175	N05BA05	29/03/2011
27477775	N05BA05	10/02/2006
27647339	N05BA05	14/04/2011
27414681	N05BA05	17/09/2009
27471376	N05BA05	27/05/2010
27641154	N05BA05	19/07/2006
27426393	N05BA05	11/04/2003
27460549	N05BA05	19/05/2011
27639481	N05BA05	03/01/2005
27647542	N05BA05	26/05/2011
27472715	N05BA05	26/05/2011
27480865	N05BA05	01/06/2011
27577364	N05BA05	21/06/2007
27708161	N05BA05	18/05/2006
27756324	N05BA05	14/11/2008
27765512	N05BA05	24/10/2005
27761731	N05BA05	30/10/2006
27614533	N05BA05	24/08/2007
27564600	N05BA05	28/04/2011
27743940	N05BA05	22/10/2009
27565661	N05BA05	13/02/2004
27563182	N05BA05	25/06/2010
27614461	N05BA05	08/07/2009
27544033	N05BA05	04/04/2011
27631475	N05BA05	26/03/2004
27567705	N05BA05	15/04/2010
27565501	N05BA05	03/04/2008
27147794	N05BA05	10/04/2010
27230589	N05BA05	29/08/2005
27144885	N05BA05	17/10/2000
27247057	N05BA05	17/01/2005
27163993	N05BA05	20/07/2009
27138370	N05BA05	17/01/2007
27132827	N05BA05	16/10/2008
27066420	N05BA05	01/06/2011
26975914	N05BA05	07/03/2007
12974157	N05BA05	24/05/2011
27301222	N05BA05	24/05/2007
27683287	N05BA05	05/05/2008
27530374	N05BA05	31/05/2011
27539673	N05BA05	10/11/2006
27460023	N05BA05	26/05/2011
27563283	N05BA05	26/04/2005
27532981	N05BA05	22/05/2011
27708419	N05BA05	21/07/2010
27477114	N05BA05	16/09/2004
27679944	N05BA05	13/08/2002
27682597	N05BA05	30/05/2011
27771990	N05BA05	20/05/2005
1359153	N05BA05	25/02/2011
27780388	N05BA05	19/05/2010
27780623	N05BA05	31/05/2011
27810748	N05BA05	04/10/2005
26980682	N05BA05	28/04/2005
27674082	N05BA05	17/07/2007
26825187	N05BA05	29/05/2006
27444018	N05BA05	07/09/2007
26760139	N05BA05	28/04/2011
27508678	N05BA05	19/08/2004
27512339	N05BA05	13/04/2010
27528685	N05BA05	29/06/2007
27459780	N05BA05	04/10/2010
27614274	N05BA05	07/04/2005
27614281	N05BA05	01/02/2008
27539859	N05BA05	08/08/2005
27354432	N05BA05	20/05/2005
27083023	N05BA05	07/05/2009
25742764	N05BA05	03/05/2005
2959222	N05BA05	14/02/2003
26971047	N05BA05	12/10/2010
27380059	N05BA05	21/10/2008
27809204	N05BA05	30/03/2004
27783945	N05BA05	31/05/2004
27212642	N05BA05	15/05/2006
27707583	N05BA05	25/05/2005
27662207	N05BA05	03/05/2011
27676239	N05BA05	04/11/2004
27720814	N05BA05	14/12/2004
27765080	N05BA05	19/05/2011
27067043	N05BA05	14/07/2009
25641634	N05BA05	05/03/2007
27325643	N05BA05	01/10/2010
620759	N05BA05	15/06/2005
27474579	N05BA05	20/08/2007
423194	N05BA05	02/10/2000
27520212	N05BA05	29/05/2011
1361374	N05BA05	18/05/2011
27614092	N05BA05	29/08/2006
26831340	N05BA05	27/10/2006
27780895	N05BA05	22/10/2003
27794211	N05BA05	05/03/2009
27786185	N05BA05	19/10/2009
27443555	N05BA05	29/12/2006
27553064	N05BA05	30/05/2011
27782658	N05BA05	23/01/2004
27804379	N05BA05	08/05/2003
33032536	N05BA05	09/05/2011
33035460	N05BA05	13/04/2011
33129697	N05BA05	09/05/2011
33051475	N05BA05	13/02/2009
33011602	N05BA05	16/10/2003
33111340	N05BA05	03/10/2003
33056893	N05BA05	27/10/2006
33003086	N05BA05	27/06/2007
33070438	N05BA05	03/03/2010
33069498	N05BA05	01/07/2010
33026966	N05BA05	06/11/2006
33016797	N05BA05	02/01/2008
33085830	N05BA05	17/01/2011
33045759	N05BA05	13/10/2004
33084411	N05BA05	23/06/2008
33103577	N05BA05	07/10/2009
33066018	N05BA05	16/05/2007
33018999	N05BA05	25/11/2006
33106497	N05BA05	23/07/2003
33095386	N05BA05	01/06/2011
33047788	N05BA05	04/04/2011
33052953	N05BA05	23/05/2000
33056194	N05BA05	02/06/2009
2963608	N05BA05	29/10/2010
27811936	N05BA05	02/03/2004
27796872	N05BA05	28/05/2011
27796540	N05BA05	28/04/2009
418915	N05BA05	13/01/2006
33022598	N05BA05	25/03/2011
33042521	N05BA05	18/04/2008
27812443	N05BA05	22/04/2010
27800241	N05BA05	21/03/2006
2958097	N05BA05	01/06/2011
428238	N05BA05	11/11/2010
27812522	N05BA05	05/03/2007
23408153	N05BA05	08/02/2011
28018387	N05BA05	21/02/2011
23343121	N05BA05	14/07/2010
33219101	N05BA05	13/01/2009
16712568	N05BA05	14/12/2010
33238483	N05BA05	29/10/2009
33304554	N05BA05	30/09/2009
16614167	N05BA05	29/10/2010
24462672	N05BA05	10/02/2009
33231539	N05BA05	12/06/2009
16712669	N05BA05	09/06/2005
33234595	N05BA05	07/01/2004
20982153	N05BA05	27/04/2004
33053391	N05BA05	12/03/2002
33091178	N05BA05	31/05/2007
33044203	N05BA05	15/11/2002
33028840	N05BA05	07/07/2010
33000877	N05BA05	19/09/2003
33034545	N05BA05	20/10/2005
33090788	N05BA05	26/05/2011
33025768	N05BA05	24/05/2011
33012104	N05BA05	18/04/2007
33085777	N05BA05	22/06/2001
33052051	N05BA05	03/11/2010
33000591	N05BA05	30/07/2002
33077704	N05BA05	21/05/2007
33087055	N05BA05	30/12/2010
33060722	N05BA05	05/04/2011
33066983	N05BA05	11/05/2004
33066033	N05BA05	31/07/2009
33027780	N05BA05	12/04/2005
33093762	N05BA05	28/05/2003
27856629	N05BA05	06/03/2009
16705530	N05BA05	18/07/2000
16774206	N05BA05	29/11/2010
16705563	N05BA05	09/05/2011
27983775	N05BA05	31/08/2009
16135123	N05BA05	21/09/2010
16712490	N05BA05	08/06/2006
21114666	N05BA05	21/06/2010
21117574	N05BA05	20/07/2010
14187910	N05BA05	26/05/2000
33236253	N05BA05	24/11/2010
18762952	N05BA05	07/04/2006
33239141	N05BA05	05/04/2005
23381149	N05BA05	05/04/2011
23408894	N05BA05	28/05/2009
18768957	N05BA05	22/01/2002
33233293	N05BA05	24/01/2005
16636482	N05BA05	06/06/2006
33244694	N05BA05	26/09/2002
33233059	N05BA05	12/05/2005
16181675	N05BA05	04/12/2007
23316381	N05BA05	23/12/2004
14188303	N05BA05	30/07/2008
28016533	N05BA05	15/03/2010
18768005	N05BA05	17/12/2008
16596474	N05BA05	26/06/2002
18769506	N05BA05	12/06/2004
16645941	N05BA05	22/09/2009
16181529	N05BA05	19/11/2010
18764526	N05BA05	13/04/2011
16609624	N05BA05	23/08/2004
33293602	N05BA05	29/09/2009
18762259	N05BA05	03/01/2007
23342808	N05BA05	19/01/2005
23408488	N05BA05	12/04/2011
16639019	N05BA05	15/11/2010
28033454	N05BA05	08/01/2004
16138565	N05BA05	28/10/2005
33203750	N05BA05	15/01/2009
16138365	N05BA05	05/06/2006
16596222	N05BA05	13/02/2004
23344028	N05BA05	12/06/2007
16183158	N05BA05	08/04/2011
18768577	N05BA05	11/12/2000
14188199	N05BA05	15/04/2003
33225918	N05BA05	03/11/2010
33244163	N05BA05	06/08/2010
27848097	N05BA05	19/01/2009
16636488	N05BA05	25/07/2006
27915318	N05BA05	31/05/2011
33235104	N05BA05	26/05/2011
16610132	N05BA05	29/07/2009
20982073	N05BA05	07/04/2006
16639669	N05BA05	15/10/2003
16600704	N05BA05	05/01/2010
16139405	N05BA05	01/04/2011
28022840	N05BA05	29/07/2009
16165721	N05BA05	27/10/2005
23366991	N05BA05	25/05/2011
23336381	N05BA05	19/07/2004
16773452	N05BA05	13/07/2009
16599304	N05BA05	11/05/2011
16186342	N05BA05	29/11/2004
16709150	N05BA05	29/05/2011
16708594	N05BA05	17/08/2009
23401564	N05BA05	28/11/2005
23368758	N05BA05	17/05/2011
23346518	N05BA05	23/12/2004
23346675	N05BA05	19/01/2005
21102997	N05BA05	01/02/2008
16124521	N05BA05	12/05/2011
16605999	N05BA05	27/05/2011
23364455	N05BA05	11/02/2011
23336596	N05BA05	27/10/2010
23371267	N05BA05	30/11/2000
23315481	N05BA05	04/09/2009
33245266	N05BA05	10/03/2005
16631973	N05BA05	07/05/2004
33254309	N05BA05	04/05/2011
33246409	N05BA05	26/03/2003
20982566	N05BA05	18/03/2005
23362352	N05BA05	26/03/2007
33233849	N05BA05	09/10/2003
16631616	N05BA05	01/10/2007
23368645	N05BA05	25/05/2011
16172349	N05BA05	05/05/2009
23402345	N05BA05	02/02/2011
23410738	N05BA05	01/12/2010
33238515	N05BA05	29/09/2008
16607104	N05BA05	07/11/2008
33235413	N05BA05	13/01/2011
16178359	N05BA05	16/05/2011
23414018	N05BA05	26/05/2004
16648845	N05BA05	16/05/2006
21107862	N05BA05	31/01/2008
16623658	N05BA05	30/04/2010
23355216	N05BA05	06/09/2005
20981566	N05BA05	26/08/2008
21109126	N05BA05	20/12/2010
16640187	N05BA05	07/10/2008
18769218	N05BA05	17/12/2004
20982124	N05BA05	19/04/2011
18770491	N05BA05	13/03/2007
18757638	N05BA05	25/02/2009
33225410	N05BA05	26/07/2010
21117653	N05BA05	03/05/2011
16607817	N05BA05	06/09/2007
16712546	N05BA05	26/01/2009
33246372	N05BA05	24/05/2011
16653597	N05BA05	16/04/2009
18757709	N05BA05	14/10/2009
16705838	N05BA05	22/10/2004
31181468	N05BA05	23/04/2001
31996547	N05BA05	29/12/2008
32181933	N05BA05	12/03/2004
31434046	N05BA05	11/06/2007
31597717	N05BA05	27/08/2008
31540727	N05BA05	15/05/2009
21102466	N05BA05	22/11/2010
16124564	N05BA05	20/05/2011
33231972	N05BA05	28/04/2011
33220514	N05BA05	13/03/2009
16599483	N05BA05	16/05/2006
33245848	N05BA05	17/02/2009
16187323	N05BA05	24/06/2004
23310316	N05BA05	31/05/2008
16712464	N05BA05	15/06/2006
27984029	N05BA05	14/09/2010
23410160	N05BA05	07/04/2011
16712509	N05BA05	15/06/2010
33200276	N05BA05	29/07/2004
16602630	N05BA05	20/05/2011
23315594	N05BA05	16/03/2010
16136518	N05BA05	10/03/2009
27946149	N05BA05	28/10/2009
16712863	N05BA05	13/05/2005
33290165	N05BA05	14/04/2011
23406293	N05BA05	08/06/2006
27895998	N05BA05	24/11/2005
33244556	N05BA05	20/11/2006
16598501	N05BA05	19/05/2011
16127748	N05BA05	31/08/2004
16133755	N05BA05	09/02/2007
23367077	N05BA05	24/05/2011
23350638	N05BA05	19/06/2006
23401236	N05BA05	25/08/2005
16641148	N05BA05	28/09/2009
23347331	N05BA05	17/05/2011
23354017	N05BA05	05/06/2009
16712077	N05BA05	16/03/2010
16181240	N05BA05	02/05/2006
23343500	N05BA05	11/12/2009
16708802	N05BA05	25/05/2011
31119558	N05BA05	18/02/2010
31157971	N05BA05	09/08/2006
31568357	N05BA05	12/12/2005
31812813	N05BA05	06/04/2010
31162165	N05BA05	18/06/2007
31062826	N05BA05	07/07/2003
31510513	N05BA05	02/09/2009
31284771	N05BA05	19/08/2008
32144827	N05BA05	01/12/2004
31689978	N05BA05	30/06/2003
31675939	N05BA05	21/10/2009
31614831	N05BA05	28/05/2002
32250001	N05BA05	02/07/2008
31222630	N05BA05	05/11/2008
31480737	N05BA05	10/12/2009
31547137	N05BA05	10/08/2006
31514711	N05BA05	07/07/2010
31073820	N05BA05	15/07/2003
31760303	N05BA05	23/11/2004
31573567	N05BA05	06/03/2007
31235313	N05BA05	23/03/2007
31217335	N05BA05	06/07/2007
31854978	N05BA05	07/07/2004
31557290	N05BA05	25/09/2001
31538378	N05BA05	02/07/2008
31753023	N05BA05	06/11/2007
32262911	N05BA05	03/05/2006
31428096	N05BA05	20/02/2009
31238053	N05BA05	30/08/2010
31510794	N05BA05	10/04/2001
31041033	N05BA05	07/07/2006
31360500	N05BA05	30/05/2008
31067713	N05BA05	10/02/2011
31892586	N05BA05	14/06/2010
32000763	N05BA05	30/11/2006
32226719	N05BA05	31/03/2010
31119347	N05BA05	14/01/2005
31478432	N05BA05	06/10/2010
31100891	N05BA05	17/05/2010
31979189	N05BA05	13/05/2008
31959841	N05BA05	30/03/2004
31782644	N05BA05	13/02/2006
31284999	N05BA05	15/10/2008
31596585	N05BA05	18/01/2007
31400525	N05BA05	04/11/2008
31708958	N05BA05	30/04/2010
31462347	N05BA05	01/02/2005
32225105	N05BA05	28/09/2007
32132737	N05BA05	25/12/2007
31744955	N05BA05	22/04/2005
31315923	N05BA05	25/10/2010
31336940	N05BA05	17/12/2007
31801114	N05BA05	22/02/2008
32117832	N05BA05	11/04/2005
31567764	N05BA05	03/06/2004
31835091	N05BA05	14/03/2011
32087272	N05BA05	20/12/2010
31566931	N05BA05	06/04/2011
31710696	N05BA05	09/02/2007
32111291	N05BA05	14/11/2003
31559608	N05BA05	11/10/2001
31482956	N05BA05	12/07/2006
31645014	N05BA05	07/02/2008
31421332	N05BA05	09/10/2007
31267473	N05BA05	20/12/2006
31444611	N05BA05	10/09/2007
31428879	N05BA05	04/11/2008
32246359	N05BA05	15/06/2006
31199652	N05BA05	27/09/2007
31269711	N05BA05	20/11/2006
31447463	N05BA05	05/12/2006
31217153	N05BA05	12/03/2002
31963757	N05BA05	31/10/2003
31598897	N05BA05	17/06/2008
32202237	N05BA05	11/07/2007
31286555	N05BA05	29/10/2007
32056494	N05BA05	28/02/2011
32146428	N05BA05	09/01/2009
31265246	N05BA05	12/12/2006
31711021	N05BA05	10/11/2005
31066431	N05BA05	02/02/2011
32053946	N05BA05	24/10/2007
31812100	N05BA05	07/05/2009
31429601	N05BA05	07/09/2007
31269714	N05BA05	06/08/2004
31294985	N05BA05	19/05/2006
32160191	N05BA05	25/02/2004
31335812	N05BA05	15/07/2004
32085028	N05BA05	05/04/2006
31398449	N05BA05	06/04/2011
32144525	N05BA05	18/07/2007
32057948	N05BA05	06/09/2004
31518942	N05BA05	10/01/2006
31591322	N05BA05	21/09/2007
31566139	N05BA05	20/07/2009
31352566	N05BA05	02/12/2009
32102032	N05BA05	24/07/2008
31203374	N05BA05	11/02/2010
31051184	N05BA05	13/02/2006
31187591	N05BA05	05/12/2005
31188550	N05BA05	17/02/2011
32153313	N05BA05	10/01/2006
31633993	N05BA05	08/07/2009
31533378	N05BA05	02/11/2005
31142772	N05BA05	27/03/2006
32254510	N05BA05	01/03/2011
32104853	N05BA05	02/08/2010
31840622	N05BA05	17/09/2008
31341715	N05BA05	04/12/2007
32062602	N05BA05	17/05/2006
32233306	N05BA05	13/01/2006
31088621	N05BA05	13/05/2009
31184927	N05BA05	07/08/2006
31890843	N05BA05	26/09/2006
31785640	N05BA05	01/12/2006
32027294	N05BA05	11/09/2008
31266142	N05BA05	31/07/2008
32180811	N05BA05	10/10/2007
31935000	N05BA05	02/12/2010
31964024	N05BA05	12/03/2007
32281367	N05BA05	08/10/2010
31989306	N05BA05	04/01/2010
32221355	N05BA05	04/10/2010
32185161	N05BA05	11/04/2011
31087709	N05BA05	27/01/2005
32258145	N05BA05	22/04/2005
31480290	N05BA05	26/11/2009
32159590	N05BA05	17/12/2008
32238575	N05BA05	09/03/2011
31186578	N05BA05	06/02/2006
32174286	N05BA05	18/03/2005
31925603	N05BA05	10/11/2009
31319783	N05BA05	25/03/2002
32173766	N05BA05	14/10/2004
32244255	N05BA05	22/11/2002
31651296	N05BA05	08/01/2009
31911477	N05BA05	18/05/2010
31443949	N05BA05	22/02/2006
32083468	N05BA05	14/12/2007
31495525	N05BA05	07/04/2011
31696885	N05BA05	16/01/2003
31269212	N05BA05	03/11/2006
31989637	N05BA05	09/03/2011
31259376	N05BA05	26/11/2010
31268040	N05BA05	18/02/2009
31048661	N05BA05	18/12/2009
32142087	N05BA05	10/03/2005
32261215	N05BA05	09/07/2004
32196475	N05BA05	01/08/2000
31237787	N05BA05	11/12/2003
31077344	N05BA05	09/07/2007
32141296	N05BA05	10/10/2003
31795086	N05BA05	02/07/2008
31687550	N05BA05	22/02/2011
31927028	N05BA05	08/03/2010
31795951	N05BA05	15/01/2008
31626899	N05BA05	04/09/2006
31319812	N05BA05	02/06/2005
32204377	N05BA05	28/07/2004
31523575	N05BA05	30/01/2006
32269533	N05BA05	30/03/2009
31917486	N05BA05	27/12/2006
32227680	N05BA05	17/12/2008
31766763	N05BA05	29/02/2008
31352150	N05BA05	23/07/2007
31671119	N05BA05	07/10/2009
31678786	N05BA05	09/02/2011
31137913	N05BA05	17/05/2006
31600321	N05BA05	27/05/2008
32281617	N05BA05	23/11/2009
31893456	N05BA05	02/12/2010
31388004	N05BA05	13/07/2010
32094579	N05BA05	07/12/2009
31514527	N05BA05	17/02/2006
31740905	N05BA05	20/07/2010
31523044	N05BA05	21/10/2008
32020101	N05BA05	11/07/2008
32010721	N05BA05	13/04/2009
31471030	N05BA05	25/11/2010
31992539	N05BA05	10/11/2009
32179642	N05BA05	06/06/2003
31144301	N05BA05	09/12/2008
31802855	N05BA05	06/05/2010
31961565	N05BA05	07/03/2005
31926149	N05BA05	10/01/2007
31289840	N05BA05	23/11/2010
31094327	N05BA05	23/10/2002
31958704	N05BA05	11/04/2011
32200321	N05BA05	09/03/2011
31417608	N05BA05	17/06/2010
31786114	N05BA05	06/04/2011
31462700	N05BA05	15/03/2004
31068246	N05BA05	16/11/2009
31672694	N05BA05	17/03/2010
32082014	N05BA05	11/01/2006
31082208	N05BA05	27/11/2007
31746041	N05BA05	23/01/2009
31406581	N05BA05	29/09/2005
32250490	N05BA05	28/11/2009
31699051	N05BA05	19/10/2006
31407464	N05BA05	07/02/2008
31508779	N05BA05	20/07/2004
31855302	N05BA05	16/01/2004
31638449	N05BA05	31/12/2010
32110952	N05BA05	22/11/2006
31596789	N05BA05	19/04/2006
31542939	N05BA05	24/10/2008
31713979	N05BA05	03/11/2005
32090511	N05BA05	24/04/2009
31302323	N05BA05	02/07/2007
31605887	N05BA05	16/09/2010
32053538	N05BA05	28/04/2003
31651093	N05BA05	22/09/2008
32005126	N05BA05	31/07/2003
31905242	N05BA05	06/03/2006
31767601	N05BA05	10/05/2005
31901788	N05BA05	10/04/2007
32119166	N05BA05	01/07/2009
31429518	N05BA05	04/04/2008
32277020	N05BA05	13/04/2005
31991627	N05BA05	27/02/2001
31098047	N05BA05	12/04/2011
32278635	N05BA05	10/05/2007
32246429	N05BA05	28/08/2001
31057692	N05BA05	12/09/2003
31602472	N05BA05	05/11/2007
32117961	N05BA05	09/11/2001
31058197	N05BA05	02/09/2003
31075396	N05BA05	30/12/2010
32187156	N05BA05	13/12/2007
31981387	N05BA05	18/12/2009
31519781	N05BA05	17/12/2004
31912103	N05BA05	22/01/2008
31670721	N05BA05	30/06/2006
32223263	N05BA05	07/02/2005
32104396	N05BA05	24/11/2006
31161794	N05BA05	29/10/2004
32120399	N05BA05	07/04/2011
31819996	N05BA05	23/01/2007
31543732	N05BA05	24/06/2004
31926632	N05BA05	15/06/2007
32133761	N05BA05	05/12/2003
31767218	N05BA05	14/05/2008
31954330	N05BA05	11/12/2007
31062629	N05BA05	11/12/2006
31565378	N05BA05	24/11/2010
31583648	N05BA05	12/09/2003
31480663	N05BA05	19/07/2004
31641600	N05BA05	30/10/2006
32015901	N05BA05	29/12/2003
32228473	N05BA05	16/05/2011
31947465	N05BA05	18/08/2006
31959483	N05BA05	04/08/2008
31622937	N05BA05	09/12/2003
31559202	N05BA05	29/05/2003
32195377	N05BA05	20/02/2003
31449811	N05BA05	03/04/2008
31092295	N05BA05	12/09/2006
32092391	N05BA05	13/06/2007
31907451	N05BA05	20/02/2009
32231244	N05BA05	01/06/2006
32264935	N05BA05	19/12/2008
31612837	N05BA05	13/07/2010
32192035	N05BA05	11/11/2004
32047705	N05BA05	12/02/2009
32149750	N05BA05	27/10/2008
31184461	N05BA05	08/06/2004
32058821	N05BA05	20/09/2007
31270079	N05BA05	17/03/2011
31772722	N05BA05	16/12/2005
32031559	N05BA05	26/07/2005
31496367	N05BA05	09/06/2005
31923362	N05BA05	05/04/2002
31245180	N05BA05	20/11/2009
31348815	N05BA05	29/09/2009
31261675	N05BA05	22/12/2006
31062515	N05BA05	01/07/2009
31835678	N05BA05	28/10/2005
31228032	N05BA05	07/01/2011
32118250	N05BA05	17/05/2004
32163120	N05BA05	23/02/2011
31683931	N05BA05	17/02/2006
31524569	N05BA05	15/12/2009
32061001	N05BA05	17/07/2009
31323678	N05BA05	19/08/2010
31703185	N05BA05	06/03/2000
32195611	N05BA05	08/06/2005
31336713	N05BA05	26/01/2004
32148259	N05BA05	01/06/2006
31665416	N05BA05	19/02/2007
31304698	N05BA05	19/02/2010
32250952	N05BA05	20/10/2008
31075890	N05BA05	12/01/2007
32118813	N05BA05	21/12/2004
31941100	N05BA05	29/12/2008
31918157	N05BA05	06/04/2009
31804296	N05BA05	13/02/2009
31939056	N05BA05	08/01/2007
31476789	N05BA05	05/05/2004
31816085	N05BA05	15/02/2005
31155311	N05BA05	21/10/2008
31393751	N05BA05	25/09/2007
31230333	N05BA05	29/03/2006
31088831	N05BA05	14/08/2006
31675537	N05BA05	29/06/2006
31659751	N05BA05	24/10/2000
31074922	N05BA05	04/03/2011
31687887	N05BA05	08/11/2006
31328449	N05BA05	10/12/2008
31190425	N05BA05	16/07/2008
32011907	N05BA05	20/08/2004
31129489	N05BA05	01/02/2011
31239879	N05BA05	25/01/2008
32281526	N05BA05	30/12/2010
31221792	N05BA05	24/01/2006
32225962	N05BA05	11/10/2007
31419416	N05BA05	03/02/2009
31318653	N05BA05	25/07/2003
32253685	N05BA05	14/11/2008
31150444	N05BA05	08/08/2005
31067211	N05BA05	12/06/2007
31234732	N05BA05	17/08/2010
31342309	N05BA05	05/03/2004
31694662	N05BA05	22/10/2008
32211217	N05BA05	29/08/2008
32155937	N05BA05	31/03/2008
31825878	N05BA05	09/02/2006
31814249	N05BA05	13/01/2006
31312898	N05BA05	30/03/2004
32133275	N05BA05	03/07/2007
31670926	N05BA05	23/05/2002
31586422	N05BA05	16/11/2005
32093133	N05BA05	31/07/2006
31310846	N05BA05	23/04/2003
31924737	N05BA05	23/03/2007
31991894	N05BA05	15/12/2009
31861365	N05BA05	31/07/2006
31790134	N05BA05	29/03/2006
31227221	N05BA05	22/12/2006
31804114	N05BA05	10/07/2001
32071031	N05BA05	18/04/2011
31053931	N05BA05	30/06/2003
31511874	N05BA05	13/06/2007
32174287	N05BA05	31/01/2008
31916785	N05BA05	12/05/2004
32233104	N05BA05	20/04/2010
31125253	N05BA05	27/06/2005
31615865	N05BA05	14/10/2003
31564531	N05BA05	03/01/2007
32008286	N05BA05	29/01/2007
32215650	N05BA05	28/05/2007
32095305	N05BA05	18/04/2007
32156620	N05BA05	09/12/2009
32255955	N05BA05	08/04/2010
31585275	N05BA05	14/01/2008
32220436	N05BA05	23/04/2004
32128208	N05BA05	31/05/2005
31721691	N05BA05	11/03/2005
31258919	N05BA05	24/07/2001
31649595	N05BA05	30/05/2007
31333245	N05BA05	05/12/2006
31558072	N05BA05	17/10/2007
31703712	N05BA05	21/11/2005
31372876	N05BA05	30/05/2006
31853916	N05BA05	04/08/2005
