patient_id	covar_name	date
10867647	N06BA09	03/02/2011
13297670	N06BA09	13/09/2010
1108799	N06BA09	25/05/2011
426640	N06BA09	08/04/2011
28074969	N06BA09	13/04/2011
27002841	N06BA09	11/04/2011
27325534	N06BA09	28/02/2008
27361659	N06BA09	11/12/2009
33117702	N06BA09	29/05/2009
32054545	N06BA09	26/03/2009
31665551	N06BA09	01/12/2008
31879513	N06BA09	12/05/2008
31622874	N06BA09	17/09/2009
31730194	N06BA09	07/10/2010
31457097	N06BA09	25/02/2008
31275713	N06BA09	15/04/2010
32273366	N06BA09	03/11/2010
31420088	N06BA09	18/07/2008
31806300	N06BA09	12/02/2008
