patient_id	covar_name	date
5026147	N05AH03	05/05/2011
8651898	N05AH03	21/04/2006
1937760	N05AH03	17/12/2010
9347565	N05AH03	26/07/2010
5028727	N05AH03	01/03/2006
132608	N05AH03	04/04/2005
3333113	N05AH03	22/09/2008
8488643	N05AH03	05/05/2011
13538926	N05AH03	31/05/2011
19184498	N05AH03	12/01/2011
6752622	N05AH03	03/05/2011
262094	N05AH03	03/05/2011
6080444	N05AH03	05/09/2005
8700313	N05AH03	08/07/2010
6746940	N05AH03	18/12/2002
8277792	N05AH03	19/05/2010
20565332	N05AH03	15/04/2003
10001766	N05AH03	04/08/2006
7242734	N05AH03	08/03/2007
3292536	N05AH03	23/05/2011
20546197	N05AH03	22/01/2008
21805636	N05AH03	31/05/2011
24764733	N05AH03	01/06/2011
21856435	N05AH03	03/05/2011
25059661	N05AH03	26/06/2008
19228281	N05AH03	26/10/2007
9388407	N05AH03	05/04/2011
1064683	N05AH03	30/05/2007
207629	N05AH03	26/03/2004
8408523	N05AH03	14/12/2006
5024259	N05AH03	24/06/2009
12738650	N05AH03	31/10/2007
19184121	N05AH03	27/04/2007
12692734	N05AH03	10/10/2005
17527270	N05AH03	15/10/2010
5031883	N05AH03	01/02/2005
1666268	N05AH03	01/08/2005
1210825	N05AH03	16/04/2003
6842063	N05AH03	27/10/2010
6597538	N05AH03	06/08/2003
7718915	N05AH03	30/05/2011
1416039	N05AH03	12/04/2004
7848502	N05AH03	26/08/2010
1417941	N05AH03	11/11/2010
1426251	N05AH03	05/01/2004
1354510	N05AH03	17/06/2008
6592990	N05AH03	22/05/2009
6594333	N05AH03	17/05/2011
6602094	N05AH03	01/09/2008
1203166	N05AH03	05/08/2009
6598234	N05AH03	12/03/2002
1209005	N05AH03	09/11/2006
1205740	N05AH03	17/10/2002
1425322	N05AH03	25/11/2009
1170644	N05AH03	31/05/2011
716674	N05AH03	17/02/2004
1102090	N05AH03	30/09/2005
25892709	N05AH03	30/09/2010
1100552	N05AH03	27/04/2011
25894711	N05AH03	28/03/2011
1640729	N05AH03	01/12/2008
2068612	N05AH03	05/04/2011
4689365	N05AH03	20/04/2006
2034995	N05AH03	20/05/2011
2812110	N05AH03	27/04/2011
7049147	N05AH03	04/03/2011
2407564	N05AH03	24/03/2004
26425709	N05AH03	22/12/2010
28040189	N05AH03	22/06/2005
28066311	N05AH03	25/05/2011
26564594	N05AH03	14/12/2010
28063099	N05AH03	16/03/2005
28066813	N05AH03	25/05/2011
26565666	N05AH03	09/12/2009
26458743	N05AH03	08/04/2010
28040087	N05AH03	11/09/2007
26244453	N05AH03	06/05/2008
5759433	N05AH03	26/05/2011
429077	N05AH03	25/05/2011
1900723	N05AH03	19/05/2011
875817	N05AH03	23/08/2001
28091105	N05AH03	04/10/2004
28084179	N05AH03	12/04/2010
26410164	N05AH03	23/08/2010
28069809	N05AH03	28/04/2011
183590	N05AH03	27/12/2004
28042849	N05AH03	25/05/2011
24667760	N05AH03	01/08/2005
25717471	N05AH03	11/10/2006
421963	N05AH03	17/06/2004
1366526	N05AH03	13/04/2011
19424347	N05AH03	20/06/2005
19424318	N05AH03	30/09/2005
1019721	N05AH03	18/05/2011
26856096	N05AH03	29/08/2005
14310667	N05AH03	02/02/2011
26618108	N05AH03	15/05/2011
26621448	N05AH03	16/05/2011
26946237	N05AH03	20/04/2011
26907322	N05AH03	22/01/2008
26713577	N05AH03	25/04/2011
26847161	N05AH03	30/05/2011
26989418	N05AH03	27/02/2006
26972749	N05AH03	15/04/2009
27106289	N05AH03	16/05/2011
27133477	N05AH03	30/08/2007
27200064	N05AH03	23/05/2011
27301879	N05AH03	28/04/2010
26956671	N05AH03	31/05/2011
27199347	N05AH03	25/05/2011
27169637	N05AH03	11/03/2010
27605514	N05AH03	27/04/2011
27492885	N05AH03	28/04/2011
27572901	N05AH03	31/07/2008
27163993	N05AH03	25/05/2011
27166063	N05AH03	23/05/2011
648889	N05AH03	27/04/2005
22922095	N05AH03	15/07/2008
27450192	N05AH03	25/10/2007
27797481	N05AH03	14/05/2011
27718998	N05AH03	01/06/2011
424408	N05AH03	30/04/2010
27388543	N05AH03	09/05/2011
423194	N05AH03	23/11/2001
27520212	N05AH03	09/05/2008
27352679	N05AH03	16/06/2004
33093855	N05AH03	11/11/2010
33066649	N05AH03	19/12/2001
33018895	N05AH03	08/03/2004
33045759	N05AH03	28/12/2004
33071069	N05AH03	12/01/2011
33000919	N05AH03	26/01/2010
33022598	N05AH03	09/12/2009
33042521	N05AH03	25/01/2011
23362899	N05AH03	20/05/2011
33080278	N05AH03	27/04/2011
24462672	N05AH03	30/05/2011
16619763	N05AH03	14/04/2011
33028840	N05AH03	27/03/2009
33026699	N05AH03	29/12/2003
33083224	N05AH03	08/03/2007
33045618	N05AH03	25/04/2011
33027037	N05AH03	06/06/2008
33039897	N05AH03	25/04/2011
33007261	N05AH03	29/04/2011
33099116	N05AH03	16/01/2002
33066033	N05AH03	28/10/2010
33004606	N05AH03	07/02/2006
23227463	N05AH03	02/08/2005
18765874	N05AH03	21/05/2010
33239076	N05AH03	07/10/2008
33306707	N05AH03	27/04/2011
14188303	N05AH03	09/04/2007
33310131	N05AH03	20/08/2009
16653209	N05AH03	18/09/2006
24137614	N05AH03	21/07/2010
33234696	N05AH03	04/05/2004
23408120	N05AH03	03/05/2011
23402466	N05AH03	31/05/2011
16599466	N05AH03	05/02/2008
33311744	N05AH03	06/05/2011
27984824	N05AH03	11/04/2011
16171769	N05AH03	10/07/2009
23402345	N05AH03	20/10/2010
21102555	N05AH03	27/05/2011
33304409	N05AH03	05/05/2011
33207544	N05AH03	06/05/2011
16600554	N05AH03	19/04/2011
33291314	N05AH03	11/05/2011
23368818	N05AH03	19/05/2011
16136518	N05AH03	10/03/2009
31573567	N05AH03	26/12/2006
31538378	N05AH03	02/07/2008
31595519	N05AH03	16/06/2010
31400525	N05AH03	25/08/2008
32225105	N05AH03	11/12/2003
32132737	N05AH03	24/09/2010
31835091	N05AH03	14/03/2011
32202237	N05AH03	11/07/2007
32146428	N05AH03	18/10/2007
31703414	N05AH03	24/06/2008
32063312	N05AH03	05/04/2011
32104853	N05AH03	02/07/2010
32076252	N05AH03	20/01/2011
32221355	N05AH03	21/12/2009
32185161	N05AH03	14/01/2009
32238575	N05AH03	21/11/2006
31925603	N05AH03	19/11/2007
31875631	N05AH03	16/12/2009
31804204	N05AH03	06/08/2009
31911477	N05AH03	18/05/2010
31495525	N05AH03	07/04/2011
31288965	N05AH03	26/10/2009
32261215	N05AH03	01/10/2008
32141296	N05AH03	28/08/2002
31607286	N05AH03	02/05/2011
31620017	N05AH03	08/03/2011
31600321	N05AH03	26/12/2007
31471030	N05AH03	22/07/2009
31109164	N05AH03	11/11/2005
31830669	N05AH03	13/07/2010
31354855	N05AH03	21/09/2010
31391687	N05AH03	09/09/2010
32176725	N05AH03	29/12/2006
32127892	N05AH03	20/06/2005
31596789	N05AH03	28/12/2007
31542939	N05AH03	05/07/2005
32053538	N05AH03	25/02/2004
31230558	N05AH03	18/05/2006
32238209	N05AH03	15/07/2005
31514901	N05AH03	24/08/2007
31087836	N05AH03	21/08/2008
31057692	N05AH03	17/09/2004
31602472	N05AH03	05/11/2007
31676992	N05AH03	14/12/2010
32187156	N05AH03	09/03/2009
31927125	N05AH03	06/08/2002
31543732	N05AH03	24/06/2004
31954330	N05AH03	01/02/2005
31565378	N05AH03	27/12/2007
32139036	N05AH03	16/06/2004
31947465	N05AH03	05/08/2005
32192035	N05AH03	07/06/2004
31143232	N05AH03	02/02/2011
31228032	N05AH03	18/03/2008
32262652	N05AH03	10/12/2008
31665416	N05AH03	25/11/2008
31787887	N05AH03	16/03/2006
31516645	N05AH03	16/08/2007
31230333	N05AH03	28/01/2009
31634632	N05AH03	02/07/2002
31328449	N05AH03	23/08/2005
31760431	N05AH03	11/12/2008
31221792	N05AH03	24/01/2006
31964287	N05AH03	24/03/2009
31861365	N05AH03	27/12/2007
31916785	N05AH03	26/03/2008
31730157	N05AH03	25/09/2006
31559312	N05AH03	16/12/2008
