patient_id	covar_name	date
8276701	N07AA02	29/05/2011
9340914	N07AA02	01/04/2011
12774422	N07AA02	09/06/2005
24666868	N07AA02	01/06/2007
420694	N07AA02	30/05/2011
19801596	N07AA02	29/05/2011
26702598	N07AA02	29/05/2011
27316566	N07AA02	11/05/2011
27169775	N07AA02	24/10/2008
27633922	N07AA02	13/05/2011
27138460	N07AA02	08/03/2011
16615956	N07AA02	23/02/2010
16654742	N07AA02	24/05/2011
31117673	N07AA02	21/03/2007
31479727	N07AA02	26/01/2011
31912924	N07AA02	27/01/2009
32046883	N07AA02	08/10/2010
31441799	N07AA02	21/12/2006
31244480	N07AA02	02/12/2008
31074728	N07AA02	17/01/2008
31892704	N07AA02	20/06/2006
