patient_id	covar_name	date
9374764	N03AG01	02/03/2011
5035307	N03AG01	04/01/2005
949778	N03AG01	09/05/2011
5032251	N03AG01	27/02/2009
6417574	N03AG01	12/01/2011
10292723	N03AG01	01/12/2010
6080444	N03AG01	24/02/2011
8277792	N03AG01	10/12/2008
7351316	N03AG01	21/07/2009
175811	N03AG01	22/06/2005
10268936	N03AG01	16/11/2007
17170555	N03AG01	01/12/2008
15987481	N03AG01	07/05/2009
9376034	N03AG01	03/03/2011
947478	N03AG01	02/08/2006
3292536	N03AG01	22/12/2008
17169131	N03AG01	12/05/2009
6182078	N03AG01	15/03/2011
7406503	N03AG01	04/03/2009
8569369	N03AG01	04/05/2011
732668	N03AG01	21/07/2010
19228281	N03AG01	22/12/2008
9377350	N03AG01	06/02/2006
24004104	N03AG01	11/11/2008
9349186	N03AG01	28/03/2011
16556701	N03AG01	21/01/2011
751585	N03AG01	08/06/2007
9385419	N03AG01	31/03/2004
7963856	N03AG01	05/10/2006
7777782	N03AG01	26/05/2011
12434207	N03AG01	26/11/2010
1546390	N03AG01	27/05/2008
1851987	N03AG01	07/05/2010
12189908	N03AG01	17/05/2011
6227493	N03AG01	29/04/2011
1201480	N03AG01	11/01/2009
7972411	N03AG01	26/05/2010
6599178	N03AG01	18/04/2011
1426317	N03AG01	27/09/2005
7968475	N03AG01	30/05/2011
7963946	N03AG01	18/04/2011
1850960	N03AG01	18/11/2008
6592990	N03AG01	21/08/2009
6596566	N03AG01	18/03/2004
15667378	N03AG01	01/06/2011
3074322	N03AG01	07/05/2011
1566989	N03AG01	03/05/2011
717738	N03AG01	01/04/2003
1129101	N03AG01	19/10/2001
25894711	N03AG01	19/05/2011
135815	N03AG01	30/06/2004
2216952	N03AG01	27/04/2011
2218788	N03AG01	25/01/2011
7128969	N03AG01	21/11/2006
3049327	N03AG01	04/05/2011
2523880	N03AG01	10/05/2011
17741954	N03AG01	05/05/2011
2525077	N03AG01	22/02/2011
26441939	N03AG01	20/05/2011
28073254	N03AG01	18/06/2008
26478558	N03AG01	02/12/2005
26235928	N03AG01	20/11/2002
16950099	N03AG01	25/04/2011
9614223	N03AG01	28/08/2007
300241	N03AG01	13/05/2003
7137629	N03AG01	06/10/2008
419219	N03AG01	21/03/2007
426640	N03AG01	14/05/2011
24668043	N03AG01	20/05/2011
25723656	N03AG01	18/03/2011
620834	N03AG01	27/05/2011
1013085	N03AG01	01/03/2011
19786147	N03AG01	01/05/2011
1020925	N03AG01	13/12/2005
2989564	N03AG01	31/05/2011
25740921	N03AG01	17/04/2009
24655596	N03AG01	27/05/2011
22922286	N03AG01	10/09/2008
22723518	N03AG01	20/10/2009
26899465	N03AG01	14/10/2008
26891000	N03AG01	31/03/2011
26917769	N03AG01	01/02/2007
26895311	N03AG01	30/05/2011
26714002	N03AG01	13/05/2011
26847161	N03AG01	30/05/2011
26936159	N03AG01	19/05/2011
26877189	N03AG01	08/12/2010
26791857	N03AG01	30/03/2011
26775692	N03AG01	14/02/2003
26982772	N03AG01	07/02/2011
27102365	N03AG01	08/04/2011
27114481	N03AG01	22/04/2009
27049237	N03AG01	10/11/2007
27040193	N03AG01	04/05/2011
27011221	N03AG01	17/05/2011
27327348	N03AG01	03/07/2006
27357965	N03AG01	23/12/2008
27384653	N03AG01	17/05/2011
27295928	N03AG01	29/04/2009
26959229	N03AG01	29/12/2004
27605514	N03AG01	01/10/2010
27577722	N03AG01	15/04/2011
27659651	N03AG01	28/09/2008
27292071	N03AG01	18/10/2006
27287526	N03AG01	28/01/2003
27150779	N03AG01	29/05/2004
27284523	N03AG01	04/04/2011
27163993	N03AG01	02/05/2011
27161557	N03AG01	11/05/2009
27686530	N03AG01	16/04/2011
27685959	N03AG01	18/04/2008
27679826	N03AG01	17/02/2004
27543143	N03AG01	22/05/2011
26825187	N03AG01	29/05/2006
27608043	N03AG01	24/01/2011
27515854	N03AG01	30/05/2011
22922624	N03AG01	24/09/2003
27797481	N03AG01	20/10/2004
27318402	N03AG01	21/05/2005
27794211	N03AG01	21/02/2007
27352679	N03AG01	16/05/2011
26959063	N03AG01	07/04/2011
33062908	N03AG01	05/02/2010
33111340	N03AG01	21/11/2007
33075946	N03AG01	05/11/2010
33028018	N03AG01	04/02/2009
33089670	N03AG01	07/05/2011
33012415	N03AG01	09/05/2005
33034243	N03AG01	08/04/2011
33011692	N03AG01	02/01/2001
21650445	N03AG01	09/01/2006
24462672	N03AG01	16/12/2008
33253720	N03AG01	23/05/2011
33019575	N03AG01	04/01/2005
33032465	N03AG01	31/05/2011
33098972	N03AG01	01/06/2011
33091289	N03AG01	17/01/2011
33098351	N03AG01	23/03/2011
16634466	N03AG01	21/09/2007
23408318	N03AG01	05/05/2011
14188303	N03AG01	11/05/2011
16619058	N03AG01	01/06/2011
21106966	N03AG01	23/10/2009
23332526	N03AG01	23/05/2011
23396411	N03AG01	23/11/2005
16134020	N03AG01	17/05/2011
16631966	N03AG01	22/02/2011
27837120	N03AG01	09/05/2011
23353839	N03AG01	15/05/2011
23382501	N03AG01	01/03/2011
27975673	N03AG01	13/10/2010
23409015	N03AG01	13/05/2011
31741436	N03AG01	21/03/2006
32212053	N03AG01	01/04/2004
32260917	N03AG01	10/05/2011
21112531	N03AG01	23/03/2011
33235048	N03AG01	04/05/2007
29172993	N03AG01	12/05/2011
16181240	N03AG01	17/05/2005
31386591	N03AG01	16/10/2007
31392013	N03AG01	06/10/2009
31287836	N03AG01	17/12/2009
31817732	N03AG01	17/10/2005
31627476	N03AG01	14/01/2004
31880089	N03AG01	11/01/2011
31487409	N03AG01	30/03/2006
31032015	N03AG01	19/09/2006
31523326	N03AG01	25/09/2008
31692769	N03AG01	15/06/2004
31766536	N03AG01	04/10/2010
32092135	N03AG01	12/11/2008
32132737	N03AG01	05/11/2010
31517361	N03AG01	02/06/2000
31780608	N03AG01	24/01/2011
31381422	N03AG01	01/02/2011
31059184	N03AG01	03/02/2010
31381448	N03AG01	20/11/2009
32146428	N03AG01	10/01/2008
31943181	N03AG01	30/12/2009
31429601	N03AG01	22/09/2006
31198523	N03AG01	28/07/2009
32005539	N03AG01	09/05/2011
31174566	N03AG01	04/12/2008
31581886	N03AG01	14/03/2011
31110286	N03AG01	05/05/2011
31565245	N03AG01	28/11/2006
31813204	N03AG01	28/08/2007
31925603	N03AG01	26/11/2009
31384670	N03AG01	05/11/2010
31349496	N03AG01	13/05/2010
31396650	N03AG01	13/04/2009
32064758	N03AG01	29/12/2010
31857984	N03AG01	10/09/2008
31195235	N03AG01	09/06/2006
31294522	N03AG01	10/12/2010
31289840	N03AG01	14/01/2009
31467050	N03AG01	10/11/2010
31590518	N03AG01	04/11/2010
31417773	N03AG01	05/01/2011
32258288	N03AG01	27/08/2008
31588888	N03AG01	06/10/2009
32132565	N03AG01	18/01/2011
31836599	N03AG01	29/07/2005
31737920	N03AG01	13/05/2011
32257370	N03AG01	12/06/2002
31440317	N03AG01	14/12/2010
31737242	N03AG01	29/04/2009
31565378	N03AG01	23/02/2010
32245866	N03AG01	11/09/2009
32139036	N03AG01	07/09/2004
31947465	N03AG01	27/09/2005
32193947	N03AG01	27/10/2004
31442038	N03AG01	20/04/2005
32031559	N03AG01	08/12/2007
31233103	N03AG01	23/07/2007
31095519	N03AG01	28/12/2001
31753804	N03AG01	03/05/2010
32118468	N03AG01	03/05/2011
31096524	N03AG01	21/01/2009
31067242	N03AG01	13/04/2011
32024753	N03AG01	13/10/2008
31852625	N03AG01	26/02/2003
31641763	N03AG01	11/11/2005
31251502	N03AG01	12/07/2010
31230333	N03AG01	22/04/2003
31634632	N03AG01	26/09/2002
31659751	N03AG01	08/03/2001
31866747	N03AG01	08/11/2006
31760431	N03AG01	11/12/2008
31419416	N03AG01	14/10/2009
32247687	N03AG01	06/10/2009
32062791	N03AG01	04/12/2009
31916785	N03AG01	03/12/2002
32238551	N03AG01	18/02/2005
31559312	N03AG01	05/11/2008
