patient_id	covar_name	date
12194393	N02CA51	01/02/2011
1462175	N02CA51	14/10/2009
16977223	N02CA51	18/10/2007
20547221	N02CA51	13/06/2005
9220980	N02CA51	06/11/2008
16558782	N02CA51	08/06/2004
16531570	N02CA51	29/12/2010
21875563	N02CA51	04/11/2009
3331615	N02CA51	23/05/2008
731313	N02CA51	04/11/2002
12730840	N02CA51	18/03/2009
8292672	N02CA51	19/04/2006
10003050	N02CA51	10/10/2007
7094703	N02CA51	27/04/2011
8569720	N02CA51	01/07/2005
8784100	N02CA51	13/05/2011
4700861	N02CA51	02/02/2005
514728	N02CA51	26/08/2003
7770640	N02CA51	10/01/2007
6603667	N02CA51	28/10/2003
26138989	N02CA51	07/07/2003
1666026	N02CA51	18/12/2007
1353807	N02CA51	05/05/2010
1546123	N02CA51	04/05/2005
25248948	N02CA51	20/11/2009
6591519	N02CA51	09/10/2008
23843778	N02CA51	25/06/2002
8357140	N02CA51	14/11/2005
890642	N02CA51	14/01/2004
715994	N02CA51	17/09/2002
1101830	N02CA51	09/01/2009
12673233	N02CA51	03/12/2009
190343	N02CA51	29/06/2006
1130822	N02CA51	17/05/2011
2216802	N02CA51	13/12/2006
2109549	N02CA51	03/05/2005
2043843	N02CA51	06/02/2004
5930292	N02CA51	22/07/2003
1766657	N02CA51	26/09/2006
7038528	N02CA51	28/04/2011
2779249	N02CA51	20/08/2007
2779188	N02CA51	06/06/2007
2752941	N02CA51	03/10/2003
7035689	N02CA51	08/01/2008
26261025	N02CA51	21/01/2011
304932	N02CA51	13/05/2011
2958823	N02CA51	12/03/2003
1904412	N02CA51	05/10/2001
421262	N02CA51	02/04/2008
28087560	N02CA51	26/05/2011
20147240	N02CA51	30/06/2006
28083015	N02CA51	06/06/2008
419430	N02CA51	29/09/2003
28088086	N02CA51	05/04/2006
28062278	N02CA51	22/05/2007
1905426	N02CA51	05/01/2011
1014507	N02CA51	14/01/2011
1367046	N02CA51	17/05/2011
1016238	N02CA51	26/01/2009
21063093	N02CA51	29/05/2002
26724376	N02CA51	23/06/2008
16844467	N02CA51	20/11/2005
26642839	N02CA51	18/04/2007
24657567	N02CA51	23/10/2006
26933097	N02CA51	06/08/2010
26780109	N02CA51	06/05/2011
26898392	N02CA51	11/10/2007
26898899	N02CA51	17/03/2006
26900308	N02CA51	29/12/2008
26872535	N02CA51	07/05/2004
26846652	N02CA51	21/02/2007
26868499	N02CA51	22/02/2011
26805018	N02CA51	22/06/2010
26974551	N02CA51	05/08/2009
26955339	N02CA51	29/01/2004
26972749	N02CA51	14/01/2011
27087271	N02CA51	05/05/2008
27083800	N02CA51	28/01/2009
27113813	N02CA51	03/11/2010
27033025	N02CA51	13/05/2008
27043267	N02CA51	17/08/2004
27072046	N02CA51	01/06/2011
27039739	N02CA51	03/02/2006
26998320	N02CA51	26/05/2011
27000732	N02CA51	16/11/2007
27168764	N02CA51	19/04/2011
27218364	N02CA51	03/10/2006
27210678	N02CA51	02/12/2009
27170658	N02CA51	13/05/2011
26996017	N02CA51	11/04/2006
27217481	N02CA51	11/09/2009
27252810	N02CA51	17/08/2001
27607506	N02CA51	01/01/2004
27596352	N02CA51	06/04/2009
27476407	N02CA51	30/12/2004
27605132	N02CA51	06/07/2006
27163037	N02CA51	15/04/2009
27132788	N02CA51	28/04/2004
27066420	N02CA51	10/05/2011
27719839	N02CA51	07/03/2011
27685556	N02CA51	21/06/2004
27694669	N02CA51	22/02/2011
27600832	N02CA51	28/05/2011
27591823	N02CA51	04/04/2007
27623692	N02CA51	14/06/2010
21651701	N02CA51	17/12/2008
27707583	N02CA51	03/06/2010
26876130	N02CA51	08/04/2005
26973008	N02CA51	31/05/2010
18199611	N02CA51	08/07/2004
27600262	N02CA51	16/08/2006
33067601	N02CA51	18/04/2011
33001039	N02CA51	16/12/2008
33029258	N02CA51	17/05/2010
33065445	N02CA51	23/07/2008
33109340	N02CA51	07/09/2009
33014532	N02CA51	04/11/2009
33050773	N02CA51	03/10/2007
33012828	N02CA51	04/04/2002
422251	N02CA51	17/10/2005
1366024	N02CA51	23/07/2003
16634931	N02CA51	17/08/2004
21115152	N02CA51	01/10/2009
33008590	N02CA51	03/11/2009
33004385	N02CA51	24/07/2002
16625249	N02CA51	01/06/2009
14187401	N02CA51	16/05/2011
27848149	N02CA51	10/02/2011
23361644	N02CA51	18/11/2009
16653497	N02CA51	28/09/2010
23366881	N02CA51	23/11/2009
20986036	N02CA51	19/11/2010
21101160	N02CA51	25/07/2008
23402116	N02CA51	03/12/2003
23406241	N02CA51	06/10/2010
28021159	N02CA51	07/04/2011
23347904	N02CA51	22/02/2011
16652685	N02CA51	14/12/2010
16623344	N02CA51	07/04/2011
23364680	N02CA51	20/01/2011
21109687	N02CA51	15/04/2004
23353918	N02CA51	06/10/2004
31353235	N02CA51	11/02/2010
31285328	N02CA51	20/12/2006
31614831	N02CA51	09/05/2008
31313850	N02CA51	09/01/2007
31298801	N02CA51	25/10/2005
31309703	N02CA51	03/09/2004
31715055	N02CA51	28/12/2004
31431883	N02CA51	12/07/2006
31627593	N02CA51	29/11/2006
31352468	N02CA51	28/09/2005
31903832	N02CA51	03/04/2000
31065752	N02CA51	14/11/2006
32080624	N02CA51	29/05/2006
31704498	N02CA51	20/10/2006
32130817	N02CA51	24/03/2011
32004296	N02CA51	22/11/2004
31282414	N02CA51	06/05/2008
32188715	N02CA51	09/02/2009
31470909	N02CA51	05/10/2009
31622713	N02CA51	02/11/2004
31565001	N02CA51	22/04/2010
31300372	N02CA51	13/01/2000
32048394	N02CA51	13/11/2006
31879977	N02CA51	10/10/2005
31721310	N02CA51	08/01/2003
31128087	N02CA51	27/03/2008
31420452	N02CA51	07/11/2001
31945027	N02CA51	06/07/2005
31200673	N02CA51	04/12/2006
31581387	N02CA51	20/07/2009
32172998	N02CA51	16/03/2001
31915839	N02CA51	24/09/2008
31811871	N02CA51	19/08/2004
31405567	N02CA51	05/10/2005
31056957	N02CA51	22/07/2008
31058197	N02CA51	25/10/2007
31712883	N02CA51	02/02/2006
31424056	N02CA51	15/02/2008
31671227	N02CA51	23/11/2005
31412940	N02CA51	13/01/2006
31992839	N02CA51	22/04/2008
31400190	N02CA51	03/12/2004
32073892	N02CA51	19/05/2009
31523713	N02CA51	22/06/2005
31512689	N02CA51	19/09/2007
31928343	N02CA51	30/01/2006
31697109	N02CA51	24/10/2005
31521703	N02CA51	17/08/2005
31615865	N02CA51	09/09/2010
31329818	N02CA51	09/11/2005
32158039	N02CA51	13/09/2006
