patient_id	covar_name	date
6747933	N02CA52	21/08/2008
59209	N02CA52	15/02/2006
20545914	N02CA52	27/10/2010
21152552	N02CA52	07/11/2007
6751368	N02CA52	20/05/2008
6752622	N02CA52	27/01/2009
9177319	N02CA52	12/04/2011
21371393	N02CA52	25/07/2003
740565	N02CA52	11/08/2009
20819800	N02CA52	07/11/2005
13993262	N02CA52	17/11/2010
12767263	N02CA52	20/12/2010
1516008	N02CA52	02/06/2005
8276636	N02CA52	10/09/2009
5021563	N02CA52	17/07/2007
12688935	N02CA52	28/06/2007
9388668	N02CA52	22/12/2009
8293467	N02CA52	08/04/2010
9210774	N02CA52	03/05/2011
16230858	N02CA52	05/05/2011
16559866	N02CA52	23/10/2006
9383142	N02CA52	01/02/2011
12857517	N02CA52	24/08/2005
12692769	N02CA52	03/03/2011
6757580	N02CA52	16/04/2008
12478643	N02CA52	16/10/2007
1515178	N02CA52	18/12/2001
13986519	N02CA52	15/01/2003
6602630	N02CA52	02/07/2009
10002429	N02CA52	10/02/2004
1444339	N02CA52	22/04/2010
674448	N02CA52	14/01/2004
1346900	N02CA52	07/03/2011
5489882	N02CA52	16/11/2004
7801045	N02CA52	23/03/2010
1415968	N02CA52	19/08/2010
6211670	N02CA52	19/04/2011
1351090	N02CA52	12/04/2005
7849206	N02CA52	03/12/2009
996288	N02CA52	07/11/2007
717570	N02CA52	14/05/2001
890642	N02CA52	14/11/2008
1638137	N02CA52	26/10/2009
996228	N02CA52	21/07/2010
25914977	N02CA52	25/05/2009
1639056	N02CA52	06/08/2007
717026	N02CA52	19/05/2011
486698	N02CA52	24/07/2009
487173	N02CA52	29/10/2010
2215335	N02CA52	18/05/2011
2042889	N02CA52	17/02/2005
2760072	N02CA52	22/03/2004
2574588	N02CA52	25/01/2010
12970363	N02CA52	11/05/2004
26338790	N02CA52	18/11/2003
17041554	N02CA52	02/02/2004
16835971	N02CA52	31/05/2011
28091118	N02CA52	01/10/2009
425192	N02CA52	17/11/2010
427580	N02CA52	29/01/2002
25707060	N02CA52	28/05/2010
1030470	N02CA52	21/05/2007
25742893	N02CA52	10/09/2007
26767920	N02CA52	09/11/2007
12975499	N02CA52	27/07/2006
10755921	N02CA52	13/01/2011
11465926	N02CA52	22/11/2008
17165183	N02CA52	28/01/2010
26630037	N02CA52	23/02/2007
26877945	N02CA52	18/05/2011
26972749	N02CA52	18/02/2008
27098823	N02CA52	23/04/2007
27065739	N02CA52	27/09/2010
27379398	N02CA52	22/10/2010
27399841	N02CA52	02/03/2007
27172066	N02CA52	22/07/2008
27249965	N02CA52	20/11/2007
27200311	N02CA52	13/07/2010
27578349	N02CA52	24/05/2008
27607371	N02CA52	03/04/2009
27607506	N02CA52	01/01/2004
27596311	N02CA52	03/06/2005
27623983	N02CA52	27/02/2009
27624082	N02CA52	25/11/2010
27614612	N02CA52	23/02/2006
27708618	N02CA52	10/02/2011
27252613	N02CA52	09/03/2011
27105042	N02CA52	03/05/2011
27529772	N02CA52	09/05/2011
1359153	N02CA52	14/04/2011
27198984	N02CA52	21/08/2006
27456174	N02CA52	08/08/2006
27529159	N02CA52	31/05/2007
27591823	N02CA52	28/02/2006
27475366	N02CA52	14/03/2006
27086174	N02CA52	22/11/2007
27707583	N02CA52	29/07/2009
27668939	N02CA52	17/07/2009
27160253	N02CA52	05/04/2005
27764778	N02CA52	10/12/2008
27775707	N02CA52	13/12/2002
27782658	N02CA52	05/12/2007
33099219	N02CA52	27/09/2007
33091087	N02CA52	04/01/2007
33129205	N02CA52	23/10/2008
33043194	N02CA52	06/02/2003
33072290	N02CA52	08/08/2008
33105763	N02CA52	30/05/2006
33106661	N02CA52	05/05/2011
33072776	N02CA52	09/12/2010
27798157	N02CA52	20/05/2011
21109297	N02CA52	24/06/2008
23380888	N02CA52	28/05/2009
18771300	N02CA52	16/05/2002
33082496	N02CA52	19/08/2008
33013638	N02CA52	02/07/2004
33114133	N02CA52	02/09/2004
33085777	N02CA52	09/05/2011
33073628	N02CA52	01/06/2011
33021489	N02CA52	11/05/2009
23382344	N02CA52	19/02/2010
18765717	N02CA52	02/09/2004
28018319	N02CA52	15/05/2008
23288974	N02CA52	20/05/2011
16623658	N02CA52	19/11/2010
16653597	N02CA52	16/04/2009
23402611	N02CA52	27/04/2011
16652685	N02CA52	20/02/2009
31696470	N02CA52	21/12/2009
31191853	N02CA52	16/01/2004
31400996	N02CA52	08/08/2002
31586559	N02CA52	11/09/2007
31487409	N02CA52	18/08/2005
31160878	N02CA52	23/07/2009
31858594	N02CA52	27/11/2006
31315923	N02CA52	27/10/2010
32036567	N02CA52	20/05/2002
31141007	N02CA52	16/11/2009
32219687	N02CA52	24/06/2003
32243083	N02CA52	27/09/1999
31502441	N02CA52	02/10/2007
31296696	N02CA52	14/09/2001
31269212	N02CA52	18/06/2007
31319812	N02CA52	15/06/2006
31317594	N02CA52	18/11/2009
31447684	N02CA52	13/01/2004
31420452	N02CA52	20/01/2011
31606407	N02CA52	30/12/2008
31137112	N02CA52	22/01/2001
32121891	N02CA52	23/06/2008
31634514	N02CA52	26/05/2006
31262368	N02CA52	12/02/2007
31191195	N02CA52	12/04/2007
31737920	N02CA52	21/03/2006
31051001	N02CA52	03/03/2011
32257370	N02CA52	16/02/2001
31851748	N02CA52	06/05/2009
32263249	N02CA52	20/08/2003
32003164	N02CA52	08/02/2010
31249805	N02CA52	19/11/2010
31592928	N02CA52	18/09/2009
31084479	N02CA52	15/04/2004
32008810	N02CA52	27/11/2009
31306717	N02CA52	12/12/2008
31105225	N02CA52	01/12/2006
31612837	N02CA52	03/01/2002
31659288	N02CA52	15/02/2008
31037060	N02CA52	09/03/2007
31031117	N02CA52	04/11/2004
31887827	N02CA52	22/01/2009
31927282	N02CA52	20/04/2007
31315245	N02CA52	20/01/2011
32166426	N02CA52	17/12/2008
31601005	N02CA52	13/12/2004
31814249	N02CA52	07/09/2010
31615865	N02CA52	13/04/2010
31696446	N02CA52	02/02/2004
