patient_id	covar_name	date
14983098	PERTIM	10/04/1941
5813371	PERTIM	01/02/1944
11407938	PERTIM	19/08/2004
949364	PERTIM	02/04/2007
730741	PERTIM	21/12/2006
3123986	PERTIM	03/09/2008
3122250	PERTIM	08/02/2008
60228	PERTIM	21/12/1999
3322587	PERTIM	09/05/2005
3122083	PERTIM	27/05/2002
15066578	PERTIM	11/06/2010
9296064	PERTIM	09/01/2009
21806664	PERTIM	30/01/2009
25054568	PERTIM	10/04/2006
7094961	PERTIM	22/06/2005
17618770	PERTIM	02/03/2010
22537806	PERTIM	13/11/2003
3120958	PERTIM	11/12/1961
13996824	PERTIM	27/05/2009
10247580	PERTIM	26/08/2008
12758716	PERTIM	15/03/2006
6243521	PERTIM	27/12/2010
6183311	PERTIM	15/10/2010
9311451	PERTIM	19/08/2008
5814208	PERTIM	13/12/1998
10331860	PERTIM	20/05/2003
7248213	PERTIM	01/01/2000
16915112	PERTIM	10/11/2009
21644622	PERTIM	15/01/2003
10331626	PERTIM	25/04/2011
1419222	PERTIM	17/06/2009
1171151	PERTIM	08/08/1940
24944378	PERTIM	29/09/2008
1206484	PERTIM	17/10/1951
640398	PERTIM	04/03/2002
1091342	PERTIM	22/09/2006
516183	PERTIM	10/08/2006
7771352	PERTIM	27/01/1997
6603802	PERTIM	26/04/2009
7967729	PERTIM	11/09/2009
18039159	PERTIM	19/02/2009
640738	PERTIM	21/08/2006
19958838	PERTIM	31/01/2005
404419	PERTIM	15/12/2003
996038	PERTIM	24/01/2000
25768725	PERTIM	20/03/2000
25882952	PERTIM	18/07/2005
1131424	PERTIM	10/07/2002
2138308	PERTIM	26/06/2006
2070933	PERTIM	16/05/2004
2143729	PERTIM	13/01/2011
877568	PERTIM	13/09/2001
2036391	PERTIM	11/02/2011
902998	PERTIM	13/01/2011
860192	PERTIM	23/07/2002
901252	PERTIM	09/01/2001
1752749	PERTIM	22/09/2004
2759074	PERTIM	01/03/1972
2763382	PERTIM	22/10/2009
26408103	PERTIM	09/12/2003
28079123	PERTIM	16/11/2010
26564907	PERTIM	16/05/2007
17041460	PERTIM	20/06/2003
17219245	PERTIM	13/09/2009
28042198	PERTIM	03/12/2007
26235974	PERTIM	27/02/2009
26337609	PERTIM	13/10/2009
17219212	PERTIM	22/12/2009
16835377	PERTIM	20/01/2011
28075119	PERTIM	26/11/2007
28074758	PERTIM	19/04/2004
462688	PERTIM	04/01/1960
2525968	PERTIM	10/02/2009
419216	PERTIM	12/05/2006
421631	PERTIM	15/12/2010
424657	PERTIM	04/10/1963
28066154	PERTIM	29/12/2005
24663399	PERTIM	28/02/2008
24671521	PERTIM	10/11/2006
1360745	PERTIM	02/02/2010
1370928	PERTIM	19/10/2006
1029035	PERTIM	18/12/2002
1906965	PERTIM	14/08/2008
17410706	PERTIM	12/01/2009
2987559	PERTIM	04/05/2009
1369715	PERTIM	07/05/2007
2962115	PERTIM	05/02/2002
26636209	PERTIM	01/10/2002
21066380	PERTIM	15/01/2008
26640467	PERTIM	26/10/2006
26618323	PERTIM	21/07/2010
24485512	PERTIM	04/11/2005
26948499	PERTIM	30/07/2008
26936348	PERTIM	02/11/2001
26897230	PERTIM	30/09/2005
26947472	PERTIM	20/07/2004
26723495	PERTIM	20/07/1942
26771447	PERTIM	27/07/2006
26846442	PERTIM	16/01/1995
26862957	PERTIM	11/11/2005
26789113	PERTIM	14/01/2006
26955265	PERTIM	06/09/2005
26992206	PERTIM	29/07/2009
27026112	PERTIM	17/04/2007
27153380	PERTIM	10/08/2006
27198906	PERTIM	05/11/2010
26992519	PERTIM	20/08/1973
27241974	PERTIM	10/02/2009
26977919	PERTIM	01/01/2004
27647466	PERTIM	04/11/2007
27420117	PERTIM	17/12/2008
27450296	PERTIM	05/05/2008
27565980	PERTIM	21/05/2007
27707969	PERTIM	10/01/1938
27614661	PERTIM	24/09/2009
27444018	PERTIM	16/09/2010
26835519	PERTIM	05/01/2008
27451015	PERTIM	12/12/2008
27541129	PERTIM	02/06/2006
428904	PERTIM	13/08/1998
27039129	PERTIM	08/01/2007
27812607	PERTIM	14/04/2009
27668465	PERTIM	14/05/2007
27794444	PERTIM	05/03/2008
27131143	PERTIM	31/01/2006
27010245	PERTIM	28/08/2008
27760726	PERTIM	11/08/2010
27795958	PERTIM	01/02/2008
33127148	PERTIM	06/03/1986
33051475	PERTIM	27/06/2006
2960263	PERTIM	02/08/2004
27948652	PERTIM	03/08/2010
33008945	PERTIM	18/10/2007
33062878	PERTIM	18/04/2011
33104988	PERTIM	20/02/2006
33002563	PERTIM	05/08/2004
33053587	PERTIM	20/06/2005
33315330	PERTIM	05/02/2010
21114923	PERTIM	12/12/1990
16174048	PERTIM	29/10/2007
16683760	PERTIM	06/02/2007
16679731	PERTIM	25/06/2009
16631902	PERTIM	24/01/2008
16615956	PERTIM	15/04/2003
24040104	PERTIM	25/10/2004
23364147	PERTIM	21/09/2010
23320103	PERTIM	17/01/2008
16173420	PERTIM	29/10/2007
33309872	PERTIM	08/05/2009
23354037	PERTIM	25/06/2008
27873639	PERTIM	10/11/2005
16647294	PERTIM	20/12/2003
31701811	PERTIM	15/03/2011
31654280	PERTIM	12/01/2011
32177764	PERTIM	26/02/2008
33256501	PERTIM	27/11/2006
20991046	PERTIM	20/02/2009
31100635	PERTIM	03/11/2006
31628609	PERTIM	26/12/2007
31376054	PERTIM	17/11/2001
31804323	PERTIM	06/10/2006
31318519	PERTIM	23/03/2011
31370018	PERTIM	18/12/2003
31031406	PERTIM	31/01/2007
31089833	PERTIM	18/09/2009
32195757	PERTIM	16/03/2011
31854978	PERTIM	25/04/2005
31673662	PERTIM	10/05/2005
31141532	PERTIM	16/06/2010
31451599	PERTIM	08/02/1993
31544473	PERTIM	21/02/2011
31491295	PERTIM	17/12/2007
31865846	PERTIM	04/11/2008
31302598	PERTIM	24/04/2006
32017791	PERTIM	01/10/2002
31207841	PERTIM	15/11/2004
31986897	PERTIM	22/08/2000
31611069	PERTIM	07/03/2007
31460974	PERTIM	25/10/2004
31353233	PERTIM	20/03/2003
31886963	PERTIM	19/05/2011
31768137	PERTIM	19/10/2010
32080851	PERTIM	03/10/2003
31349039	PERTIM	28/07/2008
31191279	PERTIM	24/04/2006
31439427	PERTIM	26/11/2009
31235668	PERTIM	17/10/2005
31192037	PERTIM	29/03/2005
32231153	PERTIM	25/03/2011
32256089	PERTIM	02/08/2010
31799301	PERTIM	10/03/2003
31278238	PERTIM	02/06/2004
32013154	PERTIM	03/07/2007
32187145	PERTIM	06/11/2008
31619861	PERTIM	01/01/1980
32101280	PERTIM	16/04/2002
31602842	PERTIM	28/04/2003
31777650	PERTIM	07/09/2007
31730830	PERTIM	02/10/2009
31692771	PERTIM	24/04/2007
31037681	PERTIM	05/06/2009
31250416	PERTIM	12/03/1983
31613115	PERTIM	22/03/1999
31349496	PERTIM	18/06/2004
31448756	PERTIM	25/06/2007
31683633	PERTIM	06/03/2001
31185558	PERTIM	04/12/2008
31138935	PERTIM	04/09/2009
31505974	PERTIM	19/11/1935
31674787	PERTIM	22/12/2008
32244935	PERTIM	15/07/2005
31366968	PERTIM	28/08/2000
31550481	PERTIM	20/11/2008
32027600	PERTIM	26/04/2006
32190244	PERTIM	11/12/2006
31327472	PERTIM	14/01/2008
31866208	PERTIM	18/12/2000
32152162	PERTIM	17/07/2007
32282934	PERTIM	04/09/2009
31204728	PERTIM	13/11/2006
32174291	PERTIM	01/01/1949
31643551	PERTIM	26/12/2005
32274601	PERTIM	25/04/2008
31371311	PERTIM	28/12/2005
31184768	PERTIM	07/02/2008
31370471	PERTIM	17/03/2009
31474824	PERTIM	11/07/2002
31988729	PERTIM	03/03/2009
31967869	PERTIM	03/01/2008
31492822	PERTIM	29/04/2005
31901716	PERTIM	31/03/2008
31033021	PERTIM	20/10/2006
31077067	PERTIM	27/10/2008
31460189	PERTIM	29/11/2001
31066627	PERTIM	27/01/2011
32277458	PERTIM	14/01/2002
31505069	PERTIM	18/03/2003
31445179	PERTIM	13/03/2009
31759301	PERTIM	14/05/1952
31381255	PERTIM	17/12/2007
31336713	PERTIM	08/10/2004
31520527	PERTIM	09/08/2007
31852625	PERTIM	09/04/2007
31385542	PERTIM	27/05/2007
31897753	PERTIM	20/05/2002
31063015	PERTIM	22/06/2007
31201499	PERTIM	21/06/2007
31600813	PERTIM	16/10/2000
31905871	PERTIM	02/08/2006
31858333	PERTIM	19/05/2010
31525212	PERTIM	20/07/2009
32281526	PERTIM	05/02/2002
32281524	PERTIM	23/03/2007
31166868	PERTIM	25/02/2011
31465706	PERTIM	26/09/2007
31572849	PERTIM	13/04/2010
31601681	PERTIM	15/02/2008
31479508	PERTIM	26/06/1949
31991628	PERTIM	11/05/2007
31615865	PERTIM	05/08/1961
31100263	PERTIM	23/02/1952
32016051	PERTIM	22/09/1996
31532038	PERTIM	07/02/2008
31427687	PERTIM	26/04/2002
