patient_id	covar_name	date
6094356	P01BA01	28/06/2007
8784477	P01BA01	05/07/2007
1124409	P01BA01	12/07/2002
12778736	P01BA01	14/12/2010
12789493	P01BA01	20/05/2010
745191	P01BA01	11/02/2005
3291696	P01BA01	25/04/2011
6417619	P01BA01	09/03/2009
12830621	P01BA01	10/07/2007
6035529	P01BA01	18/12/2008
7849206	P01BA01	05/10/2004
2068362	P01BA01	14/03/2005
2219403	P01BA01	18/02/2004
2042704	P01BA01	06/02/2009
2777314	P01BA01	10/05/2011
2573816	P01BA01	21/12/2007
2755318	P01BA01	06/08/2009
427733	P01BA01	06/09/2004
300617	P01BA01	07/08/2006
185667	P01BA01	23/05/2003
8427128	P01BA01	01/12/2005
649639	P01BA01	23/03/2006
24657144	P01BA01	17/07/2003
1366217	P01BA01	09/07/2004
1374923	P01BA01	25/11/2005
16568098	P01BA01	02/06/2004
2963653	P01BA01	26/10/2005
1909946	P01BA01	27/07/2004
1365497	P01BA01	19/06/2003
12994054	P01BA01	20/09/2005
17161572	P01BA01	23/06/2004
12977939	P01BA01	13/02/2001
26719273	P01BA01	24/10/2005
25722972	P01BA01	31/03/2003
26938219	P01BA01	27/11/2006
26932901	P01BA01	28/05/2007
26944861	P01BA01	08/02/2007
26876249	P01BA01	01/07/2005
26941964	P01BA01	07/08/2008
26847234	P01BA01	25/02/2009
27051385	P01BA01	13/07/2007
27327490	P01BA01	16/11/2005
27389561	P01BA01	17/06/2005
27254123	P01BA01	08/06/2006
27304771	P01BA01	13/09/2007
27359283	P01BA01	07/09/2005
27250923	P01BA01	21/03/2011
27169743	P01BA01	27/06/2006
26979651	P01BA01	09/06/2004
27641028	P01BA01	04/05/2004
27481161	P01BA01	21/10/2005
27420519	P01BA01	09/03/2007
27693974	P01BA01	07/02/2011
27144212	P01BA01	19/12/2005
27148577	P01BA01	30/01/2008
27137709	P01BA01	09/06/2008
27674222	P01BA01	03/02/2006
27682752	P01BA01	14/07/2004
27686666	P01BA01	29/09/2004
27687393	P01BA01	03/09/2004
27519199	P01BA01	21/07/2004
27244108	P01BA01	04/10/2007
26768870	P01BA01	05/04/2011
27508461	P01BA01	09/04/2001
27285481	P01BA01	27/12/2005
33011953	P01BA01	02/11/2007
23363648	P01BA01	28/12/2007
16169119	P01BA01	12/07/2007
33224635	P01BA01	11/04/2007
28016533	P01BA01	07/04/2008
16648559	P01BA01	23/05/2008
16684728	P01BA01	04/04/2005
16169045	P01BA01	08/08/2007
33314253	P01BA01	06/04/2009
33315149	P01BA01	04/02/2008
23349644	P01BA01	18/05/2006
32162962	P01BA01	17/06/1999
31061135	P01BA01	05/02/2001
31781231	P01BA01	07/02/2005
31738064	P01BA01	30/11/2010
31752489	P01BA01	28/03/2007
31270762	P01BA01	05/09/2007
31615997	P01BA01	27/04/2006
31569317	P01BA01	13/06/2003
32071256	P01BA01	03/11/2009
32236449	P01BA01	22/11/2001
31085367	P01BA01	25/08/2003
31519880	P01BA01	08/02/2007
31925292	P01BA01	07/12/2005
31085609	P01BA01	04/03/2004
31507461	P01BA01	07/12/2009
31863507	P01BA01	15/07/2004
