patient_id	covar_name	date
16557490	R01AD12	14/04/2009
8582729	R01AD12	13/05/2011
21871733	R01AD12	13/05/2010
12760945	R01AD12	06/05/2009
6417675	R01AD12	10/05/2010
1067353	R01AD12	05/12/2008
9284209	R01AD12	23/02/2011
18693875	R01AD12	28/02/2011
12761824	R01AD12	02/03/2011
17175397	R01AD12	29/12/2009
8980074	R01AD12	07/03/2011
12791129	R01AD12	28/05/2010
6746540	R01AD12	30/05/2011
10393855	R01AD12	11/05/2011
10004067	R01AD12	21/07/2010
9356877	R01AD12	25/04/2011
9310935	R01AD12	16/06/2010
9319944	R01AD12	26/04/2011
12772856	R01AD12	06/04/2010
12760385	R01AD12	29/11/2010
9208920	R01AD12	05/05/2011
12760901	R01AD12	16/02/2011
8979424	R01AD12	26/05/2011
21371425	R01AD12	09/03/2011
14804427	R01AD12	03/03/2011
21152371	R01AD12	16/09/2010
16923051	R01AD12	17/05/2010
1123071	R01AD12	07/04/2011
8672217	R01AD12	18/05/2011
13825733	R01AD12	19/05/2009
1936284	R01AD12	15/11/2010
12731343	R01AD12	28/02/2011
608929	R01AD12	27/03/2011
19179439	R01AD12	21/01/2011
9268428	R01AD12	10/03/2010
16087795	R01AD12	26/11/2009
18773958	R01AD12	14/03/2011
9348189	R01AD12	29/06/2010
17172613	R01AD12	09/02/2011
12738323	R01AD12	28/05/2010
12493656	R01AD12	10/05/2011
20283218	R01AD12	02/03/2010
10270239	R01AD12	04/10/2010
21859998	R01AD12	01/06/2010
9388841	R01AD12	22/03/2011
9377737	R01AD12	22/06/2010
9372898	R01AD12	24/03/2011
13222335	R01AD12	18/05/2010
24764553	R01AD12	01/04/2011
1125167	R01AD12	13/05/2011
9250589	R01AD12	16/09/2009
9250646	R01AD12	31/05/2010
7244033	R01AD12	20/09/2010
6746935	R01AD12	24/03/2011
15832369	R01AD12	11/04/2011
19179194	R01AD12	21/03/2011
10333573	R01AD12	25/05/2011
7033654	R01AD12	10/02/2009
10332543	R01AD12	25/05/2011
3318713	R01AD12	26/01/2011
16530003	R01AD12	26/05/2010
16559495	R01AD12	14/01/2011
13825656	R01AD12	31/05/2010
1517271	R01AD12	08/02/2010
16487315	R01AD12	29/04/2010
9387966	R01AD12	01/09/2009
12790442	R01AD12	17/03/2010
8277777	R01AD12	11/02/2011
13539265	R01AD12	12/01/2010
21370047	R01AD12	06/05/2011
21871204	R01AD12	26/03/2009
6039984	R01AD12	23/04/2010
16929819	R01AD12	07/06/2010
16557722	R01AD12	19/02/2009
10247645	R01AD12	18/10/2010
1607075	R01AD12	18/03/2011
24930409	R01AD12	23/04/2010
14651558	R01AD12	26/05/2011
8974881	R01AD12	30/07/2010
16530277	R01AD12	10/05/2011
9389469	R01AD12	25/05/2010
7094856	R01AD12	19/05/2010
16929923	R01AD12	20/04/2011
3292946	R01AD12	04/05/2011
12478455	R01AD12	27/04/2011
12772844	R01AD12	18/01/2011
10148015	R01AD12	09/05/2011
17169516	R01AD12	05/05/2010
8582021	R01AD12	29/11/2010
23455252	R01AD12	21/05/2010
12790379	R01AD12	28/12/2010
1964545	R01AD12	04/06/2010
19152757	R01AD12	18/02/2011
14013697	R01AD12	03/06/2009
6757185	R01AD12	26/03/2010
24765208	R01AD12	01/06/2009
24764199	R01AD12	11/05/2011
14771572	R01AD12	21/05/2010
8409503	R01AD12	23/04/2010
3304386	R01AD12	04/04/2011
8777089	R01AD12	26/05/2010
3502209	R01AD12	07/02/2011
3122199	R01AD12	03/12/2010
9984869	R01AD12	26/11/2010
24765014	R01AD12	16/04/2010
25177328	R01AD12	18/02/2010
21369952	R01AD12	18/05/2011
12758910	R01AD12	14/04/2011
6411345	R01AD12	25/05/2011
1199399	R01AD12	05/05/2011
673940	R01AD12	16/10/2009
6594762	R01AD12	17/03/2011
404928	R01AD12	19/05/2010
6326908	R01AD12	13/09/2010
1054373	R01AD12	27/02/2009
7588212	R01AD12	28/08/2010
565093	R01AD12	06/04/2011
1351045	R01AD12	04/06/2010
674612	R01AD12	26/09/2009
6841374	R01AD12	06/05/2009
18038827	R01AD12	22/03/2011
1199932	R01AD12	01/09/2010
18366741	R01AD12	04/04/2011
514845	R01AD12	15/01/2010
3058695	R01AD12	31/07/2010
1545533	R01AD12	23/02/2011
1853285	R01AD12	10/07/2009
25314857	R01AD12	13/05/2010
1418406	R01AD12	22/12/2010
524498	R01AD12	27/08/2009
639892	R01AD12	21/01/2011
516414	R01AD12	03/05/2011
2723839	R01AD12	28/12/2010
1379688	R01AD12	10/03/2011
9873104	R01AD12	07/03/2011
4700483	R01AD12	11/03/2010
6633918	R01AD12	14/12/2010
26143816	R01AD12	12/04/2011
1353307	R01AD12	26/03/2009
641468	R01AD12	02/02/2010
1424903	R01AD12	23/02/2011
8932937	R01AD12	15/12/2010
515728	R01AD12	17/12/2010
1658853	R01AD12	06/10/2010
1276375	R01AD12	21/05/2011
1353504	R01AD12	04/05/2011
1665187	R01AD12	21/10/2010
6597198	R01AD12	12/04/2011
7776505	R01AD12	06/10/2010
22270819	R01AD12	24/11/2009
1850567	R01AD12	21/12/2009
4700472	R01AD12	19/05/2010
8066983	R01AD12	19/05/2011
1320212	R01AD12	07/05/2010
13578262	R01AD12	14/02/2011
6425452	R01AD12	30/05/2011
1202019	R01AD12	07/06/2010
1443262	R01AD12	15/10/2010
7779623	R01AD12	07/03/2011
6211843	R01AD12	02/07/2009
7697001	R01AD12	05/02/2010
1855692	R01AD12	25/01/2010
1129404	R01AD12	25/04/2011
5975450	R01AD12	12/11/2010
1133221	R01AD12	02/02/2011
1067145	R01AD12	18/03/2009
4682577	R01AD12	05/02/2009
12189499	R01AD12	17/06/2010
5977340	R01AD12	18/10/2010
1110947	R01AD12	12/05/2010
1130346	R01AD12	27/05/2009
7968651	R01AD12	03/05/2010
9873112	R01AD12	07/11/2008
1647348	R01AD12	15/12/2008
486362	R01AD12	16/03/2010
1100704	R01AD12	17/06/2010
1110970	R01AD12	20/04/2011
996504	R01AD12	12/05/2011
996228	R01AD12	28/10/2010
1637952	R01AD12	06/05/2009
6925973	R01AD12	07/05/2010
25891515	R01AD12	13/04/2011
25750805	R01AD12	31/05/2011
1006203	R01AD12	10/09/2010
486308	R01AD12	22/02/2011
1550733	R01AD12	15/01/2009
1106686	R01AD12	12/04/2010
1107450	R01AD12	12/01/2010
1856371	R01AD12	23/05/2011
3656051	R01AD12	30/11/2009
25894546	R01AD12	28/10/2010
487173	R01AD12	10/05/2011
16037893	R01AD12	18/05/2010
487002	R01AD12	18/02/2009
889933	R01AD12	22/04/2010
2164170	R01AD12	06/05/2011
2087755	R01AD12	05/04/2011
2140698	R01AD12	18/04/2011
878296	R01AD12	21/02/2011
1753997	R01AD12	04/05/2009
902142	R01AD12	19/01/2011
2037442	R01AD12	01/06/2010
7134077	R01AD12	20/04/2010
3050342	R01AD12	20/01/2011
2778396	R01AD12	22/05/2009
3053379	R01AD12	24/03/2011
7073226	R01AD12	25/03/2011
2523375	R01AD12	27/07/2010
2757185	R01AD12	22/01/2010
2779963	R01AD12	06/04/2011
2759074	R01AD12	17/01/2010
2765080	R01AD12	06/04/2011
2410382	R01AD12	04/03/2011
2525970	R01AD12	22/05/2011
2574203	R01AD12	21/05/2010
2520816	R01AD12	30/04/2010
16961600	R01AD12	07/02/2011
26488201	R01AD12	08/04/2010
26350464	R01AD12	06/04/2011
9586412	R01AD12	31/05/2010
7228407	R01AD12	08/04/2011
26181280	R01AD12	05/04/2011
20147606	R01AD12	02/06/2009
18225788	R01AD12	06/04/2011
17219245	R01AD12	17/09/2010
9739529	R01AD12	02/01/2010
19364998	R01AD12	12/06/2009
26350360	R01AD12	07/06/2010
26349981	R01AD12	10/09/2010
16962020	R01AD12	24/02/2011
17041018	R01AD12	15/02/2011
12735396	R01AD12	24/03/2011
1912881	R01AD12	17/11/2009
4110200	R01AD12	06/09/2010
5074918	R01AD12	01/12/2010
4328546	R01AD12	23/05/2011
302105	R01AD12	21/02/2011
28078399	R01AD12	08/04/2010
26478054	R01AD12	07/02/2011
28080679	R01AD12	18/04/2011
28078258	R01AD12	17/06/2010
2754223	R01AD12	22/09/2010
426906	R01AD12	04/02/2009
420981	R01AD12	16/09/2010
26321742	R01AD12	26/11/2010
301668	R01AD12	17/02/2011
464887	R01AD12	18/03/2010
179341	R01AD12	05/10/2009
433324	R01AD12	03/01/2011
265148	R01AD12	16/12/2009
28080744	R01AD12	17/12/2010
24669944	R01AD12	20/01/2011
25542770	R01AD12	08/09/2009
24669031	R01AD12	21/02/2011
25707060	R01AD12	14/04/2011
24578706	R01AD12	04/11/2010
24666868	R01AD12	11/03/2010
24662063	R01AD12	22/12/2010
24662681	R01AD12	29/03/2011
25743018	R01AD12	12/05/2010
24668966	R01AD12	18/05/2010
1369798	R01AD12	04/11/2010
1363712	R01AD12	03/03/2011
1365475	R01AD12	23/11/2010
39843	R01AD12	19/05/2011
1371686	R01AD12	24/01/2011
1369224	R01AD12	12/06/2009
1908296	R01AD12	26/03/2009
1372631	R01AD12	27/05/2011
1360573	R01AD12	28/04/2011
19279900	R01AD12	15/11/2009
18197953	R01AD12	06/05/2011
18199277	R01AD12	29/03/2011
19801160	R01AD12	19/11/2009
18199365	R01AD12	14/05/2010
22757992	R01AD12	26/02/2009
2987616	R01AD12	06/07/2009
1369901	R01AD12	29/11/2010
23484214	R01AD12	01/09/2009
26719762	R01AD12	28/08/2009
26796008	R01AD12	10/02/2011
26800096	R01AD12	19/03/2011
26776918	R01AD12	05/10/2010
26722489	R01AD12	13/07/2009
26858886	R01AD12	01/02/2011
11675108	R01AD12	07/01/2011
17125574	R01AD12	23/01/2009
22723531	R01AD12	01/12/2010
12952403	R01AD12	01/02/2010
24578616	R01AD12	07/07/2010
10824686	R01AD12	07/04/2011
12881814	R01AD12	26/05/2010
26717944	R01AD12	28/05/2010
16844069	R01AD12	25/05/2010
26703594	R01AD12	10/08/2010
21553577	R01AD12	17/08/2010
24485421	R01AD12	02/06/2010
21552655	R01AD12	24/12/2010
24579535	R01AD12	24/02/2009
24581513	R01AD12	09/06/2010
26937774	R01AD12	13/08/2009
26935041	R01AD12	04/04/2011
26935514	R01AD12	18/04/2011
26896002	R01AD12	13/05/2011
26961171	R01AD12	23/12/2010
26947025	R01AD12	14/03/2011
26930368	R01AD12	03/09/2010
26901476	R01AD12	25/10/2010
26943767	R01AD12	14/04/2011
26944305	R01AD12	03/11/2010
26915478	R01AD12	14/04/2011
26878505	R01AD12	23/08/2010
26715077	R01AD12	06/04/2011
26742016	R01AD12	15/07/2010
26713107	R01AD12	18/05/2011
26703743	R01AD12	07/07/2010
26847741	R01AD12	27/07/2010
26717587	R01AD12	18/01/2010
26882085	R01AD12	13/05/2009
26879789	R01AD12	19/05/2011
26886743	R01AD12	22/03/2011
26936559	R01AD12	06/04/2011
26961482	R01AD12	12/05/2010
26877189	R01AD12	29/05/2011
26939100	R01AD12	19/08/2010
26864451	R01AD12	04/04/2011
26864788	R01AD12	22/12/2010
26974838	R01AD12	15/12/2009
27073378	R01AD12	19/07/2010
26979143	R01AD12	10/01/2011
26976941	R01AD12	09/02/2010
26939494	R01AD12	31/08/2010
27032728	R01AD12	28/04/2011
26957609	R01AD12	16/11/2010
26973247	R01AD12	18/11/2010
27066915	R01AD12	16/09/2010
26972749	R01AD12	21/02/2011
27134245	R01AD12	16/02/2011
27099894	R01AD12	07/05/2010
27130220	R01AD12	26/11/2009
27055689	R01AD12	01/06/2011
27043858	R01AD12	20/05/2011
27074167	R01AD12	27/05/2010
27062865	R01AD12	03/01/2011
27082854	R01AD12	26/05/2011
27111295	R01AD12	19/02/2010
27002175	R01AD12	12/03/2010
26994451	R01AD12	04/05/2011
27025901	R01AD12	18/10/2010
27001937	R01AD12	06/05/2010
27000123	R01AD12	22/05/2011
26991219	R01AD12	11/11/2010
27039270	R01AD12	07/06/2010
26996932	R01AD12	20/09/2010
27022026	R01AD12	20/12/2010
27325120	R01AD12	14/04/2009
27233913	R01AD12	18/08/2009
27326823	R01AD12	28/12/2010
27348961	R01AD12	13/11/2009
27148036	R01AD12	18/02/2009
27324862	R01AD12	25/08/2010
27347868	R01AD12	10/01/2011
27367404	R01AD12	04/09/2010
27244538	R01AD12	17/02/2011
27307620	R01AD12	17/09/2010
27320717	R01AD12	27/01/2011
27306463	R01AD12	11/12/2010
27347347	R01AD12	05/10/2010
27347786	R01AD12	02/12/2009
27383808	R01AD12	02/03/2011
27348355	R01AD12	26/11/2009
27349506	R01AD12	08/02/2011
27221923	R01AD12	07/12/2010
26989993	R01AD12	25/05/2010
26981482	R01AD12	30/04/2010
26957165	R01AD12	24/05/2010
26979514	R01AD12	28/02/2011
27237009	R01AD12	14/09/2009
27171402	R01AD12	14/05/2010
27645183	R01AD12	10/08/2010
27577686	R01AD12	23/07/2009
27600699	R01AD12	29/01/2009
27570888	R01AD12	05/10/2009
27576444	R01AD12	20/04/2011
27574398	R01AD12	26/10/2010
27481247	R01AD12	16/02/2010
27419361	R01AD12	03/09/2010
27473325	R01AD12	09/04/2010
27660500	R01AD12	08/10/2010
27484556	R01AD12	25/11/2009
27639625	R01AD12	12/05/2011
27479215	R01AD12	09/11/2010
27414832	R01AD12	24/06/2010
27481454	R01AD12	08/06/2010
27647542	R01AD12	12/06/2009
27543776	R01AD12	18/05/2010
27616208	R01AD12	29/09/2010
27719211	R01AD12	03/09/2010
27564567	R01AD12	22/09/2009
27570296	R01AD12	16/05/2011
27565319	R01AD12	07/12/2009
27763547	R01AD12	16/05/2011
27614661	R01AD12	07/01/2009
27616396	R01AD12	23/03/2011
27614610	R01AD12	05/03/2009
27720952	R01AD12	16/09/2010
27544033	R01AD12	23/12/2009
27572256	R01AD12	24/11/2009
27568394	R01AD12	26/01/2011
27633086	R01AD12	09/09/2009
27571153	R01AD12	06/11/2009
27287526	R01AD12	20/04/2011
27228930	R01AD12	15/02/2011
27160441	R01AD12	16/07/2010
27144885	R01AD12	14/06/2010
27161557	R01AD12	06/09/2010
27476332	R01AD12	12/05/2011
27623618	R01AD12	18/05/2011
26872280	R01AD12	18/03/2011
26702902	R01AD12	17/02/2011
26719017	R01AD12	22/12/2010
26944101	R01AD12	08/10/2010
1905474	R01AD12	10/05/2010
26724510	R01AD12	19/05/2011
26707572	R01AD12	09/05/2011
12974157	R01AD12	20/05/2010
27252613	R01AD12	13/01/2011
27780243	R01AD12	10/11/2009
27301418	R01AD12	05/03/2009
27533964	R01AD12	05/01/2009
27662387	R01AD12	09/08/2009
27673275	R01AD12	17/05/2011
27771832	R01AD12	05/05/2011
27519040	R01AD12	18/01/2011
27767169	R01AD12	22/06/2010
27663578	R01AD12	13/04/2011
27679944	R01AD12	06/05/2011
27664133	R01AD12	18/02/2010
301444	R01AD12	07/04/2011
27668157	R01AD12	23/06/2010
27687393	R01AD12	25/05/2011
27379817	R01AD12	03/03/2011
27029757	R01AD12	16/09/2010
27664506	R01AD12	28/02/2011
27688275	R01AD12	01/06/2011
27682306	R01AD12	12/05/2011
27591660	R01AD12	19/05/2011
27315810	R01AD12	22/12/2010
27450937	R01AD12	13/04/2011
27576113	R01AD12	02/03/2011
27456300	R01AD12	01/06/2009
27307759	R01AD12	24/05/2010
27449985	R01AD12	20/05/2011
27597806	R01AD12	08/02/2011
27576785	R01AD12	05/04/2011
26804417	R01AD12	02/06/2009
22883469	R01AD12	10/01/2011
2958933	R01AD12	22/06/2010
27717617	R01AD12	13/03/2009
27708099	R01AD12	08/02/2010
27693596	R01AD12	25/06/2009
27716869	R01AD12	11/12/2009
27072072	R01AD12	02/11/2010
27000149	R01AD12	08/03/2011
27664220	R01AD12	28/03/2011
27708406	R01AD12	03/02/2011
27648962	R01AD12	25/09/2009
27786169	R01AD12	26/01/2011
27572089	R01AD12	21/09/2009
18198960	R01AD12	17/11/2010
27765674	R01AD12	22/06/2010
27799204	R01AD12	14/02/2011
27771604	R01AD12	20/05/2011
33090904	R01AD12	18/03/2010
33023244	R01AD12	01/06/2010
33100103	R01AD12	05/01/2011
33051475	R01AD12	12/03/2010
33061832	R01AD12	17/05/2011
33071870	R01AD12	01/10/2010
33093855	R01AD12	29/07/2010
33026002	R01AD12	03/06/2010
33065445	R01AD12	13/05/2010
33073090	R01AD12	19/04/2011
33022204	R01AD12	21/05/2009
33080053	R01AD12	13/05/2009
33113036	R01AD12	03/03/2010
33131703	R01AD12	03/06/2010
33015423	R01AD12	02/03/2011
33116452	R01AD12	23/12/2010
33027727	R01AD12	28/01/2010
33105550	R01AD12	09/03/2011
33019290	R01AD12	14/07/2010
33052701	R01AD12	29/12/2010
33015969	R01AD12	27/10/2009
33071282	R01AD12	16/03/2009
33052309	R01AD12	24/11/2010
33055257	R01AD12	20/05/2009
33054849	R01AD12	09/09/2010
33113250	R01AD12	24/10/2008
25624094	R01AD12	08/06/2009
27680372	R01AD12	28/06/2010
620129	R01AD12	23/09/2009
27794998	R01AD12	21/01/2009
27800569	R01AD12	28/10/2010
13498162	R01AD12	19/05/2011
33072648	R01AD12	26/05/2011
21114914	R01AD12	01/06/2009
33091669	R01AD12	05/04/2011
33109924	R01AD12	19/04/2011
33245195	R01AD12	20/05/2009
16625814	R01AD12	05/04/2010
23408879	R01AD12	18/06/2010
16625816	R01AD12	25/05/2011
33016132	R01AD12	28/03/2011
33068298	R01AD12	02/12/2009
33025298	R01AD12	07/05/2010
33087469	R01AD12	11/06/2010
33035010	R01AD12	06/05/2010
33105699	R01AD12	24/02/2011
33081683	R01AD12	23/03/2010
33104781	R01AD12	02/03/2011
33112009	R01AD12	11/05/2010
33061115	R01AD12	13/10/2009
33109220	R01AD12	11/03/2011
33091039	R01AD12	26/03/2010
33027780	R01AD12	29/12/2010
33085707	R01AD12	24/01/2011
16616691	R01AD12	29/11/2010
16774206	R01AD12	04/05/2011
16652899	R01AD12	24/02/2011
33284919	R01AD12	08/07/2009
33288807	R01AD12	25/05/2009
16708563	R01AD12	20/04/2010
33224375	R01AD12	24/05/2010
20983485	R01AD12	06/05/2009
33244694	R01AD12	26/11/2008
16615956	R01AD12	11/05/2011
33224217	R01AD12	21/01/2010
16708333	R01AD12	04/04/2010
33304547	R01AD12	01/06/2011
16610882	R01AD12	27/05/2011
18762892	R01AD12	29/12/2010
21001195	R01AD12	16/04/2011
16183931	R01AD12	22/05/2010
28020948	R01AD12	15/04/2010
28022811	R01AD12	30/05/2011
23329499	R01AD12	23/05/2011
33221866	R01AD12	28/01/2011
33293247	R01AD12	06/01/2010
16177766	R01AD12	23/09/2009
23386984	R01AD12	22/07/2009
33229250	R01AD12	19/05/2009
33224173	R01AD12	28/01/2010
16135659	R01AD12	26/03/2010
23412035	R01AD12	02/03/2010
23367450	R01AD12	29/04/2011
23325700	R01AD12	27/05/2011
16124191	R01AD12	01/08/2009
16626172	R01AD12	15/09/2010
33314198	R01AD12	05/05/2011
33224587	R01AD12	04/04/2011
18755562	R01AD12	08/09/2010
33210072	R01AD12	12/07/2010
18769100	R01AD12	17/06/2010
21117354	R01AD12	18/03/2011
33254059	R01AD12	03/05/2010
23410797	R01AD12	11/03/2010
20985728	R01AD12	10/02/2010
23354037	R01AD12	04/06/2010
23354572	R01AD12	28/03/2011
33235413	R01AD12	23/11/2010
33244635	R01AD12	02/03/2010
27864923	R01AD12	24/03/2011
23362182	R01AD12	19/01/2011
28021159	R01AD12	07/09/2009
29072859	R01AD12	09/02/2011
16130997	R01AD12	03/06/2009
21015163	R01AD12	27/05/2010
33244259	R01AD12	22/05/2009
18761634	R01AD12	21/04/2009
16634249	R01AD12	02/03/2010
28012288	R01AD12	10/11/2009
23344022	R01AD12	03/03/2011
33253232	R01AD12	04/10/2010
23369142	R01AD12	26/08/2010
21011384	R01AD12	15/04/2011
16598711	R01AD12	22/02/2011
16603132	R01AD12	22/02/2010
23354017	R01AD12	10/05/2011
23371485	R01AD12	16/05/2011
20985173	R01AD12	05/05/2011
23289842	R01AD12	08/03/2011
23397797	R01AD12	22/07/2010
31270455	R01AD12	18/09/2009
31493568	R01AD12	21/10/2009
31857691	R01AD12	08/02/2011
31376054	R01AD12	07/02/2011
31878887	R01AD12	23/03/2010
31340724	R01AD12	05/07/2010
32279478	R01AD12	15/10/2010
32109811	R01AD12	12/01/2010
32091220	R01AD12	27/01/2009
31438930	R01AD12	07/05/2010
31750270	R01AD12	20/03/2009
31557548	R01AD12	21/01/2011
31509040	R01AD12	03/07/2009
31114447	R01AD12	10/06/2009
32082651	R01AD12	20/12/2010
32147380	R01AD12	20/07/2010
31641190	R01AD12	15/11/2010
32158065	R01AD12	26/10/2010
31982595	R01AD12	28/04/2010
31479689	R01AD12	09/03/2009
32270063	R01AD12	02/02/2011
31290473	R01AD12	08/04/2011
32242266	R01AD12	29/10/2008
31277849	R01AD12	20/04/2009
31452561	R01AD12	22/05/2009
31828339	R01AD12	25/11/2008
31332969	R01AD12	28/09/2009
32278847	R01AD12	18/03/2009
31282769	R01AD12	08/05/2009
31539772	R01AD12	19/05/2009
31556931	R01AD12	02/04/2009
31463027	R01AD12	27/01/2010
31188550	R01AD12	04/03/2011
31122373	R01AD12	08/06/2010
31848831	R01AD12	13/05/2009
31580317	R01AD12	12/05/2011
31625792	R01AD12	25/09/2009
31447465	R01AD12	15/10/2010
31499655	R01AD12	03/11/2010
31033502	R01AD12	30/12/2009
31171281	R01AD12	06/04/2011
31801055	R01AD12	30/12/2009
31308618	R01AD12	04/11/2010
31689445	R01AD12	06/04/2009
31068124	R01AD12	27/04/2009
31793330	R01AD12	21/05/2009
31980687	R01AD12	27/10/2010
31731142	R01AD12	24/02/2011
32116733	R01AD12	11/03/2009
31349798	R01AD12	06/04/2011
31643795	R01AD12	10/08/2009
31403171	R01AD12	14/05/2009
31244080	R01AD12	06/10/2009
32088968	R01AD12	30/03/2010
31215534	R01AD12	04/06/2010
32265236	R01AD12	21/01/2011
31255353	R01AD12	12/05/2010
31915839	R01AD12	19/05/2009
31155017	R01AD12	08/10/2009
31446397	R01AD12	19/10/2009
31546492	R01AD12	04/06/2010
31646493	R01AD12	19/10/2009
31380056	R01AD12	21/05/2010
31060856	R01AD12	03/05/2010
31981387	R01AD12	04/12/2009
31795089	R01AD12	17/12/2010
31807086	R01AD12	28/07/2009
31283871	R01AD12	06/07/2009
31869498	R01AD12	24/02/2011
31339785	R01AD12	14/07/2010
32209727	R01AD12	27/11/2009
32281133	R01AD12	18/05/2009
31909860	R01AD12	26/02/2009
31140401	R01AD12	10/03/2010
31883298	R01AD12	04/11/2010
31217806	R01AD12	02/03/2009
32248313	R01AD12	02/06/2009
31621374	R01AD12	28/05/2010
31846862	R01AD12	25/01/2011
32109768	R01AD12	29/05/2009
31833801	R01AD12	18/03/2009
32239114	R01AD12	08/10/2008
31387045	R01AD12	09/03/2011
31847445	R01AD12	18/03/2009
31848757	R01AD12	29/12/2008
31573902	R01AD12	28/04/2009
31300735	R01AD12	13/11/2008
31251502	R01AD12	06/05/2010
31818087	R01AD12	25/06/2009
31209696	R01AD12	31/05/2011
31744922	R01AD12	22/10/2010
31070900	R01AD12	03/11/2009
31680442	R01AD12	16/03/2009
31436135	R01AD12	15/11/2010
31951386	R01AD12	23/04/2010
31430690	R01AD12	09/09/2010
31165938	R01AD12	14/07/2010
32064941	R01AD12	08/04/2011
31917595	R01AD12	05/01/2009
