patient_id	covar_name	date
24938794	R03AC18	13/05/2011
23454844	R03AC18	19/05/2011
6749700	R03AC18	27/12/2010
21152431	R03AC18	22/03/2011
1069269	R03AC18	24/05/2011
9984869	R03AC18	03/05/2011
24721032	R03AC18	02/02/2011
7966461	R03AC18	31/05/2011
21282892	R03AC18	18/11/2010
1646970	R03AC18	28/04/2011
1134812	R03AC18	24/03/2011
2574919	R03AC18	01/06/2011
18471446	R03AC18	04/03/2011
26423547	R03AC18	31/05/2011
26236453	R03AC18	30/11/2010
27045550	R03AC18	06/04/2011
27360858	R03AC18	04/05/2011
27253841	R03AC18	15/10/2010
27657965	R03AC18	15/05/2011
27646502	R03AC18	28/10/2010
33034999	R03AC18	24/02/2011
16712757	R03AC18	21/03/2011
33309857	R03AC18	18/05/2011
16625746	R03AC18	07/01/2011
16652659	R03AC18	03/02/2011
31487753	R03AC18	18/01/2011
23353743	R03AC18	03/05/2011
33224929	R03AC18	11/05/2011
31121620	R03AC18	21/01/2011
31407086	R03AC18	24/02/2011
32057478	R03AC18	24/11/2010
