patient_id	covar_name	date
8654002	R06AX26	18/09/2008
61642	R06AX26	25/04/2002
6749631	R06AX26	02/03/2010
1731330	R06AX26	24/06/2002
8655621	R06AX26	24/05/2007
17216037	R06AX26	03/07/2007
14816698	R06AX26	21/08/2008
16530698	R06AX26	23/03/2011
9385413	R06AX26	04/05/2004
9328550	R06AX26	18/09/2009
9215041	R06AX26	30/03/2011
12779443	R06AX26	03/06/2004
6298556	R06AX26	16/05/2011
11994028	R06AX26	09/09/2003
12696060	R06AX26	07/06/2010
704332	R06AX26	18/04/2007
3321745	R06AX26	20/05/2008
1069732	R06AX26	26/05/2010
7340423	R06AX26	03/07/2008
9386735	R06AX26	25/05/2010
12764766	R06AX26	26/12/2007
8976554	R06AX26	24/05/2006
5867543	R06AX26	14/02/2011
740565	R06AX26	26/04/2011
2563973	R06AX26	18/07/2006
9300058	R06AX26	07/08/2007
8652236	R06AX26	10/05/2011
1517537	R06AX26	26/06/2002
209616	R06AX26	25/04/2008
1069292	R06AX26	07/04/2010
7244033	R06AX26	17/09/2003
16531942	R06AX26	21/05/2009
12182584	R06AX26	21/08/2003
12173193	R06AX26	07/05/2003
3320549	R06AX26	27/04/2011
5201865	R06AX26	16/02/2010
21152720	R06AX26	20/11/2007
12782081	R06AX26	29/05/2008
603045	R06AX26	09/04/2008
8639773	R06AX26	02/08/2010
7093427	R06AX26	25/11/2004
1432627	R06AX26	02/08/2000
16530402	R06AX26	03/06/2009
15237928	R06AX26	05/03/2007
3940176	R06AX26	11/07/2005
14982885	R06AX26	03/04/2006
6749295	R06AX26	15/06/2007
1515452	R06AX26	04/09/2009
16530277	R06AX26	10/05/2011
8654015	R06AX26	14/03/2007
7244041	R06AX26	28/10/2004
9231681	R06AX26	09/05/2011
12242307	R06AX26	18/10/2004
11661691	R06AX26	22/03/2011
16100399	R06AX26	14/01/2004
8981255	R06AX26	11/05/2007
8573478	R06AX26	30/05/2005
9285500	R06AX26	14/08/2007
16100898	R06AX26	31/03/2003
9387904	R06AX26	27/12/2010
8654951	R06AX26	16/10/2006
10004108	R06AX26	30/04/2010
24729383	R06AX26	15/06/2004
673940	R06AX26	03/08/2009
6599595	R06AX26	06/09/2005
13734382	R06AX26	25/09/2008
1353271	R06AX26	09/03/2000
6596931	R06AX26	30/05/2005
1547134	R06AX26	30/04/2004
5489882	R06AX26	09/05/2011
13985993	R06AX26	01/07/2009
438081	R06AX26	10/02/2003
8956630	R06AX26	03/09/2004
1349535	R06AX26	27/03/2009
1354463	R06AX26	16/03/2009
1320212	R06AX26	15/02/2005
7847509	R06AX26	06/07/2005
1262678	R06AX26	30/08/2000
13264943	R06AX26	01/03/2010
1420230	R06AX26	21/02/2008
1419033	R06AX26	20/12/2001
1351090	R06AX26	09/12/2005
6598956	R06AX26	10/10/2001
1852962	R06AX26	28/05/2004
716428	R06AX26	23/02/2007
716688	R06AX26	03/05/2004
717208	R06AX26	11/03/2004
716273	R06AX26	16/07/2009
13733143	R06AX26	04/03/2009
1647348	R06AX26	13/11/2006
716118	R06AX26	23/02/2004
1103491	R06AX26	28/08/2003
718128	R06AX26	26/05/2004
1856200	R06AX26	18/10/2001
6392849	R06AX26	26/11/2010
25894610	R06AX26	21/02/2007
134966	R06AX26	18/03/1999
715994	R06AX26	18/05/2011
1639196	R06AX26	18/08/2006
1856271	R06AX26	14/04/2004
10715787	R06AX26	08/07/2010
1639147	R06AX26	16/03/2007
717761	R06AX26	22/04/2004
25913321	R06AX26	03/05/2010
1101335	R06AX26	15/03/2000
1639056	R06AX26	29/06/2001
1552120	R06AX26	17/10/2001
717109	R06AX26	21/01/2005
1100350	R06AX26	28/12/2009
715906	R06AX26	26/09/2002
878003	R06AX26	03/09/2003
2037558	R06AX26	23/06/2008
2763148	R06AX26	13/05/2011
3054956	R06AX26	14/01/2005
16836109	R06AX26	20/03/2007
302918	R06AX26	12/11/2001
1905961	R06AX26	16/03/2005
419475	R06AX26	20/11/1999
434879	R06AX26	19/07/2009
13520117	R06AX26	11/03/2004
424750	R06AX26	07/03/2010
186070	R06AX26	08/01/2011
433666	R06AX26	29/04/2006
28080549	R06AX26	15/01/2011
24661878	R06AX26	10/05/2004
25742981	R06AX26	21/06/2007
25738827	R06AX26	15/03/2010
25745431	R06AX26	06/06/2007
1374811	R06AX26	25/11/1998
21553830	R06AX26	28/12/2006
18189751	R06AX26	29/01/2007
22757992	R06AX26	19/08/2008
18195492	R06AX26	24/06/2004
1903130	R06AX26	03/11/2007
2251076	R06AX26	06/05/2011
1899523	R06AX26	03/01/2011
1906478	R06AX26	09/10/2009
26642469	R06AX26	15/01/2007
26778699	R06AX26	27/12/2006
26805201	R06AX26	05/06/2009
11675079	R06AX26	13/07/2006
16844586	R06AX26	28/09/2005
12994047	R06AX26	25/01/2002
21064578	R06AX26	14/01/2003
15810961	R06AX26	11/02/2003
26618242	R06AX26	18/05/2011
22621949	R06AX26	15/10/2003
21651855	R06AX26	31/01/2007
26930368	R06AX26	07/12/2010
26880913	R06AX26	03/05/2005
26867285	R06AX26	23/02/2009
26848422	R06AX26	12/08/2004
26877090	R06AX26	26/05/2005
26933188	R06AX26	30/10/2002
26938957	R06AX26	19/07/2010
26824324	R06AX26	11/03/2009
26768700	R06AX26	18/08/2009
27116884	R06AX26	15/09/2003
27388707	R06AX26	11/03/2010
27286033	R06AX26	13/05/2011
27324079	R06AX26	20/06/2001
27323544	R06AX26	12/08/2004
27361885	R06AX26	07/08/2008
27362240	R06AX26	05/05/2006
27389100	R06AX26	29/11/2006
26995546	R06AX26	21/09/2010
26976774	R06AX26	06/04/2011
27251497	R06AX26	16/05/2011
27661153	R06AX26	10/12/2001
27660756	R06AX26	28/03/2003
27592171	R06AX26	03/09/2008
27476407	R06AX26	25/03/2009
27414867	R06AX26	12/05/2003
27415090	R06AX26	26/12/2008
27564567	R06AX26	20/04/2011
27144708	R06AX26	25/02/2009
27129153	R06AX26	24/07/2001
27287802	R06AX26	12/06/2008
27251651	R06AX26	26/12/2005
24659329	R06AX26	02/02/2004
19803215	R06AX26	09/09/2005
27538788	R06AX26	03/06/2009
27671191	R06AX26	15/10/2002
27648593	R06AX26	17/12/2010
27597325	R06AX26	13/10/2010
16568199	R06AX26	03/02/2004
18196060	R06AX26	17/01/2001
27251679	R06AX26	18/07/2006
1373528	R06AX26	15/12/1998
27000730	R06AX26	05/03/2010
24666462	R06AX26	15/03/2002
27160253	R06AX26	04/06/2008
27551678	R06AX26	03/04/2006
19800992	R06AX26	09/12/2002
27552757	R06AX26	07/11/2001
26900545	R06AX26	11/09/2007
33009615	R06AX26	02/09/2003
33106412	R06AX26	23/12/2002
33086839	R06AX26	22/01/2010
33010461	R06AX26	23/05/2005
33113359	R06AX26	14/07/2004
33034092	R06AX26	18/10/2001
33008724	R06AX26	09/11/2010
33088577	R06AX26	26/05/2004
33013406	R06AX26	16/06/2005
33104669	R06AX26	24/04/2003
33107924	R06AX26	09/10/2000
33098553	R06AX26	04/05/2011
33001814	R06AX26	24/11/2010
33086351	R06AX26	01/08/2007
33056441	R06AX26	26/05/2011
33072905	R06AX26	27/10/2003
33006169	R06AX26	17/09/2001
33019197	R06AX26	09/07/2001
33072776	R06AX26	11/10/2000
183728	R06AX26	06/05/2008
26635194	R06AX26	09/08/2010
27846920	R06AX26	23/05/2003
33026564	R06AX26	17/08/2001
33000835	R06AX26	05/06/2007
23362464	R06AX26	02/02/2011
33084361	R06AX26	08/03/2001
33067650	R06AX26	18/12/2009
33060956	R06AX26	27/10/2003
33081683	R06AX26	23/03/2010
33079595	R06AX26	09/09/2008
33102600	R06AX26	27/11/2006
33117007	R06AX26	04/12/2008
33033801	R06AX26	11/09/2003
33012899	R06AX26	19/08/2004
33080540	R06AX26	30/05/2011
33101088	R06AX26	04/06/2009
33022830	R06AX26	06/10/2008
33085766	R06AX26	10/12/2009
33102097	R06AX26	19/08/2008
33030998	R06AX26	17/02/2006
33008525	R06AX26	10/05/2007
33110291	R06AX26	24/10/2003
33011684	R06AX26	16/03/2006
33072181	R06AX26	10/12/2004
33040568	R06AX26	29/09/2000
33040010	R06AX26	10/08/2009
14187731	R06AX26	07/05/2003
33288807	R06AX26	30/05/2011
23396448	R06AX26	14/01/2011
33304547	R06AX26	01/06/2011
27912578	R06AX26	31/03/2011
16636488	R06AX26	05/01/2009
16600704	R06AX26	10/04/2004
33224366	R06AX26	06/05/2011
16124111	R06AX26	12/07/2006
23354036	R06AX26	11/12/2009
16124191	R06AX26	16/06/2006
21011325	R06AX26	13/05/2011
18769370	R06AX26	05/02/2004
16684605	R06AX26	16/02/2004
27913205	R06AX26	05/08/2004
23354037	R06AX26	24/03/2009
23401821	R06AX26	18/06/2008
23412017	R06AX26	09/03/2009
16636548	R06AX26	04/01/2006
27975673	R06AX26	02/11/2006
23333059	R06AX26	22/12/2009
23353466	R06AX26	26/05/2009
16652830	R06AX26	12/06/2007
20985521	R06AX26	18/08/2004
23366114	R06AX26	03/05/2010
16683312	R06AX26	13/05/2011
33253232	R06AX26	04/10/2010
16648202	R06AX26	14/04/2009
23325345	R06AX26	30/03/2009
23371485	R06AX26	16/07/2008
33200239	R06AX26	02/10/2002
31126405	R06AX26	10/10/2002
32132769	R06AX26	11/05/2001
32237031	R06AX26	20/04/2009
31313850	R06AX26	08/09/2000
31222630	R06AX26	16/05/2006
32134919	R06AX26	13/05/2005
31941393	R06AX26	10/07/2007
31105620	R06AX26	27/05/2009
32231355	R06AX26	16/07/2003
31719362	R06AX26	27/12/2002
31164952	R06AX26	28/04/2006
32059080	R06AX26	22/06/2010
31988379	R06AX26	12/11/2004
31938937	R06AX26	16/05/2007
31967191	R06AX26	25/05/2005
32261722	R06AX26	22/04/2005
31444611	R06AX26	27/11/2006
31106094	R06AX26	30/12/2008
31675988	R06AX26	08/06/2007
31954840	R06AX26	21/03/2007
31332969	R06AX26	19/04/2004
31381249	R06AX26	22/11/2010
31574504	R06AX26	29/12/2010
31273481	R06AX26	02/09/2003
32197970	R06AX26	05/04/2005
31538580	R06AX26	27/09/2004
32262447	R06AX26	22/10/2009
31590479	R06AX26	08/05/2006
32229971	R06AX26	06/07/2005
31222949	R06AX26	16/05/2007
31334936	R06AX26	10/07/2008
31702162	R06AX26	15/01/2004
31292952	R06AX26	22/01/2004
32243083	R06AX26	20/09/1999
32079692	R06AX26	06/03/2007
31397441	R06AX26	12/05/2006
31830918	R06AX26	21/10/2004
31698320	R06AX26	04/04/2005
31046930	R06AX26	25/03/2003
32050669	R06AX26	09/12/2009
31283139	R06AX26	11/11/2008
31285770	R06AX26	31/05/2010
32278996	R06AX26	08/01/2009
31248417	R06AX26	29/06/2007
31697074	R06AX26	26/12/2007
31659785	R06AX26	18/05/2009
31322609	R06AX26	09/02/2006
32267009	R06AX26	09/10/2002
31517079	R06AX26	27/07/2010
31591754	R06AX26	10/12/2010
31753548	R06AX26	16/01/2008
31940591	R06AX26	21/04/2009
31815556	R06AX26	18/03/2004
31960064	R06AX26	11/02/2004
31178067	R06AX26	28/06/2006
31503228	R06AX26	15/11/2007
31379436	R06AX26	07/09/2006
31583115	R06AX26	25/11/2008
32156100	R06AX26	25/01/2011
31584058	R06AX26	01/09/2004
31605323	R06AX26	28/05/2007
31195218	R06AX26	10/08/2001
31966249	R06AX26	05/12/2000
31519740	R06AX26	24/09/2009
31774796	R06AX26	15/12/2003
32238831	R06AX26	25/05/2007
31366968	R06AX26	17/04/2001
31854539	R06AX26	21/06/2004
31274163	R06AX26	02/01/2006
31894605	R06AX26	17/10/2002
31449129	R06AX26	19/07/2004
31290320	R06AX26	05/08/2003
32125428	R06AX26	14/01/2009
31560503	R06AX26	06/02/2003
32037041	R06AX26	11/11/2008
31952893	R06AX26	19/06/2006
31385820	R06AX26	17/12/2003
31596789	R06AX26	15/12/2004
31639610	R06AX26	17/05/2006
31915839	R06AX26	08/06/2009
31654996	R06AX26	13/08/2007
31510398	R06AX26	30/05/2001
32065963	R06AX26	14/01/2008
31159201	R06AX26	25/05/1999
31577491	R06AX26	22/12/2003
31193567	R06AX26	04/07/2006
32063339	R06AX26	18/07/2008
31775589	R06AX26	21/05/2004
32257370	R06AX26	16/01/2004
31741546	R06AX26	15/01/2004
31242339	R06AX26	22/06/2005
31054095	R06AX26	03/05/2007
32111220	R06AX26	28/01/2009
31604235	R06AX26	24/08/2006
31946065	R06AX26	03/04/2006
31444085	R06AX26	20/10/2008
31844419	R06AX26	05/03/2007
31878234	R06AX26	23/12/2002
31647102	R06AX26	06/09/2001
31145470	R06AX26	26/06/2007
32019169	R06AX26	13/09/2001
32231244	R06AX26	19/05/2003
32091415	R06AX26	23/04/2004
32222171	R06AX26	14/01/2010
31493704	R06AX26	26/04/2007
31264137	R06AX26	24/05/2007
31421158	R06AX26	09/06/2006
31505976	R06AX26	05/11/2003
32239114	R06AX26	21/02/2004
31266701	R06AX26	01/10/2008
31032144	R06AX26	03/04/2001
31748673	R06AX26	28/06/2006
31115224	R06AX26	22/05/2003
31901024	R06AX26	12/08/2004
31480655	R06AX26	11/07/2008
31634632	R06AX26	01/09/2006
31605696	R06AX26	20/08/2007
32254414	R06AX26	20/08/2008
31981297	R06AX26	12/03/2007
31997273	R06AX26	12/07/2006
31133891	R06AX26	05/12/2006
31925226	R06AX26	21/05/2010
31441586	R06AX26	02/04/2004
32280905	R06AX26	14/02/2005
31790134	R06AX26	27/03/2009
31430690	R06AX26	27/07/2009
31089113	R06AX26	29/05/2009
31882443	R06AX26	12/05/2006
31532462	R06AX26	15/06/2007
32095305	R06AX26	29/09/2006
31923548	R06AX26	11/10/2001
32200995	R06AX26	09/06/2005
31897426	R06AX26	29/06/2004
32008482	R06AX26	13/12/2004
31255206	R06AX26	15/07/2009
32176704	R06AX26	22/04/2003
31537824	R06AX26	15/05/2007
31886505	R06AX26	25/01/2002
