patient_id	covar_name	date
8986265	R03BA05	30/07/2010
12857166	R03BA05	28/09/2010
960050	R03BA05	29/08/2007
9209336	R03BA05	23/04/2007
12771754	R03BA05	30/05/2011
9293874	R03BA05	10/04/2001
9385544	R03BA05	10/12/2010
740635	R03BA05	11/01/2008
9212611	R03BA05	26/12/2008
5026155	R03BA05	11/04/2011
9230477	R03BA05	18/03/2003
23454844	R03BA05	19/05/2011
5867289	R03BA05	02/04/2009
704332	R03BA05	25/05/2011
5031417	R03BA05	04/01/2010
13222335	R03BA05	14/01/2004
11660362	R03BA05	30/10/2006
12258291	R03BA05	27/01/2009
9425279	R03BA05	09/06/2009
6756107	R03BA05	17/11/2010
25051945	R03BA05	06/05/2011
731887	R03BA05	09/05/2011
7353457	R03BA05	19/05/2011
8982768	R03BA05	22/05/2001
9293857	R03BA05	05/03/2009
10604282	R03BA05	09/03/2010
7094856	R03BA05	17/12/2010
8582373	R03BA05	21/04/2006
6745181	R03BA05	18/01/2011
8786315	R03BA05	20/10/2010
10292664	R03BA05	30/04/2009
6079237	R03BA05	17/05/2006
9349186	R03BA05	24/05/2011
8409503	R03BA05	23/04/2010
24765841	R03BA05	04/03/2011
10267886	R03BA05	05/03/2009
5022239	R03BA05	05/01/2011
23856816	R03BA05	15/06/2009
12758910	R03BA05	14/04/2011
1424358	R03BA05	22/04/2009
1546771	R03BA05	27/05/2011
1474251	R03BA05	17/11/2006
7635178	R03BA05	23/07/2009
17789325	R03BA05	03/08/2010
24943888	R03BA05	15/12/2010
25960621	R03BA05	27/10/2008
1445893	R03BA05	18/03/2011
1379406	R03BA05	01/03/2006
1379573	R03BA05	03/04/2001
1054373	R03BA05	19/02/2004
24944378	R03BA05	01/03/2004
1191246	R03BA05	11/08/2005
18038985	R03BA05	30/09/2010
11457524	R03BA05	12/02/2009
24925938	R03BA05	21/01/2002
1192135	R03BA05	17/01/2006
7431138	R03BA05	28/04/2011
2723839	R03BA05	21/02/2011
1055120	R03BA05	11/11/2004
18039002	R03BA05	01/03/2006
6594944	R03BA05	12/08/2002
515787	R03BA05	25/01/2007
1173278	R03BA05	17/04/2007
24943949	R03BA05	08/03/2010
1214146	R03BA05	04/10/2006
6633918	R03BA05	26/01/2007
1349535	R03BA05	30/10/2009
15477441	R03BA05	05/05/2011
1054563	R03BA05	14/10/2008
12189158	R03BA05	07/01/2004
18039295	R03BA05	04/10/2004
25984215	R03BA05	08/02/2007
18039159	R03BA05	21/02/2007
1192160	R03BA05	30/04/2007
17783992	R03BA05	22/06/2010
1191971	R03BA05	28/06/2010
1545722	R03BA05	07/02/2011
404542	R03BA05	12/05/2003
25177475	R03BA05	27/05/2011
8066983	R03BA05	27/05/2005
6555460	R03BA05	04/05/2007
25176638	R03BA05	13/02/2007
404974	R03BA05	15/07/2005
1054556	R03BA05	28/01/2002
18039023	R03BA05	12/02/2009
405368	R03BA05	26/03/2007
1055033	R03BA05	07/07/2004
10492183	R03BA05	03/01/2011
7801714	R03BA05	11/04/2011
25176961	R03BA05	08/04/2008
6492704	R03BA05	31/03/2011
1577875	R03BA05	10/11/2009
21282892	R03BA05	14/04/2008
12161214	R03BA05	27/05/2008
1065365	R03BA05	27/11/2002
1109593	R03BA05	26/05/2000
25768735	R03BA05	13/02/2001
2216802	R03BA05	08/01/2007
2087920	R03BA05	12/12/2005
2087936	R03BA05	04/10/2010
2072811	R03BA05	23/05/2011
2068106	R03BA05	20/05/2011
2216049	R03BA05	01/04/2011
2109210	R03BA05	24/01/2008
2238417	R03BA05	27/11/2007
249238	R03BA05	03/01/2002
2088216	R03BA05	25/03/2011
1763227	R03BA05	25/09/2007
874253	R03BA05	24/03/2011
7134077	R03BA05	10/04/2008
6630130	R03BA05	08/10/2010
5884475	R03BA05	20/12/2010
2757185	R03BA05	14/01/2011
2524356	R03BA05	16/01/2006
2523117	R03BA05	10/10/2003
17040161	R03BA05	09/06/2005
2757419	R03BA05	12/04/2011
16962328	R03BA05	07/04/2003
26391842	R03BA05	03/05/2011
26570717	R03BA05	05/01/2004
26550709	R03BA05	01/12/2009
26408350	R03BA05	16/05/2011
26392078	R03BA05	24/02/2009
17219509	R03BA05	14/09/2010
7223668	R03BA05	27/10/2010
19768336	R03BA05	05/05/2011
28040469	R03BA05	04/10/2007
28042025	R03BA05	04/04/2005
26392804	R03BA05	11/03/2011
26392599	R03BA05	11/01/2011
23890725	R03BA05	25/08/2003
26436525	R03BA05	13/12/2010
26436536	R03BA05	01/10/2010
20075917	R03BA05	17/02/2011
11533934	R03BA05	21/12/2009
14356968	R03BA05	08/11/2010
15657691	R03BA05	06/07/2010
16832533	R03BA05	19/03/2009
16962020	R03BA05	24/03/2011
16829333	R03BA05	19/07/2006
9643749	R03BA05	10/11/2009
11533840	R03BA05	31/03/2011
7987077	R03BA05	24/09/2010
16824032	R03BA05	16/06/2010
18026286	R03BA05	18/11/2009
10824297	R03BA05	16/10/2007
437120	R03BA05	17/04/2000
436735	R03BA05	04/04/2005
436094	R03BA05	07/04/2000
437437	R03BA05	14/03/2005
4328546	R03BA05	30/05/2011
435689	R03BA05	06/02/2006
26408077	R03BA05	02/02/2011
28080690	R03BA05	28/09/2005
16962291	R03BA05	29/06/2009
28085405	R03BA05	28/03/2011
9535848	R03BA05	02/06/2010
619579	R03BA05	21/02/2006
436857	R03BA05	23/12/2002
435449	R03BA05	26/06/2003
649639	R03BA05	09/06/2004
301938	R03BA05	28/10/2005
464887	R03BA05	17/08/2010
179341	R03BA05	28/02/2005
28073313	R03BA05	30/05/2008
24666302	R03BA05	16/03/2004
21581705	R03BA05	31/03/2005
24578706	R03BA05	02/02/2011
24660332	R03BA05	26/11/2010
24660678	R03BA05	23/02/2010
1359894	R03BA05	08/06/2004
620834	R03BA05	20/04/2001
1020566	R03BA05	16/02/2006
619414	R03BA05	04/08/2008
1908228	R03BA05	07/06/2005
18198609	R03BA05	23/10/2009
1908072	R03BA05	05/07/2001
18195868	R03BA05	07/02/2004
18199277	R03BA05	28/05/2009
18197591	R03BA05	02/06/2003
18197681	R03BA05	25/02/2010
12984429	R03BA05	11/04/2011
620101	R03BA05	27/06/2005
618339	R03BA05	07/12/2006
618369	R03BA05	25/09/2006
1907718	R03BA05	25/11/2002
6563419	R03BA05	26/01/2007
1905107	R03BA05	15/03/2005
26796008	R03BA05	23/03/2011
17157171	R03BA05	12/04/2006
12952403	R03BA05	14/01/2009
12951527	R03BA05	30/11/2010
24485262	R03BA05	10/12/2002
12976349	R03BA05	31/03/2006
11443663	R03BA05	02/12/2010
16085193	R03BA05	25/05/2011
16844351	R03BA05	19/12/2006
12950966	R03BA05	24/01/2001
26622322	R03BA05	27/04/2007
17157385	R03BA05	28/01/2010
14627538	R03BA05	20/12/2010
14528786	R03BA05	09/05/2011
24485512	R03BA05	30/04/2007
21553632	R03BA05	25/01/2007
19967068	R03BA05	13/12/2010
21553016	R03BA05	29/10/2009
22882001	R03BA05	12/03/2004
21581476	R03BA05	28/10/2010
24578829	R03BA05	02/12/2008
23087614	R03BA05	11/05/2011
26943211	R03BA05	02/02/2009
26961078	R03BA05	28/05/2005
26944310	R03BA05	02/03/2011
26784907	R03BA05	25/03/2008
26753928	R03BA05	31/03/2008
26714154	R03BA05	28/08/2006
26753075	R03BA05	31/10/2007
26726560	R03BA05	13/03/2009
26754258	R03BA05	28/11/2008
26784787	R03BA05	11/02/2010
26754414	R03BA05	13/04/2011
26879837	R03BA05	13/06/2008
26880238	R03BA05	23/10/2009
26886743	R03BA05	10/09/2009
26845956	R03BA05	18/01/2005
26849264	R03BA05	05/12/2008
26901598	R03BA05	20/04/2011
26759976	R03BA05	27/06/2007
26727258	R03BA05	27/05/2008
26784984	R03BA05	21/01/2010
26795604	R03BA05	18/04/2007
26753798	R03BA05	04/08/2008
26754017	R03BA05	18/03/2010
26856155	R03BA05	30/05/2011
26969569	R03BA05	19/01/2007
27061807	R03BA05	15/03/2010
27080882	R03BA05	09/11/2006
26947651	R03BA05	14/11/2002
26939494	R03BA05	08/07/2010
27082488	R03BA05	07/12/2005
26954882	R03BA05	04/07/2007
27030806	R03BA05	15/03/2004
27075569	R03BA05	29/03/2011
26944531	R03BA05	02/06/2009
27134502	R03BA05	29/06/2010
27030054	R03BA05	06/06/2005
27043845	R03BA05	04/12/2009
27075973	R03BA05	30/10/2008
27048705	R03BA05	18/01/2011
27034376	R03BA05	04/07/2008
27000830	R03BA05	19/04/2010
27030545	R03BA05	23/05/2008
27023693	R03BA05	29/06/2004
27002175	R03BA05	20/01/2010
27021756	R03BA05	04/12/2009
27000859	R03BA05	11/10/2005
27027383	R03BA05	08/11/2004
27027386	R03BA05	14/03/2008
27027595	R03BA05	30/10/2006
27001937	R03BA05	20/04/2009
27027177	R03BA05	05/06/2009
27000993	R03BA05	19/05/2009
27002578	R03BA05	27/01/2010
27027465	R03BA05	23/03/2009
27327343	R03BA05	19/12/2007
27233913	R03BA05	07/04/2009
27327876	R03BA05	09/06/2008
27221307	R03BA05	30/11/2009
27307620	R03BA05	02/12/2010
27303621	R03BA05	28/04/2006
27222204	R03BA05	02/11/2010
27197012	R03BA05	16/03/2005
27367102	R03BA05	30/03/2006
27358392	R03BA05	24/12/2006
27295991	R03BA05	04/10/2005
27295928	R03BA05	09/02/2006
27295940	R03BA05	27/10/2009
27295968	R03BA05	12/11/2003
27319537	R03BA05	29/10/2010
27346014	R03BA05	05/11/2010
27358040	R03BA05	02/10/2008
27371962	R03BA05	02/05/2011
27346451	R03BA05	13/05/2009
27356759	R03BA05	25/01/2011
27303739	R03BA05	06/05/2010
27308015	R03BA05	30/06/2005
27295884	R03BA05	14/02/2008
27221777	R03BA05	21/04/2008
26968905	R03BA05	13/06/2008
26968760	R03BA05	10/03/2009
27246715	R03BA05	16/07/2004
26993674	R03BA05	02/08/2007
26943081	R03BA05	11/02/2009
26943084	R03BA05	14/09/2009
26960683	R03BA05	12/05/2010
27604346	R03BA05	15/02/2011
27645187	R03BA05	29/04/2010
27590992	R03BA05	12/05/2009
27739364	R03BA05	01/06/2011
27574894	R03BA05	07/12/2007
27591057	R03BA05	07/04/2010
27451933	R03BA05	17/05/2010
27484556	R03BA05	26/11/2010
27484738	R03BA05	03/04/2006
27451954	R03BA05	20/11/2007
27420742	R03BA05	07/10/2009
27414394	R03BA05	26/01/2000
27458955	R03BA05	01/06/2011
27660215	R03BA05	29/03/2004
27450296	R03BA05	13/05/2009
27415090	R03BA05	22/10/2003
27616208	R03BA05	29/09/2010
27569588	R03BA05	03/09/2008
27616241	R03BA05	10/12/2010
27759720	R03BA05	30/06/2004
27616396	R03BA05	09/11/2009
27566493	R03BA05	20/02/2007
27294482	R03BA05	19/02/2009
27285247	R03BA05	07/09/2004
27295603	R03BA05	09/12/2003
27161418	R03BA05	20/02/2008
27161455	R03BA05	27/05/2004
27146121	R03BA05	31/12/2009
27131619	R03BA05	25/04/2007
27295071	R03BA05	29/11/2010
27146052	R03BA05	14/12/2007
27000618	R03BA05	12/03/2009
27451408	R03BA05	09/03/2009
27251651	R03BA05	08/05/2003
27125723	R03BA05	27/03/2009
26759770	R03BA05	23/07/2007
27306626	R03BA05	19/04/2007
23087622	R03BA05	03/01/2011
27808204	R03BA05	11/02/2011
27082335	R03BA05	11/03/2009
26982713	R03BA05	23/09/2009
27665250	R03BA05	07/04/2003
27454577	R03BA05	15/03/2011
27782454	R03BA05	09/09/2003
27678951	R03BA05	11/04/2011
27767169	R03BA05	07/05/2004
27478598	R03BA05	31/12/2004
27678368	R03BA05	21/05/2007
27777418	R03BA05	02/12/2009
27570288	R03BA05	06/10/2010
27666084	R03BA05	19/05/2005
26775834	R03BA05	20/02/2006
19423467	R03BA05	10/09/2008
26943131	R03BA05	28/06/2010
27446505	R03BA05	30/07/2010
27307886	R03BA05	16/04/2003
27517142	R03BA05	22/01/2010
27449148	R03BA05	21/01/2004
27450937	R03BA05	29/04/2009
27296530	R03BA05	12/11/2010
27617503	R03BA05	10/12/2009
27451490	R03BA05	30/06/2006
26933407	R03BA05	17/06/2004
27295270	R03BA05	09/02/2010
21553339	R03BA05	28/03/2008
2809166	R03BA05	19/01/2006
26853156	R03BA05	01/02/2010
6012728	R03BA05	14/05/2010
27003832	R03BA05	23/11/2007
27319324	R03BA05	04/11/2010
27759597	R03BA05	27/10/2005
27797733	R03BA05	14/09/2004
27808069	R03BA05	15/03/2011
27063841	R03BA05	02/11/2010
27693596	R03BA05	25/06/2009
27689424	R03BA05	23/12/2009
27808311	R03BA05	09/06/2009
18192670	R03BA05	16/08/2010
27623151	R03BA05	16/10/2006
1042371	R03BA05	23/05/2003
27441654	R03BA05	05/12/2009
27484270	R03BA05	19/04/2011
27000149	R03BA05	27/06/2008
27778319	R03BA05	10/01/2003
27613899	R03BA05	08/06/2010
13497550	R03BA05	12/09/2005
27047804	R03BA05	04/05/2011
27563320	R03BA05	20/01/2010
27766849	R03BA05	09/10/2007
27027551	R03BA05	01/07/2008
27531250	R03BA05	28/08/2006
27802966	R03BA05	07/08/2007
27027072	R03BA05	14/11/2010
27803156	R03BA05	25/05/2007
33067338	R03BA05	28/08/2006
33077283	R03BA05	30/08/2005
33067601	R03BA05	04/01/2007
33047468	R03BA05	25/02/2008
33045777	R03BA05	30/09/2004
33006134	R03BA05	17/03/2010
26943592	R03BA05	02/03/2006
25624094	R03BA05	13/11/2009
436249	R03BA05	19/01/2005
27680372	R03BA05	04/11/2003
465078	R03BA05	06/05/2010
27807932	R03BA05	04/12/2009
27798190	R03BA05	26/08/2009
20330777	R03BA05	14/04/2011
26886620	R03BA05	26/01/2011
436222	R03BA05	01/04/2005
13497566	R03BA05	18/02/2011
2966560	R03BA05	21/06/2005
24661191	R03BA05	05/04/2006
27994744	R03BA05	15/09/2010
28019239	R03BA05	15/05/2003
33045975	R03BA05	26/06/2001
23343121	R03BA05	27/06/2008
16618574	R03BA05	18/05/2011
16181771	R03BA05	12/06/2001
27994059	R03BA05	26/02/2007
28029659	R03BA05	23/12/2009
33106875	R03BA05	24/01/2008
33019575	R03BA05	10/04/2003
33097482	R03BA05	27/10/2010
33007224	R03BA05	07/04/2008
33105556	R03BA05	05/04/2004
33013603	R03BA05	04/04/2003
23328848	R03BA05	18/04/2011
33218148	R03BA05	24/06/2009
14187910	R03BA05	26/03/2001
27996332	R03BA05	17/11/2009
27996447	R03BA05	19/05/2010
33212324	R03BA05	27/12/2010
33242352	R03BA05	09/10/2008
33232471	R03BA05	16/02/2011
20982073	R03BA05	31/05/2011
33212635	R03BA05	29/10/2010
28029267	R03BA05	10/01/2011
23381315	R03BA05	14/12/2007
18771064	R03BA05	26/04/2004
33212859	R03BA05	25/05/2011
33213280	R03BA05	27/10/2010
16652192	R03BA05	05/02/2007
24206007	R03BA05	10/05/2010
28883140	R03BA05	25/05/2011
28788166	R03BA05	22/03/2011
30838715	R03BA05	07/01/2011
23400909	R03BA05	28/01/2004
33212735	R03BA05	29/12/2009
16597283	R03BA05	25/11/2010
23384768	R03BA05	25/01/2010
16127420	R03BA05	05/09/2000
23340233	R03BA05	05/05/2011
31598977	R03BA05	24/04/2002
31380840	R03BA05	14/05/2007
31359861	R03BA05	04/08/2000
31804323	R03BA05	04/11/2008
31560518	R03BA05	21/11/2005
31402706	R03BA05	26/02/2008
31733187	R03BA05	30/04/2007
32273248	R03BA05	20/04/2007
31750270	R03BA05	20/03/2009
31765664	R03BA05	21/11/2005
32091966	R03BA05	17/11/2009
31982595	R03BA05	23/05/2008
32137034	R03BA05	08/01/2007
31225579	R03BA05	07/11/2002
31359458	R03BA05	16/05/2006
32054331	R03BA05	25/06/2004
31443846	R03BA05	02/01/2008
31332969	R03BA05	28/09/2009
31381249	R03BA05	02/10/2008
31641342	R03BA05	05/01/2006
32262053	R03BA05	29/12/2008
31122373	R03BA05	11/03/2009
31904758	R03BA05	02/02/2005
31982184	R03BA05	18/05/2004
31723265	R03BA05	26/02/2007
32033414	R03BA05	27/12/2007
31447465	R03BA05	07/07/2006
32188596	R03BA05	19/11/2008
31577330	R03BA05	04/12/2001
32012208	R03BA05	07/11/2006
31358449	R03BA05	10/10/2007
31847089	R03BA05	31/01/2005
31947791	R03BA05	03/06/2004
31142174	R03BA05	14/03/2006
31848997	R03BA05	01/06/2001
31048154	R03BA05	03/12/2010
32147351	R03BA05	20/03/2007
31828790	R03BA05	01/02/2010
31202485	R03BA05	27/03/2007
32110747	R03BA05	20/11/2006
31336062	R03BA05	07/11/2008
31076207	R03BA05	17/12/2003
31970294	R03BA05	11/03/2003
31490573	R03BA05	16/05/2005
31956931	R03BA05	24/09/2008
32111220	R03BA05	18/01/2007
31176011	R03BA05	23/11/2009
31547301	R03BA05	17/03/2006
31884637	R03BA05	08/05/2003
31901938	R03BA05	13/12/2002
31921033	R03BA05	08/06/2007
31266701	R03BA05	11/12/2009
31127249	R03BA05	05/06/2010
31477255	R03BA05	31/03/2006
32180831	R03BA05	04/09/2001
31300735	R03BA05	16/02/2004
31448770	R03BA05	10/06/2004
31952651	R03BA05	16/04/2008
31650488	R03BA05	04/05/2004
32189511	R03BA05	02/03/2007
31971840	R03BA05	27/12/2010
31759307	R03BA05	05/12/2007
31043582	R03BA05	01/12/2003
31534241	R03BA05	22/09/2003
