patient_id	covar_name	date
5026147	S01AA30	09/03/2011
7161884	S01AA30	05/10/2006
9425081	S01AA30	26/01/2010
9319410	S01AA30	06/10/2005
10270713	S01AA30	24/03/2011
8990080	S01AA30	07/05/2008
24730236	S01AA30	02/12/2003
9128114	S01AA30	20/12/2006
9618081	S01AA30	31/03/2011
9328250	S01AA30	02/03/2005
10003523	S01AA30	04/12/2006
12771754	S01AA30	07/03/2011
5026737	S01AA30	18/05/2005
9319702	S01AA30	25/05/2005
9311736	S01AA30	26/03/2007
9347565	S01AA30	09/12/2004
21335785	S01AA30	26/05/2008
8985915	S01AA30	16/04/2007
20394904	S01AA30	22/02/2011
21803068	S01AA30	18/01/2011
12478576	S01AA30	22/04/2009
9238570	S01AA30	20/05/2005
9284209	S01AA30	17/11/2008
24004970	S01AA30	06/03/2009
24006220	S01AA30	08/10/2008
9995013	S01AA30	18/11/2010
6166130	S01AA30	29/04/2010
21806479	S01AA30	29/06/2009
16958309	S01AA30	01/03/2007
9230792	S01AA30	04/05/2005
9372370	S01AA30	18/03/2005
9284420	S01AA30	04/02/2008
5566098	S01AA30	08/11/2010
12778095	S01AA30	11/10/2010
23072551	S01AA30	24/05/2010
12783062	S01AA30	28/11/2003
20565062	S01AA30	20/06/2008
8555445	S01AA30	05/06/2006
12789284	S01AA30	05/06/2009
10866406	S01AA30	29/04/2008
9999107	S01AA30	28/04/2008
610072	S01AA30	25/08/2004
740635	S01AA30	06/11/2009
9129326	S01AA30	20/02/2001
15081699	S01AA30	08/11/2010
12783694	S01AA30	19/05/2009
3503101	S01AA30	01/04/2009
6747469	S01AA30	16/08/2006
2944017	S01AA30	28/02/2005
9300096	S01AA30	24/08/2006
19056071	S01AA30	11/05/2010
16930264	S01AA30	21/02/2005
612097	S01AA30	30/03/2011
13940459	S01AA30	25/01/2011
12739062	S01AA30	12/01/2009
9256766	S01AA30	27/11/2006
3284840	S01AA30	27/05/2005
8698646	S01AA30	28/01/2004
10292723	S01AA30	20/11/2009
9304399	S01AA30	07/04/2008
7353549	S01AA30	01/12/2006
16559674	S01AA30	02/06/2008
12783208	S01AA30	11/02/2008
12761383	S01AA30	22/03/2007
10245464	S01AA30	23/05/2006
10866971	S01AA30	07/11/2007
6752622	S01AA30	18/09/2009
9203395	S01AA30	16/11/2007
20412957	S01AA30	24/02/2011
9305372	S01AA30	29/02/2008
12770781	S01AA30	09/12/2010
12779663	S01AA30	20/07/2007
3330490	S01AA30	20/04/2009
608929	S01AA30	22/06/2007
25047538	S01AA30	16/03/2006
12783666	S01AA30	22/11/2005
18773958	S01AA30	16/12/2002
5027855	S01AA30	20/12/2007
12258727	S01AA30	03/03/2011
15386305	S01AA30	09/05/2011
9177319	S01AA30	07/04/2004
19179021	S01AA30	04/10/2005
734248	S01AA30	11/07/2006
12738323	S01AA30	14/11/2008
12780206	S01AA30	12/11/2010
10271236	S01AA30	28/03/2005
12259462	S01AA30	24/03/2008
1941126	S01AA30	07/04/2004
8976554	S01AA30	03/06/2009
12763150	S01AA30	08/05/2009
5565850	S01AA30	15/06/2007
5026712	S01AA30	16/04/2008
19055851	S01AA30	08/11/2010
12732142	S01AA30	10/05/2011
9300058	S01AA30	07/02/2006
20413837	S01AA30	18/05/2011
9347210	S01AA30	13/05/2005
12479267	S01AA30	03/08/2010
3288763	S01AA30	07/04/2004
13009432	S01AA30	17/12/2007
14208994	S01AA30	19/01/2011
18654616	S01AA30	16/06/2010
19180996	S01AA30	12/01/2010
5026215	S01AA30	06/06/2008
9318547	S01AA30	26/04/2004
19180722	S01AA30	25/03/2011
9310290	S01AA30	17/01/2011
20083985	S01AA30	21/02/2011
17170094	S01AA30	23/12/2010
21534394	S01AA30	26/05/2006
9339219	S01AA30	13/02/2006
8787400	S01AA30	25/05/2006
10004388	S01AA30	14/01/2010
9250589	S01AA30	13/01/2010
12782509	S01AA30	14/12/2009
24006497	S01AA30	11/05/2009
20235689	S01AA30	29/03/2011
16922826	S01AA30	16/12/2008
25053827	S01AA30	21/10/2009
12352137	S01AA30	09/03/2009
9178923	S01AA30	05/05/2009
19179194	S01AA30	27/02/2003
16557846	S01AA30	14/12/2004
10245771	S01AA30	17/05/2005
946808	S01AA30	07/01/2004
13940407	S01AA30	19/01/2009
10271438	S01AA30	17/07/2008
12778736	S01AA30	24/11/2008
9179311	S01AA30	15/05/2008
12772057	S01AA30	23/01/2006
15394505	S01AA30	13/01/2011
12478677	S01AA30	29/05/2007
12186603	S01AA30	11/05/2010
17174585	S01AA30	19/05/2010
13375636	S01AA30	03/04/2009
15394464	S01AA30	08/07/2010
3247747	S01AA30	02/01/2004
12762299	S01AA30	19/09/2008
8787236	S01AA30	10/05/2006
10270515	S01AA30	27/01/2009
6243196	S01AA30	27/01/2005
13297467	S01AA30	06/04/2011
7023767	S01AA30	24/03/2009
10285035	S01AA30	20/03/2009
12783500	S01AA30	17/12/2007
3292536	S01AA30	10/06/2004
25043161	S01AA30	29/12/2009
21152720	S01AA30	22/03/2011
9215265	S01AA30	15/12/2005
16559495	S01AA30	25/06/2008
1964476	S01AA30	09/08/2004
1517271	S01AA30	14/01/2002
12783616	S01AA30	27/04/2010
1516892	S01AA30	27/06/2005
12737954	S01AA30	13/01/2011
11993430	S01AA30	06/06/2005
12782081	S01AA30	04/06/2009
12782717	S01AA30	13/04/2009
8512208	S01AA30	19/12/2005
15081837	S01AA30	16/03/2011
9983422	S01AA30	10/11/2005
19177362	S01AA30	28/06/2005
20413466	S01AA30	07/07/2008
731887	S01AA30	06/09/2005
16929993	S01AA30	27/08/2010
9320295	S01AA30	16/12/2009
19179217	S01AA30	12/07/2002
9305693	S01AA30	07/06/2006
16922577	S01AA30	02/11/2005
8787607	S01AA30	20/07/2007
15066614	S01AA30	24/05/2010
8274539	S01AA30	28/02/2007
5032479	S01AA30	30/10/2006
9211034	S01AA30	30/11/2009
21805636	S01AA30	23/11/2007
25067015	S01AA30	17/01/2011
5865734	S01AA30	15/12/2006
9338058	S01AA30	29/11/2005
10372234	S01AA30	14/06/2010
10247580	S01AA30	07/12/2004
24466702	S01AA30	25/03/2011
12781740	S01AA30	09/11/2006
740820	S01AA30	05/10/2005
20546500	S01AA30	13/09/2000
611328	S01AA30	27/04/2009
10284326	S01AA30	19/08/2004
9210774	S01AA30	23/05/2007
9304468	S01AA30	18/07/2007
12774611	S01AA30	16/06/2009
8557985	S01AA30	11/10/2005
1938323	S01AA30	08/02/2003
2944291	S01AA30	12/11/2004
10246462	S01AA30	02/02/2010
12770719	S01AA30	05/10/2010
25065956	S01AA30	22/06/2010
9177996	S01AA30	01/06/2006
25054416	S01AA30	25/08/2010
9285180	S01AA30	20/04/2004
3328312	S01AA30	02/03/2009
10270830	S01AA30	11/05/2009
9374971	S01AA30	04/08/2006
8581195	S01AA30	13/10/2005
12770831	S01AA30	29/01/2004
8787603	S01AA30	18/09/2006
25054476	S01AA30	18/12/2007
16929719	S01AA30	24/04/2007
21798006	S01AA30	14/12/2010
25052219	S01AA30	15/10/2008
6080455	S01AA30	15/04/2010
24005857	S01AA30	14/05/2009
8273132	S01AA30	16/02/2010
6758836	S01AA30	06/11/2009
12778202	S01AA30	02/12/2008
1725481	S01AA30	06/02/2007
15394337	S01AA30	13/10/2010
17169097	S01AA30	18/05/2011
12771919	S01AA30	28/12/2005
12771924	S01AA30	03/04/2007
16922244	S01AA30	06/05/2004
24729124	S01AA30	05/10/2009
12765626	S01AA30	14/07/2006
12783491	S01AA30	31/07/2009
12766591	S01AA30	23/03/2006
25065768	S01AA30	11/12/2007
8655470	S01AA30	14/03/2011
207178	S01AA30	13/04/2009
8783486	S01AA30	14/08/2003
12790379	S01AA30	02/03/2010
1964545	S01AA30	17/11/2006
6243591	S01AA30	23/05/2007
16929664	S01AA30	25/02/2009
10331912	S01AA30	14/02/2011
10285095	S01AA30	17/02/2010
16323408	S01AA30	09/03/2011
12782976	S01AA30	12/01/2006
3285563	S01AA30	24/11/2006
9321288	S01AA30	19/01/2007
1941817	S01AA30	14/12/2004
17168946	S01AA30	15/09/2010
21152518	S01AA30	09/05/2011
12147915	S01AA30	26/05/2009
6707615	S01AA30	04/04/2003
21335956	S01AA30	09/05/2011
63243	S01AA30	12/02/2007
9302747	S01AA30	18/10/2010
12259021	S01AA30	08/02/2007
9348009	S01AA30	03/10/2007
24006333	S01AA30	06/07/2009
19179544	S01AA30	23/01/2007
8573478	S01AA30	08/11/2007
21152754	S01AA30	05/11/2008
21871015	S01AA30	15/07/2009
24864967	S01AA30	05/04/2010
9299599	S01AA30	30/11/2009
5024803	S01AA30	17/09/2010
8700627	S01AA30	27/01/2003
10265984	S01AA30	27/10/2010
9339884	S01AA30	12/04/2011
25065968	S01AA30	12/04/2010
1515178	S01AA30	30/05/2005
19180995	S01AA30	11/05/2007
18891979	S01AA30	23/02/2004
5866117	S01AA30	22/05/2006
15755198	S01AA30	17/12/2010
12758910	S01AA30	23/05/2005
25065926	S01AA30	24/05/2010
9218927	S01AA30	23/01/2007
12259593	S01AA30	10/12/2007
24004943	S01AA30	02/07/2009
673940	S01AA30	24/01/2004
1169659	S01AA30	27/11/2008
26057562	S01AA30	04/08/2008
7777782	S01AA30	15/06/2005
10557719	S01AA30	24/06/2008
7669883	S01AA30	07/06/2010
1446158	S01AA30	25/02/2009
8066781	S01AA30	29/08/2008
1352974	S01AA30	17/03/2000
7951750	S01AA30	25/02/2011
1169516	S01AA30	17/02/2004
4846869	S01AA30	14/03/2006
2231878	S01AA30	25/06/2002
1191344	S01AA30	23/02/2004
7800178	S01AA30	18/11/2008
1353899	S01AA30	08/02/2008
8068459	S01AA30	27/01/2003
1848778	S01AA30	09/11/2006
7963931	S01AA30	20/05/2008
7800389	S01AA30	07/06/2007
8934911	S01AA30	23/05/2010
6596593	S01AA30	15/01/2007
15885679	S01AA30	01/09/2010
1203945	S01AA30	13/05/2002
1201630	S01AA30	08/08/2003
25177752	S01AA30	09/11/2010
1849882	S01AA30	04/07/2003
1379379	S01AA30	01/08/2005
13987332	S01AA30	04/06/2003
2723955	S01AA30	13/12/2005
4846913	S01AA30	14/03/2008
2723839	S01AA30	17/01/2009
7782943	S01AA30	18/06/2002
1173278	S01AA30	13/08/2003
13985993	S01AA30	02/12/2010
1446022	S01AA30	03/03/2009
13986535	S01AA30	21/11/2007
1264156	S01AA30	25/04/2001
404498	S01AA30	23/08/2004
17783992	S01AA30	17/01/2011
1420467	S01AA30	28/02/2002
7833349	S01AA30	20/04/2006
1378713	S01AA30	01/08/2005
1208178	S01AA30	16/05/2005
9498060	S01AA30	26/01/2009
7964660	S01AA30	18/04/2008
6595121	S01AA30	27/09/2000
1262678	S01AA30	09/05/2010
25170569	S01AA30	10/10/2004
1850960	S01AA30	31/07/2010
1379025	S01AA30	26/12/2003
1379495	S01AA30	31/03/2008
9498070	S01AA30	21/07/2008
6592121	S01AA30	11/06/2004
1420074	S01AA30	15/06/2005
1353317	S01AA30	31/10/2005
10492173	S01AA30	23/06/2010
404974	S01AA30	02/01/2004
5899636	S01AA30	14/02/2011
404419	S01AA30	20/03/2003
13987268	S01AA30	25/08/2000
1474271	S01AA30	24/02/2005
3655614	S01AA30	09/12/2003
1577616	S01AA30	21/07/2004
1578228	S01AA30	08/09/2004
2642757	S01AA30	14/04/2005
1109280	S01AA30	21/03/2000
1107488	S01AA30	14/02/2002
1566989	S01AA30	05/01/2009
25768738	S01AA30	19/12/2006
25902164	S01AA30	28/02/2011
1107468	S01AA30	01/02/2006
25902808	S01AA30	11/04/2011
25900612	S01AA30	11/08/2009
7801714	S01AA30	25/11/2010
25886691	S01AA30	02/03/2004
1106958	S01AA30	10/02/2004
25873669	S01AA30	21/03/2011
1132387	S01AA30	01/02/2007
25902021	S01AA30	19/02/2010
1108842	S01AA30	03/04/2006
6495063	S01AA30	05/05/2005
25766579	S01AA30	24/01/2006
3643698	S01AA30	30/05/2007
6492632	S01AA30	24/04/2006
6492704	S01AA30	29/06/2007
1110970	S01AA30	21/01/2010
135530	S01AA30	16/05/2001
1640617	S01AA30	07/04/2005
1640838	S01AA30	29/09/2006
1108536	S01AA30	16/02/2011
3807400	S01AA30	15/02/2002
1027312	S01AA30	17/11/2006
717738	S01AA30	23/04/2001
1108078	S01AA30	18/04/2001
192085	S01AA30	16/05/2006
5987342	S01AA30	03/09/2007
6492888	S01AA30	17/08/2010
6494913	S01AA30	14/12/2006
1567231	S01AA30	22/02/2006
25751512	S01AA30	21/04/2006
25897175	S01AA30	28/09/2009
25897169	S01AA30	19/04/2011
1099585	S01AA30	23/05/2001
25885176	S01AA30	28/03/2011
1577791	S01AA30	09/05/2011
1131941	S01AA30	11/05/2009
4675932	S01AA30	19/02/2007
4675953	S01AA30	18/10/2006
25751456	S01AA30	25/03/2003
1102009	S01AA30	18/10/2000
6955818	S01AA30	18/03/2008
1577851	S01AA30	21/02/2005
135815	S01AA30	30/05/2003
25873517	S01AA30	13/02/2009
1109004	S01AA30	17/03/2004
2799361	S01AA30	19/07/2004
1134421	S01AA30	22/01/2002
25757999	S01AA30	21/02/2007
3656203	S01AA30	21/12/2005
1103285	S01AA30	28/02/2001
25885961	S01AA30	05/01/2007
1107084	S01AA30	10/08/2009
1108562	S01AA30	07/12/2001
12705280	S01AA30	28/04/2008
6492401	S01AA30	11/05/2006
1567786	S01AA30	01/06/2006
2068362	S01AA30	23/09/2005
2087936	S01AA30	20/02/2002
2072811	S01AA30	24/05/2007
2070225	S01AA30	08/01/2007
2068498	S01AA30	01/12/2009
2072510	S01AA30	21/04/2004
2087693	S01AA30	11/02/2002
2068046	S01AA30	21/12/2006
2365353	S01AA30	29/09/2006
2365565	S01AA30	30/08/2006
2365596	S01AA30	26/11/2005
2072714	S01AA30	26/11/2006
2411588	S01AA30	29/03/2005
2411712	S01AA30	08/10/2003
2087943	S01AA30	06/04/2006
2041106	S01AA30	30/04/2003
2139418	S01AA30	24/09/2007
1755479	S01AA30	14/08/2003
901797	S01AA30	31/01/2003
1755826	S01AA30	24/05/2006
2042325	S01AA30	13/10/2006
249467	S01AA30	17/09/2004
1755667	S01AA30	19/05/2006
901845	S01AA30	20/04/2005
1682934	S01AA30	18/04/2002
2035701	S01AA30	06/02/2003
873621	S01AA30	19/09/2009
873649	S01AA30	09/03/2007
1763515	S01AA30	04/03/2009
1754431	S01AA30	24/10/2007
2811902	S01AA30	03/12/2008
3055263	S01AA30	28/01/2003
3055265	S01AA30	03/10/2002
7134993	S01AA30	22/09/2006
1683213	S01AA30	11/12/2003
2863197	S01AA30	27/01/2004
3054914	S01AA30	03/07/2006
7089480	S01AA30	15/06/2006
7089484	S01AA30	13/02/2007
7037084	S01AA30	06/11/2007
3055190	S01AA30	12/02/2004
3054705	S01AA30	04/05/2006
4228487	S01AA30	21/05/2008
2863684	S01AA30	20/10/2005
7047183	S01AA30	31/01/2011
2761493	S01AA30	27/02/2004
2813592	S01AA30	13/01/2010
4088249	S01AA30	21/09/2005
2776308	S01AA30	25/09/2006
2813159	S01AA30	27/08/2010
2774313	S01AA30	12/07/2005
4150681	S01AA30	31/03/2008
2863962	S01AA30	02/06/2005
3055409	S01AA30	05/05/2003
2755178	S01AA30	14/11/2006
2411962	S01AA30	31/03/2003
2411925	S01AA30	13/02/2006
2522213	S01AA30	12/01/2011
2523550	S01AA30	18/07/2003
2755855	S01AA30	06/08/2009
2752941	S01AA30	18/01/2008
2523117	S01AA30	18/02/2007
2524216	S01AA30	02/02/2005
2357436	S01AA30	24/03/2008
2411126	S01AA30	09/06/2004
16832006	S01AA30	29/05/2009
11346482	S01AA30	07/10/2008
2526747	S01AA30	03/03/2006
15648495	S01AA30	16/11/2009
2754978	S01AA30	27/08/2009
26383019	S01AA30	07/06/2008
26425486	S01AA30	11/03/2011
26550709	S01AA30	30/11/2004
28045160	S01AA30	22/04/2004
26383425	S01AA30	20/02/2007
28044094	S01AA30	09/04/2007
8303862	S01AA30	17/01/2008
7223668	S01AA30	19/11/2007
7134431	S01AA30	04/04/2005
7134474	S01AA30	24/12/2005
20147123	S01AA30	13/09/2010
20073652	S01AA30	27/05/2011
17219249	S01AA30	09/06/2005
17218986	S01AA30	11/08/2006
26244722	S01AA30	06/06/2008
26177790	S01AA30	29/05/2003
7223764	S01AA30	29/03/2004
26338790	S01AA30	16/11/2010
26383263	S01AA30	18/08/2006
26425372	S01AA30	04/08/2000
26392479	S01AA30	18/08/2008
26217958	S01AA30	30/09/2008
26564522	S01AA30	27/01/2006
26392250	S01AA30	17/08/2010
26182006	S01AA30	23/08/2005
28042198	S01AA30	06/07/2005
26383120	S01AA30	03/12/2003
20633310	S01AA30	10/12/2010
17218884	S01AA30	15/05/2003
26436652	S01AA30	20/04/2011
26391559	S01AA30	16/06/2006
26391569	S01AA30	01/11/2008
17041554	S01AA30	11/10/2010
19365009	S01AA30	18/10/2010
16832962	S01AA30	02/07/2008
12653679	S01AA30	05/01/2010
15657779	S01AA30	06/07/2010
16961631	S01AA30	13/05/2008
15656498	S01AA30	31/01/2011
15656527	S01AA30	09/12/2008
16961859	S01AA30	26/03/2008
16831960	S01AA30	19/06/2010
17219152	S01AA30	20/02/2009
16832644	S01AA30	16/11/2006
16824016	S01AA30	17/07/2008
7987077	S01AA30	25/11/2009
10490949	S01AA30	29/03/2010
7324574	S01AA30	03/04/2008
16980452	S01AA30	18/04/2011
18025561	S01AA30	13/10/2009
18026280	S01AA30	24/05/2007
2968002	S01AA30	03/04/2006
1908398	S01AA30	11/02/2008
1910382	S01AA30	23/07/2007
650010	S01AA30	27/09/2006
437120	S01AA30	10/10/2002
307364	S01AA30	17/01/2009
437549	S01AA30	27/02/2007
1028373	S01AA30	03/02/2003
2959597	S01AA30	07/03/2008
2965533	S01AA30	11/12/2001
2965544	S01AA30	29/04/2006
1028505	S01AA30	16/12/2002
1018470	S01AA30	15/03/2007
436004	S01AA30	22/05/2005
4742420	S01AA30	06/11/2006
1908894	S01AA30	08/07/2003
307239	S01AA30	30/04/2008
2958619	S01AA30	12/02/2002
4328546	S01AA30	22/10/2009
8214406	S01AA30	15/03/2009
422490	S01AA30	17/05/2004
2958823	S01AA30	20/02/2009
2966632	S01AA30	07/05/2003
2963419	S01AA30	02/02/2009
185473	S01AA30	28/08/2003
437093	S01AA30	11/02/2008
433523	S01AA30	13/08/2006
2966646	S01AA30	22/07/2005
4748390	S01AA30	01/12/2006
435701	S01AA30	24/12/1999
437377	S01AA30	21/01/2005
2960892	S01AA30	26/03/2005
423251	S01AA30	10/04/2007
302236	S01AA30	31/03/2004
427807	S01AA30	03/02/2005
435970	S01AA30	21/05/2001
8090461	S01AA30	16/03/2009
2959751	S01AA30	21/05/2005
423879	S01AA30	30/09/1998
423906	S01AA30	29/06/2007
419797	S01AA30	16/02/1999
16823937	S01AA30	17/09/2010
26426004	S01AA30	06/07/2009
3054239	S01AA30	03/07/2006
28076297	S01AA30	18/01/2010
28073308	S01AA30	14/12/2009
28076342	S01AA30	02/02/2010
28076346	S01AA30	12/07/2010
2410394	S01AA30	17/10/2007
16832916	S01AA30	07/12/2009
28091695	S01AA30	28/01/2006
28089768	S01AA30	20/03/2008
28085405	S01AA30	28/03/2011
28073342	S01AA30	11/03/2005
28079828	S01AA30	02/08/2007
904007	S01AA30	27/08/2004
419562	S01AA30	02/06/2005
463486	S01AA30	30/07/2001
420815	S01AA30	19/10/2007
2779304	S01AA30	19/05/2008
7136014	S01AA30	10/02/2010
620203	S01AA30	29/10/2001
187703	S01AA30	06/07/2006
303479	S01AA30	18/05/2005
420981	S01AA30	28/11/2006
184640	S01AA30	15/02/2011
620489	S01AA30	19/02/2007
437354	S01AA30	09/04/2003
427511	S01AA30	21/07/2005
427527	S01AA30	23/09/2004
3050663	S01AA30	13/02/2001
179777	S01AA30	05/06/2001
179027	S01AA30	17/11/2005
423166	S01AA30	26/01/2001
437195	S01AA30	01/06/2001
424657	S01AA30	18/09/2009
464887	S01AA30	17/06/2003
426640	S01AA30	14/06/2007
418315	S01AA30	30/08/2009
184252	S01AA30	23/06/2003
437499	S01AA30	22/05/2008
179468	S01AA30	11/12/2000
180024	S01AA30	27/06/2005
649031	S01AA30	22/06/2004
28048196	S01AA30	22/08/2008
28058222	S01AA30	29/04/2005
28040595	S01AA30	20/04/2011
28044312	S01AA30	07/03/2000
28072902	S01AA30	26/08/2003
28074057	S01AA30	05/11/2003
28051807	S01AA30	25/02/2010
28049554	S01AA30	30/12/2005
28073346	S01AA30	08/06/2006
28073409	S01AA30	17/11/2008
28073477	S01AA30	09/12/2009
28071032	S01AA30	02/03/2006
28071783	S01AA30	16/07/2007
28073872	S01AA30	31/03/2011
7765065	S01AA30	15/12/2006
24669944	S01AA30	18/03/1999
25542770	S01AA30	06/09/2009
24663344	S01AA30	29/05/2007
24665274	S01AA30	05/10/2009
24670887	S01AA30	17/02/2011
24578706	S01AA30	10/03/2010
24657193	S01AA30	08/04/2011
25620511	S01AA30	16/06/2009
25713592	S01AA30	17/07/2001
25535638	S01AA30	24/04/2003
24668092	S01AA30	27/02/2011
24658584	S01AA30	11/01/2002
24661671	S01AA30	07/02/2011
24661681	S01AA30	25/10/2010
24665519	S01AA30	23/06/2005
25743607	S01AA30	17/07/2008
25588570	S01AA30	22/03/2011
24745622	S01AA30	08/03/2011
25537185	S01AA30	16/05/2006
24658487	S01AA30	22/02/2011
25743018	S01AA30	16/12/2009
25743054	S01AA30	16/06/2006
24660196	S01AA30	04/06/2008
24660214	S01AA30	09/03/2010
25620395	S01AA30	04/03/2008
26622202	S01AA30	24/10/2005
25737862	S01AA30	31/03/2005
1364557	S01AA30	22/01/2004
1903907	S01AA30	04/07/2003
18190165	S01AA30	05/03/2004
1371154	S01AA30	07/11/2003
1361493	S01AA30	30/05/2006
1905426	S01AA30	15/09/2010
179639	S01AA30	25/04/2005
620281	S01AA30	19/01/2001
620949	S01AA30	25/05/2001
18070034	S01AA30	11/02/2011
619414	S01AA30	09/01/2004
178979	S01AA30	24/03/2003
1369983	S01AA30	07/04/2005
1374811	S01AA30	05/02/2001
1360903	S01AA30	05/03/2009
1908228	S01AA30	29/09/2003
1908241	S01AA30	28/11/2005
1908296	S01AA30	21/10/2004
1900235	S01AA30	08/11/2010
1342869	S01AA30	02/05/2007
16568255	S01AA30	06/08/2004
1016644	S01AA30	10/09/2009
18198573	S01AA30	05/03/2010
1372573	S01AA30	05/05/1999
1372631	S01AA30	08/01/2009
1371015	S01AA30	28/10/2008
1019133	S01AA30	28/04/2010
1359388	S01AA30	27/05/2006
19800240	S01AA30	21/02/2007
1343151	S01AA30	26/04/2004
1030470	S01AA30	23/09/2007
1366141	S01AA30	26/09/2005
16812198	S01AA30	09/03/2006
21065700	S01AA30	28/11/2007
18199400	S01AA30	16/04/2008
19279900	S01AA30	20/02/2007
19803915	S01AA30	21/11/2008
18192502	S01AA30	21/11/2001
21063008	S01AA30	25/06/2003
19423606	S01AA30	21/01/2009
21064688	S01AA30	23/07/2009
21063709	S01AA30	10/11/2010
18198663	S01AA30	12/05/2011
18198694	S01AA30	11/02/2011
19280192	S01AA30	24/01/2010
19280205	S01AA30	31/10/2008
19280219	S01AA30	25/08/2003
19788236	S01AA30	02/02/2010
17412370	S01AA30	11/11/2010
19279949	S01AA30	04/07/2008
22757992	S01AA30	26/01/2004
19804674	S01AA30	21/05/2009
20330727	S01AA30	28/12/2006
18197709	S01AA30	26/06/2001
20077800	S01AA30	25/03/2011
18198775	S01AA30	20/12/2010
20077803	S01AA30	20/03/2006
21063340	S01AA30	19/05/2008
20331035	S01AA30	17/01/2011
16568323	S01AA30	28/09/2007
4628196	S01AA30	04/05/2010
6012549	S01AA30	19/06/2008
1014435	S01AA30	11/02/2003
2968063	S01AA30	20/08/2003
2968098	S01AA30	29/05/2007
1906291	S01AA30	29/10/2001
1369305	S01AA30	05/01/2001
2966794	S01AA30	27/01/2005
2963368	S01AA30	09/03/2010
1369901	S01AA30	27/02/2007
1910308	S01AA30	06/09/2007
8426968	S01AA30	07/08/2008
2957533	S01AA30	25/01/2008
620398	S01AA30	01/10/2001
1361552	S01AA30	27/03/2003
1343014	S01AA30	28/05/1998
420427	S01AA30	13/08/2002
2988326	S01AA30	07/05/2009
2965287	S01AA30	19/09/2001
1899552	S01AA30	19/12/2003
1020925	S01AA30	20/01/2009
418928	S01AA30	07/02/2010
1994071	S01AA30	08/06/2006
2958123	S01AA30	27/01/2006
2997814	S01AA30	09/01/2004
9063949	S01AA30	15/12/2010
9063977	S01AA30	23/06/2009
2965097	S01AA30	13/09/2004
5015047	S01AA30	28/12/2010
2997982	S01AA30	06/07/2007
1989439	S01AA30	28/02/2006
1906106	S01AA30	28/05/2010
6563419	S01AA30	03/05/2006
6563463	S01AA30	12/02/2007
1363174	S01AA30	16/04/1998
1899411	S01AA30	16/03/2007
26639746	S01AA30	10/12/2008
26852915	S01AA30	01/03/2010
26795792	S01AA30	07/12/2005
26699952	S01AA30	07/10/2010
26636408	S01AA30	06/07/2005
26793792	S01AA30	07/07/2009
26823255	S01AA30	15/06/2007
26777378	S01AA30	21/03/2007
26796008	S01AA30	23/05/2011
26856096	S01AA30	23/03/2009
26710535	S01AA30	07/09/2008
26719797	S01AA30	17/12/2004
26628447	S01AA30	28/12/2009
26776913	S01AA30	03/05/2010
26701905	S01AA30	24/06/2008
26621741	S01AA30	17/03/2010
26621755	S01AA30	13/06/2010
26621822	S01AA30	27/11/2008
26835672	S01AA30	11/07/2006
26627110	S01AA30	12/02/2009
25729063	S01AA30	18/12/2008
26831550	S01AA30	02/01/2008
21581511	S01AA30	28/01/2010
13497799	S01AA30	08/01/2010
17157171	S01AA30	22/04/2009
17125574	S01AA30	19/09/1998
12953841	S01AA30	30/01/2011
15808607	S01AA30	03/09/2010
13872249	S01AA30	09/09/2009
16105815	S01AA30	02/01/2008
16820137	S01AA30	05/02/2011
12974196	S01AA30	23/06/2000
12952428	S01AA30	18/03/2004
22523394	S01AA30	14/05/2009
22729770	S01AA30	10/04/2008
13804287	S01AA30	15/12/2009
12952403	S01AA30	04/04/2007
16105363	S01AA30	20/08/2004
13497609	S01AA30	15/06/2007
24578616	S01AA30	27/09/2010
15812087	S01AA30	09/11/2007
13497668	S01AA30	05/01/2007
12951527	S01AA30	28/06/2008
24593705	S01AA30	29/03/2006
15820281	S01AA30	26/09/2010
22921808	S01AA30	08/01/2010
11443447	S01AA30	11/11/2008
11443475	S01AA30	18/01/2011
16195223	S01AA30	16/07/2009
12976693	S01AA30	02/12/2002
11443663	S01AA30	09/05/2008
17160992	S01AA30	28/02/2008
16842252	S01AA30	24/05/2011
9063598	S01AA30	28/11/2006
16085193	S01AA30	07/07/2010
16085200	S01AA30	09/11/2010
17160291	S01AA30	05/03/2010
16105498	S01AA30	17/03/2010
10824862	S01AA30	23/09/2009
15821585	S01AA30	09/03/2009
24654531	S01AA30	08/04/2003
11946341	S01AA30	12/06/2010
11465926	S01AA30	02/05/2009
12953486	S01AA30	03/11/2005
12950966	S01AA30	26/03/2001
13497950	S01AA30	30/06/2008
16567909	S01AA30	16/10/2009
11674892	S01AA30	19/06/2007
10824900	S01AA30	05/06/2009
22910359	S01AA30	04/11/2009
2996761	S01AA30	03/11/2005
26718859	S01AA30	06/01/2009
12951261	S01AA30	07/05/2007
26721085	S01AA30	09/04/2011
26641496	S01AA30	24/06/2005
13497586	S01AA30	06/02/2006
17157102	S01AA30	16/02/2006
26622322	S01AA30	28/12/2005
26666989	S01AA30	24/07/2005
26622846	S01AA30	12/04/2010
2998199	S01AA30	07/04/2008
17157382	S01AA30	24/01/2011
17157385	S01AA30	14/07/2010
26623861	S01AA30	17/07/2006
26699648	S01AA30	13/11/2007
15816263	S01AA30	26/05/2010
26723222	S01AA30	21/03/2005
14627538	S01AA30	19/10/2010
14736254	S01AA30	20/10/2010
14528786	S01AA30	21/02/2011
3264626	S01AA30	28/06/2006
26620588	S01AA30	26/05/2010
26699845	S01AA30	31/01/2003
24594122	S01AA30	14/04/2010
24485583	S01AA30	24/11/2010
24593803	S01AA30	13/02/2006
24578953	S01AA30	05/04/2005
23087708	S01AA30	17/11/2010
19967068	S01AA30	25/01/2011
21581847	S01AA30	15/07/2004
21553016	S01AA30	29/08/2007
22922696	S01AA30	19/10/2007
24656922	S01AA30	28/07/2007
24579417	S01AA30	04/06/2007
24547776	S01AA30	26/10/2006
21581476	S01AA30	14/07/2010
22717795	S01AA30	18/03/2010
23463234	S01AA30	20/05/2008
24503300	S01AA30	03/03/2008
24593718	S01AA30	09/02/2006
24576929	S01AA30	01/09/2005
21581410	S01AA30	26/05/2008
24594349	S01AA30	02/07/2010
26895374	S01AA30	09/11/2009
26933980	S01AA30	16/08/2005
26937769	S01AA30	21/01/2004
26901110	S01AA30	25/09/2009
26943189	S01AA30	14/05/2010
26943211	S01AA30	23/08/2006
26901392	S01AA30	15/05/2008
26894979	S01AA30	20/10/2007
26890259	S01AA30	14/02/2011
26936321	S01AA30	17/11/2010
26958469	S01AA30	27/10/2010
26890700	S01AA30	13/09/2006
26891000	S01AA30	14/08/2008
26886481	S01AA30	14/03/2008
26886489	S01AA30	16/11/2009
26944377	S01AA30	17/09/2008
26943871	S01AA30	27/11/2009
26897499	S01AA30	02/09/2009
26900691	S01AA30	27/06/2008
26900955	S01AA30	28/01/2011
26896521	S01AA30	16/06/2009
26950378	S01AA30	30/10/2001
26901476	S01AA30	07/05/2010
26889892	S01AA30	04/05/2011
26916199	S01AA30	15/05/2007
26938134	S01AA30	04/05/2004
26950428	S01AA30	23/01/2007
26959391	S01AA30	18/02/2009
26943767	S01AA30	24/02/2003
26944305	S01AA30	19/04/2005
26944310	S01AA30	17/11/2010
26943794	S01AA30	29/05/2006
26937365	S01AA30	01/12/2007
26728428	S01AA30	22/07/2010
26901736	S01AA30	16/05/2006
26745307	S01AA30	06/03/2009
26711269	S01AA30	01/06/2004
26727596	S01AA30	13/11/2008
26754178	S01AA30	01/06/2008
26780574	S01AA30	29/03/2011
26753927	S01AA30	30/11/2004
26858061	S01AA30	17/07/2008
26716003	S01AA30	21/07/2008
26753075	S01AA30	07/03/2005
26754184	S01AA30	27/03/2010
26754251	S01AA30	15/02/2006
26883590	S01AA30	03/03/2008
26759540	S01AA30	26/09/2007
26741963	S01AA30	17/12/2008
26848964	S01AA30	02/03/2007
26720317	S01AA30	03/02/2005
26726986	S01AA30	19/05/2006
26883904	S01AA30	29/08/2006
26714061	S01AA30	26/03/2008
26886968	S01AA30	30/01/2008
26883943	S01AA30	05/12/2006
26720081	S01AA30	19/08/2003
26725743	S01AA30	19/04/2010
26883960	S01AA30	06/10/2008
26754414	S01AA30	04/06/2009
26728966	S01AA30	13/11/2007
26882624	S01AA30	05/05/2011
26879959	S01AA30	26/11/2007
26880205	S01AA30	28/12/2005
26883210	S01AA30	01/06/2009
26879837	S01AA30	14/08/2009
26872889	S01AA30	03/10/2005
26880220	S01AA30	30/09/2008
26950331	S01AA30	21/11/2006
26880051	S01AA30	25/02/2011
26880069	S01AA30	31/01/2006
26880285	S01AA30	27/11/2007
26880289	S01AA30	17/12/2003
26880238	S01AA30	01/06/2005
26888222	S01AA30	25/05/2004
26901664	S01AA30	19/12/2003
26874258	S01AA30	21/01/2010
26874633	S01AA30	25/05/2010
26879789	S01AA30	16/01/2008
26876895	S01AA30	12/03/2008
26886743	S01AA30	28/07/2010
26936559	S01AA30	02/11/2001
26854943	S01AA30	18/02/2008
26849091	S01AA30	06/04/2006
26846476	S01AA30	23/08/2010
26943502	S01AA30	25/10/2007
26849622	S01AA30	23/06/2008
26943579	S01AA30	05/05/2011
26944507	S01AA30	29/10/2004
26883508	S01AA30	12/11/2008
26849264	S01AA30	20/03/2011
26846302	S01AA30	15/03/2006
26880615	S01AA30	17/03/2011
26785070	S01AA30	12/04/2011
26758849	S01AA30	11/01/2011
26824324	S01AA30	24/03/2003
26824327	S01AA30	11/08/2007
26832761	S01AA30	25/03/2009
26775207	S01AA30	18/04/2009
26727258	S01AA30	16/05/2007
26727767	S01AA30	24/03/2008
26784984	S01AA30	14/05/2009
26713687	S01AA30	27/06/2003
26726186	S01AA30	13/05/2010
26793746	S01AA30	05/03/2008
26769553	S01AA30	25/02/2010
26714211	S01AA30	15/06/2010
26714374	S01AA30	11/05/2007
26714270	S01AA30	18/09/2009
26852978	S01AA30	12/05/2010
26853016	S01AA30	02/04/2009
26832939	S01AA30	29/01/2008
26853249	S01AA30	23/02/2010
26853253	S01AA30	14/02/2008
26725843	S01AA30	21/03/2011
26725847	S01AA30	03/01/2008
26825165	S01AA30	13/04/2007
26726090	S01AA30	29/12/2008
26995682	S01AA30	30/05/2011
27079131	S01AA30	05/09/2007
26960799	S01AA30	21/10/2003
26983022	S01AA30	27/04/2010
27080822	S01AA30	02/12/2008
27082033	S01AA30	21/03/2010
26955339	S01AA30	28/05/2003
26979392	S01AA30	01/10/2008
27082080	S01AA30	25/02/2011
26969129	S01AA30	08/05/2008
27029767	S01AA30	28/08/2008
26982514	S01AA30	24/03/2009
26979335	S01AA30	11/03/2010
26976907	S01AA30	09/10/2007
27071882	S01AA30	21/12/2009
27075569	S01AA30	27/01/2011
26944531	S01AA30	08/09/2008
26970927	S01AA30	07/05/2007
26982771	S01AA30	09/11/2010
27048515	S01AA30	28/04/2010
27107902	S01AA30	05/05/2005
27105329	S01AA30	05/07/2009
27103255	S01AA30	22/04/2003
27133125	S01AA30	06/06/2008
27108451	S01AA30	04/03/2011
27103339	S01AA30	17/02/2006
27082224	S01AA30	30/05/2008
27134275	S01AA30	13/11/2008
27102365	S01AA30	17/07/2007
27134310	S01AA30	30/10/2003
27134324	S01AA30	20/01/2011
27103558	S01AA30	16/03/2005
27134502	S01AA30	17/01/2007
27150958	S01AA30	13/11/2006
27108278	S01AA30	11/04/2008
27108300	S01AA30	07/06/2004
27149654	S01AA30	01/10/2003
27113158	S01AA30	07/10/2004
27082944	S01AA30	25/05/2007
27128177	S01AA30	30/01/2011
27113813	S01AA30	01/12/2009
27103473	S01AA30	31/12/2007
27103477	S01AA30	29/08/2009
27111606	S01AA30	08/06/2009
27130374	S01AA30	19/09/2007
27137844	S01AA30	31/12/2007
27024673	S01AA30	27/01/2011
27133523	S01AA30	23/09/2010
27114640	S01AA30	10/03/2006
27104236	S01AA30	27/09/2005
27103537	S01AA30	11/12/2006
27108157	S01AA30	18/05/2004
27100098	S01AA30	27/04/2009
27130162	S01AA30	24/06/2006
27107879	S01AA30	15/07/2008
27104284	S01AA30	19/07/2010
27048924	S01AA30	18/04/2011
27075643	S01AA30	08/05/2009
27061141	S01AA30	14/12/2009
27031426	S01AA30	18/04/2005
27054780	S01AA30	19/06/2001
27031641	S01AA30	11/09/2004
27054389	S01AA30	30/06/2010
27062396	S01AA30	30/01/2009
27108090	S01AA30	18/04/2011
27108115	S01AA30	19/12/2005
27127109	S01AA30	10/11/2006
27048430	S01AA30	28/02/2005
27062156	S01AA30	21/06/2008
27061753	S01AA30	27/05/2010
27046655	S01AA30	15/05/2011
27103593	S01AA30	24/12/2009
27080913	S01AA30	23/05/2009
27080965	S01AA30	07/06/2005
27054349	S01AA30	12/06/2009
27053176	S01AA30	27/11/2008
27075523	S01AA30	10/03/2006
27053373	S01AA30	26/07/2007
27048101	S01AA30	09/12/2010
27031269	S01AA30	02/07/2003
27112061	S01AA30	28/03/2011
27046535	S01AA30	30/06/2009
27062802	S01AA30	18/01/2007
27116319	S01AA30	24/04/2011
27027501	S01AA30	03/06/2005
27021322	S01AA30	25/10/2007
27010404	S01AA30	19/04/2005
26998494	S01AA30	18/02/2011
27025150	S01AA30	06/02/2003
26979025	S01AA30	22/12/2006
27012009	S01AA30	13/04/2011
27012024	S01AA30	18/09/2008
27042033	S01AA30	09/03/2010
27041316	S01AA30	17/12/2004
27027098	S01AA30	16/05/2007
27039385	S01AA30	03/01/2004
27029067	S01AA30	03/06/2009
27011370	S01AA30	20/12/2000
27021411	S01AA30	30/11/2005
27027383	S01AA30	27/12/2006
27027386	S01AA30	17/04/2007
26978733	S01AA30	08/02/2001
26999269	S01AA30	03/06/2010
27001487	S01AA30	16/02/2009
27011480	S01AA30	26/04/2005
27001937	S01AA30	27/12/2010
27036778	S01AA30	18/05/2009
27027177	S01AA30	27/04/2009
27000993	S01AA30	10/08/2010
27000566	S01AA30	20/09/2008
27039270	S01AA30	26/03/2009
27011969	S01AA30	25/11/2010
26983284	S01AA30	01/02/2011
27025817	S01AA30	19/01/2004
27025820	S01AA30	24/11/2005
27022688	S01AA30	08/10/2010
27024702	S01AA30	14/01/2010
27027465	S01AA30	06/06/2008
27041217	S01AA30	26/01/2006
27039849	S01AA30	10/01/2008
27150732	S01AA30	15/09/2005
27327081	S01AA30	05/01/2010
27216549	S01AA30	09/10/2008
27346535	S01AA30	01/09/2010
27327435	S01AA30	05/11/2007
27325553	S01AA30	29/12/2009
27396681	S01AA30	25/02/2008
27216624	S01AA30	16/11/2007
27152044	S01AA30	23/07/2001
27172241	S01AA30	28/01/2007
27172359	S01AA30	28/01/2011
27327578	S01AA30	10/04/2007
27357217	S01AA30	22/12/2007
27357376	S01AA30	25/05/2010
27369270	S01AA30	03/11/2005
27387248	S01AA30	17/03/2008
27327945	S01AA30	26/07/2007
27243663	S01AA30	04/12/2001
27131300	S01AA30	14/02/2006
27143681	S01AA30	31/12/2008
27399991	S01AA30	25/07/2005
27347134	S01AA30	23/02/2009
27383415	S01AA30	12/03/2006
27354157	S01AA30	13/04/2010
27357453	S01AA30	21/04/2011
27387977	S01AA30	21/01/2009
27219885	S01AA30	17/03/2011
27346085	S01AA30	25/05/2010
27327762	S01AA30	28/03/2008
27166815	S01AA30	11/02/2008
27218921	S01AA30	18/07/2005
27307620	S01AA30	07/12/2005
27368103	S01AA30	29/03/2010
27233304	S01AA30	31/10/2009
27314715	S01AA30	30/08/2006
27357632	S01AA30	30/06/2009
27232670	S01AA30	25/03/2008
27248363	S01AA30	13/11/2004
27295794	S01AA30	21/12/2005
27238029	S01AA30	27/11/2004
27352971	S01AA30	07/02/2008
27295852	S01AA30	25/02/2005
27197012	S01AA30	17/08/2006
27356824	S01AA30	12/04/2010
27387575	S01AA30	14/12/2010
27221044	S01AA30	13/11/2010
27247846	S01AA30	27/06/2008
27235809	S01AA30	16/07/2007
27212701	S01AA30	10/09/2009
27371161	S01AA30	16/05/2007
27197886	S01AA30	02/06/2006
27215562	S01AA30	28/01/2011
27295991	S01AA30	01/12/2007
27252060	S01AA30	04/01/2001
27319443	S01AA30	27/02/2008
27349552	S01AA30	28/04/2008
27211899	S01AA30	20/09/2008
27295928	S01AA30	03/06/2009
27365164	S01AA30	10/06/2008
27356978	S01AA30	16/06/2009
27346014	S01AA30	14/06/2010
27319778	S01AA30	23/06/2004
27296225	S01AA30	11/05/2010
27357691	S01AA30	22/03/2010
27346294	S01AA30	17/12/2009
27357150	S01AA30	18/01/2010
27387854	S01AA30	20/12/2010
27360872	S01AA30	08/03/2011
27307991	S01AA30	01/03/2011
27302542	S01AA30	22/11/2005
27327858	S01AA30	29/07/2004
27221777	S01AA30	10/10/2007
27296313	S01AA30	23/10/2007
27306602	S01AA30	28/12/2009
26943377	S01AA30	24/06/2010
27217716	S01AA30	26/03/2005
26968760	S01AA30	30/06/2010
27232370	S01AA30	29/10/2009
27232386	S01AA30	19/11/2008
27246754	S01AA30	24/07/2008
27173476	S01AA30	26/03/2007
26968816	S01AA30	17/05/2011
26968859	S01AA30	08/08/2005
27228741	S01AA30	16/05/2006
26943081	S01AA30	21/02/2009
26943084	S01AA30	28/01/2011
26953757	S01AA30	29/01/2004
27222310	S01AA30	18/12/2009
26975002	S01AA30	22/02/2008
26979514	S01AA30	15/02/2005
26959162	S01AA30	15/09/2008
27212879	S01AA30	02/12/2009
27232587	S01AA30	11/01/2005
27235467	S01AA30	26/10/2007
27252810	S01AA30	07/05/2001
27232643	S01AA30	28/05/2003
26960523	S01AA30	27/09/2003
26960544	S01AA30	13/11/2006
26960579	S01AA30	22/05/2009
27252394	S01AA30	02/04/2008
27247445	S01AA30	27/07/2010
26968704	S01AA30	16/02/2009
26954926	S01AA30	05/05/2010
27222425	S01AA30	21/12/2006
27199304	S01AA30	17/09/2007
27001265	S01AA30	14/11/2006
27235782	S01AA30	23/03/2009
27604346	S01AA30	03/09/2010
27575771	S01AA30	24/08/2007
27576235	S01AA30	17/09/2010
27646258	S01AA30	05/06/2007
27577554	S01AA30	13/09/2006
27575307	S01AA30	20/12/2010
27575329	S01AA30	25/06/2008
27617001	S01AA30	31/05/2011
27617024	S01AA30	04/12/2007
27651171	S01AA30	16/07/2010
27618071	S01AA30	17/11/2008
27632310	S01AA30	29/09/2008
27640410	S01AA30	22/10/2009
27617388	S01AA30	19/02/2009
27589231	S01AA30	22/04/2010
27591094	S01AA30	30/06/2009
27575028	S01AA30	24/02/2006
27590877	S01AA30	12/08/2008
27590159	S01AA30	15/03/2010
27574834	S01AA30	25/09/2009
27643451	S01AA30	16/05/2011
27660829	S01AA30	27/04/2011
27623983	S01AA30	09/02/2010
27739364	S01AA30	10/11/2009
27588855	S01AA30	05/07/2004
27588540	S01AA30	08/06/2009
27576476	S01AA30	06/10/2010
27645042	S01AA30	10/05/2007
27606372	S01AA30	17/10/2008
27578571	S01AA30	16/05/2009
27574941	S01AA30	17/02/2011
27651305	S01AA30	10/09/2010
27616698	S01AA30	30/11/2005
27589937	S01AA30	14/02/2005
27661675	S01AA30	24/05/2001
27659651	S01AA30	15/10/2007
27475803	S01AA30	19/11/2010
27450379	S01AA30	22/11/2005
27589857	S01AA30	07/03/2005
27445919	S01AA30	16/02/2006
27427639	S01AA30	11/09/2010
27647443	S01AA30	07/07/2010
27472401	S01AA30	04/02/2009
27460528	S01AA30	14/04/2009
27484221	S01AA30	25/04/2008
27420339	S01AA30	13/05/2008
27660215	S01AA30	27/07/2010
27442210	S01AA30	21/10/2008
27469908	S01AA30	06/10/2005
27445319	S01AA30	02/05/2005
27569159	S01AA30	02/12/2008
27757050	S01AA30	06/05/2003
27569334	S01AA30	02/06/2008
27569588	S01AA30	12/04/2007
27569487	S01AA30	06/04/2010
27547797	S01AA30	03/02/2003
27568903	S01AA30	22/03/2010
27569066	S01AA30	19/03/2011
27566318	S01AA30	11/04/2008
27615001	S01AA30	19/07/2005
27567475	S01AA30	29/05/2009
27569114	S01AA30	16/02/2010
27572024	S01AA30	24/12/2008
27567257	S01AA30	18/04/2006
27765512	S01AA30	17/05/2004
27570415	S01AA30	20/03/2006
27759720	S01AA30	15/05/2008
27764873	S01AA30	14/05/2003
27569742	S01AA30	02/11/2010
27618223	S01AA30	19/12/2005
27618240	S01AA30	10/05/2011
27758847	S01AA30	26/11/2005
27631186	S01AA30	15/09/2006
27558277	S01AA30	02/06/2010
27570041	S01AA30	18/02/2010
27569358	S01AA30	07/12/2005
27545953	S01AA30	28/05/2010
27616396	S01AA30	10/05/2006
27547936	S01AA30	26/01/2005
27568937	S01AA30	09/02/2011
27569737	S01AA30	16/11/2010
27565194	S01AA30	18/12/2006
27694922	S01AA30	24/01/2011
27570342	S01AA30	10/06/2010
27544049	S01AA30	12/09/2008
27568394	S01AA30	05/06/2008
27564137	S01AA30	13/09/2006
27547901	S01AA30	17/10/2007
27716070	S01AA30	03/05/2004
27708618	S01AA30	21/09/2007
27294482	S01AA30	06/02/2010
27127316	S01AA30	23/04/2007
27131238	S01AA30	04/12/2009
27153476	S01AA30	10/09/2007
27153968	S01AA30	05/04/2005
27167394	S01AA30	29/11/2005
27294754	S01AA30	25/11/2002
27160905	S01AA30	28/04/2004
27144885	S01AA30	26/08/2009
27161455	S01AA30	25/03/2007
27138940	S01AA30	22/08/2003
27153760	S01AA30	11/05/2010
27130996	S01AA30	11/03/2002
27247057	S01AA30	21/07/2005
27159650	S01AA30	11/02/2011
27132788	S01AA30	20/12/2010
27284429	S01AA30	14/01/2008
27147326	S01AA30	22/05/2003
27145240	S01AA30	27/03/2007
27146134	S01AA30	26/03/2007
27232266	S01AA30	08/05/2008
27160272	S01AA30	25/05/2005
27284226	S01AA30	25/06/2003
27295071	S01AA30	04/11/2009
27147685	S01AA30	22/03/2005
27445969	S01AA30	21/01/2005
27285134	S01AA30	10/07/2007
27146606	S01AA30	17/09/2001
27164172	S01AA30	10/07/2009
27161329	S01AA30	07/01/2011
27295411	S01AA30	08/04/2009
27150419	S01AA30	12/01/2002
27479586	S01AA30	08/10/2009
27286544	S01AA30	13/02/2008
27145982	S01AA30	05/01/2005
27145994	S01AA30	07/02/2009
27146005	S01AA30	03/09/2008
27146052	S01AA30	08/04/2005
27232494	S01AA30	05/09/2001
27232527	S01AA30	31/03/2010
27232543	S01AA30	31/03/2001
27161899	S01AA30	07/08/2007
27229030	S01AA30	04/08/2004
27315398	S01AA30	26/06/2009
27387035	S01AA30	25/02/2011
26954350	S01AA30	26/06/2008
27800664	S01AA30	24/04/2009
26900477	S01AA30	13/07/2009
27689536	S01AA30	18/06/2008
26969021	S01AA30	18/06/2010
648889	S01AA30	20/04/2011
27689115	S01AA30	06/05/2010
26725920	S01AA30	07/02/2010
27776864	S01AA30	07/04/2007
25741964	S01AA30	14/12/2006
27775658	S01AA30	27/03/2006
26944101	S01AA30	21/12/2004
18187165	S01AA30	07/11/2001
2252713	S01AA30	13/03/2008
26625750	S01AA30	23/08/2007
26754516	S01AA30	05/04/2011
16085199	S01AA30	14/02/2010
1016318	S01AA30	17/07/2007
27106877	S01AA30	23/01/2010
26774604	S01AA30	28/10/2010
27131477	S01AA30	24/03/2006
27220237	S01AA30	04/12/2010
23087147	S01AA30	05/10/2005
266530	S01AA30	15/01/2010
26982713	S01AA30	12/04/2007
305044	S01AA30	08/07/2010
26973816	S01AA30	28/09/2004
26968518	S01AA30	07/08/2008
20331410	S01AA30	28/11/2003
27665197	S01AA30	22/10/2003
27784826	S01AA30	16/08/2005
27689081	S01AA30	15/03/2007
27773248	S01AA30	23/03/2005
27678332	S01AA30	18/06/2003
27718052	S01AA30	20/10/2005
27682540	S01AA30	02/09/2010
27678840	S01AA30	20/05/2008
27531352	S01AA30	13/05/2004
27535710	S01AA30	26/03/2008
27672494	S01AA30	24/06/2005
27454691	S01AA30	10/12/2008
27769906	S01AA30	24/09/2009
27782453	S01AA30	13/09/2006
27684998	S01AA30	07/09/2009
27678951	S01AA30	16/11/2007
27767169	S01AA30	15/04/2006
27674475	S01AA30	10/04/2006
27496435	S01AA30	04/08/2010
27317365	S01AA30	15/05/2008
27678367	S01AA30	07/01/2006
27446050	S01AA30	04/04/2009
27446070	S01AA30	07/10/2008
27669980	S01AA30	26/04/2010
27768769	S01AA30	07/04/2008
27766579	S01AA30	14/11/2005
27665761	S01AA30	02/02/2006
27514984	S01AA30	30/05/2005
27767142	S01AA30	19/02/2007
27680700	S01AA30	14/07/2010
27664133	S01AA30	03/07/2009
26775396	S01AA30	11/07/2007
27570288	S01AA30	15/06/2007
27680594	S01AA30	26/09/2006
26775834	S01AA30	29/08/2005
27773439	S01AA30	26/11/2003
26833036	S01AA30	11/08/2006
27766470	S01AA30	29/04/2011
26795838	S01AA30	18/11/2009
184096	S01AA30	30/06/2005
26883311	S01AA30	26/05/2009
27533492	S01AA30	30/01/2007
23087045	S01AA30	19/06/2007
26992037	S01AA30	08/10/2010
24579601	S01AA30	16/02/2007
27674208	S01AA30	03/06/2009
418255	S01AA30	25/06/2007
27678211	S01AA30	14/06/2007
27688363	S01AA30	26/10/2006
27688385	S01AA30	29/01/2004
27680726	S01AA30	21/05/2007
27665847	S01AA30	18/10/2004
27688903	S01AA30	14/10/2004
27776964	S01AA30	23/12/2002
17160016	S01AA30	09/06/2010
27671221	S01AA30	22/10/2004
27688190	S01AA30	15/04/2011
27662504	S01AA30	03/10/2008
27771463	S01AA30	15/12/2009
27024856	S01AA30	23/11/2005
27674197	S01AA30	04/09/2008
26726270	S01AA30	20/05/2011
27681780	S01AA30	08/04/2009
27688247	S01AA30	16/10/2008
27682306	S01AA30	03/01/2008
26833867	S01AA30	08/03/2006
27307886	S01AA30	02/07/2007
27444568	S01AA30	20/04/2009
27648580	S01AA30	03/09/2003
27648593	S01AA30	06/06/2005
27470250	S01AA30	21/04/2011
27517142	S01AA30	18/12/2008
27575411	S01AA30	15/11/2005
27454435	S01AA30	03/02/2010
27650966	S01AA30	15/07/2006
27575437	S01AA30	18/03/2010
27540653	S01AA30	24/12/2007
27321099	S01AA30	20/11/2003
27449803	S01AA30	26/07/2005
27540802	S01AA30	08/11/2006
27590359	S01AA30	05/12/2006
27540244	S01AA30	13/05/2006
27541129	S01AA30	13/11/2007
27617503	S01AA30	25/02/2008
27530452	S01AA30	12/03/2009
27527930	S01AA30	25/03/2011
27621963	S01AA30	14/06/2008
27307759	S01AA30	04/12/2008
27478713	S01AA30	18/02/2011
27451490	S01AA30	28/12/2006
26620681	S01AA30	10/12/2003
26895421	S01AA30	26/11/2007
27295270	S01AA30	07/06/2010
27553310	S01AA30	10/04/2007
26619933	S01AA30	23/03/2009
27802903	S01AA30	13/01/2006
465559	S01AA30	10/10/2001
27640778	S01AA30	29/12/2008
24668612	S01AA30	30/11/2004
27597806	S01AA30	13/03/2008
27568939	S01AA30	05/05/2005
10824741	S01AA30	07/02/2005
21705761	S01AA30	12/04/2006
19280206	S01AA30	12/11/2010
27398357	S01AA30	01/06/2009
2998206	S01AA30	28/12/2010
27778523	S01AA30	03/03/2009
27000730	S01AA30	05/05/2005
27196928	S01AA30	25/10/2010
27803448	S01AA30	27/07/2010
26971047	S01AA30	27/05/2010
27048619	S01AA30	21/12/2010
27802262	S01AA30	29/12/2003
27759574	S01AA30	24/02/2005
27807843	S01AA30	18/03/2006
27212642	S01AA30	11/04/2011
27808054	S01AA30	09/04/2003
27686913	S01AA30	26/04/2009
27677462	S01AA30	25/02/2004
27797733	S01AA30	14/06/2005
27808069	S01AA30	18/11/2004
27755499	S01AA30	14/03/2008
27800787	S01AA30	16/03/2010
27689453	S01AA30	16/09/2008
27758954	S01AA30	02/04/2004
27794317	S01AA30	09/03/2004
27063601	S01AA30	09/12/2004
27667247	S01AA30	09/08/2006
27667259	S01AA30	28/02/2006
27707178	S01AA30	27/10/2008
27665614	S01AA30	26/03/2007
27063841	S01AA30	29/09/2010
27693596	S01AA30	19/12/2005
27689424	S01AA30	06/05/2009
27797548	S01AA30	08/04/2009
27046555	S01AA30	25/05/2009
27689645	S01AA30	26/01/2009
27708829	S01AA30	23/12/2010
27800778	S01AA30	03/10/2003
27623151	S01AA30	03/10/2001
26969095	S01AA30	25/02/2008
27318402	S01AA30	12/08/2008
27666278	S01AA30	25/03/2003
26876130	S01AA30	27/03/2003
26770940	S01AA30	18/04/2006
18951056	S01AA30	10/08/2010
27565622	S01AA30	09/12/2010
435789	S01AA30	06/04/2000
27484270	S01AA30	10/03/2011
27571285	S01AA30	22/08/2008
27025860	S01AA30	17/01/2007
17160983	S01AA30	14/05/2007
26754055	S01AA30	29/01/2009
19800992	S01AA30	04/11/2009
27617912	S01AA30	08/02/2006
27520212	S01AA30	13/11/2006
27131143	S01AA30	05/10/2005
27039541	S01AA30	12/02/2003
27600465	S01AA30	16/01/2007
27780213	S01AA30	10/04/2007
18192604	S01AA30	05/01/2011
27539994	S01AA30	12/04/2005
27618141	S01AA30	14/12/2010
27614816	S01AA30	14/06/2005
12954084	S01AA30	27/06/2009
26832989	S01AA30	10/07/2010
27369005	S01AA30	11/08/2009
26849382	S01AA30	23/02/2011
2997750	S01AA30	10/12/2007
18199101	S01AA30	24/02/2007
27066908	S01AA30	16/12/2010
27782172	S01AA30	03/07/2006
27808234	S01AA30	15/11/2010
27678355	S01AA30	22/10/2009
26754466	S01AA30	08/12/2007
27052844	S01AA30	09/05/2007
27794220	S01AA30	11/06/2005
26803298	S01AA30	10/11/2009
27318858	S01AA30	27/10/2005
26872972	S01AA30	23/11/2007
27773328	S01AA30	18/01/2006
27758624	S01AA30	20/10/2010
27678694	S01AA30	27/12/2010
27426834	S01AA30	14/05/2004
27786169	S01AA30	24/03/2003
13497550	S01AA30	12/01/2007
27051909	S01AA30	30/07/2003
27390791	S01AA30	24/06/2005
27047804	S01AA30	12/12/2008
27766849	S01AA30	31/01/2008
27346635	S01AA30	26/11/2010
26730099	S01AA30	19/09/2006
27687968	S01AA30	21/02/2011
27765674	S01AA30	09/10/2009
21554134	S01AA30	02/08/2004
26968797	S01AA30	03/06/2010
27771320	S01AA30	04/01/2010
33024650	S01AA30	13/03/2008
33057954	S01AA30	24/08/2005
33065542	S01AA30	10/09/2004
33025368	S01AA30	13/08/2002
33080368	S01AA30	30/03/2001
33051475	S01AA30	13/02/2009
33092896	S01AA30	22/12/2008
33007757	S01AA30	07/11/2005
33077083	S01AA30	19/12/2005
33118427	S01AA30	17/11/2005
33098852	S01AA30	23/06/2008
33027806	S01AA30	11/10/2002
33118863	S01AA30	18/01/2008
33085299	S01AA30	15/05/2006
33099318	S01AA30	17/05/2007
33115825	S01AA30	05/05/2006
33016797	S01AA30	15/03/2007
33110326	S01AA30	28/01/2010
33113624	S01AA30	13/04/2005
33007749	S01AA30	13/03/2002
33003744	S01AA30	20/06/2003
33097586	S01AA30	09/11/2005
33013406	S01AA30	11/12/2008
33038820	S01AA30	22/07/2008
33108978	S01AA30	13/06/2008
33128557	S01AA30	16/05/2011
33044627	S01AA30	11/12/2007
33045777	S01AA30	08/08/2007
33090887	S01AA30	18/02/2011
33098168	S01AA30	21/03/2000
33125061	S01AA30	19/02/2008
33046388	S01AA30	29/01/2008
33084650	S01AA30	17/02/2006
33067653	S01AA30	01/02/2007
33012294	S01AA30	24/08/2004
33012303	S01AA30	15/06/2004
33034168	S01AA30	31/03/2006
33014069	S01AA30	24/09/2002
179280	S01AA30	06/08/2010
26879958	S01AA30	18/10/2006
1043506	S01AA30	24/01/2011
27678827	S01AA30	24/10/2007
27807416	S01AA30	29/01/2004
26637123	S01AA30	17/01/2005
27507107	S01AA30	20/01/2011
27002795	S01AA30	09/03/2007
27808378	S01AA30	14/10/2009
2997907	S01AA30	17/01/2007
437585	S01AA30	22/07/2006
464881	S01AA30	17/04/2001
1366024	S01AA30	02/12/2008
13498162	S01AA30	06/11/2000
11443754	S01AA30	08/01/2010
436222	S01AA30	16/12/2004
2967605	S01AA30	23/04/2007
27801842	S01AA30	09/01/2008
27801961	S01AA30	09/04/2008
2966560	S01AA30	25/01/2006
13757021	S01AA30	19/09/2007
2967985	S01AA30	15/11/2006
16567941	S01AA30	05/03/2007
265805	S01AA30	01/02/2010
27248892	S01AA30	14/05/2009
24661191	S01AA30	04/12/2007
33301876	S01AA30	04/12/2008
28035810	S01AA30	26/03/2009
27999856	S01AA30	28/02/2006
23274777	S01AA30	07/04/2011
27994744	S01AA30	25/06/2010
27911346	S01AA30	05/02/2010
16133593	S01AA30	23/11/2006
27994570	S01AA30	29/06/2009
16648026	S01AA30	12/01/2011
24466518	S01AA30	15/01/2008
27872711	S01AA30	23/03/2006
16646449	S01AA30	07/12/2010
16619763	S01AA30	14/02/2005
16647181	S01AA30	24/08/2004
33251505	S01AA30	10/12/2001
20997022	S01AA30	26/05/2011
33316391	S01AA30	19/10/2010
21116171	S01AA30	29/12/2008
27994059	S01AA30	17/05/2011
16647769	S01AA30	11/01/2008
16171779	S01AA30	28/05/2007
16639046	S01AA30	15/12/2009
33295085	S01AA30	30/01/2009
33234483	S01AA30	15/05/2007
24465418	S01AA30	15/05/2008
16646463	S01AA30	13/06/2008
33048320	S01AA30	24/08/2005
33069675	S01AA30	17/12/2003
33132739	S01AA30	11/03/2010
33068298	S01AA30	01/10/2003
33039979	S01AA30	09/12/2003
33109497	S01AA30	20/08/2004
33049911	S01AA30	07/02/2008
33019718	S01AA30	05/12/2005
33046023	S01AA30	06/03/2009
33034158	S01AA30	09/03/2007
33000875	S01AA30	02/08/2006
33020543	S01AA30	14/04/2005
33105985	S01AA30	08/02/2001
33077877	S01AA30	28/02/2006
33029125	S01AA30	05/06/2000
33099116	S01AA30	02/01/2003
33073237	S01AA30	30/01/2001
33021593	S01AA30	13/11/2007
33032181	S01AA30	03/07/2007
33091289	S01AA30	27/01/2006
33007891	S01AA30	21/12/2006
33006515	S01AA30	01/02/2002
33000686	S01AA30	18/03/2002
33302592	S01AA30	25/03/2010
16646444	S01AA30	29/02/2008
27872780	S01AA30	20/10/2003
23342675	S01AA30	24/02/2010
16774206	S01AA30	04/02/2010
16611190	S01AA30	06/10/2004
23360636	S01AA30	15/01/2008
18768070	S01AA30	28/02/2011
27998933	S01AA30	25/05/2005
27999273	S01AA30	20/01/2010
33251008	S01AA30	10/01/2006
28004835	S01AA30	25/05/2006
24466463	S01AA30	27/04/2011
16679673	S01AA30	29/07/2009
16174230	S01AA30	09/02/2009
33293488	S01AA30	22/02/2011
16645912	S01AA30	17/10/2005
16646009	S01AA30	06/05/2009
27995555	S01AA30	23/02/2010
27904276	S01AA30	09/05/2011
24465854	S01AA30	09/07/2010
23360965	S01AA30	08/10/2008
27997212	S01AA30	28/01/2011
33218148	S01AA30	12/02/2010
16647755	S01AA30	21/03/2011
33235295	S01AA30	15/06/2004
16138756	S01AA30	04/06/2001
27984159	S01AA30	26/10/2008
16647831	S01AA30	06/09/2010
16680776	S01AA30	19/11/2010
33317150	S01AA30	02/05/2006
16174048	S01AA30	30/03/2004
28001902	S01AA30	19/06/2009
16629078	S01AA30	14/11/2008
33212324	S01AA30	03/03/2011
33258499	S01AA30	16/09/2004
33239141	S01AA30	25/09/2008
16173716	S01AA30	25/01/2003
28004706	S01AA30	04/06/2009
16652466	S01AA30	18/10/2010
16651428	S01AA30	07/11/2008
20955194	S01AA30	03/05/2011
18768076	S01AA30	27/08/2010
23381149	S01AA30	18/05/2010
27998592	S01AA30	30/01/2007
27998885	S01AA30	22/03/2008
16631978	S01AA30	25/05/2007
33244530	S01AA30	18/02/2010
21100330	S01AA30	30/06/2008
27999995	S01AA30	02/06/2004
27828645	S01AA30	28/04/2006
33250285	S01AA30	28/04/2005
16174125	S01AA30	10/12/2003
23361209	S01AA30	01/04/2003
27995005	S01AA30	01/12/2009
16133260	S01AA30	18/12/2001
16646056	S01AA30	24/12/2009
23361248	S01AA30	20/11/2009
21106299	S01AA30	01/07/2009
18771180	S01AA30	03/10/2003
28021554	S01AA30	12/06/2007
18771664	S01AA30	07/06/2002
33292875	S01AA30	02/09/2008
24465820	S01AA30	01/08/2007
16679741	S01AA30	02/04/2008
28034806	S01AA30	04/03/2008
33250024	S01AA30	25/01/2011
16680317	S01AA30	02/02/2011
16652525	S01AA30	14/06/2008
16657725	S01AA30	24/02/2006
16596474	S01AA30	19/10/2005
23408667	S01AA30	02/11/2005
28034947	S01AA30	26/02/2008
16645941	S01AA30	16/05/2011
28034863	S01AA30	19/01/2011
33293731	S01AA30	07/01/2009
33250894	S01AA30	14/01/2002
16597365	S01AA30	20/05/2005
33202100	S01AA30	14/10/2009
23361045	S01AA30	27/12/2008
16173411	S01AA30	06/03/2010
24221262	S01AA30	06/06/2005
16172311	S01AA30	18/02/2008
23260632	S01AA30	13/02/2008
33316264	S01AA30	18/10/2010
16133223	S01AA30	08/11/2010
28008415	S01AA30	29/12/2010
33242292	S01AA30	25/06/2008
27844038	S01AA30	06/02/2009
33235163	S01AA30	29/12/2004
16646490	S01AA30	28/01/2010
16596125	S01AA30	28/04/2009
27998334	S01AA30	09/07/2010
16171684	S01AA30	21/12/2001
28033454	S01AA30	09/04/2005
28004253	S01AA30	10/01/2011
28003123	S01AA30	15/03/2011
28029025	S01AA30	06/07/2009
23320103	S01AA30	26/07/2004
24466193	S01AA30	12/01/2007
33316359	S01AA30	09/12/2010
33316369	S01AA30	20/12/2008
16652191	S01AA30	17/11/2008
27999146	S01AA30	19/03/2008
27957472	S01AA30	20/11/2009
33302747	S01AA30	03/12/2008
33305003	S01AA30	06/09/2006
33202050	S01AA30	24/11/2001
33306335	S01AA30	26/03/2008
18765114	S01AA30	15/03/2005
16172391	S01AA30	31/01/2005
16647269	S01AA30	28/03/2005
28004246	S01AA30	15/09/2009
16680316	S01AA30	23/02/2010
16679672	S01AA30	04/03/2009
18766111	S01AA30	03/02/2010
33250951	S01AA30	29/09/2005
16636488	S01AA30	01/03/2011
33235172	S01AA30	04/02/2009
18745610	S01AA30	04/12/2010
33249036	S01AA30	03/01/2011
33249205	S01AA30	13/03/2006
27988780	S01AA30	10/12/2008
16625522	S01AA30	30/11/2007
16173300	S01AA30	19/04/2010
27846145	S01AA30	06/02/2009
16172108	S01AA30	20/01/2003
28006613	S01AA30	26/10/2007
24465658	S01AA30	06/05/2011
16629318	S01AA30	18/11/2008
16628644	S01AA30	22/11/2010
28029267	S01AA30	12/11/2009
21105718	S01AA30	06/01/2010
28029259	S01AA30	29/04/2010
23385430	S01AA30	28/12/2010
16647759	S01AA30	05/04/2011
21112058	S01AA30	13/01/2006
23341131	S01AA30	03/02/2010
16645551	S01AA30	19/06/2007
23364720	S01AA30	12/05/2008
23386288	S01AA30	12/02/2008
20990166	S01AA30	14/05/2010
16177824	S01AA30	26/09/2008
16621449	S01AA30	26/05/2005
16173710	S01AA30	26/12/2009
16610026	S01AA30	06/03/2007
21106236	S01AA30	04/02/2010
23401703	S01AA30	21/07/2008
23368415	S01AA30	10/11/2006
16186168	S01AA30	24/07/2006
16602684	S01AA30	07/03/2003
20991511	S01AA30	30/04/2004
27996491	S01AA30	29/03/2010
33243014	S01AA30	28/08/2003
28034015	S01AA30	08/01/2007
16647726	S01AA30	03/11/2010
33228458	S01AA30	21/04/2011
18770770	S01AA30	11/03/2008
16684605	S01AA30	16/02/2007
28025330	S01AA30	16/02/2009
16596274	S01AA30	21/11/2007
33249418	S01AA30	25/04/2005
28001216	S01AA30	03/04/2007
33251513	S01AA30	04/06/2008
28002227	S01AA30	27/01/2009
28004322	S01AA30	07/04/2008
16657864	S01AA30	03/11/2004
18857014	S01AA30	04/04/2011
16647105	S01AA30	19/06/2002
23364873	S01AA30	16/05/2007
27958849	S01AA30	26/02/2010
16629051	S01AA30	27/12/2007
28004671	S01AA30	28/06/2007
27988203	S01AA30	15/12/2006
33248767	S01AA30	05/05/2007
16639593	S01AA30	31/03/2006
16680206	S01AA30	05/12/2005
18754430	S01AA30	22/06/2009
27998717	S01AA30	22/09/2008
23383501	S01AA30	15/03/2010
23375524	S01AA30	09/05/2011
21105927	S01AA30	22/12/2008
16640372	S01AA30	16/05/2005
16172349	S01AA30	14/05/2007
18754412	S01AA30	13/12/2008
23397368	S01AA30	15/09/2009
33302236	S01AA30	04/06/2010
16124869	S01AA30	25/01/2006
23385997	S01AA30	16/05/2005
16646427	S01AA30	20/11/2010
23360490	S01AA30	14/06/2005
16648785	S01AA30	25/05/2005
20990975	S01AA30	21/03/2005
23401278	S01AA30	21/07/2008
23386517	S01AA30	27/07/2005
20987995	S01AA30	30/09/2008
20990682	S01AA30	10/01/2007
18753750	S01AA30	26/12/2008
21111985	S01AA30	22/03/2011
27846161	S01AA30	02/02/2007
28015847	S01AA30	08/09/2009
16637664	S01AA30	05/02/2009
27872602	S01AA30	16/05/2005
16684088	S01AA30	21/01/2004
27859464	S01AA30	24/07/2009
16637922	S01AA30	03/07/2007
16596776	S01AA30	20/05/2003
33244635	S01AA30	14/07/2007
27847304	S01AA30	27/11/2001
33243281	S01AA30	28/08/2009
33234709	S01AA30	18/06/2007
27998853	S01AA30	08/04/2008
23362182	S01AA30	24/08/2007
16647928	S01AA30	20/04/2010
28030781	S01AA30	14/02/2003
28033520	S01AA30	10/12/2007
16173635	S01AA30	05/04/2010
16680230	S01AA30	04/08/2005
16712610	S01AA30	11/12/2009
16606863	S01AA30	26/01/2011
33302039	S01AA30	17/05/2011
16658497	S01AA30	14/02/2011
27998137	S01AA30	25/05/2006
33248808	S01AA30	13/05/2011
16652101	S01AA30	18/05/2010
16647294	S01AA30	06/11/2001
24206007	S01AA30	30/04/2007
16646273	S01AA30	01/04/2005
28004760	S01AA30	11/03/2011
33266891	S01AA30	11/06/2010
27998488	S01AA30	04/02/2005
29840605	S01AA30	24/01/2011
28899787	S01AA30	09/05/2011
31752872	S01AA30	30/01/2009
29843708	S01AA30	23/03/2011
31899887	S01AA30	25/09/2007
30087602	S01AA30	01/02/2011
28230308	S01AA30	19/10/2010
31039550	S01AA30	22/10/2007
30336989	S01AA30	21/01/2011
30170080	S01AA30	31/05/2011
31654280	S01AA30	17/09/2007
31499727	S01AA30	28/01/2008
29417372	S01AA30	01/06/2011
29536234	S01AA30	29/11/2010
31085741	S01AA30	01/12/2005
31798997	S01AA30	08/10/2007
31785180	S01AA30	27/04/2005
31639453	S01AA30	08/02/2007
21110134	S01AA30	25/01/2007
23239629	S01AA30	09/05/2011
23405281	S01AA30	21/04/2004
23385894	S01AA30	07/04/2005
33279120	S01AA30	13/04/2011
18762072	S01AA30	08/07/2003
16649316	S01AA30	15/06/2010
21106150	S01AA30	15/02/2011
33314705	S01AA30	25/03/2011
33310642	S01AA30	18/02/2005
23362721	S01AA30	09/07/2007
20990779	S01AA30	28/07/2005
16630904	S01AA30	01/10/2003
23332440	S01AA30	15/02/2010
16171700	S01AA30	02/01/2002
16645647	S01AA30	06/05/2009
16168690	S01AA30	16/06/2007
16127130	S01AA30	12/04/2007
16647011	S01AA30	19/11/2001
16646450	S01AA30	17/03/2008
23470370	S01AA30	04/02/2011
27847320	S01AA30	09/04/2010
28002472	S01AA30	04/06/2010
33302452	S01AA30	09/03/2009
16647731	S01AA30	11/04/2009
30348574	S01AA30	25/10/2010
16172535	S01AA30	08/02/2008
33302431	S01AA30	17/03/2011
27998868	S01AA30	21/04/2008
29993333	S01AA30	01/04/2011
23385262	S01AA30	18/08/2005
23275767	S01AA30	26/01/2008
30759416	S01AA30	15/02/2011
27999787	S01AA30	25/01/2010
30244354	S01AA30	06/05/2011
29028463	S01AA30	24/03/2011
33201953	S01AA30	04/10/2001
27848565	S01AA30	08/07/2003
23385786	S01AA30	18/01/2010
23402803	S01AA30	23/08/2004
16648484	S01AA30	19/02/2008
16126697	S01AA30	19/11/2008
23385308	S01AA30	11/08/2004
23402429	S01AA30	23/05/2005
20989863	S01AA30	10/01/2011
23367241	S01AA30	14/05/2008
20990782	S01AA30	23/03/2009
23384854	S01AA30	27/09/2010
20987399	S01AA30	13/12/2006
23386433	S01AA30	04/06/2009
33316915	S01AA30	27/11/2006
20991046	S01AA30	08/05/2006
23360494	S01AA30	31/10/2008
27872681	S01AA30	25/05/2011
16621461	S01AA30	13/06/2003
16646378	S01AA30	17/08/2007
23349661	S01AA30	10/01/2008
16613501	S01AA30	09/02/2005
23386075	S01AA30	21/08/2008
23385783	S01AA30	13/12/2007
23386909	S01AA30	13/12/2005
23385623	S01AA30	18/02/2008
16174088	S01AA30	21/01/2008
21102586	S01AA30	10/04/2011
27970377	S01AA30	20/04/2010
23385019	S01AA30	11/12/2006
27994705	S01AA30	29/04/2008
31250750	S01AA30	02/01/2006
31767304	S01AA30	12/02/2008
31322340	S01AA30	18/09/2006
32244890	S01AA30	30/05/2008
31804008	S01AA30	26/11/2008
31628609	S01AA30	21/05/2007
31607904	S01AA30	17/03/2006
31254785	S01AA30	05/08/2005
31536488	S01AA30	26/05/2009
31655296	S01AA30	19/11/2001
32173295	S01AA30	21/03/2006
32069188	S01AA30	23/09/2008
31399008	S01AA30	29/12/2008
31598154	S01AA30	26/11/2010
31096816	S01AA30	05/10/2009
31435208	S01AA30	12/07/2004
31642617	S01AA30	18/05/2009
31163786	S01AA30	04/02/2003
31867037	S01AA30	10/01/2007
31324455	S01AA30	30/03/2005
31433012	S01AA30	17/03/2009
31780085	S01AA30	28/01/2002
32150921	S01AA30	16/06/2003
32175588	S01AA30	24/02/2006
31103952	S01AA30	25/01/2008
31225025	S01AA30	13/06/2008
31560518	S01AA30	21/11/2006
31529676	S01AA30	25/03/2009
31716323	S01AA30	30/05/2008
32140286	S01AA30	11/07/2007
31031406	S01AA30	21/12/2004
31491207	S01AA30	08/03/2010
32160616	S01AA30	18/11/2005
31614800	S01AA30	23/06/2004
32027147	S01AA30	25/02/2005
31105620	S01AA30	22/01/2009
31733187	S01AA30	08/10/2003
31467601	S01AA30	03/10/2005
31137773	S01AA30	16/05/2007
31832257	S01AA30	15/03/2000
31400931	S01AA30	16/02/2009
31208637	S01AA30	16/10/2008
31818019	S01AA30	15/06/2007
31654916	S01AA30	15/03/2005
32155986	S01AA30	27/02/2006
31668214	S01AA30	09/05/2008
31863722	S01AA30	20/05/2003
31178234	S01AA30	03/10/2005
32193248	S01AA30	12/01/2007
31175917	S01AA30	25/09/2008
32230652	S01AA30	15/07/2008
31863599	S01AA30	14/03/2006
31094687	S01AA30	22/10/2007
32115350	S01AA30	19/04/2006
32192233	S01AA30	11/02/2008
31494232	S01AA30	19/09/2005
32172226	S01AA30	07/02/2005
31925365	S01AA30	24/04/2008
31307971	S01AA30	26/12/2007
31984585	S01AA30	29/10/2004
31728526	S01AA30	21/03/2007
32080090	S01AA30	21/11/2005
32115634	S01AA30	16/11/2009
31114447	S01AA30	08/11/2006
31847126	S01AA30	05/04/2010
31354819	S01AA30	31/08/2009
31119347	S01AA30	25/03/2011
31530208	S01AA30	13/08/2009
31050561	S01AA30	19/07/2007
31573454	S01AA30	01/02/2006
31922867	S01AA30	13/12/2005
32226618	S01AA30	08/06/2005
32250774	S01AA30	20/02/2006
31298892	S01AA30	17/08/2006
31339249	S01AA30	11/07/2006
31898729	S01AA30	18/02/2005
32028967	S01AA30	29/03/2007
31894356	S01AA30	12/01/2006
31383749	S01AA30	28/10/2010
31177909	S01AA30	08/11/2004
31690018	S01AA30	07/12/2007
31033353	S01AA30	31/10/2005
31138230	S01AA30	16/07/2007
31084883	S01AA30	27/07/2005
31920078	S01AA30	23/06/2005
31302598	S01AA30	02/12/2005
31990707	S01AA30	21/05/2008
31846828	S01AA30	01/09/2006
31090243	S01AA30	12/06/2009
31459150	S01AA30	02/06/2008
31468945	S01AA30	10/06/2005
31521238	S01AA30	03/04/2008
31088492	S01AA30	07/06/2006
31982595	S01AA30	25/06/2002
32013445	S01AA30	04/08/2005
31853784	S01AA30	09/03/2009
31735518	S01AA30	14/03/2008
31771748	S01AA30	17/12/2009
32252834	S01AA30	16/04/2007
32137034	S01AA30	25/05/2005
32272859	S01AA30	11/02/2004
31810404	S01AA30	21/08/2009
31399327	S01AA30	04/12/2006
32040500	S01AA30	14/05/2008
31999224	S01AA30	04/08/2006
31394622	S01AA30	28/05/2009
31455364	S01AA30	31/03/2009
31932692	S01AA30	28/02/2006
31638561	S01AA30	10/10/2002
31074685	S01AA30	30/07/2008
31319796	S01AA30	16/06/2006
32150735	S01AA30	19/02/2007
31993171	S01AA30	31/10/2007
31350110	S01AA30	01/03/2005
31520067	S01AA30	28/11/2006
31605756	S01AA30	24/07/2001
31359458	S01AA30	02/11/2005
31665029	S01AA30	24/05/2004
31282153	S01AA30	07/02/2006
31973186	S01AA30	14/07/2008
31983822	S01AA30	16/09/2005
31923854	S01AA30	20/06/2006
31127501	S01AA30	13/05/2008
31859149	S01AA30	19/08/2004
31132836	S01AA30	01/02/2007
31443846	S01AA30	03/06/2009
31188844	S01AA30	25/02/2009
32014160	S01AA30	17/07/2007
31120746	S01AA30	11/11/2005
31075394	S01AA30	16/12/1999
31505016	S01AA30	07/02/2005
31035751	S01AA30	05/04/2004
31235378	S01AA30	22/01/2007
31445853	S01AA30	06/10/2006
31580241	S01AA30	26/10/2007
31362667	S01AA30	26/02/2007
31260657	S01AA30	26/05/2003
31920219	S01AA30	13/08/2008
32081935	S01AA30	14/11/2006
31817997	S01AA30	27/02/2006
31865409	S01AA30	05/07/2010
31128925	S01AA30	30/05/2005
31110434	S01AA30	07/10/2008
31549503	S01AA30	13/03/2008
31765330	S01AA30	04/02/2008
31241766	S01AA30	11/10/2005
31746464	S01AA30	05/05/2005
32097844	S01AA30	04/12/2001
32187040	S01AA30	05/07/2006
31558576	S01AA30	25/10/2006
31927823	S01AA30	28/05/2009
31872807	S01AA30	16/09/2003
32156473	S01AA30	20/07/2005
32249637	S01AA30	12/09/2006
31153502	S01AA30	14/12/2009
31899679	S01AA30	31/07/2003
31103413	S01AA30	29/07/2008
31630110	S01AA30	03/05/2007
31874278	S01AA30	16/03/2006
31050089	S01AA30	11/02/2010
31099666	S01AA30	24/06/2010
31165538	S01AA30	17/05/2005
31236940	S01AA30	04/04/2011
31339893	S01AA30	07/03/2003
31225351	S01AA30	27/12/2006
31577745	S01AA30	29/04/2008
31538580	S01AA30	28/12/2004
32108763	S01AA30	17/01/2005
31672960	S01AA30	30/04/2008
32005794	S01AA30	11/06/2007
31046912	S01AA30	23/10/2009
32079642	S01AA30	18/09/2007
31763071	S01AA30	30/12/2009
31749166	S01AA30	29/10/2008
31491964	S01AA30	07/11/2007
31949535	S01AA30	04/06/2008
31810278	S01AA30	08/07/2008
31047288	S01AA30	31/01/2006
31249462	S01AA30	09/05/2007
31789526	S01AA30	31/03/2006
31648334	S01AA30	01/10/2007
31426718	S01AA30	27/04/2010
31553549	S01AA30	24/01/2008
32080624	S01AA30	20/11/2003
31230568	S01AA30	19/02/2008
31108705	S01AA30	16/05/2007
31650470	S01AA30	08/10/2009
31485700	S01AA30	08/05/2006
32084541	S01AA30	24/01/2006
31756033	S01AA30	05/03/2004
31299103	S01AA30	05/12/2008
31790846	S01AA30	09/06/2006
32185788	S01AA30	26/07/2010
31244917	S01AA30	31/01/2008
31528243	S01AA30	10/03/2009
32034246	S01AA30	16/05/2006
31055006	S01AA30	28/02/2005
31678639	S01AA30	10/04/2006
31777190	S01AA30	09/10/2008
31519231	S01AA30	05/05/2005
31901094	S01AA30	16/06/2006
32079692	S01AA30	21/05/2007
31975247	S01AA30	14/12/2004
31884541	S01AA30	17/08/2010
31629479	S01AA30	20/02/2006
31811731	S01AA30	01/07/2008
32065893	S01AA30	11/09/2008
32005875	S01AA30	06/06/2006
31782108	S01AA30	18/05/2007
32257593	S01AA30	31/01/2008
32101660	S01AA30	19/05/2006
32260664	S01AA30	13/05/2009
31907879	S01AA30	29/02/2008
31904957	S01AA30	31/01/2007
31097143	S01AA30	15/12/2005
31785640	S01AA30	05/10/2004
31393513	S01AA30	15/01/2010
31665027	S01AA30	30/09/2009
32143187	S01AA30	29/01/2007
31924171	S01AA30	25/02/2008
31805425	S01AA30	08/01/2010
31945051	S01AA30	28/03/2005
31289568	S01AA30	30/03/2006
31311414	S01AA30	15/10/2004
31301711	S01AA30	11/07/2005
31556794	S01AA30	29/11/2007
31533827	S01AA30	16/06/2009
31765515	S01AA30	15/12/2010
31875001	S01AA30	15/02/2005
31501994	S01AA30	07/03/2007
31604552	S01AA30	09/10/2006
31405752	S01AA30	08/04/2011
32050669	S01AA30	11/11/2008
32232415	S01AA30	07/02/2007
31100908	S01AA30	31/01/2005
31890167	S01AA30	02/11/2004
32232103	S01AA30	29/10/2009
32139283	S01AA30	13/11/2009
32188596	S01AA30	14/02/2007
32245709	S01AA30	04/08/2009
31651246	S01AA30	23/09/2009
32030032	S01AA30	14/11/2006
31689766	S01AA30	26/04/2005
31044557	S01AA30	22/01/2004
31568595	S01AA30	24/03/2008
31140939	S01AA30	23/03/2009
31220781	S01AA30	11/02/2008
32079091	S01AA30	02/09/2009
31441666	S01AA30	28/05/2007
31049817	S01AA30	28/09/2005
31492737	S01AA30	03/06/2009
31875631	S01AA30	14/03/2008
31790794	S01AA30	01/07/2004
31390850	S01AA30	03/03/2009
31581244	S01AA30	26/11/2009
31520032	S01AA30	08/01/2007
31670262	S01AA30	11/04/2006
31803702	S01AA30	06/02/2007
31777650	S01AA30	12/05/2009
31670086	S01AA30	26/02/2008
31247927	S01AA30	25/06/2007
31390665	S01AA30	26/11/2007
32018876	S01AA30	02/10/2007
31348219	S01AA30	13/10/2006
31121457	S01AA30	18/05/2004
31564173	S01AA30	29/11/2007
32101459	S01AA30	09/07/2004
31977634	S01AA30	14/05/2007
31281175	S01AA30	05/04/2004
31468688	S01AA30	04/12/2006
31068766	S01AA30	13/10/2009
31621930	S01AA30	26/07/2005
31844771	S01AA30	07/11/2007
32189139	S01AA30	10/06/2005
31289525	S01AA30	04/01/2010
31912937	S01AA30	19/07/2004
31700966	S01AA30	27/03/2002
31784392	S01AA30	04/03/2008
31927171	S01AA30	03/02/2003
32069540	S01AA30	06/04/2005
31257307	S01AA30	14/02/2005
31738824	S01AA30	13/08/2008
31298511	S01AA30	24/03/2006
31378169	S01AA30	22/02/2008
31241772	S01AA30	13/01/2005
31602375	S01AA30	13/09/2007
32051470	S01AA30	15/03/2006
31626899	S01AA30	03/03/2005
31515382	S01AA30	20/05/2008
31994016	S01AA30	20/04/2009
31072012	S01AA30	30/12/2008
31036461	S01AA30	04/06/2008
31722562	S01AA30	17/05/2005
31794769	S01AA30	14/11/2006
31857863	S01AA30	28/07/2009
31992313	S01AA30	16/10/2003
31418483	S01AA30	12/02/2009
31407086	S01AA30	24/08/2006
31560405	S01AA30	07/11/2008
31652625	S01AA30	27/01/2006
32250361	S01AA30	13/05/2005
31256319	S01AA30	06/11/2007
31354032	S01AA30	27/12/2006
31729337	S01AA30	16/10/2009
31345749	S01AA30	06/09/2001
31443275	S01AA30	22/05/2008
31354176	S01AA30	07/11/2007
32067863	S01AA30	26/05/2009
31051569	S01AA30	04/07/2007
31504835	S01AA30	29/02/2008
31634456	S01AA30	05/02/2009
32172595	S01AA30	30/08/2004
31434189	S01AA30	14/12/2007
32075736	S01AA30	06/08/2007
32018111	S01AA30	04/12/2006
31888707	S01AA30	20/07/2009
31243978	S01AA30	28/02/2005
31834772	S01AA30	17/10/2005
31683193	S01AA30	31/10/2003
31386479	S01AA30	06/09/2005
31128087	S01AA30	20/09/2007
32173897	S01AA30	27/02/2008
31070742	S01AA30	17/12/2008
31642511	S01AA30	10/12/2004
31958127	S01AA30	24/03/2006
31833066	S01AA30	09/03/2004
31349798	S01AA30	05/04/2006
31593707	S01AA30	18/08/2008
31075098	S01AA30	10/01/2006
31323734	S01AA30	20/11/2008
31166024	S01AA30	21/04/2008
31982808	S01AA30	20/08/2008
31229613	S01AA30	12/11/2009
32013249	S01AA30	08/02/2006
31653793	S01AA30	04/04/2003
31981150	S01AA30	09/05/2005
31796342	S01AA30	08/09/2005
31773289	S01AA30	03/07/2007
32273744	S01AA30	22/07/2008
31837765	S01AA30	30/05/2006
32124625	S01AA30	01/03/2010
31046210	S01AA30	07/07/2004
32083170	S01AA30	18/12/2001
32000169	S01AA30	24/04/2006
31997411	S01AA30	16/04/2008
31251984	S01AA30	26/01/2007
32259960	S01AA30	31/10/2002
31289840	S01AA30	18/07/2008
31991804	S01AA30	11/09/2009
32091455	S01AA30	03/05/2004
31610838	S01AA30	25/08/2010
32220216	S01AA30	17/08/2005
31731106	S01AA30	23/04/2007
32070491	S01AA30	25/04/2005
31245288	S01AA30	11/01/2006
31142929	S01AA30	11/12/2009
31083007	S01AA30	30/03/2009
31816065	S01AA30	08/05/2003
32233223	S01AA30	04/12/2008
31290193	S01AA30	23/07/2007
32244062	S01AA30	24/02/2005
31450210	S01AA30	20/06/2008
31492921	S01AA30	12/03/2008
31371048	S01AA30	20/11/2006
32218209	S01AA30	28/01/2008
31271069	S01AA30	15/09/2005
31122798	S01AA30	24/10/2008
31520248	S01AA30	16/10/2008
31696946	S01AA30	15/12/2005
31121688	S01AA30	13/07/2007
31127548	S01AA30	18/01/2005
31333815	S01AA30	19/10/2004
31550011	S01AA30	20/11/2009
32266997	S01AA30	21/04/2005
31528759	S01AA30	18/04/2007
31224613	S01AA30	11/05/2007
31714303	S01AA30	19/09/2007
32276249	S01AA30	22/03/2006
31727410	S01AA30	24/01/2008
31932560	S01AA30	12/03/2008
31495691	S01AA30	18/06/2007
32274601	S01AA30	04/12/2007
32121891	S01AA30	25/09/2007
32020453	S01AA30	02/01/2008
32062851	S01AA30	18/02/2008
31357662	S01AA30	21/04/2004
31338608	S01AA30	29/11/2006
32108735	S01AA30	30/11/2007
32238977	S01AA30	02/11/2007
32128882	S01AA30	01/12/2005
31135814	S01AA30	03/12/2007
31828790	S01AA30	01/02/2005
31991147	S01AA30	18/03/2010
31936343	S01AA30	09/11/2010
32067365	S01AA30	28/12/2005
31496361	S01AA30	08/05/2007
32235440	S01AA30	14/11/2006
31186038	S01AA30	19/11/2007
31328156	S01AA30	25/08/2003
32274759	S01AA30	19/07/2004
31201536	S01AA30	10/12/2008
31221127	S01AA30	12/03/2007
31991627	S01AA30	23/12/2005
31988729	S01AA30	24/02/2004
32083539	S01AA30	03/12/2010
31964232	S01AA30	23/12/2008
32058972	S01AA30	30/12/2004
31510566	S01AA30	15/07/2005
31883253	S01AA30	31/10/2005
31528429	S01AA30	20/04/2005
32077011	S01AA30	03/02/2005
31168935	S01AA30	29/07/1999
32117849	S01AA30	03/02/2005
31495497	S01AA30	15/06/2007
32193584	S01AA30	11/11/2008
31629176	S01AA30	07/11/2008
31752533	S01AA30	01/08/2008
31194670	S01AA30	11/07/2005
31139119	S01AA30	27/02/2008
31321280	S01AA30	06/06/2006
31339822	S01AA30	04/03/2008
31451508	S01AA30	28/11/2006
31080832	S01AA30	18/06/2007
31057802	S01AA30	28/01/2005
31047317	S01AA30	26/03/2004
31218468	S01AA30	14/08/2008
32118462	S01AA30	30/03/2005
32083953	S01AA30	26/10/2007
31739321	S01AA30	29/05/2006
31301320	S01AA30	23/05/2005
31253360	S01AA30	27/01/2006
31970294	S01AA30	14/09/2009
32164726	S01AA30	30/06/2006
31960091	S01AA30	16/04/2008
31523236	S01AA30	01/07/2004
31265348	S01AA30	16/11/2009
32205879	S01AA30	05/11/2007
31702126	S01AA30	16/05/2007
31976007	S01AA30	13/05/2005
32192701	S01AA30	05/09/2003
31490573	S01AA30	16/02/2009
31376070	S01AA30	19/11/2009
31968780	S01AA30	21/04/2005
31627008	S01AA30	13/03/2002
32135671	S01AA30	15/06/2005
31699175	S01AA30	05/10/2007
31319115	S01AA30	28/04/2006
32205096	S01AA30	02/02/2007
31284436	S01AA30	23/12/2005
32251223	S01AA30	24/03/2010
31243849	S01AA30	08/04/2009
31674303	S01AA30	26/03/2007
31417879	S01AA30	02/08/2002
31390678	S01AA30	17/12/2009
31149284	S01AA30	08/03/2005
31072026	S01AA30	10/08/2004
31087698	S01AA30	11/08/2005
31061178	S01AA30	18/10/2006
31745891	S01AA30	21/03/2007
31916722	S01AA30	16/01/2007
31751512	S01AA30	02/01/2008
32070274	S01AA30	14/07/2004
31883298	S01AA30	14/12/2007
31351503	S01AA30	06/03/2007
31117424	S01AA30	10/03/2006
31145470	S01AA30	08/09/2006
31925806	S01AA30	17/03/2004
31869811	S01AA30	26/10/2007
31801091	S01AA30	14/02/2007
32140434	S01AA30	20/10/2005
31829865	S01AA30	01/03/2006
31907451	S01AA30	28/11/2007
31614824	S01AA30	22/11/2006
31357658	S01AA30	23/04/2008
31445281	S01AA30	15/12/2004
31636340	S01AA30	23/12/2009
32213527	S01AA30	08/01/2009
31891579	S01AA30	01/12/2008
32159595	S01AA30	20/09/2006
32026060	S01AA30	28/04/2003
31207874	S01AA30	26/03/2004
31038807	S01AA30	16/04/2008
31314127	S01AA30	11/03/2009
31172111	S01AA30	03/07/2007
31660712	S01AA30	03/05/2010
31142306	S01AA30	09/02/2004
31965637	S01AA30	30/04/2007
32280196	S01AA30	06/07/2006
31925538	S01AA30	31/05/2003
32178711	S01AA30	16/10/2007
31569939	S01AA30	17/10/2005
31899321	S01AA30	18/06/2007
31307880	S01AA30	03/12/2009
31833692	S01AA30	28/12/2010
32256629	S01AA30	30/07/2007
32147412	S01AA30	15/12/2006
31590964	S01AA30	24/07/2003
31760554	S01AA30	05/12/2007
32233869	S01AA30	04/11/2008
31795658	S01AA30	22/08/2005
31225795	S01AA30	10/03/2008
32108396	S01AA30	03/02/2005
31586852	S01AA30	23/03/2010
31676073	S01AA30	26/11/2009
31873049	S01AA30	19/05/2008
31803324	S01AA30	20/04/2006
31213814	S01AA30	07/04/2008
32050210	S01AA30	12/07/2007
31315620	S01AA30	26/03/2008
31136108	S01AA30	12/04/2004
31061959	S01AA30	26/10/2010
31605199	S01AA30	12/05/2009
31916575	S01AA30	31/05/2006
31445382	S01AA30	14/02/2007
31568532	S01AA30	07/11/2008
31261008	S01AA30	07/06/2005
31946060	S01AA30	18/02/2008
31536588	S01AA30	22/02/2007
32258162	S01AA30	11/09/2006
31962486	S01AA30	18/06/2004
32205231	S01AA30	27/05/2004
31360029	S01AA30	19/12/2000
31572848	S01AA30	22/12/2004
32177239	S01AA30	05/03/2007
32018231	S01AA30	29/01/2007
31660369	S01AA30	14/02/2006
31368596	S01AA30	13/03/2008
31716429	S01AA30	12/07/2005
31424872	S01AA30	08/02/2006
31487862	S01AA30	23/03/2006
31840483	S01AA30	23/09/2009
31363680	S01AA30	16/04/2009
31248026	S01AA30	29/11/2006
31428243	S01AA30	21/08/2007
31474582	S01AA30	16/07/2007
31480407	S01AA30	16/12/2003
31120630	S01AA30	11/03/2002
31955177	S01AA30	09/12/2003
32104438	S01AA30	11/01/2008
31406134	S01AA30	21/04/2005
32263676	S01AA30	13/03/2007
31285337	S01AA30	16/06/2009
31805078	S01AA30	26/05/2010
31904314	S01AA30	25/07/2003
31168630	S01AA30	03/02/2006
31830506	S01AA30	10/02/2006
31464063	S01AA30	07/06/2007
31585198	S01AA30	09/11/2000
31661809	S01AA30	03/09/2009
31861887	S01AA30	02/01/2008
32058906	S01AA30	18/02/2005
31550618	S01AA30	14/01/2005
31509713	S01AA30	04/12/2001
31779593	S01AA30	18/02/2008
31337456	S01AA30	05/07/2010
31168872	S01AA30	08/11/2004
31869652	S01AA30	26/03/2009
31106394	S01AA30	01/03/2006
32050762	S01AA30	10/01/2006
32016456	S01AA30	18/10/2007
31867121	S01AA30	19/06/2009
32005309	S01AA30	13/01/2009
32268071	S01AA30	03/01/2005
31681928	S01AA30	24/02/2004
31809701	S01AA30	18/07/2008
31328449	S01AA30	11/07/2005
31166330	S01AA30	02/06/2006
31196224	S01AA30	09/12/2004
32099080	S01AA30	07/06/2010
31866955	S01AA30	15/06/2006
32206134	S01AA30	12/11/2007
31626804	S01AA30	15/11/2001
31172900	S01AA30	01/03/2010
31305319	S01AA30	26/09/2008
31517413	S01AA30	28/11/2007
31770578	S01AA30	09/10/2008
32165604	S01AA30	05/01/2009
31941575	S01AA30	23/03/2009
31092882	S01AA30	28/02/2005
31665299	S01AA30	13/08/2007
32078125	S01AA30	15/03/2004
32160969	S01AA30	28/11/2008
32274831	S01AA30	26/03/2008
31559291	S01AA30	07/11/2005
31635878	S01AA30	14/05/2010
32276605	S01AA30	28/07/2009
32261502	S01AA30	27/09/2007
31913476	S01AA30	18/11/2008
31215932	S01AA30	05/03/2003
31175428	S01AA30	26/11/2009
31426144	S01AA30	11/05/2002
32105540	S01AA30	09/03/2007
32211217	S01AA30	18/04/2007
31319368	S01AA30	12/02/2008
31872910	S01AA30	02/12/2005
31939937	S01AA30	06/07/2007
31823756	S01AA30	16/04/2004
31519631	S01AA30	09/01/2007
31158374	S01AA30	02/04/2008
31303109	S01AA30	16/03/2004
32131754	S01AA30	10/10/2005
31716904	S01AA30	05/09/2006
32093133	S01AA30	14/03/2003
31694665	S01AA30	07/12/2009
31505217	S01AA30	13/05/2008
31839792	S01AA30	02/04/2007
31623353	S01AA30	13/02/2009
31453749	S01AA30	14/05/2008
31442945	S01AA30	17/08/2007
31631182	S01AA30	07/12/2006
31422127	S01AA30	24/10/2007
31952651	S01AA30	08/05/2006
32189511	S01AA30	31/01/2007
31907428	S01AA30	10/01/2007
31362253	S01AA30	03/02/2005
31362191	S01AA30	11/10/2005
32019277	S01AA30	03/05/2006
32112880	S01AA30	08/11/2006
32023639	S01AA30	14/05/2009
31759307	S01AA30	24/10/2005
31090306	S01AA30	24/02/2005
31991628	S01AA30	28/03/2007
31632551	S01AA30	11/03/2003
31469295	S01AA30	20/02/2007
32047291	S01AA30	10/08/2005
31827418	S01AA30	31/05/2005
31291105	S01AA30	27/05/2002
31236764	S01AA30	12/02/2009
31501116	S01AA30	01/04/2008
31043582	S01AA30	28/11/2006
31586618	S01AA30	26/07/2004
31169067	S01AA30	08/10/2009
31784334	S01AA30	26/10/2005
31719359	S01AA30	05/12/2006
31410826	S01AA30	29/10/2003
31959698	S01AA30	04/03/2009
32180258	S01AA30	20/06/2008
31435904	S01AA30	30/11/2007
31265996	S01AA30	21/01/2009
32220436	S01AA30	16/10/2009
31561607	S01AA30	30/12/2005
32127720	S01AA30	30/06/2006
31657716	S01AA30	20/01/2004
31962872	S01AA30	13/02/2007
32017714	S01AA30	18/02/2009
31842553	S01AA30	26/12/2007
31564838	S01AA30	07/02/2006
31370323	S01AA30	08/07/2005
31893874	S01AA30	29/11/2005
31356318	S01AA30	05/03/2008
32248960	S01AA30	26/12/2005
31851511	S01AA30	13/04/2010
31572963	S01AA30	17/04/2009
31146073	S01AA30	10/06/2005
31878618	S01AA30	16/11/2005
32105438	S01AA30	14/07/2006
31963525	S01AA30	14/07/2009
