patient_id	covar_name	date
12790716	S02CA06	02/11/2005
10245764	S02CA06	10/04/2007
10271032	S02CA06	24/07/2003
733283	S02CA06	07/12/2006
1122942	S02CA06	26/08/2008
6236520	S02CA06	06/11/2009
9618081	S02CA06	25/04/2011
8294969	S02CA06	04/09/2006
9999776	S02CA06	29/09/2006
21859577	S02CA06	08/03/2006
24005400	S02CA06	10/07/2007
9203265	S02CA06	16/12/2009
9251250	S02CA06	04/06/2007
8521498	S02CA06	29/03/2010
23455156	S02CA06	28/04/2010
25055142	S02CA06	08/04/2011
1068306	S02CA06	16/11/2004
9302346	S02CA06	24/02/2011
12237800	S02CA06	14/09/2009
753097	S02CA06	09/07/2008
62714	S02CA06	28/01/2011
9380514	S02CA06	13/08/2007
1731330	S02CA06	01/09/2003
24950727	S02CA06	09/07/2004
5030705	S02CA06	24/09/2010
16919468	S02CA06	25/11/2008
8978080	S02CA06	28/07/2003
12695477	S02CA06	03/09/2010
3124388	S02CA06	17/03/2008
8651505	S02CA06	28/03/2011
3937820	S02CA06	17/02/2011
16530698	S02CA06	02/08/2002
1162872	S02CA06	27/10/2008
21152973	S02CA06	27/07/2009
9982943	S02CA06	15/03/2010
6887463	S02CA06	08/03/2006
20412348	S02CA06	13/03/2009
10335737	S02CA06	05/06/2006
9390097	S02CA06	17/02/2010
9231971	S02CA06	03/04/2006
3122250	S02CA06	08/02/2008
9373449	S02CA06	02/12/2003
5035573	S02CA06	31/03/2009
947277	S02CA06	07/12/2005
1433411	S02CA06	26/11/2008
1940874	S02CA06	19/10/2010
17173040	S02CA06	13/08/2009
12688967	S02CA06	19/10/2006
25083443	S02CA06	15/10/2004
1188645	S02CA06	24/07/2009
3284840	S02CA06	23/06/2008
9231451	S02CA06	09/02/2006
9387253	S02CA06	26/10/2010
10292723	S02CA06	07/01/2011
3303502	S02CA06	13/10/2008
16098870	S02CA06	15/11/2010
9386691	S02CA06	08/04/2008
7353549	S02CA06	10/02/2010
16923051	S02CA06	17/09/2010
9386259	S02CA06	09/01/2008
9376813	S02CA06	25/09/2006
9250922	S02CA06	16/07/2008
9179006	S02CA06	12/04/2010
9178196	S02CA06	08/02/2011
6244710	S02CA06	27/10/2010
9249480	S02CA06	15/07/2005
19179021	S02CA06	08/07/2009
17172613	S02CA06	29/06/2006
16558782	S02CA06	25/11/2004
5565850	S02CA06	16/05/2011
740565	S02CA06	27/04/2010
12478033	S02CA06	14/06/2005
15997980	S02CA06	07/09/2010
2563973	S02CA06	19/01/2011
9300058	S02CA06	16/06/2005
12857056	S02CA06	06/09/2004
7094087	S02CA06	03/08/2009
5031929	S02CA06	26/05/2011
8654132	S02CA06	03/12/2010
67800	S02CA06	03/01/2002
24006092	S02CA06	24/06/2008
6245113	S02CA06	20/06/2008
3120764	S02CA06	19/01/2009
10002466	S02CA06	10/09/2010
3126286	S02CA06	27/09/2007
9373053	S02CA06	17/02/2011
3550447	S02CA06	13/02/2007
10605408	S02CA06	22/10/2010
8787400	S02CA06	23/03/2011
10004388	S02CA06	14/09/2006
7244033	S02CA06	05/10/2006
16929818	S02CA06	03/09/2009
9231345	S02CA06	27/12/2001
9209267	S02CA06	27/07/2006
1069578	S02CA06	27/03/2003
604775	S02CA06	15/04/2011
12479856	S02CA06	02/01/2008
12374768	S02CA06	08/07/2002
10271783	S02CA06	22/07/2004
8977888	S02CA06	12/01/2011
11993777	S02CA06	21/05/2009
9250225	S02CA06	26/02/2008
21871596	S02CA06	14/03/2007
3125711	S02CA06	13/09/2001
3247747	S02CA06	16/04/2007
24930936	S02CA06	29/11/2007
20566164	S02CA06	31/10/2006
12857478	S02CA06	10/05/2011
12771360	S02CA06	01/08/2008
1160472	S02CA06	21/07/2010
9309280	S02CA06	04/12/2007
10285035	S02CA06	01/03/2010
21152720	S02CA06	20/05/2008
9214840	S02CA06	11/12/2006
13825656	S02CA06	24/03/2010
9298966	S02CA06	21/02/2007
12783616	S02CA06	30/03/2011
16920652	S02CA06	25/08/2009
732157	S02CA06	09/02/2007
6745339	S02CA06	04/03/2010
11993430	S02CA06	29/01/2008
25042424	S02CA06	19/06/2009
6177197	S02CA06	30/09/2009
9382262	S02CA06	10/09/2009
12858903	S02CA06	09/06/2003
8985305	S02CA06	10/05/2005
8294820	S02CA06	04/09/2009
607070	S02CA06	25/01/2006
25072171	S02CA06	11/08/2005
12763214	S02CA06	06/03/2008
24765071	S02CA06	28/01/2011
5032592	S02CA06	21/02/2008
1069126	S02CA06	04/01/2011
9387065	S02CA06	17/10/2003
9250324	S02CA06	04/03/2005
25065790	S02CA06	03/02/2011
7162636	S02CA06	21/02/2006
24764068	S02CA06	05/04/2010
8987413	S02CA06	09/05/2011
1330793	S02CA06	15/02/2010
8976224	S02CA06	03/07/2006
22780091	S02CA06	12/03/2004
949294	S02CA06	04/08/2006
19178597	S02CA06	03/08/2007
17171744	S02CA06	02/06/2009
8987992	S02CA06	30/06/2009
9378605	S02CA06	30/10/2006
25065893	S02CA06	25/06/2010
6746455	S02CA06	18/08/2010
12691979	S02CA06	04/10/2007
9220165	S02CA06	22/03/2007
7407362	S02CA06	27/12/2010
19228281	S02CA06	15/07/2005
10003864	S02CA06	13/12/2006
3121795	S02CA06	28/05/2009
17175205	S02CA06	12/04/2010
24930692	S02CA06	12/04/2011
3126302	S02CA06	22/07/2003
16922195	S02CA06	02/02/2011
10148015	S02CA06	07/02/2011
16323398	S02CA06	27/05/2011
12765626	S02CA06	09/02/2011
8976509	S02CA06	10/06/2002
9386723	S02CA06	29/10/2008
10395240	S02CA06	23/12/2010
9376319	S02CA06	05/09/2007
8556206	S02CA06	19/08/2009
753709	S02CA06	26/01/2011
733479	S02CA06	25/09/2008
16929664	S02CA06	29/04/2010
949789	S02CA06	06/05/2003
10865791	S02CA06	05/05/2010
6626450	S02CA06	11/02/2011
173433	S02CA06	27/12/2005
12763456	S02CA06	16/04/2009
3285563	S02CA06	23/01/2009
5023568	S02CA06	19/06/2008
16556701	S02CA06	07/01/2011
20910487	S02CA06	01/04/2011
9562628	S02CA06	27/05/2010
1334775	S02CA06	22/11/2004
24930906	S02CA06	25/08/2008
21854118	S02CA06	01/09/2009
7160942	S02CA06	03/11/2005
16922604	S02CA06	30/06/2010
10333295	S02CA06	16/08/2010
19179544	S02CA06	21/01/2011
7248494	S02CA06	11/05/2007
25062059	S02CA06	15/10/2009
19179478	S02CA06	15/12/2010
1069550	S02CA06	24/11/2010
10333445	S02CA06	04/03/2005
21806208	S02CA06	03/10/2008
21370685	S02CA06	07/04/2004
21369952	S02CA06	18/09/2006
1162239	S02CA06	17/03/2006
7158865	S02CA06	24/09/2010
21644622	S02CA06	15/01/2003
24004943	S02CA06	09/03/2010
10331626	S02CA06	03/05/2011
7968770	S02CA06	16/09/2009
641170	S02CA06	06/07/2006
1666099	S02CA06	16/11/2006
6599595	S02CA06	22/04/2003
7776172	S02CA06	07/07/2005
6592552	S02CA06	24/07/2000
18056114	S02CA06	30/05/2005
17789325	S02CA06	28/04/2011
6601880	S02CA06	31/03/2008
1276114	S02CA06	12/04/1999
24943888	S02CA06	04/03/2004
6603276	S02CA06	15/11/2005
24719453	S02CA06	17/04/2009
6603667	S02CA06	10/06/2009
1852493	S02CA06	02/05/2010
5723544	S02CA06	31/07/2007
6602819	S02CA06	19/12/2009
12612964	S02CA06	16/12/2009
1261770	S02CA06	17/06/2009
564634	S02CA06	26/05/2010
1262655	S02CA06	29/08/2004
6382757	S02CA06	31/01/2011
13984900	S02CA06	09/05/2011
7776827	S02CA06	20/09/2002
11499223	S02CA06	31/07/2009
12189272	S02CA06	09/07/2001
8955553	S02CA06	18/11/2004
6600753	S02CA06	28/02/2002
1201630	S02CA06	11/05/2004
6598890	S02CA06	29/12/2005
1379379	S02CA06	25/05/2011
640398	S02CA06	07/03/2002
1419572	S02CA06	08/08/2003
6602655	S02CA06	30/01/2003
6602978	S02CA06	10/03/2005
1669715	S02CA06	23/08/2002
7771937	S02CA06	12/08/2003
6594594	S02CA06	13/05/2008
8061402	S02CA06	26/10/2009
638786	S02CA06	02/07/2001
1355687	S02CA06	28/02/2009
6603802	S02CA06	10/03/2005
438081	S02CA06	19/01/2005
648336	S02CA06	20/10/2003
17931687	S02CA06	26/08/2010
1200860	S02CA06	21/01/2011
6600261	S02CA06	10/09/2003
1665602	S02CA06	29/11/2004
8935141	S02CA06	29/01/2004
8063275	S02CA06	14/11/2005
525429	S02CA06	12/11/2010
1426251	S02CA06	24/05/2004
4700171	S02CA06	28/11/2005
15477506	S02CA06	02/12/2010
1666482	S02CA06	23/11/2010
539779	S02CA06	14/07/2004
7770079	S02CA06	01/04/2011
7956042	S02CA06	11/07/2009
6603579	S02CA06	13/03/2008
6601829	S02CA06	01/08/2003
5162420	S02CA06	11/02/2008
1295868	S02CA06	02/11/2006
7849145	S02CA06	02/03/2007
25177005	S02CA06	21/05/2011
404765	S02CA06	27/04/2010
24720187	S02CA06	12/02/2009
6602975	S02CA06	14/06/2010
1419147	S02CA06	20/08/2001
19402828	S02CA06	10/07/2010
525618	S02CA06	17/10/2007
1261312	S02CA06	24/03/2010
1320228	S02CA06	26/10/2010
1278011	S02CA06	29/04/2007
1054556	S02CA06	27/07/2009
7732495	S02CA06	25/03/2011
18038752	S02CA06	19/04/2010
7952194	S02CA06	14/07/2007
674262	S02CA06	13/11/2008
8956502	S02CA06	18/03/2004
1851260	S02CA06	06/11/2000
1666966	S02CA06	13/05/2008
405420	S02CA06	05/08/2005
1276680	S02CA06	21/05/2007
6603214	S02CA06	18/06/2008
25766904	S02CA06	23/03/2011
25902108	S02CA06	14/03/2011
6597378	S02CA06	28/12/2007
1132264	S02CA06	03/09/2007
890842	S02CA06	14/03/2003
716273	S02CA06	27/01/2003
13733143	S02CA06	10/10/2008
6632005	S02CA06	26/04/2008
6598193	S02CA06	26/05/2011
12660032	S02CA06	18/01/2011
1638708	S02CA06	25/11/2008
1108842	S02CA06	18/02/2004
1102247	S02CA06	15/07/2005
135798	S02CA06	11/05/2010
1103763	S02CA06	08/10/2003
1133112	S02CA06	16/09/2005
1109327	S02CA06	25/02/2003
1108536	S02CA06	14/01/2009
25894610	S02CA06	29/07/2008
1027312	S02CA06	09/06/2009
891364	S02CA06	30/10/2003
889830	S02CA06	20/08/2009
717738	S02CA06	31/07/2001
994239	S02CA06	17/09/2010
1856271	S02CA06	17/01/2007
1104695	S02CA06	23/12/2008
25750805	S02CA06	03/03/2011
1110879	S02CA06	14/09/2006
25891689	S02CA06	28/01/2009
25768725	S02CA06	20/06/2005
1274932	S02CA06	04/11/2006
1101989	S02CA06	05/05/2003
1102507	S02CA06	26/06/2002
1111994	S02CA06	08/07/2008
1108799	S02CA06	27/12/2010
890201	S02CA06	21/07/2009
1103285	S02CA06	12/04/2006
1107007	S02CA06	03/07/2002
1855622	S02CA06	06/08/2007
1101985	S02CA06	29/01/2007
12705368	S02CA06	31/01/2011
889933	S02CA06	21/07/2010
1103247	S02CA06	04/04/2008
2043156	S02CA06	19/07/2005
2216049	S02CA06	03/08/2007
2112529	S02CA06	06/02/2003
2137012	S02CA06	11/11/2003
3049475	S02CA06	04/11/2002
1754233	S02CA06	01/07/2003
2773756	S02CA06	08/02/2011
3055474	S02CA06	25/08/2006
1679643	S02CA06	06/09/2002
873965	S02CA06	25/07/2008
2780167	S02CA06	20/03/2006
3049642	S02CA06	07/07/2010
4088249	S02CA06	07/08/2006
5322696	S02CA06	20/10/2005
2773262	S02CA06	15/11/2009
2778447	S02CA06	23/10/2007
3049095	S02CA06	26/01/2001
2773977	S02CA06	31/10/2008
2779963	S02CA06	07/03/2005
2521889	S02CA06	10/08/2004
2521898	S02CA06	07/05/2009
2526231	S02CA06	26/06/2003
2522213	S02CA06	09/02/2009
2365682	S02CA06	25/05/2009
2756861	S02CA06	18/07/2002
2522772	S02CA06	31/03/2010
2521381	S02CA06	13/10/2005
16980193	S02CA06	03/05/2010
16961600	S02CA06	26/06/2003
26488201	S02CA06	08/03/2007
28044455	S02CA06	19/10/2010
28044484	S02CA06	03/03/2006
26425175	S02CA06	17/12/2002
26244631	S02CA06	25/01/2011
6995503	S02CA06	11/12/2009
16832631	S02CA06	20/11/2010
423504	S02CA06	15/02/2000
422530	S02CA06	26/03/2008
8089010	S02CA06	23/07/2010
437549	S02CA06	30/06/2005
1910935	S02CA06	12/08/2003
436004	S02CA06	28/10/2002
650061	S02CA06	06/08/2007
184835	S02CA06	22/04/2004
650187	S02CA06	30/08/2006
422587	S02CA06	05/10/2010
435701	S02CA06	14/09/2003
180032	S02CA06	16/09/2008
6012771	S02CA06	10/01/2011
1900723	S02CA06	26/01/2011
183998	S02CA06	26/04/2005
462935	S02CA06	07/01/2002
464571	S02CA06	08/09/2009
28090208	S02CA06	15/02/2011
28080811	S02CA06	25/08/2008
3049347	S02CA06	01/12/2008
437274	S02CA06	24/12/2005
420981	S02CA06	09/01/2006
620489	S02CA06	16/01/2007
437354	S02CA06	02/10/2009
184746	S02CA06	05/10/2004
437604	S02CA06	24/07/2002
419430	S02CA06	21/10/2008
179817	S02CA06	12/08/2004
16874259	S02CA06	02/02/2011
183588	S02CA06	04/04/2007
649885	S02CA06	04/09/2009
426640	S02CA06	03/02/2010
433324	S02CA06	09/05/2007
648824	S02CA06	01/04/2011
433666	S02CA06	09/08/2004
180024	S02CA06	23/06/2005
28062996	S02CA06	09/06/2008
28062418	S02CA06	11/01/2001
28043953	S02CA06	07/01/2009
28044311	S02CA06	07/06/2010
28066154	S02CA06	20/06/2001
26477728	S02CA06	29/06/2007
28063584	S02CA06	26/02/2009
24657144	S02CA06	17/02/2004
24665617	S02CA06	25/06/2009
24669803	S02CA06	23/01/2007
24660602	S02CA06	07/04/2007
24670887	S02CA06	30/01/2009
24670871	S02CA06	22/06/2009
25535638	S02CA06	08/11/2007
25588570	S02CA06	11/08/2009
25629318	S02CA06	20/08/2009
25740455	S02CA06	13/05/2008
1342997	S02CA06	23/12/2008
178573	S02CA06	30/03/2001
1369115	S02CA06	05/12/1998
1360745	S02CA06	22/06/2010
618177	S02CA06	24/07/2003
619414	S02CA06	10/10/2010
1360800	S02CA06	26/12/2006
1028230	S02CA06	14/07/2009
1363828	S02CA06	09/03/2001
1373010	S02CA06	12/09/2000
1029116	S02CA06	06/09/2005
1909929	S02CA06	02/11/2007
1371015	S02CA06	20/06/2006
1908072	S02CA06	18/09/2001
21063153	S02CA06	29/04/2011
16841283	S02CA06	03/11/2008
19423779	S02CA06	20/10/2006
18196862	S02CA06	05/06/2007
20070622	S02CA06	10/03/2006
16841205	S02CA06	26/07/2009
16841220	S02CA06	07/12/2004
16840957	S02CA06	24/01/2011
18194514	S02CA06	20/11/2008
18191207	S02CA06	21/12/2001
17907906	S02CA06	25/01/2011
21063481	S02CA06	11/07/2009
18196192	S02CA06	19/12/2008
21063510	S02CA06	29/07/2010
18187579	S02CA06	22/05/2008
18197637	S02CA06	30/05/2011
1904747	S02CA06	25/01/2005
1899523	S02CA06	12/11/2010
1899549	S02CA06	16/03/2004
618339	S02CA06	12/07/2010
2997982	S02CA06	12/07/2010
1907718	S02CA06	26/06/2001
1368352	S02CA06	26/11/2007
2965735	S02CA06	05/03/2007
3055681	S02CA06	15/03/2005
26640897	S02CA06	21/12/2004
26831859	S02CA06	16/05/2007
26723328	S02CA06	06/11/2009
26776551	S02CA06	29/03/2011
26774025	S02CA06	11/12/2007
26707359	S02CA06	09/06/2009
26701905	S02CA06	15/04/2010
26800679	S02CA06	05/08/2005
26720817	S02CA06	21/03/2011
26801033	S02CA06	14/06/2010
26794658	S02CA06	07/07/2006
26784359	S02CA06	22/07/2010
21552949	S02CA06	07/07/2005
16842212	S02CA06	26/07/2005
12993696	S02CA06	21/11/2006
24485599	S02CA06	24/11/2010
13497668	S02CA06	03/11/2010
12951527	S02CA06	01/03/2010
10825020	S02CA06	19/10/2010
24593705	S02CA06	11/07/2000
12974334	S02CA06	16/06/2009
2996458	S02CA06	25/06/1999
9025807	S02CA06	15/11/2005
16844351	S02CA06	01/04/2008
12952587	S02CA06	29/08/2010
16842692	S02CA06	21/08/2008
2996761	S02CA06	07/08/2008
15966153	S02CA06	31/08/2006
26719525	S02CA06	28/09/2006
12975349	S02CA06	22/05/2006
26639138	S02CA06	13/02/2007
26620573	S02CA06	27/07/2005
21651512	S02CA06	08/09/2009
24594098	S02CA06	15/01/2008
24594122	S02CA06	08/11/2010
24485583	S02CA06	06/02/2010
24663248	S02CA06	24/08/2007
24485421	S02CA06	01/03/2006
24656922	S02CA06	26/12/2001
24579654	S02CA06	06/04/2010
21651863	S02CA06	20/01/2010
22717795	S02CA06	27/07/2006
24578434	S02CA06	02/08/2008
21553072	S02CA06	23/07/2007
22922286	S02CA06	22/10/2007
24581156	S02CA06	13/07/2009
26937774	S02CA06	13/08/2009
26932610	S02CA06	26/02/2010
26916169	S02CA06	25/02/2008
26932224	S02CA06	19/07/2005
26933470	S02CA06	30/06/2005
26890067	S02CA06	07/01/2008
26728428	S02CA06	22/07/2010
26779381	S02CA06	13/03/2007
26880553	S02CA06	29/07/2009
26782799	S02CA06	17/04/2007
26762007	S02CA06	27/08/2009
26779298	S02CA06	10/04/2007
26782413	S02CA06	09/03/2011
26754414	S02CA06	30/05/2011
26880512	S02CA06	26/07/2010
26850810	S02CA06	09/06/2004
26883210	S02CA06	09/02/2009
26847522	S02CA06	11/04/2005
26874283	S02CA06	24/07/2009
26877295	S02CA06	07/11/2005
26937953	S02CA06	30/12/2004
26934084	S02CA06	11/03/2006
26877189	S02CA06	16/11/2009
26847234	S02CA06	28/01/2009
26877066	S02CA06	13/06/2007
26876768	S02CA06	11/09/2006
26780794	S02CA06	01/12/2008
26824290	S02CA06	06/02/2009
26805696	S02CA06	20/04/2011
26776452	S02CA06	19/08/2010
26776380	S02CA06	22/03/2005
26831366	S02CA06	09/08/2005
26812125	S02CA06	16/03/2009
26753114	S02CA06	18/08/2009
26974838	S02CA06	29/07/2006
26941645	S02CA06	14/04/2005
27061807	S02CA06	09/05/2011
26969246	S02CA06	15/09/2008
27034247	S02CA06	28/04/2005
27061399	S02CA06	10/05/2010
27031524	S02CA06	14/03/2005
27029751	S02CA06	24/02/2009
26963689	S02CA06	30/05/2005
27066915	S02CA06	16/09/2010
27047581	S02CA06	14/11/2006
26968450	S02CA06	25/03/2010
27048515	S02CA06	27/12/2010
27114160	S02CA06	26/08/2003
26991456	S02CA06	17/05/2007
27134310	S02CA06	31/05/2004
27061932	S02CA06	30/07/2009
27151243	S02CA06	08/06/2006
27101599	S02CA06	11/10/2004
27108278	S02CA06	04/07/2008
27128741	S02CA06	02/08/2004
27080606	S02CA06	12/03/2007
27151349	S02CA06	23/01/2009
27084973	S02CA06	15/07/2009
27106339	S02CA06	21/09/2009
27137972	S02CA06	21/10/2003
27055689	S02CA06	12/08/2010
27031209	S02CA06	15/12/2003
27078067	S02CA06	26/07/2005
27043480	S02CA06	07/09/2004
27054389	S02CA06	19/08/2009
27061482	S02CA06	03/01/2011
27046890	S02CA06	31/12/2003
27043737	S02CA06	27/09/2004
27108104	S02CA06	15/11/2004
27066049	S02CA06	05/07/2007
27103593	S02CA06	20/12/2009
27044414	S02CA06	26/03/2004
27042973	S02CA06	21/02/2005
27113090	S02CA06	21/11/2006
27052066	S02CA06	27/03/2008
27046535	S02CA06	30/06/2009
27053590	S02CA06	27/07/2009
27037293	S02CA06	10/09/2010
27038432	S02CA06	10/09/2009
27028876	S02CA06	24/07/2004
26979025	S02CA06	02/11/2007
26978375	S02CA06	10/10/2007
26978590	S02CA06	28/06/2009
27041316	S02CA06	19/04/2011
27042240	S02CA06	12/05/2005
27041100	S02CA06	25/09/2003
27041910	S02CA06	02/12/2003
27039848	S02CA06	30/09/2003
27168812	S02CA06	15/09/2004
27144127	S02CA06	23/12/2009
27148036	S02CA06	03/06/2003
27357217	S02CA06	26/01/2009
27213382	S02CA06	11/08/2010
27168136	S02CA06	22/03/2006
27369270	S02CA06	05/01/2005
27387248	S02CA06	29/12/2009
27396246	S02CA06	29/03/2006
27160989	S02CA06	27/01/2009
27327948	S02CA06	17/09/2003
27130080	S02CA06	15/01/2008
27220565	S02CA06	10/03/2010
27365421	S02CA06	08/05/2006
27317155	S02CA06	18/02/2008
27200406	S02CA06	19/01/2011
27249436	S02CA06	06/07/2010
27222570	S02CA06	02/06/2010
27219070	S02CA06	20/10/2008
27306920	S02CA06	05/10/2008
27251650	S02CA06	07/02/2006
27369449	S02CA06	07/03/2011
27215554	S02CA06	10/04/2010
27295928	S02CA06	26/02/2010
27349891	S02CA06	20/07/2010
27317311	S02CA06	31/08/2009
27347663	S02CA06	16/12/2010
26989934	S02CA06	10/09/2010
26968760	S02CA06	01/02/2010
26968859	S02CA06	25/05/2006
27231345	S02CA06	19/09/2001
27217481	S02CA06	23/03/2010
26967092	S02CA06	19/10/2010
26957779	S02CA06	08/10/2010
27253579	S02CA06	30/12/2009
26975874	S02CA06	02/03/2010
26988666	S02CA06	29/03/2011
26988730	S02CA06	17/03/2006
27605673	S02CA06	27/07/2006
27589319	S02CA06	15/02/2008
27595904	S02CA06	24/02/2006
27592896	S02CA06	03/10/2007
27574680	S02CA06	21/10/2010
27618071	S02CA06	01/06/2009
27597440	S02CA06	02/04/2007
27601251	S02CA06	18/01/2007
27548002	S02CA06	16/03/2004
27589187	S02CA06	01/02/2011
27576845	S02CA06	02/03/2009
27570888	S02CA06	29/12/2010
27596955	S02CA06	24/10/2007
27651125	S02CA06	24/12/2007
27591859	S02CA06	22/12/2005
27660850	S02CA06	16/05/2005
27595843	S02CA06	28/08/2006
27575921	S02CA06	10/03/2009
27622577	S02CA06	24/06/2009
27574894	S02CA06	08/10/2009
27578571	S02CA06	16/05/2009
27633482	S02CA06	27/06/2007
27641028	S02CA06	27/10/2009
27450379	S02CA06	02/05/2007
27451933	S02CA06	20/07/2006
27589857	S02CA06	07/03/2009
27484556	S02CA06	30/05/2006
27476748	S02CA06	01/08/2005
27660599	S02CA06	15/12/2004
27484738	S02CA06	03/04/2006
27648963	S02CA06	05/02/2010
27443998	S02CA06	28/09/2005
27472835	S02CA06	11/01/2011
27459008	S02CA06	23/02/2010
27564660	S02CA06	01/01/2005
27567475	S02CA06	02/10/2009
27614798	S02CA06	28/04/2011
27764873	S02CA06	08/09/2003
27758847	S02CA06	13/03/2007
27565319	S02CA06	21/10/2008
27616396	S02CA06	20/08/2008
27617784	S02CA06	08/02/2007
27614461	S02CA06	29/01/2010
27558827	S02CA06	11/06/2007
27568394	S02CA06	03/06/2009
27633086	S02CA06	24/11/2009
27545579	S02CA06	17/09/2007
27553074	S02CA06	24/01/2003
27134583	S02CA06	27/03/2010
27146227	S02CA06	28/01/2010
27150779	S02CA06	22/09/2008
27129360	S02CA06	18/10/2006
27130014	S02CA06	09/02/2011
26954350	S02CA06	18/02/2006
27783605	S02CA06	16/07/2004
27066420	S02CA06	11/06/2008
27808204	S02CA06	04/03/2009
27659130	S02CA06	27/06/2006
27101650	S02CA06	05/04/2011
436733	S02CA06	02/06/2008
12974157	S02CA06	06/05/2010
27360727	S02CA06	20/07/2010
27597550	S02CA06	07/05/2007
26968518	S02CA06	09/03/2007
27563396	S02CA06	08/05/2006
27038840	S02CA06	31/08/2004
27782628	S02CA06	15/06/2010
27475185	S02CA06	16/02/2010
27781212	S02CA06	20/01/2011
27684139	S02CA06	21/09/2009
27673275	S02CA06	12/01/2011
27679924	S02CA06	23/12/2003
27563283	S02CA06	25/06/2009
27685556	S02CA06	05/02/2002
27543049	S02CA06	15/05/2011
27674475	S02CA06	12/02/2010
27296616	S02CA06	28/01/2009
27676570	S02CA06	19/11/2005
27784418	S02CA06	10/01/2005
27784434	S02CA06	05/10/2010
27460403	S02CA06	04/12/2007
27784207	S02CA06	23/12/2006
27784276	S02CA06	28/02/2003
27680700	S02CA06	21/09/2009
27570288	S02CA06	18/06/2009
27385747	S02CA06	22/10/2010
27294951	S02CA06	28/02/2011
25742146	S02CA06	23/11/2004
27667116	S02CA06	20/07/2010
301444	S02CA06	04/09/2009
27079586	S02CA06	25/11/2010
27708482	S02CA06	09/06/2009
27082259	S02CA06	12/06/2006
27674197	S02CA06	04/06/2009
27537425	S02CA06	17/09/2010
27320881	S02CA06	30/12/2005
27473750	S02CA06	26/04/2008
27650966	S02CA06	01/07/2010
27659082	S02CA06	18/08/2009
27459556	S02CA06	19/06/2008
27573978	S02CA06	10/11/2009
27614281	S02CA06	01/05/2009
27512023	S02CA06	09/05/2011
27591724	S02CA06	23/01/2008
27475366	S02CA06	09/01/2006
27574042	S02CA06	08/05/2004
27574045	S02CA06	08/09/2010
26933407	S02CA06	08/01/2010
27799332	S02CA06	26/11/2004
27673521	S02CA06	05/06/2008
24668612	S02CA06	10/01/2011
27454186	S02CA06	02/11/2009
27248290	S02CA06	03/08/2001
27812233	S02CA06	21/08/2008
9072497	S02CA06	06/05/2008
27535465	S02CA06	27/05/2011
27115834	S02CA06	05/05/2005
27673749	S02CA06	17/06/2004
27804595	S02CA06	31/08/2009
27793622	S02CA06	16/06/2004
27759574	S02CA06	15/03/2007
27718465	S02CA06	15/01/2008
27689606	S02CA06	03/04/2004
27707606	S02CA06	20/07/2010
27797371	S02CA06	19/01/2005
27675428	S02CA06	29/06/2006
27794317	S02CA06	26/07/2007
27794453	S02CA06	14/03/2008
27758814	S02CA06	08/01/2011
27766338	S02CA06	12/11/2003
27709451	S02CA06	01/10/2008
27761994	S02CA06	26/07/2010
27688654	S02CA06	08/11/2002
27673658	S02CA06	17/11/2003
27718995	S02CA06	08/07/2010
27764267	S02CA06	24/12/2007
27684475	S02CA06	16/11/2001
27794365	S02CA06	03/10/2007
27599637	S02CA06	01/06/2011
27765080	S02CA06	15/03/2010
1905372	S02CA06	16/01/2007
27667214	S02CA06	31/10/2002
2958452	S02CA06	16/06/2006
1368878	S02CA06	15/11/2010
27767366	S02CA06	10/05/2007
27479159	S02CA06	08/08/2006
27574464	S02CA06	03/01/2008
178560	S02CA06	21/08/2000
27708196	S02CA06	20/06/2007
435210	S02CA06	01/05/2005
27614092	S02CA06	03/02/2010
26975695	S02CA06	25/11/2003
27808239	S02CA06	05/06/2007
27783755	S02CA06	16/06/2010
27794198	S02CA06	24/10/2008
27794220	S02CA06	20/03/2007
27032665	S02CA06	31/03/2006
27786169	S02CA06	24/05/2008
27766849	S02CA06	06/05/2005
27600262	S02CA06	20/10/2010
11937600	S02CA06	11/03/2009
27783816	S02CA06	26/04/2005
27795958	S02CA06	23/02/2004
27767563	S02CA06	24/08/2009
27168190	S02CA06	25/08/2004
27784800	S02CA06	28/03/2007
26968797	S02CA06	03/06/2010
26873786	S02CA06	03/08/2006
33103780	S02CA06	03/07/2009
33051822	S02CA06	16/07/2003
33135137	S02CA06	26/07/2010
33043346	S02CA06	04/09/2009
33051475	S02CA06	23/09/2009
33007198	S02CA06	25/08/2006
33071870	S02CA06	21/09/2010
33116441	S02CA06	04/01/2006
33083573	S02CA06	25/10/2006
33098852	S02CA06	06/04/2004
33030476	S02CA06	01/07/2010
33017935	S02CA06	29/07/2008
33029258	S02CA06	12/11/2009
33041335	S02CA06	05/07/2004
33080053	S02CA06	16/05/2003
33049687	S02CA06	11/02/2002
33010518	S02CA06	09/11/2010
33007749	S02CA06	23/02/2010
33091555	S02CA06	08/07/2003
33018895	S02CA06	10/05/2011
33111017	S02CA06	10/08/2007
33074872	S02CA06	20/07/2007
33021631	S02CA06	05/08/2009
33109408	S02CA06	01/08/2005
33105550	S02CA06	11/01/2011
33007764	S02CA06	11/10/2001
33087917	S02CA06	01/06/2009
33072253	S02CA06	11/11/2008
33010286	S02CA06	25/10/2001
33125033	S02CA06	16/07/2009
33029738	S02CA06	10/03/2008
33125212	S02CA06	26/11/2010
33005367	S02CA06	30/11/2006
33125061	S02CA06	05/05/2008
33046388	S02CA06	28/12/2010
33124982	S02CA06	13/08/2009
33038595	S02CA06	22/03/2011
26636182	S02CA06	28/08/2010
422251	S02CA06	26/05/2011
1368092	S02CA06	11/06/2008
184713	S02CA06	22/09/2003
27796530	S02CA06	09/02/2010
27812494	S02CA06	20/10/2009
33054276	S02CA06	03/08/2006
13873657	S02CA06	19/05/2010
27810146	S02CA06	22/05/2009
16841346	S02CA06	10/11/2008
27807346	S02CA06	26/10/2010
28013502	S02CA06	30/06/2006
16609720	S02CA06	08/02/2007
24465483	S02CA06	18/01/2008
16712669	S02CA06	27/01/2006
33234483	S02CA06	09/12/2003
24465418	S02CA06	07/08/2010
33111961	S02CA06	18/07/2008
33005071	S02CA06	08/03/2010
33034466	S02CA06	22/05/2008
33123603	S02CA06	24/05/2010
33106875	S02CA06	23/08/2002
33038685	S02CA06	07/11/2007
33106625	S02CA06	21/03/2011
33078447	S02CA06	21/10/2008
33084973	S02CA06	11/05/2004
33063789	S02CA06	03/03/2011
33065536	S02CA06	28/02/2007
33127566	S02CA06	22/02/2010
33105985	S02CA06	18/10/2001
33089002	S02CA06	10/07/2006
33112009	S02CA06	12/08/2009
33048842	S02CA06	14/02/2009
33031207	S02CA06	16/12/2002
33111959	S02CA06	03/11/2010
33088209	S02CA06	07/04/2009
33022447	S02CA06	05/11/2010
33073237	S02CA06	03/04/2003
33085575	S02CA06	21/07/2009
33100604	S02CA06	04/01/2007
33067910	S02CA06	03/08/2006
33105170	S02CA06	02/09/2010
33053587	S02CA06	13/03/2007
16179088	S02CA06	11/10/2002
18768070	S02CA06	16/05/2011
33204026	S02CA06	25/01/2010
16609573	S02CA06	24/06/2009
16136273	S02CA06	01/12/2009
16134895	S02CA06	09/01/2008
33203869	S02CA06	30/11/2009
16625746	S02CA06	24/01/2007
27998885	S02CA06	06/03/2010
33233293	S02CA06	21/08/2002
20983485	S02CA06	24/02/2009
16636482	S02CA06	26/06/2008
33242446	S02CA06	05/01/2010
18758883	S02CA06	16/06/2005
16607145	S02CA06	23/03/2009
16683227	S02CA06	21/06/2006
16679741	S02CA06	02/01/2010
33308205	S02CA06	29/04/2009
16680317	S02CA06	28/08/2010
16657725	S02CA06	02/02/2010
23381575	S02CA06	12/01/2010
16636866	S02CA06	24/03/2011
16138978	S02CA06	19/05/2007
33243654	S02CA06	01/09/2008
21117274	S02CA06	23/12/2010
16173411	S02CA06	16/01/2008
28023165	S02CA06	04/10/2010
16596526	S02CA06	14/05/2010
33314548	S02CA06	22/02/2010
16655009	S02CA06	19/05/2004
16658557	S02CA06	23/03/2009
33314495	S02CA06	17/12/2008
33314513	S02CA06	04/03/2009
23343311	S02CA06	30/01/2008
23328512	S02CA06	26/12/2006
21106540	S02CA06	18/03/2008
18755801	S02CA06	05/02/2010
18770852	S02CA06	09/02/2006
33243775	S02CA06	03/09/2009
16680316	S02CA06	27/05/2009
23386984	S02CA06	16/07/2009
16166375	S02CA06	03/08/2009
33250951	S02CA06	23/02/2005
16636488	S02CA06	16/08/2006
33229490	S02CA06	18/08/2009
27988780	S02CA06	11/01/2008
21105718	S02CA06	06/12/2009
20991079	S02CA06	28/09/2010
16124109	S02CA06	31/10/2008
16183727	S02CA06	03/08/2007
21012382	S02CA06	24/09/2009
28023159	S02CA06	10/07/2008
16680392	S02CA06	29/11/2010
21102997	S02CA06	04/08/2008
23383661	S02CA06	15/07/2008
33292950	S02CA06	03/10/2008
18756517	S02CA06	03/02/2005
33249418	S02CA06	27/01/2004
16630924	S02CA06	09/05/2007
16647105	S02CA06	02/07/2007
33212859	S02CA06	25/05/2011
33294335	S02CA06	25/01/2003
16130964	S02CA06	26/09/2007
23353839	S02CA06	01/12/2010
16124869	S02CA06	08/01/2008
23354037	S02CA06	26/09/2006
33243444	S02CA06	06/04/2009
33283091	S02CA06	06/06/2008
16125165	S02CA06	13/11/2009
23326017	S02CA06	24/01/2008
16648845	S02CA06	07/08/2006
16648785	S02CA06	22/08/2007
23367236	S02CA06	04/12/2008
23412981	S02CA06	19/09/2006
23412017	S02CA06	16/01/2009
16679831	S02CA06	04/05/2009
23382269	S02CA06	24/01/2011
33253952	S02CA06	24/02/2011
33302059	S02CA06	15/12/2009
18769218	S02CA06	22/05/2002
33243281	S02CA06	09/03/2011
23364191	S02CA06	18/07/2008
16139599	S02CA06	11/07/2006
16135290	S02CA06	11/02/2011
28014401	S02CA06	23/03/2009
16680230	S02CA06	12/12/2009
16134696	S02CA06	20/11/2009
16611332	S02CA06	23/11/2010
33231706	S02CA06	01/09/2010
16625182	S02CA06	18/01/2007
16647294	S02CA06	07/02/2008
27847279	S02CA06	04/08/2010
31181468	S02CA06	29/12/2003
31865293	S02CA06	17/07/2006
31418563	S02CA06	13/03/2006
31764466	S02CA06	13/09/2007
33243187	S02CA06	04/08/2009
16773532	S02CA06	11/02/2010
23349604	S02CA06	03/01/2010
23332352	S02CA06	04/11/2005
16613895	S02CA06	11/03/2008
16613437	S02CA06	29/10/2007
27822078	S02CA06	06/06/2007
21105858	S02CA06	24/02/2010
16124541	S02CA06	03/11/2006
27848434	S02CA06	05/08/2008
23412332	S02CA06	30/07/2007
656479	S02CA06	24/08/2010
23401236	S02CA06	07/10/2003
16646378	S02CA06	26/07/2005
23386512	S02CA06	27/04/2011
33246911	S02CA06	27/08/2008
16124383	S02CA06	08/09/2008
32164188	S02CA06	20/11/2009
31632078	S02CA06	25/10/2004
31553488	S02CA06	07/12/2004
31822671	S02CA06	10/03/2009
31856871	S02CA06	21/07/2003
32012639	S02CA06	06/02/2004
31655296	S02CA06	25/03/2008
31472385	S02CA06	19/02/2007
31805853	S02CA06	05/07/2010
32276089	S02CA06	18/07/2006
31960155	S02CA06	26/08/2005
31791183	S02CA06	03/01/2003
31045649	S02CA06	09/08/2006
31431511	S02CA06	10/10/2005
31603806	S02CA06	16/07/2009
31224867	S02CA06	30/10/2006
31619193	S02CA06	09/09/2009
31683932	S02CA06	23/11/2009
32252506	S02CA06	30/10/2009
31326057	S02CA06	12/02/2008
31536904	S02CA06	28/08/2007
31908448	S02CA06	20/04/2007
31217335	S02CA06	17/08/2007
31989161	S02CA06	09/06/2006
32048150	S02CA06	05/12/2008
31567335	S02CA06	19/08/2005
31534993	S02CA06	16/01/2007
31267839	S02CA06	14/01/2005
31082542	S02CA06	05/12/2006
31749706	S02CA06	29/09/2005
31495263	S02CA06	08/04/2009
31509670	S02CA06	17/02/2010
31406021	S02CA06	15/12/2004
32121191	S02CA06	16/12/2008
31697096	S02CA06	09/04/2008
32200000	S02CA06	26/06/2008
31461480	S02CA06	18/09/2007
31869403	S02CA06	21/01/2004
32065784	S02CA06	17/05/2006
31969864	S02CA06	29/09/2010
31631227	S02CA06	13/04/2009
31374849	S02CA06	12/08/2004
32224890	S02CA06	06/10/2004
31898729	S02CA06	30/09/2008
32171260	S02CA06	20/05/2008
31177909	S02CA06	10/12/2010
31794804	S02CA06	19/06/2002
31236375	S02CA06	10/10/2007
31388103	S02CA06	09/01/2007
31553943	S02CA06	30/06/2005
31410312	S02CA06	08/11/2005
31896290	S02CA06	03/09/2002
31091078	S02CA06	28/03/2007
31521238	S02CA06	30/11/2007
32272859	S02CA06	31/10/2003
31464790	S02CA06	20/08/2009
31471110	S02CA06	22/01/2003
31455126	S02CA06	31/07/2007
31818362	S02CA06	28/05/2009
31986897	S02CA06	17/06/2010
31346081	S02CA06	17/09/2007
31655578	S02CA06	31/10/2005
32054331	S02CA06	05/06/2006
31478904	S02CA06	02/03/2006
32214444	S02CA06	06/05/2003
31675988	S02CA06	26/05/2006
31610368	S02CA06	17/04/2009
31421438	S02CA06	19/09/2008
31059184	S02CA06	24/02/2010
31447101	S02CA06	27/02/2009
31271559	S02CA06	15/03/2004
31957345	S02CA06	30/09/2009
31409135	S02CA06	15/10/2004
31445853	S02CA06	21/06/2002
31372288	S02CA06	08/11/2005
32064148	S02CA06	11/01/2005
31328921	S02CA06	24/06/2009
31970088	S02CA06	13/04/2004
31666781	S02CA06	04/12/2003
32221033	S02CA06	08/03/2007
31171842	S02CA06	11/10/2006
31635127	S02CA06	29/11/2004
31979610	S02CA06	27/05/2005
31269714	S02CA06	08/04/2011
31697444	S02CA06	20/10/2003
31153502	S02CA06	01/09/2010
31126238	S02CA06	19/11/2008
31038380	S02CA06	26/08/2009
31387411	S02CA06	07/04/2009
32000982	S02CA06	15/02/2007
31153951	S02CA06	11/04/2005
31480236	S02CA06	06/09/2007
31815983	S02CA06	22/01/2010
31870585	S02CA06	29/06/2005
31863134	S02CA06	10/05/2011
31716553	S02CA06	21/07/2009
31734576	S02CA06	28/08/2007
31977169	S02CA06	18/10/2007
31099804	S02CA06	07/10/2008
31988726	S02CA06	07/12/2004
31342123	S02CA06	13/12/2007
31174566	S02CA06	14/12/2005
31407436	S02CA06	09/05/2007
31570495	S02CA06	14/02/2006
31768805	S02CA06	27/11/2007
31230568	S02CA06	22/07/2010
31212919	S02CA06	09/10/2008
31522613	S02CA06	06/03/2006
31842995	S02CA06	03/01/2005
31959560	S02CA06	13/07/2005
31581886	S02CA06	02/09/2009
31299767	S02CA06	16/06/2010
31140696	S02CA06	26/03/2003
31975247	S02CA06	29/10/2009
31259396	S02CA06	01/09/2009
32276553	S02CA06	16/09/2005
32187962	S02CA06	22/08/2006
31830918	S02CA06	12/03/2008
31566542	S02CA06	21/03/2007
31469914	S02CA06	15/11/1999
31411740	S02CA06	26/02/2007
31297746	S02CA06	01/10/2009
31308549	S02CA06	17/11/2010
31735989	S02CA06	11/12/2006
31924171	S02CA06	11/08/2008
31103092	S02CA06	19/03/2007
31447535	S02CA06	18/10/2006
31485067	S02CA06	28/01/2008
31054626	S02CA06	09/10/2009
31241434	S02CA06	06/06/2006
31235668	S02CA06	27/10/2005
32159495	S02CA06	16/10/2008
31614153	S02CA06	07/07/2009
32281367	S02CA06	14/11/2008
31865183	S02CA06	22/07/2003
31536413	S02CA06	22/11/2004
32245709	S02CA06	10/03/2011
32059302	S02CA06	24/02/2011
31165395	S02CA06	18/01/2005
31464229	S02CA06	01/10/2002
31278238	S02CA06	15/11/2006
31174835	S02CA06	20/08/2008
31200904	S02CA06	05/08/2008
31820707	S02CA06	07/09/2007
32262837	S02CA06	27/10/2008
31158124	S02CA06	27/07/2009
31319783	S02CA06	20/10/2000
31046070	S02CA06	17/05/2004
32079091	S02CA06	12/07/2010
31577330	S02CA06	11/02/2009
32150423	S02CA06	02/04/2008
31248907	S02CA06	05/12/2002
31177768	S02CA06	01/12/2005
31520032	S02CA06	10/10/2005
31571961	S02CA06	22/03/2005
31220339	S02CA06	28/06/2010
32134927	S02CA06	21/08/2007
31110380	S02CA06	28/11/2007
31223044	S02CA06	29/08/2003
31815936	S02CA06	24/07/2008
31730830	S02CA06	21/10/2009
32132555	S02CA06	15/01/2007
31965808	S02CA06	27/01/2009
31848002	S02CA06	30/10/2006
31989864	S02CA06	13/11/2006
31417350	S02CA06	05/05/2003
31434653	S02CA06	19/07/2005
31941810	S02CA06	03/12/2007
31952135	S02CA06	25/08/2003
31448756	S02CA06	05/04/2010
31231208	S02CA06	01/12/2008
31768821	S02CA06	14/09/2005
32168749	S02CA06	07/07/2004
31685000	S02CA06	02/01/2006
32141296	S02CA06	31/07/2009
31150491	S02CA06	07/04/2008
31854191	S02CA06	19/12/2008
31920979	S02CA06	06/02/2004
31952594	S02CA06	13/02/2007
31923205	S02CA06	23/08/2007
32106251	S02CA06	17/01/2008
31523575	S02CA06	20/09/2006
31279651	S02CA06	23/10/2008
31051569	S02CA06	20/12/2007
32011623	S02CA06	06/09/2005
32240004	S02CA06	02/12/2003
31392073	S02CA06	06/03/2009
31121059	S02CA06	10/12/2007
32182197	S02CA06	20/12/2010
31162307	S02CA06	05/11/2007
31194310	S02CA06	15/10/2008
31122803	S02CA06	05/12/2008
31457097	S02CA06	05/02/2009
31691505	S02CA06	10/07/2007
31357342	S02CA06	10/10/2007
31349798	S02CA06	08/02/2006
32221835	S02CA06	01/03/2010
31166024	S02CA06	20/06/2006
31992539	S02CA06	16/03/2009
31567460	S02CA06	21/03/2011
31351438	S02CA06	17/12/2010
32000169	S02CA06	06/11/2006
32023181	S02CA06	20/08/2003
31251984	S02CA06	18/11/2005
32245026	S02CA06	30/08/2006
31142929	S02CA06	13/11/2007
31354855	S02CA06	11/11/2005
31668345	S02CA06	03/04/2007
31103268	S02CA06	19/12/2005
32248515	S02CA06	14/04/2004
31827495	S02CA06	20/10/2004
32156533	S02CA06	06/02/2009
31245311	S02CA06	06/08/2002
31258782	S02CA06	29/07/2009
31560503	S02CA06	22/03/2007
31474342	S02CA06	11/12/2007
31479765	S02CA06	03/08/2009
31103124	S02CA06	04/02/2010
31417692	S02CA06	17/05/2006
31550011	S02CA06	23/08/2010
31697066	S02CA06	04/09/2007
31528759	S02CA06	10/07/2006
32236750	S02CA06	29/01/2008
32279210	S02CA06	06/05/2010
31204728	S02CA06	09/07/2007
32063273	S02CA06	18/08/2009
32084009	S02CA06	18/03/2008
31991384	S02CA06	15/03/2006
32009303	S02CA06	16/02/2007
31417729	S02CA06	09/10/2006
31396958	S02CA06	29/07/1999
32084312	S02CA06	15/05/2006
32053538	S02CA06	07/11/2008
31169171	S02CA06	22/08/2006
31532198	S02CA06	04/07/2007
31485027	S02CA06	21/10/2009
31062380	S02CA06	26/09/2007
32192108	S02CA06	06/06/2006
31703573	S02CA06	08/08/2006
31240777	S02CA06	13/07/2007
32102091	S02CA06	02/07/2007
32258288	S02CA06	13/01/2006
31375145	S02CA06	30/05/2007
31244492	S02CA06	22/08/2008
32064271	S02CA06	14/04/2008
31264507	S02CA06	05/12/2006
31657959	S02CA06	08/05/2006
31670185	S02CA06	14/01/2010
31537972	S02CA06	16/12/2009
32150114	S02CA06	30/06/2010
31445349	S02CA06	27/10/2003
31646493	S02CA06	02/08/2006
31201536	S02CA06	08/11/2007
31796622	S02CA06	18/10/2004
32130047	S02CA06	19/02/2009
31780295	S02CA06	06/04/2006
31098580	S02CA06	28/02/2007
31830989	S02CA06	09/09/2005
31626836	S02CA06	13/09/2004
32065963	S02CA06	13/09/2005
31883253	S02CA06	12/09/2007
31840787	S02CA06	24/06/2008
31929891	S02CA06	28/03/2006
31967869	S02CA06	10/04/2006
31584320	S02CA06	09/08/2005
32258540	S02CA06	13/07/2004
31431550	S02CA06	14/01/2009
31109547	S02CA06	02/02/2004
32191042	S02CA06	31/10/2003
31899477	S02CA06	03/11/2009
32223263	S02CA06	25/11/2009
32119583	S02CA06	21/11/2001
31460189	S02CA06	03/05/2007
31808318	S02CA06	18/06/2001
31165974	S02CA06	16/02/2005
32172715	S02CA06	20/02/2004
31198323	S02CA06	31/10/2007
32270593	S02CA06	12/04/2007
31737242	S02CA06	20/12/2004
31290982	S02CA06	18/01/2001
31273855	S02CA06	08/08/2007
32209727	S02CA06	08/08/2003
31141797	S02CA06	29/04/2011
31412940	S02CA06	17/01/2007
31654518	S02CA06	02/09/2009
31489393	S02CA06	11/06/2004
31909860	S02CA06	26/10/2006
31284436	S02CA06	03/11/2006
31475629	S02CA06	29/03/2006
31416750	S02CA06	28/11/2005
31386321	S02CA06	18/02/2009
31172851	S02CA06	14/08/2007
31774208	S02CA06	02/04/2009
31338208	S02CA06	08/09/2006
32147924	S02CA06	08/04/2008
32227582	S02CA06	16/10/2009
32274565	S02CA06	20/11/2006
32232823	S02CA06	11/05/2007
32070274	S02CA06	25/05/2005
31127796	S02CA06	28/12/2009
31522054	S02CA06	21/09/2007
31145470	S02CA06	21/09/2005
31734758	S02CA06	01/02/2007
31442038	S02CA06	26/10/2000
31126133	S02CA06	23/02/2004
31129628	S02CA06	24/07/2009
31974782	S02CA06	03/06/2002
31288784	S02CA06	15/05/2008
31717321	S02CA06	26/11/2008
31724163	S02CA06	22/11/2007
31264137	S02CA06	14/11/2008
31505216	S02CA06	12/11/2003
31673952	S02CA06	24/08/2006
31382962	S02CA06	14/08/2008
31177447	S02CA06	03/08/2007
32075764	S02CA06	17/07/2007
31273240	S02CA06	01/06/2004
32121038	S02CA06	05/10/2005
31256023	S02CA06	21/08/2006
32202397	S02CA06	15/06/2005
31143978	S02CA06	11/06/2007
31703185	S02CA06	29/10/2004
31767577	S02CA06	15/01/2009
32097739	S02CA06	06/07/2005
31624416	S02CA06	31/07/2001
32024753	S02CA06	06/11/2007
31739715	S02CA06	05/05/2009
32188080	S02CA06	13/12/2010
31071531	S02CA06	28/05/2009
31465993	S02CA06	25/03/2008
31889649	S02CA06	23/09/2004
31897753	S02CA06	11/02/2008
31955177	S02CA06	22/02/2005
32247474	S02CA06	03/10/2007
31567476	S02CA06	30/12/2005
31448770	S02CA06	18/07/2005
31637621	S02CA06	22/08/2005
31332749	S02CA06	11/10/2004
31756049	S02CA06	01/04/2008
31923733	S02CA06	12/01/2011
32274362	S02CA06	22/07/2009
31891362	S02CA06	26/03/2008
31450960	S02CA06	19/11/2008
31734230	S02CA06	08/05/2009
32172086	S02CA06	17/08/2007
32138134	S02CA06	19/05/2008
31941361	S02CA06	27/10/2004
31933208	S02CA06	08/04/2008
31184911	S02CA06	13/10/2008
31400450	S02CA06	23/06/2010
32014179	S02CA06	18/08/2006
31790935	S02CA06	29/12/2008
31980952	S02CA06	07/12/1999
31238830	S02CA06	31/10/2007
31328449	S02CA06	04/10/2010
31977265	S02CA06	13/10/2009
31349007	S02CA06	21/10/2004
31177849	S02CA06	13/12/2007
31968838	S02CA06	10/07/2007
31165845	S02CA06	12/02/2004
31241258	S02CA06	03/05/2006
32129185	S02CA06	14/12/2004
31202980	S02CA06	14/04/2008
31543308	S02CA06	03/10/2006
32195630	S02CA06	30/11/2010
31314418	S02CA06	28/06/1999
32279388	S02CA06	20/04/2010
32106084	S02CA06	16/11/1999
32194941	S02CA06	14/06/2005
31940868	S02CA06	10/07/2009
31384728	S02CA06	08/11/2006
31807777	S02CA06	10/08/2010
31838059	S02CA06	14/01/2010
31842217	S02CA06	22/07/2009
31910903	S02CA06	30/09/2008
31804114	S02CA06	27/09/2007
31362253	S02CA06	24/06/2008
32281779	S02CA06	11/04/2007
32120883	S02CA06	02/10/2008
31053703	S02CA06	05/06/2006
31091452	S02CA06	24/10/2003
31486375	S02CA06	12/11/2004
31722565	S02CA06	21/06/2002
32047291	S02CA06	15/11/2004
31501116	S02CA06	21/11/2006
31615865	S02CA06	21/04/2009
31988487	S02CA06	10/07/2006
31956592	S02CA06	19/07/2007
32195427	S02CA06	25/01/2005
32012050	S02CA06	28/06/2007
31813990	S02CA06	20/06/2008
31274753	S02CA06	17/06/2005
32143088	S02CA06	23/06/2009
31482847	S02CA06	22/06/2009
31049468	S02CA06	01/02/2007
31223206	S02CA06	19/10/2010
31566637	S02CA06	29/01/2010
31922177	S02CA06	27/06/2006
31391176	S02CA06	01/04/2009
31694659	S02CA06	21/07/2009
31427687	S02CA06	22/10/2009
