patient_id	covar_name	date
12689003	SISODE	22/12/2009
12694724	SISODE	08/09/2009
13538926	SISODE	29/05/2009
8672217	SISODE	25/03/2003
8283295	SISODE	04/04/2008
731313	SISODE	24/10/2002
7094236	SISODE	06/10/2009
945347	SISODE	16/04/2004
6841194	SISODE	09/01/2007
1320554	SISODE	14/09/2009
1206482	SISODE	29/04/2009
7657311	SISODE	14/07/2010
652715	SISODE	08/06/2010
25915017	SISODE	03/07/2008
25894478	SISODE	04/12/2009
2088659	SISODE	10/04/2007
2966632	SISODE	17/07/2002
2962363	SISODE	24/01/2008
28044182	SISODE	17/02/2009
425921	SISODE	13/10/1999
305231	SISODE	19/10/2004
2214719	SISODE	16/12/2002
25542954	SISODE	03/02/2009
1360042	SISODE	20/04/2005
1361648	SISODE	19/12/2006
1373198	SISODE	26/01/2009
1371015	SISODE	26/04/2000
21386521	SISODE	17/06/2009
21199875	SISODE	13/04/2010
19966968	SISODE	25/11/2003
22512641	SISODE	06/07/2009
22619614	SISODE	30/03/2010
22922825	SISODE	28/04/2008
26950141	SISODE	13/10/1931
26915565	SISODE	02/03/2011
26915217	SISODE	12/09/2007
26745325	SISODE	26/04/2011
26782134	SISODE	08/02/2011
26876866	SISODE	04/11/2004
26879087	SISODE	08/10/2010
26859600	SISODE	26/01/2011
26784075	SISODE	14/01/2010
26802468	SISODE	25/07/2007
26769634	SISODE	19/05/2009
27057310	SISODE	26/11/2002
26966567	SISODE	17/03/2010
26976896	SISODE	24/02/2011
27105324	SISODE	03/02/2011
27126956	SISODE	10/05/2004
27100098	SISODE	27/01/2005
27154320	SISODE	08/08/2008
27154503	SISODE	14/04/2010
27061621	SISODE	25/10/2004
27049237	SISODE	30/07/2008
27055530	SISODE	22/06/2009
27322477	SISODE	26/12/2007
27657983	SISODE	29/10/2004
27577397	SISODE	20/10/2005
27591859	SISODE	16/04/2009
27660829	SISODE	08/09/2010
27470568	SISODE	28/01/2009
27481247	SISODE	27/01/2010
27428460	SISODE	16/09/2008
27428748	SISODE	13/12/2007
27543598	SISODE	28/10/2008
27756696	SISODE	24/01/2006
27763541	SISODE	02/03/2009
27547537	SISODE	07/06/2005
27147928	SISODE	10/11/2010
12976599	SISODE	09/02/2003
27105042	SISODE	10/09/2007
27669094	SISODE	04/02/2005
27533632	SISODE	05/04/2011
27151700	SISODE	16/05/2001
27198984	SISODE	19/05/2011
27531023	SISODE	13/01/2011
27459452	SISODE	24/04/1998
26940030	SISODE	30/11/2006
26824795	SISODE	24/03/2009
26946173	SISODE	12/06/2008
26971047	SISODE	21/02/2006
26959747	SISODE	08/03/2006
27664577	SISODE	18/05/2010
27804721	SISODE	26/03/2009
27796300	SISODE	17/06/2008
25556019	SISODE	02/11/2009
27794211	SISODE	10/06/2010
27051909	SISODE	19/07/2006
27778549	SISODE	11/06/2004
33045972	SISODE	09/11/2007
27538301	SISODE	27/04/2009
27812443	SISODE	01/02/2011
18759143	SISODE	30/08/2007
33026619	SISODE	15/10/2004
23260632	SISODE	22/08/2007
16653497	SISODE	21/12/2010
23354528	SISODE	12/04/2004
18770821	SISODE	03/03/2008
20986036	SISODE	01/09/2009
16602699	SISODE	04/09/2009
16602899	SISODE	02/02/2007
33302059	SISODE	12/06/2003
23332754	SISODE	03/05/2007
31372636	SISODE	11/11/2004
31566149	SISODE	27/06/2005
32022472	SISODE	19/05/2008
31844023	SISODE	07/05/2008
31459968	SISODE	31/05/2011
31967570	SISODE	28/12/2008
32199911	SISODE	12/04/2004
31712701	SISODE	03/05/2001
31767484	SISODE	14/03/2006
31963228	SISODE	08/06/2009
32227680	SISODE	11/04/2008
31777809	SISODE	22/05/2006
31564399	SISODE	17/11/2009
31300735	SISODE	15/06/2004
31074922	SISODE	08/03/2006
32129515	SISODE	03/02/2009
32206134	SISODE	06/04/2010
31814249	SISODE	10/06/2003
