patient_id	covar_name	date
12790716	S01AA02	21/12/2007
9231392	S01AA02	09/12/2000
9319410	S01AA02	07/07/2010
10245764	S01AA02	06/08/2007
25066998	S01AA02	04/07/2003
25042420	S01AA02	04/10/2005
8977102	S01AA02	18/02/2003
609847	S01AA02	15/04/2004
9319702	S01AA02	25/05/2005
10245956	S01AA02	30/01/2008
947960	S01AA02	02/09/2002
6758677	S01AA02	11/08/2009
14963770	S01AA02	26/11/2010
753097	S01AA02	11/03/2008
10001615	S01AA02	25/04/2005
21156478	S01AA02	05/07/2010
948794	S01AA02	29/06/2007
9372370	S01AA02	27/03/2008
12763154	S01AA02	24/05/2004
9284420	S01AA02	03/02/2004
17175397	S01AA02	11/10/2006
3124388	S01AA02	12/11/2003
5022326	S01AA02	07/02/2008
9312637	S01AA02	25/05/2009
9129326	S01AA02	23/06/1999
9339067	S01AA02	07/11/2007
16249525	S01AA02	01/03/2010
12783694	S01AA02	24/05/2005
9372483	S01AA02	22/02/2008
612097	S01AA02	23/02/2010
18685012	S01AA02	24/05/2010
13940459	S01AA02	25/01/2011
9208920	S01AA02	22/02/2006
14963734	S01AA02	22/10/2009
9212274	S01AA02	05/11/2010
8641180	S01AA02	08/01/2008
12761383	S01AA02	19/03/2007
25066653	S01AA02	13/02/2003
9213970	S01AA02	14/12/2007
608929	S01AA02	23/06/2004
20910485	S01AA02	28/03/2011
25066759	S01AA02	15/12/2008
6244710	S01AA02	22/01/2009
5639941	S01AA02	09/03/2006
25047538	S01AA02	16/03/2006
6187767	S01AA02	29/12/2009
10003355	S01AA02	25/06/2009
1939034	S01AA02	12/05/2004
8555693	S01AA02	31/08/2010
12258879	S01AA02	22/02/2005
20413837	S01AA02	18/05/2011
12829787	S01AA02	07/12/2004
12767263	S01AA02	24/07/2008
21152857	S01AA02	17/04/2008
946083	S01AA02	22/06/2009
9384962	S01AA02	18/08/2005
9996518	S01AA02	08/06/2007
7152290	S01AA02	07/04/2008
24730349	S01AA02	13/06/2007
9339219	S01AA02	22/07/2010
611330	S01AA02	24/02/2005
12782509	S01AA02	01/09/2008
3302154	S01AA02	05/03/2002
16922826	S01AA02	16/12/2008
10331261	S01AA02	19/12/2007
12691956	S01AA02	08/01/2008
19179194	S01AA02	28/08/2007
13191192	S01AA02	08/04/2011
16557846	S01AA02	07/06/2007
8976746	S01AA02	25/09/2001
1938542	S01AA02	25/01/2006
8975474	S01AA02	29/08/2007
740818	S01AA02	09/01/2004
12730693	S01AA02	12/09/2005
20566164	S01AA02	02/03/2007
12857478	S01AA02	15/10/2004
25043161	S01AA02	20/09/2005
1964476	S01AA02	25/08/2004
12737954	S01AA02	13/01/2011
611502	S01AA02	16/08/2003
25043031	S01AA02	21/11/2005
8786254	S01AA02	23/12/2005
12858903	S01AA02	01/12/2005
15066614	S01AA02	20/04/2010
10247580	S01AA02	07/12/2004
12781740	S01AA02	09/11/2006
10245628	S01AA02	27/11/2008
9213222	S01AA02	18/01/2010
8555305	S01AA02	15/04/2010
20909054	S01AA02	28/09/2010
175318	S01AA02	29/05/2008
2944291	S01AA02	17/09/2004
10246462	S01AA02	06/02/2008
14651558	S01AA02	25/08/2010
25065956	S01AA02	30/12/2009
19178597	S01AA02	22/03/2006
16097957	S01AA02	11/09/2008
8988435	S01AA02	20/05/2010
5447573	S01AA02	20/04/2004
9212813	S01AA02	10/12/2009
6080455	S01AA02	23/03/2010
17175259	S01AA02	15/11/2005
1963862	S01AA02	21/10/2002
6758836	S01AA02	13/06/2006
15394337	S01AA02	13/10/2010
17175576	S01AA02	01/08/2006
5032897	S01AA02	26/06/2007
8288758	S01AA02	05/12/2000
7349228	S01AA02	23/11/2005
8655470	S01AA02	12/07/2010
24724353	S01AA02	06/02/2007
13191252	S01AA02	08/03/2011
1964545	S01AA02	25/08/2009
949009	S01AA02	16/01/2003
12780350	S01AA02	14/05/2004
24005636	S01AA02	04/10/2006
173433	S01AA02	14/06/2000
8979392	S01AA02	21/11/2000
12738517	S01AA02	28/10/2003
20414136	S01AA02	13/06/2005
12147915	S01AA02	26/05/2009
12762018	S01AA02	10/09/2007
17172555	S01AA02	29/06/2006
9348009	S01AA02	03/10/2007
9285511	S01AA02	08/04/2010
7248494	S01AA02	20/02/2008
25062059	S01AA02	21/08/2006
10866215	S01AA02	31/01/2006
9339884	S01AA02	16/07/2007
10004108	S01AA02	25/05/2007
1516973	S01AA02	07/12/2002
3550220	S01AA02	10/03/2003
9997962	S01AA02	18/11/2008
23996759	S01AA02	02/07/2002
8068502	S01AA02	14/01/2011
1191344	S01AA02	05/01/2006
24940389	S01AA02	05/07/2005
7964359	S01AA02	04/11/2010
19402460	S01AA02	08/01/2004
1191246	S01AA02	04/06/2004
7963931	S01AA02	25/03/2008
638967	S01AA02	01/08/2000
1263670	S01AA02	04/06/2001
18039102	S01AA02	13/03/2006
1192135	S01AA02	28/02/2003
1263678	S01AA02	20/11/2004
6594082	S01AA02	17/04/2010
2906336	S01AA02	10/07/2006
18039002	S01AA02	23/03/2006
648591	S01AA02	22/06/2004
1173278	S01AA02	18/09/2003
1545551	S01AA02	15/09/2001
25177615	S01AA02	30/11/2007
24934852	S01AA02	21/08/2000
1192160	S01AA02	22/10/2006
1192190	S01AA02	29/07/2004
1192084	S01AA02	26/01/2004
1658853	S01AA02	06/08/2009
1262707	S01AA02	28/09/2010
7770332	S01AA02	12/11/2003
647355	S01AA02	16/09/2002
7964660	S01AA02	18/04/2008
12187273	S01AA02	10/04/2002
1192005	S01AA02	15/12/2003
19402429	S01AA02	03/01/2008
7972630	S01AA02	13/10/2010
1191254	S01AA02	30/05/2005
1132264	S01AA02	24/04/2009
5989041	S01AA02	12/11/2007
1134366	S01AA02	27/07/2005
25768791	S01AA02	14/11/2006
25894610	S01AA02	11/08/2010
1274912	S01AA02	12/07/2004
10715787	S01AA02	22/04/2010
1577791	S01AA02	18/06/2003
12665472	S01AA02	03/12/2010
12788076	S01AA02	21/04/2010
2799361	S01AA02	28/07/2004
1134421	S01AA02	27/11/2002
25908066	S01AA02	15/12/2006
1103551	S01AA02	12/12/2002
2068046	S01AA02	24/01/2008
2366671	S01AA02	14/08/2003
2365565	S01AA02	13/06/2005
2088442	S01AA02	17/05/2007
877592	S01AA02	04/02/2003
2034571	S01AA02	29/09/2009
859110	S01AA02	19/11/2003
876130	S01AA02	23/07/2006
2035701	S01AA02	08/01/2004
2038121	S01AA02	22/10/2010
1764620	S01AA02	02/07/2009
901698	S01AA02	22/09/2008
1762584	S01AA02	01/12/2005
2811902	S01AA02	01/04/2004
2773774	S01AA02	17/10/2006
2041614	S01AA02	26/03/2007
859772	S01AA02	26/06/2003
1762017	S01AA02	22/01/2009
2034986	S01AA02	20/06/2003
3050006	S01AA02	18/05/2007
2761723	S01AA02	03/12/2004
7045933	S01AA02	25/09/2007
2813592	S01AA02	09/09/2003
2776091	S01AA02	30/09/2010
2811730	S01AA02	09/09/2003
2759074	S01AA02	27/04/2009
2523148	S01AA02	17/04/2007
2755270	S01AA02	19/12/2008
2756684	S01AA02	26/05/2011
16980304	S01AA02	14/04/2003
2239894	S01AA02	03/05/2010
16835317	S01AA02	09/11/2005
26423896	S01AA02	21/07/2000
26384054	S01AA02	06/08/2007
26385141	S01AA02	01/03/2007
26425755	S01AA02	13/06/2001
26425762	S01AA02	02/08/2007
26441922	S01AA02	14/06/2010
26426041	S01AA02	16/03/2011
28044121	S01AA02	04/02/2003
26243769	S01AA02	01/09/2008
17744421	S01AA02	21/03/2003
26288378	S01AA02	03/12/2008
26243853	S01AA02	04/06/2009
26457715	S01AA02	12/10/2005
26451444	S01AA02	04/08/2005
26341506	S01AA02	21/12/2006
7148916	S01AA02	09/12/2005
9928982	S01AA02	20/12/2010
16961870	S01AA02	21/12/2007
11533840	S01AA02	04/03/2009
434153	S01AA02	03/07/2008
419797	S01AA02	20/06/2002
28077465	S01AA02	23/02/2011
28044182	S01AA02	22/08/2000
2039704	S01AA02	08/07/2010
28085720	S01AA02	01/07/2010
3049347	S01AA02	10/04/2008
463486	S01AA02	13/08/2010
859897	S01AA02	28/11/2003
28072507	S01AA02	11/07/2001
28065315	S01AA02	11/08/2009
28090303	S01AA02	02/09/2004
28072154	S01AA02	12/01/2007
25741980	S01AA02	30/04/2010
25743607	S01AA02	28/01/2008
1014620	S01AA02	03/11/2005
1363813	S01AA02	25/06/2001
1021447	S01AA02	09/06/2003
1908278	S01AA02	28/11/2003
21064688	S01AA02	14/09/2007
16567068	S01AA02	04/01/2007
22830720	S01AA02	08/02/2005
1994071	S01AA02	14/06/2005
422072	S01AA02	15/12/2003
1363174	S01AA02	11/03/2003
26795792	S01AA02	31/07/2006
26793792	S01AA02	07/07/2009
26770131	S01AA02	12/07/2010
26790332	S01AA02	10/06/2009
12876607	S01AA02	04/01/2005
2987010	S01AA02	16/02/2010
13497950	S01AA02	02/06/2008
16567909	S01AA02	29/07/2008
12951261	S01AA02	30/01/2007
26641801	S01AA02	16/11/2006
21581847	S01AA02	09/05/2006
26935835	S01AA02	31/01/2007
26754500	S01AA02	12/11/2003
26879225	S01AA02	17/03/2008
26753075	S01AA02	17/12/2003
26710863	S01AA02	19/09/2007
26754408	S01AA02	06/09/2004
26857281	S01AA02	26/04/2004
26882035	S01AA02	24/10/2003
26872462	S01AA02	21/01/2004
26803088	S01AA02	05/03/2010
26793746	S01AA02	05/03/2008
26753808	S01AA02	16/02/2010
27034975	S01AA02	03/06/2003
27152657	S01AA02	07/12/2004
27075643	S01AA02	12/01/2009
27031426	S01AA02	18/12/2008
27031641	S01AA02	11/09/2004
27031739	S01AA02	26/10/2004
27046614	S01AA02	21/07/2006
27031246	S01AA02	01/04/2008
27031301	S01AA02	07/05/2008
27032446	S01AA02	26/10/2009
27036527	S01AA02	23/12/2004
27013186	S01AA02	16/02/2011
27347214	S01AA02	08/08/2005
27169084	S01AA02	01/12/2004
27243228	S01AA02	18/04/2001
27173189	S01AA02	28/12/2005
27211899	S01AA02	24/09/2009
27252267	S01AA02	28/05/2008
27484556	S01AA02	23/09/2004
27476748	S01AA02	04/12/2008
27547079	S01AA02	19/01/2006
27566202	S01AA02	17/05/2010
27564411	S01AA02	19/10/2006
27571164	S01AA02	02/11/2005
27133059	S01AA02	29/04/2004
27161111	S01AA02	19/02/2008
27165153	S01AA02	23/11/2004
27167562	S01AA02	14/04/2005
23087147	S01AA02	26/10/2005
27458286	S01AA02	15/01/2008
27680700	S01AA02	20/11/2001
27675727	S01AA02	18/10/2010
27566721	S01AA02	08/06/2009
26751097	S01AA02	29/09/2003
23087045	S01AA02	29/06/2007
27024856	S01AA02	05/01/2004
27450192	S01AA02	20/12/2006
27449803	S01AA02	28/07/2005
27574467	S01AA02	13/12/2007
27546390	S01AA02	24/01/2011
463787	S01AA02	08/01/2003
26803298	S01AA02	13/04/2010
27032665	S01AA02	24/09/2009
13497550	S01AA02	25/11/2004
33022477	S01AA02	21/12/2010
33061414	S01AA02	16/06/2004
33023244	S01AA02	10/02/2011
33071439	S01AA02	02/08/2007
33106412	S01AA02	16/11/2010
33051475	S01AA02	07/05/2009
33073611	S01AA02	19/05/2005
33058585	S01AA02	06/04/2010
33067601	S01AA02	13/05/2008
33086157	S01AA02	05/11/2004
33126648	S01AA02	03/02/2011
33065720	S01AA02	05/04/2005
33075351	S01AA02	28/02/2006
33116452	S01AA02	02/03/2009
33089670	S01AA02	11/02/2002
33088898	S01AA02	04/01/2010
33024115	S01AA02	18/01/2001
33098869	S01AA02	22/11/2010
33104560	S01AA02	24/05/2011
33103502	S01AA02	27/10/2008
33106497	S01AA02	28/05/2008
33107313	S01AA02	27/02/2009
33073796	S01AA02	11/08/2005
27680372	S01AA02	17/02/2009
16184008	S01AA02	15/06/2010
27872711	S01AA02	04/07/2005
16707748	S01AA02	17/10/2008
33045812	S01AA02	13/02/2008
33020434	S01AA02	26/06/2001
33019674	S01AA02	08/04/2011
33069429	S01AA02	08/03/2007
33056325	S01AA02	23/01/2009
33013638	S01AA02	03/06/2005
33116651	S01AA02	08/02/2008
33019851	S01AA02	04/09/2008
33004554	S01AA02	23/06/2008
33027037	S01AA02	23/11/2004
33070531	S01AA02	18/12/2007
33102499	S01AA02	22/09/2008
33089333	S01AA02	21/07/2007
33002563	S01AA02	05/08/2004
33017279	S01AA02	29/01/2009
33072494	S01AA02	08/07/2010
33063691	S01AA02	28/03/2006
33013603	S01AA02	26/12/2001
33073480	S01AA02	21/04/2008
23227463	S01AA02	18/05/2010
16634466	S01AA02	21/07/2009
16774800	S01AA02	19/11/2007
23364854	S01AA02	25/11/2009
16639844	S01AA02	17/06/2004
16181789	S01AA02	03/02/2005
23316549	S01AA02	02/03/2006
16595962	S01AA02	24/03/2011
16596474	S01AA02	25/08/2010
24462666	S01AA02	20/02/2006
23362937	S01AA02	22/01/2007
16596125	S01AA02	08/05/2009
16653209	S01AA02	03/04/2008
18766111	S01AA02	15/03/2010
21115002	S01AA02	13/12/2007
18770458	S01AA02	18/01/2008
16606962	S01AA02	08/01/2009
16647705	S01AA02	23/03/2010
21112119	S01AA02	19/01/2008
23410714	S01AA02	04/01/2011
20991039	S01AA02	19/03/2011
16177824	S01AA02	07/04/2009
16184071	S01AA02	15/02/2007
16124191	S01AA02	06/03/2010
16124902	S01AA02	30/05/2011
23362640	S01AA02	16/04/2010
33296798	S01AA02	18/04/2011
16615168	S01AA02	19/05/2011
28002227	S01AA02	30/01/2008
20982566	S01AA02	21/09/2004
33233833	S01AA02	23/05/2005
27837120	S01AA02	21/08/2008
23397000	S01AA02	03/12/2009
16607104	S01AA02	10/06/2004
16125129	S01AA02	29/04/2008
20985499	S01AA02	30/04/2010
16652097	S01AA02	15/10/2010
16181468	S01AA02	05/09/2001
27859464	S01AA02	02/08/2010
16596776	S01AA02	04/06/2009
16601219	S01AA02	05/09/2007
16631655	S01AA02	15/10/2008
27847657	S01AA02	26/09/2008
27998137	S01AA02	03/01/2008
33224242	S01AA02	09/09/2009
31242735	S01AA02	11/01/2008
16648689	S01AA02	28/11/2006
18754718	S01AA02	21/07/2009
16623961	S01AA02	26/10/2010
23368730	S01AA02	02/09/2009
28013056	S01AA02	07/04/2009
16124871	S01AA02	18/10/2005
23364786	S01AA02	12/07/2006
16639640	S01AA02	30/09/2005
16124499	S01AA02	19/06/2009
16127748	S01AA02	29/04/2004
21011666	S01AA02	12/01/2009
23412180	S01AA02	08/07/2009
16774215	S01AA02	18/01/2010
23349661	S01AA02	02/12/2009
16613501	S01AA02	09/02/2005
18872531	S01AA02	23/10/2003
16124383	S01AA02	08/09/2008
33265146	S01AA02	02/02/2010
31800989	S01AA02	28/06/2005
31214044	S01AA02	21/07/2006
31085646	S01AA02	25/08/2005
31579327	S01AA02	23/10/2001
31572048	S01AA02	07/02/2002
31967730	S01AA02	06/05/2005
31688134	S01AA02	14/02/2005
31284771	S01AA02	14/02/2002
32173295	S01AA02	27/10/2005
32069537	S01AA02	07/12/2004
32268129	S01AA02	16/10/2006
31330160	S01AA02	12/07/2005
31641080	S01AA02	14/11/2008
31217091	S01AA02	25/03/2004
32254036	S01AA02	13/10/2008
31780085	S01AA02	11/02/2002
31399315	S01AA02	18/06/2001
32098573	S01AA02	25/04/2005
32151672	S01AA02	01/06/2009
31114794	S01AA02	08/03/2007
32175588	S01AA02	08/03/2006
31103952	S01AA02	19/05/2006
31073820	S01AA02	26/12/2006
31182789	S01AA02	27/02/2009
31560518	S01AA02	26/12/2006
32140286	S01AA02	13/07/2007
31176430	S01AA02	19/12/2007
32018024	S01AA02	24/05/2002
32046442	S01AA02	26/09/2007
31137773	S01AA02	03/10/2007
31396661	S01AA02	24/09/2009
31594342	S01AA02	18/05/2005
32179690	S01AA02	11/02/2005
31845519	S01AA02	14/05/2003
31562243	S01AA02	02/01/2006
31749706	S01AA02	09/10/2006
31627476	S01AA02	18/07/2003
31880089	S01AA02	04/02/2002
31921329	S01AA02	19/11/2004
32007446	S01AA02	28/02/2005
31607158	S01AA02	03/08/2006
31511644	S01AA02	13/10/2008
31786755	S01AA02	29/08/2007
32272392	S01AA02	08/05/2003
31947243	S01AA02	02/09/2002
31756119	S01AA02	07/03/2006
31218180	S01AA02	07/02/2008
31934644	S01AA02	27/06/2002
31998046	S01AA02	31/01/2002
32019089	S01AA02	28/10/2003
31925365	S01AA02	26/04/2002
31784324	S01AA02	17/10/2007
31253172	S01AA02	16/03/2005
31509040	S01AA02	12/12/2000
31663405	S01AA02	19/12/2008
31102591	S01AA02	21/01/2003
32249963	S01AA02	01/09/2003
31119347	S01AA02	25/03/2011
31530208	S01AA02	12/11/2008
31050561	S01AA02	13/12/2006
31573454	S01AA02	12/07/2005
31355341	S01AA02	04/06/2009
32169470	S01AA02	23/08/2006
31782644	S01AA02	14/08/2009
31234642	S01AA02	09/06/2008
31360240	S01AA02	03/02/2009
32032595	S01AA02	25/05/2007
31682163	S01AA02	18/08/2005
31177909	S01AA02	02/02/2005
31690018	S01AA02	04/03/2008
31151166	S01AA02	27/07/2009
31761283	S01AA02	14/09/2005
32013445	S01AA02	04/08/2005
31238979	S01AA02	09/11/2004
31655438	S01AA02	06/06/2006
31771748	S01AA02	17/12/2009
32252834	S01AA02	16/04/2007
31678708	S01AA02	10/04/2002
31497406	S01AA02	19/11/2008
32080405	S01AA02	11/02/2005
32101468	S01AA02	28/03/2005
31810704	S01AA02	12/01/2006
31428879	S01AA02	19/11/2004
31100753	S01AA02	10/07/2009
31993171	S01AA02	05/09/2005
31520067	S01AA02	30/12/2003
32191632	S01AA02	11/06/2008
31605756	S01AA02	13/05/2005
31127501	S01AA02	16/04/2003
32248059	S01AA02	19/08/2009
31859149	S01AA02	19/08/2004
31447101	S01AA02	22/06/2009
32014160	S01AA02	17/07/2007
31164009	S01AA02	23/04/2008
31873426	S01AA02	25/01/2010
31143129	S01AA02	18/07/2000
32056494	S01AA02	02/02/2007
31267220	S01AA02	01/04/2000
31274972	S01AA02	16/09/2008
32081935	S01AA02	06/10/2008
31128925	S01AA02	01/06/2006
31058792	S01AA02	22/02/2002
32216487	S01AA02	16/03/2007
31977477	S01AA02	19/12/2007
31070191	S01AA02	29/11/2005
31078214	S01AA02	24/03/2006
31282769	S01AA02	04/09/2002
31558576	S01AA02	11/04/2005
31153502	S01AA02	02/04/2009
31968510	S01AA02	05/05/2008
31153951	S01AA02	25/01/2005
32085028	S01AA02	28/09/2010
32264681	S01AA02	16/10/2000
31638062	S01AA02	11/01/2007
31532807	S01AA02	16/06/2008
32108763	S01AA02	18/01/2007
31556215	S01AA02	22/01/2004
32203290	S01AA02	01/06/2007
31491964	S01AA02	30/06/2005
31942130	S01AA02	02/02/2004
31249462	S01AA02	13/10/2006
31149415	S01AA02	03/09/2002
32044425	S01AA02	29/08/2008
31076169	S01AA02	11/06/2008
31570495	S01AA02	16/06/2009
31108705	S01AA02	13/01/2003
31339297	S01AA02	10/01/2008
32186902	S01AA02	18/01/2005
31611830	S01AA02	23/10/2002
31704498	S01AA02	24/06/2009
31605572	S01AA02	03/11/2008
32084541	S01AA02	03/02/2006
32030940	S01AA02	21/12/2006
31986193	S01AA02	21/02/2006
31519231	S01AA02	28/01/2008
31083102	S01AA02	10/12/2007
31076402	S01AA02	04/10/2006
31103963	S01AA02	26/06/2008
31608572	S01AA02	18/04/2006
31156229	S01AA02	08/08/2002
32257593	S01AA02	17/09/2007
31318249	S01AA02	02/01/2008
31393513	S01AA02	02/06/2009
31924171	S01AA02	29/06/2005
31698320	S01AA02	13/06/2007
31311414	S01AA02	25/08/2006
31301711	S01AA02	29/05/2001
31726864	S01AA02	24/01/2002
31062409	S01AA02	04/05/2007
31565602	S01AA02	27/11/2007
31541598	S01AA02	12/12/2003
32184004	S01AA02	19/05/2006
31580302	S01AA02	28/05/2009
31464229	S01AA02	26/07/2007
31799301	S01AA02	15/11/2002
31836413	S01AA02	10/11/2006
31760513	S01AA02	08/08/2006
31049817	S01AA02	24/06/2004
31855476	S01AA02	09/04/2010
32141968	S01AA02	26/04/2001
32244255	S01AA02	27/01/2005
31390850	S01AA02	04/07/2006
31264991	S01AA02	21/10/2005
31774180	S01AA02	20/04/2006
31137425	S01AA02	10/07/2007
31873755	S01AA02	13/12/2007
31562632	S01AA02	23/02/2005
31156693	S01AA02	09/02/2004
31461549	S01AA02	29/08/2002
31363946	S01AA02	06/02/2002
31741186	S01AA02	28/11/2002
32120999	S01AA02	10/04/2002
31348625	S01AA02	16/01/2004
31460267	S01AA02	25/09/2008
31299340	S01AA02	05/03/2007
31587202	S01AA02	22/05/2006
31844771	S01AA02	21/04/2006
32156100	S01AA02	03/11/2009
31683633	S01AA02	06/03/2001
31298511	S01AA02	30/09/2003
31266863	S01AA02	02/12/2005
31782495	S01AA02	17/09/2007
31794769	S01AA02	09/12/2004
31090124	S01AA02	26/10/2005
32175108	S01AA02	16/05/2006
31652625	S01AA02	29/06/2006
31234634	S01AA02	10/07/2007
31886314	S01AA02	22/12/2008
31142174	S01AA02	23/10/2006
32135706	S01AA02	14/02/2006
31151917	S01AA02	28/12/2005
31138935	S01AA02	16/08/2007
31451755	S01AA02	04/09/2006
31263122	S01AA02	20/04/2009
32075736	S01AA02	01/08/2007
31293266	S01AA02	29/04/2008
31333447	S01AA02	20/08/2010
31588667	S01AA02	02/07/2007
31652906	S01AA02	13/09/2004
32050400	S01AA02	17/04/2008
31701057	S01AA02	11/01/2008
31035403	S01AA02	01/10/2007
31672308	S01AA02	05/01/2006
31607561	S01AA02	15/02/2006
32166442	S01AA02	07/06/2007
31211511	S01AA02	06/05/2005
32065071	S01AA02	09/07/2008
31958844	S01AA02	13/02/2006
32010721	S01AA02	30/01/2008
31229613	S01AA02	02/01/2009
31796342	S01AA02	22/06/2005
31494692	S01AA02	20/11/2003
32100108	S01AA02	14/12/2007
32220216	S01AA02	17/02/2006
31855970	S01AA02	20/06/2002
31142929	S01AA02	02/02/2009
31354855	S01AA02	05/11/1999
32197810	S01AA02	11/11/2008
31867997	S01AA02	23/07/2007
32187498	S01AA02	17/03/2004
32190244	S01AA02	24/05/2006
31068246	S01AA02	17/02/2009
31904766	S01AA02	27/01/2005
31597078	S01AA02	13/03/2008
32080097	S01AA02	16/03/2004
31354062	S01AA02	01/12/2005
31045073	S01AA02	28/10/2003
32127892	S01AA02	22/02/2008
31566478	S01AA02	22/02/2006
31550011	S01AA02	06/07/2007
32266997	S01AA02	21/04/2005
31561059	S01AA02	26/11/2007
31341166	S01AA02	07/10/2005
31979275	S01AA02	03/07/2000
31491918	S01AA02	05/12/2005
31785126	S01AA02	24/10/2006
31643551	S01AA02	15/01/2007
31335509	S01AA02	07/11/2005
32020453	S01AA02	23/11/2002
31991384	S01AA02	24/01/2003
32108735	S01AA02	12/05/2008
32005364	S01AA02	15/01/2009
31747041	S01AA02	04/04/2006
32130729	S01AA02	25/01/2002
31828790	S01AA02	15/12/2006
31062380	S01AA02	19/08/2005
31202485	S01AA02	11/07/2006
31936343	S01AA02	20/07/2007
32065117	S01AA02	02/01/2008
32240789	S01AA02	26/10/2006
31743977	S01AA02	13/02/2004
31329371	S01AA02	26/05/2006
32076621	S01AA02	14/09/2004
31819602	S01AA02	28/09/2007
31336014	S01AA02	25/11/2005
31186038	S01AA02	31/03/2006
31137964	S01AA02	28/11/2005
31775570	S01AA02	08/05/2003
31426730	S01AA02	07/09/2001
32198687	S01AA02	24/02/2003
32164470	S01AA02	03/08/2006
31774740	S01AA02	20/07/2005
31840486	S01AA02	27/11/2007
32269608	S01AA02	03/11/2006
31138152	S01AA02	30/07/2003
32058972	S01AA02	10/01/2005
31450282	S01AA02	02/09/2008
31139041	S01AA02	10/03/2008
32215263	S01AA02	19/11/2007
31058197	S01AA02	07/04/2006
31539125	S01AA02	22/02/2010
31817649	S01AA02	29/07/2005
31652044	S01AA02	15/07/2005
32103625	S01AA02	24/02/2003
31080832	S01AA02	17/02/2006
31661159	S01AA02	18/04/2006
31971481	S01AA02	19/06/2006
31165974	S01AA02	24/04/2004
31970294	S01AA02	25/01/2007
32083993	S01AA02	05/02/2007
31187476	S01AA02	19/02/2007
32164726	S01AA02	27/12/2005
31048673	S01AA02	12/11/2002
31429891	S01AA02	28/06/2002
31265348	S01AA02	23/11/2009
31390349	S01AA02	28/05/2007
32073876	S01AA02	10/05/2002
31066627	S01AA02	28/12/2005
31976007	S01AA02	13/05/2005
31382749	S01AA02	05/08/2008
31255794	S01AA02	27/02/2007
31206924	S01AA02	03/05/2007
31214599	S01AA02	19/11/2003
31198510	S01AA02	07/04/2005
31284436	S01AA02	31/10/2003
32083711	S01AA02	11/07/2008
32189503	S01AA02	06/03/2000
31953400	S01AA02	24/05/2005
31674303	S01AA02	26/01/2005
32124058	S01AA02	14/04/2000
31417879	S01AA02	19/06/2002
31072026	S01AA02	26/07/2004
31693991	S01AA02	07/04/2006
31240257	S01AA02	01/09/2009
31942339	S01AA02	14/03/2003
31813820	S01AA02	15/12/2008
31916722	S01AA02	16/01/2007
31701584	S01AA02	01/12/2006
31981483	S01AA02	26/11/2003
31677326	S01AA02	25/10/2005
31647102	S01AA02	04/08/2004
31364029	S01AA02	09/02/2005
31760312	S01AA02	31/10/2007
31237337	S01AA02	02/10/2001
31901938	S01AA02	02/08/2007
32026060	S01AA02	03/04/2001
31869856	S01AA02	21/05/2007
31827456	S01AA02	10/07/2009
31038807	S01AA02	16/05/2008
31851503	S01AA02	02/11/2004
31172111	S01AA02	03/07/2008
32280196	S01AA02	11/05/2005
31925538	S01AA02	05/12/2008
31809617	S01AA02	27/02/2004
31625079	S01AA02	07/05/2007
31095601	S01AA02	27/01/2001
31512021	S01AA02	15/10/2007
32233869	S01AA02	29/03/2006
31802053	S01AA02	30/12/2002
31884839	S01AA02	21/04/2006
31128250	S01AA02	12/02/2008
31213814	S01AA02	09/12/2005
32279203	S01AA02	08/06/2005
31954288	S01AA02	11/02/2005
32023838	S01AA02	02/01/2006
32227837	S01AA02	06/02/2006
31445382	S01AA02	10/11/2008
31326537	S01AA02	22/08/2005
31323678	S01AA02	19/08/2010
31365396	S01AA02	19/05/2005
31229693	S01AA02	26/05/2008
31040325	S01AA02	12/07/2007
31572848	S01AA02	13/03/2003
31422425	S01AA02	11/07/2003
31897009	S01AA02	18/09/2006
31887827	S01AA02	24/07/2008
31068921	S01AA02	23/01/2008
31655334	S01AA02	25/03/2004
31854011	S01AA02	24/05/2006
31071531	S01AA02	11/01/2008
31526798	S01AA02	20/07/2010
31487862	S01AA02	25/05/2005
31597504	S01AA02	14/07/2010
31497176	S01AA02	17/06/2005
31393751	S01AA02	17/05/2004
32273927	S01AA02	02/08/2010
31215447	S01AA02	03/12/2004
31237625	S01AA02	29/01/2008
31759943	S01AA02	27/06/2006
31081987	S01AA02	02/06/2009
31464063	S01AA02	13/12/2004
31585198	S01AA02	14/11/2003
32018466	S01AA02	21/12/2007
31820547	S01AA02	18/02/2005
31641752	S01AA02	14/06/2005
32268403	S01AA02	29/12/2004
31622708	S01AA02	10/05/2006
32109635	S01AA02	03/02/2006
31699160	S01AA02	29/01/2002
31893484	S01AA02	07/01/2004
32102147	S01AA02	10/11/1999
31866955	S01AA02	12/04/2006
31719119	S01AA02	07/12/2007
31305319	S01AA02	26/09/2008
31667381	S01AA02	04/12/2002
31493420	S01AA02	28/09/2007
31202980	S01AA02	05/10/2004
31762133	S01AA02	24/10/2007
31610642	S01AA02	05/03/2009
31665299	S01AA02	13/02/2007
31597300	S01AA02	26/06/2006
31049195	S01AA02	13/05/2004
31454218	S01AA02	10/02/2009
31244900	S01AA02	08/06/2005
31197659	S01AA02	15/07/2002
32266454	S01AA02	10/11/2005
31663150	S01AA02	04/02/2008
31839792	S01AA02	30/01/2008
31579984	S01AA02	05/05/2008
31410306	S01AA02	13/07/2004
31631182	S01AA02	10/11/2006
32064605	S01AA02	14/03/2008
31528004	S01AA02	25/05/2007
31650488	S01AA02	20/03/2003
32189511	S01AA02	19/06/2007
31910903	S01AA02	10/12/2008
31893641	S01AA02	05/12/2002
31362253	S01AA02	24/03/2008
31180408	S01AA02	05/11/2008
32053883	S01AA02	29/11/2004
32248718	S01AA02	10/04/2006
32174199	S01AA02	17/07/2007
32183049	S01AA02	17/07/2007
31410826	S01AA02	19/12/2002
31035197	S01AA02	31/10/2007
31538581	S01AA02	26/04/2007
31589835	S01AA02	03/10/2006
31746349	S01AA02	20/08/2007
31257145	S01AA02	29/06/2004
31200941	S01AA02	05/03/2007
32220436	S01AA02	16/10/2009
31842553	S01AA02	24/06/2008
31798383	S01AA02	13/03/2007
31564838	S01AA02	07/02/2006
