patient_id	covar_name	date
8960142	S01GX07	17/05/2006
1726934	S01GX07	15/05/2002
9328250	S01GX07	05/12/2006
9231384	S01GX07	26/11/2003
9999776	S01GX07	25/03/2011
15035711	S01GX07	24/05/2011
8559182	S01GX07	18/04/2011
20413197	S01GX07	02/06/2010
25062263	S01GX07	17/02/2011
25071751	S01GX07	25/06/2010
8985915	S01GX07	09/03/2011
9371686	S01GX07	08/06/2004
701674	S01GX07	19/05/2006
6245065	S01GX07	14/05/2007
8982464	S01GX07	02/02/2011
15036073	S01GX07	09/05/2011
9293874	S01GX07	12/05/2009
12761131	S01GX07	15/05/2006
3331130	S01GX07	15/03/2011
3939831	S01GX07	12/03/2002
17954142	S01GX07	03/05/2010
6744323	S01GX07	20/05/2008
16530698	S01GX07	23/03/2011
12760749	S01GX07	15/10/2008
17175058	S01GX07	09/06/2010
16490094	S01GX07	27/05/2010
9295838	S01GX07	07/06/2010
9134181	S01GX07	24/03/2009
9388796	S01GX07	16/08/2005
704170	S01GX07	13/06/2008
20545910	S01GX07	10/09/2008
9995414	S01GX07	15/05/2008
25043612	S01GX07	14/05/2007
6079444	S01GX07	28/02/2011
6887580	S01GX07	10/02/2011
25054748	S01GX07	14/07/2005
5867289	S01GX07	06/05/2010
735454	S01GX07	24/06/2008
23454518	S01GX07	02/03/2010
8989996	S01GX07	07/05/2009
6747203	S01GX07	20/02/2009
5031952	S01GX07	21/05/2009
7248380	S01GX07	19/07/2005
1161916	S01GX07	11/05/2006
8672217	S01GX07	26/05/2011
10245464	S01GX07	26/05/2006
9250103	S01GX07	13/02/2009
9386259	S01GX07	31/03/2011
6752622	S01GX07	04/06/2009
703299	S01GX07	26/05/2009
7094054	S01GX07	28/01/2009
1938563	S01GX07	26/03/2008
8293406	S01GX07	22/05/2007
16559016	S01GX07	09/04/2010
9135471	S01GX07	15/01/2004
9387533	S01GX07	12/04/2010
9302090	S01GX07	12/05/2009
6080444	S01GX07	04/04/2008
19179021	S01GX07	06/04/2010
10246900	S01GX07	24/05/2006
6744501	S01GX07	12/05/2009
8556820	S01GX07	18/04/2007
740565	S01GX07	18/04/2005
19005696	S01GX07	03/05/2011
9300058	S01GX07	25/05/2010
8568268	S01GX07	19/05/2006
10002416	S01GX07	10/05/2005
12857056	S01GX07	02/11/2004
6937234	S01GX07	10/05/2006
23472073	S01GX07	17/05/2011
6245113	S01GX07	25/05/2006
9379016	S01GX07	14/04/2010
9370792	S01GX07	05/12/2008
25062482	S01GX07	12/02/2009
612357	S01GX07	19/02/2009
610479	S01GX07	10/03/2011
19185008	S01GX07	03/05/2011
14982674	S01GX07	30/04/2008
1125167	S01GX07	06/06/2006
10004388	S01GX07	24/03/2006
9309990	S01GX07	25/05/2007
7152251	S01GX07	24/05/2006
7243139	S01GX07	23/02/2009
3288866	S01GX07	25/02/2002
611433	S01GX07	29/04/2011
9301728	S01GX07	22/05/2009
12857656	S01GX07	11/05/2007
12186297	S01GX07	11/05/2006
7405489	S01GX07	07/04/2009
7033654	S01GX07	10/02/2009
25052193	S01GX07	15/11/2006
6746487	S01GX07	14/05/2007
1433461	S01GX07	10/05/2011
12762299	S01GX07	11/05/2011
25041900	S01GX07	09/07/2010
1937181	S01GX07	31/05/2011
24730680	S01GX07	14/02/2006
12857478	S01GX07	16/01/2004
1160472	S01GX07	23/05/2011
9347965	S01GX07	15/03/2011
1983462	S01GX07	28/04/2008
177542	S01GX07	18/06/2004
12772955	S01GX07	14/04/2010
12782081	S01GX07	29/05/2008
12730840	S01GX07	01/02/2008
25063351	S01GX07	06/04/2010
12728050	S01GX07	16/05/2007
12764937	S01GX07	15/06/2007
9387966	S01GX07	18/02/2011
12790442	S01GX07	16/03/2007
610200	S01GX07	27/04/2009
12739599	S01GX07	08/04/2010
6080303	S01GX07	12/09/2007
6748638	S01GX07	03/12/2009
9370676	S01GX07	24/03/2009
8786254	S01GX07	04/04/2003
12858903	S01GX07	09/05/2006
11993051	S01GX07	27/06/2002
8561782	S01GX07	07/05/2010
6080675	S01GX07	05/05/2009
10394248	S01GX07	26/05/2010
25059498	S01GX07	06/08/2008
25063270	S01GX07	06/04/2011
15237928	S01GX07	22/05/2009
9250324	S01GX07	09/06/2008
9386324	S01GX07	12/05/2006
9210774	S01GX07	26/06/2009
6756901	S01GX07	18/01/2011
12774611	S01GX07	22/01/2008
25071580	S01GX07	31/05/2004
1515149	S01GX07	27/05/2002
9373440	S01GX07	15/03/2005
17172387	S01GX07	22/06/2009
10270830	S01GX07	11/07/2008
21871587	S01GX07	16/02/2005
7350747	S01GX07	12/05/2006
3292946	S01GX07	04/05/2011
12790508	S01GX07	19/09/2006
24764465	S01GX07	04/02/2009
3307871	S01GX07	21/05/2007
9370812	S01GX07	17/06/2004
8281171	S01GX07	28/07/2006
16554513	S01GX07	21/05/2010
8511391	S01GX07	09/05/2006
11992885	S01GX07	20/06/2008
10003050	S01GX07	17/05/2006
9308791	S01GX07	22/05/2006
12790379	S01GX07	02/12/2009
25062071	S01GX07	13/05/2010
20412722	S01GX07	17/05/2011
9311838	S01GX07	01/12/2005
9220825	S01GX07	16/04/2009
8654379	S01GX07	01/07/2010
6626450	S01GX07	30/05/2008
3285563	S01GX07	25/05/2010
10268644	S01GX07	23/03/2011
12762018	S01GX07	11/05/2009
24764199	S01GX07	04/06/2004
6759090	S01GX07	28/02/2007
16922604	S01GX07	20/04/2011
9302747	S01GX07	16/06/2008
14771572	S01GX07	21/05/2010
14641265	S01GX07	07/05/2010
8777089	S01GX07	26/05/2010
3502209	S01GX07	26/07/2005
9387904	S01GX07	03/02/2004
6080399	S01GX07	14/05/2008
21796064	S01GX07	26/05/2011
7967901	S01GX07	16/10/2009
673940	S01GX07	02/05/2003
7967014	S01GX07	04/08/2009
1210825	S01GX07	05/04/2011
1474251	S01GX07	14/05/2009
1203819	S01GX07	29/05/2006
23511042	S01GX07	11/05/2006
7776172	S01GX07	28/04/2004
1379596	S01GX07	06/07/2004
404928	S01GX07	19/05/2010
645590	S01GX07	08/04/2008
1198401	S01GX07	05/12/2008
6597238	S01GX07	27/11/2008
13984900	S01GX07	28/05/2003
18366741	S01GX07	03/02/2010
13986469	S01GX07	25/11/2002
1201480	S01GX07	28/05/2003
1277439	S01GX07	17/11/2009
648760	S01GX07	12/09/2003
6841766	S01GX07	15/10/2009
7966545	S01GX07	19/01/2007
7776735	S01GX07	06/05/2008
1670222	S01GX07	09/07/2008
15738137	S01GX07	16/04/2008
7076246	S01GX07	04/05/2009
25984215	S01GX07	05/12/2006
13984558	S01GX07	02/09/2009
1192160	S01GX07	27/04/2004
8454242	S01GX07	19/05/2004
7777513	S01GX07	21/10/2009
1355824	S01GX07	09/06/2005
24719652	S01GX07	12/03/2003
1379025	S01GX07	11/02/2002
19402828	S01GX07	20/04/2007
13986583	S01GX07	17/02/2005
7966257	S01GX07	23/09/2009
6597674	S01GX07	08/05/2006
13986679	S01GX07	28/02/2011
6603214	S01GX07	16/06/2005
6951044	S01GX07	17/01/2008
12657677	S01GX07	04/06/2008
1099425	S01GX07	23/06/2005
997369	S01GX07	22/09/2005
1567790	S01GX07	05/10/2010
25888228	S01GX07	06/04/2011
9873112	S01GX07	15/12/2010
1639524	S01GX07	31/01/2011
1638747	S01GX07	12/01/2009
4687471	S01GX07	21/05/2009
1108842	S01GX07	20/04/2004
25888400	S01GX07	30/11/2010
6392849	S01GX07	19/10/2001
134966	S01GX07	12/04/2002
1027312	S01GX07	04/02/2011
12640327	S01GX07	15/01/2009
996228	S01GX07	24/04/2009
1101747	S01GX07	08/04/2003
6925973	S01GX07	25/05/2011
192085	S01GX07	22/04/2005
1135091	S01GX07	10/05/2002
21282892	S01GX07	20/01/2009
25886838	S01GX07	07/01/2011
135815	S01GX07	28/04/2005
1552120	S01GX07	04/06/2007
25883547	S01GX07	21/05/2008
1134421	S01GX07	23/07/2009
996350	S01GX07	17/03/2009
1107007	S01GX07	04/05/2009
194090	S01GX07	04/12/2007
6951023	S01GX07	16/05/2011
16037893	S01GX07	06/08/2009
25886823	S01GX07	10/05/2011
25883143	S01GX07	23/01/2007
2366483	S01GX07	29/05/2008
2068498	S01GX07	10/12/2008
2133314	S01GX07	15/10/2010
2140421	S01GX07	15/04/2010
3055259	S01GX07	11/06/2002
2760233	S01GX07	03/06/2008
2034398	S01GX07	14/12/2006
2780191	S01GX07	08/07/2004
3054907	S01GX07	03/05/2007
2778285	S01GX07	18/05/2007
7129111	S01GX07	29/05/2002
16962328	S01GX07	29/05/2007
26566156	S01GX07	10/10/2007
26411039	S01GX07	22/05/2003
28045594	S01GX07	21/11/2008
26566176	S01GX07	02/01/2008
26461925	S01GX07	23/04/2009
26243657	S01GX07	17/11/2004
26181280	S01GX07	27/03/2007
26177790	S01GX07	23/03/2005
17325261	S01GX07	22/03/2007
26351889	S01GX07	14/04/2011
16962020	S01GX07	26/12/2008
16962769	S01GX07	07/08/2007
16962234	S01GX07	15/04/2010
305687	S01GX07	07/11/2006
1900806	S01GX07	20/05/2009
302093	S01GX07	14/06/2004
2961150	S01GX07	27/03/2007
428209	S01GX07	18/05/2000
464564	S01GX07	12/05/2009
2522355	S01GX07	04/11/2010
2774054	S01GX07	04/04/2008
28089768	S01GX07	06/06/2006
3049347	S01GX07	28/04/2004
13520117	S01GX07	13/09/2010
9535848	S01GX07	08/10/2010
303035	S01GX07	12/04/2006
186094	S01GX07	31/01/2003
428741	S01GX07	12/05/2009
26461991	S01GX07	02/06/2009
420981	S01GX07	12/05/2008
464887	S01GX07	09/06/2004
423811	S01GX07	09/09/2003
184271	S01GX07	07/05/2009
463683	S01GX07	08/05/2007
28045692	S01GX07	06/09/2007
28045636	S01GX07	15/03/2011
28072320	S01GX07	23/04/2003
28045829	S01GX07	20/02/2009
28089974	S01GX07	05/12/2007
28045890	S01GX07	16/02/2009
20804145	S01GX07	15/04/2011
22819161	S01GX07	18/03/2009
1370131	S01GX07	27/04/2010
1020473	S01GX07	21/05/2011
1363813	S01GX07	13/04/2011
1367186	S01GX07	18/06/2004
24659461	S01GX07	19/05/2006
19800354	S01GX07	14/08/2009
19423772	S01GX07	28/06/2005
18199277	S01GX07	29/03/2011
19423229	S01GX07	23/05/2006
12977360	S01GX07	09/06/2009
2959110	S01GX07	12/05/2008
1022535	S01GX07	29/04/2010
2968063	S01GX07	29/07/2008
2964955	S01GX07	01/07/2008
12994266	S01GX07	15/07/2003
1910693	S01GX07	26/04/2001
926529	S01GX07	19/10/2010
1042407	S01GX07	27/06/2008
1363174	S01GX07	01/08/2008
927304	S01GX07	09/07/2005
26792908	S01GX07	19/06/2009
26636408	S01GX07	06/02/2007
26719714	S01GX07	12/02/2009
26719797	S01GX07	16/03/2009
26790332	S01GX07	25/01/2008
16842597	S01GX07	14/04/2011
22921808	S01GX07	11/11/2004
12975801	S01GX07	10/05/2007
16105651	S01GX07	23/05/2006
26701320	S01GX07	18/09/2006
12975172	S01GX07	22/05/2008
26722973	S01GX07	24/04/2003
26625814	S01GX07	03/06/2006
21553577	S01GX07	18/06/2009
24656518	S01GX07	20/03/2009
21554193	S01GX07	05/06/2007
24658221	S01GX07	15/05/2007
24578829	S01GX07	11/09/2006
24581156	S01GX07	26/05/2004
26894979	S01GX07	27/05/2009
26939224	S01GX07	07/06/2010
26935514	S01GX07	02/06/2009
26889893	S01GX07	22/02/2011
26944305	S01GX07	07/03/2011
26933470	S01GX07	24/01/2008
26878505	S01GX07	17/03/2005
26761208	S01GX07	21/05/2008
26767581	S01GX07	07/06/2007
26887343	S01GX07	20/06/2008
26888411	S01GX07	19/05/2011
26874108	S01GX07	15/05/2006
26879789	S01GX07	09/06/2008
26886743	S01GX07	26/07/2010
26936559	S01GX07	24/04/2006
26888343	S01GX07	02/02/2007
26864451	S01GX07	03/06/2009
26866462	S01GX07	23/04/2007
26793692	S01GX07	22/05/2009
26771375	S01GX07	11/08/2009
26777422	S01GX07	10/08/2004
26970788	S01GX07	22/01/2009
26979143	S01GX07	25/06/2010
26976584	S01GX07	16/06/2007
26956977	S01GX07	20/05/2009
26967891	S01GX07	27/04/2010
26973183	S01GX07	27/05/2011
26970927	S01GX07	07/05/2007
27085083	S01GX07	31/05/2005
27087471	S01GX07	24/03/2009
27088372	S01GX07	30/05/2005
27021728	S01GX07	09/07/2009
27078255	S01GX07	17/04/2007
27084973	S01GX07	07/12/2005
27072992	S01GX07	21/08/2007
27043858	S01GX07	20/05/2011
27054780	S01GX07	05/05/2008
27061482	S01GX07	29/03/2011
27067240	S01GX07	19/05/2006
27052517	S01GX07	26/09/2008
27074961	S01GX07	25/04/2007
27078814	S01GX07	18/04/2007
27055530	S01GX07	29/07/2008
27031145	S01GX07	06/05/2011
27116340	S01GX07	22/10/2008
27012399	S01GX07	24/04/2007
26991921	S01GX07	19/06/2007
27014753	S01GX07	27/11/2008
27150732	S01GX07	22/10/2003
27168812	S01GX07	18/06/2010
27371657	S01GX07	01/06/2007
27170364	S01GX07	09/06/2010
27171948	S01GX07	31/05/2004
27388816	S01GX07	11/04/2011
27286059	S01GX07	02/05/2008
27236533	S01GX07	08/06/2004
27197012	S01GX07	07/04/2004
27365164	S01GX07	05/04/2005
27528322	S01GX07	31/05/2004
27173410	S01GX07	14/04/2010
26976230	S01GX07	05/09/2005
26988984	S01GX07	21/05/2007
26955621	S01GX07	15/04/2010
27237009	S01GX07	27/03/2009
26957237	S01GX07	20/05/2010
26988666	S01GX07	23/06/2010
27200549	S01GX07	06/02/2004
27251427	S01GX07	16/05/2007
27575329	S01GX07	28/04/2010
27641491	S01GX07	14/01/2009
27646878	S01GX07	13/09/2005
27415100	S01GX07	11/04/2011
27493631	S01GX07	04/06/2010
27414845	S01GX07	20/04/2011
27460445	S01GX07	17/08/2006
27472551	S01GX07	05/05/2008
27758847	S01GX07	02/01/2006
27764879	S01GX07	24/03/2011
27623279	S01GX07	04/09/2006
27556897	S01GX07	23/05/2011
27614866	S01GX07	01/06/2006
27694922	S01GX07	27/07/2007
27633086	S01GX07	12/04/2011
27285445	S01GX07	07/05/2010
27130014	S01GX07	09/06/2005
27284226	S01GX07	20/07/2005
27161557	S01GX07	14/07/2010
27000523	S01GX07	04/06/2010
26900477	S01GX07	18/08/2009
27022748	S01GX07	10/10/2007
27479087	S01GX07	08/09/2006
26981785	S01GX07	16/07/2008
27662387	S01GX07	25/05/2004
27716439	S01GX07	06/02/2009
27533902	S01GX07	03/06/2009
27686628	S01GX07	26/04/2011
27769906	S01GX07	28/08/2009
27532946	S01GX07	21/05/2009
27767877	S01GX07	27/06/2006
27459294	S01GX07	08/08/2005
22921854	S01GX07	07/04/2011
25713589	S01GX07	30/03/2009
27688363	S01GX07	09/05/2007
1014513	S01GX07	29/05/2006
26761997	S01GX07	08/06/2006
27591660	S01GX07	13/05/2005
27519199	S01GX07	23/06/2003
27620995	S01GX07	31/05/2010
27529553	S01GX07	12/09/2003
26933407	S01GX07	16/05/2011
27074467	S01GX07	14/06/2010
27037341	S01GX07	22/05/2006
21705761	S01GX07	30/09/2005
27695073	S01GX07	04/01/2011
26988777	S01GX07	16/09/2010
27764474	S01GX07	06/10/2005
27668986	S01GX07	04/06/2007
27764267	S01GX07	21/07/2009
179174	S01GX07	13/05/2003
27000149	S01GX07	08/03/2011
26835831	S01GX07	31/05/2006
27764778	S01GX07	18/05/2009
27052844	S01GX07	24/10/2005
26959063	S01GX07	23/08/2002
33061832	S01GX07	05/04/2010
33014402	S01GX07	11/05/2007
33073611	S01GX07	15/01/2008
33088355	S01GX07	08/10/2008
33033944	S01GX07	10/11/2005
33031382	S01GX07	19/09/2008
33066649	S01GX07	15/05/2007
33125136	S01GX07	10/12/2009
33060437	S01GX07	25/04/2007
33080053	S01GX07	12/03/2008
33098620	S01GX07	11/05/2010
33052633	S01GX07	24/04/2009
33099318	S01GX07	17/05/2007
33065720	S01GX07	21/02/2005
33089427	S01GX07	10/06/2008
33005077	S01GX07	23/05/2011
33004433	S01GX07	31/05/2011
33064809	S01GX07	20/08/2007
33034843	S01GX07	13/01/2005
33024979	S01GX07	20/01/2010
33123693	S01GX07	16/05/2011
33056441	S01GX07	26/05/2011
33024315	S01GX07	09/10/2009
33002612	S01GX07	17/05/2004
33065816	S01GX07	28/04/2008
33019197	S01GX07	13/05/2004
33067653	S01GX07	23/06/2010
26704007	S01GX07	15/05/2008
25624094	S01GX07	06/07/2006
27126798	S01GX07	12/05/2005
13498162	S01GX07	24/05/2010
27798156	S01GX07	01/06/2009
27810146	S01GX07	02/05/2009
27086613	S01GX07	08/06/2010
12980341	S01GX07	01/08/2006
33098294	S01GX07	23/05/2002
24661191	S01GX07	18/05/2009
28013502	S01GX07	23/06/2008
16630949	S01GX07	18/02/2004
33034636	S01GX07	23/05/2007
16602390	S01GX07	17/10/2009
23294826	S01GX07	18/11/2008
33000835	S01GX07	05/06/2007
33241195	S01GX07	17/11/2010
33022459	S01GX07	16/03/2009
33005071	S01GX07	24/06/2009
33106875	S01GX07	24/01/2008
33056325	S01GX07	15/11/2010
33100304	S01GX07	01/10/2007
33104781	S01GX07	05/03/2010
33099399	S01GX07	05/03/2007
33033482	S01GX07	15/09/2010
33104786	S01GX07	08/02/2011
33027037	S01GX07	14/08/2001
33065536	S01GX07	17/05/2011
33003698	S01GX07	16/04/2003
33005415	S01GX07	25/10/2007
33086557	S01GX07	22/05/2007
33034616	S01GX07	28/05/2010
33013714	S01GX07	20/08/2007
33089997	S01GX07	14/04/2010
33043674	S01GX07	17/06/2010
33030873	S01GX07	01/06/2011
33082095	S01GX07	15/09/2010
33093137	S01GX07	15/11/2005
33105580	S01GX07	02/11/2007
33077457	S01GX07	29/09/2003
33027780	S01GX07	29/12/2010
33040568	S01GX07	08/11/2004
23315706	S01GX07	18/04/2011
16625249	S01GX07	24/07/2006
16712490	S01GX07	28/05/2010
18768448	S01GX07	13/08/2007
16138404	S01GX07	24/03/2011
33305015	S01GX07	22/05/2010
18757479	S01GX07	25/02/2009
16607333	S01GX07	28/03/2005
16708563	S01GX07	04/05/2011
33235704	S01GX07	18/08/2010
18771349	S01GX07	01/10/2010
33292875	S01GX07	02/09/2008
14188303	S01GX07	28/09/2001
27857857	S01GX07	17/03/2011
18770211	S01GX07	27/05/2010
33245491	S01GX07	30/11/2009
16597365	S01GX07	26/04/2005
18762892	S01GX07	04/03/2008
21114264	S01GX07	08/04/2008
33293602	S01GX07	08/06/2009
27912578	S01GX07	30/06/2009
33310131	S01GX07	14/03/2008
16183931	S01GX07	09/06/2009
16601278	S01GX07	12/11/2009
28024777	S01GX07	26/05/2010
16183490	S01GX07	31/03/2010
33229250	S01GX07	05/01/2009
23254790	S01GX07	24/05/2010
33235104	S01GX07	12/02/2003
33249036	S01GX07	18/04/2011
23401531	S01GX07	13/05/2010
16124111	S01GX07	01/06/2006
23371267	S01GX07	11/04/2005
18768062	S01GX07	07/11/2006
16626172	S01GX07	15/09/2010
33250509	S01GX07	22/12/2010
16596274	S01GX07	18/02/2004
18755562	S01GX07	07/05/2009
16654674	S01GX07	11/05/2009
33308794	S01GX07	06/06/2005
33237229	S01GX07	12/05/2010
33206254	S01GX07	04/06/2010
16708154	S01GX07	05/05/2006
16613423	S01GX07	21/06/2005
16609724	S01GX07	21/03/2006
16640372	S01GX07	28/04/2006
20986175	S01GX07	17/09/2008
23354092	S01GX07	27/05/2009
16631801	S01GX07	12/04/2004
23366351	S01GX07	08/08/2009
16125129	S01GX07	17/11/2010
18762209	S01GX07	20/11/2007
16652097	S01GX07	18/05/2009
16596776	S01GX07	24/05/2010
16652192	S01GX07	07/06/2010
33239705	S01GX07	09/06/2009
27847657	S01GX07	15/04/2009
33200213	S01GX07	10/05/2011
27975673	S01GX07	27/05/2011
27998137	S01GX07	17/05/2011
16652101	S01GX07	05/11/2008
24206007	S01GX07	08/12/2009
23401612	S01GX07	08/09/2010
23386350	S01GX07	03/08/2007
16187323	S01GX07	31/07/2001
20985230	S01GX07	16/03/2011
28013056	S01GX07	09/01/2006
23349644	S01GX07	30/05/2006
16640253	S01GX07	05/04/2010
16634249	S01GX07	02/03/2010
16683312	S01GX07	20/05/2010
23364938	S01GX07	23/05/2008
16613437	S01GX07	13/07/2009
16184392	S01GX07	08/05/2007
23350017	S01GX07	31/05/2010
33228321	S01GX07	07/05/2008
16712863	S01GX07	02/05/2008
23401156	S01GX07	24/02/2011
16648484	S01GX07	17/03/2004
23354453	S01GX07	31/10/2007
23361939	S01GX07	19/03/2009
23367214	S01GX07	15/04/2008
23402322	S01GX07	11/04/2005
23349661	S01GX07	26/09/2007
21102586	S01GX07	04/04/2011
32192677	S01GX07	25/08/2004
31218333	S01GX07	11/05/2005
31590499	S01GX07	19/09/2006
31681468	S01GX07	01/07/2010
31891552	S01GX07	07/05/2008
31638063	S01GX07	02/06/2010
32183770	S01GX07	16/05/2006
31841135	S01GX07	26/05/2010
31178740	S01GX07	07/03/2006
31682199	S01GX07	24/05/2010
31823533	S01GX07	15/03/2005
31340724	S01GX07	05/07/2010
31536904	S01GX07	10/06/2004
31031406	S01GX07	14/09/2006
31595601	S01GX07	16/06/2006
31512526	S01GX07	12/04/2006
31146637	S01GX07	18/03/2007
31468035	S01GX07	03/04/2003
31175917	S01GX07	29/08/2008
31402907	S01GX07	14/06/2004
31577920	S01GX07	07/09/2004
31461047	S01GX07	27/12/2006
31083266	S01GX07	03/09/2008
31792571	S01GX07	09/05/2008
31114447	S01GX07	01/04/2009
32104654	S01GX07	11/06/2007
31979189	S01GX07	17/05/2005
31206100	S01GX07	26/05/2003
31901797	S01GX07	26/05/2008
31526161	S01GX07	19/05/2006
31757495	S01GX07	03/11/2008
31199545	S01GX07	11/05/2005
32067008	S01GX07	08/05/2006
32117825	S01GX07	18/05/2007
31678708	S01GX07	25/05/2004
31959179	S01GX07	01/03/2011
31986897	S01GX07	24/02/2011
31520067	S01GX07	17/05/2006
31183723	S01GX07	15/07/2009
31035751	S01GX07	04/10/2007
31654172	S01GX07	20/03/2009
31967739	S01GX07	17/01/2011
31586908	S01GX07	01/06/2007
31872807	S01GX07	27/10/2005
32020581	S01GX07	08/09/2003
32188546	S01GX07	14/05/2007
31822514	S01GX07	28/06/2006
31387411	S01GX07	12/05/2009
32166286	S01GX07	22/06/2006
31909504	S01GX07	23/05/2007
31644593	S01GX07	09/05/2006
32021516	S01GX07	18/05/2007
31447433	S01GX07	16/04/2004
31430433	S01GX07	20/05/2004
31520729	S01GX07	29/05/2007
31122373	S01GX07	19/01/2009
31910189	S01GX07	17/04/2008
31470502	S01GX07	27/05/2009
31327958	S01GX07	12/05/2009
31553657	S01GX07	18/05/2007
31067218	S01GX07	25/03/2008
31785640	S01GX07	15/07/2008
31970563	S01GX07	29/05/2007
31553248	S01GX07	27/04/2005
31698320	S01GX07	11/10/2006
31046930	S01GX07	07/12/2009
31301711	S01GX07	27/03/2008
32030891	S01GX07	17/05/2006
31851804	S01GX07	11/07/2008
31862704	S01GX07	14/05/2007
32188596	S01GX07	01/06/2007
31285770	S01GX07	31/05/2010
31850705	S01GX07	16/06/2003
31089828	S01GX07	14/02/2006
31245074	S01GX07	31/01/2008
32059302	S01GX07	07/05/2010
31436838	S01GX07	25/03/2009
31246565	S01GX07	16/05/2000
32021529	S01GX07	21/05/2009
32141968	S01GX07	29/06/2009
31815556	S01GX07	30/03/2009
31075532	S01GX07	05/07/2005
32059362	S01GX07	06/05/2005
32067477	S01GX07	16/05/2006
31454692	S01GX07	26/03/2004
31744969	S01GX07	17/05/2006
31567596	S01GX07	05/04/2005
31269212	S01GX07	30/05/2008
31712570	S01GX07	05/06/2007
31460267	S01GX07	03/05/2006
31326832	S01GX07	06/06/2005
31779664	S01GX07	09/05/2006
31637616	S01GX07	16/05/2006
32002925	S01GX07	13/07/2004
31412392	S01GX07	28/03/2007
32017201	S01GX07	19/09/2002
31045812	S01GX07	09/03/2004
31515382	S01GX07	22/01/2008
31794769	S01GX07	03/06/2004
31099227	S01GX07	11/04/2007
31443115	S01GX07	13/06/2008
31077090	S01GX07	25/06/2007
32282398	S01GX07	27/02/2007
32066481	S01GX07	04/04/2007
31789084	S01GX07	09/03/2006
31523575	S01GX07	23/03/2006
31153059	S01GX07	18/11/2005
31536387	S01GX07	04/04/2006
31128087	S01GX07	23/07/2004
31244892	S01GX07	14/04/2009
32033587	S01GX07	21/12/2009
31421234	S01GX07	22/06/2007
31714340	S01GX07	16/04/2007
31991913	S01GX07	14/05/2007
31166024	S01GX07	12/03/2008
31746215	S01GX07	21/03/2005
32027600	S01GX07	29/05/2009
31066162	S01GX07	04/05/2004
32253318	S01GX07	09/02/2007
32024922	S01GX07	03/03/2008
31894605	S01GX07	23/05/2007
31756596	S01GX07	19/05/2004
31690269	S01GX07	26/07/2004
31309597	S01GX07	07/04/2009
31479774	S01GX07	06/02/2003
31458645	S01GX07	31/10/2006
31720996	S01GX07	11/10/2006
31903707	S01GX07	29/03/2010
31423356	S01GX07	07/05/2007
31952893	S01GX07	30/05/2006
32152162	S01GX07	14/05/2007
32282934	S01GX07	22/05/2006
31196147	S01GX07	06/04/2011
31149817	S01GX07	11/04/2011
31925006	S01GX07	20/05/2009
31302323	S01GX07	13/02/2008
32093674	S01GX07	08/06/2007
31813777	S01GX07	15/05/2009
31703573	S01GX07	16/06/2008
31931558	S01GX07	07/03/2005
31261965	S01GX07	08/04/2008
31155017	S01GX07	08/10/2009
32067365	S01GX07	23/06/2006
31046620	S01GX07	10/09/2003
31201536	S01GX07	30/05/2007
32278810	S01GX07	27/04/2004
31662217	S01GX07	12/02/2010
31060856	S01GX07	03/05/2010
31137034	S01GX07	21/05/2002
31981387	S01GX07	04/12/2009
31957151	S01GX07	03/05/2007
31161794	S01GX07	17/07/2008
32184171	S01GX07	15/07/2008
31198323	S01GX07	19/03/2007
31506294	S01GX07	06/04/2005
31168524	S01GX07	06/08/2004
31962312	S01GX07	25/10/2005
31490573	S01GX07	20/03/2009
31382749	S01GX07	23/05/2006
31506437	S01GX07	08/05/2009
31939930	S01GX07	29/05/2009
31489393	S01GX07	17/04/2007
31895340	S01GX07	25/03/2009
32232109	S01GX07	17/01/2011
31416750	S01GX07	01/06/2006
31671236	S01GX07	05/04/2010
31269534	S01GX07	19/04/2007
31326468	S01GX07	29/04/2010
32274565	S01GX07	20/05/2009
31378501	S01GX07	15/12/2006
31788329	S01GX07	07/06/2010
31774644	S01GX07	10/05/2005
31975805	S01GX07	11/05/2009
31647102	S01GX07	25/01/2005
31807531	S01GX07	27/01/2004
32019169	S01GX07	29/08/2006
32077670	S01GX07	29/04/2009
31126133	S01GX07	30/01/2006
31539606	S01GX07	18/05/2010
31612837	S01GX07	01/02/2008
31921033	S01GX07	14/03/2007
31935285	S01GX07	25/03/2009
31184461	S01GX07	11/04/2007
32200828	S01GX07	08/04/2005
31569390	S01GX07	16/03/2004
31298549	S01GX07	29/09/2009
31536647	S01GX07	10/06/2008
31431642	S01GX07	10/03/2006
32279203	S01GX07	27/05/2010
31954288	S01GX07	03/03/2009
31323296	S01GX07	21/05/2008
31732736	S01GX07	03/04/2007
31143978	S01GX07	14/07/2006
31229693	S01GX07	22/02/2011
31928282	S01GX07	06/04/2011
31529452	S01GX07	13/01/2006
31304698	S01GX07	13/02/2009
31107851	S01GX07	05/03/2008
31291547	S01GX07	09/06/2004
31163879	S01GX07	18/07/2007
31486343	S01GX07	24/06/2008
32110749	S01GX07	05/07/2006
31115224	S01GX07	07/06/2004
31574783	S01GX07	13/07/2005
31597504	S01GX07	19/05/2010
31804296	S01GX07	23/01/2006
31518348	S01GX07	26/03/2007
32253466	S01GX07	02/04/2009
31245630	S01GX07	09/04/2003
31480655	S01GX07	10/05/2005
31892312	S01GX07	27/05/2008
31215447	S01GX07	23/05/2008
32091657	S01GX07	11/05/2005
31577314	S01GX07	10/05/2005
31585198	S01GX07	14/05/2007
31395602	S01GX07	03/12/2008
31106394	S01GX07	22/05/2007
31361602	S01GX07	14/07/2010
31584680	S01GX07	10/05/2007
31126064	S01GX07	31/10/2007
31398097	S01GX07	15/12/2006
32090622	S01GX07	06/06/2006
32109635	S01GX07	22/11/2004
31751005	S01GX07	31/05/2011
31514351	S01GX07	28/05/2010
31051840	S01GX07	16/11/2009
31454481	S01GX07	23/09/2008
31633492	S01GX07	12/05/2008
31559291	S01GX07	31/03/2006
31116354	S01GX07	08/07/2005
31267955	S01GX07	03/08/2005
31594316	S01GX07	08/02/2008
31790134	S01GX07	20/06/2007
31528765	S01GX07	18/03/2004
32036407	S01GX07	15/02/2010
31240495	S01GX07	30/05/2007
32273148	S01GX07	08/05/2009
31951386	S01GX07	18/06/2004
31293037	S01GX07	17/03/2009
31089113	S01GX07	29/05/2009
31437057	S01GX07	18/02/2005
31726075	S01GX07	09/05/2008
31589835	S01GX07	26/06/2007
31575149	S01GX07	08/05/2006
31733685	S01GX07	04/05/2010
31671566	S01GX07	17/05/2007
31657716	S01GX07	05/06/2007
32030746	S01GX07	26/02/2009
31682920	S01GX07	03/06/2009
31721691	S01GX07	01/06/2001
31791586	S01GX07	22/05/2006
31075048	S01GX07	12/05/2006
