patient_id	covar_name	date
8278064	S01GX10	20/10/2009
12171465	S01GX10	27/07/2005
8582021	S01GX10	02/11/2006
1212257	S01GX10	14/02/2011
1638022	S01GX10	22/04/2010
1640617	S01GX10	10/11/2010
25892709	S01GX10	20/12/2010
192085	S01GX10	10/02/2005
21282892	S01GX10	09/02/2010
2759226	S01GX10	07/03/2005
437604	S01GX10	18/04/2008
28062996	S01GX10	20/06/2008
28072320	S01GX10	16/04/2008
28054497	S01GX10	04/06/2009
26625814	S01GX10	07/04/2010
24578829	S01GX10	24/02/2006
27041217	S01GX10	20/03/2009
27348986	S01GX10	29/09/2008
27347663	S01GX10	12/02/2008
27772101	S01GX10	14/11/2006
27589537	S01GX10	22/07/2005
26623395	S01GX10	13/06/2006
27662240	S01GX10	21/11/2007
27782658	S01GX10	04/07/2007
33028879	S01GX10	08/05/2006
33050061	S01GX10	31/10/2007
33012303	S01GX10	14/10/2004
16567941	S01GX10	22/04/2010
33056325	S01GX10	05/01/2010
33053146	S01GX10	14/12/2007
16138565	S01GX10	23/08/2006
16616087	S01GX10	07/06/2010
31525679	S01GX10	08/11/2006
31719362	S01GX10	01/10/2007
31140970	S01GX10	17/06/2009
32211758	S01GX10	26/12/2007
31283139	S01GX10	26/05/2006
31990859	S01GX10	21/11/2008
32149623	S01GX10	13/10/2009
31197508	S01GX10	16/03/2009
32083993	S01GX10	18/01/2006
31333055	S01GX10	13/07/2005
32133275	S01GX10	22/09/2005
