patient_id	covar_name	date
9371955	S01ED03	24/03/2009
8783486	S01ED03	13/05/2011
3054353	S01ED03	14/05/2001
7137238	S01ED03	03/12/2007
7229425	S01ED03	08/09/2004
427053	S01ED03	11/01/2005
24665519	S01ED03	09/11/2001
26938458	S01ED03	15/05/2005
26851788	S01ED03	16/05/2007
27384510	S01ED03	08/01/2009
27668538	S01ED03	05/02/2002
27775176	S01ED03	14/02/2009
33043194	S01ED03	14/06/2005
33015203	S01ED03	20/05/2011
16639783	S01ED03	11/05/2011
23367680	S01ED03	01/06/2011
31584781	S01ED03	08/03/2002
31833066	S01ED03	21/04/2003
31247441	S01ED03	27/03/2007
32205096	S01ED03	29/11/2006
31190425	S01ED03	10/12/2008
