patient_id	covar_name	date
8784390	S01AX13	06/10/2005
6094356	S01AX13	13/01/2009
9372370	S01AX13	08/06/2004
3335943	S01AX13	13/01/2003
9215041	S01AX13	26/03/2004
8784830	S01AX13	20/06/2006
9283435	S01AX13	20/08/2008
9250506	S01AX13	05/05/2011
12695112	S01AX13	11/04/2011
10245464	S01AX13	26/05/2006
6752622	S01AX13	07/02/2011
175156	S01AX13	03/08/2004
15667860	S01AX13	20/10/2004
5031417	S01AX13	30/04/2010
5031929	S01AX13	06/10/2008
9295737	S01AX13	03/03/2008
5031166	S01AX13	05/10/2009
1301536	S01AX13	15/04/2004
9339219	S01AX13	16/07/2010
1515199	S01AX13	21/08/2009
8977051	S01AX13	14/03/2007
20566164	S01AX13	27/03/2001
8567599	S01AX13	18/06/2008
9309280	S01AX13	30/07/2010
1516892	S01AX13	06/09/2006
12858903	S01AX13	02/06/2006
1123996	S01AX13	27/01/2010
6749295	S01AX13	11/05/2004
1335438	S01AX13	29/01/2003
10266053	S01AX13	07/07/2004
8784083	S01AX13	13/10/2009
12186350	S01AX13	23/03/2011
8655470	S01AX13	19/07/2010
6751810	S01AX13	26/10/2010
9373480	S01AX13	12/12/2008
7780208	S01AX13	27/02/2009
1848778	S01AX13	07/11/2006
7231691	S01AX13	07/08/2009
7824048	S01AX13	22/08/2000
1090583	S01AX13	11/02/2011
7231434	S01AX13	30/05/2007
7847087	S01AX13	16/09/2010
8954744	S01AX13	09/04/2009
7801045	S01AX13	10/06/2004
1263626	S01AX13	15/06/2006
6841910	S01AX13	28/07/2009
641968	S01AX13	16/10/2003
404974	S01AX13	23/07/2003
648547	S01AX13	16/01/2006
1851260	S01AX13	05/06/2001
6951044	S01AX13	16/10/2007
25768738	S01AX13	19/12/2006
1132264	S01AX13	02/08/2005
1135144	S01AX13	25/05/2011
1638708	S01AX13	28/04/2009
1132387	S01AX13	29/04/2008
1642048	S01AX13	14/01/2009
1642032	S01AX13	12/06/2008
25768791	S01AX13	14/10/2005
1557815	S01AX13	23/12/2008
1102247	S01AX13	03/06/2008
487179	S01AX13	17/03/2011
486570	S01AX13	04/03/2002
134966	S01AX13	07/03/2006
4688914	S01AX13	25/07/2003
1131941	S01AX13	14/07/2004
1638528	S01AX13	11/03/2009
1646970	S01AX13	05/03/2009
486308	S01AX13	20/05/2005
1578839	S01AX13	22/11/2010
1102009	S01AX13	19/04/2005
1100552	S01AX13	10/08/2009
5680756	S01AX13	15/01/2008
716180	S01AX13	26/12/2007
1099283	S01AX13	21/10/2002
25776375	S01AX13	06/03/2008
2069789	S01AX13	02/01/2009
2140359	S01AX13	26/05/2008
2112990	S01AX13	08/09/2006
1755667	S01AX13	05/07/2006
905642	S01AX13	24/02/2011
757643	S01AX13	25/05/2009
2038100	S01AX13	29/12/2008
901433	S01AX13	12/02/2007
3050006	S01AX13	21/07/2005
2753895	S01AX13	30/01/2008
2752941	S01AX13	08/02/2008
2756861	S01AX13	11/09/2007
2753366	S01AX13	31/07/2006
26410884	S01AX13	15/03/2004
28062623	S01AX13	03/03/2004
26383425	S01AX13	12/12/2009
17742364	S01AX13	03/03/2010
26478954	S01AX13	30/06/2010
434153	S01AX13	03/07/2008
20146685	S01AX13	05/03/2010
904811	S01AX13	23/12/2008
7137629	S01AX13	27/04/2009
2525968	S01AX13	26/09/2003
303884	S01AX13	02/11/2009
28088132	S01AX13	03/11/2004
28058919	S01AX13	23/01/2009
25743561	S01AX13	04/01/2008
25588570	S01AX13	14/12/2010
24658487	S01AX13	18/03/2010
24666053	S01AX13	09/07/2007
24670701	S01AX13	12/04/2011
1903859	S01AX13	24/08/2009
420694	S01AX13	26/04/2001
1361706	S01AX13	21/12/2005
1372573	S01AX13	08/06/1999
24659456	S01AX13	07/07/2005
19801596	S01AX13	20/11/2007
1907662	S01AX13	19/09/2007
1904262	S01AX13	07/04/2010
1363174	S01AX13	20/10/2000
1899411	S01AX13	20/04/2007
26833971	S01AX13	22/11/2010
26790332	S01AX13	16/09/2005
26801033	S01AX13	10/05/2011
26831550	S01AX13	02/01/2008
12993757	S01AX13	09/03/2006
16567909	S01AX13	22/08/2005
16843515	S01AX13	05/01/2009
26935278	S01AX13	22/10/2008
26933127	S01AX13	14/01/2003
26894392	S01AX13	01/03/2008
26889892	S01AX13	17/06/2010
26716443	S01AX13	11/05/2010
26716873	S01AX13	12/12/2006
26857281	S01AX13	17/06/2004
26888469	S01AX13	05/06/2008
26938380	S01AX13	26/11/2007
26772360	S01AX13	05/07/2008
26835056	S01AX13	17/04/2007
26981451	S01AX13	19/07/2007
27060946	S01AX13	12/09/2008
27042121	S01AX13	18/06/2007
27025820	S01AX13	10/01/2006
27168097	S01AX13	27/08/2009
27244538	S01AX13	25/03/2011
27198906	S01AX13	02/07/2003
27356518	S01AX13	12/08/2005
27300731	S01AX13	03/06/2009
27253841	S01AX13	26/03/2008
26992572	S01AX13	28/10/2008
27659256	S01AX13	17/05/2010
27596955	S01AX13	19/07/2010
27455295	S01AX13	15/10/2008
27456887	S01AX13	05/06/2009
27460664	S01AX13	28/06/2010
27756287	S01AX13	25/06/2009
27720513	S01AX13	29/07/2010
27558277	S01AX13	02/06/2010
27165352	S01AX13	25/01/2006
27285477	S01AX13	19/08/2008
27162937	S01AX13	05/02/2011
20070922	S01AX13	11/10/2007
27641770	S01AX13	30/05/2011
12974157	S01AX13	24/05/2011
27675622	S01AX13	18/11/2009
27533977	S01AX13	02/10/2008
27674475	S01AX13	01/07/2010
27686452	S01AX13	02/10/2006
27680700	S01AX13	22/01/2009
27680726	S01AX13	27/02/2009
27671191	S01AX13	25/06/2001
27508441	S01AX13	14/01/2002
27496273	S01AX13	22/01/2009
27456300	S01AX13	22/10/2010
16568199	S01AX13	01/09/2001
26619933	S01AX13	22/03/2011
27670711	S01AX13	05/12/2000
27719027	S01AX13	29/11/2007
27644928	S01AX13	15/06/2007
304327	S01AX13	18/07/2005
27552644	S01AX13	26/01/2010
26935765	S01AX13	05/09/2006
33051320	S01AX13	09/11/2009
33057954	S01AX13	13/02/2007
33018984	S01AX13	10/01/2008
33051475	S01AX13	09/12/2009
33011602	S01AX13	18/02/2009
33074802	S01AX13	07/05/2008
33003086	S01AX13	19/11/2008
33005585	S01AX13	16/02/2011
33068451	S01AX13	05/10/2006
33102482	S01AX13	22/02/2010
33050069	S01AX13	25/05/2010
33056431	S01AX13	14/11/2008
33070878	S01AX13	17/02/2011
33003004	S01AX13	13/02/2007
33072303	S01AX13	03/02/2009
33018999	S01AX13	26/09/2005
33111782	S01AX13	26/11/2008
33112070	S01AX13	29/03/2011
33033208	S01AX13	18/03/2008
33098168	S01AX13	18/03/2008
33065393	S01AX13	04/06/2008
33045184	S01AX13	10/08/2009
33065816	S01AX13	27/01/2009
33067653	S01AX13	12/11/2010
33012294	S01AX13	09/02/2004
33054849	S01AX13	04/09/2006
1029165	S01AX13	15/05/2006
27680372	S01AX13	17/07/2006
33020523	S01AX13	30/11/2004
33253807	S01AX13	07/12/2008
16167141	S01AX13	19/01/2011
16602253	S01AX13	22/11/2007
16708369	S01AX13	18/01/2010
33252437	S01AX13	07/11/2008
33105641	S01AX13	23/09/2009
33004734	S01AX13	19/06/2009
33020265	S01AX13	26/06/2009
33080699	S01AX13	04/04/2011
33124927	S01AX13	20/03/2009
33091566	S01AX13	09/05/2008
33104544	S01AX13	20/05/2008
33070455	S01AX13	17/05/2007
33065950	S01AX13	06/09/2010
33026483	S01AX13	27/12/2006
33006476	S01AX13	25/09/2009
33033838	S01AX13	08/07/2010
33093137	S01AX13	19/08/2005
33099087	S01AX13	07/03/2008
33004431	S01AX13	07/06/2010
33051467	S01AX13	30/12/2010
33103069	S01AX13	25/03/2009
33066715	S01AX13	26/11/2009
33072181	S01AX13	14/12/2010
33304646	S01AX13	06/09/2010
16706289	S01AX13	14/03/2008
23408318	S01AX13	11/01/2008
27848149	S01AX13	12/01/2011
18768749	S01AX13	06/09/2005
33232471	S01AX13	04/08/2003
16178935	S01AX13	30/03/2010
18765730	S01AX13	04/01/2005
23412008	S01AX13	27/07/2009
23346827	S01AX13	07/03/2006
16124191	S01AX13	19/11/2008
23381987	S01AX13	12/04/2010
27928159	S01AX13	12/09/2007
23354037	S01AX13	24/04/2009
16124919	S01AX13	04/09/2008
23412762	S01AX13	16/03/2006
18761907	S01AX13	13/05/2008
23326929	S01AX13	01/10/2008
16605657	S01AX13	14/02/2011
23412051	S01AX13	28/05/2010
16684088	S01AX13	14/06/2007
23382501	S01AX13	21/02/2011
16705838	S01AX13	19/02/2007
33306306	S01AX13	27/04/2010
23334083	S01AX13	08/07/2009
23381215	S01AX13	17/12/2004
33296805	S01AX13	08/04/2009
23349604	S01AX13	06/09/2010
23368271	S01AX13	13/08/2009
16609745	S01AX13	12/03/2009
23354151	S01AX13	28/02/2011
28013056	S01AX13	01/02/2011
23346655	S01AX13	15/06/2006
27914427	S01AX13	12/05/2009
16610952	S01AX13	20/12/2007
16603341	S01AX13	27/11/2003
16685047	S01AX13	20/11/2006
27848565	S01AX13	08/10/2004
27895998	S01AX13	20/11/2006
23353743	S01AX13	26/05/2008
23353940	S01AX13	17/05/2006
33265063	S01AX13	29/10/2009
31931929	S01AX13	24/09/1999
31811964	S01AX13	25/07/2007
32035438	S01AX13	04/01/2011
31641080	S01AX13	05/11/2008
31590841	S01AX13	23/09/2005
32279478	S01AX13	13/03/2006
32147868	S01AX13	27/10/2003
31588614	S01AX13	13/03/2008
31749706	S01AX13	15/01/2010
32261829	S01AX13	15/03/2005
31784324	S01AX13	24/10/2007
31575453	S01AX13	23/08/2005
31841569	S01AX13	10/06/2008
31211312	S01AX13	28/05/2003
31865846	S01AX13	26/07/2007
31315923	S01AX13	03/03/2006
32210848	S01AX13	29/03/2005
31706400	S01AX13	18/10/2004
31049207	S01AX13	26/01/2009
32271701	S01AX13	14/06/2005
31087924	S01AX13	24/05/2005
32003001	S01AX13	17/08/2007
31048294	S01AX13	04/08/2005
31949827	S01AX13	28/11/2006
31716553	S01AX13	20/11/2003
31150559	S01AX13	24/10/2006
31102291	S01AX13	07/11/2006
32170156	S01AX13	19/05/2010
31466507	S01AX13	30/03/2007
31124148	S01AX13	24/01/2005
31977828	S01AX13	07/02/2011
31847576	S01AX13	16/10/2008
31568634	S01AX13	14/09/2006
31849656	S01AX13	11/12/2009
32244255	S01AX13	14/03/2006
31670086	S01AX13	02/02/2006
32262387	S01AX13	09/07/2004
31941810	S01AX13	03/12/2007
31307903	S01AX13	19/10/2006
31298511	S01AX13	31/07/2006
32229216	S01AX13	25/04/2005
32112412	S01AX13	14/05/2008
32032672	S01AX13	30/05/2007
31729337	S01AX13	29/10/2009
31142174	S01AX13	23/10/2006
32155481	S01AX13	08/03/2007
31559062	S01AX13	04/04/2008
31580987	S01AX13	29/05/2007
32033587	S01AX13	23/10/2009
31593707	S01AX13	20/09/2006
31981150	S01AX13	25/05/2005
32237041	S01AX13	11/09/2007
31837765	S01AX13	27/06/2006
31556823	S01AX13	22/11/2002
32099327	S01AX13	23/10/2006
31784180	S01AX13	10/02/2009
32046883	S01AX13	01/02/2006
32037041	S01AX13	09/02/2007
31354062	S01AX13	26/06/2006
32090511	S01AX13	21/02/2005
31367573	S01AX13	29/05/2008
31153085	S01AX13	14/07/2010
31204965	S01AX13	27/11/2007
31420535	S01AX13	09/12/2008
31370565	S01AX13	13/10/2005
31261965	S01AX13	15/05/2006
31244492	S01AX13	24/08/2005
31916613	S01AX13	18/10/2005
31997341	S01AX13	20/05/2005
31075396	S01AX13	29/05/2008
31684900	S01AX13	13/05/2005
32156190	S01AX13	04/12/2006
31981387	S01AX13	07/09/2009
31924861	S01AX13	11/03/2010
31256796	S01AX13	06/05/2008
31653453	S01AX13	03/11/2010
31054169	S01AX13	11/03/2008
31087698	S01AX13	05/06/2007
31559202	S01AX13	01/07/2010
31318646	S01AX13	02/11/2007
31225795	S01AX13	15/06/2004
31835678	S01AX13	17/12/2004
32118813	S01AX13	05/09/2005
32221337	S01AX13	29/12/2006
31626869	S01AX13	24/03/2008
31092882	S01AX13	07/03/2005
31116354	S01AX13	13/04/2005
31788106	S01AX13	27/12/2006
32105540	S01AX13	17/12/2007
32062791	S01AX13	13/01/2011
31837479	S01AX13	22/08/2006
31968147	S01AX13	08/08/2007
32282393	S01AX13	05/01/2006
32200995	S01AX13	11/04/2005
31492578	S01AX13	29/07/2002
31657716	S01AX13	03/10/2007
31133575	S01AX13	24/04/2006
31653454	S01AX13	07/04/2011
