patient_id	covar_name	date
1123839	S01FA06	05/05/2006
7244070	S01FA06	10/10/2007
6757586	S01FA06	10/05/2006
1732204	S01FA06	18/04/2007
9982943	S01FA06	18/10/2005
12689831	S01FA06	28/01/2008
20549671	S01FA06	02/11/2009
731536	S01FA06	17/03/2011
12857769	S01FA06	02/04/2008
175156	S01FA06	23/05/2002
7351316	S01FA06	24/04/2006
19185008	S01FA06	11/06/2008
7152251	S01FA06	28/03/2008
10245771	S01FA06	17/05/2005
12173193	S01FA06	13/02/2004
704017	S01FA06	11/02/2005
6745339	S01FA06	10/02/2006
12789493	S01FA06	16/08/2010
1517495	S01FA06	20/12/2007
7160936	S01FA06	11/05/2005
8699018	S01FA06	14/06/2007
12857039	S01FA06	23/04/2009
3292946	S01FA06	28/05/2010
160857	S01FA06	14/02/2007
21369799	S01FA06	09/03/2004
12856801	S01FA06	08/09/2008
23471965	S01FA06	09/06/2010
8582021	S01FA06	17/12/2002
9304423	S01FA06	05/02/2010
16979253	S01FA06	30/03/2009
9372568	S01FA06	28/10/2005
15667822	S01FA06	12/12/2005
24730202	S01FA06	03/01/2005
6415450	S01FA06	17/08/2006
13986458	S01FA06	15/01/2009
1642048	S01FA06	14/01/2009
1557815	S01FA06	23/12/2008
487179	S01FA06	17/03/2011
1578839	S01FA06	11/03/2010
1102009	S01FA06	11/11/2004
1099283	S01FA06	21/11/2001
2069151	S01FA06	09/11/2007
3055190	S01FA06	21/11/2003
2521846	S01FA06	27/12/2006
28062623	S01FA06	06/07/2006
7228407	S01FA06	28/08/2009
7229461	S01FA06	23/04/2010
7229425	S01FA06	26/09/2008
1900723	S01FA06	19/01/2011
2959751	S01FA06	09/09/2003
904811	S01FA06	23/12/2008
28090931	S01FA06	22/08/2005
2055267	S01FA06	29/10/2007
28087444	S01FA06	08/11/2006
1371652	S01FA06	30/12/2002
18191861	S01FA06	08/10/2007
26847529	S01FA06	16/05/2006
27211300	S01FA06	24/11/2010
27361885	S01FA06	03/10/2005
27237373	S01FA06	21/03/2006
27247425	S01FA06	02/01/2006
27683287	S01FA06	11/11/2003
27671191	S01FA06	21/05/2001
33051320	S01FA06	24/04/2009
33030987	S01FA06	09/01/2006
33019657	S01FA06	23/06/2008
33110326	S01FA06	28/01/2010
33072303	S01FA06	03/02/2009
33065393	S01FA06	19/05/2008
1361620	S01FA06	25/11/2003
27248892	S01FA06	14/05/2009
16167141	S01FA06	19/01/2011
33252437	S01FA06	01/06/2010
33105641	S01FA06	02/09/2009
33020265	S01FA06	27/11/2008
33050802	S01FA06	01/02/2007
33045325	S01FA06	25/09/2007
33099087	S01FA06	10/10/2007
33066715	S01FA06	26/11/2009
33072181	S01FA06	26/06/2006
33304646	S01FA06	06/09/2010
23315706	S01FA06	04/02/2008
16706289	S01FA06	14/03/2008
18758883	S01FA06	12/03/2007
33254338	S01FA06	28/09/2010
16618603	S01FA06	07/01/2011
16596474	S01FA06	09/10/2009
33208331	S01FA06	18/01/2011
16601443	S01FA06	08/07/2008
33312615	S01FA06	30/03/2011
18757767	S01FA06	11/05/2011
16178935	S01FA06	30/03/2010
27849109	S01FA06	02/04/2009
21110542	S01FA06	16/09/2009
21010991	S01FA06	04/03/2008
23340392	S01FA06	11/11/2010
16604495	S01FA06	08/01/2009
16596274	S01FA06	07/05/2004
16626274	S01FA06	05/12/2005
16127501	S01FA06	24/02/2010
16183731	S01FA06	04/06/2008
23354037	S01FA06	24/04/2009
16125107	S01FA06	24/09/2010
16124919	S01FA06	04/09/2008
23327123	S01FA06	27/05/2011
16648142	S01FA06	06/07/2009
33308567	S01FA06	25/01/2011
23318897	S01FA06	16/06/2009
16609745	S01FA06	12/03/2009
16610952	S01FA06	20/12/2007
28020061	S01FA06	11/05/2009
27895998	S01FA06	20/11/2006
16186784	S01FA06	12/06/2006
23353743	S01FA06	26/05/2008
31977625	S01FA06	21/12/2004
32100781	S01FA06	26/03/2010
31634372	S01FA06	09/02/2005
31400996	S01FA06	28/12/2004
32194913	S01FA06	11/05/2009
32159566	S01FA06	21/07/2003
31230585	S01FA06	11/08/2008
31140970	S01FA06	26/03/2008
31462347	S01FA06	21/12/2010
31390699	S01FA06	18/09/2006
32214444	S01FA06	15/10/2008
32056435	S01FA06	12/06/2008
31219050	S01FA06	21/01/2011
31070304	S01FA06	23/05/2007
31685190	S01FA06	30/10/2007
31061135	S01FA06	27/05/2005
32118712	S01FA06	13/12/2005
31331386	S01FA06	23/03/2006
31420909	S01FA06	17/05/2005
31150559	S01FA06	17/03/2008
31633993	S01FA06	17/04/2009
31249724	S01FA06	26/01/2006
31741824	S01FA06	30/12/2005
32229216	S01FA06	10/07/2006
32032672	S01FA06	03/05/2006
31750115	S01FA06	04/12/2006
32136529	S01FA06	23/03/2007
31833066	S01FA06	06/11/2002
31068246	S01FA06	21/10/2005
32199849	S01FA06	16/10/2006
31696035	S01FA06	05/05/2009
31516751	S01FA06	25/07/2007
31652501	S01FA06	09/04/2008
32090511	S01FA06	15/01/2008
32148445	S01FA06	18/09/2007
31153085	S01FA06	06/03/2008
31140552	S01FA06	23/09/2008
31972152	S01FA06	09/07/2009
32008235	S01FA06	15/10/2004
31197508	S01FA06	16/03/2009
31738105	S01FA06	02/06/2010
31526682	S01FA06	08/10/2009
31067422	S01FA06	09/03/2005
31783569	S01FA06	12/12/2006
32007468	S01FA06	24/07/2008
31534740	S01FA06	09/01/2009
32200828	S01FA06	08/04/2005
32093512	S01FA06	05/08/2010
31309958	S01FA06	02/12/2004
31216309	S01FA06	15/11/2006
31073086	S01FA06	26/02/2004
31811807	S01FA06	11/11/2005
31812042	S01FA06	06/06/2007
31071531	S01FA06	03/05/2004
32127265	S01FA06	23/03/2006
31937215	S01FA06	23/10/2003
32254230	S01FA06	05/05/2009
31436135	S01FA06	30/05/2007
31466903	S01FA06	13/02/2008
31065530	S01FA06	04/03/2011
31492578	S01FA06	03/07/2002
31464524	S01FA06	21/10/2009
32205678	S01FA06	05/01/2005
31807657	S01FA06	29/11/2004
