patient_id	covar_name	date
6757389	TAQVEN	14/08/2009
1517390	TAQVEN	31/08/2010
26824728	TAQVEN	06/01/2008
27116935	TAQVEN	12/05/2011
26989196	TAQVEN	31/08/2001
33001939	TAQVEN	26/01/2009
23335211	TAQVEN	16/09/2010
18757638	TAQVEN	19/09/1966
31996547	TAQVEN	20/04/2006
31841569	TAQVEN	19/12/2000
31727616	TAQVEN	13/11/2009
32160280	TAQVEN	25/05/2007
32189793	TAQVEN	16/08/2006
31741523	TAQVEN	05/07/2005
32138458	TAQVEN	01/03/2005
31451631	TAQVEN	22/02/2007
31638728	TAQVEN	23/12/2002
